# {"t_start": 1547636409.0620987, "env_id": "RoboschoolHumanoid-v1"} 
r,l,t
-101.037448,19,3.765941
-101.920021,20,4.367762
-68.712477,17,4.933542
-83.757677,19,5.602965
-109.591223,17,6.250278
-86.219903,18,6.93484
-96.223305,25,7.93242
-109.10848,18,8.63581
-101.639953,19,9.291022
-69.407793,20,9.945576
-94.785292,18,10.76412
-89.369912,18,11.507139
-81.237078,19,12.344006
-120.700827,20,13.322491
-103.319727,19,14.255747
-71.644237,19,14.950644
-95.226206,19,15.831197
-85.359719,20,16.538135
-112.535997,20,17.369493
-92.411646,18,18.03654
-110.600262,19,18.74337
-60.743182,17,19.390341
-98.419229,20,20.153126
-95.450346,19,21.052751
-88.425044,17,21.852937
-79.179707,18,22.722853
-77.698264,18,23.389754
-108.109061,20,1999.969126
-87.591474,19,2000.881478
-99.790004,18,2001.94828
-114.681087,18,2003.011172
-98.857885,18,2004.024101
-141.581326,28,2005.963256
-92.372173,19,2007.019112
-79.383729,18,2007.93735
-84.194038,19,2008.984129
-106.442553,19,2010.05249
-107.078992,21,2011.248728
-78.198884,18,2011.892684
-90.982982,22,2012.809819
-112.649579,26,2014.209186
-68.054391,19,2015.010283
-102.500499,21,2016.157784
-101.859608,17,2017.06892
-130.701095,22,2018.353062
-75.990327,17,2019.321416
-89.241203,20,2020.48776
-115.737195,27,2022.082759
-124.399302,17,2023.017973
-104.750538,22,2024.452607
-79.972863,20,2025.500362
-114.015568,23,2026.73399
-89.684324,19,4058.6332
-87.808249,19,4059.681717
-100.42011,19,4060.798343
-101.253017,19,4061.711318
-109.424602,24,4062.797785
-92.048729,18,4063.690231
-74.688571,19,4064.390271
-104.376666,17,4065.102031
-113.502277,21,4065.930153
-73.961716,20,4066.862399
-79.777065,20,4067.860664
-113.679152,19,4068.934563
-103.912286,26,4070.224614
-106.628928,19,4071.302281
-75.469381,19,4072.138042
-81.376902,18,4072.715691
-115.353367,19,4073.530833
-83.861267,18,4074.444651
-77.047943,20,4075.441632
-82.92757,18,4076.290287
-89.31722,20,4077.313014
-112.70465,26,4078.589548
-114.981043,21,4079.626607
-115.132858,19,4080.515012
-73.067081,18,4081.415567
-69.400094,19,4082.317875
-93.513109,22,6111.50199
-85.464732,18,6112.391421
-131.667848,24,6113.48929
-66.954584,18,6114.379667
-106.289125,19,6115.408555
-90.508463,19,6116.359704
-92.246275,18,6117.122842
-76.507557,18,6117.898451
-65.498442,18,6118.652518
-80.547025,18,6119.383516
-75.124685,19,6120.025522
-92.415211,20,6120.688935
-97.845074,26,6121.656111
-84.858928,20,6122.892267
-93.812996,18,6124.036237
-95.133479,17,6124.898067
-117.843115,23,6126.157236
-99.318811,20,6127.169858
-107.385866,28,6128.949471
-84.491673,18,6129.944475
-86.28657,20,6131.021965
-127.966208,21,6131.9287
-90.082917,19,6132.721322
-96.114734,21,6133.785753
-128.795929,20,6134.809976
-98.089541,22,8057.267058
-79.050509,19,8058.200618
-47.46834,14,8058.850306
-97.288983,19,8059.770948
-86.217222,18,8060.677256
-89.158179,22,8061.90438
-98.819365,20,8062.778122
-119.004693,18,8063.699576
-81.843571,19,8064.698251
-93.926544,17,8065.65117
-85.656195,17,8066.491253
-92.901134,20,8067.396177
-75.007001,20,8068.476452
-81.793987,20,8069.452524
-80.089699,18,8070.190222
-77.508408,18,8071.032471
-81.062412,20,8071.789976
-80.377299,17,8072.46145
-116.221676,19,8073.368093
-93.816093,28,8074.485401
-97.82229,18,8075.107195
-89.277531,18,8075.907083
-69.357652,19,8076.736005
-78.078078,19,8077.716321
-94.510846,21,8078.541484
-89.901559,19,8079.303921
-60.544483,18,8079.916908
-92.869148,19,9974.485296
-73.730251,20,9975.217213
-55.496419,19,9975.909737
-64.780805,21,9976.771616
-100.984944,19,9977.921251
-81.56255,19,9978.948063
-68.471562,20,9980.025267
-92.525479,19,9980.797294
-106.635051,18,9981.693614
-70.516618,19,9982.641316
-78.147113,21,9983.695308
-81.800707,18,9984.586177
-90.271045,20,9985.608738
-74.616431,20,9986.425717
-88.414059,19,9987.253726
-86.272925,18,9988.200464
-67.222454,19,9989.326666
-65.749529,19,9990.247546
-99.052434,19,9991.414768
-85.24069,20,9992.440717
-98.669748,23,9993.675792
-79.994389,19,9994.749462
-92.910326,18,9995.749671
-85.173215,20,9996.947827
-86.769366,18,9997.980146
-75.798273,18,9999.072652
-96.935111,21,11923.283694
-60.162002,19,11924.447424
-77.612246,18,11925.303035
-72.79417,18,11926.431457
-73.623811,16,11927.361496
-111.185118,28,11928.731877
-90.60805,19,11929.616371
-74.901994,19,11930.753953
-78.82551,19,11932.194536
-77.217042,19,11933.287681
-73.879873,19,11934.261833
-88.972738,19,11935.008999
-86.838488,19,11936.188248
-74.278219,19,11937.265574
-74.338604,20,11938.356138
-136.183843,29,11940.327285
-90.288265,19,11941.70678
-83.675892,19,11942.97342
-151.24337,28,11944.545831
-70.256876,19,11945.467372
-87.848818,19,11946.425045
-70.249181,20,11947.427641
-84.917672,17,11948.522877
-67.280214,22,11949.534114
-86.677331,21,11950.691855
-76.665504,18,11951.731791
-99.256671,19,13977.65953
-94.007534,17,13978.517725
-82.164012,19,13979.596788
-114.960942,23,13981.249221
-85.422585,17,13982.055752
-74.211243,21,13982.965633
-67.087263,19,13984.174054
-88.912251,19,13985.431497
-82.57205,19,13986.562156
-84.453651,17,13987.305142
-71.740071,19,13988.430379
-88.775187,19,13989.515733
-84.508787,20,13990.767539
-67.95051,20,13992.029407
-104.818374,17,13993.109795
-77.057108,17,13993.971101
-86.226022,19,13995.225535
-118.69387,19,13996.463057
-78.187174,22,13997.76827
-83.646322,18,13998.842155
-75.190693,19,14000.007995
-88.581981,19,14001.079053
-76.119268,18,14002.349636
-94.59555,18,14003.37135
-104.680487,21,14004.69913
-93.862665,19,14005.782704
-86.07887,19,14007.009754
-61.660757,18,16296.281248
-71.559316,18,16297.37186
-72.566479,18,16298.411143
-78.472218,20,16299.744151
-110.792628,28,16301.463817
-76.205465,19,16302.747065
-90.433149,20,16303.914005
-79.915732,19,16305.02938
-83.75388,20,16306.254047
-85.436173,20,16307.204599
-94.249361,19,16308.169071
-61.304258,18,16309.142771
-71.920171,19,16310.093173
-106.284484,24,16311.35428
-97.795605,18,16312.493621
-84.13028,19,16313.696602
-78.718191,18,16314.588018
-71.690801,19,16315.663309
-96.676727,19,16316.926532
-78.350608,18,16318.153965
-88.627685,19,16319.542581
-95.181412,23,16321.190314
-75.762186,18,16322.301959
-83.374037,18,16323.444937
-84.503345,18,16324.670308
-73.306155,19,16326.005437
-79.964277,19,18605.708013
-78.568305,17,18606.803334
-72.898397,19,18607.90825
-84.199572,18,18608.713497
-83.370757,20,18609.454685
-58.538772,18,18610.260157
-108.602894,19,18611.502679
-74.074156,19,18612.560735
-68.529594,18,18613.779306
-90.854137,18,18614.909178
-82.471701,20,18616.035182
-91.290976,29,18617.742969
-79.249791,19,18619.001847
-66.533759,17,18619.804263
-75.934397,19,18620.818692
-60.654065,19,18622.049723
-64.860791,17,18623.126646
-72.021699,18,18624.248676
-72.033788,18,18625.277291
-56.674848,17,18626.34846
-79.861143,20,18627.439894
-71.886693,20,18628.617759
-68.558055,18,18629.70216
-91.790179,22,18630.876228
-81.472637,20,18632.031928
-67.452283,20,18633.195821
-67.904922,16,18634.253337
-89.5254,18,20937.937608
-63.638751,18,20938.819585
-66.63789,19,20939.801191
-104.934918,19,20940.947995
-75.591706,20,20942.078218
-77.598585,20,20943.22078
-83.92752,19,20944.16277
-64.91841,18,20945.106379
-88.216828,21,20946.240026
-78.782172,19,20947.52051
-66.031414,19,20948.694946
-88.100882,22,20950.360457
-118.531924,28,20952.060294
-65.152322,18,20953.310942
-78.44205,19,20954.591618
-66.429536,17,20955.797683
-67.993784,19,20956.868349
-80.721513,18,20957.851124
-92.392091,19,20959.036118
-101.476478,19,20960.308569
-66.110323,19,20961.621583
-85.255774,18,20962.525753
-82.045331,19,20963.500077
-70.795722,19,20964.668849
-90.456029,18,20965.662895
-77.871247,20,20966.795463
-77.77944,18,20967.719539
-84.015389,18,23267.688015
-87.984216,26,23269.33806
-68.576037,19,23270.334891
-77.96984,20,23271.296179
-59.938222,18,23272.403433
-64.706665,18,23273.258041
-97.784221,18,23274.055224
-93.573184,18,23275.048512
-83.451366,19,23275.939007
-98.357405,18,23276.755946
-89.604239,18,23277.955268
-70.228782,20,23278.9872
-66.227872,18,23280.082956
-77.565243,18,23281.24305
-69.369208,19,23282.333807
-79.326346,18,23283.510826
-58.228223,19,23284.609672
-69.222361,19,23285.813036
-74.940289,18,23286.925567
-65.99248,21,23288.102404
-78.479529,23,23289.502285
-78.368371,19,23290.713857
-67.544825,18,23292.062995
-47.481426,18,23293.119017
-71.383885,18,23294.181323
-82.562659,19,23295.100512
-66.995272,17,23295.933754
-79.11965,19,25585.042236
-65.190832,25,25586.783362
-76.635292,20,25588.047323
-70.126769,18,25589.308158
-74.024374,19,25590.576602
-56.296853,19,25591.81025
-84.413081,18,25592.753852
-70.077883,18,25593.657354
-80.344478,18,25595.056412
-66.605514,19,25596.40687
-64.656185,19,25597.492124
-88.026563,17,25598.241336
-66.62289,18,25599.396497
-77.592593,19,25600.431041
-96.374794,18,25601.549858
-74.978225,19,25602.437301
-40.288725,19,25603.429345
-87.395949,20,25604.823066
-79.100326,19,25606.116388
-73.850754,18,25607.396144
-74.243326,19,25608.647065
-87.718163,21,25610.064156
-76.501772,20,25611.36249
-78.48544,19,25612.515446
-75.366204,22,25614.089146
-77.953325,19,25615.357004
-63.65713,19,27916.682767
-77.862953,18,27917.819187
-65.877917,20,27919.137688
-64.754146,19,27920.326202
-77.824516,18,27921.412838
-60.633243,16,27922.580654
-82.116124,21,27924.065907
-53.613228,19,27925.221675
-65.024748,19,27926.357088
-77.270935,19,27927.499953
-66.754003,19,27928.543515
-64.781524,19,27929.979625
-67.883437,19,27931.13433
-97.53986,21,27932.299554
-65.055609,20,27933.737576
-87.456912,19,27935.104754
-69.893635,19,27936.312695
-73.909866,19,27937.531174
-62.517994,19,27938.683547
-56.513792,19,27939.612661
-74.170576,17,27940.606986
-65.141487,20,27941.657038
-70.487902,21,27942.863134
-79.12384,23,27944.19059
-62.967009,21,27945.353435
-85.467599,19,27946.553754
-67.347101,19,27947.664252
-51.909476,19,30230.402994
-62.525615,19,30231.573631
-78.895112,19,30232.967854
-70.001211,18,30233.877061
-67.590981,19,30235.255551
-82.9658,23,30236.565244
-75.199257,20,30237.567157
-85.542469,18,30238.594966
-58.773635,20,30239.84146
-86.691688,25,30241.341427
-72.863165,19,30242.254822
-73.964858,19,30243.477669
-70.442275,19,30244.696476
-46.82136,19,30245.87947
-39.902717,19,30247.143151
-47.542132,19,30248.141521
-67.491327,19,30249.359445
-84.217368,19,30250.534871
-62.60412,19,30251.711587
-89.572918,21,30253.04718
-70.334395,20,30254.310307
-80.594993,19,30255.555957
-108.725593,24,30257.253764
-66.894976,19,30258.361999
-65.271474,21,30259.821367
-72.377839,20,30260.907233
-86.040198,17,32544.025203
-58.500776,18,32545.052355
-47.157884,19,32546.079225
-61.446459,18,32546.913167
-69.232922,19,32547.83488
-74.052969,21,32548.875817
-84.434287,19,32549.825724
-70.916232,19,32550.867167
-72.518335,19,32551.944317
-93.303615,17,32553.034583
-66.296689,21,32554.417582
-59.438956,19,32555.656614
-85.1002,18,32556.304407
-54.664514,17,32556.995122
-66.071489,20,32557.852429
-80.787731,19,32558.769798
-66.783325,19,32559.884638
-51.356006,19,32561.088135
-110.165492,20,32562.416076
-72.059103,20,32563.61804
-71.079208,17,32564.600314
-60.403372,18,32565.868175
-55.336315,18,32566.992302
-59.571338,19,32568.213734
-78.976488,21,32569.648559
-83.982024,22,32570.947832
-69.238762,20,32572.044043
