# {"t_start": 1547745189.3323698, "env_id": "RoboschoolHumanoidFlagrun-v1"} 
r,l,t
-35.574311,18,1.878386
-25.092793,19,2.175153
-34.94075,19,2.415622
-33.9117,18,2.754152
-33.357208,20,3.071951
-37.72086,18,3.416835
-17.597708,19,3.795737
-41.344201,19,4.145916
-36.445326,19,4.584986
-28.140297,20,5.055937
-34.986096,19,5.540835
-44.740951,19,5.906125
-21.514834,18,6.309029
-34.726748,19,6.732734
-25.19662,18,7.172567
-40.290957,18,7.607116
-21.383846,19,8.016684
-32.029282,20,8.431745
-25.164811,19,8.841969
-28.745678,20,9.279749
-29.847012,19,9.682652
-31.381833,18,10.06361
-31.954822,19,10.480185
-33.380256,19,10.941169
-57.470268,24,11.528662
-47.150362,19,12.009608
-43.217034,21,868.644051
-27.552406,19,868.990784
-37.111042,18,869.398294
-28.165117,16,869.77377
-27.167182,19,870.198162
-37.94154,18,870.594263
-34.249966,18,871.025862
-36.316914,24,871.586135
-51.600084,20,872.048184
-34.801695,21,872.537181
-42.447793,18,872.912543
-53.218229,30,873.608444
-29.308209,20,874.03392
-34.749999,19,874.430714
-41.629261,19,874.8049
-25.632832,18,875.185483
-45.315305,20,875.643111
-46.895335,24,876.062182
-38.005147,18,876.433728
-36.75384,20,876.793355
-43.760991,21,877.195526
-57.821088,19,877.505883
-41.67499,20,877.844399
-25.438511,18,878.171268
-42.837707,19,878.520512
-31.831905,19,878.84989
-37.546868,18,1735.986091
-43.031017,25,1736.375139
-26.762385,18,1736.637474
-46.560903,20,1736.934566
-51.255651,19,1737.29035
-42.763607,19,1737.708822
-33.707112,18,1738.087005
-41.608757,20,1738.49661
-36.712775,20,1738.890485
-48.030618,24,1739.47416
-31.742148,25,1740.006635
-31.130843,18,1740.41918
-33.234853,18,1740.84518
-39.616709,18,1741.301837
-50.28751,18,1741.749979
-37.345003,19,1742.27442
-35.47693,19,1742.665246
-30.455093,17,1743.026513
-42.755321,19,1743.443287
-34.844085,20,1743.890133
-45.60122,19,1744.323637
-36.427121,18,1744.615379
-48.212284,26,1745.096298
-41.395416,19,1745.382461
-29.207216,19,1745.674091
-76.990783,30,1746.205442
-28.047874,19,2605.606796
-43.132446,18,2605.993099
-43.281394,22,2606.419169
-38.613706,19,2606.834852
-28.689361,21,2607.311742
-46.554987,19,2607.745101
-23.721856,18,2608.146612
-34.581336,19,2608.521354
-34.509119,18,2608.928123
-35.061386,20,2609.318785
-39.071018,19,2609.672121
-32.657452,20,2609.957658
-37.167908,19,2610.248286
-32.122036,21,2610.614356
-15.793087,18,2610.891633
-47.472763,23,2611.285036
-31.665457,20,2611.604884
-29.883518,19,2611.949677
-53.751569,23,2612.401207
-37.390585,18,2612.634127
-35.595324,19,2612.952908
-37.469726,23,2613.284842
-50.466474,18,2613.571528
-33.238597,18,2613.889883
-31.512244,18,2614.301457
-28.800853,18,2614.678958
-31.256188,18,3474.602427
-24.307583,20,3475.070051
-26.623004,21,3475.572669
-34.634974,18,3475.953502
-35.566994,18,3476.358329
-46.638909,22,3476.823774
-35.465487,21,3477.297478
-53.925229,17,3477.704373
-33.459171,20,3478.280085
-37.715926,18,3478.710171
-35.053832,22,3479.206677
-46.7976,19,3479.660176
-34.851367,20,3480.247128
-26.034318,20,3480.695465
-35.814996,18,3481.038378
-25.479756,21,3481.404365
-14.675,18,3481.707236
-43.695612,23,3482.172457
-18.467023,18,3482.493919
-41.167198,20,3482.844425
-42.791666,25,3483.350246
-33.595126,19,3483.717912
-39.386901,19,3484.022644
-33.618947,19,3484.368703
-40.993719,20,3484.738725
-35.853348,19,3485.149945
-37.798926,19,4360.310279
-39.000387,18,4360.708806
-26.147657,17,4361.051807
-36.957536,21,4361.474218
-30.675555,19,4361.904562
-23.651354,20,4362.381256
-35.268432,19,4362.775733
-38.128222,16,4363.047562
-36.115472,19,4363.376071
-33.740999,19,4363.69814
-30.256884,19,4364.012907
-32.209478,19,4364.354266
-28.135764,24,4364.798986
-32.534486,19,4365.101771
-29.095975,18,4365.402117
-40.238788,21,4365.796474
-39.438765,20,4366.155742
-32.597435,20,4366.460349
-38.108184,20,4366.816803
-31.909586,19,4367.181058
-32.118225,20,4367.582024
-24.452846,19,4368.022161
-43.057245,24,4368.595937
-26.921574,19,4369.025052
-22.94928,19,4369.454873
-31.951685,20,4369.872905
-39.175062,21,5242.895465
-37.854399,19,5243.210061
-33.896778,21,5243.543663
-24.005431,18,5243.977336
-35.744232,19,5244.293058
-28.305246,18,5244.589102
-40.144307,21,5244.905492
-29.832909,18,5245.213175
-32.119289,21,5245.56221
-43.785566,18,5245.911105
-58.822243,19,5246.241987
-39.351769,22,5246.678721
-64.238845,24,5247.06488
-54.355569,18,5247.377789
-28.71559,24,5247.949921
-27.633399,19,5248.398633
-34.996499,19,5248.826689
-26.537565,19,5249.288699
-31.597976,19,5249.663302
-38.918777,20,5250.145301
-34.00591,20,5250.632765
-38.440204,19,5251.092356
-27.12932,20,5251.551011
-27.810216,19,5252.005868
-33.957403,22,5252.441615
-34.926981,19,5252.914853
-30.904202,20,6128.096118
-33.339938,18,6128.45346
-25.792979,18,6128.857731
-29.442222,16,6129.169549
-36.407033,19,6129.505395
-40.07062,18,6129.765812
-41.617468,19,6130.094166
-30.63494,17,6130.41039
-29.406344,20,6130.749846
-44.015587,24,6131.194303
-43.448948,19,6131.568991
-30.380808,18,6131.948395
-22.196848,20,6132.282093
-23.814378,20,6132.681175
-37.728052,19,6133.042165
-52.704269,19,6133.362018
-32.617377,20,6133.759173
-36.933366,19,6134.197576
-32.672553,19,6134.636096
-37.922759,19,6135.090823
-44.480711,20,6135.52644
-46.91098,28,6136.237396
-43.73482,20,6136.663456
-44.843019,18,6137.176496
-28.625686,13,6137.469531
-34.995755,18,6137.854435
-33.122858,19,6138.300759
-21.887307,19,7014.776794
-29.729123,19,7015.187648
-34.597875,18,7015.668381
-26.341979,18,7016.144832
-35.890627,19,7016.5732
-25.919224,20,7017.02501
-35.170264,19,7017.453705
-29.78601,21,7017.906187
-38.854381,17,7018.319122
-28.523436,19,7018.785007
-36.550515,18,7019.247857
-25.430132,18,7019.688697
-36.014685,19,7020.150354
-30.476955,19,7020.575161
-50.994795,26,7021.00471
-36.351143,12,7021.151245
-42.215853,22,7021.48547
-41.179036,19,7021.76736
-21.105191,20,7022.067592
-16.061101,21,7022.435626
-34.989399,19,7022.747909
-33.694584,20,7023.092713
-40.507428,18,7023.382392
-35.497264,18,7023.683108
-31.645373,18,7024.035444
-50.846218,18,7024.366064
-36.06995,19,7024.700674
-28.661954,20,7898.948814
-31.994805,18,7899.437313
-27.44356,19,7899.843836
-31.456947,19,7900.151104
-27.360345,18,7900.483524
-30.59368,17,7900.816695
-44.974934,20,7901.18826
-33.946391,19,7901.525156
-27.010018,20,7901.846753
-30.699659,18,7902.108154
-34.588726,18,7902.429468
-29.434817,21,7902.821612
-26.325428,17,7903.141095
-45.398786,22,7903.589715
-42.85159,18,7903.908752
-25.429212,19,7904.218869
-35.300246,19,7904.667442
-33.452257,20,7905.153332
-45.06946,19,7905.614091
-30.923813,23,7906.148351
-45.699324,26,7906.800754
-42.910426,22,7907.305231
-41.181344,18,7907.737143
-48.517977,20,7908.19809
-34.664913,21,7908.707014
-33.861032,17,7909.170597
-26.769782,19,8783.857168
-40.296631,19,8784.287406
-39.084076,20,8784.790602
-50.801601,29,8785.36444
-24.486611,18,8785.675014
-27.294095,20,8785.997248
-22.600566,20,8786.370912
-46.037441,17,8786.658868
-32.218883,19,8786.93345
-26.053099,18,8787.249411
-32.370823,20,8787.667431
-33.430224,18,8787.983871
-40.981209,18,8788.340686
-43.77723,20,8788.720875
-41.454298,25,8789.143683
-25.47727,18,8789.617267
-37.883856,18,8790.063179
-37.192932,22,8790.57503
-34.157726,20,8791.09439
-33.716142,19,8791.59787
-27.651092,20,8792.063982
-30.914525,19,8792.513648
-30.140137,18,8792.940489
-38.440506,17,8793.329477
-27.622013,21,8793.825463
-29.767064,19,8794.280579
-31.488361,20,9666.766803
-28.119822,20,9667.109032
-37.090993,19,9667.420638
-44.040193,22,9667.808159
-35.537797,19,9668.202429
-29.602045,22,9668.577203
-36.679145,22,9668.945179
-34.045493,19,9669.268009
-32.390724,18,9669.57697
-44.835497,19,9669.899395
-37.656382,17,9670.268425
-47.014575,23,9670.791839
-40.824804,18,9671.25046
-48.968679,22,9671.815604
-26.860802,19,9672.414853
-31.504994,19,9672.883195
-22.362903,18,9673.405946
-28.218548,19,9673.904182
-26.37137,19,9674.485626
-36.333406,23,9675.019274
-31.465134,20,9675.487781
-39.318253,21,9676.003482
-29.97249,19,9676.472719
-34.730748,19,9676.957588
-34.918583,17,9677.326087
-40.123472,19,9677.775346
-26.194401,19,10553.479296
-48.514298,24,10553.91073
-31.352193,22,10554.293348
-33.313828,18,10554.603089
-29.190829,19,10554.95183
-29.850953,23,10555.409136
-19.613482,20,10555.76695
-44.031691,22,10556.173425
-30.262477,19,10556.504857
-31.913533,18,10556.785846
-31.235605,20,10557.199621
-31.344217,18,10557.494095
-35.267673,18,10557.885256
-33.873235,19,10558.300132
-31.295501,18,10558.830512
-33.577671,19,10559.241686
-35.018361,20,10559.757411
-28.911383,19,10560.232123
-33.774872,18,10560.63749
-21.579317,18,10561.039567
-29.023036,19,10561.50376
-34.365307,18,10561.919133
-32.287225,21,10562.352961
-32.809829,18,10562.728419
-31.360445,24,10563.326302
-35.641633,27,11440.432714
-43.766371,22,11440.930508
-39.452667,18,11441.328828
-31.718289,18,11441.734245
-35.884052,19,11442.145872
-15.365121,19,11442.600915
-34.623073,23,11443.178299
-31.448522,20,11443.684838
-32.924482,18,11444.104851
-24.827013,20,11444.596071
-31.653662,27,11445.17884
-26.659432,18,11445.613796
-36.723277,19,11446.056243
-42.232502,20,11446.389019
-28.386602,20,11446.731804
-23.258721,20,11447.056495
-34.619495,20,11447.415665
-41.157484,19,11447.72856
-22.362667,19,11448.054188
-30.368507,19,11448.381135
-24.601885,19,11448.723285
-52.34316,18,11449.052578
-22.619287,19,11449.348121
-38.212332,22,11449.765528
-37.805577,19,11450.205179
-43.635059,23,11450.710094
-35.92095,19,12326.784433
-22.59055,19,12327.250402
-20.513865,19,12327.690987
-26.459062,19,12328.145038
-36.641424,19,12328.604397
-41.914568,17,12328.927051
-32.239685,19,12329.220751
-26.965111,19,12329.49188
-26.109477,19,12329.852805
-30.60516,26,12330.30384
-45.568285,23,12330.696936
-20.689936,20,12331.071187
-29.910987,20,12331.381371
-19.751609,21,12331.703584
-25.268481,19,12332.1021
-21.270333,19,12332.396081
-34.781224,19,12332.712048
-28.639661,18,12333.040819
-41.411664,20,12333.370557
-35.377702,19,12333.753293
-34.973105,20,12334.203811
-26.254038,18,12334.588646
-38.0779,19,12335.050493
-31.024354,18,12335.475792
-31.243833,19,12335.884168
-46.897665,19,12336.286291
-25.823455,19,12336.764688
-26.869573,19,13208.751121
-27.674087,18,13209.199615
-27.436503,18,13209.589485
-18.40183,22,13210.079723
-36.669384,20,13210.598881
-22.225416,20,13211.073547
-27.47177,19,13211.484399
-28.48047,19,13211.861936
-22.670655,18,13212.225881
-27.587773,18,13212.674778
-35.17011,18,13213.118224
-23.7462,19,13213.572618
-30.486988,19,13214.003704
-32.992007,18,13214.502923
-31.465697,18,13214.836586
-37.104789,21,13215.214407
-38.366561,22,13215.627681
-27.553153,20,13215.975376
-36.419802,18,13216.289834
-27.110465,19,13216.598833
-39.805289,20,13216.958585
-26.547245,19,13217.368018
-24.914101,18,13217.649164
-31.018471,19,13217.950973
-27.006474,19,13218.28053
-27.812756,19,13218.595465
-41.033203,19,14096.238294
-25.102083,19,14096.698297
-29.684338,25,14097.350216
-26.724481,20,14097.794403
-31.575136,19,14098.142112
-26.48786,17,14098.454828
-36.31945,18,14098.838611
-19.337807,23,14099.214617
-14.918931,20,14099.558138
-30.706887,18,14099.853299
-35.636353,19,14100.192891
-31.319653,20,14100.616931
-26.114547,17,14100.94073
-31.582936,19,14101.28669
-44.9952,19,14101.656843
-34.599522,20,14102.019132
-39.730744,20,14102.363911
-34.506579,18,14102.797213
-36.200374,22,14103.379059
-35.300776,25,14103.964916
-28.626565,21,14104.488344
-29.684864,20,14104.928666
-35.407896,18,14105.378701
-43.837699,23,14105.993255
-19.928617,18,14106.427895
-20.637241,28,14107.125034
-28.723235,18,14979.99131
-25.357563,19,14980.430766
-18.252874,19,14980.883604
-28.651809,21,14981.350792
-23.843449,19,14981.784415
-22.343905,13,14982.065814
-25.456446,18,14982.51532
-26.545824,20,14982.911405
-33.392153,21,14983.301442
-31.052814,18,14983.604172
-32.015796,19,14983.946743
-32.832402,20,14984.256278
-21.640641,18,14984.585753
-22.77382,21,14984.991499
-27.870527,18,14985.30075
-27.774485,19,14985.643456
-35.702543,18,14985.938057
-27.302692,17,14986.273036
-32.760966,18,14986.604857
-40.513932,19,14986.978407
-34.520753,19,14987.436518
-32.488942,19,14987.887973
-33.274287,24,14988.478971
-13.725017,20,14988.996654
-29.479022,19,14989.478492
-24.506215,20,14989.922546
-34.671044,20,14990.440866
-24.935001,24,15866.399209
-33.149564,19,15866.782268
-29.341919,18,15867.089223
-15.652831,19,15867.510404
-25.634313,19,15867.813615
-25.265567,20,15868.15038
-33.133571,18,15868.54151
-32.659594,19,15868.849137
-24.247618,20,15869.171966
-34.817247,18,15869.502281
-30.447098,18,15869.892393
-24.24538,18,15870.289605
-17.485215,20,15870.828399
-25.069786,18,15871.328501
-32.446209,19,15871.77716
-25.722458,20,15872.216477
-26.435236,19,15872.640589
-20.797216,19,15873.078953
-24.698829,22,15873.589845
-32.127284,20,15874.036834
-12.680308,20,15874.547835
-26.061536,20,15874.96231
-28.752703,19,15875.44072
-28.746864,19,15875.888814
-29.611509,18,15876.310421
-28.012789,19,15876.71512
-24.395756,20,16738.199356
-30.311015,18,16738.56681
-21.01961,20,16739.009961
-22.292255,19,16739.359291
-46.751493,18,16739.666981
-23.320081,21,16739.965451
-28.669026,18,16740.275423
-29.162196,18,16740.537441
-28.463175,19,16740.824439
-23.019176,19,16741.156265
-23.898277,18,16741.474127
-21.79211,19,16741.775546
-27.547311,19,16742.093828
-44.294549,19,16742.476421
-26.953064,19,16742.865259
-51.589099,16,16743.162339
-28.591756,17,16743.462059
-31.10741,19,16743.839139
-33.018768,18,16744.239388
-32.21894,24,16744.705126
-18.686264,20,16745.127244
-18.647688,19,16745.464131
-17.986268,20,16745.832506
-27.586438,20,16746.226939
-24.405159,18,16746.596257
-32.753546,19,16747.035602
-25.202708,17,16747.406553
-24.560144,17,17609.625931
-32.375809,19,17609.945228
-41.90335,25,17610.412223
-39.987416,21,17610.819437
-18.048415,18,17611.113241
-24.289981,20,17611.428458
-27.829969,19,17611.732171
-19.136271,19,17612.084865
-23.880829,19,17612.333946
-36.132102,18,17612.703543
-29.43883,20,17613.079334
-15.788086,19,17613.428722
-24.409143,19,17613.823361
-24.736539,18,17614.198044
-20.450724,24,17614.698032
-40.847375,19,17615.068305
-29.9777,18,17615.374379
-34.673634,18,17615.763453
-28.448781,20,17616.190878
-18.179186,18,17616.56719
-15.89176,19,17616.963665
-32.179813,19,17617.374589
-11.974382,19,17617.794405
-29.238713,19,17618.169657
-27.327214,20,17618.567019
-21.682523,17,17618.886039
-24.932841,21,17619.223172
-20.184566,18,18481.435838
-23.022558,19,18481.792213
-37.07452,18,18482.1866
-19.458999,20,18482.61308
-16.162436,19,18482.908284
-29.964207,19,18483.228638
-22.367224,19,18483.545093
-27.3725,18,18483.86598
-38.451583,15,18484.094033
-21.95507,22,18484.441026
-32.058241,20,18484.769029
-25.952892,18,18485.100183
-26.942635,22,18485.456598
-25.026195,19,18485.746566
-34.718953,19,18486.049848
-38.410018,20,18486.405482
-25.413324,19,18486.697716
-16.645565,19,18487.073314
-28.343581,19,18487.475899
-29.575344,18,18487.8253
-26.237478,20,18488.25986
-16.56607,20,18488.682417
-26.779983,19,18489.094002
-22.450588,19,18489.479285
-30.420518,22,18489.925603
-24.936307,21,18490.348258
-27.938129,20,19343.363475
-19.220932,20,19343.691138
-20.098291,19,19343.972381
-18.894816,24,19344.352398
-31.638932,20,19344.70495
-22.995278,19,19345.007567
-21.96007,19,19345.281075
-26.060006,20,19345.636172
-29.33813,18,19345.966486
-20.392072,18,19346.308501
-25.726284,20,19346.647069
-21.115775,19,19346.999439
-25.810564,18,19347.348424
-22.723383,18,19347.674825
-20.903805,20,19348.017555
-24.468179,19,19348.367681
-30.521403,20,19348.743863
-25.780093,20,19349.124614
-32.759192,18,19349.440268
-21.246085,27,19349.932667
-20.013647,19,19350.263025
-26.402487,18,19350.572786
-36.340875,18,19350.873366
-14.817323,20,19351.240163
-29.92704,19,19351.516795
-14.696002,21,19351.834954
-18.579799,18,20190.820287
-28.587549,20,20191.081585
-16.99169,19,20191.344593
-39.925023,20,20191.601895
-20.920106,20,20191.845887
-18.540746,19,20192.115098
-17.518034,20,20192.385001
-34.924996,21,20192.679579
-32.144637,19,20192.94814
-20.82809,19,20193.195513
-20.132291,20,20193.482554
-31.879991,19,20193.752831
-19.703231,20,20194.045479
-35.61408,25,20194.384434
-26.592301,18,20194.631079
-23.7349,19,20194.903208
-21.829989,20,20195.176827
-51.933098,18,20195.432065
-16.653363,27,20195.788018
-18.120806,20,20196.049646
-10.444417,20,20196.325345
-26.947881,19,20196.590441
-21.8069,18,20196.82589
-14.369389,19,20197.082498
-24.632511,19,20197.332754
-16.839828,19,20197.618227
-24.159543,18,21001.745805
-23.648463,19,21001.937793
-24.721038,19,21002.130726
-17.304901,21,21002.365066
-29.386159,19,21002.585821
-25.465948,19,21002.787762
-21.813552,19,21002.993037
-28.028249,17,21003.176959
-29.861062,19,21003.377358
-14.527748,20,21003.593741
-17.83994,19,21003.779288
-28.178581,19,21004.005597
-24.230872,19,21004.21507
-17.954596,21,21004.426148
-25.17603,19,21004.629656
-24.104999,18,21004.833579
-42.115038,31,21005.164576
-29.373735,18,21005.357713
-17.022949,19,21005.559067
-27.092314,19,21005.757712
-20.412051,19,21005.964606
-18.137781,18,21006.153548
-25.579647,22,21006.38069
-16.763892,19,21006.581802
-21.181867,19,21006.803474
-11.505368,23,21007.073228
-19.196947,19,21796.72189
-27.479455,24,21797.001677
-23.009309,19,21797.218431
-22.051962,20,21797.428953
-22.752373,19,21797.631634
-21.65058,17,21797.817277
-21.668648,20,21798.032397
-32.537448,15,21798.186738
-22.895699,19,21798.408308
-27.094701,20,21798.628349
-24.578627,18,21798.828963
-23.568313,18,21799.028006
-27.591772,18,21799.216516
-23.870743,20,21799.426457
-33.900727,19,21799.631462
-24.233114,19,21799.825533
-23.263313,19,21800.032358
-17.617133,19,21800.230857
-22.024933,20,21800.434177
-21.234199,21,21800.658041
-18.256811,19,21800.857902
-20.36572,21,21801.063046
-18.315291,20,21801.255167
-27.961272,23,21801.520639
-18.623769,19,21801.72233
-17.956713,19,21801.927798
-28.700718,19,22591.3774
-28.962963,19,22591.589711
-30.1055,17,22591.790252
-28.101773,20,22592.001205
-28.609315,19,22592.201423
-27.438079,19,22592.401182
-19.881399,19,22592.587404
-13.550546,20,22592.809139
-26.45939,20,22593.020019
-27.861604,21,22593.231588
-16.760099,21,22593.453021
-22.040082,22,22593.692094
-24.15081,19,22593.903574
-14.293128,22,22594.150635
-13.762517,21,22594.375273
-24.578476,18,22594.571515
-21.644177,27,22594.858501
-18.661207,23,22595.100765
-24.823217,19,22595.301399
-34.893345,25,22595.574125
-18.42088,19,22595.763387
-35.001467,20,22595.969898
-19.539825,20,22596.199222
-16.594152,20,22596.408091
-23.980343,19,22596.612991
-20.807715,19,22596.83788
-34.242457,19,23386.328548
-35.114679,20,23386.540427
-28.385471,20,23386.758086
-20.178077,20,23386.975772
-26.036865,18,23387.156698
-17.413189,19,23387.356216
-27.265709,26,23387.631561
-26.515465,19,23387.868264
-12.399318,19,23388.07321
-16.36314,21,23388.303276
-22.476065,18,23388.476566
-14.524682,24,23388.722318
-20.291275,18,23388.929317
-16.482544,22,23389.15459
-15.150512,19,23389.348417
-30.701713,19,23389.539609
-20.943268,19,23389.74172
-33.112119,29,23390.068164
-22.927642,19,23390.264702
-22.444611,19,23390.461052
-21.027942,22,23390.696689
-17.380946,19,23390.893577
-17.142741,24,23391.145411
-25.194586,20,23391.370264
-18.785773,19,23391.568634
-19.74372,20,24474.542405
-19.674399,19,24474.774533
-25.427062,19,24475.178528
-23.039841,19,24475.415142
-17.901737,22,24475.683983
-19.327772,19,24475.98871
-24.937292,19,24476.330132
-27.937022,20,24476.571935
-15.478316,19,24476.804678
-19.446931,21,24477.264829
-20.519127,19,24477.502172
-22.114487,18,24477.731711
-20.535005,19,24478.164915
-28.274721,20,24478.466975
-17.108841,20,24478.729935
-21.206996,19,24479.147831
-17.432273,21,24479.41305
-17.259124,19,24479.66567
-20.998825,19,24480.041077
-24.818787,18,24480.313612
-18.832867,19,24480.566946
-16.331083,21,24480.882926
-22.803344,18,24481.230491
-31.831588,20,24481.497106
-20.336098,20,24481.745944
-14.942263,19,24482.152641
-11.924024,19,25606.2563
-17.905411,19,25606.506653
-18.104772,19,25606.754562
-17.09058,20,25607.190111
-17.719275,19,25607.43842
-21.523017,19,25607.690836
-19.150546,18,25608.084571
-33.229062,19,25608.332203
-21.065884,19,25608.575194
-32.670643,18,25608.9816
-13.327302,19,25609.226959
-14.69983,19,25609.454331
-20.260681,23,25609.859084
-17.087832,19,25610.159865
-18.094698,19,25610.405876
-21.478503,19,25610.639276
-22.967088,18,25611.047166
-17.358978,22,25611.348064
-17.353843,20,25611.592063
-16.111461,19,25612.003194
-17.224398,23,25612.321718
-18.199619,19,25612.558608
-21.419353,20,25612.978868
-17.532224,19,25613.223532
-19.032923,24,25613.531415
-23.685509,18,25613.945837
-27.760026,23,26742.68944
-14.758352,20,26743.024016
-22.914641,18,26743.46384
-20.418456,24,26743.902132
-15.484453,20,26744.345471
-20.068946,21,26744.901147
-25.705471,18,26745.240975
-15.026226,19,26745.770638
-37.046622,19,26746.097982
-18.456022,20,26746.594841
-18.560853,19,26747.038188
-23.446447,23,26747.47449
-23.441616,20,26748.021545
-16.127596,22,26748.418278
-21.359843,19,26748.885734
-15.900518,19,26749.216441
-31.675512,19,26749.702641
-12.671157,19,26750.315524
-22.140251,21,26750.842905
-21.254451,17,26751.452651
-16.102897,19,26751.903138
-11.013052,19,26752.511414
-19.592439,18,26752.986634
-13.281584,19,26753.568701
-18.673394,19,26754.105015
-18.884216,20,26754.762079
-23.673091,20,27946.395643
-18.226266,21,27946.854085
-13.706465,19,27947.245894
-24.651417,19,27947.751391
-15.23201,27,27948.250035
-12.822759,19,27948.768222
-18.922485,19,27949.203069
-17.853579,19,27949.564495
-14.244396,19,27950.112705
-31.395917,20,27950.482126
-24.875758,20,27951.082992
-21.716821,20,27951.604418
-8.689371,19,27952.250895
-22.497355,20,27952.799349
-12.726006,19,27953.323377
-14.949477,19,27953.8052
-18.749064,19,27954.237295
-15.736573,27,27955.053252
-12.272565,20,27955.56437
-38.32468,27,27956.410905
-20.913624,18,27957.025414
-13.098191,19,27957.513863
-13.115915,20,27958.161579
-18.702931,18,27958.646194
-32.831433,22,27959.065346
-19.20821,20,29150.047338
-17.116024,18,29150.49229
-19.558524,21,29150.928757
-23.051456,19,29151.292542
-20.899404,19,29151.902498
-16.049511,19,29152.362519
-22.146049,23,29153.089377
-13.85021,20,29153.618594
-18.83348,18,29154.197672
-18.957243,19,29154.649483
-26.993395,19,29155.226824
-17.445593,19,29155.727146
-21.224072,21,29156.354928
-24.901478,19,29156.846002
-20.662644,19,29157.35357
-23.877298,19,29157.9217
-29.409403,22,29158.552747
-19.832985,20,29159.127419
-28.907887,19,29159.685989
-11.105187,19,29160.12008
-19.044193,19,29160.492826
-22.217111,28,29161.229788
-21.847287,19,29161.596251
-17.703453,18,29161.947731
-20.99534,18,29162.45703
-18.147066,21,29162.833948
-18.328993,20,30355.381321
-22.779484,20,30355.974749
-29.519677,19,30356.565569
-19.615212,20,30357.063396
-21.586356,20,30357.68488
-18.609837,22,30358.254105
-10.635402,19,30358.846131
-12.710432,19,30359.271506
-20.550142,19,30359.825059
-9.665495,20,30360.412072
-11.843615,20,30360.86001
-13.327565,18,30361.278377
-17.595689,19,30361.695591
-30.268288,27,30362.397795
-18.553025,20,30362.754276
-20.531589,19,30363.305462
-12.77545,19,30363.695594
-14.587387,19,30364.198499
-20.144626,20,30364.530096
-19.84761,19,30364.913034
-12.454563,20,30365.457374
-7.28111,19,30365.97543
-12.284978,20,30366.610782
-19.33728,20,30367.121774
-9.732012,18,30367.777922
-11.606061,19,30368.328946
-17.699843,20,31563.261215
-10.435792,19,31563.626646
-26.574824,19,31564.164715
-19.596669,19,31564.701835
-23.298288,19,31565.293578
-18.337567,19,31565.732826
-11.112475,22,31566.441613
-17.446797,19,31566.900856
-15.864638,20,31567.488137
-20.30724,19,31567.949196
-18.582237,20,31568.620135
-17.596551,21,31569.052373
-13.298868,18,31569.488697
-19.820317,21,31570.081573
-28.492402,17,31570.522696
-16.500835,21,31571.207244
-19.659795,20,31571.662097
-25.768522,22,31572.336775
-21.046604,20,31572.820171
-16.368953,18,31573.287685
-15.526471,19,31573.663162
-16.839131,18,31574.027007
-18.49285,18,31574.438114
-29.716017,16,31574.761709
-15.664851,21,31575.288416
-20.743579,19,31575.657509
-24.991594,20,32766.576575
-26.937593,18,32766.900569
-12.665834,18,32767.390476
-26.088008,17,32767.707709
-14.196444,26,32768.366996
-15.899841,19,32768.762418
-19.262439,20,32769.389631
-12.651826,21,32769.98384
-27.642506,22,32770.680308
-23.512703,18,32771.153611
-14.046471,20,32771.865981
-17.990281,20,32772.344567
-10.321901,19,32772.930455
-16.660039,20,32773.445529
-16.334835,19,32774.012786
-15.9929,20,32774.477055
-23.3289,18,32775.009593
-17.473101,19,32775.471141
-21.271686,20,32776.111453
-13.505602,19,32776.560003
-21.310889,20,32777.117901
-22.052801,19,32777.456122
-17.188996,18,32777.830261
-12.18567,19,32778.292074
-19.41353,19,32778.628896
-24.589894,19,32779.119608
-24.133413,18,32779.578177
-20.19611,20,33970.144892
-8.328119,20,33970.64625
-13.508618,19,33971.073916
-13.189701,20,33971.640795
-19.6773,19,33972.106092
-14.503936,19,33972.632698
-20.20112,25,33973.145571
-12.616896,21,33973.687345
-21.327229,18,33974.110974
-20.550465,19,33974.463212
-17.801845,20,33974.975872
-18.181949,18,33975.377863
-16.045247,20,33975.93437
-23.628068,19,33976.265839
-15.862659,18,33976.570504
-10.173201,27,33977.275889
-15.989084,24,33977.914463
-21.248031,22,33978.580021
-20.199183,28,33979.371083
-10.35877,20,33979.900604
-15.68317,21,33980.559178
-17.051258,19,33981.066843
-15.542597,20,33981.54476
-33.754,20,33982.171111
-15.015767,20,33982.671317
-24.616966,18,35183.00018
-12.581937,20,35183.605644
-20.293282,18,35183.956124
-15.444605,23,35184.351099
-16.360795,19,35184.87859
-25.836395,18,35185.213102
-16.299679,22,35185.783594
-20.892054,19,35186.135346
-18.616889,19,35186.569996
-16.644742,19,35187.104473
-15.050127,18,35187.450072
-30.354529,18,35187.902953
-12.038448,20,35188.353825
-17.921307,19,35188.93273
-26.209289,18,35189.405811
-19.900353,21,35190.050368
-17.278287,20,35190.552211
-22.131106,27,35191.437938
-25.608244,26,35192.232472
-18.941726,18,35192.669883
-30.535148,17,35193.059344
-24.276008,21,35193.722872
-19.831314,20,35194.27688
-16.19792,19,35194.868731
-21.155317,27,35195.624701
-22.748637,20,36390.860764
-19.978438,20,36391.371736
-11.857792,19,36391.724496
-15.475024,21,36392.272503
-17.227386,20,36392.623756
-11.503426,27,36393.280549
-21.976913,20,36393.711652
-17.134231,19,36394.10927
-16.233887,20,36394.600752
-18.868826,19,36394.939928
-13.20254,19,36395.493567
-14.214069,19,36395.986446
-20.641108,20,36396.606289
-15.482218,23,36397.239905
-16.400394,18,36397.781616
-15.336596,22,36398.320114
-15.079343,19,36398.913027
-20.595117,19,36399.376118
-15.607362,21,36400.052949
-10.673802,19,36400.537799
-15.772194,19,36401.140456
-19.10867,19,36401.582255
-14.144524,18,36402.138852
-19.79335,21,36402.713345
-15.467702,20,36403.357693
-13.963532,20,37601.627729
-18.983215,17,37602.19167
-14.457271,20,37602.645727
-11.642549,18,37603.169029
-19.594509,20,37603.625712
-15.5191,20,37604.21733
-18.461402,18,37604.686643
-16.802552,19,37605.103197
-8.782827,20,37605.67352
-19.804044,20,37606.142863
-13.046777,19,37606.756642
-8.734188,21,37607.297599
-22.461823,21,37607.906641
-12.856625,19,37608.350341
-29.103858,22,37608.972642
-19.795046,19,37609.353636
-17.553261,19,37609.702728
-18.417509,19,37610.237687
-15.699744,20,37610.571643
-15.364624,19,37611.133486
-20.096353,19,37611.463251
-16.720119,19,37611.781841
-15.81061,18,37612.276693
-14.354681,19,37612.636162
-20.839899,21,37613.182343
-16.578122,19,37613.61636
-11.199084,18,37614.234961
-18.468229,19,38814.840971
-17.898533,20,38815.389515
-15.841176,19,38815.971259
-20.152531,23,38816.575779
-9.001734,21,38817.22538
-29.391709,18,38817.664785
-17.509804,19,38818.275786
-19.236903,21,38818.822249
-18.979513,17,38819.373305
-14.206551,20,38819.858565
-15.304544,19,38820.386601
-22.824994,19,38820.871713
-28.840166,32,38821.717104
-19.907288,19,38822.045799
-16.641123,19,38822.584599
-6.557283,19,38822.975774
-16.439159,19,38823.536512
-14.625982,20,38823.888221
-18.291332,20,38824.385263
-12.397859,20,38824.868741
-13.084099,20,38825.209152
-18.981173,18,38825.716103
-21.438916,20,38826.254555
-18.06916,19,38826.827099
-18.067921,22,38827.360121
-11.42687,20,40029.323649
-13.047167,20,40029.829865
-14.738143,20,40030.446743
-18.122333,18,40030.918558
-14.787814,20,40031.468875
-28.872761,34,40032.445374
-18.325725,21,40033.009155
-12.713126,24,40033.452921
-12.494783,19,40033.961414
-11.447869,19,40034.222489
-19.495359,19,40034.574558
-18.953141,18,40035.051285
-13.254733,19,40035.381508
-13.944548,18,40035.713595
-14.209104,23,40036.329883
-13.395225,21,40036.790214
-13.905034,22,40037.277334
-12.496787,20,40037.824356
-16.43596,20,40038.44985
-11.924879,19,40038.874237
-15.777336,19,40039.475182
-11.321638,22,40040.026461
-16.234955,18,40040.587295
-15.590121,19,40041.09826
-14.326486,19,40041.666777
-12.925462,19,40042.188934
-15.873823,19,41248.326824
-13.080886,18,41248.89059
-16.125124,23,41249.438651
-16.212134,18,41249.985505
-16.855258,18,41250.381742
-19.514406,20,41251.035288
-25.741964,25,41251.650923
-15.508259,20,41252.352246
-17.8749,19,41252.856498
-16.749192,19,41253.444441
-20.500992,18,41253.857482
-10.763375,19,41254.541025
-15.332436,22,41255.016421
-15.516167,19,41255.56834
-22.171226,19,41255.888775
-15.841093,19,41256.39441
-11.169867,19,41256.76551
-14.687136,19,41257.164973
-19.345184,22,41257.756884
-15.876893,20,41258.135117
-20.03833,23,41258.778348
-7.143557,21,41259.200244
-10.683438,20,41259.853441
-10.823181,19,41260.323692
-18.762338,17,41260.854496
-19.675588,20,42455.232856
-14.536556,19,42455.686074
-8.210905,19,42456.316635
-19.924576,19,42456.8357
-22.301319,19,42457.421539
-16.937353,20,42457.908435
-12.066788,18,42458.463754
-11.095322,19,42458.925966
-9.115681,20,42459.495654
-14.848823,19,42459.988687
-16.739129,19,42460.516253
-15.4181,19,42461.104355
-13.317094,21,42461.725841
-14.083044,20,42462.317379
-13.153721,19,42462.948716
-12.699407,19,42463.514313
-16.740797,19,42464.056026
-10.553296,22,42464.422773
-14.755728,18,42464.901422
-18.576897,18,42465.213273
-10.899692,19,42465.566029
-15.833086,20,42466.132773
-14.828619,20,42466.509754
-14.930147,19,42467.003957
-12.375826,20,42467.431932
-22.609938,19,42467.94524
-14.691889,19,42468.489634
-9.359677,22,43672.214124
-18.335227,23,43672.753954
-18.489331,20,43673.227875
-14.628399,18,43673.626644
-12.138082,19,43674.14542
-14.316891,20,43674.495199
-13.943865,18,43674.970357
-17.474074,20,43675.424713
-12.616256,20,43675.901178
-16.138496,24,43676.593805
-13.511132,25,43677.367616
-23.942452,19,43677.832125
-29.258981,26,43678.645165
-12.480546,20,43679.213939
-7.180266,19,43679.801943
-12.227752,19,43680.294029
-7.74189,19,43680.908906
-13.624704,20,43681.366675
-13.795637,20,43682.004776
-19.59672,21,43682.62093
-14.234156,19,43683.192767
-17.663268,20,43683.660601
-18.082151,18,43684.149081
-20.497329,23,43684.632564
-8.960861,19,43685.152135
-23.118279,19,44889.673281
-17.592227,25,44890.352123
-9.273311,19,44890.794562
-10.831708,24,44891.550595
-18.258896,21,44892.109726
-4.58121,22,44892.643351
-11.62308,21,44893.18797
-14.904253,20,44893.658689
-12.394958,21,44894.201532
-15.33413,19,44894.721487
-17.720454,19,44895.120627
-7.412747,21,44895.719109
-16.739725,20,44896.102891
-20.436082,23,44896.695288
-14.313676,19,44897.089495
-16.896838,24,44897.676944
-15.487127,19,44898.051169
-10.992528,19,44898.552998
-10.666718,18,44898.978528
-13.547357,19,44899.367188
-11.073286,20,44899.916647
-14.481007,28,44900.640819
-20.956092,19,44901.2177
-12.695813,30,44902.103751
-16.416511,21,46106.159966
-25.238302,19,46106.747915
-13.470445,19,46107.21279
-12.57641,19,46107.864026
-17.037007,22,46108.384358
-21.744474,24,46109.096317
-10.074391,20,46109.60715
-20.329979,22,46110.245652
-6.467133,20,46110.704657
-28.335091,19,46111.292432
-12.918224,20,46111.792063
-9.995223,18,46112.354065
-13.426864,20,46112.894417
-19.241741,22,46113.506194
-17.659477,19,46113.879812
-16.984333,17,46114.376729
-11.203405,23,46114.874777
-14.192254,19,46115.305357
-9.755818,20,46115.777429
-20.251355,21,46116.191614
-19.6726,17,46116.639135
-21.867376,24,46117.100646
-16.103217,20,46117.636695
-15.179454,20,46118.032001
-8.964165,22,46118.426275
-14.694803,19,47317.991462
-21.713263,19,47318.548067
-9.923119,20,47318.97986
-9.732727,19,47319.562097
-14.714317,22,47320.070898
-3.169064,20,47320.672223
-3.746303,24,47321.233127
-12.898796,19,47321.816381
-10.826342,21,47322.271116
-15.481303,21,47322.856612
-13.705913,18,47323.281605
-20.017562,17,47323.776103
-11.466205,23,47324.330382
-20.904635,29,47325.03926
-14.046255,20,47325.390788
-13.278729,21,47325.908578
-20.532099,20,47326.275289
-7.309044,21,47326.650143
-26.388897,27,47327.298469
-11.682674,21,47327.721984
-13.621587,26,47328.376685
-22.668337,18,47328.712315
-24.087385,32,47329.520086
-13.221811,19,47330.000055
-19.216682,19,48514.323427
-21.641014,20,48514.83022
-11.572736,19,48515.243988
-20.562631,19,48515.583037
-16.940028,18,48516.029129
-18.013068,20,48516.368842
-17.654057,19,48516.648827
-19.86487,23,48517.291026
-17.388148,19,48517.612813
-11.639045,18,48518.167248
-10.593736,18,48518.541677
-15.189797,22,48519.031548
-15.303558,22,48519.621774
-15.813898,19,48520.138627
-14.465021,18,48520.577954
-6.959676,19,48521.201368
-28.447076,23,48521.786748
-12.852959,18,48522.223181
-22.516187,19,48522.761285
-12.04664,18,48523.160676
-6.286237,19,48523.75501
-13.911625,23,48524.224198
-17.472511,20,48524.801958
-15.951855,20,48525.281601
-11.783472,19,48525.857831
-15.112935,20,48526.29602
-10.894903,29,49445.433767
-17.334723,19,49445.824673
-15.717401,21,49446.312497
-15.436343,21,49446.702215
-16.403658,19,49447.062379
-8.550576,21,49447.485571
-16.046756,20,49447.87801
-16.107153,20,49448.28865
-22.880415,21,49448.710611
-15.099696,20,49449.147656
-9.772325,20,49449.574203
-5.607835,21,49450.004652
-6.36421,21,49450.432639
-10.536772,19,49450.809562
-9.383145,20,49451.141175
-12.462644,20,49451.482184
-9.208429,21,49451.829069
-10.541934,18,49452.073298
-10.868195,22,49452.47915
-11.830966,19,49452.790027
-8.857328,20,49453.110925
-12.832817,20,49453.410282
-6.516415,20,49453.790808
-8.811906,23,49454.119422
-6.991741,19,49454.446157
-6.182114,20,50296.770064
-10.777167,19,50297.089121
-21.368903,21,50297.437938
-18.094846,20,50297.792118
-17.616619,18,50298.061462
-13.28853,20,50298.372702
-7.169621,22,50298.781888
-13.448864,27,50299.31666
-10.840838,20,50299.666573
-8.487811,18,50300.00249
-10.839362,20,50300.354419
-11.039245,19,50300.682087
-11.629077,22,50301.0578
-10.509485,21,50301.44223
-11.130855,24,50301.863801
-9.444027,22,50302.232949
-6.025662,21,50302.572579
-13.057847,21,50302.969309
-16.052078,20,50303.351665
-8.019861,22,50303.72667
-13.197814,19,50304.067399
-13.068241,19,50304.402179
-13.270229,21,50304.726385
-12.279482,23,50305.068802
-11.796208,21,50305.443336
-11.623721,28,51128.18455
-11.458645,27,51128.517779
-21.363832,20,51128.769333
-21.419575,22,51129.06111
-10.050946,23,51129.331668
-15.388128,20,51129.580353
-9.004231,22,51129.8338
-21.563165,19,51130.061358
-10.303848,20,51130.313443
-12.893812,19,51130.531329
-12.433336,20,51130.76862
-17.464554,20,51131.035442
-13.626416,21,51131.318896
-5.278214,25,51131.64877
-15.972933,18,51131.897078
-16.82316,29,51132.269073
-6.934103,24,51132.590624
-6.177091,25,51132.933306
-19.661631,21,51133.208719
-19.498349,25,51133.545314
-8.819571,27,51133.924104
-17.415679,18,51134.17676
-28.757748,26,51928.090123
-11.04396,34,51928.435463
-9.413982,21,51928.658129
-12.901869,20,51928.873603
-13.10236,19,51929.08216
-22.600112,18,51929.266593
-15.112609,20,51929.450198
-10.34932,18,51929.672437
-17.004026,20,51929.930064
-16.01393,20,51930.166084
-7.178915,19,51930.390985
-16.194894,20,51930.610014
-9.633359,20,51930.842306
-15.797063,22,51931.086578
-14.268713,21,51931.34375
-9.841249,21,51931.559197
-9.330633,22,51931.801815
-10.5738,19,51932.007929
-15.605165,20,51932.219717
-16.879327,19,51932.412521
-10.832645,20,51932.610112
-15.890916,19,51932.817158
-19.126545,20,51933.028276
-11.336592,20,51933.248484
-9.441722,26,51933.528566
-5.345392,31,52722.224067
-8.393381,19,52722.448403
-17.651239,21,52722.679304
-6.047436,20,52722.898585
-7.151868,20,52723.140629
-19.725333,19,52723.36669
-5.555818,19,52723.568837
-11.241893,18,52723.767711
-22.912525,25,52724.038267
-5.617018,19,52724.250953
-11.949307,19,52724.447242
-17.431027,27,52724.740862
-16.406851,29,52725.056483
-15.445319,20,52725.268609
-6.224985,40,52725.713131
-12.383223,21,52725.93291
-17.505858,25,52726.197489
-19.941878,20,52726.405138
-5.808934,21,52726.619951
-10.177197,18,52726.819636
-18.031927,28,52727.105384
-13.89312,18,52727.30441
-8.798684,20,52727.537002
-13.041614,19,53697.457863
-15.63109,20,53698.632666
-4.964217,22,53699.491753
-8.746067,21,53700.584702
-16.414529,18,53701.448851
-13.377948,21,53702.33978
-11.168413,19,53703.483203
-12.448538,22,53704.859844
-9.554991,22,53705.931853
-7.299336,20,53706.679299
-10.380205,22,53708.11982
-9.1959,21,53709.291731
-21.913752,31,53710.723152
-13.755738,20,53711.802166
-12.825475,20,53712.848489
-0.390091,23,53714.080334
-9.653543,20,53715.299538
-16.332772,23,53716.406885
-8.750567,19,53717.562371
-14.778372,19,53718.520843
-16.723936,16,53719.53655
-9.436996,20,53721.091624
-7.595364,21,53722.01243
-16.94974,19,53723.160614
-8.551071,23,56313.289976
-8.063425,23,56314.736904
-11.189897,20,56315.967938
-19.7568,20,56317.441029
-10.164154,20,56318.74088
-22.307562,35,56320.601477
-18.95862,20,56321.7096
-6.691053,21,56323.105464
-9.264481,19,56324.23709
-11.099635,19,56325.491722
-6.593719,20,56326.255074
-12.10786,21,56327.324943
-3.593023,21,56328.53617
-18.326322,20,56329.892035
-6.81759,21,56330.993096
-4.934034,30,56332.420848
-5.637779,19,56333.434084
-4.476221,21,56334.831318
-4.565457,20,56335.849236
-22.877918,37,56337.733397
-11.569982,19,56338.653382
-12.317037,19,56339.713625
-18.076449,21,56341.32922
-12.559288,19,56342.293634
-11.706875,21,58925.590474
-10.592373,23,58926.855753
-11.801561,18,58927.880485
-7.710625,21,58929.234241
-10.970753,21,58930.603031
-13.836423,18,58931.736002
-7.718365,20,58932.822069
-8.118187,32,58934.920992
-9.875434,22,58936.511019
-18.164128,19,58937.499507
-33.379029,20,58938.638724
-7.204239,27,58940.092104
-0.415836,19,58941.63038
-10.843033,20,58942.992816
-11.072343,19,58944.292109
-7.785028,20,58945.489549
-11.152233,26,58947.318371
-10.241344,20,58948.611859
-15.510442,18,58949.646555
-10.369271,20,58950.789846
-19.387166,18,58952.117059
-7.243094,20,58953.353049
-0.996205,21,58954.249007
-11.220567,19,58955.405759
-12.362603,22,61554.716583
-10.265742,20,61556.04061
-11.430647,20,61557.314968
-6.586946,27,61558.855431
-3.896911,25,61560.474346
-19.319518,20,61561.701212
-24.757832,21,61562.818062
-13.794058,22,61564.115429
-17.917076,20,61565.048626
-29.115687,21,61566.230101
-9.045038,21,61567.357037
-16.504804,20,61568.531781
-8.732242,21,61569.710643
-17.182891,20,61570.812883
-3.574659,22,61572.235255
-12.220817,18,61573.56737
-14.253991,21,61574.717442
-9.292605,21,61576.067704
-7.101859,20,61577.437296
-19.047786,20,61578.926222
-13.277485,18,61579.720537
-8.25151,22,61580.842593
-14.991793,20,61581.684759
-15.460175,21,61582.860213
-10.634441,20,61584.016302
-10.958394,20,64165.332927
-9.180707,19,64166.466831
-14.034614,28,64168.610126
-13.663331,20,64169.933877
-11.362533,19,64170.823273
-11.41079,19,64172.004038
-14.040889,26,64173.559393
-8.2268,20,64174.946747
-13.986123,21,64176.291157
-12.514842,19,64177.234372
-13.465083,18,64178.326473
-8.302261,22,64179.968725
-12.845506,18,64181.287676
-2.262815,23,64182.842037
-12.258706,19,64184.211877
-1.264757,23,64185.561391
-13.395623,18,64186.723791
-11.877288,19,64188.020876
-12.019959,19,64189.234609
-14.127138,27,64191.138126
-13.829802,20,64192.294358
-10.23019,25,64193.76115
-9.229123,25,64195.366817
-13.49269,22,64196.65648
-9.319305,20,66803.608575
-16.83023,27,66805.376638
-6.381631,22,66806.463566
-11.062485,20,66807.526226
-6.81655,20,66808.578427
-12.220969,20,66810.074774
-14.565761,28,66811.96575
-12.649959,20,66813.563725
-15.356565,20,66815.000216
-16.155829,19,66816.200941
-10.821053,36,66817.855381
-12.192229,21,66819.417482
-1.717988,22,66820.958523
-6.432207,19,66821.982537
-14.329419,29,66823.751692
-12.479219,19,66824.984993
-15.556174,21,66826.388084
-16.814454,28,66828.077853
-16.934011,21,66829.190056
-6.146932,23,66830.814453
-6.326042,27,66832.410922
-15.663588,17,66833.380679
-7.702466,22,69426.418288
-4.913729,20,69427.42807
-11.56274,19,69428.602355
-7.945586,18,69429.695323
-11.386816,21,69431.293507
-16.723894,19,69432.690464
-9.646573,21,69434.323717
-24.784027,24,69435.893491
-4.370693,27,69437.434169
-4.039458,25,69438.90531
-14.399658,19,69439.979683
-8.534026,19,69441.116883
-32.469701,29,69442.996025
-8.679409,25,69444.710324
-13.136249,19,69445.728538
-10.783058,29,69447.472111
-13.248312,20,69448.77757
-12.713087,24,69450.258956
-11.105147,20,69451.284242
1.842159,27,69452.821141
-11.37183,20,69454.118804
-7.312718,24,69455.529449
-3.597683,28,69457.528639
-14.023954,19,72044.617233
-8.156497,24,72045.752341
-14.508681,20,72046.494343
-4.372773,21,72047.588334
-8.28472,28,72049.308017
-1.695703,18,72050.209788
-17.575543,18,72051.659437
-9.977026,30,72053.331195
-15.197111,19,72054.545042
-10.59184,22,72056.206164
-9.976872,20,72057.333835
-11.668944,19,72058.331396
-5.228832,24,72059.989911
-8.632874,20,72061.143657
-17.102266,18,72062.349034
-14.544848,19,72063.557599
-9.816142,22,72064.923981
-13.49795,24,72066.501113
-11.441469,20,72067.58841
-12.197701,21,72068.747539
-11.230948,20,72070.108543
-12.498316,20,72070.964754
-13.805601,29,72072.763365
-7.139857,20,72073.784959
-11.768426,17,74655.749595
-13.121622,20,74656.56177
-9.827544,32,74658.432334
-8.043754,22,74659.468393
-12.291003,23,74660.628029
-14.626197,22,74661.885014
-8.80786,29,74663.36602
-0.760126,23,74664.632881
-12.721064,20,74665.692798
-12.973013,22,74666.974218
-11.857321,20,74667.815077
-13.923013,25,74669.402959
-5.778987,20,74670.509101
-12.486949,23,74672.103366
-18.351693,19,74673.251897
-10.989968,29,74675.049293
-15.315037,23,74676.386912
-10.163147,21,74677.5099
-3.609846,25,74678.608775
-13.472562,19,74679.75089
-5.396429,29,74681.813039
-11.773717,19,74682.838598
-14.496408,21,77276.764396
-8.717297,19,77277.515275
-20.467065,19,77278.71584
-13.373396,22,77280.063736
-10.992177,18,77281.168921
-12.276048,24,77282.696959
-6.797427,20,77284.074478
-15.49762,18,77285.088646
-12.719999,20,77286.141006
-4.890476,20,77287.463655
-11.197254,18,77288.565659
-10.156565,19,77289.735133
-12.963208,21,77290.722495
-11.260674,29,77292.456149
-7.496056,20,77293.826377
-17.076153,22,77295.178399
-10.304922,21,77296.417331
-5.060545,21,77297.623182
-8.956806,21,77298.734857
-9.615272,22,77300.351451
-5.968103,21,77301.776567
-5.434042,26,77303.785588
-17.163777,21,77305.340235
-3.900098,24,77306.694587
-10.631841,21,77308.063601
-16.13395,31,79896.833077
-10.086484,23,79898.086473
8.136623,33,79900.505285
0.310485,27,79902.331712
-4.982239,27,79903.803176
-19.993946,20,79904.9411
-9.090904,22,79906.414452
-3.161933,31,79908.277161
-8.617263,22,79909.909359
-12.099294,20,79911.047528
-13.327293,21,79912.495612
-18.84475,17,79913.690397
-7.453202,20,79914.98223
-6.734333,20,79915.962095
-8.61143,20,79917.152881
-6.373722,21,79918.498355
-6.515544,22,79919.842769
-13.32028,20,79920.580144
-15.181582,23,79921.753625
-11.049228,18,79922.592886
-10.897532,31,79924.180062
-13.245218,21,79925.374676
-9.52489,21,82520.104922
-10.063239,20,82521.388767
-23.462141,29,82523.252646
-14.308432,22,82524.779729
-12.007405,28,82526.797929
-3.453697,24,82528.305972
-8.933706,20,82529.189558
-5.573547,19,82530.468085
-1.132301,28,82532.073927
-6.813881,21,82533.29802
-10.624718,19,82534.308644
-11.021465,20,82535.397242
-14.909009,22,82536.474268
-16.617243,20,82537.777882
-18.203229,23,82539.454183
-13.145304,22,82541.007608
-12.289262,21,82542.12216
-20.470732,18,82543.523216
-8.779493,19,82544.39388
-18.32412,25,82545.877847
-10.436587,20,82547.106332
-13.389071,20,82548.504356
-12.159121,19,82549.708889
-12.654184,29,85138.897316
-5.349097,20,85140.255773
-11.745997,26,85141.818076
-22.964852,28,85143.557438
-11.85263,23,85145.062201
-8.275531,21,85146.501091
-8.300171,26,85148.061025
-3.427142,27,85149.514031
-20.407208,26,85150.826616
-15.461672,29,85152.425371
-11.421931,20,85153.54623
-9.594915,20,85154.907587
-5.800112,20,85156.021402
-9.827232,20,85156.830662
-24.907681,19,85157.851395
-11.223783,24,85159.468926
-9.843865,21,85160.637037
-4.645041,21,85161.726948
-14.957491,20,85163.268522
-10.908103,20,85164.29504
-9.511408,22,85165.430193
-14.016352,19,85166.180845
0.549232,27,85167.765172
-6.050694,26,87766.339837
-13.189948,20,87767.602763
-20.259318,18,87768.667379
-12.742751,21,87769.833766
3.135791,29,87771.08017
-7.294145,25,87772.304723
-23.619672,30,87774.014574
-6.552222,19,87774.923266
-15.647312,20,87776.140698
-14.38309,19,87777.082129
-13.678574,18,87778.137148
-14.4325,19,87779.479967
-6.445065,22,87780.620748
-13.943812,25,87781.840506
-14.400037,21,87783.131461
-16.6889,19,87784.376364
-12.480783,25,87785.835545
-9.17093,22,87786.778222
-9.820418,24,87787.933396
-20.575667,26,87789.166856
-9.487698,20,87790.356915
-12.478022,19,87791.373083
-8.175465,30,90388.838655
5.164991,29,90390.71211
-11.390711,23,90392.185514
-4.628465,23,90393.305115
-10.94258,26,90394.93327
-16.917662,30,90396.537147
-18.482919,20,90397.742461
-11.237144,20,90398.940584
-15.452308,20,90400.204515
-11.699109,32,90402.058315
-11.56171,19,90402.954515
-24.418265,29,90404.576932
-17.821638,19,90405.819172
-15.270477,19,90406.883126
-16.515116,21,90408.0537
-11.526615,20,90409.256417
-10.2886,19,90410.410661
-13.451744,19,90411.466954
-8.233803,19,90412.618315
-21.371598,18,90413.583988
-9.604558,17,90414.594244
-21.686513,16,90415.470243
-11.776475,19,90416.599905
-11.721563,19,90417.661111
-16.610622,20,93013.082677
2.242408,32,93014.878003
-14.616668,26,93016.489453
-12.789872,27,93018.061757
-6.367299,20,93019.165926
-6.225528,31,93020.795531
-13.388151,20,93022.241016
-13.615935,27,93023.840348
-11.021597,22,93024.87997
-16.894254,22,93026.04147
-9.644786,21,93027.242887
0.742609,26,93028.833881
-8.701778,20,93030.269231
-7.520992,21,93031.584528
-10.58475,20,93033.016349
-13.739054,23,93034.331048
-12.255775,20,93035.622386
-19.289601,23,93036.751753
-7.568494,24,93038.120953
-6.822332,30,93040.150813
-11.327231,20,93041.074172
-21.209835,16,93041.996911
-20.258382,36,95628.021083
-7.477618,19,95628.795601
-18.805929,24,95630.332339
-0.917499,22,95631.499819
-16.734287,26,95633.116261
-9.334133,21,95634.429409
-17.548509,20,95635.739034
-13.252662,19,95636.671654
-6.447029,30,95638.091228
-19.768756,20,95639.339537
-10.740013,21,95640.517804
-6.212863,20,95641.618421
-30.377283,16,95642.390526
-15.33003,19,95643.501262
-12.064227,24,95644.755512
-1.152104,20,95645.66483
-8.264849,20,95646.783381
-9.990683,30,95648.791799
-7.216951,21,95650.219539
-12.687605,25,95651.806324
-0.859629,28,95653.105813
-10.703976,31,95654.837975
-9.792064,23,98243.196746
-11.829068,19,98244.018294
7.611894,30,98245.386728
-4.901563,21,98246.532055
-18.31599,19,98247.666891
-1.680783,39,98249.656804
-9.975677,19,98250.85325
-16.469465,21,98252.376198
-12.339332,19,98253.728183
-4.34934,31,98255.626534
-10.129647,21,98256.964955
-11.06159,26,98258.549351
-11.031491,18,98259.825028
-11.670369,21,98261.313259
-15.842772,19,98262.148383
-2.436213,26,98263.267057
-11.01584,19,98264.330764
-7.860304,17,98265.449671
-13.539606,22,98266.484867
-7.70399,20,98267.613278
-8.497434,23,98268.816225
-10.705843,20,98270.015348
-8.666859,20,98271.182311
-14.024389,19,100846.914673
-12.489284,22,100847.970465
-14.523291,20,100849.024853
-8.553472,21,100850.290436
-11.921674,24,100851.532895
-8.620907,19,100852.639525
-3.771372,21,100853.95792
-24.993079,22,100855.167978
-2.233972,27,100856.726186
-3.031274,25,100858.377938
-6.633811,23,100859.673156
-19.356204,19,100860.737443
-12.801596,21,100861.800925
-9.588826,27,100863.495789
-15.983031,19,100864.803071
-10.388805,20,100865.952357
-7.616345,20,100867.114437
-13.597477,20,100868.240814
-6.962307,24,100870.021178
-5.928184,23,100871.402052
-13.851333,20,100872.754795
-14.562046,28,100874.980715
-11.63957,17,100875.988107
-10.443029,24,103469.419224
-12.261052,20,103470.376947
-10.021818,22,103471.678481
-9.924029,24,103472.765727
-7.669992,19,103473.61017
-2.750786,27,103475.096886
-10.938652,19,103476.532377
-8.72083,26,103478.026861
-21.684709,19,103478.954977
-15.229984,20,103479.932085
-20.92358,24,103481.455871
-5.604721,22,103482.815563
-17.915856,19,103484.102524
-2.333746,20,103485.320761
-4.950996,29,103486.573523
-4.747272,23,103488.02831
-9.91385,20,103489.196959
-7.474417,21,103490.453976
-23.22469,18,103491.231117
-9.487238,20,103492.463915
-14.142818,20,103493.652521
-12.532747,23,103494.741628
-8.922659,39,103496.626863
1.089794,25,106086.172118
-15.151465,20,106087.462495
-10.611932,29,106089.397311
-7.038612,24,106090.837653
-11.378303,20,106091.740153
-18.030637,37,106093.952946
-3.259441,27,106095.339836
-0.628236,25,106096.695884
-7.67841,31,106098.911011
-18.608735,19,106099.816474
-1.241806,27,106101.141344
-12.459868,21,106102.436737
-4.923835,34,106104.760643
-9.672186,22,106106.224128
-24.152142,20,106107.005573
-15.775957,22,106108.028315
-6.197878,20,106109.068721
-4.863726,20,106110.508599
-0.695013,25,106111.708968
-6.0149,23,106112.683563
-7.184335,20,106113.492318
-6.286466,20,108727.170315
-12.841786,20,108728.194434
-16.019397,21,108729.26914
-22.063511,17,108730.051547
-6.736769,29,108731.775805
-6.412539,20,108732.671167
-9.553285,21,108733.809273
-8.030593,21,108734.925722
-12.98672,20,108736.287436
-13.425383,19,108737.596541
-6.7538,20,108738.457425
-12.494691,19,108739.467113
-9.552076,27,108741.217145
-6.234655,20,108742.354823
-6.515757,20,108743.339825
2.753133,27,108744.539236
-8.655132,20,108745.822412
-11.473283,23,108747.350206
-20.005287,19,108748.489615
-14.207861,18,108749.311835
-2.544414,26,108750.846743
-8.787191,22,108752.252252
-15.405145,26,108753.655768
-6.609034,23,108754.937008
-8.6245,20,111356.803487
-11.982055,22,111357.871778
-19.089565,19,111358.918119
-6.690659,19,111359.696795
-8.204641,22,111361.300999
-11.474011,19,111362.596691
-3.556212,20,111363.739321
-6.178796,22,111364.823054
-5.889516,22,111366.192369
-5.756635,22,111367.325356
-7.481335,20,111368.661118
-12.559744,19,111369.977057
-6.810025,28,111371.738879
-7.733169,34,111373.879047
-9.147397,25,111375.273119
-16.74616,23,111376.251812
-14.77126,18,111377.223669
-8.404234,19,111378.482363
-10.503914,19,111379.686594
-8.552365,21,111381.028761
-4.835601,26,111382.287762
0.552132,26,111383.79093
-12.191479,18,111385.211045
-12.456474,28,113979.21312
-5.836321,27,113980.792722
-7.940596,25,113982.464653
-13.061906,19,113983.866633
-7.593504,20,113984.934564
-14.684724,23,113986.411607
-15.626639,20,113987.639407
0.239606,33,113989.91292
-9.954064,23,113991.194713
-9.040417,19,113992.385798
1.467037,30,113993.941272
-9.128755,19,113995.290957
-9.995514,20,113996.569422
-18.253469,17,113997.687989
-16.280791,19,113998.848919
-26.021991,20,113999.916099
-5.814334,20,114000.96565
-0.486468,32,114003.029017
-16.391833,25,114004.117396
-4.506983,25,114005.369797
-9.972041,19,114006.656978
-3.11121,26,114008.258567
-4.73779,29,116599.043896
-14.166032,21,116600.480211
-7.188526,24,116601.713404
-4.50932,20,116602.814268
-14.802625,21,116603.974709
-6.844644,20,116605.054582
-0.51788,28,116606.963922
-9.059709,19,116608.02516
-4.67192,35,116609.663608
-6.328305,20,116610.996979
-5.257119,27,116612.353262
-8.264391,20,116613.413176
9.1278,30,116614.511962
-7.36344,19,116615.636978
-9.805457,19,116616.660996
-15.527645,30,116618.366148
-8.165778,19,116619.201545
-8.945173,19,116620.462163
-14.473737,23,116622.057198
-11.23532,22,116622.870099
-15.462894,19,116623.734984
-8.164088,17,116624.765307
-22.469142,18,116625.718233
-17.910797,29,119235.703309
-19.581167,21,119236.753214
-7.603434,22,119238.063898
-14.771711,27,119239.699641
-10.398601,21,119240.800442
-11.241307,26,119242.375881
-15.677801,20,119243.224082
-12.627113,22,119244.196604
-1.642862,20,119245.28704
-5.960982,21,119246.451749
-8.387885,20,119247.452132
-19.970558,19,119248.123615
-8.539408,25,119249.378382
-8.108257,20,119250.648649
-15.159103,32,119252.506427
-11.136417,27,119254.057083
-1.985047,27,119255.552983
-17.502328,19,119256.372372
-6.036137,24,119257.640674
-10.771507,21,119258.760844
-20.656689,22,119259.904671
0.302693,26,119261.432138
-11.831794,28,121867.309628
-7.672717,21,121868.694868
-13.839054,20,121869.856529
-6.272392,28,121871.511239
-14.773657,19,121872.730242
-13.606666,21,121874.010058
-2.101828,27,121875.949418
-10.892226,24,121877.401271
-17.470191,25,121878.70654
-9.07464,27,121880.353648
-6.030243,23,121881.510155
-5.757712,30,121883.360868
-7.302992,25,121885.176289
-4.896805,19,121886.23541
-12.804253,23,121887.56213
-12.110935,18,121888.49437
-18.507316,20,121889.7733
-18.476494,20,121890.994468
-19.858049,19,121891.98423
-21.914113,23,121893.179975
-8.373341,31,121894.678561
-10.467515,20,121895.750945
-12.002755,23,124479.197203
-6.327451,28,124481.326256
-5.839856,20,124482.52753
-14.524443,18,124483.733455
-10.029777,29,124485.508146
-11.069753,22,124486.741424
-8.211277,21,124487.997081
-9.507699,20,124488.971391
-7.736099,23,124490.352551
-4.339121,21,124491.544813
-5.930024,24,124492.830464
-10.984735,22,124494.448896
-12.102704,24,124496.046912
-2.871136,21,124496.887417
1.511311,26,124497.95608
-3.898017,21,124499.084514
-23.08108,18,124500.12482
-8.181444,26,124501.671997
-9.078475,19,124502.726247
-6.142295,25,124504.264662
-9.387958,24,124505.886557
-7.42714,27,124507.694204
-13.047738,20,124508.737068
-13.563031,19,127096.061811
-2.050721,21,127097.108846
-9.076337,27,127098.564537
-13.098566,22,127099.797036
4.555216,31,127101.800662
-16.594497,19,127103.15941
-18.366365,32,127104.794324
-14.40847,19,127105.85822
-6.883062,21,127107.252442
-6.110264,21,127108.892692
-13.909164,21,127109.797395
1.557327,31,127111.319964
3.993419,35,127113.398719
-15.053973,20,127114.615229
-31.034184,31,127116.315551
-20.866652,29,127117.906617
-9.538358,20,127119.166454
-12.377094,26,127121.06834
-8.208416,21,127122.384214
-21.489066,20,127123.512913
-15.202014,21,127124.511562
-13.81741,21,129707.516356
-5.143823,31,129709.255343
-8.884108,19,129710.200773
-12.936983,21,129711.495218
-8.491507,35,129713.523458
-11.515487,22,129714.98375
-15.594313,23,129716.398809
-13.213517,28,129718.1382
-16.743712,22,129719.517091
-3.753243,22,129720.869015
-15.476709,20,129722.043661
2.366365,27,129723.287846
-14.729832,20,129724.66544
-1.791649,24,129726.513138
-16.263738,23,129727.774577
-9.878593,19,129729.089293
-16.26544,20,129730.535224
-7.374463,36,129732.7479
-14.558708,23,129733.938566
-27.892496,17,129734.734898
-13.872701,20,129736.315562
-6.994982,23,129737.551638
-12.542055,26,132348.940078
-19.936413,20,132350.179296
-6.606965,27,132351.837095
-7.008409,19,132352.745088
-9.004524,23,132353.858392
0.018097,28,132355.134203
-21.138886,23,132356.362381
-21.657379,20,132357.501436
-2.644181,34,132359.541046
-8.856149,27,132361.192927
-17.51119,18,132362.124382
-9.649556,19,132363.482698
-6.430889,28,132365.176593
-18.74593,24,132366.42064
-11.024675,21,132367.303144
-16.51962,25,132368.583921
3.285304,36,132371.069349
-0.425035,30,132372.641526
-10.576785,20,132373.731737
-12.919823,22,132374.815699
-11.190827,23,132375.557235
-8.898286,21,134945.426859
-16.630294,19,134946.67864
-17.019717,23,134947.96623
-11.699887,19,134948.840489
-6.344219,25,134949.980612
-6.837705,20,134951.042069
-12.784419,21,134952.009604
-4.328647,20,134953.24049
-12.764139,32,134955.492136
-6.063514,23,134956.316778
-17.925374,18,134957.464342
-5.28153,20,134958.742234
-10.337034,20,134959.764336
-19.660724,19,134960.881012
10.526516,31,134962.80371
-6.823565,20,134964.329501
-9.824276,20,134965.400101
-3.645975,22,134966.767925
-11.87492,21,134967.829202
-1.41319,30,134969.490083
-0.09285,31,134971.10512
-5.626865,23,134972.587383
-7.858926,31,137579.828436
-6.483747,31,137581.628806
-10.532492,21,137583.049374
-15.861097,17,137584.133046
-12.876714,20,137585.278035
-5.250555,26,137586.947338
-10.488313,24,137588.282958
-10.536541,23,137589.738935
6.095489,34,137591.69706
-13.294108,19,137592.860741
-12.618988,21,137593.979332
-12.0177,25,137595.399342
-7.187945,19,137596.529499
-12.679025,27,137597.959502
-16.823,24,137599.164651
-13.165948,21,137600.062479
-11.501944,22,137601.21892
-12.656976,20,137602.468599
-3.40636,24,137603.698531
-13.471612,20,137604.65084
-7.870724,20,137606.00217
-14.411089,20,137607.164405
-20.373116,19,137608.166424
-4.148965,27,140201.228599
-17.834031,28,140202.462369
-2.255486,28,140204.339771
-14.354572,18,140205.498219
-11.452918,21,140206.680028
-9.511324,20,140207.666149
-20.717105,25,140209.504413
-9.043982,20,140210.691271
7.169253,41,140212.366178
-5.542366,35,140214.4099
-8.593447,24,140216.07609
-7.525198,46,140217.94261
-13.885358,18,140218.964099
-9.671558,30,140220.793422
-8.678286,25,140222.401689
-6.532072,25,140223.783967
-12.852744,22,140224.96759
-10.628347,20,140226.402897
-0.790025,31,140228.023211
-9.223972,21,142815.354521
-32.112382,17,142816.51092
5.281665,30,142818.426205
3.89566,28,142819.906261
-4.688672,19,142821.08194
-7.835606,25,142822.701709
0.391102,31,142824.313111
-10.984322,28,142826.326748
-4.462591,36,142828.467308
-20.536737,25,142830.083582
-5.034916,30,142832.106595
-11.510341,25,142833.712841
-1.119979,29,142835.52513
-2.065849,24,142837.259073
4.585903,30,142838.950286
-11.983908,26,142840.702074
-24.381137,18,142842.1308
-18.119914,19,142843.428432
-24.754507,25,142844.777859
-8.214226,21,142846.173682
-18.870913,20,145440.543577
10.162272,33,145442.190786
-1.705651,30,145443.832219
-8.007536,40,145446.198328
-13.236471,27,145447.472823
-27.2414,25,145448.258321
-17.209253,29,145449.977067
-7.513569,39,145452.352166
-9.730608,21,145453.360063
3.084654,30,145454.773489
-5.809143,24,145456.59148
-7.846217,25,145457.957762
-12.108426,21,145459.158978
-5.17973,32,145461.181106
5.193025,28,145462.967115
-14.24762,20,145463.967208
-5.926979,21,145465.263053
-14.248615,23,145466.588544
-0.734801,31,145468.539974
-0.81715,27,148060.630594
-14.288021,24,148062.18179
-21.451795,20,148063.656832
-7.820118,30,148065.434226
-12.339414,19,148066.539216
-19.345485,35,148068.486172
-18.836078,18,148069.718967
-5.511422,30,148071.711665
3.633276,32,148073.743238
14.563651,34,148075.867533
-8.4305,21,148077.103781
-13.532686,32,148078.720734
-4.584587,22,148079.863581
-13.147841,19,148081.125165
-9.906407,25,148082.548329
-10.934707,20,148083.614028
-2.317403,24,148085.18863
-2.461105,26,148086.78312
-18.088655,18,148087.777143
-1.199226,29,148089.527054
-12.427473,19,148090.628927
-1.374416,31,150817.891271
-19.772653,17,150818.594107
-9.519749,20,150819.370765
-21.24256,24,150820.436713
-16.337952,25,150821.24061
-7.769272,19,150821.80661
1.41502,28,150822.771134
0.946046,26,150824.043193
0.877974,33,150825.335441
7.008234,36,150826.487834
-7.514598,31,150827.769742
-8.78381,18,150828.366143
1.47498,36,150829.463904
-7.027656,25,150830.418552
7.134146,36,150832.104318
-11.88982,33,150833.296407
-16.926612,23,150834.02843
-5.208659,25,150834.8525
-1.929372,32,153511.752993
-14.467414,20,153512.424093
-5.742827,39,153513.713988
2.105338,30,153514.711481
-17.415345,20,153515.295654
8.317664,30,153516.477662
-3.752202,35,153517.687629
-19.697752,24,153518.506409
-7.203232,34,153519.385538
-10.11282,21,153519.872268
-7.672187,22,153520.429496
-14.814246,19,153520.878803
-0.499392,29,153521.83201
-21.577688,20,153522.428978
-9.651517,19,153522.962695
-14.076625,20,153523.400187
-15.012283,20,153523.986942
-17.033545,27,153524.780463
-12.303003,24,153525.483809
-18.891842,33,153526.488745
-13.54962,20,153527.112335
-5.578445,33,155259.532593
-15.125325,20,155259.975447
0.241162,31,155260.690352
-28.741217,29,155261.423227
-4.931918,29,155262.062772
-17.378762,20,155262.50855
-17.255428,24,155263.099025
-21.616622,19,155263.626252
-14.386838,21,155264.154859
-9.522432,20,155264.599455
-6.01939,28,155265.408993
-12.481816,19,155265.910185
-8.020242,20,155266.438181
-2.706966,33,155267.371806
2.816012,29,155268.180692
-21.284861,19,155268.667125
-20.586271,26,155269.408429
-4.95197,21,155270.013031
3.005456,33,155271.017476
-16.347451,22,155271.521572
-9.10667,22,156554.904021
-16.443612,19,156555.185774
-17.970458,23,156555.531208
-21.436655,21,156555.848673
-11.265212,26,156556.283579
-12.377392,22,156556.680997
-14.340639,24,156557.129827
-17.540028,19,156557.38396
-9.83171,26,156557.844361
-16.471966,27,156558.26402
-1.764753,32,156558.817967
-9.561037,20,156559.165522
-3.780565,26,156559.618414
-14.530044,20,156559.948325
-2.127793,31,156560.42433
-19.246395,21,156560.787965
-5.03999,30,156561.341928
-9.093221,21,156561.702008
-2.485594,34,156562.294883
-15.821198,20,156562.610015
-10.752714,23,156562.996261
-10.73849,22,157484.307336
-9.372106,32,157484.651465
-20.930826,16,157484.846079
-1.123277,27,157485.138979
-13.734674,20,157485.34728
-3.921601,35,157485.720653
-6.47299,22,157485.983984
-18.068191,20,157486.216089
-22.733061,26,157486.490946
-14.880762,25,157486.749781
0.201006,27,157487.068626
-7.509186,32,157487.446663
-10.948623,24,157487.72767
-12.110102,20,157487.964156
-4.484222,31,157488.34065
-13.270796,25,157488.623293
-1.623533,32,157488.980813
1.409042,30,157489.337782
-14.903985,19,157489.563682
-12.793573,20,157489.788479
-6.644738,21,157490.000344
-14.774198,19,158284.557058
-9.706384,26,158284.83836
8.564511,35,158285.216383
-15.001141,22,158285.469776
1.782268,30,158285.828869
-13.375025,28,158286.15689
-8.88411,21,158286.372876
-6.070571,28,158286.698768
-11.423779,19,158286.906799
-9.246104,19,158287.105444
-14.32571,20,158287.339603
-16.698187,21,158287.56609
-14.818021,20,158287.804215
-12.069059,21,158288.040415
-15.187195,20,158288.260998
-9.864941,22,158288.500327
-8.33483,36,158288.893461
-18.17652,29,158289.235248
-3.634218,27,158289.518578
4.579494,40,158289.96148
-22.550709,26,159084.696175
-23.695226,24,159084.957593
-16.628483,19,159085.186877
-10.285066,20,159085.419241
3.720376,37,159085.856205
-12.532095,24,159086.139459
-11.2029,19,159086.3766
-13.818318,24,159086.625096
4.732619,32,159086.960178
-21.071817,21,159087.205515
2.821816,30,159087.567647
-3.232152,35,159087.932122
-4.848816,39,159088.358236
-18.983335,31,159088.730251
-9.67651,22,159088.979433
-12.872954,26,159089.268959
-18.407637,17,159089.452972
-10.524411,23,159089.745163
-6.396743,22,159089.996841
-10.840169,20,159090.203442
-11.284529,27,159885.852479
12.880511,38,159886.27439
-13.598867,34,159886.650498
-14.712187,21,159886.876919
-11.596093,19,159887.111566
-7.987961,21,159887.339065
1.154408,32,159887.685194
-26.350809,31,159888.025873
-15.740875,20,159888.280631
-5.147006,29,159888.593305
-13.824704,22,159888.817718
1.358461,30,159889.122817
-14.66228,21,159889.383138
-5.888206,20,159889.610116
-17.571272,20,159889.819122
-22.503016,21,159890.035519
-6.736673,26,159890.313429
-17.357597,20,159890.571147
0.790012,37,159890.980642
-35.851899,33,159891.356179
-11.251169,19,160686.403671
-12.473001,21,160686.632198
-14.435697,22,160686.881853
-13.736617,27,160687.197376
-14.541839,19,160687.477104
-12.491555,35,160687.873847
-8.212391,21,160688.096756
-16.193064,28,160688.416301
-17.190564,19,160688.656503
3.837978,30,160688.973753
-6.766896,32,160689.31124
-12.727645,22,160689.545841
-11.537274,19,160689.775585
-1.60012,22,160690.017712
-2.112679,32,160690.346636
-10.66938,19,160690.544769
-18.488275,19,160690.738681
-1.315207,32,160691.104203
7.937718,41,160691.55503
-6.777854,34,160691.93644
4.756406,35,161486.835856
-18.717385,18,161487.049664
-12.671319,20,161487.28856
-0.876545,32,161487.650925
-7.579514,26,161487.963288
-23.432428,26,161488.249895
-10.778978,22,161488.493866
13.19969,42,161488.949523
-13.645691,22,161489.206507
-13.074683,24,161489.469967
-31.709365,18,161489.648649
-4.583397,28,161489.942784
-16.876484,18,161490.13648
5.370621,29,161490.491088
-8.598572,30,161490.80696
3.484073,30,161491.140008
-15.48507,24,161491.424047
-6.022876,21,161491.66472
-24.905016,17,161491.853408
-12.386872,24,161492.108093
-10.207371,34,162287.257329
-2.162812,30,162287.564662
-17.632714,37,162287.950735
-5.404582,30,162288.272853
-9.621588,27,162288.575125
-7.527623,20,162288.784894
-17.357479,20,162289.000575
-22.170163,18,162289.195268
14.194851,31,162289.533982
-10.731721,24,162289.809411
-10.68117,20,162290.021996
-7.328902,23,162290.280074
-5.178105,25,162290.546136
-20.301507,19,162290.781517
-15.95501,26,162291.037076
-12.282905,26,162291.343704
0.902196,31,162291.695746
-22.279333,37,162292.128492
-8.237997,29,162292.457523
-6.707365,35,163087.361772
-3.256255,31,163087.715852
-12.101402,24,163087.971356
-14.977631,34,163088.320643
-24.769878,18,163088.526486
-21.73044,26,163088.808186
-24.559138,29,163089.152933
-21.915725,24,163089.432836
-19.720454,20,163089.676939
-13.28587,20,163089.903498
-12.049041,19,163090.10254
-24.49332,21,163090.348391
-26.832034,17,163090.539612
-14.069809,23,163090.821924
-12.622017,24,163091.092434
-2.817325,30,163091.427719
-20.419011,21,163091.651371
-6.17906,28,163091.965271
-18.667822,22,163092.213929
-12.899308,31,163092.548544
-12.708128,20,163092.76691
-12.500097,19,163887.138548
-11.232979,21,163887.358962
-2.106526,25,163887.624731
-18.759555,29,163887.911401
-14.485488,19,163888.145632
-23.472733,19,163888.331755
-19.511736,18,163888.530723
-19.904677,19,163888.730388
-10.927625,43,163889.235448
-22.365216,21,163889.500929
-14.341704,21,163889.758342
-17.526003,18,163889.961982
-5.041106,26,163890.233383
-11.427939,24,163890.529679
-19.21834,20,163890.763049
-13.269006,22,163890.981074
-21.235778,18,163891.16471
-13.512974,20,163891.384877
-8.13314,34,163891.789731
-8.739945,25,163892.064816
-8.177687,22,163892.305089
-2.132222,25,163892.584621
10.759508,37,164688.178188
4.078353,30,164688.506468
-13.187837,20,164688.72284
4.995577,31,164689.055557
-18.138692,37,164689.48423
-15.346885,21,164689.703968
-4.402789,37,164690.090523
-8.216352,33,164690.475696
-11.879763,23,164690.717255
-5.679167,32,164691.061691
8.983703,40,164691.517495
-15.075721,18,164691.721255
-4.163296,33,164692.088027
-4.799101,22,164692.318945
2.306695,31,164692.65673
-15.863539,30,164692.999862
-11.629785,34,164693.375568
-0.013642,31,165488.65437
-16.393564,20,165488.88244
-20.024673,15,165489.050273
-28.788472,18,165489.240546
-3.51542,38,165489.706364
-22.460957,20,165489.916526
-6.150114,56,165490.517858
-7.842113,30,165490.866454
-16.010644,19,165491.060178
-10.174997,26,165491.342358
-1.234749,28,165491.650565
-14.382473,31,165492.031322
-0.920998,33,165492.401525
-20.940891,18,165492.595454
-2.640005,29,165492.913026
-12.154547,21,165493.18195
3.789075,29,165493.505096
-10.738394,34,165493.876545
-16.740502,19,165494.07393
4.777602,40,166289.252146
-10.18588,23,166289.511081
-7.160598,30,166289.864159
-12.87927,30,166290.195074
-2.981939,30,166290.534852
-12.917276,22,166290.816046
-7.979085,21,166291.067878
5.285294,31,166291.422307
-15.67054,18,166291.633862
-17.715786,21,166291.85869
-14.188007,19,166292.087286
-11.916796,23,166292.33789
-3.245159,28,166292.652366
-9.054229,21,166292.865794
-19.130883,30,166293.220928
10.364255,35,166293.599603
2.078436,27,166293.888638
3.519696,25,166294.161528
-13.877604,26,166294.470182
-9.919953,19,166294.667932
-22.08223,20,167089.507948
-41.61138,15,167089.683157
-1.95914,26,167089.988868
-10.371611,19,167090.210423
6.414219,31,167090.611959
-0.268024,29,167090.927233
-6.670775,19,167091.137476
-10.379621,20,167091.382168
-3.340844,24,167091.683736
-8.042585,37,167092.08315
-8.273057,25,167092.355448
-19.217812,18,167092.556
-16.483142,36,167092.978009
9.694339,29,167093.290049
-14.42703,20,167093.508031
-5.09337,34,167093.923201
-7.174792,23,167094.174434
-13.868211,20,167094.384532
-19.538351,25,167094.665411
3.451597,36,167095.10594
-13.008307,27,167890.422765
-0.137783,32,167890.743562
-17.681611,24,167890.994508
-13.865762,38,167891.447753
-14.285761,20,167891.660107
-0.831393,29,167891.95966
-11.035516,19,167892.174021
-18.451761,25,167892.48377
-3.466004,26,167892.757915
-3.268991,29,167893.087459
3.836222,48,167893.632784
-12.45536,21,167893.860949
-16.864793,21,167894.100546
-17.279235,28,167894.388741
0.525642,34,167894.791591
-13.837995,20,167895.016305
-13.262468,19,167895.202081
-2.835667,29,167895.516828
3.792282,43,168690.731648
-3.410377,30,168691.068686
-20.216108,22,168691.312026
3.49786,31,168691.650065
-7.906201,34,168692.059309
-28.851136,25,168692.322135
3.098532,33,168692.684407
-0.8178,30,168692.998802
-16.921699,30,168693.354653
-24.985528,28,168693.664334
0.927154,41,168694.10243
7.831759,31,168694.456401
-0.120579,28,168694.754819
-16.254778,22,168694.999595
-9.49793,22,168695.269516
-3.77795,38,168695.736308
-14.336561,19,168695.937014
-7.958355,37,168696.351222
-12.554393,22,169491.628169
-10.846256,26,169491.928271
7.396286,48,169492.437189
-15.073577,19,169492.643724
-7.318511,20,169492.887331
-3.497996,28,169493.185313
0.936805,29,169493.474895
-3.66713,28,169493.775196
-14.084759,19,169494.00678
-14.234587,19,169494.215207
-5.90491,24,169494.48471
-8.964409,35,169494.849398
-7.504569,34,169495.252074
-3.783835,30,169495.606296
-14.090687,19,169495.806043
4.268791,28,169496.101456
-29.2233,31,169496.471
-13.574458,30,169496.800076
0.5045,26,169497.079212
-11.756889,23,170291.806947
-12.513778,39,170292.232093
-15.773986,23,170292.471828
-26.536641,22,170292.708587
-19.379803,19,170292.921596
-5.616676,27,170293.212718
-0.892125,27,170293.520325
-17.339605,20,170293.731045
-5.808862,28,170294.062596
2.58348,34,170294.431764
-7.633568,25,170294.707591
10.59086,36,170295.125282
-22.328617,34,170295.488344
-8.810348,27,170295.745253
-7.669732,19,170295.952278
-16.544832,20,170296.200939
-13.664645,36,170296.643696
4.865554,33,170297.017727
-12.258632,34,171092.135487
-29.252227,17,171092.307899
-8.233532,26,171092.569707
-17.318648,28,171092.917877
-12.897955,23,171093.182224
-10.072083,19,171093.392437
-8.19082,19,171093.599136
-11.363789,21,171093.820724
-1.133195,37,171094.262219
-8.640113,27,171094.548281
-14.040875,17,171094.740689
-14.806543,23,171094.984
-7.4967,38,171095.421043
-7.257889,33,171095.790483
-14.299932,20,171096.021395
-11.406805,20,171096.24912
12.3997,34,171096.672469
-9.501294,20,171096.911875
-12.266329,27,171097.207963
-6.473116,31,171097.598483
-13.299362,21,171097.828847
-18.010641,17,171892.82729
-7.694911,24,171893.121346
-15.148538,28,171893.411027
3.096722,35,171893.787014
-10.59205,20,171894.020543
-19.704764,22,171894.308121
-0.610485,31,171894.642922
-6.274828,36,171895.018703
-12.553891,24,171895.303244
5.455815,31,171895.629139
-7.957334,27,171895.909561
-10.764364,33,171896.277804
-10.121828,29,171896.61528
-13.793721,26,171896.88855
6.13643,28,171897.199259
-7.492504,38,171897.651717
3.36866,30,171897.987355
3.46898,33,171898.331563
-13.463008,24,172693.350409
-17.359799,18,172693.584074
-12.326255,25,172693.853601
-10.703555,19,172694.058223
-13.947174,20,172694.286226
-12.161755,20,172694.536186
-17.56842,20,172694.774547
-10.067784,33,172695.131234
-15.988356,27,172695.422664
-0.293556,28,172695.736397
-12.218018,20,172695.95864
1.714794,27,172696.255708
-7.137362,30,172696.584404
-3.954068,29,172696.914698
-2.868008,32,172697.281967
7.222132,28,172697.58423
-9.332036,23,172697.835767
-24.942115,18,172698.063749
-1.26259,30,172698.382453
-9.254253,30,172698.725838
-21.0156,20,173493.598663
-11.704802,21,173493.855134
-4.574812,27,173494.147094
-7.056565,34,173494.531213
-6.232506,23,173494.778173
-18.765267,28,173495.103626
-16.111612,21,173495.338066
-15.972197,28,173495.629319
10.9108,37,173496.025964
-1.061797,32,173496.388533
-13.106762,33,173496.758686
5.402016,33,173497.115117
-10.225606,22,173497.371896
-3.472194,34,173497.74036
2.046892,32,173498.063335
-23.228744,19,173498.281544
-3.057692,24,173498.570454
-10.409365,30,173498.898804
-15.871608,22,173499.158147
-16.061695,19,174294.218754
-4.660324,25,174294.527157
-4.677108,25,174294.82804
-23.542925,20,174295.126511
3.809314,31,174295.506552
-5.793313,31,174295.850317
-13.335638,26,174296.190718
-19.296193,24,174296.492639
-5.37019,26,174296.822456
-8.871136,31,174297.220316
-1.363271,29,174297.600534
-13.095714,27,174297.934098
-2.506596,30,174298.294943
-21.429064,25,174298.648001
-17.367445,21,174298.904371
-1.513276,29,174299.263128
-11.567187,30,174299.62639
-5.899479,28,174300.010074
-14.209728,21,174300.270807
-11.291844,21,175095.188594
-3.998731,32,175095.518529
-15.501235,34,175095.867979
-24.61934,29,175096.208735
-23.25231,33,175096.546311
4.310883,36,175096.94206
-13.768276,33,175097.331167
-22.91896,20,175097.557559
-8.788111,26,175097.836535
14.304293,47,175098.365612
0.843213,34,175098.742344
-11.347488,21,175098.993055
-16.630329,20,175099.211353
-3.999713,33,175099.588703
-17.393675,22,175099.844919
-8.016656,22,175100.071137
-15.150733,21,175100.28963
-20.037698,21,175100.519518
-12.54096,20,175100.73802
-19.532163,19,175895.886297
-11.483635,21,175896.097838
-16.942774,33,175896.454803
-7.720322,23,175896.712299
-11.822307,20,175896.954999
11.461227,56,175897.563324
9.329719,30,175897.924663
-9.401514,20,175898.173986
-13.812571,21,175898.405371
7.869651,34,175898.768585
-14.140009,20,175898.978807
-18.500101,28,175899.320773
-17.87302,32,175899.670742
-9.721571,31,175899.997234
-10.850342,20,175900.2118
-7.058217,33,175900.590604
-8.1421,34,175900.955638
-4.914617,39,175901.387432
-19.942296,20,176696.692157
-16.904676,19,176696.89318
-2.240212,32,176697.254189
1.862741,41,176697.753273
-6.990659,44,176698.226456
-9.084259,32,176698.584521
-24.491533,26,176698.908833
-18.345694,22,176699.151168
-3.872521,36,176699.542791
-14.80414,29,176699.859371
0.605232,34,176700.263612
-5.413526,34,176700.617555
-17.344437,33,176700.966628
-14.313045,20,176701.203911
-11.092871,21,176701.407654
-14.149921,24,176701.661746
-15.517368,18,176701.859954
-15.552239,28,176702.193188
-15.481433,23,177497.167611
-10.140089,46,177497.697745
-22.086591,22,177497.949082
-16.062953,20,177498.206114
-4.39798,29,177498.567038
-27.359027,37,177498.993257
-9.585878,22,177499.252251
-11.832718,32,177499.620177
-1.037112,26,177499.901623
-3.492387,38,177500.305924
6.395568,32,177500.685573
-4.154395,37,177501.063529
-13.668349,21,177501.285898
-8.686931,27,177501.606264
-12.44318,20,177501.824052
-3.333338,25,177502.102512
-22.550771,21,177502.325162
-8.352392,25,177502.597879
-1.013288,36,178297.771553
-11.323248,19,178298.020622
-8.07032,24,178298.287947
-11.726371,25,178298.600117
-1.035112,30,178298.927795
-9.549331,27,178299.258759
-10.022369,26,178299.53956
-13.395459,22,178299.759656
-8.709025,29,178300.07488
1.701017,28,178300.413547
-9.100013,19,178300.630781
-2.922742,31,178300.949955
-15.762391,20,178301.165383
-6.728852,30,178301.515599
-11.2586,33,178301.884666
-13.670659,22,178302.116853
-12.91203,28,178302.420211
-11.062602,21,178302.677974
-0.010593,30,178302.993357
-12.027456,27,179097.600711
-12.686958,29,179097.9203
-8.445025,51,179098.464995
-9.589416,19,179098.659401
-7.885435,33,179099.033627
-18.036756,20,179099.266417
-15.461918,26,179099.550859
-11.556917,27,179099.843145
-28.626515,19,179100.033373
-20.073995,22,179100.276072
-7.333426,34,179100.664698
-2.468673,31,179101.030262
-22.629674,23,179101.266581
-14.711878,19,179101.537389
-15.814334,19,179101.728777
-4.423671,32,179102.091082
-14.010071,21,179102.310825
-9.078419,47,179102.860574
-7.315882,32,179103.198273
-21.86931,25,179898.1926
-10.726838,25,179898.460164
-20.369928,42,179898.93675
-18.686497,21,179899.16828
-14.664463,27,179899.464885
-1.907309,25,179899.741604
-12.659183,20,179899.996171
1.26558,34,179900.375957
-10.490679,24,179900.648841
-6.242359,31,179901.032026
-16.899891,22,179901.271838
-2.772675,29,179901.604294
-8.983057,20,179901.834438
-23.238193,18,179902.020327
-15.479267,29,179902.366384
-18.936556,25,179902.628701
-16.78776,18,179902.834215
-7.20718,33,179903.188285
-6.290982,27,179903.515584
-12.059268,23,180698.921102
-14.392316,20,180699.123784
-18.549892,19,180699.326472
-8.276385,28,180699.659512
-8.964758,20,180699.891091
-10.472027,36,180700.271158
-9.854893,27,180700.555667
0.738736,29,180700.904754
-17.006566,34,180701.265627
14.953459,33,180701.615933
-5.382176,34,180702.023196
-8.651509,19,180702.234871
-0.103551,36,180702.632818
0.524216,33,180702.985673
-8.615301,24,180703.300002
-2.59013,36,180703.70893
-3.872191,29,180704.02464
-20.70098,21,180704.290392
-15.070064,19,180704.489773
-13.337402,19,181499.767264
-15.539524,27,181500.063609
-15.290398,28,181500.363646
3.717527,31,181500.724548
-11.680753,20,181500.939843
-2.741543,32,181501.274889
-15.12997,18,181501.461519
-7.188474,20,181501.691857
-2.843954,33,181502.077272
-7.289461,20,181502.289062
-19.462777,17,181502.485878
-16.917966,21,181502.736484
-5.367974,28,181503.081981
-7.381272,33,181503.431684
-31.840386,20,181503.639513
1.837607,29,181503.987833
-9.748887,19,181504.231364
-17.641452,20,181504.444895
-5.838886,34,181504.806636
-10.939053,23,181505.030061
-5.622407,32,181505.398821
-9.98879,20,182300.189066
-13.212218,20,182300.392554
-9.928183,26,182300.72174
3.872558,36,182301.1108
-10.407837,33,182301.463163
-6.857398,28,182301.797605
-25.677671,30,182302.1234
-8.860829,33,182302.497461
-10.179099,23,182302.747881
-16.854589,20,182303.00334
-11.208752,20,182303.231225
-0.467756,32,182303.587574
-13.387224,21,182303.821716
1.567902,31,182304.191589
-16.412039,19,182304.387206
-17.342808,29,182304.684712
-16.988394,29,182304.998512
-12.352218,26,182305.308877
-16.823696,20,182305.516017
1.081515,25,183100.700827
-10.285706,31,183101.061813
-10.404878,34,183101.441694
1.956991,33,183101.847471
-2.366354,26,183102.14547
-22.097715,27,183102.449779
-18.362096,20,183102.666463
-12.408776,19,183102.891716
-4.947448,25,183103.165171
6.555139,27,183103.453961
-16.931376,20,183103.673664
-27.726106,22,183103.93241
-8.316959,36,183104.311974
-12.899056,21,183104.532016
-24.202373,22,183104.768602
-7.338308,31,183105.125429
-22.324129,28,183105.427689
5.134277,29,183105.739998
-14.716823,20,183105.935903
-10.999831,24,183106.208322
-12.545748,23,183901.778372
3.622329,35,183902.181202
-15.537056,29,183902.537373
-3.12776,29,183902.845634
-7.232752,20,183903.080611
-8.556335,19,183903.288039
-17.967843,18,183903.508326
-18.045831,20,183903.710917
-11.775841,30,183904.034303
7.680398,30,183904.358068
-12.292593,18,183904.565684
-10.26542,21,183904.814767
-12.451657,20,183905.033285
-17.792206,44,183905.498209
-8.012699,20,183905.720568
-2.726275,32,183906.094044
1.890271,41,183906.544389
-16.160053,21,183906.763458
-8.758439,47,183907.307275
-15.062433,19,184702.895032
-17.710792,19,184703.104825
-8.595743,19,184703.349918
-11.706497,19,184703.552633
-11.610352,19,184703.765294
-18.888479,17,184703.94857
4.67971,47,184704.534447
-21.091231,26,184704.822226
-8.660618,35,184705.212852
-11.212989,29,184705.567329
-4.168614,26,184705.844158
-8.072441,22,184706.094764
-12.62303,24,184706.35176
-13.321547,23,184706.59556
-27.258903,19,184706.82268
-26.297613,35,184707.194017
-27.716945,25,184707.458065
-28.107609,18,184707.648978
-3.404461,26,184707.944646
1.245418,31,184708.279673
-5.863302,20,185503.471636
-21.850142,22,185503.695217
-14.443081,21,185503.913235
-3.042556,33,185504.262368
-0.968792,31,185504.611233
-20.660106,19,185504.818507
-4.058424,27,185505.121473
-16.024935,24,185505.375231
-9.878003,20,185505.592393
-21.962704,21,185505.85007
-9.318031,27,185506.128438
-12.853216,29,185506.436372
-15.049807,19,185506.633065
-5.855751,27,185506.936471
-24.398487,18,185507.152946
-4.600537,29,185507.44793
-17.242668,19,185507.657968
-16.465453,19,185507.874438
-14.059225,20,185508.090654
-17.940923,19,185508.284074
-17.058062,16,185508.453675
-26.708094,21,185508.69278
4.225031,40,186303.769848
-2.061644,28,186304.068804
-1.891019,29,186304.384591
-3.690446,30,186304.699661
-19.206584,21,186304.949815
-14.076301,20,186305.167642
-11.191268,22,186305.400536
-5.719501,31,186305.748493
-0.335122,37,186306.195279
-7.624305,30,186306.506868
-10.604087,31,186306.834371
-17.182898,19,186307.04505
-14.052707,43,186307.579214
-6.966258,32,186307.943007
-15.278712,26,186308.214494
8.583541,38,186308.680751
-12.021882,23,186308.92485
-3.275192,31,186309.259441
-44.629313,37,187104.436373
0.360068,32,187104.816901
-15.341253,29,187105.125904
-13.350277,22,187105.364208
-8.24318,24,187105.651062
-19.70149,23,187105.90573
-9.115423,23,187106.149205
-10.667767,27,187106.42985
-4.041105,29,187106.733701
-13.918818,25,187107.02601
-23.277243,23,187107.270182
-3.091663,35,187107.664278
7.015255,35,187108.088005
-16.133589,21,187108.308083
-21.350267,21,187108.557924
-18.763184,19,187108.777354
-14.482303,27,187109.096685
-0.691829,30,187109.450861
-17.817434,22,187109.680614
-1.176327,28,188940.721295
-13.189369,39,188942.53727
-12.978935,21,188943.558929
-8.814604,28,188944.787831
-10.976095,39,188947.001332
-10.414241,21,188948.081365
-13.882586,21,188949.068793
-10.483016,26,188950.36517
-3.592544,34,188952.619916
-4.121571,29,188954.289904
-6.06706,33,188956.202538
-12.476172,26,188957.882597
-2.425739,26,188959.283739
-12.337111,31,188960.773659
-21.474125,18,188962.021095
0.714311,33,188964.019857
-11.637017,26,188965.139964
-2.168893,29,188966.734189
0.360488,51,191346.518275
-9.15469,30,191348.017774
-10.788198,20,191349.079167
4.969144,35,191351.186902
-4.707475,38,191353.343071
-19.857679,19,191354.202133
-17.759863,20,191355.297928
-21.71919,18,191356.312179
-6.428706,31,191358.056622
-16.552926,20,191359.203921
-11.055082,25,191360.539429
1.01684,25,191362.299587
-15.975318,19,191363.650481
-5.122587,29,191365.129941
-0.587517,34,191366.690732
-23.334769,28,191368.054171
-14.723551,34,191369.62284
-18.836299,20,191370.721962
-13.565221,29,191372.11833
4.093641,34,193757.162916
-12.680012,29,193758.641589
-4.651786,32,193760.566133
-16.781783,19,193761.247301
-7.204149,25,193762.736478
-16.247838,32,193764.135596
-9.621277,24,193765.312372
-19.364388,28,193766.55909
-12.821836,20,193767.830396
-3.952967,27,193769.05782
-6.433177,26,193770.428371
-11.88778,24,193771.602245
-21.477378,21,193772.938301
-16.104682,24,193773.948415
-2.331598,28,193775.089862
-7.983607,20,193775.702611
-8.63609,28,193777.27492
-12.816148,25,193778.729279
-13.830569,21,193779.693716
2.962376,29,193781.303905
-9.7845,21,196196.488049
5.642377,36,196197.788619
-15.527564,19,196198.480513
-15.139029,18,196199.05915
0.136488,34,196200.416018
-3.262756,28,196201.770036
-19.463182,20,196203.054776
-8.587097,32,196204.679126
-19.342255,29,196206.15221
-14.674528,19,196206.815712
-3.248802,24,196207.688597
-3.465175,28,196209.107401
-7.057895,28,196211.147745
-7.466656,32,196212.792675
-9.318085,27,196214.152009
-3.666365,29,196216.007383
-9.874026,45,196218.16347
-13.509617,33,196219.533869
-6.843048,34,198661.355517
-12.617138,19,198662.33306
-13.986293,28,198663.58193
-17.726126,20,198664.520166
-31.078329,27,198665.982095
-11.130936,23,198666.881378
-11.478632,25,198668.240332
-6.660682,29,198669.599967
3.395866,30,198671.051295
-9.069949,37,198673.02495
-1.229592,35,198674.936946
10.123192,33,198676.395003
-14.860183,21,198677.09578
-17.806435,30,198677.984742
-2.172382,26,198679.542982
-4.301428,36,198681.550419
-11.066395,24,198682.511665
-14.251964,34,198683.803015
-12.888096,22,201168.0606
-9.779827,20,201169.089637
-11.008108,31,201170.557586
-20.260628,22,201171.815089
-33.135953,19,201172.557293
-16.833693,22,201173.488213
8.179766,40,201175.650386
-14.015108,21,201176.782454
-9.267081,25,201178.160678
6.260963,39,201180.278317
-14.685104,23,201181.760702
-6.263236,40,201183.774523
-9.301751,28,201184.645351
-12.843704,28,201186.346171
-9.977185,20,201187.59367
-19.452241,20,201188.79936
-27.482971,18,201189.723694
-20.124328,21,201190.821452
-8.905714,27,201192.063938
-8.357032,20,201192.935829
-15.75299,19,201193.605796
-4.079266,35,203656.434875
-20.32615,18,203657.136774
3.596782,35,203658.963714
-11.12147,19,203659.723767
-14.331145,25,203660.968495
3.922586,30,203662.216162
-16.29649,19,203662.885218
-22.489186,23,203663.79733
-10.148879,23,203665.009765
-18.450667,22,203666.078619
-12.41348,21,203667.094259
-5.586862,27,203668.418316
4.669453,33,203669.963666
-17.561863,20,203671.019965
-7.841059,32,203672.052086
-14.628938,20,203672.661492
-10.220623,27,203673.703403
-8.01951,25,203675.217424
0.224617,24,203676.446233
-8.428051,43,206128.165502
-16.468449,27,206129.324241
-13.911972,24,206130.218664
2.928181,29,206131.990131
-19.64604,19,206132.917445
4.486286,31,206134.520937
-5.687786,28,206136.088476
-9.533078,20,206137.289428
-9.42584,36,206139.127189
-7.919452,24,206140.032846
-18.567446,20,206141.248861
3.356697,32,206142.604952
-22.334394,21,206143.726262
-14.285446,20,206144.870126
-14.448787,19,206146.234029
-19.583403,24,206147.618456
5.901256,32,206149.513065
-14.14427,24,206151.251508
-7.140466,27,206152.439784
0.571022,38,206154.291242
-15.021221,24,208618.610817
-2.637751,33,208620.112499
-14.505222,20,208620.797092
-1.589961,36,208622.323789
-4.93081,25,208623.260926
-11.130911,22,208624.247228
-6.116356,19,208625.314109
0.057894,38,208627.32376
5.932678,30,208628.645109
2.657067,32,208630.496567
-18.921048,22,208631.956645
-7.288058,28,208633.426162
-8.862847,24,208634.517172
-13.517221,43,208636.106606
-15.965289,38,208637.914648
-25.541197,31,208639.586384
-4.259618,26,208640.833712
0.262617,30,208642.522606
-13.54834,26,211114.57307
12.101164,39,211116.363104
-19.494737,21,211117.150995
-25.762982,21,211118.411526
-14.488046,34,211120.48577
-1.166569,26,211121.696949
-1.525498,28,211123.340909
-25.298047,26,211124.687335
1.735172,27,211125.766924
-5.693706,42,211127.749088
-17.283783,43,211129.979338
-11.575759,19,211130.844555
-14.197382,28,211132.306128
2.590566,30,211133.744183
-7.452488,20,211134.738117
0.988661,36,211137.032209
0.030388,32,211138.685179
5.506697,39,213619.611026
-6.428379,31,213621.410789
-9.973725,27,213622.700957
-8.359803,27,213623.882643
-4.518901,25,213625.289621
-4.603984,29,213626.762999
-13.732947,25,213628.323613
-13.656009,20,213629.581029
-13.965449,19,213630.648927
-23.82396,23,213632.338236
-10.438144,26,213633.853681
-3.597326,39,213635.865536
-5.743045,26,213637.72494
-16.206395,20,213638.906728
-18.969611,20,213639.839628
-14.064847,19,213640.832677
-6.720742,31,213642.794721
-17.89682,22,213644.219596
-9.353457,19,213645.422967
-13.51447,19,213646.652338
-17.178464,20,213647.621871
-15.178975,20,216348.368043
-6.190147,23,216349.453617
-1.275349,29,216351.026194
0.987577,32,216352.711153
-3.179414,31,216354.624216
-25.157661,22,216355.880802
13.40836,41,216358.022836
-12.356324,30,216359.508507
-21.34184,21,216360.683008
-3.805077,34,216362.508456
-9.497597,31,216363.527736
-28.807091,22,216364.644515
-15.333509,19,216365.843718
1.66015,26,216367.257185
-2.795371,34,216369.15575
-27.409474,19,216370.477659
-23.359596,25,216371.808855
-9.85247,39,216373.627113
-4.647161,29,219082.304531
-14.257089,18,219083.295511
-15.696304,18,219084.00862
-12.77782,19,219085.110071
-14.199353,22,219086.403999
3.763008,34,219088.304384
-10.439172,19,219089.255898
-6.488839,30,219091.080505
-33.067367,22,219092.306211
-8.838133,31,219093.946414
-9.458545,19,219095.042101
-17.372142,34,219097.217673
-5.942855,27,219098.895225
0.322373,30,219100.421134
-19.160152,23,219102.174144
-24.199957,37,219104.639867
-13.178391,25,219105.997208
-2.164574,26,219107.472254
-10.902435,19,219108.613401
6.184734,30,219110.529583
-9.67731,26,221834.288973
-14.818572,21,221835.437163
-10.841776,27,221837.218245
-10.446688,25,221838.829039
-12.765142,33,221840.75082
0.345509,28,221842.335679
-2.245997,29,221844.317563
-0.048364,29,221846.192117
1.967782,33,221847.678719
-15.018685,31,221849.302868
-15.146922,20,221850.575537
-28.732835,18,221851.373075
-23.44675,23,221852.406722
-10.100517,19,221853.834893
-10.98472,19,221854.968423
-10.439649,26,221856.371612
-11.408414,21,221857.658058
-16.330891,25,221859.219509
-16.560648,18,221860.04902
-9.097507,25,221861.352753
3.302516,30,221863.271836
-15.26178,18,224560.508241
4.433691,33,224562.737196
-20.722733,17,224563.652842
-1.023916,34,224565.850504
-16.656353,19,224567.178462
-15.433499,20,224568.335212
-19.784127,19,224569.288796
-16.137361,20,224570.383488
-7.198426,29,224572.11648
-17.184224,20,224573.271352
-22.621759,19,224574.194718
-20.383504,19,224575.295401
-20.290858,26,224576.864939
-16.429948,22,224578.227742
1.25291,30,224580.020708
-4.280664,30,224581.751729
-4.62831,25,224583.916896
-14.499383,19,224585.249691
1.178377,26,224586.735109
-4.728389,41,224589.718406
-11.9375,22,224591.09126
-13.114433,20,227292.366219
-21.54247,26,227293.725211
2.087255,25,227295.483134
-1.959439,25,227296.561757
-15.196479,22,227297.810067
-20.31459,19,227298.860629
-2.630576,30,227300.477185
-21.880347,23,227301.83426
3.544642,33,227303.593467
1.875464,30,227305.012685
-14.793892,20,227306.106954
-9.118405,19,227307.047395
0.885696,30,227308.531859
-32.23676,18,227309.305934
-14.372376,22,227310.39658
-9.318343,20,227311.583076
-7.751412,29,227313.42469
-15.29318,22,227314.749911
-27.158985,27,227316.491241
-27.916846,24,227318.112511
-22.7813,18,227318.958728
-13.988309,22,230038.554977
-14.82952,23,230039.641532
-5.841672,29,230041.188418
-14.30463,20,230042.19342
-10.477132,29,230043.713336
9.537855,38,230046.153687
4.974668,31,230048.081383
-3.164294,34,230049.730713
-12.381398,19,230050.833408
-11.926782,29,230052.24192
-1.566845,32,230053.929101
-18.7561,17,230054.799594
-9.608998,20,230055.992284
-8.093753,23,230057.443393
-22.062345,20,230058.519778
-19.990321,31,230060.305772
-8.224366,34,230062.572897
-23.328248,19,230063.49895
-9.916653,23,230064.946027
-11.035656,25,230066.694066
-9.76542,27,232772.202475
-18.916783,27,232773.544724
6.295241,29,232774.875168
-0.903397,31,232776.729513
-13.921655,35,232778.773471
-15.060682,19,232779.710543
-2.97736,37,232781.40447
-6.89653,32,232783.233121
-27.648631,18,232784.506196
-19.350159,18,232785.380478
-17.158106,24,232787.062417
2.411657,31,232788.919149
-20.727376,36,232791.127896
-0.784125,31,232792.462348
-18.920899,27,232793.587532
7.484838,37,232795.855034
-7.501615,25,232797.487093
-6.286745,29,232799.339868
-7.549632,27,235525.618083
4.01622,30,235527.512724
-3.187742,36,235529.578698
-13.701171,28,235531.15369
-9.906844,28,235532.829791
-8.985143,25,235534.325713
-27.374232,23,235535.349367
0.893524,31,235537.141365
6.005486,32,235538.992095
-19.197055,19,235540.247586
-10.798077,21,235541.633946
-16.019703,19,235542.887337
-17.852445,19,235543.89924
-0.256711,29,235545.795849
3.058713,35,235547.98042
-4.065548,32,235550.187964
-21.906805,24,235551.738259
-20.657072,20,235552.899836
-8.06292,25,235554.566102
-17.979707,24,238295.039576
-30.519064,31,238297.276318
-9.980216,19,238298.496704
-26.359666,20,238299.872426
7.317319,40,238302.101018
-6.658043,31,238303.577525
-14.632904,19,238304.520718
-12.365288,19,238305.61784
-14.110548,27,238307.464973
-12.287913,36,238309.894102
-14.16576,30,238311.581613
-3.936703,39,238313.987679
-26.42372,34,238316.065685
-20.672879,23,238317.666006
-15.893684,21,238318.619002
-15.086906,20,238319.801153
-3.144692,32,238321.853707
-7.557145,38,238324.218336
-6.991942,30,241062.688411
-9.656797,26,241064.176862
-8.749461,35,241066.565974
-26.665881,19,241067.49424
-16.679511,20,241068.694644
0.735217,27,241070.406114
-26.907951,29,241072.098027
-24.781703,20,241073.3532
-12.158686,20,241074.426756
-9.900532,19,241075.57773
-7.453613,25,241077.251568
-10.334584,22,241078.312538
5.94171,40,241080.476894
-5.91594,27,241082.404747
-21.149901,19,241083.37933
-7.414843,33,241085.165024
-11.492293,35,241087.491337
-10.801811,27,241089.093012
6.137945,43,241091.692679
-6.738537,32,243889.8375
-16.814344,26,243891.041239
-5.286244,37,243893.236678
-3.63054,28,243894.963928
-12.335877,26,243896.415076
-31.091692,19,243897.38997
-12.105642,30,243899.314343
-4.474731,25,243900.672745
-4.138181,32,243902.384386
-15.700986,19,243903.688837
-13.228874,24,243904.931259
-18.066265,22,243906.094607
-3.477712,31,243907.927524
-26.196671,18,243909.048517
-2.160579,33,243911.072066
-10.0156,32,243912.717699
-0.746106,29,243914.221719
-30.165257,17,243915.317682
-0.693071,28,243916.957321
-10.97198,29,246730.575427
-14.268991,19,246731.783203
-17.602614,19,246733.036799
-15.197424,37,246734.997597
-24.673548,23,246736.078044
-26.741898,17,246737.175751
-13.200106,22,246738.295877
-12.645975,26,246740.031956
-15.055765,20,246741.065691
-8.68063,23,246742.516205
-10.137675,28,246744.443949
-2.684778,28,246746.200809
-10.496777,32,246748.454258
-10.5494,38,246751.169345
-5.694686,28,246753.114478
-17.010386,19,246754.293519
-21.148959,21,246755.365542
-5.293658,36,246757.74215
-12.954286,28,246759.573649
0.541646,37,246761.545988
-12.227602,20,249697.87258
4.54756,33,249699.832926
2.745603,26,249701.195008
-17.622602,19,249702.446009
-19.989864,26,249703.975164
-7.805827,21,249705.279484
-11.664657,27,249706.837696
-11.690762,20,249708.042374
-11.057322,29,249709.831362
-7.961185,28,249711.637159
-16.891711,21,249712.93696
1.959188,37,249714.85669
-19.595912,20,249715.976645
-15.777496,19,249717.202191
-9.248612,20,249718.660921
-6.808417,35,249720.76843
4.924948,37,249723.004363
-15.879991,19,249724.362751
-7.748624,28,249725.845671
-16.880571,20,249727.197788
