# {"t_start": 1548091559.1707573, "env_id": "RoboschoolHalfCheetah-v1"} 
r,l,t-0.183959,15,1.571819
-9.579954,15,1.678028
-15.228442,23,1.800758
-7.885348,14,1.9099
-27.29047,20,2.007224
-14.407331,14,2.083778
-22.673564,32,2.339406
-9.151625,17,2.470418
-7.017129,17,2.57897
-9.598457,17,2.6697
-6.951468,17,2.790825
-8.072581,16,2.88093
-17.864558,13,2.951878
-8.046716,16,3.043549
-5.534021,15,3.155768
-14.199891,15,3.244307
-13.645338,21,3.390749
-14.170935,18,3.49833
-6.972304,17,3.642089
-4.322528,18,3.745162
-2.551172,18,3.865194
-14.228496,22,4.004032
-9.139225,16,4.110577
-11.80887,16,4.234214
-10.286231,15,4.314216
-14.013259,16,4.40448
-8.184361,17,4.539057
-2.042676,16,4.637473
-1.897121,16,4.77347
-10.499564,13,4.86497
-0.639278,17,4.99923
-2.864369,31,5.171826
-13.390163,17,5.303525
-10.674855,20,5.417877
-9.686607,18,5.550869
-12.057506,14,5.642146
-12.832155,16,5.726523
-14.600559,19,5.855363
-2.347007,17,5.97686
-8.572521,16,6.073768
-3.383663,17,6.201844
-1.048311,18,6.35076
-12.228548,14,6.437666
-6.732936,18,6.540478
-17.57886,21,6.690071
-7.045858,23,6.84976
-9.438454,15,6.947611
-8.798219,14,7.044593
-5.917999,18,7.191618
-3.420988,18,7.299046
-4.803392,16,7.424198
-13.278144,12,7.497735
-25.084839,20,7.613499
-8.289803,17,7.736382
-5.637773,23,7.873256
-5.828711,17,8.001206
-3.814389,17,8.107141
-20.98517,24,8.294812
-8.976155,17,8.399138
-4.873672,14,8.510877
-9.547824,14,8.583117
-8.717769,14,8.661783
-5.258774,16,8.785045
-0.613064,17,8.883029
-7.481443,17,9.001158
-13.87302,16,9.086348
-11.772501,21,9.201079
-5.542065,14,9.315563
-3.29169,19,9.439853
-10.477299,13,9.521661
-7.858111,17,9.630163
-5.757379,15,9.701385
-20.083363,23,9.843698
-12.916543,15,9.925508
-4.228299,15,10.002341
-4.860252,17,10.118722
-6.925734,24,10.245358
-5.26476,16,10.351824
-3.55685,17,10.449557
-6.033945,16,10.546916
-8.295253,16,10.666584
-11.342356,23,10.786135
-5.787233,17,10.896084
-4.997387,17,10.989909
-18.504652,23,11.112427
-13.500417,18,11.237549
-21.798639,23,11.352189
-9.170916,24,11.513211
-4.637414,23,11.635919
-10.172351,14,11.746777
-14.530791,28,11.893452
-7.202096,15,11.98448
-10.045717,15,12.075503
-10.763058,13,12.141603
-7.308358,16,12.221507
-4.369123,16,12.340323
-12.023577,30,12.486786
-2.080321,34,12.696126
-5.500634,16,12.780383
-6.094846,18,12.915285
-6.39471,14,12.985973
-2.338134,17,13.103794
-4.378051,33,13.266768
-19.850003,22,13.414914
-6.329632,17,13.496095
-8.368371,16,13.600305
-14.460769,17,13.699
-1.790818,17,13.783432
-7.696365,16,13.898798
-10.28931,16,13.985935
-2.436694,16,14.066506
-17.656763,18,14.190407
-16.63626,22,14.298354
-8.358815,24,23.748849
1.89196,21,23.886976
-4.379931,13,23.95917
-21.136891,25,24.117537
-2.906006,19,24.217237
-4.510526,17,24.330248
-16.062199,21,24.473337
-5.293602,19,24.574064
-6.165166,18,24.707867
-5.005751,18,24.830024
-3.700314,15,24.906022
-5.389293,16,24.998176
-17.132105,17,25.12315
2.570332,28,25.266531
-3.684403,17,25.391722
-7.412167,19,25.522439
-16.660591,17,25.638189
-7.828435,15,25.748125
-5.75594,16,25.834623
-6.84313,16,25.93225
-10.879904,25,26.121382
1.074938,18,26.218788
-6.907965,25,26.385577
-18.069656,24,26.518129
-7.239177,17,26.64756
-2.516652,17,26.747827
2.055243,23,26.895068
-7.669871,17,26.991563
-7.415797,18,27.085482
-3.655997,18,27.212152
-7.243892,14,27.326531
-8.687514,18,27.419336
-2.17498,13,27.488734
-6.791147,15,27.596375
-8.494944,15,27.676124
-9.777019,17,27.807796
-2.353429,17,27.901919
-16.741766,27,28.08211
-7.442199,14,28.163302
-11.872737,15,28.284069
-10.81528,22,28.399901
1.174484,17,28.528322
-11.879062,27,28.660716
-8.851079,31,28.908452
-5.476684,15,28.999439
-6.687177,13,29.072737
2.3185,27,29.296171
-8.041417,14,29.382597
-5.494189,15,29.480029
-16.262492,21,29.627701
-7.884191,14,29.710752
-7.912821,17,29.83821
-4.47663,17,29.942549
-1.296603,25,30.13893
-1.001468,24,30.258884
-3.009635,29,30.458614
-4.957714,14,30.561625
-17.707224,21,30.690293
-0.60174,16,30.780656
-9.407046,23,30.946501
-1.938845,17,31.044205
-11.052094,23,31.212422
-2.798306,16,31.307147
-2.89003,16,31.42653
-4.652084,14,31.501868
-5.458486,18,31.628721
-9.978754,17,31.718604
-6.917189,15,31.802562
-0.855488,20,31.94841
-6.572158,16,32.033249
-1.949762,17,32.151244
-11.810069,17,32.243477
-5.071886,20,32.368416
-9.388983,14,32.482206
-7.315326,14,32.554795
1.775176,26,32.718832
-7.889823,15,32.809747
-5.145467,14,32.889583
-19.421669,21,33.038817
-7.106622,18,33.132008
-18.385591,25,33.29206
-9.258327,24,33.418098
-13.523844,20,33.574304
-1.085586,16,33.661456
-10.183024,20,33.800487
-0.191401,16,33.881614
-4.924907,27,34.020018
-3.790515,19,34.151535
-6.067728,17,34.239264
-9.066863,16,34.343621
-4.583947,19,34.454903
-7.038825,20,34.564036
-9.052827,13,34.668914
2.150264,18,34.767671
-4.571426,16,34.872573
-3.454832,14,34.961225
-4.136558,17,35.054537
-3.869711,15,35.139941
-9.422488,20,35.271065
-10.090195,17,35.360599
3.55878,17,35.464575
-22.678603,21,35.582375
-7.869813,15,35.663572
-6.690177,23,35.816834
-5.045016,13,35.884575
-15.3519,21,35.977877
-1.621627,22,36.12498
-8.561745,21,36.232527
-9.389268,15,36.304086
-6.848339,17,36.428422
1.976574,18,36.522346
-5.328548,14,45.939525
-0.360367,23,46.106784
-16.15463,15,46.195642
-8.08961,14,46.29853
-2.404362,20,46.441912
-4.473949,15,46.523438
-6.495466,22,46.660925
-7.782053,15,46.75176
-14.173808,18,46.847358
-2.253548,17,46.963713
-8.605036,16,47.052629
-4.937114,13,47.129864
-4.400894,16,47.254605
5.429966,34,47.464446
-1.677357,22,47.637168
-3.02085,26,47.770186
-3.876056,17,47.89382
1.191979,17,48.023141
-7.76953,21,48.131749
1.079528,29,48.320659
-9.174157,21,48.479092
-6.63906,14,48.551868
-4.579578,18,48.687323
-0.187661,15,48.791766
-4.729193,12,48.867151
-2.950324,18,48.967637
1.922624,19,49.107622
-7.592912,20,49.256587
-13.531836,22,49.375389
-16.616275,23,49.539983
-4.83518,16,49.664012
-7.966342,22,49.776562
-4.97065,17,49.906835
-12.16849,20,50.050451
-6.931092,18,50.150773
0.101854,20,50.285421
-2.922953,13,50.350699
-4.026302,18,50.475428
-0.5098,16,50.567863
-1.665283,16,50.664158
-1.684615,17,50.802103
-1.708521,22,50.914743
-3.714455,17,51.040884
-7.60087,17,51.136101
0.843684,18,51.269202
-6.628555,16,51.35881
-3.266022,18,51.444384
-7.920001,15,51.540981
-7.063003,18,51.65462
-17.117892,22,51.812541
-6.197069,17,51.917731
-8.08739,16,52.002758
-7.593424,14,52.106735
-4.198785,15,52.179218
-10.78317,14,52.250711
-2.233221,21,52.392565
-7.696534,16,52.473483
-1.291153,17,52.558366
-3.837399,20,52.692657
-9.693332,17,52.778009
-5.684304,15,52.884506
-5.45979,18,52.999224
-24.611353,27,53.166888
2.144198,19,53.278892
-2.441368,19,53.382818
-1.377387,14,53.466586
-3.801707,16,53.547032
-9.83989,16,53.634542
-2.783642,15,53.737825
-1.000848,21,53.845304
-4.381722,20,53.977175
-7.058389,17,54.084066
-4.366153,25,54.27067
-1.472721,15,54.353721
-7.961274,18,54.458228
-5.07783,17,54.582406
-2.77435,27,54.740079
-1.172451,15,54.865678
-0.44162,15,54.948484
-4.554694,14,55.03607
-6.884737,16,55.155021
0.297378,17,55.261913
-8.298514,17,55.394745
-3.608316,26,55.538075
-4.537653,17,55.661164
-2.180065,25,55.791768
-6.029737,22,55.909549
-7.901913,20,56.046573
-7.457616,17,56.137471
2.285799,16,56.221818
-4.664766,17,56.346094
-6.401899,17,56.449082
-7.317298,14,56.532558
-1.912614,24,56.687399
0.997544,20,56.824629
1.907305,26,56.957927
-12.124115,18,57.087914
-12.037475,24,57.221631
-3.017441,21,57.331655
-2.743537,18,57.463202
-9.293661,25,57.632358
-5.50136,17,57.743629
-4.654711,17,57.831353
5.084064,18,57.921532
-6.017069,17,58.047101
-1.866246,18,58.140236
-3.710541,17,58.257956
-2.748218,24,58.373324
-7.856243,17,58.456324
-9.453957,15,58.560931
-7.312819,19,58.651285
-2.23331,16,68.115716
-1.530286,16,68.196566
-2.801705,29,68.384691
-8.775437,19,68.474026
-0.224947,15,68.584505
-0.291324,16,68.680437
-4.818011,16,68.76456
-6.539185,17,68.862152
3.410162,24,69.043333
-0.339021,19,69.153561
1.545112,20,69.286132
-0.664073,14,69.3626
-4.153877,18,69.48023
0.691237,14,69.56577
-1.24428,20,69.674693
-2.462146,22,69.815644
-9.443508,16,69.898495
-4.746766,17,70.004536
0.232353,16,70.114573
-4.805192,14,70.200624
4.04627,21,70.339342
-9.872338,17,70.426939
-1.107392,16,70.51028
-4.13206,18,70.638646
-5.138499,17,70.743615
0.472818,20,70.862059
-7.844221,17,70.983343
-1.29074,20,71.09035
-4.284777,12,71.164595
-4.229756,18,71.303266
0.646925,17,71.398093
2.399019,20,71.53897
1.962316,27,71.677602
-5.576138,12,71.759052
2.313359,17,71.870089
-4.550551,14,71.939384
-4.135124,20,72.08014
-1.835414,18,72.185401
0.287951,21,72.297178
-1.375992,14,72.413647
-7.533326,24,72.546265
6.350843,20,72.684378
-1.307095,22,72.797328
-4.485733,17,72.886123
-5.735572,17,73.014445
-2.153374,13,73.079914
-0.856617,18,73.19926
2.740868,22,73.318465
1.144054,19,73.408879
-0.391995,18,73.535079
0.404366,16,73.62558
-0.795241,17,73.718677
-1.919218,21,73.858332
0.817851,17,73.940742
-1.327922,11,74.034166
5.287373,22,74.148286
-3.934597,15,74.227724
-5.121526,14,74.331797
-2.147254,13,74.4007
-2.145828,14,74.472532
0.034864,18,74.603526
-7.331489,17,74.701528
0.125397,17,74.799175
-7.408442,19,74.931074
-4.915325,23,75.04425
-3.613271,18,75.155499
-2.282477,14,75.243752
0.833038,17,75.327712
0.365347,18,75.453248
-4.030124,12,75.513201
-4.474363,18,75.601602
-8.110287,14,75.698701
-6.467276,14,75.774155
-4.470237,19,75.884428
-0.931601,17,76.012124
-2.896049,19,76.114871
-6.891655,20,76.245793
-1.813359,21,76.361448
-2.22721,29,76.543391
-7.546561,16,76.62824
-6.180185,15,76.704518
3.918452,28,76.876851
0.238069,18,76.977334
-5.118945,17,77.107515
-4.969785,26,77.236234
-2.864031,18,77.325232
-5.169771,14,77.430267
-11.236278,23,77.54231
-2.050098,17,77.669741
-0.144759,24,77.792815
-0.703417,20,77.892438
-2.440939,18,78.013992
-4.337504,19,78.120884
0.533236,15,78.206092
-11.986034,19,78.328409
-5.513316,21,78.432474
12.307201,24,78.573914
0.119867,18,78.67316
-6.309229,19,78.775453
-0.217356,17,78.893251
-5.73501,24,79.033787
1.615439,22,79.175096
-17.271974,25,79.349407
-4.275745,17,79.447452
-4.641424,16,79.532064
-9.530733,17,79.652721
-2.454576,26,79.788722
-1.214301,15,79.903038
-3.086738,17,79.993568
-1.469771,16,80.072137
-2.776541,15,80.182057
-1.280387,20,80.296229
1.357731,17,89.798157
-0.515235,16,89.884158
8.515552,34,90.087692
0.305661,18,90.217751
-9.335344,27,90.373082
0.435657,20,90.520883
2.754444,17,90.638165
-0.232557,17,90.743435
-4.703548,16,90.865579
-0.667793,17,90.956196
0.246474,17,91.044657
0.500476,19,91.174014
0.177348,28,91.323273
-2.846528,16,91.436629
5.804456,24,91.564663
-2.590348,17,91.688961
-8.730696,29,91.857783
-0.938011,20,91.996596
3.170721,26,92.130033
-4.289908,28,92.304411
-0.811262,17,92.392102
-12.925927,27,92.528934
-1.447478,19,92.662762
-0.336922,18,92.755593
1.498177,18,92.855834
3.068866,19,92.999714
7.243757,18,93.089889
-8.99804,17,93.215344
-2.006782,27,93.355074
7.126705,25,93.514568
1.088259,17,93.597952
-6.101929,17,93.718406
-8.474379,21,93.821656
-2.09571,20,93.937379
1.334863,18,94.050343
4.067095,15,94.145572
-2.601087,24,94.301883
5.27507,23,94.42652
-4.63212,17,94.540188
-5.412167,17,94.621495
-1.71571,16,94.695969
0.123605,24,94.851816
-1.359379,19,94.943246
5.671715,20,95.046679
5.76912,18,95.167454
-2.230345,21,95.285882
0.364479,17,95.403096
-1.1861,22,95.522213
2.757858,17,95.622574
0.523967,20,95.739286
6.854969,23,95.889967
1.012316,16,95.9709
-7.362071,20,96.074996
-4.146261,17,96.194673
3.941375,21,96.310337
-1.010551,18,96.450139
1.488865,18,96.5438
8.743191,31,96.733915
-2.219284,12,96.793398
-0.092511,16,96.870276
-4.5452,20,97.008481
1.346546,31,97.172204
-2.264186,19,97.295693
2.911797,17,97.391673
4.690266,20,97.499205
1.923142,18,97.633879
-2.08094,18,97.724309
-2.040873,14,97.789645
-12.388096,20,97.923676
0.166325,18,98.02284
7.068403,24,98.176984
0.344808,17,98.259625
-5.408205,14,98.33204
-2.053574,15,98.411463
-1.958903,17,98.529635
2.716164,19,98.622314
-4.448055,19,98.763145
-3.075662,23,98.877187
3.321912,19,98.9923
3.75559,26,99.147217
4.451243,19,99.244325
1.347887,18,99.360619
-0.369591,15,99.436468
-2.993937,18,99.528432
2.856712,18,99.650559
-4.125655,15,99.730171
3.012781,18,99.843456
-2.069639,15,99.937469
0.744982,13,100.002157
-5.93378,16,100.08267
-8.673583,33,100.282703
1.448563,18,100.387349
7.879427,23,100.523276
-0.732265,16,100.603997
-0.034124,19,100.727672
-2.615351,16,100.805695
2.642631,17,100.891632
1.610681,21,101.042108
0.228312,16,101.11952
1.362288,15,101.214933
-3.793956,22,101.331469
-3.425577,18,101.421862
1.375404,17,101.540709
2.73307,21,101.648652
-4.84893,17,101.757707
2.84317,18,111.24349
4.655078,19,111.337146
1.077195,17,111.465405
7.269608,31,111.633745
4.921249,20,111.781016
-2.356574,22,111.893639
3.040115,18,112.031914
4.746312,23,112.157666
-0.81693,32,112.388208
-2.371988,12,112.457962
9.947236,24,112.617542
-1.135133,14,112.699263
-1.000544,17,112.832274
0.898472,17,112.920199
0.165892,16,113.037669
-6.042207,19,113.165374
1.49189,17,113.26003
-3.639347,14,113.374571
-7.663557,19,113.484877
3.384251,26,113.633459
0.47625,16,113.75212
1.200485,20,113.86941
-2.637332,16,113.989938
-2.760182,21,114.104636
1.193176,27,114.296828
3.144691,15,114.390198
1.205176,21,114.506634
-2.820146,15,114.630226
-1.359515,19,114.744672
-5.452971,21,114.890526
2.560316,22,115.015274
0.605933,19,115.157347
-2.187013,20,115.263977
-8.609381,18,115.403219
-1.951289,19,115.509594
2.939638,16,115.600655
-1.110138,21,115.757899
5.793487,19,115.863239
-0.595153,18,115.990904
-1.686179,13,116.059742
-2.334342,19,116.155227
-0.675081,24,116.311877
2.639007,26,116.444299
0.09913,15,116.524587
-9.312356,15,116.628667
-2.602399,17,116.718256
6.14912,22,116.8534
-4.989759,20,116.99016
-5.474823,16,117.068525
1.43377,20,117.206922
6.18279,27,117.345618
4.7056,20,117.480115
-1.31908,20,117.5853
1.294421,17,117.701569
-0.261995,18,117.798605
-0.452948,18,117.891082
0.64252,17,118.024582
3.966172,20,118.135116
26.817835,40,118.376514
0.978962,20,118.508639
-6.58725,18,118.599496
6.810798,22,118.711226
1.50722,23,118.865973
-0.186766,16,118.949875
4.398743,17,119.067781
1.225201,22,119.19301
-0.583339,20,119.331491
-3.758126,16,119.412937
-2.235246,20,119.518276
-2.490677,33,119.720458
0.273221,18,119.813187
-2.5091,13,119.916553
-0.432901,16,119.993876
2.935394,15,120.070527
-4.335311,22,120.218566
3.792947,17,120.323848
5.465368,20,120.433958
1.80141,21,120.572628
0.357822,22,120.688807
3.054491,17,120.807736
0.574009,18,120.889281
-1.15651,14,120.957253
1.580075,15,121.068435
-2.433573,19,121.158616
4.68961,20,121.298812
-3.673389,16,121.388223
5.626056,21,121.514878
-4.229912,16,121.625867
-0.58238,17,121.714565
-5.616099,29,121.899389
-4.153808,24,122.033614
-3.200304,23,122.186146
4.803843,18,122.286899
0.92827,20,122.428211
3.242868,17,122.537529
4.42403,19,122.681145
2.094877,18,122.789493
0.159859,17,122.910759
3.142315,22,123.026733
7.553535,19,123.123504
-1.932776,14,123.224474
-3.034875,17,123.315912
11.020162,31,123.502541
4.064734,18,123.596704
4.193936,17,123.693465
-4.213395,17,133.317082
4.653486,21,133.419753
4.164623,22,133.535998
-1.863256,15,133.646394
-0.879728,19,133.747449
5.103519,20,133.876541
-0.561714,18,133.998829
-4.130039,17,134.094114
0.435831,19,134.227657
-0.720968,17,134.320738
-0.499276,12,134.389629
0.335686,17,134.504818
0.879056,15,134.588556
0.645268,27,134.758067
0.920513,17,134.854638
7.214349,32,135.072103
-1.240052,12,135.143756
-4.835443,20,135.25133
-1.993424,13,135.346437
3.357976,19,135.448988
1.237258,17,135.575697
12.501045,26,135.705748
-0.132048,17,135.83192
0.747944,24,135.96651
-0.663844,16,136.093957
10.364017,27,136.254851
3.378348,18,136.381224
5.851804,18,136.483545
3.082157,29,136.679173
1.248225,25,136.815936
5.231702,16,136.906785
-0.484395,13,137.014829
4.903001,21,137.142637
-0.630774,14,137.217096
4.780286,15,137.33801
0.928442,21,137.459702
7.306263,18,137.588289
6.768423,22,137.701524
-6.950741,19,137.813681
1.480785,15,137.924882
2.085282,18,138.022262
0.435334,15,138.107681
0.606735,18,138.233107
-2.986894,18,138.333355
2.434201,18,138.469404
8.740358,22,138.609914
4.230219,21,138.726894
7.742925,19,138.860223
0.528896,15,138.945667
-1.163086,21,139.08647
2.307687,19,139.197323
0.45057,17,139.286141
-0.181894,19,139.423526
10.214464,18,139.534213
0.485573,16,139.6673
12.189885,20,139.783436
6.712134,23,139.932115
-2.652981,14,140.011588
4.321642,15,140.096342
-1.830515,29,140.297835
10.955977,28,140.480903
-4.972281,18,140.589326
6.805708,15,140.670475
3.238966,24,140.847451
-0.158706,14,140.921352
0.669344,26,141.097821
8.901626,26,141.235421
9.219016,25,141.399927
2.515007,17,141.496243
2.619486,22,141.648007
-1.215257,20,141.755111
0.052742,13,141.826604
5.16637,17,141.962316
-5.329752,14,142.032711
-1.983524,19,142.147752
1.36373,17,142.250645
2.347644,16,142.339535
0.981276,13,142.433537
1.130542,18,142.530601
12.012064,25,142.671529
6.739917,18,142.795994
1.803344,21,142.905459
6.767735,19,143.057096
4.56886,28,143.219513
2.527262,15,143.326035
-0.775534,16,143.413385
4.316639,18,143.509951
4.522299,21,143.651545
2.386375,21,143.766214
2.184792,17,143.883013
7.225088,28,144.044789
0.355574,17,144.178504
-1.222976,19,144.286607
-9.220198,27,144.46452
7.581156,23,144.598859
-1.15444,19,144.73873
2.80389,19,144.839428
4.13696,20,144.986207
-0.503689,19,145.08895
6.084919,20,145.234632
3.432687,27,145.406831
4.221871,16,145.525297
2.214833,16,145.614972
0.864667,22,145.7643
15.726106,24,145.883025
7.946664,22,146.022253
-2.03278,15,155.658226
0.82621,14,155.728001
4.102073,20,155.827851
1.772119,17,155.925613
10.259621,26,156.099712
4.838107,18,156.203063
4.875393,17,156.327831
3.033876,21,156.434147
1.535467,22,156.587114
2.291779,14,156.670496
27.562744,55,157.004699
3.639027,23,157.156441
-2.450827,19,157.251143
8.830931,24,157.412147
-2.142095,12,157.472013
-1.035964,16,157.553686
5.682384,21,157.69643
5.909321,21,157.812642
0.866918,14,157.897493
5.247883,13,157.970485
1.492332,17,158.094735
4.465173,19,158.190958
0.553567,17,158.310029
9.977983,24,158.442578
1.490453,19,158.576668
2.144334,15,158.657065
0.965912,16,158.752342
5.125211,17,158.873438
1.033664,16,158.961527
-0.010922,20,159.120987
7.330978,21,159.253151
6.229506,21,159.402734
8.247884,22,159.530315
5.971052,19,159.658493
-4.576036,20,159.777711
2.889491,13,159.852941
4.609685,18,159.967484
9.213652,27,160.144353
1.609995,27,160.345888
21.694191,42,160.61962
2.144085,18,160.717548
0.071853,13,160.786547
3.996088,17,160.921389
6.510408,18,161.020336
3.158959,17,161.111833
3.13279,18,161.238158
4.763985,17,161.361363
13.966389,27,161.555937
9.851649,42,161.859817
3.301597,22,162.024125
5.51859,17,162.124264
4.240256,21,162.290447
0.73444,14,162.388155
3.495791,18,162.509111
6.83559,21,162.66644
0.461092,15,162.7547
7.459407,23,162.92087
4.489721,15,163.006598
4.813285,20,163.168856
3.433667,17,163.265695
2.94014,18,163.390199
0.841496,18,163.487369
12.585208,24,163.668112
1.16984,22,163.797996
1.44698,13,163.888006
-3.766811,26,164.048646
3.271001,21,164.209234
7.063362,30,164.396031
4.628765,17,164.51
2.654742,21,164.664429
-0.022775,14,164.759357
6.149178,22,164.910505
-3.506661,32,165.135074
-0.049006,19,165.276007
0.227426,20,165.397086
2.997259,27,165.560432
1.180372,17,165.678598
2.591019,21,165.811237
2.412357,23,165.980357
3.699504,23,166.120702
1.521211,14,166.234663
1.985191,17,166.333877
-1.824647,20,166.453753
8.484577,22,166.61701
8.076686,20,166.766288
-0.017348,16,166.851883
0.871052,19,166.959884
1.777572,12,167.021188
12.25855,33,167.244661
6.396071,21,167.364757
6.165496,20,167.489781
3.24358,15,167.566944
7.737738,19,167.700942
1.779753,17,167.784709
-5.262576,25,167.952056
4.094181,17,168.052725
8.716178,18,168.177748
7.225123,17,168.28448
6.248282,22,168.416485
5.841824,19,168.545957
3.977347,16,168.633295
8.836031,29,178.513116
3.000219,19,178.605021
2.436638,21,178.735521
7.14751,24,178.848719
4.549315,19,178.949626
13.35582,27,179.102228
19.981922,41,179.327388
7.923845,20,179.426131
1.109417,14,179.4993
-0.481824,27,179.682814
6.659031,21,179.791943
10.575555,34,179.99194
6.111924,22,180.095432
7.328335,22,180.2438
4.543848,25,180.372848
0.717994,14,180.453542
8.761523,21,180.590094
8.53176,22,180.708615
9.024341,23,180.873752
12.997454,21,180.981219
1.624162,18,181.109609
9.230176,26,181.244657
1.89376,16,181.356486
11.571533,31,181.516007
3.057032,26,181.677946
3.512019,17,181.772783
3.51366,16,181.862528
2.337542,16,181.986819
10.480011,22,182.117656
0.286323,20,182.259389
-0.53522,27,182.416855
5.312206,26,182.595508
2.238288,19,182.708552
1.496359,13,182.815032
2.814718,27,182.967372
11.048727,26,183.156559
7.746261,22,183.280184
23.510174,38,183.548448
5.861403,21,183.705122
4.117319,20,183.823507
11.866609,25,184.010762
6.82508,14,184.095165
1.973058,20,184.208126
1.46898,13,184.324855
2.821318,22,184.451443
0.916221,16,184.539646
-0.526451,20,184.676022
5.347729,16,184.757148
7.391698,23,184.895929
20.012291,28,185.074638
-0.663894,14,185.169061
2.557882,24,185.336204
5.591093,22,185.489824
10.040225,32,185.707839
8.84043,27,185.902295
17.755712,27,186.078993
2.105087,15,186.167163
7.502859,22,186.300982
-0.358798,26,186.486115
3.814155,15,186.588406
5.581287,19,186.721833
-0.893232,15,186.809489
8.87018,28,187.008657
11.572681,37,187.247212
0.025004,18,187.358319
-0.780424,17,187.492879
8.211353,22,187.625698
3.815074,21,187.781309
0.143582,17,187.89783
-0.47789,15,187.984814
12.718197,31,188.191924
1.909722,22,188.32152
13.589296,33,188.54175
0.614666,16,188.642224
18.814355,37,188.872734
5.82024,20,189.023654
2.09837,19,189.135042
4.74977,15,189.222123
11.372294,28,189.432192
2.949047,22,189.602731
1.958926,18,189.719962
7.018502,24,189.87499
3.427054,19,189.985025
3.557517,18,190.099034
8.820168,23,190.275109
10.175376,24,190.412635
-1.631506,24,190.579841
15.460569,26,190.759799
-1.620945,23,190.904205
9.486397,22,191.072609
0.990551,33,191.318673
10.086892,22,191.452781
9.774379,22,201.538262
1.772758,19,201.627687
4.405901,15,201.736814
9.010886,22,201.850551
13.570498,27,202.000418
4.697161,18,202.095457
8.922326,22,202.198059
5.897449,25,202.350919
14.083414,25,202.470813
7.999646,23,202.627582
1.439249,24,202.747786
10.111015,23,202.894123
5.702553,20,202.988278
5.383158,21,203.124956
6.579975,17,203.211124
6.819345,19,203.298767
3.959866,28,203.469627
7.482138,24,203.586188
8.090772,29,203.788159
9.057353,28,203.950607
10.094826,21,204.068708
9.789482,27,204.213206
9.294762,24,204.364177
2.444294,16,204.442701
31.983526,48,204.720907
8.379705,19,204.865645
2.732948,13,204.940893
9.385759,22,205.066668
13.483999,28,205.225078
9.700007,25,205.377301
2.675863,22,205.505362
8.898288,22,205.623616
7.255356,18,205.757272
8.940445,20,205.87179
6.003599,22,206.050244
13.322349,26,206.229622
7.406528,24,206.372151
6.193639,18,206.475538
1.838697,13,206.586904
12.941435,21,206.708596
5.666156,26,206.889747
7.044798,25,207.038436
8.9515,24,207.235489
7.57217,35,207.470678
7.843129,23,207.611997
3.667372,14,207.718313
16.743183,25,207.861696
2.734221,24,208.024792
11.615072,26,208.193933
6.904675,19,208.356343
14.952865,28,208.511645
7.439041,19,208.65745
7.530432,27,208.844347
14.021909,22,208.969242
6.306079,25,209.152741
13.410379,22,209.295692
9.631882,24,209.478382
12.862121,33,209.709423
11.85514,26,209.846892
12.646048,27,210.029911
4.938295,17,210.127314
-3.497566,13,210.203472
4.112663,15,210.324076
6.768008,16,210.42283
6.684245,18,210.558617
7.100325,22,210.702102
5.594887,19,210.823679
4.567939,24,210.991639
5.29624,19,211.107624
2.298723,13,211.215565
5.302288,18,211.322135
11.648532,21,211.480523
9.871693,27,211.634622
4.849784,23,211.800891
7.173125,24,211.941761
10.648601,21,212.103839
8.135947,26,212.265817
6.872448,19,212.381291
5.047877,19,212.491892
11.427027,28,212.685312
3.364049,26,212.833086
4.690364,18,212.981462
5.105487,25,213.149996
2.234886,17,213.257212
7.728373,17,213.35924
5.140064,19,213.507329
2.242328,17,213.605577
10.188413,28,213.824852
2.386143,22,214.006763
6.577659,29,214.185109
-1.129382,27,214.366237
5.159258,16,214.457919
0.349489,15,224.512456
9.964419,27,224.643769
10.855995,29,224.819525
5.817588,17,224.902341
0.079,23,225.050403
17.749851,43,225.255879
6.930294,19,225.388798
15.036917,26,225.530203
9.068454,19,225.656625
4.267341,18,225.749035
-1.224796,20,225.880912
12.707529,19,225.982223
0.847536,16,226.060923
3.269706,20,226.197781
-1.925021,17,226.286729
5.016299,21,226.414516
5.090354,24,226.555698
7.861132,21,226.708303
7.349035,29,226.856095
2.627218,19,226.990092
7.841893,24,227.109384
6.563357,19,227.23405
4.829131,23,227.364346
8.587702,28,227.530967
2.559331,32,227.712862
12.175944,35,227.925198
11.351002,24,228.054362
2.812004,25,228.203117
6.578038,21,228.339093
6.805071,23,228.464864
7.074952,20,228.555654
8.196474,29,228.744242
10.710697,18,228.870554
7.159376,23,229.003266
11.490327,26,229.17521
11.068868,21,229.283518
8.366283,24,229.422266
13.849367,26,229.575757
8.435903,34,229.785782
3.34605,23,229.918263
9.009577,21,230.0557
11.850682,19,230.174821
10.726044,25,230.31183
5.985893,27,230.492553
8.154636,22,230.626477
0.493329,20,230.734769
9.465397,25,230.885162
8.680259,22,231.019592
8.486326,23,231.190122
4.843754,23,231.306005
10.247171,24,231.470086
6.730591,22,231.582802
22.257789,30,231.784833
28.217493,36,232.030635
4.092993,18,232.140693
6.453534,25,232.306195
5.474683,21,232.455798
10.462474,19,232.57323
11.547372,25,232.713314
9.040963,24,232.878498
6.943324,23,233.01131
8.096169,21,233.157883
14.834678,28,233.36167
13.865126,25,233.522139
10.132177,27,233.706942
2.345577,16,233.801542
9.36213,19,233.958627
3.737076,23,234.105623
8.952123,28,234.303578
16.561425,35,234.571429
5.903661,19,234.678897
8.546087,23,234.848757
11.273693,29,235.069645
6.19069,24,235.215752
8.537149,18,235.335562
8.790013,19,235.495622
6.749585,19,235.626845
9.410904,23,235.807195
4.610661,25,235.986044
2.616893,21,236.104502
6.473766,23,236.266569
14.28339,26,236.442443
10.259269,24,236.585757
15.632153,27,236.774964
19.793586,28,236.984197
10.674842,24,237.119438
12.144055,21,237.266381
13.123768,23,247.446457
17.582939,30,247.629997
11.478621,22,247.743116
9.277254,22,247.879086
1.045929,13,247.943169
11.747631,29,248.13098
12.421402,32,248.307385
2.355832,21,248.444867
11.988375,22,248.553925
3.232951,23,248.706048
8.585539,23,248.821916
12.92115,24,248.974211
11.909107,31,249.159583
10.262804,26,249.313217
13.650233,27,249.488524
4.49616,17,249.576271
8.535593,21,249.709191
8.898557,19,249.804612
9.779331,23,249.92761
7.867498,23,250.074694
11.75631,23,250.192286
11.438274,29,250.393471
11.62978,28,250.579587
6.896031,16,250.662413
15.149637,45,250.915829
7.271255,22,251.031425
11.666219,21,251.162817
7.368486,23,251.277165
20.293295,36,251.497227
9.199167,23,251.645822
5.267053,23,251.783583
3.541996,14,251.853896
6.225241,27,252.021335
9.539015,23,252.148688
7.130001,26,252.321965
11.426189,19,252.42136
9.196133,22,252.576685
9.335446,20,252.688477
8.930906,20,252.836353
12.44673,24,252.961584
1.731587,14,253.053053
17.284744,31,253.247797
19.3221,31,253.440408
11.550926,21,253.568186
7.553868,27,253.755013
13.079983,23,253.922596
12.774006,35,254.109257
12.325724,22,254.254649
-3.828406,21,254.367381
12.991364,27,254.54236
12.359726,32,254.744831
8.733436,26,254.899212
7.064052,16,255.010518
7.680014,18,255.116184
19.62522,32,255.331059
9.214138,26,255.459192
15.161692,22,255.618984
6.473003,26,255.747952
8.432878,22,255.899244
15.975336,23,256.016423
9.091451,21,256.158038
5.928808,18,256.281716
14.628133,26,256.435365
11.006733,23,256.571483
3.661965,15,256.65263
9.847562,25,256.823567
15.756157,28,256.97131
10.215097,22,257.133043
6.207297,26,257.318698
5.824813,18,257.445524
10.65894,23,257.610674
17.905526,32,257.791333
5.04868,22,257.954648
11.872406,22,258.088405
3.070956,22,258.249315
5.116479,26,258.391612
6.020719,21,258.554882
11.65424,21,258.669736
11.732532,25,258.846783
11.36166,27,258.993619
3.672935,22,259.140188
3.952731,30,259.29374
6.214742,16,259.392314
8.86015,21,259.521792
11.999782,33,259.742329
12.0055,22,270.178802
10.497193,22,270.281293
19.254442,31,270.471664
10.356016,23,270.587072
7.346008,30,270.772103
10.567926,23,270.893769
10.914261,30,271.092491
7.994642,32,271.293008
13.679747,30,271.455189
5.737203,21,271.604039
3.198843,19,271.702932
8.902543,21,271.830513
12.23917,22,271.948321
15.620012,25,272.073003
7.62968,24,272.252037
6.402248,23,272.367027
13.731674,25,272.533179
11.873393,29,272.681928
24.96381,39,272.912196
13.975203,22,273.027129
11.40788,25,273.19157
5.846247,16,273.280368
9.935821,21,273.424247
6.574283,22,273.544428
6.160563,20,273.680041
4.9008,25,273.801724
13.275051,26,273.950386
13.483963,28,274.10124
14.437234,25,274.266025
16.361257,24,274.381535
8.339804,23,274.556545
18.138232,36,274.784549
8.712961,21,274.891718
12.429162,25,275.053927
6.57198,19,275.154866
4.874443,19,275.251402
9.237834,32,275.448324
7.592633,23,275.586897
5.345892,16,275.712678
14.222692,29,275.877532
7.12101,25,276.048548
8.710321,22,276.170115
6.359096,19,276.308532
25.881476,32,276.499541
9.702874,26,276.640404
13.016095,28,276.835483
34.826098,48,277.146283
16.80625,36,277.366906
10.611598,23,277.487158
17.502629,28,277.672425
6.716653,26,277.811671
5.120263,22,277.955997
31.060763,44,278.196461
14.771941,30,278.387416
13.890927,45,278.65859
11.654578,22,278.775967
6.853,22,278.926943
1.338239,26,279.075365
1.958959,29,279.273833
10.647003,26,279.411425
8.774222,23,279.571806
18.865367,30,279.769698
11.309123,26,279.907225
12.552613,17,279.993768
13.856082,21,280.138816
8.261901,18,280.260415
13.650418,30,280.444652
14.91846,29,280.611585
11.081194,34,280.822713
14.435128,25,280.9923
19.397713,32,281.13685
10.535846,20,281.235422
6.351093,18,281.361334
16.162336,44,281.619067
11.570362,26,281.758002
11.655451,30,281.950397
8.155093,22,282.094375
10.447724,29,282.244878
15.49977,25,292.351856
23.263925,27,292.526861
25.957821,45,292.821371
16.692766,24,292.946065
13.391595,25,293.105727
12.939914,24,293.230265
3.157308,16,293.345742
29.465452,61,293.693004
8.081834,33,293.894672
12.575786,23,294.016714
8.511046,23,294.131046
16.262269,35,294.336112
10.511031,33,294.534728
22.266493,30,294.696611
13.276739,25,294.848986
1.183373,21,294.962199
17.844005,30,295.15915
17.307968,27,295.294287
12.253576,26,295.459507
9.053221,25,295.591486
9.842937,24,295.742203
21.881359,30,295.893003
7.624793,37,296.11588
7.909547,27,296.29093
10.608132,17,296.369791
26.112411,29,296.54187
8.99603,39,296.74218
11.297215,31,296.939301
12.302593,23,297.077854
10.436539,24,297.228754
17.978281,40,297.494686
8.855095,25,297.654087
6.442788,24,297.793509
16.092049,25,297.941916
11.041439,26,298.095996
8.097235,23,298.219049
10.84643,39,298.471446
10.67888,23,298.640788
8.476243,24,298.794702
11.48892,20,298.916651
8.513626,22,299.028246
11.70926,28,299.215485
12.428451,21,299.315787
16.138629,23,299.470453
4.707419,31,299.679953
25.981381,52,299.992531
9.535977,23,300.15217
20.104401,32,300.342509
6.578678,21,300.466998
15.375117,29,300.653947
15.431737,51,300.967761
11.636937,26,301.099979
4.774153,18,301.223701
5.234283,25,301.358375
15.746022,25,301.520196
11.830581,34,301.719621
9.91205,35,301.955865
10.109318,30,302.148082
29.483328,44,302.408546
9.162871,22,302.513202
12.240265,24,302.670794
8.471522,26,302.796015
9.655042,25,302.963225
12.089028,29,303.125042
13.313901,24,303.271517
14.452311,30,303.449573
23.745787,50,303.735869
7.869365,22,303.876258
13.919449,26,304.00273
18.938367,31,304.20514
13.256947,31,304.39041
5.496599,24,304.507165
29.153461,46,314.724027
16.959578,29,314.899937
12.979941,31,315.06951
16.667647,29,315.262754
14.445868,24,315.39955
9.018264,22,315.570616
20.668279,29,315.732625
9.805092,32,315.927539
23.448188,37,316.155488
21.354338,34,316.343102
20.886218,48,316.687442
10.459097,24,316.842683
7.609346,25,317.013455
29.573581,39,317.237405
2.616351,26,317.407432
17.439916,27,317.585456
19.131501,38,317.837705
19.530698,32,318.002026
9.299506,21,318.110082
13.570341,31,318.284004
13.912268,35,318.522236
12.239503,27,318.691705
6.977627,23,318.808673
16.378978,26,318.977809
10.414096,25,319.111818
11.693735,27,319.282748
12.687124,33,319.490794
12.813812,30,319.639673
8.755139,22,319.757321
18.758566,29,319.928062
8.520296,28,320.116947
24.670019,30,320.270562
7.186527,25,320.429961
6.115538,32,320.622276
3.656893,17,320.702488
12.46378,42,320.938491
-1.655692,19,321.035031
23.91972,39,321.2774
18.478256,30,321.427435
13.625452,33,321.623171
12.16689,30,321.816556
6.520059,38,322.021485
11.843499,22,322.161516
14.803727,32,322.327916
12.310985,22,322.475821
16.530775,25,322.602688
8.125144,21,322.736558
12.54508,28,322.873874
19.067766,28,323.042999
9.015189,20,323.146923
16.609948,35,323.345753
12.009642,22,323.494598
27.500661,39,323.695646
13.610479,26,323.862283
33.859919,47,324.120163
34.54509,45,324.322807
25.781355,44,324.557866
13.794384,33,324.746031
11.616877,24,324.851709
11.23812,37,325.059224
8.995058,21,325.197659
19.082147,30,325.337245
14.502574,24,325.448613
18.342741,34,325.63405
39.401517,50,325.899213
11.510482,32,326.080958
12.732563,32,326.224333
19.865755,37,336.157234
12.441893,28,336.324657
22.496001,52,336.58275
14.839119,39,336.767731
17.314313,37,336.970521
3.336785,26,337.110515
0.851756,35,337.299714
20.501163,45,337.537194
14.013928,46,337.748531
8.436249,29,337.922963
18.4476,29,338.094543
17.066478,29,338.241185
36.749847,44,338.489142
13.328802,22,338.589497
16.245383,27,338.740305
10.578454,30,338.889359
14.401996,32,339.049961
10.646225,21,339.179333
13.798154,21,339.281655
13.346692,23,339.390763
26.246006,41,339.606346
13.951899,28,339.729038
27.170025,39,339.930283
13.569343,22,340.027487
44.380482,81,340.418436
18.684119,32,340.615793
22.699982,38,340.835901
13.166446,22,340.940452
9.395304,21,341.062873
15.921934,23,341.195199
6.465341,20,341.290525
29.04881,60,341.606104
20.887533,40,341.835173
12.100692,30,341.974134
24.231509,30,342.153915
10.846373,30,342.327878
18.942361,29,342.464979
15.650398,30,342.646222
13.475808,37,342.82845
21.941126,63,343.198366
8.391285,17,343.292415
9.001956,22,343.400933
25.835569,34,343.595284
18.691763,27,343.718079
11.725799,33,343.906173
17.751681,27,344.03905
7.670167,23,344.17679
29.183775,56,344.467688
34.734663,53,344.738603
16.068802,29,344.875673
34.388633,40,345.100483
13.19479,35,345.289269
22.370604,27,345.421738
27.191431,39,345.646708
19.200691,27,345.766736
10.311196,34,345.957207
29.221586,68,346.310931
27.610796,37,346.502377
28.926183,43,346.704639
33.794981,41,356.724074
30.7655,42,356.959681
41.232551,88,357.441633
18.276202,33,357.606758
18.976987,40,357.836972
13.719695,33,358.042397
41.828156,70,358.415471
20.847922,37,358.636254
5.065412,17,358.731323
45.886051,56,359.040035
26.689699,37,359.257858
29.021835,39,359.442044
25.682003,47,359.709889
33.682246,39,359.958257
11.290793,22,360.089867
10.411074,22,360.205565
17.137576,33,360.407788
3.912598,16,360.492329
20.495892,29,360.638664
20.563877,32,360.837366
18.073086,27,361.002102
26.781246,32,361.168333
18.470941,28,361.333481
30.046036,37,361.523605
47.744747,52,361.825475
20.171648,43,362.076963
32.211296,109,362.711748
13.836381,34,362.872831
26.243998,34,363.071798
24.128567,33,363.269169
22.39385,27,363.40267
14.109338,25,363.559907
13.768685,31,363.711411
13.633165,39,363.933745
16.449372,47,364.191754
14.207319,36,364.353512
24.681649,30,364.527736
19.979019,38,364.726946
43.353314,85,365.13946
40.834463,40,365.34533
11.134164,29,365.511921
12.86397,22,365.607878
39.775957,60,365.903773
15.568877,37,366.100513
34.410186,51,366.319807
48.348002,61,366.664601
12.605944,42,366.872821
7.148,23,366.986934
31.926301,43,367.202804
34.458362,39,367.402495
25.105171,49,367.636712
20.254041,26,377.363389
25.717559,45,377.623268
29.520393,39,377.81763
14.896623,30,378.003317
26.026092,31,378.196841
30.385979,36,378.382612
22.089997,34,378.559471
34.756141,41,378.784147
46.945116,48,379.044303
14.382382,47,379.307933
31.188198,53,379.545973
38.557967,51,379.784554
20.173646,30,379.942249
29.731506,37,380.139363
25.138518,29,380.266783
54.926567,76,380.642428
46.538634,107,381.177348
11.708083,23,381.322915
36.660009,43,381.585879
27.457084,36,381.748178
27.04646,45,381.985959
17.151616,32,382.132741
15.291931,27,382.288322
37.420428,42,382.515993
19.934338,28,382.647346
16.683874,35,382.8425
30.288029,52,383.132107
31.704324,44,383.403648
21.80916,42,383.601914
22.001065,31,383.780305
13.468836,24,383.884626
27.167636,37,384.092466
12.028564,29,384.26567
39.893457,51,384.527011
33.18315,44,384.747746
35.002945,45,385.013015
41.910676,58,385.331663
21.536669,37,385.549947
40.190761,54,385.863187
44.899719,80,386.371369
34.931909,43,386.636822
39.100654,54,386.988962
26.839855,34,387.224968
37.334687,42,387.504308
29.171874,31,387.715857
35.038703,50,388.008604
40.405376,56,388.364223
34.009344,38,388.610417
3.27011,25,398.44621
16.034072,22,398.563341
35.814902,43,398.839142
42.292471,65,399.206657
26.699641,39,399.448089
30.115837,86,399.973247
48.52506,64,400.401372
12.9536,32,400.580028
39.581552,49,400.912633
20.458592,34,401.149533
26.955809,40,401.409005
25.669681,59,401.766154
48.398141,64,402.199959
30.704582,42,402.423425
32.956896,43,402.689642
21.193851,28,402.881679
28.368525,41,403.134963
51.233751,53,403.43445
35.860083,46,403.690279
35.299413,44,403.891153
21.086046,44,404.132542
17.004091,47,404.394502
52.906028,68,404.750284
55.274525,90,405.231752
20.097442,33,405.418579
20.530118,32,405.606839
9.833564,42,405.890487
26.119737,29,406.106034
42.370414,54,406.41074
15.462572,30,406.572744
29.533913,34,406.848944
22.380118,34,407.074767
16.846417,27,407.264299
5.344805,63,407.710055
33.139142,43,408.050618
18.817959,28,408.222199
25.740451,28,408.408603
43.782088,54,408.735381
40.310296,42,409.004981
19.235928,48,409.339094
41.600419,52,409.695019
21.377135,31,409.924483
31.795557,46,410.259506
29.283873,38,410.516236
39.013717,53,410.91431
35.04606,46,411.223016
44.197211,57,421.17422
15.978141,35,421.358574
53.780574,81,421.798382
22.680673,38,422.012869
49.189135,66,422.353504
44.797777,51,422.641699
43.796941,70,423.051092
38.962593,48,423.312501
44.0201,45,423.551868
23.121611,67,423.915447
34.081567,61,424.252667
29.478824,43,424.465712
18.944499,37,424.679721
34.312469,43,424.915374
23.80307,27,425.042772
20.044779,30,425.230855
24.623318,35,425.397564
17.982796,31,425.57579
26.753719,40,425.815292
34.317177,39,426.009954
35.172613,48,426.297203
20.816276,42,426.53476
25.720449,89,427.04319
37.335767,52,427.34629
39.358134,48,427.634715
37.71999,46,427.899817
10.396656,74,428.294704
42.661485,44,428.552757
20.100404,48,428.823539
37.014235,41,429.06475
33.488368,51,429.346756
37.736074,48,429.613133
20.776368,53,429.934535
34.372655,43,430.187594
27.453885,41,430.418885
21.86452,31,430.570843
10.89272,45,430.843869
47.973026,58,431.170462
38.702092,43,431.413005
45.29154,78,431.826901
46.984873,63,432.238415
42.031503,52,441.970465
38.01002,101,442.582717
49.911317,59,442.906194
38.843706,56,443.217729
25.142959,37,443.438874
47.358563,65,443.825075
56.734527,110,444.402535
39.913708,67,444.755427
38.464572,54,445.029047
24.102064,64,445.362807
22.004025,43,445.616803
59.985677,75,446.01389
12.034305,25,446.148422
18.710745,24,446.272652
35.812084,44,446.514785
41.348149,59,446.826447
36.049788,47,447.098536
35.840501,44,447.340047
40.17114,49,447.602183
42.556258,43,447.832626
33.450918,65,448.174945
45.383726,57,448.475593
6.053091,29,448.656399
32.571341,48,448.924962
46.937852,50,449.217608
30.65585,40,449.450914
37.855268,48,449.694943
50.524487,66,450.067589
50.891769,85,450.562263
38.289297,44,450.804155
25.129275,94,451.373975
30.924389,53,451.688891
32.150406,47,451.95706
49.494279,139,452.778405
37.119719,42,453.015269
43.174966,48,453.284814
38.355288,41,463.117625
40.562361,54,463.427791
29.22641,39,463.659357
52.778512,54,463.970641
28.98224,34,464.189414
33.386227,55,464.501146
11.235737,96,465.048668
33.894074,40,465.30752
43.030275,57,465.63255
31.892888,43,465.877837
9.965726,49,466.149426
25.175247,42,466.4056
9.344243,23,466.527451
45.401152,66,466.889571
37.75871,56,467.191417
50.414558,65,467.597347
29.033646,42,467.828928
42.32465,50,468.118774
24.908637,43,468.37995
52.074994,59,468.780343
50.457477,131,469.47526
28.697041,35,469.62946
38.469245,47,469.930651
52.79112,87,470.474755
38.991473,44,470.733594
36.231051,45,471.038054
41.315666,48,471.34164
55.54074,75,471.796852
39.124371,64,472.220825
48.37343,54,472.52751
54.321744,73,472.927828
28.737053,37,473.158935
37.338198,59,473.513609
26.610906,32,473.718841
38.302907,59,474.04529
39.266912,51,474.337636
31.545111,39,474.571861
40.642534,57,474.892826
34.275596,45,484.879151
35.730395,44,485.144539
28.092519,35,485.342212
35.573966,41,485.570776
34.283921,41,485.833436
54.32354,82,486.320954
34.597729,47,486.582648
35.871721,46,486.864699
56.348618,80,487.307945
49.596928,71,487.72947
32.698967,47,488.029983
48.640707,57,488.366009
40.466881,52,488.66758
37.629283,50,488.957892
20.408392,49,489.264047
28.021379,31,489.469221
38.888458,49,489.766186
44.636773,60,490.148022
36.513788,40,490.422732
38.366578,45,490.699427
63.500113,86,491.243912
46.117323,47,491.549197
54.319343,69,491.961709
49.273754,140,492.851553
42.401649,52,493.161289
48.468297,70,493.638983
37.749935,79,494.175037
40.958066,46,494.412301
54.56505,71,494.853393
36.747337,50,495.150366
43.747009,53,495.459802
61.50666,90,495.998615
30.952129,107,496.571967
63.834239,104,506.87259
38.923306,49,507.150695
66.44843,90,507.665628
77.980942,100,508.226946
49.468048,121,508.882075
21.552718,66,509.239803
37.175627,57,509.559182
29.110086,36,509.773984
55.333044,85,510.271282
39.471242,55,510.597382
64.958718,82,511.110844
39.561707,45,511.379272
65.205645,95,511.972012
58.330481,166,512.975975
54.02865,77,513.433699
64.689547,86,513.950492
41.473405,52,514.260232
25.621435,79,514.773182
45.887969,55,515.117122
55.140566,93,515.738414
46.170751,47,516.022988
50.463208,112,516.782119
27.702083,71,517.229979
32.893847,37,517.456492
40.6495,52,517.796417
32.670835,125,518.551451
50.405285,71,518.996056
38.84162,43,529.060799
85.31028,152,529.838576
40.864253,55,530.123251
54.59366,72,530.541341
58.933882,78,530.951185
50.199183,62,531.28581
79.943829,96,531.845138
56.252692,66,532.231995
44.500732,55,532.52979
54.431833,77,532.978642
48.274362,52,533.273194
126.696786,214,534.616507
56.01208,99,535.242402
34.751731,56,535.573467
67.286671,111,536.259081
43.527148,49,536.573
44.258005,57,536.921756
34.016482,99,537.572304
41.349315,52,537.905765
63.949552,75,538.430535
45.215742,47,538.715223
45.466746,55,539.030363
45.065374,58,539.390419
31.105256,34,539.614588
43.090603,49,539.906324
54.939497,64,540.26379
63.991116,87,540.812377
44.74079,51,541.119357
49.835739,69,551.392904
50.525963,61,551.706689
46.775254,60,552.023963
54.897663,70,552.385323
39.341903,56,552.693736
45.234049,56,553.011313
61.49816,71,553.430125
47.224791,55,553.723721
46.623668,54,554.011498
66.566392,96,554.530825
50.003675,51,554.78083
41.993459,56,555.090736
65.809798,89,555.579481
43.106642,60,555.911288
47.063818,55,556.226889
55.527488,82,556.713831
61.841667,79,557.130161
44.184541,51,557.409858
48.203375,74,557.865263
72.97212,94,558.390915
43.1319,50,558.709829
49.001557,64,559.09256
66.031585,103,559.68569
70.067835,86,560.245041
62.246228,86,560.783072
71.25127,90,561.350381
39.1114,130,562.143313
70.529413,118,572.821321
47.897634,58,573.137225
43.054248,49,573.366962
62.326362,92,573.922057
45.629563,46,574.175377
57.220399,77,574.634273
44.786021,49,574.938582
53.011258,56,575.246447
38.357407,41,575.435092
48.83034,60,575.745777
60.499299,67,576.171458
57.320887,78,576.576811
64.594534,145,577.403461
46.957257,70,577.765285
39.194741,42,577.987016
78.455508,208,579.195285
60.620994,79,579.637018
67.826695,92,580.149272
54.193989,92,580.670621
34.525035,35,580.823739
34.684203,47,581.071035
55.252772,73,581.461971
66.281397,101,582.034361
50.136683,55,582.331862
54.989572,66,582.693401
84.175706,176,583.693582
44.534688,43,583.982868
42.27633,54,594.282498
73.283694,84,594.788122
44.531644,49,595.082296
34.994316,48,595.379215
22.210166,47,595.639889
44.846666,56,595.963927
41.261356,53,596.274913
48.124146,64,596.649276
43.316935,52,596.951321
64.93589,73,597.353572
51.946515,53,597.674429
51.525348,55,597.973757
61.764518,86,598.454221
57.290451,64,598.816005
45.465977,56,599.121494
67.940898,94,599.634229
46.078063,48,599.862195
33.92884,63,600.217952
39.689023,51,600.50511
42.208045,53,600.789723
50.14449,70,601.23103
81.876961,111,601.829083
62.57616,73,602.211843
61.124053,73,602.59551
69.844102,95,603.097429
46.663423,57,603.408623
58.862195,78,603.796503
65.874289,88,604.270921
52.516835,55,604.5691
56.810828,67,604.930633
49.65098,56,605.224277
40.051051,40,605.447424
57.605704,61,615.583784
54.436277,74,616.03688
59.083956,90,616.555721
43.053726,62,616.92097
49.163963,53,617.277158
75.51249,92,617.833254
63.210205,66,618.286259
55.844148,69,618.746094
83.299641,113,619.410602
64.580265,65,619.809639
60.383629,86,620.284597
45.10526,54,620.634515
55.682508,68,621.012982
61.067661,67,621.382411
42.213345,52,621.655652
57.445961,78,622.121685
43.999417,48,622.39606
52.039323,58,622.695875
54.83386,70,623.091911
24.339086,51,623.355953
76.229746,90,623.809547
44.459966,51,624.084918
49.570891,55,624.368902
76.900022,102,624.896956
56.441686,67,625.248934
48.976288,55,625.537122
44.228796,54,625.824244
59.299667,67,626.160726
52.470477,59,626.46929
54.26196,59,626.765246
18.879064,44,636.62703
46.589902,49,636.909025
50.852507,61,637.307251
53.346898,65,637.700729
55.995673,67,638.103155
37.409776,47,638.400063
58.470254,71,638.853078
69.520437,85,639.375618
46.168096,51,639.706355
75.905069,87,640.234462
39.203284,65,640.66495
58.57032,60,641.014986
64.984537,73,641.482769
78.040333,95,642.069841
61.413745,74,642.51474
47.05029,69,642.91685
72.665297,87,643.435621
64.149773,83,643.967504
39.771237,40,644.17012
54.805863,72,644.603507
47.387899,61,644.970233
62.466917,95,645.524108
68.652892,84,646.02587
45.070419,50,646.303346
55.790157,63,646.623541
75.978481,95,647.100676
46.727285,48,647.359404
51.302117,61,647.669867
59.139333,93,648.126065
57.394108,60,648.445253
56.589563,73,658.297793
59.784306,69,658.690319
88.297209,190,659.846709
60.756843,64,660.227608
52.54988,63,660.627312
64.590856,81,661.107823
47.446051,88,661.656847
62.547036,81,662.181468
74.202045,92,662.738909
68.369396,84,663.233165
62.754755,83,663.74094
65.46432,84,664.279476
55.908642,59,664.657895
75.219757,84,665.165816
57.706046,64,665.582652
65.118496,80,666.062729
55.210835,64,666.475713
48.146176,56,666.835467
57.947515,57,667.184218
56.269665,69,667.617312
53.515521,61,668.003923
67.66199,80,668.468581
40.083989,41,668.744447
61.489629,67,669.142296
54.025126,62,669.499053
42.146851,54,669.802474
69.998188,97,670.394199
48.926241,58,680.586623
52.302306,58,680.936561
13.878182,88,681.440911
102.092273,144,682.287859
59.404746,75,682.734399
135.529916,281,684.391648
57.759567,58,684.749185
67.366405,97,685.328542
52.46068,57,685.701131
41.400245,55,686.045814
65.46884,82,686.510633
79.394014,106,687.200269
85.259576,103,687.74847
73.236591,88,688.295269
55.687143,65,688.671487
76.283998,103,689.248713
71.879085,102,689.846204
81.913979,107,690.439086
56.696984,66,690.798999
12.706883,30,690.970861
121.871258,184,692.029406
68.733606,71,692.418503
88.219833,144,702.693822
72.549163,105,703.272018
57.502253,72,703.635686
71.43552,99,704.18238
86.288759,109,704.829445
37.708763,73,705.219723
48.601724,55,705.539915
57.861254,65,705.923127
55.21794,68,706.286661
22.773261,51,706.586136
7.577765,55,706.892101
57.17967,69,707.248224
58.889395,66,707.60261
101.127878,147,708.388549
11.159311,33,708.575219
78.387936,109,709.179774
56.213017,72,709.584361
25.537904,46,709.839478
69.174598,81,710.296266
70.502286,85,710.788002
72.549565,114,711.40051
93.984472,124,712.062196
95.423083,128,712.771937
52.86347,66,713.115651
48.886262,59,723.037494
68.208749,85,723.473197
97.147984,185,724.515082
96.587806,136,725.253306
66.146769,87,725.744726
98.75143,147,726.574352
84.751113,111,727.204451
57.028527,59,727.536185
132.245966,183,728.583351
73.150459,138,729.306755
71.214939,84,729.765784
93.870994,116,730.368976
100.206314,138,731.110769
95.681445,122,731.753696
54.693774,65,732.07855
101.813961,219,733.181307
91.940319,209,743.962326
91.410588,119,744.741211
81.07574,118,745.53867
93.117398,128,746.288476
54.339656,67,746.685162
134.627488,188,747.768497
61.683035,73,748.147225
83.222622,97,748.686033
69.012514,75,749.130712
94.607826,135,749.856905
116.45723,164,750.7655
82.361888,103,751.320506
73.924614,96,751.832259
62.47271,73,752.185577
91.243952,122,752.856222
85.792031,109,753.403883
71.512039,99,753.915556
72.749793,100,754.416296
64.013206,80,754.83189
100.972795,129,765.24395
51.845666,60,765.590549
109.111988,166,766.593359
89.433585,115,767.350077
124.481364,196,768.604807
137.78695,292,770.411527
76.820402,89,770.952734
91.454976,137,771.797033
63.165577,79,772.207599
101.789204,151,773.037739
60.773533,74,773.399374
53.59963,58,773.691334
63.279126,81,774.137962
64.796534,79,774.525177
113.638239,154,775.329456
72.872407,84,775.778538
124.054447,249,786.669697
99.51867,134,787.538175
91.93218,114,788.308332
65.17541,78,788.81055
72.149299,89,789.369116
192.115084,309,791.358977
52.737494,61,791.717844
99.13403,119,792.462962
97.348664,157,793.427019
117.916128,167,794.479058
95.359918,137,795.279411
54.898541,69,795.68974
66.592153,85,796.16847
79.112565,110,796.759887
71.324967,94,797.289812
64.816922,86,797.728176
77.85954,102,798.261708
141.049219,231,809.030161
249.89342,443,811.725707
114.441828,167,812.835985
80.571984,98,813.440655
198.260583,325,815.495121
171.529634,297,817.238634
56.180337,65,817.629099
109.798017,219,818.818651
62.089265,187,819.813462
97.975462,148,830.224216
97.795486,152,831.086566
86.351693,104,831.701963
63.723407,83,832.198516
82.549077,105,832.786426
87.20083,111,833.447751
76.5734,85,833.932989
51.993583,122,834.654127
98.567108,134,835.452512
250.498663,460,838.433217
84.919404,107,839.017698
63.530306,90,839.55568
106.795255,154,840.393722
81.965918,110,840.975453
78.212612,109,841.575569
87.839429,113,851.871497
65.00812,79,852.3537
74.559179,94,852.906394
110.429907,264,854.450719
81.296682,108,855.106935
167.31854,280,856.747254
97.543273,148,857.617109
124.364463,275,859.220865
116.97059,193,860.422792
128.593644,243,861.810234
108.150194,135,862.53999
258.165034,421,874.546968
72.382085,215,875.855508
94.280328,140,876.626702
97.915541,257,878.143583
50.234487,154,879.008068
68.931068,87,879.542758
61.220531,74,879.982128
79.184298,222,881.368235
64.057181,101,881.989673
151.062793,305,883.622142
101.69746,138,884.395632
198.457045,328,895.929857
88.822329,126,896.641012
100.249283,164,897.638164
147.2972,244,899.092298
108.933197,158,899.998047
89.618405,126,900.751593
124.87075,303,902.582394
72.372142,101,903.133686
129.507696,221,904.369228
167.315758,280,905.834622
179.347049,320,917.456913
139.485704,260,919.048819
362.821501,756,923.630895
95.608874,201,924.78601
237.030099,588,937.585421
109.351656,326,939.538876
257.896337,437,942.226857
64.125874,85,942.788717
92.759533,212,944.133814
78.423678,114,944.847152
345.546827,687,948.732047
325.659443,589,961.879241
173.876442,361,964.093339
125.363236,184,965.280205
462.656317,923,970.929075
75.740271,94,971.494254
57.973038,90,981.667345
112.52076,250,983.043007
106.138954,223,984.307539
340.989667,637,988.127965
162.830131,283,989.82994
450.9157,789,1004.086439
143.27255,372,1006.046317
79.27361,101,1006.594824
164.62998,322,1008.225497
59.337924,129,1008.920969
176.79495,343,1010.829722
171.34658,405,1013.345174
307.287866,602,1026.345957
277.979064,561,1029.24158
150.145741,271,1030.66387
75.185352,94,1031.127757
106.439925,310,1032.805133
97.434933,156,1033.690271
121.855174,211,1034.924885
89.071005,127,1045.343412
410.414848,697,1049.088933
74.524468,98,1049.609232
184.613298,343,1051.395985
425.307593,773,1055.591695
189.832107,343,1067.008137
78.256139,103,1067.574035
138.671426,235,1068.951712
128.990339,205,1070.114872
144.29792,243,1071.532271
95.456481,148,1072.405918
118.106785,198,1073.509379
72.133412,101,1074.084707
162.157624,258,1075.502667
96.83258,126,1076.203001
80.782666,108,1076.793433
64.775661,73,1086.948182
104.610559,154,1087.790374
114.795706,242,1089.107537
78.754313,190,1090.211449
243.535437,405,1092.556231
101.039112,136,1093.387989
250.430003,432,1095.979831
112.77406,176,1097.07977
75.969375,101,1097.67524
74.070291,89,1098.242089
82.563174,111,1108.528003
75.406605,103,1109.026262
82.118574,105,1109.567737
210.543275,350,1111.468936
89.757351,136,1112.245232
127.76394,214,1113.564404
82.422761,94,1114.134273
202.057112,345,1116.215145
86.92579,106,1116.871833
109.945868,179,1117.951891
293.966759,529,1130.736415
278.864257,505,1133.34653
218.565482,391,1135.504391
88.942746,110,1136.137456
63.074025,79,1136.625218
162.293527,285,1138.370003
149.073315,262,1140.016045
133.853486,198,1141.201128
99.697731,141,1151.650198
78.740903,104,1152.178098
84.604868,116,1152.75245
299.389712,589,1155.843344
61.974065,72,1156.234115
100.651925,146,1157.014426
68.624754,80,1157.483298
54.648085,62,1157.829101
113.917,175,1158.788173
70.237416,91,1159.295351
127.406377,190,1160.30852
97.050183,126,1161.013968
101.168398,145,1161.809353
164.844694,278,1172.942787
74.118833,89,1173.474686
114.556912,161,1174.345529
107.009854,163,1175.186076
92.591709,119,1175.814431
115.295328,184,1176.808361
67.05998,85,1177.312442
72.726845,89,1177.804681
86.850841,104,1178.396
143.999557,216,1179.610023
87.212951,110,1180.210238
85.823305,110,1180.875465
125.112436,197,1181.995307
56.317122,60,1182.325991
88.65956,112,1182.963417
75.420218,98,1193.564546
72.414888,86,1194.05765
169.128548,300,1195.80724
139.046937,214,1197.00625
167.376909,270,1198.579988
75.215488,99,1199.109632
73.002992,77,1199.55149
101.428072,150,1200.384408
186.205312,318,1202.139546
125.792819,183,1203.170659
76.044569,85,1203.636854
105.770223,144,1204.431032
77.309047,109,1215.017954
90.783889,137,1215.838394
132.567958,203,1217.02491
141.404734,202,1218.220261
96.944059,139,1219.080968
142.596639,215,1220.353227
166.219493,265,1221.993583
72.740789,93,1222.509685
313.724289,567,1225.829057
101.44046,144,1226.719047
134.627821,191,1237.456437
243.820922,389,1239.644345
150.728324,233,1241.069363
83.212043,112,1241.742379
93.544841,130,1242.554037
89.388274,119,1243.28086
151.09463,237,1244.763836
199.628117,313,1246.677327
87.181999,109,1247.365733
62.049988,72,1247.832443
114.944542,157,1248.788889
392.920005,622,1261.925673
422.146843,702,1266.169506
83.762761,123,1266.938378
100.711989,147,1267.894421
263.937353,421,1270.566534
134.494852,203,1281.515277
74.220043,92,1281.993397
74.281233,97,1282.50689
171.339032,270,1284.035075
137.738829,205,1285.146549
127.388588,207,1286.27967
278.564941,460,1289.120785
101.747248,134,1289.938253
65.59544,71,1290.386524
123.723723,196,1291.648463
382.812885,604,1304.549582
70.490301,96,1305.068955
88.068263,109,1305.625826
131.723323,192,1306.63788
77.087323,100,1307.164033
67.908652,78,1307.613743
129.52896,180,1308.585852
179.702922,315,1310.339873
166.060381,255,1311.740912
126.155361,174,1312.692454
112.406227,172,1323.534851
562.856962,947,1328.641249
117.030449,178,1329.650314
256.878254,456,1332.19543
237.288254,422,1334.52108
609.179119,1000,1349.579682
92.989658,123,1350.327944
209.807081,345,1352.272542
123.065733,189,1353.293724
308.764612,565,1366.134843
584.568763,1000,1372.170707
87.011456,126,1372.966584
132.713433,207,1374.293288
527.427678,826,1388.267615
99.13289,137,1389.030741
270.809346,447,1391.677022
162.154457,259,1393.35498
201.718732,313,1395.409596
182.38589,270,1397.150897
117.94611,175,1398.206298
128.81204,184,1408.766626
241.357266,416,1410.85982
105.776337,144,1411.648305
213.499606,339,1413.443981
211.874815,325,1415.46553
107.766281,152,1416.417651
244.407316,402,1418.937268
298.135784,471,1430.60689
264.842136,452,1432.80638
241.452854,427,1435.212252
559.24268,1000,1450.271801
141.906315,236,1451.468107
164.032254,245,1452.641025
160.147915,231,1453.809279
330.497338,503,1456.492645
202.747239,332,1458.401384
110.610307,143,1459.243744
142.245889,190,1460.329704
189.421559,293,1471.12679
114.788555,154,1471.903039
165.092329,254,1473.199555
164.534946,237,1474.461586
183.015894,298,1476.03989
201.268094,314,1477.787153
104.192415,146,1478.618476
220.698125,346,1480.662234
443.129217,791,1494.770319
68.014292,78,1495.219604
415.119139,666,1499.097009
431.405645,658,1512.712123
436.866414,755,1516.806556
507.879835,821,1521.657833
114.405283,161,1522.625726
251.357239,426,1534.57746
217.879776,366,1536.40225
193.039322,292,1537.912294
191.317878,293,1539.56075
233.17758,389,1541.871106
585.528346,1000,1557.053517
617.471418,1000,1562.217725
102.928683,130,1562.935414
353.815165,580,1575.782903
238.603073,361,1577.678271
384.567349,688,1581.199472
313.750032,512,1583.980465
401.294518,647,1596.974923
181.519881,280,1598.616938
170.264387,242,1600.01231
97.249145,114,1600.636981
106.213123,154,1601.465774
297.099948,492,1604.131892
90.725058,115,1604.775825
331.533305,501,1617.130786
551.579568,948,1622.789053
441.388319,717,1627.074525
326.409772,572,1639.766699
143.932199,214,1641.085018
550.591907,871,1646.393857
341.122041,538,1649.491346
91.882703,100,1650.036944
248.680411,410,1661.88358
252.612553,376,1663.838196
118.055676,210,1665.008635
113.746394,146,1665.936194
79.806639,87,1666.517164
316.306937,513,1669.681978
360.568413,576,1682.221663
362.927746,550,1685.091478
248.235877,416,1687.530872
250.551353,414,1689.857982
374.793901,606,1702.405366
192.84683,322,1703.961239
93.772009,130,1704.568723
411.804737,647,1707.962463
117.214756,165,1708.832383
102.943365,134,1709.540065
481.309675,836,1723.007387
359.606907,590,1726.628365
539.572206,876,1731.762632
543.9409,1000,1747.273278
678.817311,1000,1753.393893
497.372947,806,1767.540622
565.00469,1000,1773.047112
374.894057,619,1784.51149
304.469441,508,1786.795889
349.007399,564,1789.471514
646.347041,1000,1802.834956
373.204456,609,1805.700974
376.415898,656,1808.687631
537.342173,984,1821.408404
601.519677,926,1826.41014
340.833928,568,1829.032721
630.300421,1000,1841.727469
208.052806,336,1843.518833
393.267262,623,1846.944913
574.778141,1000,1859.633092
504.617339,789,1863.384723
333.640526,537,1866.176086
253.362145,398,1875.915423
138.410692,239,1877.004548
304.513898,518,1879.291722
462.578307,742,1882.815146
121.048914,165,1883.649884
638.465581,1000,1895.955606
596.78564,996,1901.15036
620.776188,1000,1913.151
658.557418,1000,1918.272382
575.503654,1000,1930.24367
674.54128,1000,1934.961825
554.908274,1000,1946.847522
599.571468,1000,1951.705685
637.292737,1000,1963.326297
598.97295,1000,1967.931776
591.70437,1000,1979.858065
560.270834,1000,1984.283082
679.145393,1000,1996.960947
690.536887,1000,2002.14143
386.232788,609,2012.470158
679.81268,1000,2018.048782
709.930764,1000,2030.747649
675.903857,1000,2035.304213
645.578592,1000,2047.697307
626.232668,1000,2052.717839
630.550491,1000,2064.902364
598.46534,872,2069.529519
699.279661,1000,2074.906283
580.1667,1000,2087.740874
636.253624,1000,2093.018589
617.976105,1000,2105.986609
714.332391,1000,2110.943511
659.663575,1000,2124.330103
169.092942,273,2125.803594
693.613684,1000,2139.31261
722.883064,1000,2144.502411
713.617281,1000,2149.782544
563.970883,839,2162.551175
689.39423,1000,2167.552469
737.7833,1000,2181.44192
736.208466,1000,2186.377743
736.773684,1000,2200.548993
732.226026,1000,2206.147515
716.627586,1000,2221.74664
749.016487,1000,2227.878323
763.501866,1000,2243.969271
735.068059,1000,2250.265025
751.321344,1000,2266.12738
741.397103,1000,2272.414297
761.298383,1000,2288.036984
743.300096,1000,2293.878944
704.623105,1000,2309.545567
723.292488,1000,2315.175368
742.481219,1000,2330.617645
722.428867,1000,2336.077155
735.465503,1000,2351.504424
749.414543,1000,2357.061011
756.604904,1000,2372.105917
765.610397,1000,2377.828865
755.175928,1000,2392.688907
772.75898,1000,2398.343874
760.340585,1000,2413.45393
770.5817,1000,2418.723356
776.409211,1000,2433.886539
757.48148,1000,2438.931531
781.776454,1000,2453.627505
378.461532,468,2456.100446
168.052817,231,2457.270671
417.620932,608,2460.40787
217.481851,312,2462.088866
789.130167,1000,2476.539924
750.422114,1000,2482.091795
768.448259,1000,2496.405691
799.147172,1000,2502.187348
670.947266,875,2515.651113
130.977217,166,2516.4882
725.346977,922,2521.659675
344.73798,456,2532.945642
92.142306,115,2533.464463
501.936389,659,2536.758348
504.331997,675,2540.252275
195.264626,247,2541.505108
318.924766,417,2552.405505
407.422822,536,2555.371111
767.549279,971,2560.364139
558.677828,703,2572.675265
347.550822,451,2575.24807
809.458968,1000,2580.656971
809.252972,1000,2595.436441
549.235055,683,2599.444021
656.793153,813,2613.078627
787.630953,1000,2618.665818
776.009392,1000,2633.554894
794.223054,1000,2638.986712
149.207768,314,2640.649138
740.583099,1000,2655.700392
795.576515,1000,2661.005008
759.778588,1000,2676.044941
756.138795,1000,2681.929999
791.448643,1000,2697.27191
795.439027,1000,2703.400945
403.926598,508,2706.415466
805.20856,1000,2722.154361
834.557054,1000,2728.376856
425.756047,533,2741.518189
284.725049,334,2743.410088
124.935462,138,2744.357037
796.542932,930,2750.38872
211.395456,242,2751.84795
838.114617,1000,2767.955277
842.359626,1000,2774.316943
847.519921,1000,2790.643185
835.223379,1000,2796.583183
828.325504,1000,2812.804792
745.103278,1000,2818.651709
808.024412,1000,2835.049758
769.588001,1000,2840.869633
844.257102,1000,2857.13949
804.865184,1000,2863.058909
113.213444,138,2863.839453
811.455254,1000,2880.020584
834.973713,1000,2885.961297
808.350685,1000,2902.23835
797.893623,1000,2908.186197
782.468191,1000,2924.334958
807.815771,1000,2930.603217
798.35584,1000,2946.914184
804.936596,1000,2953.434029
795.025231,1000,2968.98955
800.370215,1000,2975.609743
825.173416,1000,2991.598656
812.592119,1000,2997.887502
673.818682,810,3012.550364
828.751864,1000,3018.191359
829.689872,1000,3033.913469
806.034728,1000,3039.332679
764.716032,1000,3054.65909
818.674809,1000,3059.867039
835.971637,1000,3075.179762
831.39881,1000,3080.65188
802.421336,1000,3086.164062
845.34831,1000,3100.97562
821.789284,1000,3106.775452
806.42248,1000,3121.087285
822.933249,1000,3126.994259
848.593013,1000,3141.134497
806.222842,1000,3146.843291
143.478091,157,3147.792646
854.5055,1000,3161.609819
138.460756,162,3162.43648
104.039543,129,3163.07378
347.360327,417,3165.165122
149.200755,175,3166.118371
847.006416,1000,3179.980084
162.982968,189,3180.986252
764.925488,922,3185.668869
368.132438,424,3196.345525
306.879968,376,3198.427028
884.308763,1000,3204.005541
810.644751,1000,3217.546331
395.286615,455,3219.893879
645.767865,728,3223.979276
278.168352,331,3234.240988
849.962385,1000,3239.483093
710.335123,801,3243.59331
855.304403,1000,3258.133648
859.699979,1000,3263.160679
766.161597,1000,3277.876309
814.469269,1000,3283.321567
777.701813,1000,3297.963429
827.983968,1000,3303.489591
824.842904,1000,3317.965128
822.590526,1000,3323.235259
810.025114,1000,3338.167644
825.926838,1000,3343.377014
849.331225,1000,3358.689259
826.343147,1000,3363.973737
807.486948,1000,3379.372177
782.683416,1000,3385.030512
834.167748,1000,3400.564373
835.232755,1000,3406.783587
673.831448,811,3421.139394
831.005283,1000,3427.348609
845.479225,1000,3443.192469
859.209622,1000,3449.138807
846.815952,1000,3464.969987
832.912918,1000,3470.610146
840.205685,1000,3486.658109
822.251355,1000,3492.29432
814.516721,1000,3508.090831
804.071027,1000,3513.646026
838.869629,1000,3529.449901
846.850156,1000,3535.208896
84.8565,99,3535.810613
805.403563,1000,3551.762005
835.10104,1000,3557.764235
834.407192,1000,3573.593031
814.778525,1000,3579.633614
832.267164,1000,3595.672961
819.04832,1000,3601.69212
813.989125,1000,3607.936191
386.228036,455,3618.562734
860.664316,1000,3623.111538
105.035434,123,3623.680808
875.140567,1000,3636.148057
408.067537,516,3638.374843
135.011209,175,3639.169065
854.196866,1000,3651.363493
836.340748,1000,3656.485145
844.103643,1000,3668.164832
870.773803,1000,3673.102638
851.475238,1000,3685.901183
842.246425,1000,3690.22304
809.084166,1000,3695.811536
846.367844,1000,3708.739197
877.492116,1000,3713.092026
314.266707,380,3722.402524
727.997878,815,3726.391135
264.021724,316,3727.942198
904.619031,1000,3742.506296
680.283697,758,3746.847668
808.9437,1000,3761.815498
75.381925,85,3762.260686
819.50726,1000,3767.455687
851.826237,1000,3782.318151
90.131185,118,3782.913164
821.280481,1000,3788.123916
892.124853,1000,3802.419831
862.752233,1000,3807.790752
896.127265,1000,3821.87434
886.992582,1000,3827.397738
870.967928,1000,3841.80048
847.466502,1000,3847.086442
623.717373,732,3851.429984
881.941269,1000,3865.216872
868.604121,1000,3870.437929
824.371538,1000,3884.465979
873.686484,1000,3889.47082
900.626946,1000,3904.204082
409.604733,500,3907.000468
848.341813,1000,3921.247231
892.804899,1000,3927.464418
889.292497,1000,3942.022377
896.741003,1000,3947.956251
77.115383,104,3948.618509
866.505085,1000,3963.698114
92.420042,107,3964.298199
935.149047,1000,3969.863931
902.234998,1000,3985.368398
912.280296,1000,3990.861403
872.166622,1000,4006.434747
508.769911,580,4009.630003
863.920889,1000,4015.380317
863.840488,1000,4031.062775
831.353836,1000,4036.815639
845.579988,1000,4052.573312
882.992287,1000,4058.750594
829.246415,1000,4074.535139
848.03799,1000,4080.760263
854.530486,1000,4096.702991
870.793552,1000,4103.102055
886.710163,1000,4118.837689
857.353018,1000,4124.871347
936.498827,1000,4140.463063
891.945509,1000,4145.887493
905.526093,1000,4161.357056
907.761487,1000,4166.566807
849.539836,1000,4181.742749
887.452679,1000,4187.138608
884.906873,1000,4202.358858
890.357588,1000,4208.104441
898.405716,1000,4223.024258
898.827755,1000,4228.780957
891.434645,1000,4243.771815
940.128232,1000,4249.27789
862.704465,1000,4264.411993
903.636627,1000,4269.576178
94.319835,130,4270.260518
905.436613,1000,4285.383761
880.937426,1000,4290.637376
897.47496,1000,4305.457494
862.335892,1000,4311.091135
848.793159,1000,4326.177788
894.278478,1000,4332.026742
837.097878,1000,4347.35589
829.156123,1000,4353.484061
863.583974,1000,4369.088975
837.789724,1000,4374.907904
858.740035,1000,4390.463579
861.810135,1000,4395.892297
871.3841,1000,4401.691622
837.392439,1000,4416.360972
881.442472,1000,4421.721869
902.400702,1000,4436.068926
863.46075,1000,4441.492147
840.137523,1000,4455.612824
883.988978,1000,4461.22429
865.282198,1000,4475.208005
840.787744,1000,4480.68037
877.138523,1000,4494.505049
862.726321,1000,4499.690158
873.666568,1000,4513.895933
884.297638,1000,4518.882112
871.274039,1000,4533.518307
887.530667,1000,4538.841339
871.696278,1000,4554.001524
877.79362,1000,4559.837994
848.788956,1000,4574.41444
858.160564,1000,4580.382228
893.4378,1000,4594.912999
797.896457,1000,4600.541697
870.414567,1000,4615.384191
852.240757,1000,4620.83293
838.375507,1000,4635.930576
873.326996,1000,4641.374538
859.933535,1000,4656.403396
888.007526,1000,4662.313793
852.474792,1000,4677.504188
885.994485,1000,4683.601287
873.100754,1000,4698.878934
830.519811,1000,4705.054021
885.875277,1000,4720.490654
854.119531,1000,4726.143425
850.179508,1000,4741.734316
890.769872,1000,4747.309931
852.594565,1000,4762.734719
858.965343,1000,4768.331131
93.887778,125,4768.95918
132.087367,203,4770.022315
887.607923,1000,4785.583989
138.58661,187,4786.765191
910.255085,1000,4792.274724
840.120231,1000,4808.535276
804.058772,1000,4814.374015
841.134922,1000,4829.963701
877.427143,1000,4835.782263
858.326944,1000,4851.173515
834.373748,1000,4856.799561
872.44367,1000,4872.185477
892.471451,1000,4877.480694
877.090377,1000,4893.092603
793.500316,1000,4898.286117
847.356349,1000,4913.886891
883.159126,1000,4919.185103
55.891461,83,4919.651513
884.442849,1000,4935.13627
872.62814,1000,4940.970341
830.869804,1000,4956.693441
797.141514,906,4962.234895
848.799876,1000,4977.910622
855.603954,1000,4984.123022
834.003968,1000,5000.058364
904.83369,1000,5006.05612
864.218183,1000,5022.019914
924.883322,1000,5027.654504
877.321015,1000,5043.723951
627.464419,716,5047.637967
845.949993,1000,5053.339181
79.276937,123,5054.112067
862.505529,1000,5069.626825
905.829464,1000,5075.336818
112.110274,157,5076.197511
844.343144,1000,5091.951274
195.846762,244,5093.430873
933.555181,1000,5108.931145
906.837351,1000,5115.047943
880.437721,1000,5130.834563
878.019757,1000,5137.036262
893.451955,1000,5153.08101
82.33932,102,5153.625401
871.749855,1000,5159.810989
885.804958,1000,5176.253135
908.872315,1000,5182.34187
915.668431,1000,5198.620052
91.214052,106,5199.185155
895.083843,1000,5205.012755
936.417953,1000,5221.52864
900.018979,1000,5227.103364
921.594884,1000,5243.211601
877.868385,1000,5248.639644
834.287404,1000,5264.523986
902.406332,1000,5270.022873
838.408291,1000,5275.864182
893.974681,1000,5291.799105
912.376766,1000,5297.376127
815.258449,1000,5313.304263
832.908186,1000,5319.065288
846.408923,1000,5334.956158
904.190246,1000,5340.936285
884.698481,1000,5356.208029
851.721099,1000,5362.063102
917.784543,1000,5377.198919
871.149767,1000,5382.790694
919.9944,1000,5397.850081
920.523068,1000,5403.032142
895.189805,1000,5418.287609
877.624157,1000,5423.598755
888.074918,1000,5438.65768
929.502324,1000,5444.143621
923.500658,1000,5459.098581
940.394805,1000,5464.748013
900.226535,1000,5479.366051
896.058068,1000,5484.951884
926.038465,1000,5499.842652
872.319209,1000,5505.417058
934.287588,1000,5520.03624
833.764778,1000,5525.134177
952.435362,1000,5539.057286
896.86906,1000,5544.602357
95.619257,131,5545.309733
897.417628,1000,5559.141911
954.406409,1000,5564.67922
916.121005,1000,5578.746469
915.718732,1000,5584.112385
920.470995,1000,5598.275183
906.185463,1000,5603.383227
962.260622,1000,5617.808655
603.719238,694,5621.631199
183.387536,659,5624.95457
933.861455,1000,5639.899829
586.178388,686,5643.938951
884.079333,1000,5658.791334
910.532765,1000,5664.688854
676.066311,720,5668.646433
894.822869,1000,5683.766581
945.587875,1000,5689.395751
919.734739,1000,5704.516003
930.880255,1000,5710.118019
862.883152,1000,5725.454248
915.681807,1000,5730.905774
950.137228,1000,5746.502481
890.994919,1000,5752.139895
896.87977,1000,5768.144351
902.598122,1000,5773.936667
681.55386,767,5788.548386
540.636659,621,5792.510299
933.493709,1000,5808.469444
561.61292,633,5812.461814
882.874324,1000,5818.833214
72.200276,113,5819.518544
895.94703,1000,5835.795192
896.935706,1000,5842.13325
926.339879,1000,5858.228389
960.929883,1000,5864.513848
690.711957,788,5879.592355
537.050326,582,5882.964394
900.303242,1000,5889.335402
852.434118,1000,5906.79596
896.704606,1000,5913.199022
929.487016,1000,5928.918533
640.185292,728,5933.345709
925.275539,1000,5949.442908
933.633116,1000,5955.224334
897.93382,1000,5971.04626
929.109928,1000,5976.779798
929.461314,1000,5992.573155
939.274814,1000,5998.228518
949.278232,1000,6013.929888
955.326029,1000,6019.730951
940.711837,1000,6034.959719
91.528531,136,6035.744181
1012.297961,1000,6041.662333
935.592787,1000,6056.986315
928.502841,1000,6062.883675
932.09839,1000,6078.451634
960.471701,1000,6084.060612
925.906965,1000,6099.547034
942.581455,1000,6104.747566
949.435117,1000,6120.062442
887.491415,1000,6125.090209
878.783874,1000,6139.960362
950.387851,1000,6145.13814
983.023769,1000,6159.56119
991.502712,1000,6165.016669
908.264622,973,6179.307495
977.838518,1000,6184.807771
39.310594,64,6185.162899
910.186249,1000,6199.421453
960.625387,1000,6204.601015
906.711736,1000,6218.648647
972.132524,1000,6223.891384
901.15607,1000,6237.713024
907.215772,1000,6243.61323
121.530029,184,6244.557725
895.85868,1000,6258.686876
973.632062,1000,6264.464906
928.898837,1000,6278.953789
970.163971,1000,6284.434187
965.325978,1000,6299.123122
923.89568,1000,6304.421542
881.599714,1000,6318.946269
977.324623,1000,6324.277444
949.279933,1000,6338.631474
945.52501,1000,6344.509238
65.111719,102,6345.071637
846.18539,932,6359.330749
976.872276,1000,6365.075727
929.159548,1000,6370.712296
907.596611,1000,6386.159962
952.254268,1000,6392.087014
235.145863,265,6403.474091
905.541415,1000,6409.032447
989.533136,1000,6425.010252
966.462218,1000,6430.486658
914.933534,1000,6446.264751
255.525257,335,6448.051426
917.0512,1000,6453.611364
971.517884,1000,6469.393209
963.302402,1000,6475.126154
910.071606,1000,6491.138998
898.105071,1000,6497.207428
356.922142,399,6499.411829
228.681547,288,6501.003084
916.113558,1000,6517.718928
928.529233,1000,6523.429925
703.919437,814,6538.889607
940.026457,1000,6545.168237
1037.802991,1000,6561.178008
985.942932,1000,6567.469758
976.732823,1000,6583.450645
967.764028,1000,6589.818293
888.380682,1000,6605.77638
971.651531,1000,6611.78722
592.867844,668,6625.936707
973.119804,1000,6631.761686
829.120481,943,6647.478218
925.577761,1000,6653.339109
225.934009,266,6654.877058
1002.869229,1000,6670.499509
981.141091,1000,6676.377985
1009.227121,1000,6692.008659
978.789783,1000,6697.934513
376.545924,405,6700.15563
65.576886,80,6700.59962
188.788382,194,6701.68259
999.320477,1000,6717.458806
932.866257,1000,6723.163804
958.607903,1000,6738.452091
934.171599,1000,6744.597787
952.219455,1000,6759.739409
943.414924,1000,6766.019161
68.804713,85,6766.590852
975.597811,1000,6781.665134
876.610961,1000,6787.739745
952.010812,1000,6802.72983
976.402496,1000,6808.25714
888.627745,1000,6823.381885
943.892755,1000,6828.893811
928.501551,1000,6843.716274
995.563049,1000,6849.203714
914.783628,1000,6863.814461
954.193312,1000,6869.459564
909.841145,1000,6884.02143
1028.090664,1000,6889.616419
48.182472,74,6890.065893
970.269604,1000,6904.421371
1025.742431,1000,6909.638109
981.146336,1000,6923.92618
941.273342,1000,6928.996693
780.468765,835,6942.196248
914.163115,1000,6947.746644
975.082472,1000,6961.597887
958.322815,1000,6967.758947
910.169558,1000,6982.482352
873.364992,1000,6987.8227
917.301158,1000,7002.251692
860.745178,1000,7008.398746
769.722826,874,7022.394181
889.246526,1000,7027.566105
889.162324,1000,7041.675255
846.995569,1000,7047.37792
886.003077,1000,7052.541632
908.491009,1000,7067.408352
937.010996,1000,7072.992712
886.617573,1000,7088.047132
68.919347,82,7088.532719
938.869488,1000,7094.182966
98.25657,126,7104.464564
950.793042,1000,7109.923431
908.146785,1000,7125.418285
939.327197,1000,7130.929405
173.293463,260,7132.318173
894.403926,1000,7147.63588
917.011381,1000,7153.311499
934.32448,1000,7168.428622
943.078839,1000,7174.365387
960.079955,1000,7189.532676
918.171605,1000,7195.773052
881.159702,1000,7210.792745
931.105348,1000,7216.787296
792.98458,928,7222.551127
909.92008,1000,7237.724626
282.303649,330,7239.741305
988.136397,1000,7255.582795
900.307004,1000,7260.865158
858.893339,981,7276.753877
959.911616,1000,7281.94817
949.370479,1000,7297.615675
138.080499,181,7298.633388
544.619622,628,7301.896764
100.698498,131,7302.600185
955.536077,1000,7318.184533
980.239823,1000,7323.856904
970.593354,1000,7329.348322
922.71919,1000,7345.077853
440.723018,500,7348.099145
947.342087,1000,7363.449796
66.874878,79,7363.886724
490.627191,542,7367.156472
1004.274659,1000,7382.772897
969.770302,1000,7388.225675
915.6267,1000,7393.99804
595.348831,661,7406.935404
929.298035,1000,7412.22949
960.339795,1000,7427.083363
192.963333,229,7428.218059
916.766724,1000,7433.443791
1000.77148,1000,7448.244484
77.200054,90,7448.721623
770.287692,791,7452.887934
988.09674,1000,7467.580594
953.062793,1000,7473.326048
954.157308,1000,7487.576894
950.64137,1000,7493.328825
328.229922,350,7495.38861
956.242115,1000,7509.62738
134.673923,181,7510.556103
71.883354,92,7511.047524
904.243836,1000,7525.645735
943.14165,1000,7530.726272
802.07259,1000,7544.630985
963.897813,1000,7550.157198
877.270671,1000,7555.311939
55.951482,65,7564.262332
875.039411,1000,7569.881424
961.376284,1000,7575.392184
957.276134,1000,7589.513925
944.842333,1000,7594.879445
897.330446,1000,7609.12804
948.739637,1000,7614.30358
888.998281,1000,7629.028251
889.144267,1000,7634.172648
870.85256,1000,7649.699117
927.256392,1000,7654.932848
962.893278,1000,7670.625175
255.861407,557,7673.995591
905.0483,1000,7689.271095
960.917441,1000,7695.543453
906.491389,1000,7710.936471
882.44382,1000,7716.96057
394.380936,449,7719.68683
571.999974,736,7733.291853
949.072204,1000,7738.893255
147.361593,210,7740.202905
292.130909,350,7742.397137
910.017262,1000,7757.513826
912.993814,1000,7763.240937
904.857369,1000,7778.652046
975.136079,1000,7784.396119
905.857144,1000,7800.194868
946.696729,1000,7806.196557
952.652339,1000,7822.037775
900.231001,1000,7828.031567
143.933,209,7829.271208
929.496177,1000,7845.568897
962.877277,1000,7851.743241
888.574765,1000,7867.846323
859.594151,1000,7874.498513
939.790022,1000,7890.63736
923.55519,1000,7897.049886
1021.373532,1000,7912.921833
480.564624,589,7916.58992
950.424412,1000,7932.956752
819.25946,1000,7938.725716
952.118322,1000,7955.350699
958.210517,1000,7960.987324
930.099867,1000,7977.35098
971.501706,1000,7982.928496
920.43986,1000,7999.069677
978.052425,1000,8004.648589
845.135128,1000,8020.422322
929.713356,1000,8026.355941
974.059264,1000,8042.072044
896.583562,1000,8048.152514
942.596737,1000,8063.833671
375.39664,504,8067.179356
877.701593,1000,8073.23528
104.207329,131,8074.031341
908.646735,1000,8089.377469
65.846669,91,8089.907898
944.197359,1000,8095.81456
884.957815,1000,8111.888302
888.184492,1000,8117.718945
1016.916551,1000,8133.300693
714.019907,973,8138.41257
924.307798,1000,8154.175662
903.7681,1000,8159.51777
920.954127,1000,8175.152918
939.959677,1000,8180.616009
932.598733,1000,8196.061057
1026.336896,1000,8201.86135
938.305013,1000,8217.256665
946.351834,1000,8223.261231
864.786419,1000,8238.738925
954.368186,1000,8244.623097
952.692756,1000,8260.279637
868.122834,1000,8266.167625
189.667692,310,8268.077102
932.601366,1000,8283.222954
972.463506,1000,8288.606346
160.688066,185,8289.641491
916.218756,1000,8304.65312
675.739149,711,8308.374114
981.170039,1000,8323.264104
89.944126,122,8323.957218
952.068876,1000,8329.544689
985.393745,1000,8344.308474
907.590686,1000,8350.101844
934.67561,1000,8365.157511
891.461713,1000,8371.102402
140.528865,170,8372.177649
1017.000742,1000,8387.168405
874.063586,1000,8392.813629
986.456517,1000,8407.717514
880.452491,1000,8413.093484
929.056332,1000,8427.997576
961.287083,1000,8433.313188
940.13763,1000,8448.038327
961.538748,1000,8453.600297
943.662434,1000,8468.155324
906.482486,1000,8473.665364
875.085589,1000,8488.572883
929.782191,1000,8493.747034
916.423625,1000,8508.502026
944.854863,1000,8513.476936
856.773408,1000,8527.640832
894.53485,1000,8532.781299
644.020175,775,8536.676682
870.950675,1000,8551.22672
912.451219,1000,8556.464079
906.053067,1000,8571.044136
911.947729,1000,8576.533116
879.599702,1000,8591.085396
911.805672,1000,8596.926454
904.720629,1000,8611.624227
875.658144,1000,8617.162775
951.779114,1000,8632.055926
892.55214,1000,8637.627865
972.796756,1000,8652.666179
917.5929,1000,8658.277074
893.509161,1000,8672.908999
932.678755,1000,8678.823418
951.866568,1000,8693.359307
922.740828,1000,8699.016244
920.744541,1000,8713.741881
967.286368,1000,8719.137862
957.809233,1000,8734.065194
913.152199,1000,8739.296147
931.273887,1000,8754.108443
959.904746,1000,8759.472914
927.866852,1000,8774.461096
991.255919,1000,8780.223058
985.402479,1000,8795.120094
706.923529,735,8799.483943
979.629551,1000,8815.015117
225.746162,331,8816.761059
923.929916,1000,8822.695529
255.833448,320,8824.652441
948.833591,1000,8840.308481
898.039416,1000,8846.012537
259.148834,322,8847.974012
91.225425,113,8858.665689
1054.685985,1000,8864.147339
970.998594,1000,8869.753073
921.19825,1000,8885.486581
946.400159,1000,8891.126466
646.570898,751,8905.751095
948.635984,1000,8911.520162
967.70242,1000,8927.464289
977.91221,1000,8933.447818
967.868971,1000,8949.44728
937.014072,1000,8955.869919
936.398966,1000,8971.825356
950.550617,1000,8978.305169
916.137479,1000,8994.102594
974.951022,1000,9000.609646
927.632702,1000,9016.078197
863.670922,1000,9021.934912
983.201431,1000,9037.199627
940.786184,1000,9042.555794
965.652549,1000,9057.743634
1010.893071,1000,9062.840223
1022.994723,1000,9077.749823
963.433896,1000,9083.191464
952.987065,1000,9097.861202
1021.684574,1000,9103.268302
1009.843435,1000,9117.998238
1000.556412,1000,9123.281329
938.841619,1000,9138.065439
571.73459,660,9141.421898
875.6236,922,9146.379569
1014.989258,1000,9161.10872
990.439794,1000,9166.188243
476.959121,557,9177.714617
366.481102,503,9180.745224
1046.915715,1000,9185.971413
68.466726,99,9186.425796
347.174602,383,9196.917134
971.355097,1000,9203.843894
300.431342,295,9205.510788
605.020803,624,9208.891304
1032.237032,1000,9223.015893
954.933165,1000,9228.613511
969.630347,1000,9242.609192
1020.172099,1000,9247.990998
1008.387326,1000,9262.276753
585.764827,643,9265.578874
688.059717,744,9278.785158
486.390463,526,9281.87984
929.047689,1000,9287.037998
290.754368,328,9297.913177
90.422551,119,9298.653672
493.117076,549,9301.944309
179.416119,209,9303.103788
347.070191,403,9305.411751
100.786705,194,9306.519048
757.987907,758,9319.793996
223.387255,316,9321.558571
1068.101465,1000,9327.223841
1005.972659,1000,9341.947128
693.573312,701,9345.564902
924.34309,1000,9360.942484
1001.357788,1000,9366.165589
991.210208,1000,9381.334047
996.629618,1000,9386.91179
873.571573,985,9401.992343
948.471643,1000,9408.060181
951.522736,1000,9413.468681
899.19683,1000,9429.865489
885.187973,925,9435.350825
973.826973,1000,9451.753869
890.102659,1000,9458.009221
993.962935,1000,9474.246963
1045.083009,1000,9480.633065
923.711696,1000,9496.589233
250.726175,383,9498.983322
988.120541,1000,9515.412603
907.255994,1000,9522.555805
972.593783,1000,9540.234528
1002.553073,1000,9547.320442
994.372753,1000,9565.012953
777.861749,1000,9572.302988
980.658299,1000,9579.49834
849.391889,846,9595.881559
952.876141,1000,9603.28747
257.048146,313,9615.880688
942.331938,1000,9622.887867
931.363369,1000,9640.551073
985.802885,1000,9646.450094
973.665432,1000,9651.941064
979.778882,1000,9668.242852
915.674546,1000,9673.751664
971.123411,1000,9690.24666
940.131195,1000,9695.843001
960.766756,1000,9712.112774
228.719733,393,9714.685326
981.27078,1000,9730.323495
912.546339,951,9736.52019
1001.923375,1000,9752.43325
982.185685,1000,9759.631595
998.530011,1000,9776.53359
413.431821,461,9779.726598
918.27524,1000,9786.723202
964.565737,1000,9803.834581
960.412457,1000,9811.112288
951.055067,1000,9828.346841
959.743503,1000,9835.913099
963.663187,1000,9853.436257
978.836013,1000,9861.114551
988.379727,1000,9878.175335
172.279095,308,9880.073564
962.35591,1000,9885.836618
1011.588579,1000,9902.042702
936.961612,1000,9908.046083
880.186119,1000,9924.273592
864.605361,1000,9930.108136
917.384408,1000,9946.150904
954.965177,1000,9952.190138
960.844953,1000,9968.227647
954.13649,1000,9974.469177
579.628729,713,9989.198152
988.251807,1000,9996.5646
952.800142,1000,10013.965134
456.09185,705,10017.916469
816.279623,1000,10024.417942
81.794214,133,10025.292374
219.691813,255,10037.16639
1014.68823,1000,10042.800257
950.286008,1000,10059.291344
1059.157439,1000,10064.89603
1037.178755,1000,10081.246404
1000.62432,1000,10086.776018
1003.0989,1000,10092.431127
1021.944478,1000,10109.696608
1066.722755,1000,10116.758023
984.680005,1000,10132.945028
1067.790099,1000,10138.579905
960.673141,1000,10155.396136
977.404983,1000,10162.618105
996.516431,1000,10178.32936
973.102003,1000,10183.922062
952.389219,1000,10199.925453
968.318115,1000,10205.410233
921.356786,1000,10221.561106
932.91002,1000,10228.8304
1020.553124,1000,10244.483159
925.744983,1000,10250.682305
958.024538,1000,10265.899638
971.770313,1000,10272.020561
1021.163689,1000,10288.437268
979.978441,1000,10295.399947
897.01833,1000,10310.76136
938.4358,1000,10316.14505
437.324129,565,10328.863704
958.961857,1000,10336.858642
972.143087,1000,10353.400335
914.338017,1000,10359.035353
862.16651,1000,10365.205968
850.416349,1000,10380.787277
931.364776,1000,10388.594128
676.337809,1000,10404.037763
855.367064,1000,10410.551874
942.458636,1000,10425.244991
978.737722,1000,10431.99523
1040.521644,1000,10447.083717
825.421676,1000,10454.18192
773.127582,1000,10468.43767
1021.586446,1000,10474.140536
953.165385,1000,10488.168255
720.457747,1000,10493.251193
916.754508,1000,10507.640839
768.706085,1000,10512.707758
991.691425,1000,10527.361929
792.807276,1000,10533.116049
1036.870014,1000,10547.580363
964.232608,1000,10553.595147
961.486762,1000,10568.276349
1039.728008,1000,10574.027514
926.868683,1000,10589.010699
1000.158615,1000,10594.539653
963.093157,1000,10609.654127
928.712041,1000,10615.069119
970.344487,1000,10630.187954
962.683033,1000,10635.925503
929.69649,1000,10650.964741
950.794537,1000,10656.811917
1005.420695,1000,10671.902609
960.926088,1000,10677.690161
872.709153,1000,10692.709131
929.532066,1000,10697.958796
966.351127,1000,10713.012143
903.871139,1000,10718.194317
90.544038,122,10718.85203
970.058293,1000,10733.644862
991.358926,1000,10739.191239
993.315472,1000,10753.941619
932.302462,1000,10759.950216
983.994694,1000,10774.884614
961.573061,1000,10780.962492
981.351501,1000,10796.374398
907.300287,1000,10802.112274
912.215544,1000,10817.934203
857.485636,1000,10823.374685
1035.726117,1000,10839.261924
1007.641357,1000,10844.698807
1009.369232,1000,10850.757967
965.416532,1000,10867.12765
992.267199,1000,10874.132676
966.179022,1000,10889.325886
936.635185,1000,10895.481235
909.604111,1000,10911.557581
1088.43585,1000,10918.805925
1025.086551,1000,10933.640738
963.636266,1000,10939.135669
981.489579,1000,10953.843945
938.027618,1000,10959.573464
994.095516,1000,10975.292456
942.032239,1000,10982.563321
925.367459,1000,10997.428046
973.548749,1000,11003.645636
991.310734,1000,11018.247317
866.531735,1000,11024.021903
997.90141,1000,11038.42318
904.263252,1000,11043.568868
377.6427,417,11045.945699
968.906504,1000,11060.111067
1016.648948,1000,11065.34972
971.522033,1000,11079.473431
993.945966,1000,11084.994502
1008.354228,1000,11099.241762
782.255731,1000,11104.741902
1005.994255,1000,11119.162115
1024.434812,1000,11124.665263
1002.45175,1000,11139.577138
985.9785,1000,11146.21003
968.416005,1000,11161.833745
922.083808,1000,11168.397847
946.638829,1000,11183.678056
762.128359,1000,11190.030353
998.595537,1000,11205.202474
905.822488,1000,11212.34233
816.019071,1000,11227.397616
964.529727,1000,11232.792943
957.64139,1000,11248.547415
1014.06993,1000,11255.417887
996.029095,1000,11270.948483
1033.970477,1000,11276.667135
932.240286,1000,11292.022371
995.572655,1000,11298.204161
998.540764,1000,11313.406536
912.512938,1000,11319.923626
869.056512,1000,11336.546431
941.739426,1000,11343.486361
1008.124974,1000,11359.282068
953.895607,1000,11364.800514
1008.798091,1000,11380.615487
1008.088568,1000,11386.330537
967.241118,1000,11402.282521
863.715829,1000,11408.320004
981.8953,1000,11424.275962
999.49417,1000,11430.32275
993.046587,1000,11446.141198
914.029154,1000,11452.106416
916.929688,1000,11468.407397
971.629101,1000,11474.476738
1020.211032,1000,11491.149576
855.582903,876,11495.823807
987.770542,1000,11501.752764
933.995154,1000,11517.199712
903.446401,1000,11523.020953
986.670148,1000,11538.848153
921.613057,1000,11544.81195
976.605346,1000,11561.443474
960.639937,1000,11568.628469
985.46421,1000,11583.819468
927.978672,1000,11589.724711
934.967311,1000,11604.576097
913.787583,1000,11610.450416
252.75713,373,11612.709789
880.042873,1000,11627.195562
987.053483,1000,11632.924045
1002.038003,1000,11647.358051
942.252105,1000,11652.916683
940.140778,1000,11667.417692
977.824289,1000,11673.073107
880.13736,1000,11687.094133
963.710952,1000,11693.361945
885.452798,1000,11707.218951
993.122607,1000,11713.209179
997.131088,1000,11728.305828
1008.324525,1000,11735.059109
917.343668,1000,11750.282205
1086.245723,1000,11755.78306
980.178306,1000,11771.352446
734.169869,802,11777.41171
1011.405398,1000,11793.256899
120.002098,201,11794.698073
965.08028,1000,11801.720088
1015.7599,1000,11817.938857
949.41222,1000,11824.842273
1033.674569,1000,11840.842932
888.729503,1000,11848.17935
921.967922,1000,11864.334252
967.412489,1000,11871.696938
978.887426,1000,11887.914678
990.675086,1000,11893.738492
1024.523592,1000,11909.239802
1014.004149,1000,11914.873426
997.913798,1000,11930.462823
924.337262,963,11936.198362
976.602111,1000,11951.998196
86.185924,125,11952.697303
928.662827,1000,11959.158616
113.584768,166,11960.19714
914.027138,1000,11975.816265
988.483138,1000,11982.122527
904.710885,1000,11997.895611
946.471908,1000,12004.391761
910.811892,1000,12021.390582
875.625202,1000,12028.277023
980.266176,1000,12045.530113
945.928884,1000,12052.372418
850.894781,962,12068.558062
929.399313,1000,12075.970955
965.068622,1000,12092.471004
870.336232,1000,12099.686389
991.393432,1000,12116.325298
929.979845,1000,12123.356735
959.142557,1000,12139.908604
900.739206,1000,12145.561636
880.137355,1000,12160.760269
919.050497,1000,12166.769792
958.481044,1000,12172.169036
965.689024,1000,12187.692513
949.899355,1000,12193.481498
968.741763,1000,12208.516226
875.830452,1000,12214.42864
909.591885,1000,12229.170993
915.266342,1000,12234.837252
815.277446,1000,12249.658671
948.531787,1000,12254.901443
894.62869,1000,12269.844889
916.993948,1000,12275.174711
962.845649,1000,12290.371701
793.349312,1000,12296.207717
950.146983,1000,12311.570479
128.624462,150,12312.445572
828.896049,1000,12318.598077
708.755351,879,12333.587036
918.356043,1000,12340.75086
922.257055,1000,12357.007074
920.065086,1000,12363.884363
940.232935,1000,12379.674133
1004.802852,1000,12386.836579
932.275077,1000,12402.483207
900.313831,1000,12409.890013
1074.270207,1000,12425.550197
824.615721,1000,12432.54711
919.18594,1000,12448.084258
922.740077,1000,12454.034096
1024.728326,1000,12468.893511
992.042125,1000,12474.878895
887.924843,1000,12489.362895
971.061399,1000,12494.969064
624.336393,658,12499.106514
63.598255,99,12508.346058
698.08297,799,12512.466696
933.793352,1000,12518.075988
897.448386,1000,12531.931157
951.300963,1000,12537.009822
149.820443,215,12538.103156
972.696453,1000,12552.738467
348.653169,381,12554.723625
942.86028,1000,12568.831515
945.459908,1000,12574.907111
385.846487,412,12577.187338
948.062513,1000,12591.871256
779.620052,1000,12597.754005
103.711955,134,12598.495516
70.895018,94,12599.018836
847.733342,1000,12613.719834
972.016497,1000,12619.240309
956.574678,1000,12633.974045
954.926367,1000,12639.391973
964.376413,1000,12654.91048
974.38359,1000,12660.550587
943.007337,1000,12675.767524
1029.91431,1000,12681.691342
896.820658,1000,12697.008616
941.525584,1000,12703.224739
954.896826,1000,12719.137768
950.197847,1000,12725.36236
976.187735,1000,12740.87405
931.217742,1000,12746.861508
942.345186,1000,12760.691553
973.154379,1000,12765.119746
1024.763017,1000,12777.679087
934.875993,1000,12782.266291
80.645609,125,12782.789701
953.482444,1000,12795.274246
904.449686,1000,12800.4931
919.362621,1000,12812.922703
923.101807,1000,12817.763695
936.889098,1000,12830.439276
881.363462,1000,12834.959004
971.346678,1000,12847.731867
871.572205,1000,12852.501583
1003.250157,1000,12865.099584
985.525638,1000,12870.005272
937.756142,1000,12882.624804
919.64442,1000,12887.291914
937.578472,1000,12900.075441
997.595462,1000,12904.766938
946.049258,1000,12917.209334
869.506203,1000,12922.180032
