# {"t_start": 1548054030.8403146, "env_id": "RoboschoolAnt-v1"} 
r,l,t15.59184,1000,14.780067
-10.323241,1000,27.782755
-10.812079,1000,54.236556
65.258311,1000,67.138741
-90.986972,1000,93.103112
-66.868034,1000,106.076972
120.876713,1000,132.594955
40.459018,1000,145.384541
16.68792,510,165.283758
128.452097,1000,178.586574
36.35046,1000,205.124077
78.630012,1000,218.221822
92.30952,1000,243.976625
119.994392,1000,256.937338
215.707285,1000,283.63903
126.348486,1000,296.668155
149.518319,1000,322.398862
135.409443,1000,335.781749
212.257772,1000,362.383401
172.581238,1000,375.949424
179.422263,1000,403.71381
142.204056,1000,416.880698
222.23719,1000,430.397751
305.219364,1000,457.01908
159.625463,1000,470.456954
302.836365,1000,496.638296
228.63482,1000,512.429505
201.623819,1000,541.004276
271.189139,1000,554.961241
201.227692,1000,582.67863
268.255161,1000,597.253578
232.055825,1000,624.466471
279.148152,1000,639.236661
193.584817,1000,665.996542
428.323599,1000,680.218075
204.006255,1000,708.411886
308.929446,1000,722.266672
364.289405,1000,749.944636
319.373117,1000,764.95341
254.791534,1000,793.409176
227.361202,1000,807.903898
317.668541,1000,835.111946
398.118656,1000,850.156749
332.115648,1000,877.833859
385.615375,1000,891.613867
381.933737,1000,919.611803
436.40556,1000,933.685297
420.736494,1000,960.693833
375.686273,1000,974.695588
330.975006,1000,1002.710514
259.811805,1000,1017.283528
384.934583,1000,1045.418115
360.869749,1000,1059.248328
448.927364,1000,1086.249554
444.279632,1000,1100.955155
296.537906,1000,1129.060272
389.577605,1000,1144.221298
386.004046,1000,1170.766918
417.323248,1000,1186.235554
363.47686,1000,1216.284591
451.488461,1000,1230.338058
448.118093,1000,1260.029362
440.737235,1000,1275.041465
428.374254,1000,1302.467119
389.713323,1000,1316.849948
392.298915,1000,1331.487696
497.147552,1000,1358.975232
557.552224,1000,1373.226303
509.665136,1000,1400.59285
479.813011,1000,1414.546345
453.565427,1000,1442.313004
428.273074,1000,1456.762555
452.291094,1000,1484.592798
464.402673,1000,1499.475477
411.970754,1000,1527.384335
500.266336,1000,1541.296039
480.159392,1000,1568.378882
438.780353,1000,1581.308126
504.067031,1000,1609.180667
494.471304,1000,1623.389654
537.367408,1000,1650.496159
495.564135,1000,1664.136048
508.186768,1000,1691.506662
508.981127,1000,1704.796824
512.625947,1000,1734.841825
537.555333,1000,1749.503257
379.519467,1000,1775.108303
503.116853,1000,1789.394945
560.282808,1000,1817.987481
475.343051,1000,1832.134653
569.167869,1000,1860.595392
624.842121,1000,1875.011732
561.749088,1000,1903.85437
559.581831,1000,1919.749113
583.708006,1000,1947.912897
563.801957,1000,1962.945664
516.418922,1000,1990.569465
466.589524,1000,2005.31195
570.049882,1000,2032.854957
485.56864,1000,2047.12576
338.454724,1000,2074.266253
657.653559,1000,2087.959997
612.739989,1000,2115.155626
611.316889,1000,2129.776467
513.297859,1000,2156.600862
584.44575,1000,2170.270438
563.942561,1000,2197.520009
619.78334,1000,2212.266123
570.453295,1000,2226.527654
593.538596,1000,2254.215524
614.506359,1000,2268.637797
547.629469,1000,2296.647925
683.668357,1000,2311.715743
565.97478,1000,2339.105176
583.639031,1000,2353.805382
581.904258,1000,2379.553118
627.578416,1000,2393.493688
597.439902,1000,2421.207949
586.267659,1000,2435.489327
667.599489,1000,2462.718919
607.733599,1000,2477.149134
683.918035,1000,2504.163602
670.003033,1000,2518.201347
652.084985,1000,2546.383225
552.511672,1000,2560.386963
730.159279,1000,2587.589527
415.179912,1000,2602.988684
617.694656,1000,2629.52685
632.314838,1000,2644.326993
618.027782,1000,2671.567931
613.075049,1000,2686.183497
545.043664,1000,2713.263591
637.60525,1000,2727.136057
659.561539,1000,2754.524303
539.796336,1000,2769.505116
617.138021,1000,2798.562736
629.493006,1000,2812.445339
603.761184,1000,2840.375298
321.56134,1000,2855.016801
664.811874,1000,2880.462658
630.558257,1000,2894.941216
654.327553,1000,2922.826152
690.037358,1000,2937.23085
662.708765,1000,2964.994658
667.789292,1000,2979.281279
639.838927,1000,3005.984173
655.762691,1000,3020.88469
625.754974,1000,3048.579894
639.031456,1000,3062.369277
666.057041,1000,3089.170757
727.481,1000,3103.683386
680.921694,1000,3118.623751
638.023806,1000,3145.954664
680.752675,1000,3160.963731
699.241494,1000,3189.307307
657.568008,1000,3203.664605
682.811114,1000,3231.841794
681.736204,1000,3246.246572
667.147247,1000,3274.103463
648.183251,1000,3289.089755
741.954951,1000,3317.85998
681.099997,1000,3332.139561
637.923376,1000,3360.110555
658.677262,1000,3373.438164
669.658328,1000,3401.423862
657.406293,1000,3415.459428
623.817654,1000,3443.002973
709.095845,1000,3456.990365
674.261778,1000,3484.575641
676.039353,1000,3498.998398
631.188481,1000,3525.806011
648.72687,1000,3539.988298
698.351409,1000,3568.44144
708.597727,1000,3583.041601
713.157622,1000,3611.029352
678.969144,1000,3625.278569
674.277744,1000,3654.764476
721.368589,1000,3668.507059
638.837137,1000,3696.039737
677.710184,1000,3711.181511
678.071157,1000,3738.568425
664.417335,1000,3752.981413
639.106353,1000,3779.443379
693.910047,1000,3793.118562
700.043232,1000,3820.105976
590.895872,1000,3834.011581
716.471351,1000,3861.812506
435.33521,1000,3875.620789
715.452634,1000,3903.745174
632.079352,1000,3918.036684
231.312477,1000,3945.558429
726.674357,1000,3959.158052
337.885916,1000,3973.598416
573.899067,1000,4001.419663
633.21753,1000,4015.690972
710.53501,1000,4043.528904
730.23194,1000,4058.133107
742.874914,1000,4085.216266
687.248673,1000,4099.675327
650.092877,1000,4127.086876
671.394027,1000,4141.578238
572.99555,1000,4169.653166
649.083554,1000,4184.046813
549.140915,1000,4212.406641
717.501718,1000,4226.138746
495.286179,1000,4253.685158
619.666789,1000,4267.709828
761.890517,1000,4295.74225
714.333557,1000,4309.832111
698.338329,1000,4337.484198
669.869462,1000,4351.890289
620.735218,1000,4379.449533
781.788683,1000,4394.129125
778.105161,1000,4421.944909
660.281498,1000,4435.408034
701.857541,1000,4461.794935
680.894242,1000,4476.61055
571.783994,1000,4505.558458
655.437876,1000,4520.534245
446.396105,1000,4548.211257
699.975185,1000,4562.499165
660.995847,1000,4590.261565
728.013763,1000,4604.506436
651.421781,1000,4632.394338
680.186437,1000,4647.493974
652.667078,1000,4674.535892
731.501953,1000,4689.884628
750.782408,1000,4718.009354
619.06857,1000,4732.455287
701.473412,1000,4759.507724
711.299813,1000,4773.832837
729.714154,1000,4801.376493
827.383009,1000,4816.053417
679.737836,1000,4843.776847
708.15231,1000,4857.681357
686.37012,1000,4872.088724
640.477462,1000,4898.473294
712.993373,1000,4912.337739
719.55426,1000,4940.20173
599.761321,1000,4954.423713
569.067931,1000,4981.920837
563.363954,1000,4997.282909
781.038692,1000,5025.501791
697.921728,1000,5040.086718
733.429809,1000,5067.284977
687.775629,1000,5082.013185
592.055119,1000,5107.667583
718.460171,1000,5121.277043
730.067096,1000,5149.892664
686.018301,1000,5163.815595
786.608888,1000,5190.981917
770.795892,1000,5205.244764
747.269919,1000,5232.537563
737.536006,1000,5245.918218
682.358332,1000,5274.086378
676.620404,1000,5288.693353
836.746217,1000,5316.248702
689.633631,1000,5330.578561
764.714927,1000,5357.411997
382.126018,1000,5371.480135
675.005687,1000,5399.203116
718.217441,1000,5413.479023
704.077137,1000,5441.80462
700.366781,1000,5455.624355
635.890735,1000,5482.446118
748.327368,1000,5495.7407
545.771138,1000,5524.032955
665.592836,1000,5537.459447
732.958701,1000,5564.930323
747.492003,1000,5580.424521
775.692096,1000,5607.339131
890.570672,1000,5622.298853
613.484276,1000,5649.659862
780.621369,1000,5663.51013
687.563191,1000,5691.580862
640.096863,1000,5705.487043
822.276725,1000,5733.031363
791.651102,1000,5746.759427
449.969429,1000,5761.077624
861.204044,1000,5787.853659
827.783412,1000,5801.7402
780.697445,1000,5829.509724
540.870219,1000,5843.345951
760.429692,1000,5871.376706
749.08873,1000,5885.61213
652.468447,1000,5912.99199
768.068498,1000,5927.585115
777.369049,1000,5954.288862
748.870636,1000,5967.892878
805.782309,1000,5994.085499
728.061636,1000,6008.767629
829.006162,1000,6036.784343
268.911427,1000,6050.901907
625.39187,1000,6078.422227
584.49082,1000,6092.567132
312.207839,1000,6118.848911
572.353051,1000,6132.892847
861.423912,1000,6160.60889
689.632609,1000,6175.553397
802.551378,1000,6201.983029
697.877146,1000,6216.337698
767.389357,1000,6243.799628
794.060592,1000,6258.290298
801.160715,1000,6287.384109
811.789087,1000,6302.328827
811.741727,1000,6329.234033
572.140891,1000,6344.161412
749.710079,1000,6372.894095
796.772164,1000,6387.094244
773.322621,1000,6414.680854
629.442795,1000,6428.49592
825.806975,1000,6455.684802
570.10374,1000,6469.367198
457.730479,1000,6497.969436
940.871212,1000,6512.234456
794.689792,1000,6540.843317
609.855701,1000,6554.217902
893.169331,1000,6581.458424
735.262157,1000,6594.622269
724.788404,1000,6622.800196
703.390965,1000,6637.571658
738.220628,1000,6651.858821
696.733621,1000,6679.966192
851.634588,1000,6694.342949
773.731361,1000,6721.802735
666.6555,1000,6735.781396
691.030129,1000,6763.140038
747.310727,1000,6777.095486
803.998771,1000,6805.965483
743.292706,1000,6819.589931
757.29444,1000,6846.939807
746.758351,1000,6861.01685
857.826012,1000,6888.55967
709.725178,1000,6901.661814
816.645827,1000,6928.169774
723.089941,1000,6942.752709
856.461965,1000,6970.391667
846.615839,1000,6984.687702
629.644693,1000,7012.531029
749.903087,1000,7026.754582
854.17062,1000,7052.732147
800.994697,1000,7067.691602
712.077239,1000,7093.921199
818.988673,1000,7107.934946
552.986182,1000,7135.045601
539.825331,1000,7148.928959
605.834355,1000,7176.692566
912.856077,1000,7190.87131
706.181559,1000,7218.095124
719.54396,1000,7231.95571
830.486994,1000,7259.228737
928.63982,1000,7274.025075
838.266817,1000,7300.69601
780.623966,1000,7314.19418
655.398305,1000,7342.059196
850.704667,1000,7355.728925
781.517277,1000,7383.460499
676.376866,1000,7397.621011
843.807175,1000,7424.760434
709.837707,1000,7439.590227
580.471738,1000,7466.586627
855.682168,1000,7481.229869
835.063881,1000,7509.943486
827.793876,1000,7523.345947
726.163606,1000,7537.877213
560.860837,1000,7563.758935
754.89272,1000,7578.303478
800.558658,1000,7606.705738
896.195203,1000,7620.812598
671.144903,1000,7648.880313
819.232966,1000,7662.675403
770.286062,1000,7689.660099
579.308708,1000,7703.294069
752.148967,1000,7730.602588
707.547658,1000,7744.824812
755.788774,1000,7772.633394
740.036479,1000,7786.471669
595.758887,1000,7813.714993
771.644109,1000,7826.927915
554.416176,1000,7854.318746
628.893952,1000,7867.679655
757.331648,1000,7895.219122
929.14532,1000,7909.616233
696.072408,1000,7937.834173
646.799712,1000,7951.881752
761.477026,1000,7978.713728
778.661135,1000,7992.960547
831.988777,1000,8019.021102
918.337966,1000,8033.8311
874.351057,1000,8061.630965
762.557307,1000,8076.245282
869.512149,1000,8103.029204
901.464059,1000,8117.599119
889.715207,1000,8144.646128
815.906975,1000,8158.012195
847.963977,1000,8184.775015
805.460117,1000,8198.77218
790.667308,1000,8226.411881
600.830039,1000,8240.40276
767.526416,1000,8268.807333
811.012429,1000,8282.064429
912.705447,1000,8309.036409
845.847237,1000,8322.935638
888.284338,1000,8350.214673
788.167219,1000,8364.602212
655.200479,1000,8392.347596
856.353351,1000,8406.612366
851.030598,1000,8421.981194
769.435167,1000,8448.848112
817.424421,1000,8462.886952
879.330705,1000,8491.588623
963.553567,1000,8505.841716
825.63787,1000,8532.708111
629.232993,1000,8546.762937
872.473987,1000,8575.494012
975.24944,1000,8590.031809
809.696673,1000,8617.562854
640.731933,1000,8631.238259
825.327239,1000,8659.343711
949.79844,1000,8673.542001
947.530475,1000,8701.521916
967.973517,1000,8715.235478
949.365331,1000,8742.244667
983.145105,1000,8756.071919
974.120724,1000,8783.29608
840.957976,1000,8797.195428
940.365964,1000,8824.033203
1014.542176,1000,8838.15278
872.17265,1000,8865.525543
870.298983,1000,8878.90407
776.120806,1000,8906.426093
746.288673,1000,8919.950582
973.596565,1000,8947.537462
826.324408,1000,8962.250362
884.393341,1000,8988.95732
1019.233842,1000,9003.352603
952.092326,1000,9031.157142
928.898782,1000,9045.629783
944.068698,1000,9072.899559
872.664372,1000,9087.086742
920.079934,1000,9114.466013
977.539119,1000,9128.54945
1004.23954,1000,9155.088921
994.099842,1000,9169.873602
984.810284,1000,9197.743458
901.579972,1000,9212.12303
1025.514613,1000,9240.10804
953.951588,1000,9253.775644
981.406898,1000,9268.465747
926.266421,1000,9295.120794
910.493835,1000,9309.143559
857.831309,1000,9336.965783
869.80244,1000,9351.338102
816.786734,1000,9378.16221
1072.297961,1000,9392.752402
911.828114,1000,9420.078264
1023.492338,1000,9434.707711
892.840093,1000,9462.074145
952.112816,1000,9477.433954
948.508067,1000,9504.584942
856.118161,1000,9518.690693
947.440005,1000,9547.127594
821.691934,1000,9561.837137
983.801111,1000,9589.025706
924.886095,1000,9604.27796
1066.565996,1000,9629.422085
852.243942,1000,9644.02312
934.092217,1000,9671.168431
973.753488,1000,9684.691007
898.33038,1000,9711.911225
1056.125533,1000,9726.346812
1001.216311,1000,9754.939521
890.277478,1000,9768.555581
965.375389,1000,9795.290736
841.186134,1000,9808.746352
1042.513127,1000,9835.863394
920.412581,1000,9850.344005
976.332789,1000,9877.164085
930.256045,1000,9892.578842
928.43651,1000,9918.515437
1006.250976,1000,9932.657959
908.850518,1000,9959.846006
974.307678,1000,9973.128651
961.930466,1000,10000.292887
1011.092158,1000,10014.166758
970.44539,1000,10040.978831
1045.50344,1000,10055.28602
921.518815,1000,10082.474517
969.503466,1000,10096.26844
1035.301953,1000,10123.289365
880.289418,1000,10136.922858
941.572339,1000,10150.646624
1097.013858,1000,10177.19541
970.471908,1000,10192.159185
1049.373352,1000,10219.50358
880.116002,1000,10232.745525
975.240717,1000,10260.623776
938.429731,1000,10275.26077
955.014679,1000,10303.11183
667.571926,1000,10317.503833
937.160562,1000,10344.868953
925.511143,1000,10358.54022
878.089081,1000,10385.605406
971.876178,1000,10399.868341
1132.179662,1000,10426.077675
698.723632,1000,10439.991684
928.155286,1000,10466.951969
978.063101,1000,10480.301597
949.518948,1000,10507.942051
746.92749,1000,10521.852943
1027.736321,1000,10548.416187
974.196022,1000,10562.695996
1039.223578,1000,10591.028703
844.999961,1000,10605.417711
934.426405,1000,10631.856839
975.051691,1000,10645.944941
1026.531219,1000,10673.432372
663.017412,1000,10686.458437
967.736435,1000,10713.811507
979.692065,1000,10727.851169
1029.222082,1000,10755.267328
1068.003787,1000,10769.399343
1078.922541,1000,10796.640226
1050.918462,1000,10811.153342
1114.738974,1000,10839.024183
1081.363415,1000,10854.159657
951.37982,1000,10880.936931
1045.869125,1000,10894.476504
1048.48417,1000,10922.756723
1175.5293,1000,10936.855756
1044.985979,1000,10964.2186
1050.957603,1000,10978.58181
871.760867,1000,11006.903665
868.014598,1000,11020.374431
697.867903,1000,11034.448534
1103.072239,1000,11061.612023
1045.365538,1000,11076.369163
1002.79466,1000,11103.073381
1035.215337,1000,11118.115758
1012.967575,1000,11146.975816
1038.215661,1000,11160.855177
1129.119134,1000,11187.927387
1121.323076,1000,11201.857999
1042.569293,1000,11230.084101
1084.089693,1000,11243.632988
1133.295952,1000,11270.939121
994.097371,1000,11285.468697
556.553203,1000,11312.791316
1051.388533,1000,11326.131518
978.88489,1000,11353.919772
966.055427,1000,11367.647593
1090.840172,1000,11394.479877
1101.129403,1000,11408.32278
1026.342559,1000,11436.016111
1123.990502,1000,11450.892287
757.890158,1000,11478.483558
998.576339,1000,11493.029042
663.806507,1000,11519.935383
930.763612,1000,11533.990248
1030.924634,1000,11561.253114
985.119699,1000,11575.179913
1053.50217,1000,11602.319291
970.197551,1000,11616.02151
1095.345732,1000,11643.69072
1078.325613,1000,11657.302949
969.052686,1000,11685.443659
1016.805309,1000,11699.497663
1034.962177,1000,11725.549556
1085.649966,1000,11739.612274
759.749298,1000,11766.95714
992.022231,1000,11780.800892
1039.121312,1000,11807.23244
1113.036603,1000,11821.179706
572.592286,1000,11846.783663
869.44447,1000,11860.907411
1144.310788,1000,11888.502076
639.48463,1000,11902.757987
1095.346985,1000,11917.646902
1078.340062,1000,11944.914716
1054.971241,1000,11958.365573
1178.503841,1000,11986.678983
997.815251,1000,12000.240176
562.110818,1000,12029.163969
1206.767963,1000,12043.408548
1078.67714,1000,12070.979593
1018.129144,1000,12085.777544
885.920353,1000,12113.684635
1167.72858,1000,12128.102124
877.53435,1000,12155.90912
1055.60817,1000,12170.700919
1097.836185,1000,12198.525699
1103.959786,1000,12212.064893
1024.508744,1000,12239.319698
1067.865399,1000,12254.282579
628.885826,1000,12281.675826
993.961124,1000,12295.520927
1116.000784,1000,12322.664629
1078.298891,1000,12336.313033
1026.237171,1000,12362.82955
967.153871,1000,12376.943934
904.510273,1000,12404.936313
804.315508,1000,12418.510454
710.806631,1000,12445.915171
1091.865083,1000,12459.829605
1078.382663,1000,12486.515945
1057.340017,1000,12500.40004
835.025215,1000,12528.086617
673.545345,1000,12541.829428
1085.237553,1000,12568.842441
779.582607,1000,12582.932337
1089.984316,1000,12610.882277
1108.752978,1000,12626.173637
833.939395,1000,12653.500356
1043.883668,1000,12667.151981
1163.336206,1000,12694.103284
1137.332364,1000,12707.78192
1128.901034,1000,12735.946059
961.154812,1000,12749.770199
1093.461325,1000,12777.318509
1103.336463,1000,12792.041324
1068.939492,1000,12805.787014
913.73917,1000,12833.899021
1016.32295,1000,12847.399118
965.818732,1000,12875.313027
813.721386,1000,12889.444126
1192.122237,1000,12916.623352
592.787721,1000,12930.765744
1132.963432,1000,12956.879485
987.007742,1000,12971.001831
657.780885,1000,12997.934741
864.699929,1000,13012.056423
979.417476,1000,13039.450089
1071.409284,1000,13053.189516
987.456464,1000,13079.659983
1002.894757,1000,13092.996881
1162.764162,1000,13120.976386
590.571028,1000,13135.42541
1133.555652,1000,13162.545062
1086.915295,1000,13177.13504
598.535662,1000,13204.271227
1102.220016,1000,13217.921745
930.848167,1000,13244.750861
1040.933174,1000,13258.76239
958.493464,1000,13286.645628
1136.88054,1000,13300.982143
1107.464365,1000,13327.710702
1002.931632,1000,13342.148929
1004.933389,1000,13369.882164
900.07996,1000,13383.767355
916.430859,1000,13410.477003
816.792775,1000,13424.1551
699.482951,1000,13451.760998
1024.772245,1000,13465.808293
958.96799,1000,13493.680812
1019.485693,1000,13507.305107
1103.404666,1000,13534.19834
1084.313367,1000,13547.811057
916.27268,1000,13575.082233
1035.365762,1000,13590.244133
994.680208,1000,13617.218889
1106.146822,1000,13631.514667
809.446143,1000,13656.87721
959.975019,1000,13670.961396
1121.243343,1000,13684.335925
1024.854603,1000,13709.874327
1136.160744,1000,13724.250689
1034.929128,1000,13751.119129
763.672994,1000,13765.438608
1123.678384,1000,13793.07027
1098.312922,1000,13807.199225
1086.784968,1000,13835.224002
1143.463126,1000,13849.25639
1180.469558,1000,13876.756616
586.565001,1000,13890.4705
708.237307,1000,13918.117627
959.009526,1000,13932.672249
877.864056,1000,13959.06074
648.890788,1000,13973.515711
1138.648636,1000,14000.485857
949.570286,1000,14013.860386
1060.728716,1000,14040.493671
1015.937967,1000,14056.05977
1118.765279,1000,14082.68909
950.975587,1000,14096.675116
1112.079553,1000,14124.459557
1003.550263,1000,14138.907782
1035.489486,1000,14167.74737
1057.914826,1000,14182.337201
1135.91456,1000,14209.557203
920.126316,1000,14223.555677
729.488428,1000,14250.733741
1104.396689,1000,14264.485758
1065.049873,1000,14291.430031
1110.883793,1000,14305.836585
925.528462,1000,14335.200151
974.821468,1000,14348.865715
710.711682,1000,14376.706688
993.511091,1000,14390.488611
1095.438046,1000,14418.346474
1088.022963,1000,14432.469766
1051.249348,1000,14461.888139
1153.436897,1000,14475.948081
1052.044432,1000,14503.493158
908.241313,1000,14517.325915
1081.54129,1000,14531.198542
1120.60529,1000,14558.493972
1073.421072,1000,14574.38606
792.314984,1000,14601.50333
1077.78557,1000,14615.10352
1158.795641,1000,14642.978473
1122.648553,1000,14657.843427
1174.713584,1000,14685.302339
1030.380689,1000,14699.524965
1209.98371,1000,14726.6786
1131.771498,1000,14740.909309
1196.049278,1000,14767.541727
1168.008457,1000,14781.258425
1073.910545,1000,14806.71069
1076.878837,1000,14821.375207
1182.767217,1000,14847.909629
1074.876069,1000,14861.548232
977.89989,1000,14888.819812
1075.417072,1000,14902.689978
1178.38897,1000,14929.122348
1099.367588,1000,14942.695838
1149.695949,1000,14969.392707
1000.544328,1000,14983.777183
1048.09049,1000,15012.156807
982.315232,1000,15025.900113
1184.719003,1000,15050.031713
1019.672712,1000,15064.042377
1111.501014,1000,15091.418825
1115.020194,1000,15105.328773
1212.277807,1000,15133.07389
1157.415952,1000,15147.124239
1099.90852,1000,15172.348493
1037.089068,1000,15186.778111
1014.661499,1000,15215.272773
1159.10939,1000,15229.012815
664.173945,1000,15255.566164
1127.649081,1000,15270.045796
1125.565545,1000,15297.760201
923.695429,1000,15311.10241
1107.518682,1000,15338.540634
710.646192,1000,15352.914768
1039.082461,1000,15380.72198
937.140872,1000,15394.163901
1117.677318,1000,15408.992265
1056.338667,1000,15437.208675
691.702801,1000,15450.49715
1060.828174,1000,15478.209936
1107.11234,1000,15491.486558
1087.151527,1000,15519.645912
1188.996676,1000,15532.872831
1184.706113,1000,15559.784234
1092.658461,1000,15574.107969
1075.522629,1000,15601.000373
1024.803655,1000,15615.169103
862.358229,1000,15642.073864
1131.864173,1000,15657.07844
1075.698169,1000,15684.866444
1073.762962,1000,15698.9668
1147.092644,1000,15726.22827
607.223512,1000,15740.192757
1136.453608,1000,15768.293222
1093.709245,1000,15783.454595
1115.276502,1000,15810.237402
1162.430367,1000,15824.657375
1024.214133,1000,15852.804165
1085.50348,1000,15867.15714
1133.148139,1000,15893.004945
1126.647236,1000,15907.036568
1077.928456,1000,15935.314412
570.258345,1000,15949.221509
1150.043973,1000,15976.879011
1031.146179,1000,15990.199933
1036.165307,1000,16017.877035
1157.00545,1000,16032.051347
862.27932,1000,16060.604337
1045.168105,1000,16074.53345
1072.235984,1000,16101.425683
502.823518,1000,16116.276408
1057.583985,1000,16144.176383
1109.643293,1000,16158.204908
1144.679173,1000,16185.193699
1153.185981,1000,16200.197482
1070.661023,1000,16227.204882
1129.913205,1000,16241.620331
629.358742,1000,16269.246023
1143.057879,1000,16283.335914
1177.395599,1000,16298.134474
976.549744,1000,16325.556869
1029.331712,1000,16339.974602
1138.052937,1000,16367.778877
1010.326025,1000,16382.221697
750.779009,1000,16410.776446
998.193423,1000,16424.742536
1059.365287,1000,16452.528268
1109.418839,1000,16467.601131
1135.148298,1000,16495.161568
1120.003072,1000,16509.206808
1080.198608,1000,16536.769218
1008.177175,1000,16551.011881
913.874333,1000,16578.151557
1057.775389,1000,16592.71947
1046.746454,1000,16621.083236
384.337742,1000,16636.718466
1113.20562,1000,16663.356814
1102.835946,1000,16676.90676
1092.334774,1000,16705.143076
1027.562952,1000,16719.488897
1108.505699,1000,16747.50379
1003.427846,1000,16761.936285
1106.742961,1000,16789.797715
1136.709004,1000,16804.828848
865.326689,1000,16832.882423
1078.154872,1000,16847.164397
1175.939767,1000,16875.009044
1050.520861,1000,16890.347579
1088.256406,1000,16917.939574
1175.809812,1000,16931.450955
1200.285175,1000,16958.383163
1139.412547,1000,16972.046018
1193.226351,1000,16998.159972
1193.705966,1000,17011.836719
1126.33276,1000,17039.242669
896.524935,1000,17053.335597
573.685211,1000,17079.540217
1124.452548,1000,17094.077336
1068.204522,1000,17122.497867
1150.895232,1000,17136.607795
1106.884013,1000,17163.24942
1106.780663,1000,17178.383688
1098.163344,1000,17192.320046
1097.175159,1000,17219.225906
1111.885168,1000,17233.35351
553.947938,1000,17260.299967
1138.67086,1000,17274.390548
1067.435231,1000,17300.738435
1087.683498,1000,17314.848172
1134.488596,1000,17342.931078
1136.171949,1000,17356.895443
884.593125,1000,17384.97512
1095.900799,1000,17399.594779
998.027478,1000,17427.067679
1130.294102,1000,17440.879306
1052.603237,1000,17469.479921
621.037571,1000,17484.034353
1132.075826,1000,17512.235956
1105.201658,1000,17526.420294
1100.19205,1000,17553.84446
1136.59416,1000,17568.042998
1026.657752,1000,17596.048519
1155.115082,1000,17610.305247
1124.567019,1000,17636.571461
1131.943055,1000,17650.422819
1176.305106,1000,17677.251175
1134.431366,1000,17691.534453
1131.901327,1000,17718.653341
1135.542795,1000,17733.743943
1135.488819,1000,17761.169737
642.28005,1000,17776.76867
1043.182576,1000,17804.596367
1068.36919,1000,17819.986497
1142.888699,1000,17847.988834
1041.977274,1000,17862.018354
1175.741469,1000,17889.62499
1049.759681,1000,17903.889904
1146.410653,1000,17931.917255
1098.769115,1000,17946.29223
1101.526699,1000,17973.09398
1121.227614,1000,17987.762952
934.269744,1000,18015.92246
1142.007248,1000,18029.736129
1110.291695,1000,18057.170291
673.9992,1000,18071.937994
745.326898,1000,18085.784681
1096.031776,1000,18112.894834
1105.158091,1000,18128.085859
1070.005677,1000,18155.556392
1060.793956,1000,18170.299813
1087.827798,1000,18197.038291
1154.349967,1000,18211.182578
839.044396,1000,18239.589113
1127.77872,1000,18253.792809
586.139235,1000,18281.290086
994.121062,1000,18295.168329
952.355327,1000,18321.634799
1152.658538,1000,18334.665754
1185.497491,1000,18357.661091
1082.146682,1000,18371.234423
1028.353143,1000,18396.162265
967.204044,1000,18410.230743
1139.688517,1000,18436.461565
1170.860866,1000,18449.727936
1112.627316,1000,18475.116117
863.037755,1000,18487.909422
1141.765604,1000,18514.200996
1156.087981,1000,18527.606766
1156.729653,1000,18553.47205
1068.382981,1000,18567.613092
1098.582351,1000,18594.286463
1126.804207,1000,18607.477252
1113.930059,1000,18633.547631
1153.516339,1000,18647.209748
609.909365,1000,18672.488674
580.433209,1000,18686.079087
1095.109706,1000,18712.825529
1122.13589,1000,18726.020238
1163.357807,1000,18750.651547
999.571563,1000,18763.907082
1115.560119,1000,18789.673734
1131.198028,1000,18803.553779
903.390356,1000,18829.707855
884.904874,1000,18843.005516
1177.318989,1000,18869.109164
919.289928,1000,18883.460063
1070.867166,1000,18909.927821
1097.157379,1000,18923.838739
1036.903807,1000,18937.563297
1063.874687,1000,18964.290494
1163.515253,1000,18977.927231
1139.694127,1000,19003.57593
1095.55479,1000,19017.55326
1066.770296,1000,19043.443212
1087.42674,1000,19057.666823
1114.863829,1000,19083.601335
1123.83076,1000,19097.22586
1099.506027,1000,19122.227565
1130.340375,1000,19135.916409
1120.969941,1000,19161.591499
937.397033,1000,19175.639251
517.169613,1000,19201.251187
512.239881,1000,19214.60294
1171.100494,1000,19240.473912
844.509472,1000,19254.919888
1047.450296,1000,19281.063068
1105.113336,1000,19294.701326
801.965802,1000,19319.67255
1180.187538,1000,19333.503618
491.370741,1000,19359.354035
1080.956273,1000,19373.145544
1146.237333,1000,19398.741599
1173.829576,1000,19412.843642
1041.286559,1000,19438.833526
1102.729485,1000,19452.710811
1158.165923,1000,19476.92587
1165.078988,1000,19490.90164
1079.43984,1000,19516.837895
684.334724,1000,19531.079656
1100.032959,1000,19557.310503
1049.54296,1000,19571.186787
1201.206527,1000,19597.396075
898.473936,1000,19610.781353
1177.725584,1000,19637.51527
1103.683493,1000,19651.144297
1168.849531,1000,19678.84109
1132.466863,1000,19691.668006
1189.995073,1000,19718.162214
1174.154376,1000,19731.895904
1129.839457,1000,19746.349242
525.28815,1000,19772.359407
1137.652619,1000,19786.207363
1135.626565,1000,19813.25684
1054.524858,1000,19827.044122
1146.524598,1000,19853.588575
1096.405776,1000,19866.929482
1155.638661,1000,19893.29587
774.099869,1000,19907.008626
1145.304341,1000,19932.916529
1058.868333,1000,19946.827145
1181.536693,1000,19972.591493
916.114562,1000,19986.547798
1113.631594,1000,20013.10888
1005.17594,1000,20026.530163
1187.08125,1000,20053.198274
1057.232053,1000,20066.683218
1155.665546,1000,20090.800626
1036.418398,1000,20104.451468
1150.237036,1000,20129.933269
1118.975491,1000,20143.792039
1045.526245,1000,20169.340398
1149.310323,1000,20183.596277
1016.838154,1000,20210.124324
1122.966262,1000,20224.751743
949.488341,1000,20250.919615
1102.34545,1000,20264.287565
1077.617138,1000,20289.131874
1175.66568,1000,20302.551225
1121.108421,1000,20329.13729
1028.979726,1000,20342.873755
984.347233,1000,20368.801952
1179.818391,1000,20382.575099
1186.480126,1000,20407.724735
1034.990348,1000,20421.835886
1051.113507,1000,20447.184762
720.080089,1000,20461.035488
1179.22012,1000,20486.331758
1059.117387,1000,20500.16629
604.32201,1000,20526.866046
1020.454736,1000,20541.40342
564.598056,1000,20567.001798
1193.291502,1000,20580.745892
582.344414,1000,20594.907679
1200.820345,1000,20619.851286
1044.674808,1000,20633.271517
1103.507787,1000,20658.870552
1210.644077,1000,20672.95006
1167.422488,1000,20699.383975
1166.153329,1000,20712.947793
1110.927341,1000,20739.26482
1158.29343,1000,20752.842671
946.725873,1000,20779.345525
1167.321652,1000,20792.598935
1025.442385,1000,20819.354652
1114.259069,1000,20832.551073
1095.709356,1000,20858.654492
1238.764379,1000,20872.060492
1134.663889,1000,20898.07317
1056.000977,1000,20911.85191
1177.341892,1000,20937.180442
1066.703333,1000,20951.148966
326.865234,1000,20977.323815
1003.409231,1000,20990.597485
184.378084,1000,21016.928083
930.703704,1000,21030.554449
1121.328488,1000,21057.156074
1151.141815,1000,21069.980389
985.919877,1000,21096.434582
1092.01868,1000,21109.760517
1137.698136,1000,21135.350425
1199.080922,1000,21149.904937
979.488315,1000,21176.072359
930.888382,1000,21190.508291
1101.264181,1000,21216.449651
993.655531,1000,21229.70117
1052.094014,1000,21255.633942
1035.081549,1000,21268.753843
1159.217026,1000,21294.961095
1131.387213,1000,21309.187921
1139.817984,1000,21333.252167
1156.916769,1000,21346.980078
1059.537456,1000,21373.531303
1079.445456,1000,21386.924029
1068.129254,1000,21412.669413
1001.300167,1000,21426.858529
1118.782923,1000,21440.423402
1045.921137,1000,21466.161747
1066.53392,1000,21480.330578
1062.995722,1000,21506.48908
1148.190548,1000,21520.497937
1072.68661,1000,21546.177674
445.707745,1000,21560.023957
1087.146876,1000,21586.10609
1152.757074,1000,21599.389729
1076.903962,1000,21625.232962
1169.710884,1000,21638.870504
1156.682003,1000,21665.327368
1141.549848,1000,21678.975334
543.271972,1000,21705.362334
981.611591,1000,21718.440675
551.329642,1000,21744.585367
1059.48107,1000,21759.141566
989.991433,1000,21785.890589
1121.900299,1000,21799.26811
562.195221,1000,21825.316822
1040.139387,1000,21839.08692
1109.264938,1000,21865.718521
1063.000194,1000,21879.427944
1181.787464,1000,21904.417113
1138.507401,1000,21917.843897
852.425901,1000,21943.828681
954.173439,1000,21957.642787
1169.635484,1000,21984.690034
1103.383156,1000,21999.405432
608.676129,1000,22025.173254
1175.205921,1000,22038.331908
1100.329835,1000,22063.047853
1122.430319,1000,22077.278162
1143.076065,1000,22103.694951
1126.980223,1000,22116.884203
1084.3175,1000,22142.38952
1118.439196,1000,22156.321023
1096.565574,1000,22182.044584
1165.633943,1000,22195.266228
972.650205,1000,22220.953892
1124.211489,1000,22234.128618
1104.762726,1000,22260.070096
1193.759534,1000,22274.527756
1109.130393,1000,22288.201579
1081.008092,1000,22314.156858
1110.248842,1000,22326.77048
1076.906247,1000,22353.131922
456.88101,1000,22367.081461
1157.896644,1000,22392.849298
1043.497082,1000,22406.819821
1059.531859,1000,22432.693182
1026.870498,1000,22445.792762
1091.880204,1000,22469.746276
1137.681394,1000,22483.114162
1112.477544,1000,22508.674628
1130.177718,1000,22521.952238
1122.593356,1000,22547.398239
950.929798,1000,22560.894919
1128.638382,1000,22586.963371
1001.9783,1000,22600.360253
617.970644,1000,22625.759812
1108.49806,1000,22639.833867
414.940607,1000,22665.747643
1123.468004,1000,22678.982551
1134.72161,1000,22705.522238
1153.332269,1000,22718.276986
1150.202309,1000,22744.088231
1161.45589,1000,22756.962934
1140.154298,1000,22782.890138
1050.3321,1000,22796.866824
1112.545032,1000,22823.677283
1103.308926,1000,22836.656098
1185.061919,1000,22863.204722
1175.969826,1000,22876.694012
1201.52769,1000,22901.894578
1108.13878,1000,22914.919969
1145.18615,1000,22940.411563
679.964939,1000,22953.895854
1119.311819,1000,22979.55183
1079.941279,1000,22992.634999
845.159344,1000,23018.340736
1125.382369,1000,23031.480704
1194.579438,1000,23056.644888
1137.532127,1000,23070.400041
1225.329031,1000,23096.060817
1200.182924,1000,23109.421194
909.44415,1000,23124.168597
1116.655593,1000,23149.997441
1162.392405,1000,23163.045364
1095.304232,1000,23189.245372
1057.824326,1000,23203.470894
1072.356793,1000,23229.337431
1165.519145,1000,23243.75777
1138.651741,1000,23269.987339
1198.84105,1000,23283.364426
1105.49325,1000,23309.560632
1163.83181,1000,23322.117098
1052.519815,1000,23347.749728
995.327354,1000,23361.456614
611.488011,1000,23387.777427
1121.196866,1000,23402.802144
1155.561184,1000,23427.961548
1151.668339,1000,23441.615878
1115.652685,1000,23464.896146
1102.648131,1000,23478.813468
1143.83486,1000,23504.879506
1206.154009,1000,23519.183217
1155.579512,1000,23545.049445
931.022761,1000,23558.88516
818.296221,1000,23585.268852
1194.490426,1000,23599.821596
1130.574007,1000,23625.468634
993.407189,1000,23639.17184
907.281542,1000,23664.553349
1156.565117,1000,23678.1921
1161.2876,1000,23704.730036
663.611652,1000,23719.919516
1117.349804,1000,23746.543256
575.148514,1000,23760.4429
737.400856,1000,23786.360359
1114.623432,1000,23800.131284
995.817075,1000,23825.809222
1071.215288,1000,23839.720479
1011.866161,1000,23866.004466
1012.508177,1000,23879.619089
1055.208283,1000,23905.87577
1059.604438,1000,23920.277018
995.014435,1000,23945.848495
1083.229883,1000,23959.575556
1084.257749,1000,23973.123067
997.56807,1000,23999.929742
919.178342,1000,24014.045175
1133.066155,1000,24038.358803
1137.206556,1000,24051.815878
1193.230161,1000,24077.563102
1095.859819,1000,24090.555423
964.387957,1000,24115.728895
593.755142,1000,24128.929866
1161.515364,1000,24154.531222
1162.824865,1000,24167.686237
1098.329227,1000,24193.935708
950.356024,1000,24207.761553
1048.307093,1000,24233.873769
1136.317267,1000,24247.310915
1060.372841,1000,24272.229136
1245.259074,1000,24287.833053
1113.418215,1000,24313.048503
1096.124458,1000,24326.09883
1181.277318,1000,24351.555922
1123.320798,1000,24365.216622
1030.617637,1000,24391.08224
1165.796634,1000,24404.537505
1072.023372,1000,24430.067445
1004.899628,1000,24443.720718
1121.001658,1000,24469.309005
1116.918649,1000,24482.121577
1043.863823,1000,24507.512281
1134.912453,1000,24521.957533
1127.261371,1000,24548.636485
1088.959517,1000,24561.642432
1116.758291,1000,24587.121413
946.630008,1000,24600.55932
1016.009275,1000,24626.339783
977.695328,1000,24639.936239
1051.815868,1000,24665.557321
1013.823976,1000,24680.432802
1099.190619,1000,24705.333708
1063.201954,1000,24719.154104
1121.84847,1000,24744.966013
1164.351952,1000,24759.840239
1099.423769,1000,24773.329709
987.241336,1000,24798.951499
1120.884389,1000,24813.400126
1199.94982,1000,24838.032239
1102.518627,1000,24851.778915
1127.033123,1000,24877.526222
1082.758839,1000,24891.526578
1028.750979,1000,24917.674369
1195.359513,1000,24931.083592
1162.485167,1000,24957.226572
1168.540161,1000,24969.391091
1169.176288,1000,24995.105561
1164.391525,1000,25008.7905
980.625095,1000,25034.04748
1017.154583,1000,25047.496326
1028.15396,1000,25072.61532
1132.490173,1000,25085.513235
1073.326253,1000,25110.518647
900.422118,1000,25123.109808
1064.473383,1000,25147.587423
1088.294431,1000,25161.093535
1094.307165,1000,25186.497098
1011.353049,1000,25199.693323
1112.438686,1000,25225.440397
1126.872867,1000,25238.551212
1050.771343,1000,25262.485672
1024.093495,1000,25275.386056
995.245942,1000,25300.863895
1167.578762,1000,25314.67798
1182.522313,1000,25339.852678
1105.183602,1000,25353.092947
178.319598,1000,25377.959888
973.811384,1000,25391.634307
