# {"t_start": 1547636581.9184566, "env_id": "RoboschoolHumanoidFlagrun-v1"} 
r,l,t-32.75142,19,3.948425
-32.53372,19,4.987964
-43.916837,19,6.040995
-32.927043,26,7.659908
-41.185187,19,8.445237
-29.210409,18,9.302268
-46.389672,19,10.244931
-42.705264,20,11.258766
-35.248244,19,11.919566
-33.078492,22,13.049969
-36.38384,20,14.026126
-48.431305,20,14.823801
-41.664407,19,15.604388
-34.73196,19,16.4763
-44.871728,21,17.235526
-36.650258,21,18.149328
-22.780865,19,18.919672
-45.691914,19,20.171805
-47.928696,26,21.570708
-40.548244,17,22.607378
-44.515361,18,23.666579
-23.322528,19,24.469532
-39.776654,20,25.271038
-47.008884,19,26.099432
-52.026612,18,26.867625
-46.229319,19,1996.390445
-40.493229,19,1997.584331
-35.074361,19,1998.799723
-43.110857,17,1999.901824
-44.470849,19,2001.008141
-29.284403,19,2002.035338
-40.781105,25,2003.131101
-29.201182,17,2003.841155
-36.373244,17,2004.795981
-40.383357,22,2005.850744
-70.599857,39,2007.572239
-41.150489,22,2008.503512
-32.802545,20,2009.320449
-19.539226,19,2009.997941
-27.878445,18,2011.065905
-41.445006,19,2011.986941
-39.84767,18,2012.896403
-42.243259,19,2013.698246
-29.026729,18,2014.639079
-43.105106,19,2015.421656
-47.113898,18,2016.074921
-27.0379,18,2016.844787
-31.479332,20,2018.054569
-37.78267,18,2019.172039
-31.738774,18,2019.883525
-53.585812,23,2020.765731
-58.156145,25,3971.907896
-22.229774,21,3972.917061
-39.773546,19,3973.707499
-37.196281,20,3974.555978
-29.935863,12,3975.141173
-45.26948,25,3976.310406
-38.756263,19,3977.27176
-25.437755,18,3977.959815
-48.993864,21,3978.724091
-38.157877,31,3980.268718
-48.046961,25,3981.73021
-26.823378,22,3982.671362
-34.920507,18,3983.485523
-31.605462,24,3984.707102
-35.275844,18,3985.775741
-8.494602,13,3986.513541
-30.408346,18,3987.226857
-28.464632,19,3988.340257
-31.560422,19,3989.515889
-36.33683,19,3990.488861
-39.126167,18,3991.473544
-42.524355,20,3992.345543
-24.480056,12,3992.718915
-86.0852,29,3994.188804
-30.257557,16,3995.074477
-38.675665,21,3996.09572
-38.328863,18,5951.450817
-31.043078,19,5952.136884
-41.271311,20,5952.896404
-34.100904,19,5953.51666
-23.5978,19,5954.309663
-42.961638,20,5955.294902
-37.787663,20,5956.213452
-60.240353,13,5956.778361
-39.334784,20,5957.579749
-52.782646,20,5958.244042
-31.382598,19,5958.83909
-30.887548,19,5959.724686
-33.218137,20,5960.857628
-44.555379,18,5961.764856
-37.068349,22,5962.904027
-26.078966,18,5963.686448
-32.739119,19,5964.618948
-36.7627,20,5965.555584
-29.852509,19,5966.393123
-40.979201,22,5967.326576
-23.531086,19,5968.318498
-32.918402,21,5969.102326
-37.883739,20,5969.772305
-34.636071,19,5970.885273
-33.223264,19,5971.878271
-26.17901,18,5972.795419
-26.459629,20,7861.252666
-28.926415,18,7862.080553
-32.887484,17,7862.851695
-14.828091,12,7863.298126
-40.000114,20,7864.159346
-39.806704,18,7864.96948
-31.981738,19,7865.957301
-55.208116,19,7867.006112
-32.942786,19,7867.953281
-33.182987,17,7868.88243
-31.635618,20,7869.948433
-38.889664,19,7870.58142
-28.81158,19,7871.329917
-32.715021,18,7872.311886
-35.70625,19,7873.236695
-35.777494,20,7874.14024
-38.70688,22,7875.324939
-32.621953,20,7876.253914
-39.171237,20,7877.293006
-44.635544,20,7878.165353
-19.376315,19,7878.85138
-33.857138,19,7879.601545
-29.89037,22,7880.542242
-38.414178,18,7881.423126
-35.148733,19,7882.447926
-44.90413,28,7883.745738
-50.755892,23,7884.756874
-40.074368,20,9729.457016
-39.017268,17,9729.986861
-46.784892,21,9730.761266
-34.547807,19,9731.748086
-38.091207,19,9732.554155
-42.790244,20,9733.388336
-37.754291,17,9733.915901
-36.099041,19,9734.83607
-30.485951,19,9736.028617
-25.117856,18,9736.769636
-30.979621,20,9737.518963
-35.812482,19,9738.466117
-55.329407,25,9739.354851
-35.083493,19,9740.047891
-43.88949,21,9741.1558
-41.043324,19,9741.869401
-42.250049,18,9742.687304
-38.20126,19,9743.567622
-34.590026,17,9744.258906
-25.034447,21,9745.30368
-22.501297,14,9746.115288
-25.178404,19,9746.920864
-26.598676,20,9747.628388
-32.632571,19,9748.281605
-32.426796,18,9748.927913
-27.979085,19,9749.635476
-42.013622,18,11622.903271
-35.873411,18,11623.92183
-28.281717,21,11625.039876
-39.887002,19,11625.926099
-34.269012,22,11627.196997
-32.586586,19,11628.3101
-30.462147,22,11629.501906
-31.476037,19,11630.649271
-40.799191,18,11631.70422
-35.090491,20,11632.531255
-39.308035,20,11633.58555
-31.652071,18,11634.763906
-32.97351,17,11635.672942
-33.086664,18,11636.787487
-29.203402,15,11637.627736
-35.646188,19,11638.734462
-27.950106,19,11640.06371
-35.198651,18,11641.194124
-32.639855,18,11642.059574
-38.662169,19,11643.171621
-34.541145,19,11644.35347
-41.159122,19,11645.200146
-31.239492,24,11646.209518
-38.625823,20,11647.165297
-33.363241,21,11648.331691
-29.66371,18,11649.326138
-25.030717,19,11650.19426
-38.450328,19,13574.045211
-26.591864,18,13575.036896
-35.652873,18,13575.881319
-26.556464,24,13577.181362
-44.937151,19,13578.240886
-28.733872,20,13579.342565
-31.284609,19,13580.275859
-26.90875,21,13581.356616
-42.095055,18,13582.251547
-41.411029,22,13583.297107
-32.763662,18,13584.228031
-32.527848,21,13585.840466
-37.848525,19,13587.030664
-42.296859,23,13588.448164
-58.667171,29,13589.969233
-55.529065,17,13591.010146
-26.676115,17,13592.069674
-35.435821,25,13593.713354
-41.35267,20,13595.288196
-34.014657,19,13596.507326
-40.935187,23,13597.789088
-34.301659,19,13598.968998
-28.914416,18,13600.200755
-36.709328,18,13601.405041
-31.591595,19,13602.446283
-37.541617,19,13603.580719
-29.539172,18,15831.379738
-30.621492,19,15832.530105
-26.36766,19,15833.749336
-27.927828,19,15834.88132
-12.366625,21,15836.077439
-37.160351,17,15837.359825
-27.103549,19,15838.471946
-38.665295,21,15839.76948
-36.232395,20,15841.111891
-24.938715,20,15842.36012
-24.588842,19,15843.54008
-34.349079,17,15844.586968
-27.73923,20,15846.047678
-36.201271,19,15847.201832
-59.708587,32,15849.305223
-26.342266,19,15850.353255
-44.342855,19,15851.399761
-24.163657,19,15852.700684
-24.995282,19,15853.610725
-31.009094,18,15854.612337
-39.142771,19,15855.919643
-26.044988,18,15856.883075
-24.95095,19,15858.065348
-41.328452,18,15859.076159
-34.270842,18,15860.182018
-25.945176,20,15861.258398
-27.012802,19,18098.67048
-41.549246,20,18099.908318
-21.59375,19,18101.113838
-45.194718,18,18102.068334
-33.39397,18,18103.247122
-37.289038,18,18104.329381
-35.51221,17,18105.371221
-24.687041,19,18106.688335
-30.729767,18,18107.834903
-23.69338,20,18109.053328
-32.149324,20,18110.250798
-42.603834,20,18111.373148
-38.270586,19,18112.725034
-27.531614,21,18114.039476
-25.210933,20,18115.320967
-30.235756,25,18116.863833
-19.742452,18,18118.119295
-41.549268,19,18119.337275
-32.155413,19,18120.531841
-27.727762,17,18121.635679
-22.23653,20,18122.818173
-37.144215,18,18123.843268
-49.470529,19,18125.102911
-39.336355,18,18126.074365
-27.115594,19,18127.293484
-35.804291,28,18129.058138
-39.030336,27,20363.266441
-23.293568,20,20364.736961
-39.375332,18,20366.089111
-33.293116,19,20367.446863
-30.482158,18,20368.551354
-37.435943,18,20369.864359
-36.659308,20,20371.149048
-24.320667,20,20372.205973
-43.529782,18,20373.046747
-38.524568,20,20374.012975
-41.819021,19,20374.860789
-29.133063,18,20375.824953
-28.009645,17,20376.830021
-33.686078,21,20378.020356
-22.175354,17,20378.902441
-25.917754,18,20379.927401
-38.184225,20,20380.760674
-34.432885,18,20381.699224
-39.2628,20,20383.011012
-34.791731,22,20384.29905
-39.640796,19,20385.167223
-40.788133,19,20386.182531
-34.506089,18,20387.353277
-27.967299,18,20388.30594
-47.864672,27,20390.008816
-36.036531,20,20391.265023
-35.061456,19,22618.793676
-26.337988,19,22619.800459
-29.083384,18,22620.941104
-30.398481,18,22621.86781
-42.858422,18,22623.051049
-26.772829,19,22624.18302
-36.953016,18,22625.129818
-30.820946,20,22626.273509
-41.800787,19,22627.540872
-36.277416,23,22628.842092
-27.328231,21,22630.18935
-27.277496,19,22631.246742
-26.392347,20,22632.512404
-29.968068,21,22633.450054
-28.117277,18,22634.280101
-32.021324,20,22635.246571
-53.090359,23,22636.511787
-38.113745,19,22637.875767
-25.967247,20,22639.080807
-34.493319,19,22640.294424
-40.363229,19,22641.507337
-34.82154,20,22642.8297
-23.019801,19,22644.031826
-23.363569,20,22645.190121
-36.927223,18,22645.980367
-26.230432,19,22646.799972
-28.321818,18,22648.245439
-44.642672,19,24867.636982
-56.236768,29,24869.415507
-25.40251,19,24870.584383
-28.527806,19,24871.707719
-19.822577,18,24872.812044
-21.513582,18,24873.623674
-26.357926,18,24874.720937
-30.591524,18,24875.800988
-18.606262,19,24876.941361
-36.362184,18,24878.026608
-29.504511,21,24879.419946
-20.796474,18,24880.58657
-25.184617,22,24881.968872
-30.089054,19,24883.353823
-27.122155,19,24884.68881
-29.302914,20,24885.899291
-34.973626,17,24886.769042
-32.834586,19,24887.881323
-30.483802,19,24889.186106
-23.770756,19,24890.231643
-27.546492,19,24891.418741
-33.174104,25,24892.680012
-38.828883,23,24893.801093
-33.339661,19,24894.930663
-35.115083,20,24896.119904
-33.051913,19,24897.398748
-27.715063,20,27141.225365
-32.792298,18,27142.297114
-26.818372,19,27143.452088
-35.73255,19,27144.715249
-31.549273,20,27146.150496
-28.80178,17,27147.384122
-24.295139,18,27148.601219
-23.85878,20,27149.923148
-24.941937,18,27150.688114
-36.499757,20,27151.884772
-35.56785,26,27153.621222
-25.751621,20,27155.001252
-17.110849,19,27156.419348
-34.922575,19,27157.695459
-28.643683,18,27158.837008
-24.840187,22,27159.87539
-29.974834,20,27161.06312
-25.445651,20,27162.008768
-26.912468,19,27163.01695
-45.101175,25,27164.576761
-48.547242,19,27165.602722
-28.331047,19,27166.82076
-32.916544,17,27167.720498
-45.084406,20,27168.818854
-37.726129,18,27170.032664
-34.292788,18,27171.23976
-27.839207,19,29383.851679
-24.503335,18,29384.888535
-23.09329,19,29386.203768
-32.794968,19,29387.219915
-25.186209,17,29388.146693
-29.352324,17,29389.209762
-24.603868,19,29390.383435
-31.36152,19,29391.556732
-21.760332,21,29392.726304
-28.234602,20,29393.876855
-45.016828,20,29395.491973
-37.236553,20,29397.037173
-29.384101,18,29398.281072
-21.577741,20,29399.435701
-32.46689,17,29400.305454
-28.891126,18,29401.475544
-37.667004,18,29402.717893
-34.919978,18,29403.981144
-24.350443,19,29405.288512
-35.425432,19,29406.442117
-30.641151,18,29407.419275
-19.861867,19,29408.470503
-28.188734,20,29409.660979
-29.917083,21,29410.968151
-22.955114,20,29412.110916
-29.922915,19,29413.029556
-27.196368,20,29413.96784
-20.720159,18,31620.447977
-22.938232,19,31621.574218
-34.690556,18,31622.58897
-28.893275,18,31623.687084
-42.823949,20,31625.146961
-18.143165,18,31626.134971
-37.623264,20,31627.386183
-33.105193,17,31628.471803
-26.858781,21,31629.879035
-35.070673,18,31630.676375
-27.735841,20,31631.908265
-36.418671,19,31632.944715
-26.679222,20,31634.104849
-23.04076,18,31635.369763
-15.515547,19,31636.691065
-22.507143,20,31637.928542
-27.755252,19,31638.978488
-35.22053,18,31639.934988
-45.114121,23,31641.477209
-32.307127,20,31642.716393
-30.06482,19,31644.016868
-26.557873,18,31645.270253
-32.80452,19,31646.254117
-25.637136,22,31647.60741
-39.626547,17,31648.584822
-18.168529,18,31649.777768
-36.624424,18,31650.89906
