# {"t_start": 1546660833.277742, "env_id": "AsterixNoFrameskip-v4"} 
r,l,t
550.0,309,11.988322
350.0,347,18.538991
300.0,308,24.226819
550.0,299,29.684906
150.0,200,33.462745
150.0,200,36.989983
200.0,245,41.587881
200.0,282,46.961142
150.0,203,50.95504
250.0,201,54.753732
300.0,224,58.774189
300.0,234,63.19693
200.0,212,67.213464
150.0,220,71.220383
250.0,288,76.739777
150.0,198,80.30031
100.0,194,84.526338
150.0,205,88.340639
300.0,321,94.865821
200.0,274,100.466537
300.0,311,106.588205
200.0,384,114.130012
200.0,240,118.90153
400.0,379,126.587886
500.0,386,134.293674
150.0,226,139.159115
100.0,284,145.043236
100.0,219,149.528565
250.0,234,154.362948
300.0,223,158.715236
100.0,204,162.899131
350.0,257,167.957564
200.0,234,172.61654
200.0,235,177.777736
100.0,222,182.209286
150.0,211,186.977987
200.0,202,191.306366
100.0,205,195.888922
250.0,240,201.002201
200.0,204,205.260176
250.0,286,211.795653
100.0,221,216.58662
100.0,206,221.673712
200.0,253,227.253584
150.0,203,231.656372
400.0,278,237.62764
50.0,212,242.099647
250.0,271,247.954141
100.0,203,252.57708
400.0,340,259.91041
250.0,185,263.769161
250.0,303,270.27871
400.0,286,276.741033
450.0,544,289.711234
300.0,231,295.411237
200.0,256,301.37866
300.0,370,309.363002
150.0,223,314.001987
100.0,209,318.620788
400.0,407,327.405006
200.0,395,335.979105
200.0,405,345.057036
50.0,225,350.091365
150.0,228,354.987137
250.0,214,359.399345
250.0,302,366.027347
300.0,343,373.325209
250.0,445,383.136979
150.0,425,392.350591
200.0,571,404.683742
200.0,570,417.305762
200.0,572,430.210699
200.0,565,442.497654
200.0,568,454.525359
200.0,570,467.210216
200.0,568,479.236773
200.0,565,492.201649
200.0,567,504.438601
250.0,566,516.845809
200.0,566,529.164904
200.0,567,541.29447
200.0,567,553.789078
200.0,571,565.917946
200.0,571,578.788211
200.0,565,590.844039
200.0,528,602.364642
200.0,570,615.067176
200.0,483,625.343507
550.0,364,633.518767
400.0,349,641.142581
150.0,226,646.134671
250.0,238,651.264734
150.0,209,656.124014
250.0,310,662.715107
100.0,209,667.343056
250.0,216,672.184475
550.0,534,683.744577
250.0,272,689.566601
100.0,205,694.104302
50.0,206,698.40407
150.0,218,703.462158
100.0,199,707.784178
350.0,252,713.582242
400.0,261,719.670085
200.0,202,724.510642
150.0,205,728.996668
200.0,212,733.392679
400.0,378,741.561261
100.0,205,746.091731
300.0,240,751.232993
150.0,225,755.874972
150.0,202,760.498835
450.0,571,772.622618
150.0,206,777.085812
250.0,236,782.477396
50.0,205,786.887239
150.0,221,791.829412
300.0,371,799.815246
250.0,316,806.500135
150.0,204,811.127476
250.0,196,815.347887
300.0,347,822.951323
250.0,269,828.766792
150.0,228,833.993019
450.0,496,845.756258
150.0,222,850.805801
200.0,227,855.559798
200.0,234,860.661121
300.0,221,865.545476
300.0,323,872.518014
250.0,307,879.351451
200.0,206,883.577624
500.0,601,896.673265
250.0,292,903.037982
200.0,228,908.121954
250.0,221,912.955464
450.0,291,919.410905
200.0,200,924.074079
200.0,224,928.85459
350.0,294,935.727969
200.0,204,940.031286
250.0,206,944.64196
600.0,410,954.021233
350.0,306,960.783279
250.0,221,965.573176
200.0,226,970.548274
200.0,296,976.805277
350.0,302,983.221448
300.0,210,987.974287
300.0,241,993.40906
150.0,202,997.701495
250.0,223,1002.717463
250.0,218,1007.565332
200.0,220,1012.384212
200.0,210,1016.767565
200.0,203,1021.188933
350.0,380,1029.338735
150.0,208,1033.631444
250.0,227,1039.035148
300.0,299,1045.91837
300.0,204,1050.665335
200.0,214,1055.239994
250.0,291,1061.503405
150.0,224,1066.467678
250.0,221,1071.074304
300.0,300,1078.079268
250.0,223,1082.853699
400.0,390,1091.477454
600.0,498,1102.211001
350.0,228,1107.070733
350.0,350,1114.871746
250.0,204,1119.098819
650.0,389,1127.530959
150.0,226,1132.418832
350.0,471,1143.23678
600.0,346,1150.914645
250.0,204,1155.811309
250.0,215,1160.720485
250.0,215,1165.319886
550.0,403,1174.290142
200.0,217,1178.888264
250.0,205,1183.623023
150.0,205,1187.894379
200.0,209,1192.399378
200.0,204,1196.943537
800.0,427,1206.242434
150.0,206,1210.563355
450.0,267,1216.570088
300.0,220,1221.264834
550.0,276,1227.316211
300.0,199,1231.903124
700.0,556,1244.365819
200.0,264,1250.36932
250.0,278,1256.48494
250.0,201,1261.076574
250.0,224,1266.082004
600.0,368,1274.084637
400.0,310,1280.578205
250.0,218,1285.500797
500.0,291,1292.050733
400.0,250,1297.457578
600.0,380,1305.500326
550.0,370,1313.948237
350.0,279,1320.503141
550.0,419,1329.739201
200.0,203,1334.237442
450.0,220,1338.787636
800.0,443,1348.605964
450.0,261,1354.143024
350.0,212,1358.775803
250.0,221,1363.445244
350.0,203,1368.157148
700.0,328,1375.085862
450.0,344,1382.681963
550.0,376,1390.798221
650.0,396,1399.496805
850.0,314,1406.727532
500.0,371,1415.38831
600.0,308,1422.183856
450.0,273,1428.171795
450.0,247,1433.475104
450.0,267,1439.393049
700.0,300,1445.965374
400.0,258,1451.679701
700.0,468,1462.110357
650.0,402,1470.878751
200.0,204,1475.549756
250.0,205,1479.973444
150.0,199,1484.651962
300.0,319,1491.39608
300.0,213,1496.095153
300.0,213,1500.442869
400.0,219,1505.72956
400.0,271,1511.677052
250.0,225,1516.785858
450.0,226,1522.098227
950.0,436,1531.953313
600.0,341,1539.416619
350.0,250,1544.66752
400.0,238,1549.800816
500.0,356,1557.524071
650.0,364,1565.716989
550.0,274,1571.629069
350.0,210,1576.471187
800.0,376,1584.513766
900.0,332,1591.454191
600.0,317,1598.487459
150.0,170,1602.078406
350.0,212,1606.906154
400.0,225,1612.238217
1100.0,468,1622.397404
150.0,303,1629.376625
1450.0,647,1643.459742
550.0,411,1652.391799
600.0,295,1658.683197
400.0,205,1663.210714
500.0,290,1669.49304
300.0,210,1674.085444
700.0,311,1680.665716
250.0,202,1684.874191
250.0,214,1689.712543
550.0,387,1698.013156
1050.0,592,1711.069259
250.0,218,1715.680363
300.0,260,1721.412037
600.0,261,1727.235246
1000.0,700,1742.792875
300.0,206,1747.43591
250.0,268,1753.324547
400.0,245,1758.89293
900.0,587,1772.214571
600.0,397,1781.174097
750.0,381,1789.768451
250.0,277,1795.819104
300.0,244,1801.070357
650.0,325,1808.322045
400.0,202,1812.630814
600.0,333,1819.856389
100.0,225,1824.792416
500.0,366,1832.629755
1050.0,545,1844.69626
350.0,346,1852.326768
750.0,537,1864.604412
650.0,434,1873.731209
650.0,369,1881.997902
700.0,517,1893.895795
450.0,312,1900.572819
650.0,423,1910.204489
150.0,216,1914.802169
1100.0,417,1923.931653
550.0,322,1930.970544
350.0,401,1939.579706
100.0,348,1947.325045
400.0,289,1953.596133
250.0,210,1958.256015
450.0,318,1965.348577
550.0,525,1977.550878
750.0,624,1991.689584
400.0,225,1996.835936
350.0,279,2003.148596
200.0,215,2007.917026
400.0,409,2016.599025
500.0,346,2023.933609
500.0,636,2038.629863
600.0,347,2046.66734
800.0,430,2056.382527
400.0,326,2063.771946
300.0,248,2069.221565
750.0,416,2078.160722
650.0,408,2087.041743
500.0,307,2094.279454
400.0,236,2099.606047
950.0,420,2108.929833
1150.0,500,2120.018216
900.0,398,2129.011766
850.0,298,2135.568867
700.0,396,2144.034039
450.0,225,2148.838086
400.0,226,2153.822007
650.0,325,2160.879159
800.0,324,2168.691282
400.0,219,2173.312009
900.0,513,2184.662562
1000.0,581,2197.388085
750.0,311,2204.243694
1150.0,438,2214.279905
250.0,169,2217.84936
450.0,224,2222.623371
850.0,364,2230.65191
950.0,422,2239.909272
900.0,576,2252.661529
300.0,213,2257.662574
800.0,472,2268.212528
600.0,297,2274.56737
550.0,301,2280.988388
300.0,188,2285.123452
750.0,313,2291.812671
300.0,232,2297.121825
1000.0,558,2309.420727
400.0,267,2315.154146
500.0,323,2322.240229
1250.0,445,2331.698677
450.0,203,2336.105882
850.0,400,2344.798878
550.0,307,2351.493571
550.0,328,2358.962307
1150.0,419,2368.385152
400.0,204,2373.073309
500.0,307,2379.781623
650.0,308,2386.874259
300.0,177,2390.729468
500.0,265,2396.597941
600.0,402,2405.288071
1400.0,575,2417.98362
800.0,376,2426.338953
750.0,710,2441.456899
850.0,390,2449.867269
300.0,457,2460.021019
800.0,522,2471.832291
450.0,351,2479.236556
900.0,647,2493.423579
550.0,309,2499.956113
600.0,716,2515.459634
700.0,1005,2537.229215
750.0,1076,2561.847101
400.0,315,2568.606275
700.0,505,2579.459252
550.0,337,2586.850543
450.0,213,2591.33323
350.0,204,2595.956889
250.0,210,2600.635574
350.0,212,2605.039559
1150.0,568,2618.835003
600.0,310,2625.559459
750.0,440,2635.588774
900.0,323,2642.933146
550.0,245,2648.2183
1450.0,540,2660.151273
500.0,304,2667.08023
550.0,385,2675.812147
950.0,344,2683.757547
650.0,279,2689.735605
400.0,243,2694.9501
1200.0,521,2706.155577
850.0,429,2715.918787
800.0,283,2722.086014
700.0,279,2727.840682
500.0,222,2732.700953
500.0,378,2741.08215
500.0,308,2747.917789
350.0,212,2752.887615
800.0,450,2762.79718
600.0,588,2776.143452
250.0,340,2783.387573
400.0,476,2793.849442
350.0,488,2804.303755
900.0,562,2816.54402
700.0,548,2828.325364
200.0,271,2834.476828
450.0,274,2840.29095
900.0,420,2849.34654
300.0,200,2853.489685
800.0,423,2863.034236
300.0,216,2867.604207
750.0,418,2877.154444
400.0,221,2881.733238
600.0,400,2890.638108
550.0,378,2898.944619
700.0,450,2909.243029
250.0,219,2914.497658
650.0,437,2924.432326
500.0,384,2933.086953
600.0,347,2940.621733
400.0,310,2947.242873
300.0,198,2951.616112
700.0,388,2960.164431
250.0,199,2964.292368
550.0,471,2974.741237
1050.0,733,2990.919354
500.0,265,2996.533594
650.0,283,3002.749529
450.0,314,3009.578776
700.0,388,3018.142028
300.0,310,3024.87493
550.0,346,3032.219553
450.0,420,3041.737423
300.0,231,3046.602819
400.0,364,3054.526315
400.0,234,3059.806684
650.0,365,3068.19415
450.0,385,3076.49968
550.0,334,3083.547277
600.0,348,3091.423767
450.0,276,3097.402172
950.0,448,3107.137841
550.0,309,3113.86493
1000.0,375,3122.055425
450.0,237,3127.263943
350.0,200,3131.664576
1550.0,562,3144.007275
1300.0,560,3156.82992
1350.0,508,3168.233905
650.0,414,3177.154795
800.0,341,3184.693283
800.0,369,3192.930583
450.0,260,3198.626034
700.0,306,3205.111575
950.0,477,3215.634176
800.0,334,3223.005607
400.0,315,3229.787328
650.0,439,3239.33021
400.0,307,3246.084166
350.0,195,3250.221722
900.0,359,3257.979728
1250.0,471,3268.968732
600.0,238,3274.433568
800.0,314,3281.325923
650.0,311,3288.491629
1150.0,517,3299.657586
1400.0,559,3311.776897
350.0,207,3316.101305
850.0,396,3325.034373
300.0,216,3329.491024
700.0,347,3337.217517
900.0,434,3346.875017
500.0,281,3353.117974
600.0,291,3359.833299
550.0,320,3366.762174
600.0,409,3376.252061
500.0,411,3386.455415
700.0,341,3393.802268
300.0,213,3398.62982
850.0,471,3409.236258
1300.0,568,3422.046289
600.0,368,3430.22053
750.0,396,3438.960569
900.0,394,3447.791082
1200.0,514,3459.126953
400.0,277,3464.967904
800.0,431,3474.523519
650.0,314,3481.55653
900.0,380,3489.771468
650.0,381,3497.957833
300.0,202,3502.136893
700.0,405,3511.324412
400.0,227,3516.003173
550.0,297,3522.651499
350.0,210,3527.202022
650.0,418,3536.353113
500.0,300,3543.207361
850.0,463,3553.148045
350.0,216,3558.309259
700.0,398,3567.077955
350.0,229,3572.059647
500.0,300,3578.347544
750.0,322,3585.911307
750.0,413,3595.10955
400.0,294,3601.533448
400.0,250,3607.021066
750.0,321,3614.046581
1100.0,470,3624.336934
800.0,466,3634.368772
350.0,251,3639.812068
900.0,399,3648.890509
650.0,418,3658.211499
600.0,314,3665.407474
600.0,290,3671.690161
700.0,381,3679.951179
950.0,358,3687.773257
350.0,316,3694.506747
550.0,388,3702.765019
750.0,345,3710.398189
650.0,346,3718.277775
950.0,394,3727.235755
1050.0,421,3736.323618
500.0,358,3744.139246
750.0,500,3755.629015
400.0,233,3760.512385
1000.0,511,3771.697659
750.0,379,3779.975876
600.0,286,3786.374756
850.0,550,3798.188885
1150.0,500,3810.19139
900.0,472,3820.522317
300.0,235,3825.57468
950.0,410,3834.269729
600.0,388,3842.648466
700.0,449,3852.544525
1100.0,595,3865.806218
1250.0,662,3880.265055
300.0,165,3883.798373
750.0,466,3894.158773
750.0,376,3902.091355
450.0,266,3908.156353
1150.0,567,3920.487854
300.0,168,3924.043811
900.0,450,3934.055382
950.0,419,3943.116956
1150.0,719,3958.944771
450.0,331,3966.07193
100.0,198,3970.399925
300.0,269,3976.230324
750.0,391,3984.723309
750.0,300,3991.124097
850.0,554,4003.025983
350.0,282,4009.287941
1000.0,483,4019.48664
650.0,420,4029.277161
650.0,380,4037.845952
500.0,317,4044.599504
550.0,296,4051.025725
600.0,280,4057.22314
400.0,240,4062.173176
700.0,319,4069.165295
750.0,364,4077.572316
550.0,325,4084.851028
1050.0,397,4093.543934
350.0,218,4098.237391
750.0,337,4105.591312
1300.0,696,4121.717155
350.0,169,4125.271558
300.0,465,4135.387967
350.0,203,4139.884059
850.0,668,4154.72873
1000.0,408,4163.928599
1150.0,454,4173.961797
800.0,366,4181.880785
950.0,397,4190.67549
950.0,720,4206.237413
700.0,359,4214.317968
1050.0,726,4230.017748
850.0,660,4245.307621
300.0,247,4250.638229
750.0,346,4257.961231
200.0,243,4263.279637
500.0,563,4275.351625
550.0,331,4282.781783
750.0,323,4290.142264
600.0,590,4302.799243
550.0,355,4310.52403
350.0,277,4316.482975
1300.0,1298,4345.455415
1300.0,1118,4370.44627
1850.0,1442,4402.124388
550.0,287,4408.460661
650.0,409,4417.681467
1300.0,510,4428.817092
1150.0,659,4443.140476
550.0,281,4449.328724
1150.0,488,4459.79748
700.0,438,4469.108405
1200.0,466,4479.929404
350.0,272,4486.164588
1950.0,806,4504.065667
1000.0,421,4513.360081
1500.0,614,4527.475676
650.0,351,4535.138737
350.0,319,4541.85793
1000.0,415,4550.960022
600.0,304,4557.641119
900.0,490,4568.524047
350.0,206,4572.779284
500.0,270,4578.688849
1000.0,430,4588.426238
500.0,258,4593.977541
750.0,330,4600.97597
600.0,280,4607.177728
850.0,402,4616.852174
350.0,312,4623.585953
350.0,242,4628.82893
900.0,375,4637.167276
900.0,366,4645.191079
1500.0,701,4660.487633
400.0,221,4665.328145
650.0,313,4671.917041
400.0,238,4677.2447
1000.0,413,4686.689774
600.0,408,4695.754831
900.0,400,4704.762321
800.0,363,4712.827828
750.0,298,4719.724245
1550.0,649,4733.781896
900.0,550,4745.88236
1350.0,812,4763.620525
500.0,314,4770.664394
700.0,456,4780.400524
800.0,349,4787.994025
1000.0,681,4802.65211
1000.0,583,4816.709838
1150.0,514,4828.26501
800.0,432,4837.548906
650.0,380,4845.732486
750.0,473,4856.077745
550.0,418,4864.941128
1000.0,620,4878.958779
700.0,423,4888.054815
850.0,432,4897.722291
350.0,210,4902.174085
350.0,247,4907.733288
600.0,316,4915.360019
650.0,414,4924.747923
500.0,312,4931.667153
400.0,207,4936.613697
450.0,307,4943.320407
900.0,607,4956.459087
550.0,276,4962.301874
700.0,374,4970.565429
600.0,430,4980.017301
550.0,447,4989.777384
800.0,426,4998.943734
850.0,403,5008.579366
1050.0,445,5018.639187
700.0,403,5027.372813
500.0,298,5033.883217
600.0,331,5042.066876
400.0,304,5049.023812
1300.0,548,5060.694164
600.0,331,5067.88212
800.0,364,5076.141938
750.0,340,5083.208729
750.0,286,5089.508829
500.0,277,5095.409424
600.0,278,5101.35516
400.0,270,5107.421885
750.0,335,5114.981492
750.0,346,5122.407567
750.0,335,5130.03995
500.0,456,5139.780589
750.0,574,5152.169966
850.0,374,5160.424381
1000.0,661,5175.142812
400.0,370,5183.525381
850.0,410,5192.331472
650.0,376,5200.389174
350.0,243,5205.544203
450.0,248,5211.049493
950.0,431,5220.281878
1500.0,563,5233.177787
300.0,202,5237.387398
950.0,429,5246.747022
1000.0,513,5258.004511
600.0,318,5265.04301
400.0,206,5269.326234
700.0,539,5281.25828
700.0,684,5296.129425
1500.0,542,5307.848216
800.0,379,5316.034098
750.0,376,5324.090683
600.0,343,5332.120113
1000.0,475,5342.55459
900.0,466,5352.733437
950.0,452,5362.947793
1100.0,484,5373.424625
600.0,281,5379.746862
950.0,476,5390.042891
600.0,305,5396.679774
550.0,400,5405.386058
850.0,386,5413.821622
1000.0,412,5422.979699
650.0,294,5429.571052
450.0,246,5435.263771
850.0,381,5443.723146
850.0,370,5451.854109
700.0,345,5459.558578
900.0,410,5469.175575
800.0,377,5477.574646
450.0,292,5483.820007
1200.0,655,5497.99432
750.0,368,5505.877463
750.0,434,5515.457446
500.0,244,5521.129213
300.0,202,5525.707234
450.0,338,5532.91427
300.0,222,5537.646849
1050.0,568,5550.236878
850.0,481,5560.686962
850.0,475,5571.240336
650.0,376,5579.406624
400.0,282,5585.549046
500.0,290,5591.84529
400.0,239,5597.180682
450.0,311,5604.73469
700.0,561,5616.910298
350.0,201,5621.269899
800.0,376,5629.145905
950.0,408,5638.025124
550.0,333,5645.102834
1050.0,456,5655.134798
800.0,400,5663.868682
750.0,414,5672.950996
750.0,286,5679.196052
1050.0,487,5689.855935
350.0,199,5694.331848
850.0,364,5702.147854
500.0,302,5708.988684
550.0,409,5717.884082
500.0,316,5724.738089
650.0,320,5732.128005
600.0,295,5738.417355
750.0,387,5746.834914
1100.0,411,5756.485748
600.0,350,5764.466394
900.0,449,5774.22709
1150.0,471,5784.359701
700.0,281,5790.36608
900.0,422,5800.064931
700.0,328,5807.251396
700.0,282,5813.803163
500.0,277,5819.919726
600.0,478,5830.337111
800.0,372,5838.610989
700.0,294,5845.468049
900.0,350,5853.286449
500.0,280,5859.774262
600.0,359,5868.232589
600.0,287,5874.353425
750.0,318,5881.302515
800.0,381,5889.560954
500.0,304,5896.224737
800.0,406,5905.687646
700.0,384,5914.382166
300.0,253,5919.931326
550.0,366,5928.039773
900.0,713,5944.34078
450.0,582,5957.15584
800.0,683,5972.490593
400.0,421,5981.472795
700.0,423,5990.362966
950.0,581,6004.278208
750.0,397,6012.626587
700.0,373,6020.715566
450.0,280,6026.752584
450.0,340,6034.320303
950.0,383,6042.679438
500.0,273,6048.622954
300.0,246,6053.787073
650.0,344,6061.680475
300.0,196,6066.271187
1000.0,482,6076.822035
1400.0,559,6089.539774
400.0,250,6094.991364
750.0,405,6103.932003
450.0,280,6110.015138
450.0,305,6116.406398
600.0,408,6125.60017
800.0,447,6135.303545
550.0,490,6146.537547
400.0,246,6152.105511
900.0,447,6161.637348
900.0,425,6170.991819
1050.0,571,6183.41223
700.0,369,6192.008114
450.0,245,6197.548531
800.0,411,6206.467582
700.0,380,6214.765315
600.0,326,6221.61003
900.0,509,6232.84229
800.0,479,6243.427131
800.0,559,6255.374441
600.0,404,6264.552845
700.0,382,6273.070132
250.0,186,6277.058055
600.0,374,6285.531925
550.0,330,6292.711594
950.0,402,6301.76177
850.0,443,6311.079193
700.0,313,6317.980989
1200.0,554,6331.091738
300.0,221,6336.169362
900.0,408,6344.99536
1100.0,378,6353.628304
1000.0,412,6362.664571
400.0,236,6367.868198
550.0,386,6376.431222
750.0,405,6385.201529
750.0,349,6393.088641
1000.0,566,6405.947302
400.0,347,6413.660918
500.0,281,6419.693969
500.0,350,6427.331204
500.0,421,6436.64035
400.0,248,6442.074832
400.0,228,6446.744237
550.0,375,6454.951174
300.0,237,6460.301938
650.0,325,6467.875388
300.0,204,6472.263917
850.0,458,6482.349155
950.0,508,6493.248591
350.0,261,6498.968355
650.0,413,6508.617459
850.0,411,6517.632605
850.0,719,6533.52123
950.0,549,6545.231328
600.0,371,6553.516136
1150.0,512,6565.683761
1000.0,366,6574.032511
1450.0,654,6588.156569
650.0,295,6594.555377
1050.0,689,6609.808525
500.0,349,6617.189313
750.0,386,6625.460667
700.0,342,6632.939828
750.0,440,6642.862069
1100.0,550,6655.579482
950.0,471,6665.600405
900.0,460,6675.833684
700.0,412,6684.774935
450.0,254,6690.427114
750.0,587,6703.819727
700.0,475,6714.199496
600.0,588,6727.037568
200.0,240,6732.203792
600.0,449,6741.909636
550.0,341,6749.42588
350.0,355,6757.299268
600.0,385,6766.085679
450.0,345,6773.718478
500.0,368,6781.818509
250.0,222,6786.680689
350.0,225,6791.607219
550.0,354,6799.253838
500.0,310,6806.258179
600.0,389,6814.742168
550.0,311,6821.605417
750.0,516,6833.590461
400.0,282,6839.961371
800.0,328,6847.575249
550.0,272,6853.46599
450.0,242,6858.720752
950.0,541,6870.383607
700.0,361,6878.308882
450.0,304,6885.056707
500.0,306,6892.23848
400.0,305,6898.863715
500.0,307,6905.857899
350.0,379,6914.001455
750.0,336,6921.681348
650.0,444,6931.635899
400.0,241,6936.632305
1150.0,549,6948.796614
1300.0,596,6961.63262
350.0,265,6967.44303
700.0,294,6973.963151
550.0,284,6980.144639
600.0,292,6986.402689
1100.0,496,6997.436961
1050.0,391,7005.879408
1300.0,490,7016.627068
650.0,330,7024.033704
1200.0,491,7035.451293
300.0,169,7039.130713
850.0,402,7048.269301
700.0,424,7057.842376
350.0,389,7066.308358
400.0,301,7072.735395
500.0,399,7081.358445
950.0,323,7088.840194
750.0,319,7095.836336
500.0,211,7100.497303
950.0,512,7111.517857
500.0,359,7119.628147
300.0,217,7124.17029
400.0,196,7128.421051
850.0,799,7145.71847
450.0,433,7155.654181
550.0,478,7166.099546
400.0,206,7170.723567
700.0,447,7180.570128
400.0,235,7185.752228
950.0,463,7196.403948
700.0,308,7203.013793
1050.0,461,7212.931137
900.0,447,7222.757724
500.0,273,7228.69603
650.0,344,7236.202459
800.0,507,7247.098114
950.0,500,7258.309485
1150.0,603,7272.907413
450.0,247,7278.24375
350.0,232,7283.705707
300.0,202,7288.202425
350.0,203,7292.389844
750.0,283,7298.661695
1000.0,442,7308.102536
300.0,200,7312.766337
250.0,186,7316.69152
300.0,203,7321.493652
400.0,279,7327.917677
550.0,306,7334.53088
250.0,234,7339.589485
600.0,276,7345.560748
350.0,215,7350.297714
350.0,209,7354.713127
1000.0,434,7364.555689
450.0,247,7370.140921
500.0,376,7378.63918
750.0,332,7386.039263
450.0,285,7392.287097
500.0,238,7397.448248
250.0,229,7402.465563
900.0,353,7410.167228
400.0,240,7415.352386
600.0,307,7422.09807
700.0,383,7430.929856
300.0,264,7436.952406
600.0,385,7445.555127
650.0,311,7452.301711
600.0,359,7460.663543
750.0,431,7471.054197
650.0,304,7477.888713
1000.0,518,7488.977551
550.0,298,7495.355711
900.0,418,7504.231686
350.0,218,7509.2243
1100.0,449,7519.123772
500.0,312,7525.772384
700.0,382,7533.966629
500.0,330,7541.384493
700.0,426,7550.688505
650.0,376,7559.35335
750.0,325,7566.558356
600.0,347,7574.221611
700.0,374,7582.305468
700.0,372,7590.520532
1050.0,610,7604.755229
550.0,331,7611.832605
600.0,318,7618.750444
650.0,393,7627.397503
650.0,382,7635.991989
700.0,418,7645.710818
750.0,508,7657.904341
700.0,326,7665.189043
450.0,289,7671.834292
1050.0,470,7681.940271
800.0,395,7690.621557
950.0,424,7700.140269
900.0,400,7709.146756
1050.0,540,7720.985213
700.0,328,7728.098091
700.0,351,7735.545912
800.0,390,7744.295116
900.0,485,7755.206752
650.0,281,7761.159093
900.0,485,7771.737823
850.0,486,7782.484014
750.0,328,7789.627138
1050.0,479,7800.400252
900.0,380,7808.634841
750.0,434,7818.549441
500.0,319,7825.788211
900.0,455,7835.808154
1050.0,484,7846.418632
950.0,450,7856.748836
700.0,370,7865.074259
600.0,302,7871.855981
600.0,329,7878.998299
850.0,386,7887.335075
850.0,321,7894.599857
750.0,352,7902.254863
950.0,437,7911.782526
500.0,323,7918.986875
500.0,372,7926.72529
700.0,341,7934.085425
700.0,329,7941.581353
1500.0,682,7957.573024
1100.0,436,7966.863246
900.0,455,7976.768705
850.0,405,7985.728876
300.0,281,7991.784241
1100.0,529,8003.53547
1350.0,611,8017.46541
1150.0,554,8029.85986
500.0,306,8036.976707
1400.0,546,8049.032003
950.0,488,8059.504874
800.0,321,8066.241446
800.0,397,8074.828905
1350.0,626,8089.094294
850.0,346,8096.679966
650.0,300,8103.035026
700.0,307,8109.78156
700.0,315,8116.425538
1250.0,544,8128.459609
650.0,276,8134.949977
1200.0,547,8147.046896
600.0,340,8154.371229
700.0,312,8161.363884
800.0,353,8169.136543
1000.0,409,8177.87003
400.0,322,8185.108672
800.0,485,8196.104949
950.0,443,8205.833453
600.0,356,8213.870586
1000.0,483,8224.823601
1100.0,483,8235.131974
650.0,337,8242.321146
1150.0,546,8254.826215
450.0,328,8261.837473
750.0,341,8269.213952
850.0,441,8278.863208
800.0,345,8287.392949
900.0,451,8297.626814
850.0,415,8306.788689
1000.0,395,8315.268225
800.0,352,8323.022245
700.0,348,8330.621461
400.0,196,8334.992431
1200.0,644,8349.02983
600.0,285,8355.222526
600.0,282,8361.371724
350.0,229,8366.441645
1000.0,408,8375.252548
500.0,284,8381.430224
1250.0,594,8395.109617
650.0,278,8401.083901
600.0,320,8408.059168
1050.0,373,8415.941775
900.0,414,8425.61529
600.0,269,8431.40913
500.0,278,8437.305387
1050.0,433,8446.645387
1200.0,442,8456.606685
900.0,448,8466.619326
550.0,273,8472.457694
700.0,437,8481.990208
500.0,260,8487.78577
800.0,616,8501.333396
700.0,411,8510.220541
1000.0,538,8521.825016
700.0,343,8529.410546
1000.0,489,8539.836765
1650.0,510,8550.952561
1300.0,638,8564.753772
1450.0,648,8578.919226
850.0,404,8587.631271
750.0,328,8594.850624
850.0,412,8603.958409
1350.0,720,8620.240896
1150.0,507,8631.420684
850.0,367,8639.389381
800.0,408,8648.200184
1150.0,466,8658.000509
700.0,294,8664.669577
700.0,339,8672.222716
650.0,283,8678.610676
650.0,274,8684.517716
800.0,410,8693.490556
450.0,275,8699.578014
1000.0,451,8709.098178
950.0,423,8718.342432
650.0,286,8724.605123
1250.0,507,8735.98733
900.0,455,8745.675853
900.0,553,8758.125712
900.0,348,8765.717012
650.0,346,8773.431568
900.0,392,8781.993318
800.0,411,8791.354495
800.0,517,8802.677616
950.0,487,8813.205833
600.0,322,8820.469576
850.0,408,8829.443019
1150.0,628,8842.813522
750.0,375,8851.016074
650.0,374,8859.653179
750.0,485,8869.946455
1150.0,506,8880.949834
1100.0,585,8893.622568
900.0,374,8901.789386
800.0,356,8909.574076
700.0,496,8920.378596
600.0,310,8927.48283
650.0,277,8933.467485
1050.0,395,8942.082925
1050.0,506,8953.403871
500.0,278,8959.623677
1100.0,551,8972.092857
2200.0,878,8991.4648
1100.0,470,9001.710975
850.0,394,9010.691336
1150.0,563,9022.750427
1300.0,622,9036.666085
950.0,442,9046.557438
900.0,302,9052.963628
950.0,505,9063.846779
1050.0,456,9073.87347
750.0,338,9081.774431
950.0,415,9090.722533
1250.0,447,9100.712384
1250.0,618,9114.755423
1550.0,511,9125.840917
1700.0,670,9140.573596
750.0,287,9146.792876
800.0,402,9155.475865
850.0,352,9163.352831
1150.0,516,9174.49647
1250.0,547,9186.305919
1300.0,570,9199.110403
1200.0,407,9207.980829
700.0,352,9215.623312
1000.0,517,9226.841612
1150.0,410,9235.696072
1050.0,416,9244.734086
1300.0,451,9255.095981
1050.0,477,9265.922115
1100.0,418,9274.969584
1200.0,478,9285.423338
950.0,398,9294.376642
350.0,202,9298.755914
1200.0,622,9312.334152
850.0,411,9321.398564
1250.0,573,9334.074552
350.0,239,9339.517704
1200.0,508,9351.348757
600.0,280,9357.649609
900.0,324,9365.192609
800.0,341,9372.338231
750.0,357,9380.24016
1050.0,471,9390.384863
850.0,484,9400.996342
1600.0,566,9413.606638
1600.0,636,9427.399935
1600.0,663,9441.758677
800.0,407,9450.491634
400.0,231,9455.443877
850.0,372,9463.922817
950.0,476,9474.534721
1100.0,402,9483.276484
1200.0,395,9491.727707
1300.0,553,9503.582716
1350.0,545,9515.382976
1150.0,505,9526.468554
950.0,434,9535.868644
1150.0,487,9546.636689
950.0,412,9556.029907
1000.0,439,9565.670328
800.0,365,9573.609535
1300.0,505,9584.641736
1300.0,644,9598.588367
1050.0,389,9607.00932
1100.0,408,9616.575803
500.0,295,9623.483012
1150.0,508,9635.855964
900.0,449,9645.70181
1150.0,504,9656.539285
950.0,424,9665.87164
750.0,340,9673.485289
700.0,321,9680.522321
950.0,403,9689.730721
1100.0,418,9699.780184
850.0,372,9708.146295
950.0,371,9716.626415
650.0,309,9723.865411
600.0,262,9729.639673
1200.0,573,9741.934265
600.0,262,9747.519
1250.0,499,9758.605149
1850.0,816,9777.082734
1400.0,617,9790.274911
650.0,270,9796.135257
650.0,278,9802.598278
1200.0,579,9815.438502
350.0,253,9820.906532
1850.0,804,9838.567388
1150.0,499,9849.474889
750.0,355,9857.286965
750.0,267,9863.02574
1150.0,530,9874.566361
1150.0,381,9883.069157
1150.0,431,9892.701941
1550.0,713,9908.946569
1150.0,520,9919.93671
700.0,392,9928.621617
1550.0,495,9940.476002
1400.0,520,9952.226104
1200.0,477,9962.673404
900.0,332,9969.756832
1150.0,371,9977.794046
800.0,372,9986.150991
950.0,428,9995.430025
1100.0,546,10007.743032
1450.0,714,10022.874576
700.0,384,10031.283267
850.0,409,10040.437614
700.0,342,10048.082562
1500.0,585,10061.364888
1100.0,389,10069.945014
1400.0,659,10084.483318
400.0,189,10088.50009
1000.0,370,10096.668237
1100.0,497,10107.796064
1650.0,633,10121.829996
450.0,245,10127.09383
1150.0,440,10136.415838
1400.0,515,10148.512052
750.0,283,10154.779426
1400.0,552,10167.027196
600.0,283,10173.065906
550.0,346,10180.720226
700.0,472,10190.846801
2050.0,884,10210.459643
1950.0,793,10227.80995
1200.0,546,10240.025125
1050.0,544,10252.215975
450.0,275,10258.250082
750.0,304,10265.014412
1750.0,741,10281.148054
1350.0,824,10300.615873
2500.0,920,10320.732398
2100.0,851,10339.672643
550.0,309,10346.588225
1800.0,778,10363.337555
1950.0,714,10378.638553
800.0,400,10387.48145
1950.0,629,10401.148976
1800.0,640,10415.423689
1200.0,585,10428.55955
1050.0,511,10439.680343
750.0,352,10447.412063
1100.0,664,10461.938084
1350.0,549,10474.229292
1700.0,633,10488.350145
2200.0,713,10504.270571
1900.0,638,10517.770777
2600.0,1259,10545.685034
2000.0,745,10562.509328
1100.0,492,10573.151447
2200.0,805,10590.504821
1550.0,567,10603.531048
1650.0,632,10617.228909
1400.0,640,10631.750775
1600.0,562,10643.923674
650.0,785,10660.7817
550.0,615,10674.553194
500.0,380,10682.999935
1450.0,538,10694.953423
1300.0,472,10705.667808
1750.0,567,10717.845193
1450.0,500,10729.099644
950.0,374,10737.81042
1400.0,503,10748.727158
1800.0,742,10765.021068
950.0,406,10774.036663
350.0,271,10780.232539
550.0,380,10788.895105
950.0,346,10796.208866
1150.0,416,10805.418178
700.0,309,10812.097299
950.0,339,10819.937414
750.0,367,10828.374613
800.0,368,10836.348909
1400.0,566,10849.400179
1050.0,407,10858.218307
900.0,318,10865.269529
1200.0,484,10875.962914
1250.0,470,10886.001351
1250.0,538,10897.775507
1300.0,540,10909.482675
1050.0,442,10919.403343
1150.0,538,10931.490521
850.0,381,10940.100096
550.0,292,10946.671163
800.0,543,10959.233351
1100.0,473,10969.980616
850.0,370,10977.989221
750.0,318,10984.714602
1250.0,595,10998.544907
1550.0,554,11010.795757
850.0,404,11019.657253
1750.0,633,11033.265611
1650.0,567,11045.809273
1450.0,569,11058.273261
1750.0,651,11072.254607
1400.0,443,11082.120789
950.0,401,11090.743019
1600.0,557,11103.312267
1000.0,419,11112.446244
1450.0,570,11124.963816
500.0,240,11130.149591
1100.0,587,11142.822013
1250.0,528,11154.791814
1150.0,509,11165.919858
1200.0,476,11176.432384
1450.0,612,11189.690313
750.0,376,11198.006288
1500.0,543,11209.917142
1050.0,413,11218.689027
1500.0,571,11231.327416
1200.0,434,11240.636935
1350.0,572,11252.862586
1150.0,468,11263.070302
1300.0,572,11275.638611
1200.0,483,11286.549747
1950.0,605,11300.153848
1100.0,472,11310.770017
1600.0,711,11326.288148
1250.0,482,11336.618267
1000.0,403,11345.151469
1200.0,427,11354.726691
1050.0,406,11364.440802
1300.0,477,11375.090156
1150.0,432,11385.065335
600.0,279,11391.147451
1200.0,513,11402.265323
1050.0,401,11410.889265
1700.0,598,11425.136802
1450.0,563,11437.71586
1450.0,502,11449.096279
600.0,284,11455.312994
1600.0,603,11468.455848
1100.0,416,11477.774149
450.0,246,11483.081052
1550.0,606,11496.105699
1250.0,443,11505.607861
1400.0,479,11516.80581
450.0,211,11521.162291
1600.0,720,11537.32034
1500.0,610,11550.826016
1300.0,448,11561.215252
800.0,304,11567.929933
1200.0,391,11576.292394
1450.0,572,11588.675783
1000.0,410,11597.74674
1400.0,540,11609.715232
700.0,427,11618.795554
1550.0,521,11630.326272
550.0,269,11636.117633
1750.0,787,11653.210056
1400.0,502,11664.977298
1350.0,605,11678.591431
1350.0,541,11690.375543
650.0,363,11698.144649
1500.0,577,11710.586588
1600.0,675,11725.658514
1150.0,417,11734.573115
1150.0,436,11744.228086
1500.0,476,11754.966448
1600.0,644,11770.03949
900.0,364,11778.102489
1450.0,564,11790.120742
1300.0,478,11800.92598
750.0,350,11808.715541
1050.0,510,11819.703991
2500.0,869,11838.307362
1150.0,444,11848.048023
800.0,311,11854.585524
1750.0,613,11868.429427
1100.0,482,11879.743626
850.0,410,11888.953214
1100.0,407,11897.87239
1550.0,554,11909.837965
550.0,241,11915.579185
2350.0,745,11931.634801
1950.0,758,11948.699563
950.0,415,11958.035552
1750.0,740,11975.265388
1600.0,531,11986.66811
2150.0,739,12002.860945
850.0,416,12011.936432
1500.0,471,12022.460425
1350.0,480,12032.819914
1300.0,551,12044.90679
1400.0,580,12057.582778
1600.0,639,12071.72825
1450.0,581,12084.893169
1150.0,520,12096.591948
1450.0,604,12109.748586
1600.0,610,12123.011508
950.0,470,12133.34534
1450.0,524,12144.667184
1300.0,503,12155.436261
1150.0,387,12164.081525
1200.0,445,12174.080621
1000.0,391,12182.63331
1550.0,606,12195.891665
1300.0,550,12207.911026
1100.0,514,12219.325937
950.0,391,12228.23761
1950.0,748,12244.587487
1300.0,595,12257.507077
1450.0,554,12269.818058
1200.0,540,12282.471632
850.0,383,12290.929216
900.0,445,12301.211735
1400.0,586,12313.548238
1000.0,421,12322.963691
2150.0,740,12338.900066
950.0,405,12347.813965
700.0,304,12354.521733
1350.0,586,12367.788299
1000.0,405,12376.628484
1400.0,649,12390.572257
200.0,216,12395.011004
1450.0,521,12406.59724
1450.0,539,12418.931275
1300.0,503,12430.059126
950.0,469,12440.418907
800.0,404,12449.156594
1550.0,664,12463.933444
1100.0,404,12472.580006
600.0,337,12479.647814
1400.0,607,12493.566936
1800.0,701,12508.682897
1550.0,639,12523.220256
2700.0,1063,12546.712132
1400.0,705,12561.753296
1200.0,397,12570.627928
1100.0,476,12581.544402
1900.0,848,12600.047033
1900.0,702,12615.104558
1200.0,491,12625.708673
1400.0,553,12637.958328
1500.0,548,12650.361943
1600.0,684,12665.112592
1500.0,680,12679.7677
1300.0,411,12688.695874
800.0,455,12698.993338
1650.0,605,12713.029966
1300.0,509,12724.011995
1350.0,629,12737.418906
550.0,307,12744.316533
2150.0,777,12761.487199
1500.0,575,12774.486923
2700.0,1040,12797.769938
700.0,307,12804.444779
1600.0,641,12818.513891
1650.0,549,12830.466202
2250.0,814,12848.059573
1750.0,721,12864.20363
2050.0,740,12881.950247
2000.0,819,12899.780625
2100.0,783,12916.714452
1000.0,425,12926.349514
1300.0,547,12938.077869
950.0,416,12946.987521
1500.0,709,12962.972884
2050.0,819,12981.160519
800.0,439,12990.795415
2500.0,1042,13014.086378
750.0,352,13021.554703
2100.0,848,13040.456071
1800.0,629,13054.50512
800.0,456,13064.307789
1050.0,420,13073.408411
1350.0,529,13084.881816
1400.0,555,13097.198755
1900.0,744,13113.800217
1550.0,498,13125.433728
1350.0,620,13139.059409
1150.0,509,13150.307538
900.0,515,13161.541575
1050.0,476,13171.839765
1350.0,431,13181.910035
1350.0,505,13193.414373
2700.0,1028,13215.859594
1750.0,673,13230.827762
950.0,420,13240.26715
1050.0,489,13250.86394
1150.0,537,13262.369529
950.0,403,13271.01888
800.0,314,13278.41627
1400.0,512,13289.739727
1500.0,737,13305.855616
750.0,408,13314.558853
800.0,337,13322.105203
800.0,406,13330.796592
1200.0,512,13341.967892
1550.0,595,13354.899052
1400.0,648,13369.253259
1300.0,517,13380.772977
1450.0,580,13393.702512
1200.0,450,13403.995701
1050.0,408,13413.016478
1350.0,663,13427.311916
1300.0,598,13440.340629
1500.0,798,13458.230268
1750.0,663,13472.823807
950.0,406,13481.74623
1550.0,1324,13511.063628
1500.0,539,13522.641589
1550.0,644,13536.806654
1100.0,562,13549.097967
1050.0,510,13560.154878
1350.0,514,13571.31127
700.0,309,13578.054665
1450.0,494,13588.932825
1050.0,554,13601.4793
1300.0,511,13613.03042
1400.0,464,13622.961351
1550.0,601,13635.921196
850.0,319,13643.225345
1500.0,586,13655.792055
1750.0,755,13672.341747
1100.0,412,13681.515515
1550.0,577,13694.788638
1600.0,576,13707.069378
1900.0,775,13724.682223
1000.0,395,13733.253596
1600.0,603,13746.321983
1000.0,431,13755.713831
2050.0,745,13772.643158
1650.0,637,13786.651936
1350.0,451,13796.575324
1550.0,509,13807.76172
1900.0,605,13820.799732
1550.0,505,13831.677953
1550.0,508,13842.870989
2500.0,937,13864.579108
1950.0,678,13879.132577
2500.0,963,13900.020699
1400.0,509,13910.975771
2200.0,822,13929.508142
1550.0,546,13941.76384
1950.0,756,13959.307163
1650.0,621,13973.217475
2200.0,838,13991.471966
1800.0,665,14005.772313
1350.0,515,14017.088228
2600.0,1002,14038.771795
2100.0,868,14058.73655
2100.0,845,14077.386254
2150.0,830,14095.29922
1800.0,649,14109.661262
2500.0,964,14131.44243
2800.0,892,14151.266316
1500.0,637,14165.019155
2400.0,893,14184.803548
2250.0,1386,14215.634299
2050.0,711,14231.879244
1850.0,648,14246.225825
1450.0,510,14257.572757
1350.0,534,14269.163033
1900.0,784,14286.454968
1550.0,640,14300.28836
650.0,322,14307.571867
1450.0,579,14320.198724
2250.0,1235,14347.251195
1600.0,711,14362.695361
1950.0,1056,14386.539764
1900.0,741,14402.795824
2100.0,784,14419.678641
1450.0,612,14434.062364
1400.0,518,14445.638349
1650.0,828,14463.710373
2050.0,719,14479.087722
2350.0,1031,14502.053714
1000.0,416,14511.663071
2600.0,1077,14535.153985
2200.0,930,14555.18889
550.0,315,14562.403128
250.0,289,14568.56002
1500.0,549,14580.543319
1700.0,742,14597.265852
1250.0,471,14607.370635
350.0,214,14611.776249
1600.0,885,14631.282534
1450.0,705,14646.608453
1300.0,577,14659.627487
1000.0,387,14668.042593
1300.0,638,14682.53583
900.0,322,14689.645921
1850.0,601,14702.454524
1550.0,589,14715.518895
1450.0,601,14728.453183
1900.0,651,14743.27695
1750.0,691,14758.90865
1550.0,655,14773.313933
1300.0,672,14787.698933
2700.0,968,14809.325296
1600.0,590,14822.194391
1050.0,450,14832.481481
1250.0,500,14843.335677
1700.0,843,14861.389925
1800.0,676,14877.164194
650.0,273,14883.184514
2300.0,831,14900.966182
1050.0,495,14912.099169
1400.0,508,14923.041293
850.0,401,14931.807096
850.0,320,14939.025859
750.0,380,14947.580991
1200.0,506,14959.863928
1000.0,380,14968.016382
250.0,306,14974.601513
850.0,416,14984.014838
1100.0,467,14994.120666
950.0,582,15006.490942
1000.0,369,15014.935081
750.0,352,15023.024972
2250.0,987,15044.569199
1000.0,509,15056.162141
750.0,278,15062.212216
2050.0,1036,15085.328893
1000.0,408,15094.394672
1100.0,583,15107.426933
1400.0,708,15123.315924
450.0,249,15128.929269
1100.0,470,15139.062711
600.0,304,15145.398179
950.0,356,15153.635738
850.0,348,15161.149328
1150.0,480,15171.767559
700.0,279,15177.885371
800.0,312,15184.7988
400.0,239,15190.356082
1000.0,575,15203.351856
700.0,288,15209.75721
1100.0,472,15220.181001
750.0,401,15228.814823
1150.0,504,15239.753919
750.0,294,15246.151287
1300.0,501,15256.947593
900.0,372,15264.926888
800.0,439,15275.120819
650.0,308,15281.702061
1050.0,385,15290.042105
500.0,238,15295.135153
1100.0,456,15305.034156
1050.0,487,15315.432826
1200.0,558,15327.802147
900.0,402,15336.9649
400.0,282,15343.341017
800.0,381,15351.842511
2100.0,832,15369.974991
2500.0,1011,15393.259404
1000.0,398,15401.888038
900.0,445,15411.920519
1100.0,530,15423.422599
600.0,260,15428.900179
1700.0,615,15442.434359
1150.0,438,15451.87198
950.0,370,15459.802849
1300.0,556,15471.688388
1850.0,706,15487.547905
600.0,237,15492.623785
1550.0,546,15504.581024
1300.0,503,15515.383604
1600.0,730,15531.204496
1100.0,534,15543.11036
1000.0,444,15552.77244
1050.0,411,15562.288805
1650.0,709,15578.584264
2150.0,870,15597.52581
1800.0,619,15611.10098
1050.0,415,15620.366633
1700.0,739,15636.751934
1900.0,673,15652.272869
1500.0,560,15664.30458
1350.0,549,15676.803728
1500.0,565,15690.306257
1350.0,534,15702.122261
2600.0,870,15721.188435
1100.0,385,15729.454851
2100.0,744,15746.052893
1700.0,647,15760.100405
1400.0,586,15773.602741
1250.0,475,15784.339212
1050.0,518,15795.471267
2050.0,897,15815.104777
1250.0,706,15830.073542
1800.0,833,15848.832064
2900.0,946,15869.477586
1350.0,579,15881.823961
1400.0,548,15894.400418
2300.0,955,15915.571175
1600.0,886,15934.795435
2500.0,961,15956.379641
1750.0,687,15971.221151
1100.0,477,15981.826272
2000.0,844,15999.959415
950.0,439,16009.77987
1350.0,511,16021.148482
1450.0,611,16034.319644
1900.0,930,16054.982207
2200.0,901,16075.37601
1650.0,630,16089.35269
1800.0,797,16106.670915
1050.0,489,16117.758428
1750.0,747,16133.736048
2600.0,868,16153.049768
2600.0,947,16173.944852
2500.0,1225,16200.514766
1600.0,566,16213.184964
1550.0,567,16225.698069
2050.0,772,16243.772095
1650.0,605,16257.032032
1100.0,464,16267.19228
1200.0,511,16278.803609
650.0,353,16286.983603
850.0,320,16293.832898
650.0,394,16302.581599
2350.0,842,16320.742074
1350.0,607,16334.255925
1100.0,544,16346.050426
1500.0,599,16358.919347
1200.0,532,16370.4435
1250.0,509,16381.768502
1900.0,708,16397.034444
2800.0,985,16418.502631
2050.0,798,16436.073042
950.0,475,16446.795077
1550.0,597,16459.895631
1250.0,530,16471.317021
1000.0,336,16478.481959
800.0,452,16488.787077
1950.0,741,16505.981812
1150.0,455,16515.647923
1300.0,744,16532.302639
950.0,509,16543.362618
1500.0,515,16554.588316
2050.0,703,16569.629245
550.0,248,16575.161743
1400.0,725,16591.216805
1450.0,598,16604.425848
1100.0,439,16613.858568
1950.0,922,16634.498492
1800.0,634,16648.50508
1050.0,392,16656.840629
2000.0,788,16674.256098
500.0,280,16680.493121
1250.0,516,16691.904195
2350.0,865,16711.183238
2100.0,848,16730.537592
1850.0,658,16744.690598
800.0,412,16753.874418
900.0,439,16763.659468
1100.0,623,16776.945492
1350.0,630,16790.641519
1100.0,548,16802.655088
1250.0,612,16816.017229
2350.0,965,16837.243575
1050.0,589,16850.322264
1200.0,707,16865.530788
600.0,391,16874.421578
550.0,286,16880.42884
750.0,519,16891.519571
1100.0,619,16905.20339
2000.0,1099,16929.684155
1150.0,510,16940.751894
1150.0,515,16952.614355
2600.0,1041,16975.108197
1800.0,702,16990.147879
1850.0,853,17008.841871
950.0,405,17017.914081
2050.0,832,17036.226012
2050.0,695,17051.135604
750.0,343,17058.872454
2600.0,921,17079.030824
1250.0,653,17093.181025
1500.0,655,17107.994493
1350.0,614,17121.630049
1650.0,734,17137.904435
2200.0,1017,17159.858785
1750.0,690,17175.511747
1500.0,547,17187.25573
1150.0,407,17195.922104
650.0,279,17201.937772
1500.0,632,17215.903304
1450.0,571,17228.338994
1950.0,758,17245.237828
1150.0,529,17257.009131
800.0,304,17263.799309
2900.0,983,17285.014082
1400.0,509,17296.250194
2200.0,775,17313.445598
1350.0,582,17325.849804
1450.0,605,17339.220204
2500.0,1331,17368.344501
2000.0,954,17389.848537
2700.0,1209,17416.469537
2300.0,906,17437.089796
2150.0,836,17455.910597
2500.0,931,17475.932554
1250.0,513,17487.109039
1900.0,720,17503.146049
2700.0,1225,17529.901518
2700.0,1005,17552.241439
1300.0,643,17566.506558
2500.0,916,17586.791298
2300.0,1077,17610.871132
1700.0,681,17625.887265
1200.0,514,17636.993269
2600.0,933,17657.227351
1550.0,677,17672.375147
1050.0,433,17681.797446
1500.0,557,17693.707006
900.0,376,17701.774084
1950.0,738,17718.28583
2200.0,900,17737.662576
1500.0,644,17751.764815
2200.0,845,17770.666859
1650.0,613,17783.752306
1600.0,613,17796.964414
1750.0,678,17812.103924
2050.0,705,17827.585536
1650.0,702,17843.118055
1500.0,644,17856.847866
1950.0,613,17870.463935
2500.0,950,17890.733516
2050.0,823,17909.917589
2150.0,862,17928.51978
1800.0,705,17944.736807
2000.0,705,17960.648487
2050.0,740,17976.354403
1700.0,762,17993.313846
1850.0,609,18007.000282
1400.0,580,18019.512085
1350.0,538,18031.479965
1500.0,606,18044.66603
1650.0,573,18057.229827
1450.0,526,18068.691172
1100.0,442,18078.457944
1250.0,575,18091.065434
900.0,411,18100.051748
2500.0,934,18120.090625
1800.0,672,18134.923175
1950.0,782,18151.734577
2050.0,760,18168.621342
1900.0,729,18184.154897
1050.0,454,18194.205967
2500.0,944,18214.751221
1500.0,478,18225.185328
1900.0,745,18241.385602
2500.0,865,18260.726191
1750.0,788,18277.938766
2150.0,1039,18301.052517
2700.0,1141,18325.808667
1550.0,516,18337.159049
1000.0,592,18350.498943
2250.0,976,18371.587832
2150.0,744,18387.920177
1600.0,703,18403.359571
2600.0,976,18424.899534
2000.0,953,18445.635216
1250.0,410,18454.70559
400.0,197,18459.268665
2150.0,746,18475.425073
2500.0,879,18494.41618
2100.0,900,18513.983127
2400.0,1077,18537.722749
1450.0,550,18550.627841
950.0,460,18561.227454
1900.0,650,18575.077158
2600.0,1044,18597.966201
1350.0,629,18611.493543
1450.0,518,18622.959757
1600.0,850,18641.642141
1800.0,680,18656.330371
2500.0,968,18677.291293
1750.0,666,18692.078731
1800.0,656,18706.381989
1950.0,687,18721.339725
2250.0,1061,18744.424183
2500.0,896,18763.94394
1550.0,494,18774.7532
2500.0,1050,18797.522161
1600.0,618,18810.987296
1150.0,720,18826.990233
1550.0,513,18838.395952
2600.0,1067,18861.677353
2200.0,928,18881.690418
1650.0,551,18894.090969
2600.0,1016,18916.910459
1650.0,628,18930.539762
2000.0,822,18949.870497
2700.0,964,18971.083841
2600.0,924,18991.702298
2700.0,952,19012.558371
1650.0,730,19028.526751
2800.0,997,19050.122607
1850.0,822,19067.95871
2100.0,704,19083.195148
2000.0,653,19097.80375
2000.0,1059,19120.899965
1700.0,610,19133.77488
1900.0,692,19150.389818
2500.0,1118,19174.65384
1250.0,508,19185.553797
2500.0,935,19206.197041
1900.0,819,19223.753748
1700.0,542,19235.890371
2500.0,1002,19257.733861
1700.0,679,19272.867597
2000.0,711,19288.345768
2600.0,1008,19310.883757
1750.0,714,19326.209822
1850.0,692,19341.15083
2450.0,1244,19369.0352
2600.0,902,19388.418155
2200.0,799,19405.939641
3100.0,1072,19429.641271
2500.0,969,19451.58814
3400.0,1210,19478.581552
2700.0,1041,19501.375159
1550.0,507,19512.48231
2700.0,1172,19538.52227
2700.0,1026,19561.216758
2100.0,789,19579.071798
1800.0,832,19596.882989
2450.0,843,19615.55702
2050.0,733,19631.333058
2500.0,922,19651.764941
1200.0,538,19664.446307
1350.0,557,19676.488928
2500.0,834,19694.480234
1450.0,616,19707.954971
1900.0,752,19724.681596
1550.0,602,19738.780153
2500.0,881,19757.790382
2500.0,847,19776.296902
2500.0,822,19794.838745
2400.0,745,19810.872973
2350.0,915,19831.523801
1900.0,747,19847.428248
1100.0,579,19860.112168
1800.0,785,19877.092937
2800.0,1034,19899.767218
1550.0,470,19910.001562
2050.0,811,19927.591058
1150.0,501,19938.760224
2500.0,973,19960.40135
2300.0,949,19981.108963
2800.0,1016,20003.521729
2500.0,873,20022.75031
1500.0,510,20033.962436
2500.0,1025,20056.841235
1650.0,787,20074.113349
1400.0,609,20087.493851
1000.0,408,20096.477108
2500.0,896,20116.09319
2450.0,836,20134.344607
2250.0,828,20152.637098
850.0,384,20161.235611
1950.0,774,20177.873771
2350.0,926,20198.235064
3000.0,1113,20223.04266
1900.0,1026,20245.412084
2300.0,905,20265.158734
1250.0,497,20275.7631
2500.0,971,20297.04377
2600.0,968,20318.239173
2600.0,1042,20341.107198
2700.0,1261,20369.100711
2700.0,1063,20391.919384
1650.0,698,20406.993028
1750.0,674,20421.806695
2500.0,1068,20445.241319
1750.0,587,20458.301429
2250.0,972,20480.443908
2500.0,967,20501.841709
2600.0,925,20522.597765
2600.0,927,20542.352233
1650.0,591,20555.67743
2050.0,796,20573.255518
2500.0,953,20593.972555
1650.0,685,20609.554675
1150.0,473,20619.708028
950.0,405,20628.642264
2800.0,921,20649.685377
1900.0,713,20665.215138
2400.0,854,20684.43807
2000.0,731,20700.820069
2100.0,795,20718.443902
2400.0,936,20739.473619
2600.0,945,20759.866563
1900.0,728,20776.485041
1250.0,481,20787.291707
2500.0,897,20807.04608
1550.0,478,20817.386049
2600.0,1029,20840.731083
2500.0,986,20862.38186
2500.0,971,20884.530583
2200.0,920,20904.471776
1550.0,607,20917.674911
1600.0,679,20932.970509
2800.0,1214,20959.132788
1000.0,289,20966.059703
2600.0,935,20987.061181
2700.0,999,21009.467272
2050.0,744,21026.029907
1850.0,821,21043.757458
1800.0,660,21057.787639
2400.0,897,21077.294473
2000.0,644,21091.615193
1600.0,670,21106.311952
1900.0,687,21122.005645
2000.0,731,21137.666926
2500.0,1100,21161.852681
2700.0,1105,21185.848787
2700.0,1090,21209.463591
1550.0,672,21224.035455
2700.0,1104,21248.388859
2350.0,910,21267.956807
2050.0,793,21285.474766
2500.0,1071,21309.844967
1750.0,627,21323.17016
1600.0,821,21341.255861
2300.0,943,21362.152362
2200.0,802,21380.308954
2050.0,836,21399.101921
2350.0,961,21420.161038
2200.0,747,21436.658402
2700.0,1067,21460.583513
2500.0,872,21479.384022
2600.0,977,21500.681988
2700.0,1009,21523.219068
1800.0,701,21538.91555
1300.0,503,21550.225073
900.0,377,21558.267345
850.0,399,21567.130509
1450.0,609,21580.814247
950.0,417,21590.006822
2800.0,1008,21612.629335
1800.0,732,21628.482478
2500.0,911,21648.460813
2600.0,1104,21673.010566
2300.0,931,21694.658996
2100.0,943,21716.525841
2700.0,1052,21740.16794
1900.0,639,21754.184303
1800.0,682,21770.037963
2900.0,1212,21796.197722
2800.0,1047,21820.028561
2900.0,1088,21844.201419
2100.0,739,21860.881796
2600.0,1054,21884.201844
1450.0,512,21895.157637
2800.0,1051,21918.770845
1950.0,791,21935.793341
2500.0,929,21956.05984
2450.0,866,21975.398475
2050.0,713,21991.107547
2500.0,1055,22014.327526
2250.0,704,22029.521614
2250.0,875,22049.571017
2900.0,878,22069.84324
2700.0,961,22091.885298
1800.0,738,22109.13958
1750.0,748,22126.098709
2250.0,709,22141.945549
1650.0,539,22153.736658
2500.0,945,22174.427039
2050.0,676,22188.851063
2200.0,704,22204.799453
1850.0,831,22222.666185
1950.0,683,22237.692531
2600.0,1008,22260.119955
2500.0,837,22278.325639
2600.0,910,22298.185483
2600.0,852,22317.267678
2800.0,1044,22340.3911
2600.0,897,22360.057571
2350.0,943,22380.941234
2600.0,1035,22403.909332
2500.0,850,22422.412202
2000.0,795,22440.686275
2700.0,957,22462.186992
2250.0,818,22480.268577
2600.0,894,22499.700134
1950.0,691,22514.824617
2050.0,790,22532.425142
2050.0,699,22547.547544
2500.0,938,22568.0112
2050.0,661,22582.550179
1800.0,752,22598.943598
2600.0,1066,22622.468589
2700.0,1002,22644.040892
2900.0,1084,22668.080979
2150.0,798,22685.484365
2600.0,978,22707.151425
2700.0,1044,22729.573544
2500.0,966,22750.450651
2300.0,825,22768.530068
2800.0,933,22789.101521
2200.0,767,22805.565337
2450.0,892,22825.197375
2500.0,1107,22849.849507
2300.0,1021,22872.110308
2800.0,1001,22893.927995
2600.0,901,22913.318672
2700.0,1002,22935.456497
2700.0,917,22956.012332
750.0,401,22965.178985
2700.0,861,22983.631215
2600.0,1000,23005.887468
2050.0,873,23025.092669
3000.0,1164,23051.269402
1900.0,743,23067.568561
1850.0,744,23083.774072
2500.0,885,23103.945882
1950.0,670,23118.776255
2350.0,831,23136.917257
1700.0,608,23150.383192
2400.0,986,23171.75367
1750.0,747,23187.988188
2700.0,1065,23211.750448
2500.0,891,23231.222473
1850.0,716,23246.522683
2600.0,912,23266.623418
2600.0,1067,23289.867389
2150.0,768,23306.732013
2700.0,945,23327.351121
2250.0,836,23345.204962
2600.0,839,23363.493359
3300.0,1413,23394.909422
2600.0,863,23414.024617
2600.0,1102,23437.607688
2800.0,1043,23461.416282
1750.0,666,23475.983487
1650.0,712,23491.387001
2800.0,965,23512.972362
2350.0,793,23530.429328
2500.0,860,23549.385771
400.0,217,23553.833228
2500.0,885,23573.31552
2350.0,921,23593.269025
2500.0,962,23614.408362
2700.0,1034,23637.021066
2150.0,750,23653.888095
2100.0,732,23670.328878
2300.0,873,23689.743388
1850.0,666,23704.102358
2600.0,942,23725.121473
2700.0,1005,23747.833466
1300.0,435,23757.03764
2600.0,979,23779.310729
2700.0,1026,23801.985542
1850.0,684,23817.711221
2200.0,902,23837.429642
2150.0,779,23854.711861
2700.0,964,23875.687622
1900.0,748,23891.850268
1950.0,734,23907.925646
2050.0,759,23924.579114
400.0,218,23929.336772
3000.0,1054,23952.512854
2500.0,922,23972.325251
2400.0,888,23991.880672
2500.0,975,24013.17545
2250.0,822,24031.286247
2150.0,870,24050.416843
2900.0,1041,24073.001115
2700.0,1011,24095.969945
2600.0,988,24117.654047
2700.0,1104,24142.147017
2700.0,1071,24165.588312
1950.0,741,24181.333647
1950.0,734,24197.614494
2600.0,998,24220.824169
2500.0,864,24239.951857
1800.0,674,24254.579343
2600.0,1010,24276.343125
2800.0,1140,24301.275785
2600.0,1069,24324.514795
2600.0,1021,24346.981117
2700.0,1005,24369.675102
1900.0,622,24384.103136
2800.0,1104,24408.180005
2700.0,1012,24430.878073
2600.0,858,24450.036015
2100.0,758,24466.709156
2100.0,860,24485.336146
2600.0,964,24507.378741
2700.0,1001,24529.266873
2200.0,751,24545.754677
2700.0,1175,24571.424881
2100.0,858,24590.307615
2600.0,1040,24613.32219
2400.0,898,24633.44138
2500.0,974,24654.573209
2350.0,823,24672.387387
2300.0,914,24693.136182
2600.0,1040,24715.798565
2600.0,919,24735.730659
1900.0,620,24749.093509
2500.0,1001,24771.062882
2500.0,892,24790.920879
2000.0,643,24804.995754
2600.0,952,24825.914808
2600.0,1036,24848.651141
2200.0,774,24866.039367
2900.0,1037,24888.569808
2500.0,883,24907.502211
1850.0,675,24922.580997
2500.0,852,24941.230718
2600.0,1006,24963.753707
2600.0,899,24983.141537
2000.0,704,24998.788423
2600.0,963,25020.187229
2250.0,835,25038.604259
2600.0,1068,25062.055592
2450.0,944,25082.922481
1900.0,708,25098.239879
2500.0,965,25119.933681
2700.0,1100,25144.457382
2600.0,945,25164.631584
3100.0,1021,25187.705407
2200.0,698,25202.485723
2900.0,962,25224.126619
2300.0,876,25243.555099
2700.0,886,25262.780565
2600.0,1009,25284.899739
2500.0,898,25304.449314
2250.0,778,25322.388224
2700.0,956,25343.666553
2500.0,843,25361.701478
3000.0,1112,25386.058408
2800.0,1000,25407.799181
2600.0,893,25428.382899
2250.0,745,25445.200049
2700.0,1047,25466.231673
2800.0,1038,25487.571254
2500.0,903,25505.65049
3000.0,1040,25526.550337
1750.0,737,25541.659479
2500.0,865,25558.893547
2300.0,740,25573.573507
2200.0,930,25592.848135
2700.0,1174,25616.668126
3000.0,1311,25642.672342
2600.0,870,25660.335878
2500.0,861,25677.683905
1900.0,602,25690.178242
2800.0,935,25708.631979
2000.0,696,25722.647147
2250.0,822,25739.171388
2200.0,746,25754.541535
2500.0,900,25772.855012
2050.0,762,25787.900801
2400.0,764,25803.230783
2900.0,1031,25824.24665
2600.0,970,25843.656876
2500.0,764,25859.504085
2500.0,864,25876.603276
2500.0,899,25894.352189
2350.0,1177,25918.123602
1700.0,507,25928.134144
2500.0,940,25947.308062
1950.0,616,25959.95352
2500.0,750,25974.370341
2450.0,913,25993.077203
2700.0,1035,26014.072276
2500.0,1033,26034.941147
2250.0,796,26050.891988
2350.0,803,26066.997859
2500.0,1041,26088.36245
2600.0,752,26103.588627
2800.0,1174,26127.487888
3000.0,1043,26148.640121
2600.0,1031,26169.674199
2600.0,994,26189.528667
1900.0,708,26204.324286
2900.0,1012,26225.220335
2600.0,962,26244.439136
2700.0,896,26262.383637
2700.0,1040,26283.99703
2450.0,937,26302.904979
2300.0,829,26319.916482
2000.0,715,26334.018363
2800.0,1205,26358.987433
2500.0,864,26376.451361
2350.0,765,26391.933728
2600.0,1008,26412.152496
2300.0,854,26429.707032
2700.0,1028,26450.569391
2500.0,856,26467.69822
2800.0,958,26486.742367
2500.0,898,26504.53837
2600.0,1138,26528.623044
2300.0,778,26543.901848
2500.0,1009,26564.28452
2450.0,912,26582.994455
2900.0,1039,26603.6662
2800.0,1044,26624.586239
1450.0,512,26635.290245
2900.0,991,26655.79225
2300.0,844,26673.261164
2300.0,827,26689.490789
2900.0,943,26708.585467
2500.0,885,26726.673537
2900.0,996,26746.815289
2900.0,1107,26768.93359
2500.0,1109,26791.420812
2500.0,1149,26814.317425
2700.0,971,26834.03583
2900.0,1214,26859.393743
2500.0,963,26878.78356
2500.0,870,26896.670519
2200.0,964,26916.25427
2250.0,814,26933.84651
2700.0,1134,26956.439256
2500.0,898,26974.877441
1550.0,519,26985.855396
2500.0,836,27002.715481
1850.0,581,27014.654007
2600.0,880,27033.329905
1950.0,672,27047.785703
2800.0,976,27068.251942
2800.0,1077,27090.89716
2700.0,1032,27112.821284
2500.0,918,27131.842378
2700.0,1068,27154.437966
2900.0,988,27174.288082
2800.0,1005,27194.865713
2500.0,991,27214.317823
2900.0,1006,27234.587189
2350.0,1007,27254.572056
2150.0,839,27271.757935
2500.0,863,27289.256116
2600.0,965,27309.076967
1900.0,712,27323.113759
2100.0,769,27338.331211
2900.0,1205,27363.394135
2600.0,1010,27384.439907
2700.0,927,27402.792781
2250.0,877,27420.409892
2600.0,895,27438.346123
2600.0,928,27457.834911
2400.0,859,27475.890875
