# {"t_start": 1546660834.4009295, "env_id": "AsterixNoFrameskip-v4"} 
r,l,t
250.0,282,11.37041
150.0,199,14.934213
250.0,254,19.694816
250.0,269,24.741025
250.0,240,29.164284
500.0,313,35.052849
100.0,207,38.778685
350.0,411,46.543715
50.0,207,50.602528
300.0,239,55.116019
200.0,198,58.654173
100.0,172,61.946047
500.0,432,70.094367
150.0,198,73.846477
100.0,231,77.96018
200.0,208,81.994357
250.0,235,86.925734
250.0,289,92.587356
150.0,211,96.890468
300.0,325,103.425575
200.0,186,107.234883
100.0,293,112.877225
100.0,240,117.608605
250.0,273,123.141361
450.0,423,131.505551
100.0,204,135.847443
400.0,416,144.577747
400.0,405,152.647496
200.0,195,156.841972
100.0,236,161.359594
100.0,210,165.660684
150.0,227,170.165335
350.0,287,176.191271
500.0,273,181.840944
100.0,205,186.461409
200.0,227,191.549547
250.0,279,197.521075
300.0,278,203.407728
150.0,212,207.813482
150.0,207,212.578881
200.0,233,218.16726
350.0,284,224.598615
100.0,231,229.60459
350.0,302,236.037761
550.0,417,245.099247
200.0,207,249.796854
150.0,222,254.637001
350.0,306,261.099588
50.0,210,265.636177
150.0,225,270.604839
200.0,252,275.910367
150.0,198,280.558612
150.0,277,287.118282
50.0,206,292.333433
100.0,223,297.211318
300.0,300,304.398852
150.0,207,308.650264
100.0,195,312.943379
200.0,253,318.478197
100.0,200,322.646538
150.0,214,327.36767
300.0,480,337.987798
400.0,538,349.949707
250.0,293,356.146304
100.0,196,360.377578
150.0,199,364.563531
200.0,224,369.361974
150.0,296,375.923987
250.0,418,385.047859
200.0,571,397.364587
200.0,565,409.353963
200.0,572,422.622366
200.0,569,434.98082
200.0,570,447.456189
200.0,568,459.540248
200.0,566,472.078143
200.0,572,484.465133
200.0,565,496.904731
200.0,571,509.726174
200.0,569,522.06859
200.0,569,534.370063
200.0,568,546.664912
200.0,569,559.029239
200.0,570,571.305407
200.0,567,583.696705
200.0,569,596.279425
200.0,568,608.414051
300.0,561,620.92099
300.0,372,629.177142
150.0,205,633.546939
150.0,223,638.47385
150.0,270,644.216737
100.0,220,649.312534
50.0,196,653.587713
250.0,236,658.820466
150.0,213,663.469701
50.0,207,667.815495
100.0,202,672.396064
150.0,167,676.011294
200.0,228,680.923467
50.0,211,685.507159
250.0,220,690.071142
100.0,218,694.859754
250.0,216,699.742572
250.0,219,704.42605
300.0,206,709.320377
500.0,368,717.944027
200.0,238,723.481633
100.0,209,727.892302
200.0,205,732.311134
350.0,265,738.00691
200.0,203,742.229835
400.0,311,749.070369
200.0,222,753.922586
350.0,304,760.57163
100.0,224,765.431626
300.0,363,772.950926
450.0,221,777.687786
150.0,169,781.296671
150.0,212,786.317558
150.0,237,791.564535
300.0,471,801.83142
450.0,405,810.618996
150.0,223,815.377451
300.0,222,820.289735
250.0,204,824.76096
700.0,1014,848.195691
150.0,227,852.948588
100.0,228,857.982116
300.0,419,867.003549
200.0,227,872.116211
400.0,399,880.788056
400.0,394,889.170794
300.0,339,896.612045
200.0,227,901.711567
350.0,225,906.674297
550.0,362,914.331591
200.0,202,918.983425
200.0,225,924.206199
300.0,199,928.469436
300.0,222,933.570897
400.0,328,940.658298
200.0,202,945.241848
250.0,286,951.636167
250.0,188,956.308706
200.0,217,960.834428
550.0,445,970.611436
100.0,166,974.094367
150.0,202,978.455546
200.0,205,982.695819
150.0,218,987.625258
150.0,218,992.5988
250.0,215,997.147745
300.0,287,1003.736528
350.0,226,1008.458398
200.0,221,1013.290878
300.0,199,1017.677242
600.0,528,1028.988632
300.0,306,1035.6223
150.0,203,1040.688523
550.0,354,1048.501827
350.0,350,1056.174183
250.0,218,1060.932414
200.0,204,1065.199742
350.0,226,1070.219563
350.0,323,1077.646383
250.0,224,1082.460708
1050.0,1363,1112.284689
450.0,291,1118.507541
650.0,333,1125.750656
150.0,198,1129.977678
200.0,193,1134.271121
250.0,201,1138.536932
950.0,570,1151.986091
200.0,207,1156.506584
250.0,211,1161.334322
100.0,200,1165.940023
250.0,209,1170.285729
650.0,350,1177.970829
450.0,324,1185.077097
550.0,352,1192.670309
150.0,200,1197.13501
350.0,275,1203.154494
250.0,219,1207.974033
250.0,221,1212.570707
150.0,199,1216.970119
550.0,407,1225.998115
300.0,288,1232.374149
250.0,211,1237.222378
150.0,191,1241.316524
150.0,201,1246.156169
50.0,202,1250.461035
350.0,328,1257.91606
250.0,215,1262.747305
400.0,264,1268.594528
250.0,286,1274.605475
200.0,216,1279.269395
200.0,193,1283.352708
350.0,456,1293.712773
300.0,209,1298.08934
200.0,217,1302.689614
450.0,299,1308.994718
250.0,216,1314.167803
450.0,427,1324.068266
450.0,327,1331.344603
250.0,273,1337.173121
650.0,553,1349.18354
650.0,342,1356.557717
400.0,227,1361.582412
400.0,233,1366.578077
750.0,385,1374.971544
250.0,202,1379.43946
400.0,297,1385.835274
650.0,336,1393.12708
400.0,203,1397.338348
400.0,211,1402.403335
700.0,315,1410.236083
850.0,382,1418.330849
450.0,286,1424.699979
900.0,328,1431.73578
450.0,235,1436.828911
350.0,241,1442.375371
1300.0,567,1454.767342
550.0,308,1461.717908
200.0,208,1466.134033
200.0,218,1470.952459
250.0,263,1476.77526
200.0,202,1481.610685
400.0,384,1489.973423
750.0,500,1500.992493
350.0,225,1505.898714
450.0,298,1512.742293
950.0,562,1525.488198
850.0,424,1534.943839
450.0,301,1541.499784
800.0,384,1549.705384
250.0,219,1554.323342
150.0,219,1559.36248
500.0,313,1566.171831
1000.0,431,1575.922575
500.0,272,1581.741614
400.0,165,1585.174046
700.0,372,1593.138516
450.0,313,1599.844194
500.0,219,1604.598647
750.0,371,1613.208667
350.0,220,1618.17312
300.0,241,1623.681774
250.0,197,1627.871203
650.0,476,1638.242592
350.0,212,1642.640764
300.0,242,1648.072166
750.0,377,1656.151858
600.0,316,1663.233227
750.0,373,1671.387372
500.0,325,1678.234915
950.0,435,1687.948884
600.0,436,1697.227404
250.0,217,1702.028694
400.0,349,1709.393771
350.0,378,1717.797049
300.0,295,1724.678185
500.0,376,1732.620966
400.0,275,1738.915516
350.0,200,1743.126901
350.0,204,1747.680516
350.0,239,1753.004623
300.0,240,1758.02034
650.0,307,1765.348761
550.0,267,1771.513869
250.0,196,1775.78862
200.0,201,1780.44666
650.0,363,1788.653774
300.0,201,1792.942875
550.0,413,1802.14195
700.0,374,1810.115462
300.0,200,1814.471326
700.0,421,1823.457582
600.0,458,1833.683838
750.0,413,1842.493139
200.0,221,1847.664682
950.0,421,1857.173323
400.0,463,1867.370952
800.0,418,1876.225007
450.0,301,1882.876599
450.0,318,1890.586205
800.0,404,1899.305198
500.0,338,1906.634436
200.0,197,1911.14379
350.0,210,1915.920368
600.0,330,1923.035841
400.0,203,1927.521213
750.0,1002,1949.375631
250.0,227,1954.154018
750.0,418,1963.783155
200.0,207,1968.265499
200.0,201,1973.183705
100.0,225,1978.02392
300.0,499,1989.281594
500.0,321,1996.761729
500.0,511,2008.266015
450.0,412,2016.950838
300.0,206,2021.533107
250.0,208,2025.789886
250.0,217,2031.048073
500.0,312,2038.12925
900.0,488,2049.406405
1350.0,557,2061.818688
900.0,398,2070.878121
550.0,278,2076.815361
700.0,505,2088.090076
650.0,322,2095.074986
350.0,188,2099.506177
1100.0,647,2113.922678
550.0,362,2121.618181
800.0,393,2130.551269
700.0,290,2137.175387
650.0,317,2143.853868
1100.0,465,2153.96431
400.0,210,2158.277791
700.0,363,2166.877455
500.0,321,2174.343436
450.0,222,2178.98048
1400.0,669,2193.776064
850.0,515,2205.454853
850.0,479,2215.743425
700.0,322,2222.793524
800.0,361,2230.726864
400.0,204,2235.047665
650.0,327,2242.424991
500.0,362,2250.674053
800.0,393,2259.633846
550.0,429,2268.883836
800.0,456,2278.885128
1000.0,406,2287.615676
600.0,285,2293.80333
650.0,354,2301.955947
700.0,325,2308.88756
650.0,412,2317.806006
400.0,278,2323.913226
400.0,211,2328.291639
500.0,275,2334.112996
650.0,281,2340.435456
400.0,261,2346.117181
950.0,383,2354.656337
550.0,378,2362.783332
1100.0,490,2373.975279
800.0,396,2382.821381
1000.0,366,2391.099988
750.0,358,2399.1034
650.0,282,2405.08693
700.0,306,2411.868521
1150.0,490,2422.35785
550.0,357,2430.385335
450.0,433,2439.537105
800.0,730,2455.546331
800.0,581,2468.65724
500.0,332,2475.786095
450.0,295,2482.302605
600.0,399,2490.886595
500.0,384,2499.187452
750.0,1069,2522.278704
600.0,1050,2545.304128
300.0,380,2554.028239
550.0,350,2562.022775
1000.0,1027,2584.275273
300.0,240,2589.543356
700.0,353,2597.139849
450.0,212,2601.805238
250.0,207,2606.585383
400.0,206,2611.108675
350.0,240,2617.002111
400.0,244,2622.476088
550.0,353,2630.870467
500.0,268,2636.919215
1600.0,561,2649.00934
350.0,202,2653.433922
650.0,281,2659.774613
700.0,345,2667.994987
800.0,490,2678.815138
300.0,207,2683.543738
400.0,204,2688.009949
550.0,305,2694.46377
500.0,283,2700.455381
1000.0,481,2710.975104
350.0,277,2717.179927
350.0,221,2722.171201
400.0,272,2727.797115
500.0,324,2734.641342
550.0,307,2741.587826
750.0,382,2750.36913
450.0,304,2757.084131
500.0,286,2763.38594
450.0,302,2770.38665
350.0,257,2776.130669
500.0,508,2787.295205
350.0,382,2795.498194
400.0,491,2805.802863
950.0,832,2824.118775
300.0,308,2830.702881
600.0,377,2838.881251
500.0,271,2844.734324
300.0,211,2849.361282
400.0,318,2856.149868
550.0,377,2864.465131
300.0,212,2869.337416
500.0,394,2878.048537
600.0,356,2885.963679
300.0,207,2890.35463
400.0,312,2897.335356
950.0,591,2910.442308
500.0,449,2921.122201
150.0,221,2926.472988
700.0,378,2934.640252
650.0,412,2943.505584
650.0,466,2953.453967
600.0,404,2962.629398
250.0,200,2966.758327
750.0,410,2975.682389
450.0,267,2981.520515
350.0,242,2986.858531
400.0,279,2992.819753
550.0,266,2998.493645
400.0,247,3004.032997
500.0,289,3010.738898
400.0,197,3014.900603
550.0,345,3022.377154
850.0,529,3033.799894
600.0,441,3043.487496
200.0,254,3049.007393
850.0,443,3058.990688
500.0,324,3066.227086
1150.0,457,3076.286926
300.0,240,3081.498186
550.0,476,3091.863414
350.0,198,3096.325929
550.0,279,3102.239339
900.0,383,3110.581324
900.0,406,3119.459856
1150.0,533,3131.007841
1550.0,568,3143.71578
300.0,205,3148.182598
500.0,365,3156.712662
350.0,169,3160.844498
350.0,216,3165.370542
450.0,208,3169.956231
600.0,340,3177.17058
700.0,339,3184.663437
750.0,331,3192.161614
800.0,391,3200.687843
600.0,270,3206.435294
650.0,378,3214.763065
550.0,325,3221.726346
450.0,286,3227.917134
450.0,409,3237.170401
800.0,381,3245.305515
650.0,299,3251.757287
1100.0,469,3262.322511
400.0,217,3266.999957
1000.0,375,3275.591943
500.0,241,3281.045992
600.0,308,3287.811987
300.0,204,3292.478828
350.0,311,3299.012045
850.0,435,3308.656067
1200.0,472,3318.757334
1400.0,523,3330.477952
1200.0,509,3341.811741
1050.0,326,3349.021826
950.0,401,3357.886948
500.0,315,3365.047142
1250.0,484,3376.015085
900.0,561,3389.477922
950.0,420,3398.784667
700.0,398,3407.593364
700.0,358,3415.77481
600.0,350,3423.819134
350.0,252,3429.296493
600.0,308,3436.031724
500.0,309,3442.775224
750.0,376,3451.198371
800.0,450,3461.181231
300.0,202,3465.303419
500.0,288,3472.094661
300.0,223,3476.756597
500.0,293,3483.296229
550.0,277,3489.194058
450.0,298,3495.515115
700.0,342,3502.984863
500.0,332,3510.104152
800.0,402,3518.863321
600.0,316,3526.044769
750.0,426,3535.35969
900.0,476,3545.974755
400.0,238,3551.211835
650.0,308,3558.163373
500.0,220,3563.165577
650.0,332,3570.151519
700.0,331,3577.356231
350.0,220,3582.48158
800.0,420,3591.863864
800.0,452,3601.740005
600.0,295,3608.314108
750.0,432,3617.617163
400.0,263,3623.538183
800.0,414,3632.403055
850.0,434,3641.950078
400.0,245,3647.650066
1150.0,535,3659.666273
600.0,421,3668.946126
700.0,354,3676.640881
500.0,253,3682.201161
400.0,308,3688.765483
900.0,452,3698.545812
900.0,388,3706.953486
400.0,209,3711.319653
850.0,412,3720.981348
1000.0,464,3731.206032
650.0,462,3741.272046
1000.0,413,3750.358248
850.0,437,3760.22199
950.0,467,3770.546784
1350.0,505,3781.629245
600.0,349,3789.132669
650.0,346,3796.31778
1250.0,569,3810.11149
750.0,412,3819.297156
1150.0,534,3830.568935
400.0,307,3837.104836
1150.0,596,3850.065602
750.0,401,3858.84711
800.0,357,3866.882422
500.0,305,3873.501876
750.0,394,3882.016287
950.0,416,3891.403928
900.0,391,3899.916476
300.0,194,3904.051803
1450.0,709,3919.662124
750.0,358,3927.388984
500.0,310,3934.275301
500.0,373,3942.375015
700.0,708,3957.796976
250.0,288,3964.304812
800.0,521,3975.540431
750.0,426,3984.76506
700.0,368,3992.857198
600.0,273,3998.6117
800.0,405,4007.32428
1050.0,450,4017.140481
550.0,281,4023.319463
1200.0,491,4034.575614
1200.0,477,4044.808492
450.0,271,4050.734666
1150.0,540,4062.56462
350.0,219,4067.052542
850.0,406,4076.052663
750.0,352,4084.390487
900.0,417,4093.483957
700.0,316,4100.370779
1050.0,437,4109.725911
500.0,384,4118.91386
950.0,469,4129.411603
900.0,823,4147.06963
900.0,389,4155.949146
350.0,240,4161.369876
400.0,519,4173.120954
1050.0,430,4182.567165
1050.0,434,4192.124921
550.0,524,4203.281686
500.0,309,4209.798609
500.0,307,4216.953008
500.0,452,4226.559035
1100.0,542,4239.065185
1000.0,382,4247.362312
1500.0,743,4263.636898
600.0,279,4269.578497
400.0,202,4274.009587
600.0,504,4285.286934
1150.0,448,4294.91634
600.0,576,4307.574552
150.0,202,4311.869673
550.0,361,4319.799701
300.0,210,4324.666199
1100.0,914,4344.868893
1150.0,512,4356.169579
1150.0,462,4366.690638
300.0,204,4370.980664
850.0,788,4388.344095
750.0,440,4398.072827
950.0,592,4411.133357
1200.0,721,4426.968862
1250.0,486,4437.585336
950.0,503,4448.71622
1300.0,854,4466.938342
750.0,434,4476.904669
1050.0,549,4489.464653
950.0,515,4500.871003
750.0,363,4509.014441
800.0,420,4518.296543
900.0,467,4529.121194
650.0,491,4539.416636
800.0,401,4548.262418
450.0,233,4553.075626
900.0,409,4562.375917
550.0,279,4568.537521
1050.0,398,4577.157958
900.0,372,4585.471853
750.0,362,4593.391751
750.0,352,4600.830802
1150.0,542,4613.619672
450.0,321,4620.63692
1000.0,639,4634.554945
950.0,408,4643.503934
600.0,310,4650.479547
700.0,399,4659.145222
500.0,287,4665.370233
700.0,318,4672.057143
550.0,319,4679.427881
350.0,237,4684.947827
900.0,388,4693.572549
750.0,372,4701.852545
650.0,328,4708.966028
1100.0,414,4718.344111
650.0,360,4726.237446
1000.0,422,4735.297538
650.0,293,4741.913877
850.0,455,4751.712551
600.0,277,4757.679417
1050.0,516,4769.134897
1200.0,553,4781.340076
650.0,325,4788.288366
850.0,425,4797.629597
300.0,195,4801.657784
450.0,222,4806.966854
1050.0,574,4820.216617
1350.0,686,4835.536462
750.0,411,4844.389171
400.0,425,4853.459567
1000.0,518,4864.629122
1050.0,547,4876.865855
1200.0,550,4889.129809
400.0,239,4894.075248
450.0,301,4900.906058
700.0,383,4909.61631
300.0,206,4914.099451
250.0,175,4918.451502
600.0,271,4924.601274
350.0,304,4931.342615
950.0,511,4943.004051
500.0,375,4951.04409
400.0,237,4956.173985
650.0,431,4965.270777
950.0,542,4977.724825
900.0,418,4986.633591
650.0,337,4993.786855
550.0,285,5000.453091
700.0,376,5009.488137
1100.0,479,5019.760932
800.0,326,5026.943375
400.0,199,5031.153547
1250.0,495,5042.853235
350.0,235,5048.454377
700.0,369,5056.400517
250.0,277,5062.216347
800.0,452,5072.410483
750.0,367,5080.165378
850.0,328,5087.247019
450.0,279,5093.205503
1150.0,464,5103.396358
450.0,244,5109.002004
300.0,233,5113.754533
700.0,341,5121.468532
350.0,243,5126.939312
950.0,364,5134.982308
550.0,303,5141.420224
800.0,363,5149.201565
350.0,224,5154.04195
1600.0,618,5167.388435
700.0,280,5174.017282
300.0,230,5178.937809
700.0,337,5186.451486
700.0,367,5194.384824
600.0,272,5200.179417
1050.0,643,5214.140875
300.0,222,5219.01865
700.0,310,5225.918294
700.0,363,5234.044586
1600.0,602,5247.355475
900.0,391,5255.928761
800.0,378,5264.128732
450.0,245,5269.212346
400.0,441,5278.923518
400.0,240,5284.223884
650.0,357,5292.061433
1100.0,507,5302.966587
500.0,308,5309.585845
400.0,308,5316.208317
450.0,365,5324.011641
850.0,420,5333.530974
800.0,397,5342.454547
700.0,375,5350.485699
750.0,272,5356.557324
1000.0,412,5365.876061
550.0,304,5372.503457
800.0,277,5378.481121
600.0,383,5386.95595
750.0,464,5396.962149
800.0,475,5407.200106
650.0,425,5416.791657
550.0,313,5423.60285
600.0,336,5431.499931
600.0,367,5439.789599
650.0,303,5446.386535
550.0,341,5453.818903
350.0,224,5458.552481
400.0,215,5463.581916
750.0,313,5471.18802
400.0,208,5475.485782
400.0,266,5481.376263
700.0,343,5488.86969
1150.0,409,5497.628166
1200.0,626,5511.270274
1000.0,707,5527.110952
850.0,514,5538.228213
500.0,346,5545.690083
650.0,312,5552.890376
950.0,531,5564.538244
650.0,363,5572.313777
950.0,491,5582.974827
350.0,235,5588.229581
600.0,267,5594.125952
450.0,301,5601.329542
600.0,446,5611.228909
400.0,200,5615.549374
650.0,296,5621.834539
550.0,435,5631.082599
650.0,432,5640.465044
600.0,381,5648.760109
800.0,380,5656.812938
600.0,332,5664.150772
700.0,392,5672.836398
750.0,375,5681.053907
600.0,373,5689.202554
950.0,463,5699.611768
600.0,316,5706.449417
1100.0,365,5714.503018
650.0,350,5722.281038
550.0,303,5728.97635
850.0,520,5740.271419
1100.0,536,5752.466088
600.0,368,5761.044162
500.0,265,5766.735957
1850.0,677,5781.297971
1400.0,541,5793.563181
1450.0,476,5803.91166
450.0,301,5810.857409
1400.0,585,5823.72638
900.0,550,5835.959359
550.0,318,5843.131383
750.0,409,5852.56092
550.0,289,5859.217524
800.0,420,5869.085006
150.0,202,5873.363578
550.0,305,5879.803306
600.0,387,5888.173524
650.0,390,5897.218075
650.0,380,5905.694667
600.0,333,5913.399013
700.0,338,5920.918626
300.0,241,5926.275207
450.0,285,5932.468089
700.0,591,5945.724238
550.0,404,5954.657856
600.0,407,5964.195545
600.0,454,5973.900491
450.0,417,5982.764802
700.0,376,5990.729916
650.0,326,5998.775126
600.0,377,6007.1353
350.0,231,6012.088311
350.0,215,6016.631491
400.0,242,6021.775715
450.0,254,6027.278062
1000.0,481,6038.289298
350.0,239,6043.374465
1050.0,475,6053.430214
650.0,266,6059.372671
750.0,392,6068.614324
1050.0,489,6079.23511
1350.0,737,6095.708983
650.0,259,6101.389233
650.0,280,6107.601065
850.0,452,6117.418926
950.0,406,6126.325875
700.0,329,6133.365997
550.0,351,6141.304964
850.0,413,6150.689045
850.0,474,6161.108314
550.0,422,6170.141265
300.0,264,6175.869
1300.0,690,6191.698985
900.0,416,6200.940455
500.0,312,6207.567535
1250.0,571,6220.128203
400.0,243,6225.547784
550.0,271,6231.343843
550.0,242,6236.727296
600.0,677,6251.341184
1100.0,547,6263.18301
450.0,309,6270.304426
300.0,210,6274.754871
850.0,397,6283.666881
1300.0,748,6300.376104
700.0,410,6309.15408
400.0,242,6314.271498
900.0,416,6324.369961
1450.0,641,6338.842932
750.0,403,6347.61735
1200.0,561,6360.200615
1150.0,507,6371.329498
550.0,430,6380.681915
650.0,327,6387.953622
650.0,380,6396.508862
550.0,434,6406.436728
950.0,630,6420.274863
650.0,600,6433.511117
600.0,350,6441.047111
750.0,418,6450.219321
950.0,434,6459.799966
400.0,216,6464.813647
350.0,221,6469.51708
700.0,353,6477.492502
900.0,521,6488.717285
950.0,355,6496.383627
400.0,240,6501.866703
400.0,311,6509.054386
850.0,378,6517.404567
450.0,407,6526.422784
350.0,316,6533.320491
350.0,614,6546.627307
1450.0,658,6561.855339
1450.0,665,6576.860271
800.0,413,6585.727566
1500.0,665,6600.25488
800.0,417,6609.573868
750.0,454,6619.24338
750.0,380,6627.451614
400.0,252,6632.924689
600.0,305,6639.709664
300.0,204,6644.518969
700.0,377,6653.021243
1450.0,572,6665.453932
700.0,297,6672.250848
550.0,311,6678.836643
600.0,284,6684.992474
700.0,399,6693.767052
250.0,268,6699.775471
300.0,238,6705.207365
350.0,216,6710.256882
400.0,284,6716.30417
300.0,236,6721.460624
1050.0,839,6739.854352
300.0,194,6743.866747
650.0,460,6754.148435
350.0,378,6762.627613
550.0,469,6773.113375
600.0,507,6784.255768
250.0,302,6790.722984
1100.0,523,6802.632642
450.0,310,6809.146067
350.0,290,6815.524755
500.0,310,6822.759771
650.0,366,6830.843274
550.0,312,6838.285111
550.0,313,6845.272342
600.0,328,6852.565567
650.0,445,6862.145813
650.0,494,6872.88378
400.0,320,6880.081168
450.0,326,6887.321405
450.0,306,6894.404323
450.0,282,6900.573509
650.0,299,6907.124076
900.0,409,6916.235658
450.0,201,6920.808058
350.0,215,6925.335536
650.0,389,6933.908782
500.0,321,6941.170694
950.0,463,6951.217438
800.0,409,6960.099102
900.0,428,6969.358824
1000.0,556,6981.42661
1050.0,414,6990.627844
650.0,277,6996.801368
800.0,305,7003.339477
950.0,413,7012.150323
1300.0,503,7023.613587
700.0,429,7033.791397
300.0,216,7038.379799
750.0,364,7046.519496
550.0,300,7053.057492
650.0,521,7064.688051
250.0,306,7071.501834
550.0,308,7078.077145
900.0,381,7086.486221
850.0,542,7098.640134
450.0,333,7105.860186
850.0,699,7121.206073
350.0,199,7125.615737
900.0,795,7142.681967
250.0,289,7149.081765
1050.0,645,7163.496577
200.0,199,7168.064103
200.0,228,7173.171558
450.0,292,7179.637378
600.0,325,7186.930995
400.0,242,7192.100139
450.0,308,7199.206424
1450.0,478,7209.542079
550.0,251,7214.650423
900.0,371,7222.967205
1250.0,501,7233.975877
500.0,305,7240.582996
550.0,308,7247.113154
350.0,320,7254.304158
500.0,308,7261.3228
250.0,223,7266.841902
550.0,313,7274.056635
400.0,241,7279.820694
200.0,179,7283.673525
350.0,202,7288.183691
300.0,184,7291.972286
550.0,385,7300.293819
250.0,238,7305.316646
250.0,186,7309.741823
400.0,241,7314.803902
700.0,406,7324.409907
550.0,435,7333.974648
650.0,284,7340.04945
400.0,265,7345.81727
500.0,250,7351.243868
800.0,400,7360.050591
400.0,238,7365.395924
300.0,294,7371.881187
350.0,237,7377.202755
500.0,290,7383.719209
350.0,240,7389.374871
650.0,328,7396.528112
550.0,243,7401.799861
600.0,228,7406.782009
400.0,291,7412.955576
250.0,203,7417.186935
550.0,303,7424.314565
550.0,354,7432.196713
750.0,464,7442.771458
500.0,298,7449.287874
500.0,298,7456.545937
550.0,386,7465.448355
450.0,356,7473.284094
600.0,404,7482.513922
350.0,192,7486.586004
550.0,357,7494.259753
900.0,416,7503.146046
600.0,338,7510.798656
1000.0,394,7519.323309
700.0,414,7528.194755
700.0,387,7536.591009
550.0,332,7544.04593
500.0,306,7550.672012
500.0,442,7560.625395
950.0,424,7570.403051
650.0,400,7578.922063
350.0,209,7583.315037
450.0,220,7588.183325
1050.0,520,7599.973688
600.0,432,7610.047924
600.0,502,7620.655257
600.0,356,7628.520932
400.0,282,7634.684193
750.0,451,7645.511333
750.0,415,7655.413521
750.0,310,7662.870639
450.0,284,7669.111052
500.0,315,7675.848165
1100.0,557,7688.306234
500.0,274,7694.289226
550.0,281,7700.387312
800.0,424,7709.871717
1250.0,489,7720.674157
800.0,330,7727.569926
400.0,319,7734.639046
1050.0,496,7745.86986
650.0,413,7754.971213
750.0,376,7763.157192
1500.0,827,7780.91925
650.0,286,7787.717644
850.0,456,7797.734919
900.0,520,7808.952382
900.0,512,7820.744194
850.0,426,7830.559437
450.0,286,7836.810472
800.0,353,7844.222581
600.0,341,7851.879362
850.0,388,7860.626898
500.0,276,7866.770576
350.0,246,7872.422744
1000.0,441,7882.284531
1250.0,504,7893.417549
600.0,215,7897.873118
850.0,308,7904.64944
1300.0,549,7916.750333
800.0,481,7927.149224
1150.0,481,7937.27267
1150.0,504,7949.012677
700.0,338,7957.196059
950.0,473,7967.43218
850.0,445,7976.940043
750.0,405,7985.887282
500.0,283,7991.992471
650.0,315,7999.144282
1350.0,652,8013.996848
1050.0,510,8025.352478
600.0,382,8034.05064
1150.0,468,8044.022074
1100.0,546,8056.311204
1100.0,499,8067.100219
950.0,473,8077.334225
1100.0,444,8087.533257
650.0,270,8093.294773
1150.0,505,8104.28904
550.0,405,8112.927615
750.0,342,8120.430928
850.0,365,8128.391707
850.0,343,8136.206349
950.0,460,8146.568206
1000.0,411,8155.621802
1100.0,550,8167.511516
800.0,360,8175.344352
550.0,287,8181.620652
650.0,354,8189.870258
1100.0,636,8204.128764
850.0,461,8214.204896
750.0,360,8222.371571
900.0,417,8231.310778
1200.0,582,8243.971447
950.0,327,8251.626943
1200.0,466,8261.659972
550.0,276,8267.559006
500.0,220,8272.353715
1100.0,507,8284.176015
950.0,385,8293.429255
750.0,354,8301.150352
650.0,417,8310.13844
1100.0,580,8322.826787
450.0,276,8328.945198
1200.0,587,8341.814888
1200.0,612,8355.118969
1100.0,368,8363.232165
1100.0,580,8375.761987
1150.0,588,8389.080719
750.0,382,8397.745897
650.0,297,8404.026468
700.0,374,8412.088057
1550.0,547,8424.228873
1000.0,439,8434.100712
600.0,309,8440.666095
700.0,309,8447.484169
1000.0,403,8456.415214
1250.0,542,8468.552163
800.0,439,8477.909299
950.0,509,8489.099335
850.0,457,8499.171852
500.0,321,8506.065035
1400.0,678,8520.966259
650.0,273,8526.903917
500.0,299,8533.308349
1550.0,673,8547.969909
1100.0,553,8560.002063
1450.0,615,8573.334581
800.0,448,8583.163683
1150.0,518,8594.30806
1150.0,504,8605.701636
1400.0,554,8618.061484
600.0,338,8625.458707
750.0,417,8634.600808
1200.0,458,8644.611302
850.0,384,8652.891623
850.0,406,8661.559165
1100.0,429,8671.21536
800.0,321,8678.399277
1100.0,545,8690.330149
700.0,363,8698.364547
750.0,293,8704.640544
1000.0,468,8714.479877
550.0,315,8721.400166
1150.0,573,8734.16166
1200.0,472,8744.484872
750.0,275,8750.414973
350.0,212,8755.31188
650.0,385,8763.895825
1100.0,516,8775.263976
550.0,348,8783.301334
850.0,446,8793.089331
550.0,352,8800.79823
950.0,535,8812.285678
900.0,383,8820.762931
550.0,318,8827.613147
1200.0,508,8838.548732
650.0,414,8847.588276
950.0,407,8856.777033
750.0,382,8865.233346
800.0,469,8875.235372
800.0,406,8883.939527
1850.0,850,8902.447971
700.0,353,8910.151062
1500.0,687,8925.493133
550.0,329,8932.759598
650.0,301,8939.247284
1050.0,375,8947.492419
1000.0,407,8956.623561
1200.0,516,8968.441722
1050.0,473,8979.151919
1150.0,417,8988.142356
1150.0,510,8999.058718
850.0,475,9010.024305
1200.0,475,9020.064449
1350.0,547,9032.356862
850.0,406,9041.356598
650.0,396,9049.976838
1200.0,776,9066.83885
750.0,448,9076.727836
650.0,289,9083.555609
1000.0,366,9091.516316
500.0,239,9096.507791
1250.0,510,9107.705895
900.0,394,9116.651393
950.0,543,9128.786248
1200.0,478,9139.055514
1400.0,640,9153.17499
1050.0,379,9161.423162
1300.0,610,9174.777269
1050.0,403,9183.438244
650.0,435,9193.28147
1550.0,769,9210.119132
1550.0,588,9222.748082
750.0,347,9230.309828
1500.0,602,9243.558115
850.0,375,9251.928395
1300.0,474,9262.858029
1850.0,727,9278.820315
400.0,223,9283.800505
600.0,269,9289.834676
750.0,385,9298.151871
1000.0,401,9306.771143
1000.0,421,9315.979963
950.0,443,9325.711349
1150.0,473,9336.437701
1200.0,548,9348.946277
900.0,363,9357.373338
550.0,334,9365.146945
1150.0,510,9376.196781
1100.0,542,9387.885816
750.0,407,9396.490151
850.0,339,9404.161035
850.0,479,9415.025926
1100.0,499,9425.479669
1550.0,498,9436.433849
1400.0,619,9449.768735
1350.0,538,9461.524406
1700.0,574,9474.531752
1050.0,503,9485.5365
1050.0,425,9494.510492
900.0,409,9503.291697
1250.0,479,9513.812201
650.0,338,9521.333686
800.0,323,9528.189785
1100.0,441,9537.521844
850.0,316,9544.436793
1500.0,578,9557.505218
650.0,278,9564.038571
950.0,454,9573.693213
650.0,303,9580.174404
1450.0,511,9591.361235
450.0,238,9596.505599
1500.0,713,9612.597223
1050.0,407,9622.234531
1250.0,571,9635.830431
1000.0,469,9646.120629
1300.0,474,9656.314164
1150.0,458,9666.331633
1350.0,553,9678.903599
1400.0,542,9691.264641
1400.0,603,9705.66656
1100.0,522,9717.532331
850.0,319,9724.518013
1250.0,551,9736.44336
1100.0,515,9747.588369
1300.0,544,9759.907423
800.0,518,9771.644053
550.0,339,9778.812103
1500.0,817,9796.72607
650.0,291,9803.216263
650.0,269,9809.331421
750.0,368,9817.431143
650.0,366,9825.461265
700.0,479,9835.669188
700.0,433,9845.497311
1600.0,776,9862.341046
1000.0,604,9875.701601
1250.0,454,9885.669181
1300.0,567,9898.292751
1450.0,555,9910.941335
1200.0,541,9922.430284
700.0,276,9928.543259
750.0,409,9938.116251
1050.0,489,9949.560512
1100.0,509,9960.690336
1650.0,671,9975.147016
1000.0,384,9983.661891
1100.0,499,9994.685201
400.0,193,9999.036325
350.0,194,10003.225209
400.0,224,10008.224924
1200.0,638,10021.835518
750.0,477,10032.527537
1650.0,744,10048.811862
600.0,354,10056.921158
1050.0,574,10069.753895
700.0,356,10077.427901
1000.0,427,10086.985151
850.0,366,10095.18333
1450.0,582,10107.928731
1400.0,568,10120.425255
1350.0,582,10132.999651
500.0,384,10141.904329
600.0,306,10148.756086
1150.0,402,10158.007768
950.0,422,10167.086826
900.0,471,10177.088831
800.0,342,10184.684237
950.0,468,10194.967338
950.0,506,10206.189112
1950.0,847,10224.830373
1450.0,644,10238.896783
1750.0,707,10254.988113
1000.0,453,10264.939865
900.0,413,10274.084762
1050.0,546,10286.06562
900.0,435,10295.960452
1700.0,778,10313.378031
1100.0,652,10328.162019
750.0,365,10336.333339
950.0,745,10352.62095
1300.0,505,10363.482137
2000.0,691,10378.312241
1300.0,515,10389.690237
1250.0,509,10400.709018
1850.0,662,10415.461764
1200.0,611,10429.127598
1550.0,603,10442.344901
1900.0,716,10457.651358
1500.0,638,10472.102047
800.0,351,10480.016033
1700.0,572,10492.936813
1700.0,702,10508.306656
1000.0,501,10519.032533
1000.0,439,10528.456165
1450.0,576,10541.482849
1200.0,503,10552.896455
1350.0,510,10564.185757
850.0,401,10572.738019
1050.0,383,10580.99509
750.0,431,10590.227124
2100.0,776,10607.61194
1850.0,776,10624.528777
1850.0,968,10646.369858
1450.0,704,10661.323617
1050.0,1354,10691.681627
700.0,308,10698.487133
1100.0,440,10708.445094
1450.0,630,10722.213608
1100.0,509,10733.943804
900.0,395,10742.645321
650.0,369,10750.436547
1100.0,476,10760.976285
850.0,441,10770.72622
750.0,366,10778.784244
850.0,413,10788.518118
1150.0,444,10798.022092
1400.0,510,10809.150461
1300.0,439,10819.290715
1250.0,467,10829.634359
650.0,293,10836.168731
1550.0,480,10847.220192
1200.0,516,10858.520521
1100.0,418,10867.902471
1500.0,569,10880.336711
1700.0,884,10899.638761
1100.0,432,10908.878835
650.0,358,10916.736908
1150.0,572,10929.609518
1150.0,512,10941.068455
800.0,434,10951.308861
1200.0,544,10963.979399
1600.0,548,10975.713811
1450.0,572,10988.667723
550.0,316,10995.673159
1400.0,470,11006.336074
1200.0,436,11015.903869
1300.0,460,11025.943013
750.0,286,11031.955155
1350.0,684,11046.878323
1650.0,578,11059.737613
1400.0,607,11072.594849
1600.0,602,11085.821216
1500.0,595,11099.209027
500.0,238,11104.693114
1300.0,457,11114.509608
500.0,240,11119.734391
1450.0,483,11130.209495
1200.0,480,11140.76701
1250.0,485,11151.507223
1250.0,514,11162.845287
950.0,405,11171.64255
950.0,403,11180.711038
1100.0,446,11190.101229
1850.0,661,11204.738693
850.0,410,11213.508669
800.0,373,11221.590331
1000.0,383,11230.009276
1100.0,479,11240.416536
1950.0,608,11253.6559
1800.0,837,11271.500059
1550.0,572,11284.79639
1550.0,584,11297.752865
1450.0,570,11310.578914
1450.0,512,11321.858815
1600.0,575,11334.120071
1600.0,534,11345.485096
1450.0,581,11358.924675
1150.0,442,11368.891701
1650.0,656,11383.692843
800.0,409,11393.127136
1150.0,506,11404.048689
1700.0,572,11416.397446
1250.0,510,11428.822225
1250.0,501,11440.046337
1500.0,621,11454.004399
1050.0,415,11462.910514
1200.0,490,11473.97443
1000.0,407,11482.715853
1000.0,375,11490.720731
1100.0,507,11501.687651
1050.0,412,11510.955174
700.0,273,11517.180059
1500.0,613,11530.773115
1650.0,632,11544.811308
700.0,312,11551.47807
1500.0,580,11565.042375
1050.0,410,11573.796675
1000.0,446,11583.285724
750.0,274,11589.261871
1600.0,651,11604.089808
1800.0,708,11619.102715
1150.0,582,11631.986174
1650.0,607,11644.872029
1550.0,576,11658.243717
450.0,272,11664.428903
850.0,410,11673.47418
1750.0,731,11689.717937
1550.0,664,11703.953026
1600.0,558,11716.367594
850.0,469,11726.538395
1650.0,666,11741.083591
650.0,288,11747.42808
1400.0,517,11758.861567
750.0,342,11767.219818
1950.0,704,11783.031707
500.0,306,11789.414911
1300.0,540,11801.457434
2050.0,668,11815.966054
400.0,203,11820.455878
1800.0,737,11836.459699
1250.0,461,11846.317107
1050.0,434,11855.868673
2600.0,1023,11879.289557
850.0,417,11888.627012
850.0,312,11895.354853
950.0,404,11904.229514
1900.0,708,11920.205285
1600.0,629,11933.679642
400.0,313,11940.29533
1300.0,502,11951.890488
200.0,202,11956.736554
1700.0,577,11969.884424
1400.0,473,11980.539317
400.0,200,11984.57144
650.0,333,11992.035317
1250.0,545,12003.75604
1650.0,640,12017.877143
1650.0,597,12031.244519
1550.0,573,12043.367002
950.0,418,12052.874158
1300.0,503,12063.699519
1400.0,550,12076.134706
1850.0,691,12091.617839
950.0,417,12100.688427
1450.0,621,12114.27299
900.0,316,12121.432667
1000.0,478,12131.607719
1150.0,574,12144.216961
1650.0,649,12158.156426
1500.0,538,12170.357573
1150.0,465,12180.791857
1450.0,537,12192.357886
1550.0,583,12205.040631
2050.0,792,12223.138589
1400.0,698,12238.372425
700.0,407,12247.056563
300.0,192,12251.231333
1250.0,520,12262.76753
1100.0,400,12271.872593
800.0,348,12280.190099
1300.0,629,12293.871209
2200.0,837,12312.2667
1550.0,613,12325.918506
1300.0,438,12335.234039
900.0,371,12343.225195
550.0,308,12349.741407
2150.0,824,12368.497272
1700.0,773,12385.25234
1200.0,499,12395.973357
2100.0,920,12416.628678
300.0,203,12421.234766
1400.0,596,12434.282874
800.0,381,12442.824531
1450.0,532,12454.28917
600.0,272,12460.118372
1950.0,915,12480.30291
2350.0,861,12499.566048
1150.0,522,12510.821275
1650.0,600,12524.786078
900.0,356,12532.581302
1200.0,504,12543.448683
1550.0,617,12556.652217
1400.0,558,12569.120481
1450.0,572,12581.888805
1300.0,516,12593.000779
2900.0,994,12614.678447
2300.0,702,12629.849267
1550.0,618,12643.60115
2300.0,817,12661.802203
1250.0,604,12674.627345
1500.0,508,12685.738435
2300.0,991,12708.131417
1150.0,490,12719.070633
1000.0,429,12728.340799
400.0,210,12732.889711
2700.0,963,12754.204759
1200.0,503,12765.08922
1900.0,706,12781.975968
1900.0,679,12796.530174
1200.0,600,12809.553067
400.0,211,12814.035206
1350.0,582,12826.849249
900.0,423,12835.977971
1600.0,651,12850.167373
1650.0,880,12870.38533
1700.0,823,12889.145613
1050.0,408,12898.191157
1750.0,646,12912.155997
450.0,209,12916.541902
600.0,247,12921.993762
1700.0,547,12933.917479
1900.0,774,12950.94584
1850.0,695,12966.346702
1600.0,739,12983.146487
900.0,411,12992.130702
950.0,543,13004.205525
750.0,280,13010.176207
600.0,338,13017.615726
1150.0,405,13026.561409
1250.0,468,13036.988346
1200.0,500,13047.999814
1650.0,916,13068.081968
850.0,396,13076.490188
2450.0,913,13096.690028
700.0,388,13105.233778
850.0,422,13114.569021
1200.0,498,13126.196141
750.0,340,13133.806854
900.0,492,13144.523485
1050.0,412,13153.547479
950.0,409,13162.494463
1350.0,559,13174.648457
1300.0,570,13188.257863
750.0,308,13194.841742
800.0,311,13201.614414
850.0,446,13211.181246
1500.0,510,13222.600711
1100.0,609,13236.383699
1200.0,444,13246.066558
900.0,409,13254.800455
500.0,305,13261.480914
750.0,815,13279.452107
1650.0,711,13295.49714
1600.0,618,13308.758663
2150.0,860,13327.586646
1200.0,543,13339.277012
1500.0,669,13353.967758
1550.0,639,13368.140565
2000.0,761,13384.921719
1350.0,550,13397.507702
1000.0,405,13406.587744
850.0,354,13414.4397
2200.0,999,13435.74715
1100.0,476,13446.16785
2150.0,795,13464.219343
1350.0,490,13475.086363
1500.0,502,13485.943769
850.0,339,13493.770937
1650.0,612,13506.92323
2150.0,776,13523.744575
1000.0,424,13533.263478
1350.0,535,13544.966699
1550.0,651,13559.13885
1100.0,409,13567.919562
2450.0,1030,13590.34474
1350.0,507,13601.957002
2000.0,638,13616.237294
2000.0,694,13631.259984
1350.0,542,13643.393904
1400.0,541,13655.027695
1400.0,630,13668.757487
1000.0,320,13675.848674
950.0,428,13685.539017
2500.0,908,13705.650019
1700.0,663,13720.815982
1650.0,597,13733.834698
1800.0,535,13745.324379
1850.0,680,13760.301235
1650.0,584,13773.65376
1700.0,512,13784.949258
1200.0,597,13797.703014
1550.0,509,13808.925109
2350.0,834,13827.237218
2600.0,961,13848.459731
700.0,286,13855.000793
1450.0,619,13868.745483
2200.0,857,13887.542564
1050.0,407,13896.337558
1000.0,549,13908.11312
1750.0,634,13922.356027
2300.0,935,13943.573757
950.0,411,13952.94996
150.0,213,13957.518537
1200.0,514,13969.169047
1550.0,669,13984.205858
1950.0,798,14001.319301
1500.0,509,14012.561987
1750.0,675,14027.304546
1250.0,518,14038.246145
1250.0,440,14048.631979
1400.0,578,14061.366454
2500.0,938,14081.853653
2600.0,1006,14104.136411
1400.0,515,14115.197996
2600.0,970,14137.544532
1500.0,506,14148.629762
1500.0,747,14164.743499
2500.0,932,14185.319264
1400.0,674,14200.52811
1750.0,615,14214.201068
1250.0,513,14225.904779
1250.0,515,14237.12067
1750.0,614,14251.159531
2000.0,711,14266.492842
1800.0,607,14280.013952
2900.0,1151,14305.162769
950.0,375,14313.33466
1650.0,737,14329.310925
1650.0,601,14342.555928
1600.0,583,14355.265769
1150.0,406,14364.343514
2000.0,864,14383.603599
1350.0,506,14395.174739
1450.0,516,14406.222635
750.0,413,14415.013805
1450.0,515,14426.69627
1100.0,447,14437.08004
1950.0,725,14452.982912
1650.0,716,14468.342152
2700.0,1037,14491.114397
1600.0,516,14503.128968
1450.0,509,14514.200284
1100.0,419,14523.169693
1500.0,568,14535.751349
1650.0,661,14549.99395
2600.0,1072,14573.501479
2600.0,964,14595.109761
700.0,281,14601.053391
1750.0,948,14621.749476
1650.0,619,14635.278526
2150.0,901,14655.416193
1450.0,507,14666.484902
1450.0,548,14678.885787
950.0,414,14687.877034
1700.0,602,14700.962684
1650.0,709,14716.391444
2350.0,870,14735.505967
2100.0,973,14757.834021
1600.0,756,14774.466666
1100.0,447,14783.933087
1500.0,572,14796.264712
1100.0,588,14809.608776
1300.0,517,14821.011359
750.0,294,14827.593555
850.0,410,14836.848081
750.0,318,14843.556404
1200.0,499,14854.389735
1800.0,777,14871.665176
1400.0,510,14883.259548
1350.0,559,14895.227409
1100.0,544,14907.333153
1350.0,582,14919.944425
800.0,309,14926.455256
900.0,575,14939.380883
400.0,193,14943.5253
1400.0,591,14957.633852
650.0,328,14965.120617
1100.0,526,14976.738445
850.0,300,14983.386317
900.0,336,14990.629918
800.0,334,14997.717636
700.0,322,15004.709707
900.0,423,15014.267478
700.0,391,15023.056623
350.0,195,15027.456045
900.0,428,15036.487397
950.0,416,15045.518818
700.0,282,15051.937253
600.0,311,15059.003269
850.0,345,15066.480203
1600.0,839,15085.369345
1600.0,690,15100.564124
950.0,551,15113.398304
650.0,279,15119.500575
950.0,302,15126.036084
700.0,283,15132.25043
950.0,417,15141.327416
1350.0,516,15152.89113
1100.0,418,15162.042917
1550.0,779,15179.267035
750.0,396,15187.880116
1700.0,795,15206.135429
1200.0,500,15217.231454
1250.0,596,15230.274794
950.0,362,15237.822431
1000.0,510,15248.994267
300.0,234,15254.024379
1200.0,560,15266.365325
1050.0,503,15277.752418
1250.0,556,15289.671634
850.0,423,15298.737063
650.0,278,15304.783854
1300.0,584,15317.463641
1250.0,670,15332.318345
950.0,420,15341.637868
850.0,487,15352.648426
1150.0,455,15362.83841
1150.0,486,15373.197223
1100.0,414,15382.877458
2450.0,967,15404.555407
950.0,372,15412.910221
1150.0,456,15422.883784
950.0,442,15432.226356
800.0,357,15440.186401
1150.0,580,15452.622162
750.0,289,15458.999434
600.0,279,15464.962882
800.0,276,15470.795953
1050.0,425,15480.032703
1100.0,430,15489.782261
1850.0,737,15505.730645
900.0,328,15512.857795
700.0,286,15518.921761
2350.0,918,15539.184987
1000.0,415,15547.959812
1000.0,425,15557.980935
950.0,597,15571.586479
1200.0,465,15581.939923
1000.0,482,15592.625958
550.0,277,15598.808667
1200.0,451,15608.427058
1150.0,462,15618.42239
1250.0,580,15631.801798
2700.0,998,15654.125713
1350.0,501,15664.990037
1200.0,416,15674.315172
1100.0,424,15684.409779
1200.0,446,15694.73302
1200.0,419,15703.851992
1050.0,388,15712.111095
900.0,349,15719.839699
850.0,405,15728.872866
800.0,321,15736.212488
1150.0,487,15747.128283
1850.0,650,15761.255005
900.0,446,15771.234182
1400.0,551,15783.391736
1600.0,669,15798.200157
2300.0,912,15818.066769
950.0,512,15829.012267
2500.0,958,15850.182639
1750.0,750,15866.742425
1450.0,651,15880.80417
1250.0,447,15891.077468
1300.0,506,15902.124939
2000.0,863,15921.262128
1950.0,789,15938.225128
1850.0,673,15953.464571
1600.0,845,15971.843882
1500.0,550,15984.096863
2050.0,751,16000.197207
1450.0,539,16012.251701
2100.0,766,16029.250283
1750.0,681,16044.025874
1650.0,670,16058.684841
1450.0,474,16069.41794
1150.0,441,16079.336246
1200.0,448,16089.484321
2150.0,864,16108.102475
650.0,307,16115.241067
2050.0,853,16133.675083
1350.0,505,16144.634181
1550.0,609,16158.334927
1150.0,453,16168.345026
1700.0,754,16184.754716
2600.0,879,16203.849476
1650.0,750,16220.439726
1250.0,501,16231.876996
1750.0,731,16249.032166
850.0,407,16257.631731
1800.0,698,16273.354887
650.0,366,16281.620845
850.0,497,16292.764312
750.0,393,16301.273098
950.0,471,16311.438237
1400.0,604,16324.784994
400.0,244,16329.840044
1400.0,632,16343.728107
1600.0,574,16356.318701
1300.0,551,16368.08766
1300.0,525,16379.620806
1300.0,637,16393.639554
950.0,440,16403.172455
1300.0,655,16417.490844
1650.0,731,16433.243603
1150.0,539,16445.655089
1550.0,653,16459.929315
1650.0,793,16477.171558
1350.0,639,16491.588835
1000.0,408,16501.116329
1550.0,608,16514.407486
1200.0,480,16524.785252
1150.0,385,16533.49326
750.0,352,16541.128513
1000.0,414,16550.138433
1150.0,387,16558.456693
950.0,380,16566.584659
1450.0,602,16580.092715
1400.0,519,16591.388846
1600.0,635,16605.337528
1800.0,715,16621.102181
800.0,450,16631.073337
1200.0,480,16642.053958
1850.0,767,16658.566758
1050.0,386,16667.067804
1500.0,572,16679.437698
1350.0,504,16690.532666
1700.0,631,16704.818061
1050.0,413,16714.005749
1000.0,415,16724.083923
2100.0,907,16743.564446
1700.0,574,16756.350419
900.0,370,16764.363067
2150.0,869,16783.177125
1500.0,638,16797.115651
2250.0,814,16814.925171
2600.0,921,16834.94273
1250.0,1203,16861.433443
1350.0,831,16879.729258
2600.0,1114,16904.097628
2000.0,1368,16934.145041
2000.0,920,16955.022324
1300.0,403,16963.573765
1500.0,548,16975.441789
1550.0,618,16988.81132
1450.0,504,16999.854702
1100.0,492,17010.674062
2500.0,927,17031.232714
1050.0,377,17039.250172
2050.0,741,17055.054884
1850.0,760,17072.037153
1050.0,587,17084.800634
1100.0,403,17093.565748
2250.0,866,17113.20953
1000.0,583,17125.768514
2350.0,870,17145.304048
2100.0,838,17163.800594
1600.0,658,17178.294412
1750.0,641,17191.989712
2300.0,931,17212.421842
800.0,398,17221.089553
2600.0,1009,17243.179421
950.0,401,17252.040374
1950.0,710,17268.12431
1200.0,450,17277.575828
1450.0,518,17288.776066
500.0,281,17294.893395
1750.0,678,17310.170255
1650.0,695,17325.097257
1250.0,521,17336.52029
2000.0,803,17353.888129
1750.0,718,17369.89632
1700.0,780,17387.450171
1550.0,649,17401.848658
700.0,278,17407.966428
1200.0,477,17418.322392
2200.0,875,17438.453061
2600.0,1045,17461.643224
2500.0,876,17480.446006
1100.0,439,17490.167933
2600.0,1004,17512.391906
2050.0,753,17528.825178
1800.0,850,17547.816814
1950.0,707,17563.319912
2000.0,861,17582.346983
1550.0,628,17596.85176
1550.0,636,17610.555561
1700.0,595,17623.57427
1850.0,762,17640.120666
1500.0,686,17655.281711
1600.0,619,17668.56992
2100.0,775,17685.674642
850.0,345,17693.127107
1800.0,715,17708.997386
900.0,356,17716.585821
2050.0,883,17735.713464
1100.0,398,17744.184635
2150.0,740,17760.648882
1900.0,842,17779.33509
2050.0,874,17798.56318
1350.0,569,17810.94435
1800.0,675,17825.328918
1100.0,420,17834.885564
2100.0,775,17851.944299
1850.0,729,17867.755419
2600.0,1205,17893.977329
2450.0,937,17915.28755
2000.0,824,17932.976071
700.0,314,17940.611345
1450.0,640,17955.096749
2450.0,950,17975.567377
1050.0,434,17985.696403
2050.0,710,18001.232362
2500.0,938,18021.275513
1800.0,831,18040.056718
2050.0,804,18057.510449
2050.0,857,18076.6195
1300.0,437,18085.974235
1850.0,640,18099.963167
1300.0,574,18112.438711
1150.0,475,18122.557805
2500.0,885,18141.752483
2700.0,1025,18164.263433
1950.0,856,18182.833885
1650.0,790,18199.985421
2600.0,944,18220.623016
2350.0,860,18239.301946
2700.0,980,18261.176596
1500.0,596,18274.136975
2350.0,857,18293.215647
2000.0,830,18311.32453
2100.0,884,18330.289447
1900.0,815,18349.132391
2600.0,1033,18371.291562
1450.0,505,18382.176211
2250.0,1065,18406.033391
2500.0,884,18425.202467
2000.0,817,18442.976749
500.0,196,18447.42996
1450.0,664,18462.164045
2500.0,967,18483.161901
2050.0,993,18504.348025
1850.0,617,18517.836091
2900.0,1277,18546.956134
2700.0,999,18569.27337
2500.0,968,18590.336192
1600.0,606,18603.482517
2050.0,752,18619.819194
2500.0,964,18640.860289
1550.0,643,18654.856767
1250.0,531,18666.549644
400.0,189,18670.525122
500.0,277,18676.57725
1500.0,547,18688.471536
1650.0,677,18703.522034
1450.0,537,18715.167579
2600.0,1106,18739.34937
1450.0,517,18750.650949
1350.0,511,18761.83051
2500.0,880,18780.768401
2500.0,1017,18802.869967
1850.0,709,18818.569485
2100.0,821,18836.61966
1900.0,722,18852.515627
2600.0,980,18874.046871
2500.0,968,18895.078722
2050.0,767,18912.568067
2000.0,794,18929.903404
1750.0,744,18947.36258
2100.0,777,18964.696151
1800.0,1250,18992.278678
2700.0,1022,19014.774911
2600.0,889,19034.187861
2500.0,1129,19058.743443
2500.0,1158,19083.932064
2050.0,815,19102.048962
2500.0,895,19121.28507
1950.0,803,19139.165707
2100.0,832,19158.135999
2600.0,919,19177.977203
2500.0,1042,19200.978969
2600.0,938,19220.813125
2100.0,795,19238.58454
2700.0,1033,19261.414931
2100.0,847,19279.925783
2050.0,691,19295.186024
1900.0,711,19311.106321
2350.0,1066,19334.047227
2500.0,963,19355.040324
2050.0,790,19372.669843
2500.0,931,19392.719254
2000.0,698,19408.417663
700.0,619,19422.190262
2450.0,895,19441.986723
2700.0,933,19463.389764
2700.0,1078,19486.820554
2600.0,1125,19511.657111
2500.0,1010,19534.20952
1150.0,474,19544.552442
2700.0,939,19565.682503
1250.0,482,19576.299441
350.0,199,19580.492728
2600.0,1006,19602.209482
2600.0,857,19621.380403
2700.0,990,19642.599251
950.0,406,19652.217799
2300.0,787,19669.954059
1950.0,634,19683.882277
1900.0,737,19699.499257
1550.0,576,19712.193284
1750.0,620,19726.429202
2000.0,781,19744.11837
2900.0,984,19765.123421
2500.0,977,19787.050124
2050.0,685,19801.785593
1750.0,632,19815.415712
1200.0,492,19826.652346
1450.0,568,19839.424974
2500.0,923,19859.334372
1400.0,489,19869.99712
2600.0,951,19890.402836
2500.0,929,19910.832466
2000.0,649,19924.921363
2500.0,894,19944.585838
3100.0,1087,19968.869338
2600.0,896,19988.441223
2100.0,766,20005.562392
1950.0,714,20021.054104
2350.0,833,20039.333142
2150.0,870,20058.623965
2500.0,1021,20081.239242
1300.0,619,20094.773895
1500.0,681,20110.075846
2200.0,817,20127.868178
2100.0,793,20145.054322
2450.0,929,20165.528789
2350.0,927,20186.006311
2150.0,708,20201.211087
2700.0,1126,20226.391226
2500.0,1000,20248.235334
3100.0,1246,20275.016763
2500.0,1009,20297.285169
2600.0,940,20317.943105
2500.0,964,20338.899777
2500.0,1259,20366.807008
2800.0,960,20387.52147
2000.0,691,20402.605157
1550.0,679,20417.297096
2300.0,880,20436.737161
1700.0,552,20448.77081
1600.0,574,20461.793873
2700.0,1023,20484.964223
1650.0,656,20499.196972
2600.0,1003,20521.940501
2700.0,1065,20544.740981
2500.0,878,20564.56638
2150.0,795,20581.645074
2600.0,970,20603.282457
1200.0,496,20614.0493
2050.0,785,20631.872222
1150.0,456,20642.082392
1450.0,611,20655.803497
1200.0,561,20668.185894
1800.0,587,20681.252783
2700.0,1001,20703.595504
2500.0,931,20724.031257
2600.0,1079,20747.994259
1600.0,581,20761.094708
1850.0,717,20777.00711
1900.0,874,20796.51604
2500.0,1031,20818.941195
2000.0,844,20838.318838
1950.0,931,20858.909219
2250.0,743,20876.179146
2450.0,905,20895.550999
2600.0,1036,20918.135674
2700.0,988,20940.498985
1050.0,419,20949.374485
2050.0,814,20967.273312
2700.0,1176,20993.714742
2800.0,1003,21016.211856
2150.0,852,21034.940051
2800.0,1041,21057.342898
2600.0,897,21076.868599
1700.0,698,21092.272011
2700.0,949,21113.401865
2700.0,1002,21135.643128
2150.0,854,21154.052662
1350.0,500,21164.901976
2050.0,815,21182.809897
2500.0,1038,21205.40486
1250.0,546,21217.056543
2350.0,886,21236.547167
2150.0,777,21253.589668
1250.0,507,21264.494175
1450.0,547,21276.431163
2200.0,767,21293.364142
2100.0,699,21309.237379
1700.0,627,21322.786784
2800.0,976,21344.150329
2150.0,831,21362.63936
2600.0,1041,21386.867384
1950.0,748,21402.851484
2700.0,968,21424.422487
2600.0,939,21444.672122
2600.0,1023,21467.73346
1550.0,568,21480.125447
2600.0,1040,21502.967769
2250.0,753,21519.553591
2100.0,837,21538.303784
2500.0,1001,21560.407992
2000.0,775,21577.69505
2300.0,899,21597.979663
2700.0,1068,21621.320786
2050.0,739,21637.480626
2600.0,932,21658.233568
2450.0,1123,21682.8283
1600.0,605,21697.517703
2500.0,949,21719.422032
2600.0,935,21740.887025
2150.0,786,21757.754499
2200.0,902,21778.323952
2500.0,971,21799.528378
1900.0,772,21817.096828
2200.0,741,21833.085927
2500.0,943,21854.768019
2500.0,1073,21878.515627
2700.0,1167,21903.856282
2700.0,1043,21927.179297
2600.0,1029,21949.462438
2700.0,997,21971.581604
2250.0,779,21988.73395
2700.0,1150,22014.13525
2800.0,1070,22037.719343
2500.0,859,22057.799913
2700.0,1106,22082.814805
2600.0,1068,22107.836449
2050.0,844,22126.845598
2800.0,1016,22149.10521
1700.0,633,22163.387124
2350.0,838,22181.626525
1650.0,739,22197.96498
2600.0,974,22219.092126
2600.0,867,22238.0106
2600.0,1036,22261.007972
2500.0,998,22282.943662
1800.0,719,22298.508075
2500.0,894,22318.35051
2700.0,1017,22340.97606
2700.0,1158,22366.436762
1050.0,407,22375.389691
2700.0,1136,22400.81716
2500.0,966,22421.868069
950.0,420,22431.086045
1850.0,780,22449.214747
2250.0,835,22467.665826
2600.0,1098,22491.893544
2600.0,1014,22514.131108
2600.0,1107,22538.623672
2600.0,825,22556.253361
2600.0,835,22575.074578
1600.0,593,22587.676252
2250.0,744,22604.019189
2800.0,1070,22627.383961
2300.0,750,22643.659058
2700.0,1070,22667.449674
2700.0,970,22688.474693
3200.0,1378,22718.829708
2600.0,865,22737.478238
2700.0,1023,22759.856327
2050.0,672,22774.160001
2500.0,977,22795.846749
1100.0,564,22807.857448
2050.0,777,22824.990217
2800.0,1093,22849.364434
1700.0,712,22864.785146
2600.0,1010,22887.023654
2800.0,1034,22909.3452
1700.0,698,22924.721108
2350.0,944,22945.302068
2400.0,914,22966.059478
2600.0,944,22986.338199
2300.0,842,23005.298005
1300.0,536,23016.961444
2700.0,1002,23039.180782
1150.0,471,23049.498425
1800.0,636,23063.538274
2500.0,1117,23088.572386
2600.0,1137,23113.932757
2150.0,860,23133.1033
2800.0,1177,23159.036628
1800.0,666,23173.3507
2300.0,964,23194.499679
2500.0,867,23213.477526
1800.0,671,23228.215419
2100.0,734,23243.913363
1750.0,649,23258.405489
1850.0,703,23273.618372
1000.0,403,23282.265922
1850.0,791,23299.392952
2200.0,778,23316.401911
2150.0,802,23333.927567
2500.0,973,23355.281774
2150.0,808,23372.493235
2300.0,834,23391.460336
1900.0,609,23405.00329
1600.0,706,23420.240813
1350.0,666,23434.56418
1800.0,595,23448.150979
2500.0,897,23468.120748
2200.0,796,23485.417615
1300.0,520,23496.6298
2000.0,735,23513.181791
1600.0,533,23524.933676
2800.0,1037,23547.662858
2600.0,1003,23569.594241
2100.0,779,23586.59766
2500.0,888,23606.159204
2500.0,962,23626.795677
2500.0,963,23648.409894
2800.0,999,23671.11433
2200.0,867,23690.071562
2250.0,810,23708.16382
2200.0,782,23725.12283
2600.0,1067,23749.098737
950.0,371,23757.028485
2700.0,1039,23780.420249
2700.0,1068,23803.926319
2300.0,871,23823.826006
2450.0,960,23845.520956
2700.0,1019,23867.461766
2500.0,910,23887.298994
2800.0,1092,23911.022658
1600.0,653,23925.341425
2100.0,762,23942.011543
1950.0,673,23957.018753
2500.0,1018,23979.136576
1500.0,569,23991.450007
2350.0,962,24012.187259
2700.0,992,24034.207294
1600.0,574,24046.962493
1750.0,593,24059.76001
1150.0,441,24069.309823
2600.0,929,24090.580422
2350.0,933,24110.461535
2700.0,1071,24134.684516
2250.0,820,24152.473056
2700.0,1066,24175.655787
2500.0,994,24197.497429
2700.0,1078,24222.298353
2200.0,726,24238.257064
2500.0,898,24257.995363
2150.0,748,24273.951744
2600.0,1106,24298.338034
2600.0,993,24319.871134
2250.0,805,24337.957577
1850.0,630,24351.094928
2600.0,1038,24375.39537
2450.0,972,24396.429108
3000.0,1314,24425.82513
2800.0,1003,24448.32066
2350.0,768,24465.128597
2700.0,921,24485.312088
2200.0,737,24501.875128
2700.0,1068,24525.58034
2050.0,884,24545.190562
1450.0,531,24556.764977
1650.0,594,24569.483736
1100.0,501,24580.608394
2100.0,761,24597.715343
2350.0,818,24615.718457
1850.0,551,24628.35933
2100.0,765,24644.89679
2600.0,1054,24667.715765
1900.0,595,24680.678766
2100.0,835,24699.330859
2500.0,906,24719.114809
1200.0,492,24729.832297
2500.0,978,24750.828574
2500.0,949,24772.245339
2500.0,889,24791.776477
2700.0,958,24812.982134
2400.0,915,24832.554019
2900.0,1027,24855.273962
2900.0,1121,24879.964749
2000.0,802,24897.440547
2250.0,829,24915.621547
1900.0,766,24932.457047
2800.0,1073,24956.402574
2100.0,795,24973.630061
2700.0,1044,24996.575783
2450.0,904,25016.80409
2400.0,896,25036.701363
2600.0,1073,25059.936603
2500.0,881,25079.518331
2350.0,867,25098.776433
2700.0,965,25120.040382
2500.0,860,25139.116793
3000.0,1209,25165.165498
1600.0,526,25177.006646
2350.0,784,25194.342364
2200.0,925,25214.908485
2900.0,1078,25238.828147
2600.0,1106,25262.873544
2700.0,943,25283.694514
2600.0,966,25304.611029
1850.0,653,25320.15777
3100.0,1073,25343.641421
2900.0,983,25364.915331
2200.0,880,25383.963084
2600.0,965,25405.030726
2700.0,939,25426.300887
2500.0,901,25446.530102
2600.0,1011,25466.887079
2700.0,1046,25488.40498
2400.0,865,25505.782335
2250.0,836,25522.774446
2450.0,779,25538.691809
2700.0,897,25556.480267
2600.0,1033,25577.23006
1800.0,585,25589.10465
2700.0,1037,25609.974928
2700.0,969,25629.781795
1850.0,605,25641.740835
2300.0,774,25657.391495
2600.0,967,25676.912138
2600.0,903,25695.379291
2250.0,866,25712.600334
2300.0,865,25729.961699
2600.0,1007,25750.597227
2600.0,899,25768.866571
1400.0,543,25779.715867
2500.0,960,25798.732422
2500.0,866,25816.590905
2800.0,1090,25838.184318
1900.0,641,25851.62467
2500.0,898,25869.526712
2100.0,795,25885.318432
2600.0,1064,25906.811672
2200.0,742,25921.561434
2700.0,897,25939.430593
2500.0,865,25957.341249
2500.0,909,25975.080171
2200.0,708,25989.275799
2000.0,620,26001.98955
2300.0,815,26018.416682
2600.0,1106,26040.736481
2300.0,828,26057.474634
2700.0,1067,26078.98588
2500.0,1039,26100.197865
2800.0,1089,26122.225528
1950.0,810,26139.254808
2300.0,766,26154.65097
2700.0,1036,26175.513255
2500.0,899,26193.62946
2250.0,783,26210.073655
1850.0,685,26223.937521
2050.0,776,26239.327027
2250.0,684,26253.377356
1700.0,671,26266.682197
2700.0,927,26286.071125
2600.0,912,26304.481406
2500.0,874,26322.34952
2500.0,918,26340.912341
2600.0,973,26360.92754
3000.0,1033,26381.624504
2800.0,1135,26404.880185
2400.0,964,26423.967666
2800.0,1038,26445.422394
2500.0,964,26464.780037
2100.0,811,26480.893259
2700.0,998,26500.603806
2600.0,939,26520.037547
2700.0,896,26538.451738
2600.0,1023,26559.121128
2150.0,696,26572.728501
2600.0,903,26591.455755
2700.0,928,26610.305723
2600.0,908,26628.349943
2350.0,879,26646.493762
2700.0,1016,26667.734359
2500.0,865,26684.892545
2500.0,861,26702.388307
2500.0,829,26719.383206
2500.0,863,26736.584119
2700.0,969,26756.062209
1650.0,643,26768.830539
2500.0,948,26788.112024
1550.0,541,26798.645581
2450.0,914,26817.269445
2600.0,914,26835.923323
2500.0,922,26855.242254
1950.0,731,26870.070864
1400.0,579,26881.425458
2700.0,1036,26902.5297
2500.0,916,26921.731698
2600.0,857,26939.594256
1550.0,516,26949.87732
2800.0,1172,26973.991447
2400.0,816,26990.946225
2500.0,862,27008.154435
2500.0,964,27028.727822
2600.0,855,27046.785151
2600.0,985,27067.690602
2600.0,1070,27089.945221
2050.0,738,27105.481695
2800.0,1068,27128.009363
1600.0,666,27142.244817
2900.0,1216,27167.294117
2600.0,1057,27188.275633
2450.0,971,27208.049147
2600.0,967,27227.281072
2600.0,867,27244.686323
2700.0,974,27263.938603
2600.0,969,27284.091112
2800.0,1174,27308.111339
2800.0,1019,27328.182365
2700.0,943,27347.679687
2800.0,1175,27371.59919
2500.0,899,27390.086678
2800.0,1103,27412.177288
2800.0,1066,27433.328105
2500.0,895,27452.102307
2600.0,863,27470.251754
2500.0,979,27490.433753
