# {"t_start": 1547409961.4894116, "env_id": "FrostbiteNoFrameskip-v4"} 
r,l,t
120.0,482,28.777252
120.0,408,45.557018
90.0,355,60.435201
140.0,393,75.90468
130.0,376,91.783755
130.0,441,109.617006
130.0,455,127.833065
70.0,332,140.077076
40.0,296,151.631474
70.0,349,166.602292
70.0,300,178.16223
90.0,365,193.704257
120.0,385,208.017382
150.0,488,226.921264
100.0,386,240.809893
120.0,425,256.976997
90.0,317,268.547163
100.0,413,284.887182
100.0,451,302.571466
90.0,425,319.729014
130.0,421,337.069778
80.0,352,351.284813
250.0,588,375.3082
170.0,461,394.617937
160.0,480,414.004644
90.0,388,430.261142
200.0,501,451.760941
130.0,454,470.33329
220.0,494,490.151458
130.0,381,504.845097
220.0,544,527.800852
180.0,482,547.926701
170.0,411,564.574671
210.0,576,590.086351
180.0,449,607.251328
200.0,420,623.605959
140.0,408,640.017713
220.0,483,660.07946
210.0,429,678.390733
230.0,506,700.949526
230.0,470,720.50914
180.0,461,741.152176
100.0,378,756.27951
180.0,422,774.345106
160.0,436,792.785939
180.0,415,809.674288
190.0,542,832.411792
210.0,543,854.127157
180.0,461,873.973017
200.0,464,892.925868
110.0,410,911.147379
160.0,385,927.340041
200.0,486,947.340958
200.0,448,966.425457
220.0,503,987.208203
210.0,529,1009.376361
180.0,417,1027.699573
210.0,437,1046.674191
220.0,456,1065.925368
170.0,401,1083.537456
240.0,468,1103.777237
230.0,541,1126.549419
170.0,476,1146.993609
260.0,645,1175.370603
200.0,420,1193.123973
200.0,441,1211.952106
200.0,436,1230.742427
220.0,454,1250.445264
210.0,535,1272.387404
190.0,413,1289.899791
200.0,445,1307.736613
190.0,414,1325.053478
180.0,411,1342.216135
140.0,408,1359.571326
210.0,460,1380.274978
230.0,556,1404.088964
230.0,512,1426.573144
220.0,423,1443.868691
210.0,487,1464.079874
210.0,520,1486.64345
210.0,483,1504.568034
230.0,440,1521.968423
220.0,477,1541.2122
190.0,514,1563.250145
230.0,462,1582.682771
220.0,426,1599.494544
180.0,517,1620.331344
200.0,585,1643.887743
210.0,439,1661.447784
210.0,517,1682.193923
240.0,547,1704.864017
140.0,414,1721.927206
230.0,518,1743.534926
220.0,513,1764.624281
210.0,453,1784.215932
200.0,509,1804.933969
200.0,428,1822.736715
200.0,439,1839.810062
250.0,510,1860.003542
170.0,508,1881.526279
220.0,460,1899.562468
220.0,445,1917.444314
210.0,448,1935.091495
230.0,469,1953.567666
230.0,558,1976.126238
240.0,537,1998.401015
250.0,492,2019.985386
240.0,524,2043.591756
250.0,555,2066.885491
170.0,413,2084.333761
220.0,472,2104.270178
210.0,537,2127.742615
230.0,478,2147.49025
220.0,459,2166.479959
210.0,485,2187.659446
220.0,448,2206.89858
240.0,571,2231.710492
210.0,482,2251.589901
200.0,424,2268.927203
240.0,555,2292.534394
210.0,583,2316.297108
210.0,471,2336.672614
200.0,436,2355.355942
250.0,590,2380.065657
240.0,473,2398.388265
180.0,472,2418.249558
180.0,437,2435.925586
170.0,406,2453.613059
180.0,409,2471.16898
210.0,420,2489.312048
190.0,517,2511.566101
230.0,465,2531.216782
190.0,516,2554.621869
230.0,468,2574.565229
230.0,492,2594.745688
260.0,624,2621.138387
220.0,551,2644.587718
190.0,528,2668.406039
240.0,648,2697.141248
230.0,477,2717.005862
260.0,592,2742.468954
250.0,486,2762.354515
250.0,549,2786.425021
200.0,466,2806.998688
230.0,552,2830.466353
220.0,493,2851.6954
210.0,495,2871.724771
200.0,548,2894.081021
210.0,503,2916.317271
200.0,447,2934.264622
200.0,407,2951.458029
210.0,503,2972.081252
200.0,481,2992.527076
220.0,446,3011.807669
210.0,430,3031.303929
230.0,578,3056.116105
210.0,499,3077.535219
240.0,541,3099.960898
230.0,468,3119.249743
210.0,513,3140.765598
260.0,554,3165.058862
190.0,448,3184.855976
230.0,519,3207.692257
270.0,608,3234.198665
210.0,467,3253.333475
180.0,391,3269.895
210.0,528,3292.56482
200.0,422,3309.511031
220.0,462,3329.285
250.0,545,3351.492191
240.0,582,3375.856563
240.0,480,3395.44522
220.0,413,3412.516653
210.0,461,3432.77078
220.0,511,3453.468143
220.0,589,3478.19768
200.0,424,3496.235532
250.0,556,3518.658278
220.0,484,3539.010229
250.0,486,3559.056323
220.0,578,3583.057735
220.0,487,3602.595233
270.0,608,3628.179559
240.0,486,3647.885521
220.0,441,3665.445557
230.0,495,3685.509877
150.0,371,3700.518577
230.0,504,3720.958289
40.0,272,3731.96935
150.0,359,3745.604506
250.0,573,3769.1891
210.0,485,3788.631916
200.0,487,3809.06953
200.0,463,3827.565571
220.0,546,3849.646621
170.0,406,3866.641325
190.0,497,3886.597243
220.0,575,3909.450271
210.0,450,3928.205209
250.0,583,3951.560536
200.0,548,3973.481219
220.0,454,3992.679579
220.0,483,4011.87389
260.0,501,4032.518619
240.0,498,4052.024931
250.0,587,4076.361151
210.0,468,4095.174261
230.0,479,4115.698135
200.0,457,4134.23962
260.0,678,4160.292659
240.0,512,4180.133725
220.0,499,4200.037836
250.0,506,4220.363573
260.0,577,4243.701273
230.0,474,4263.63159
240.0,590,4289.018158
230.0,509,4309.294971
240.0,546,4331.763095
250.0,770,4362.604546
250.0,529,4384.012251
240.0,518,4405.413934
260.0,611,4430.470832
250.0,612,4456.314525
250.0,616,4481.725136
240.0,545,4505.415155
260.0,604,4531.438938
280.0,669,4558.511651
270.0,538,4580.641267
260.0,642,4608.331766
250.0,669,4635.919157
230.0,482,4656.333755
220.0,592,4681.606093
260.0,699,4710.209733
250.0,532,4733.462191
200.0,452,4752.413625
260.0,638,4778.469194
270.0,527,4800.16186
260.0,545,4821.639953
270.0,614,4846.409489
220.0,477,4866.531898
220.0,521,4888.253501
230.0,524,4909.640414
220.0,491,4930.209998
260.0,601,4955.807732
240.0,560,4978.416414
260.0,540,5000.650152
260.0,630,5026.85401
260.0,498,5047.186959
240.0,541,5069.830056
260.0,557,5092.171071
240.0,553,5114.296727
250.0,523,5135.785858
290.0,582,5160.562704
210.0,474,5180.296987
200.0,395,5195.765752
230.0,506,5216.141252
250.0,464,5235.680815
270.0,479,5255.290939
180.0,427,5272.436465
270.0,565,5295.379448
250.0,539,5316.970173
160.0,376,5332.515619
260.0,579,5354.544333
250.0,553,5376.668006
240.0,550,5398.247715
200.0,498,5417.300155
270.0,632,5444.020972
240.0,655,5470.717507
260.0,566,5492.585668
270.0,584,5516.159818
240.0,577,5539.472534
200.0,441,5557.711435
270.0,543,5579.752781
260.0,610,5605.057631
260.0,559,5628.508078
260.0,646,5655.505974
240.0,571,5680.023402
270.0,575,5704.700336
260.0,564,5727.954356
250.0,511,5747.592505
250.0,577,5771.496673
260.0,583,5795.19517
230.0,476,5814.577266
260.0,522,5834.624588
260.0,630,5859.859746
270.0,539,5881.819608
240.0,564,5903.434697
270.0,502,5923.415083
230.0,516,5944.199071
260.0,582,5966.6331
240.0,504,5986.726254
200.0,426,6004.421446
240.0,483,6023.480994
260.0,611,6048.424821
210.0,482,6067.112728
240.0,560,6091.156746
260.0,599,6116.26456
270.0,614,6141.794038
250.0,636,6168.88146
270.0,564,6191.853295
240.0,501,6212.229562
240.0,487,6232.512837
260.0,547,6255.616149
250.0,570,6278.772841
260.0,611,6303.738999
270.0,551,6326.207823
240.0,636,6352.220624
260.0,661,6380.109324
260.0,636,6406.673074
260.0,583,6430.13496
250.0,539,6450.665064
220.0,505,6471.116302
250.0,534,6492.227139
260.0,526,6513.903482
230.0,512,6534.374795
220.0,466,6551.658125
220.0,517,6571.75218
260.0,529,6592.939709
250.0,564,6616.075652
250.0,512,6636.759023
260.0,541,6658.153832
220.0,583,6681.759549
260.0,562,6703.215992
260.0,548,6724.817185
260.0,558,6747.313019
250.0,551,6769.217956
240.0,649,6795.752849
280.0,615,6820.053524
250.0,627,6845.136282
240.0,488,6864.379652
270.0,589,6888.453948
260.0,618,6913.429484
170.0,409,6929.734505
260.0,468,6947.895954
260.0,633,6970.630062
190.0,443,6989.085159
250.0,562,7011.695118
240.0,524,7031.313694
240.0,598,7054.380519
230.0,509,7072.892523
250.0,559,7094.711185
270.0,541,7115.123815
270.0,546,7136.047163
200.0,466,7152.858962
270.0,602,7175.87392
270.0,625,7200.80437
250.0,606,7224.661122
270.0,639,7249.340824
270.0,637,7273.643366
270.0,665,7299.197078
270.0,549,7320.169163
220.0,525,7339.200636
250.0,607,7362.377946
280.0,579,7384.683609
200.0,455,7401.664067
270.0,568,7423.075209
270.0,640,7447.741173
270.0,616,7471.32992
260.0,538,7492.352521
270.0,737,7520.814226
270.0,655,7545.707217
270.0,640,7570.662652
270.0,688,7598.797621
270.0,597,7622.043524
270.0,661,7648.056041
250.0,665,7673.912007
260.0,645,7698.544271
270.0,545,7720.531782
260.0,674,7747.992533
270.0,619,7771.618707
210.0,458,7789.718934
270.0,608,7812.893671
270.0,574,7835.406827
270.0,693,7861.176901
270.0,722,7888.822486
270.0,617,7913.45406
260.0,546,7932.788773
260.0,484,7951.11572
270.0,609,7975.307697
270.0,579,7997.338581
240.0,667,8023.125748
260.0,531,8042.050294
270.0,515,8062.030507
270.0,621,8085.835286
270.0,567,8108.318731
270.0,672,8133.232784
270.0,600,8155.005498
260.0,703,8181.827187
260.0,533,8203.130688
240.0,554,8223.885616
270.0,649,8249.261529
260.0,638,8274.374878
260.0,596,8296.893773
260.0,660,8322.39661
250.0,534,8343.411506
260.0,566,8363.957671
200.0,558,8384.771175
210.0,479,8403.212357
260.0,664,8429.750739
230.0,575,8449.999409
240.0,495,8469.618553
270.0,672,8494.360724
270.0,703,8522.624468
250.0,557,8543.222086
190.0,478,8560.451867
230.0,583,8581.785583
270.0,608,8605.716561
240.0,563,8626.10321
270.0,623,8648.461774
270.0,613,8672.817113
270.0,601,8696.146245
270.0,712,8724.275276
270.0,681,8749.972829
270.0,731,8778.480507
270.0,574,8799.494251
270.0,773,8828.216405
240.0,594,8850.065012
270.0,672,8877.355752
270.0,523,8896.689769
240.0,628,8921.259745
230.0,549,8942.33727
240.0,506,8960.858005
260.0,695,8986.09768
270.0,652,9008.758427
270.0,590,9030.27664
270.0,561,9050.953462
240.0,572,9071.563675
200.0,560,9091.623592
160.0,477,9109.98217
250.0,681,9136.380819
210.0,518,9156.575941
270.0,682,9180.981002
270.0,541,9201.469077
240.0,490,9220.495213
250.0,587,9244.62839
270.0,579,9267.651274
270.0,573,9291.073969
260.0,646,9315.193783
260.0,752,9343.409404
250.0,504,9362.438948
240.0,611,9386.697923
230.0,533,9405.92657
270.0,702,9430.671075
260.0,634,9454.792243
260.0,484,9473.125203
270.0,597,9495.078533
270.0,555,9516.217695
270.0,717,9542.906802
270.0,540,9561.719429
270.0,614,9586.388106
270.0,555,9607.738711
260.0,621,9632.479709
270.0,772,9663.893174
270.0,575,9685.942837
270.0,589,9708.261382
240.0,592,9731.146079
270.0,583,9752.677496
270.0,624,9776.502172
250.0,574,9798.045826
270.0,723,9826.394669
270.0,608,9849.351533
260.0,570,9871.969179
270.0,583,9894.756728
270.0,632,9919.154158
270.0,637,9943.035051
270.0,583,9964.90282
270.0,594,9986.49504
270.0,608,10009.67294
270.0,646,10032.907856
270.0,596,10054.971895
270.0,645,10079.477621
270.0,602,10101.591731
270.0,686,10126.727245
240.0,474,10143.391628
240.0,566,10163.668839
260.0,453,10179.567442
260.0,476,10198.04147
270.0,597,10218.991437
270.0,573,10239.32425
260.0,523,10258.86748
270.0,679,10284.363201
240.0,447,10300.173151
210.0,519,10317.005163
270.0,707,10342.400565
270.0,563,10362.605451
270.0,531,10383.303864
270.0,563,10402.312773
270.0,517,10421.27929
270.0,568,10442.502381
240.0,523,10462.111506
270.0,637,10487.335345
270.0,494,10505.681452
260.0,523,10524.466102
270.0,486,10541.803152
270.0,536,10561.454306
270.0,547,10580.815243
280.0,542,10598.844752
270.0,603,10619.619602
270.0,542,10638.477571
240.0,497,10656.135725
240.0,445,10673.227646
260.0,459,10688.639043
270.0,486,10705.313085
270.0,493,10722.564017
270.0,518,10740.346671
260.0,472,10756.718752
260.0,591,10777.574697
270.0,529,10795.331547
270.0,573,10815.194537
200.0,468,10831.517584
270.0,508,10849.26438
270.0,535,10867.987174
240.0,563,10886.798843
240.0,498,10904.636483
240.0,474,10920.847478
250.0,668,10943.837025
260.0,543,10961.332435
240.0,567,10979.886354
270.0,655,11001.358482
270.0,612,11021.063656
250.0,638,11043.179996
230.0,534,11061.218127
230.0,477,11076.904609
270.0,642,11097.730744
270.0,558,11116.725089
230.0,515,11133.814626
230.0,507,11150.589739
270.0,773,11176.485244
270.0,609,11197.205633
280.0,740,11223.750089
230.0,617,11245.808945
230.0,593,11266.274057
270.0,747,11291.985945
270.0,532,11309.483279
270.0,525,11327.982923
270.0,662,11350.054271
260.0,496,11366.905493
250.0,618,11387.822051
270.0,537,11404.237287
240.0,531,11421.013633
270.0,526,11437.991225
270.0,615,11459.082419
270.0,562,11478.352991
250.0,526,11494.167345
270.0,569,11513.11408
270.0,698,11538.857983
270.0,628,11559.150053
270.0,637,11581.536767
310.0,600,11603.637583
270.0,734,11628.442033
250.0,680,11650.151646
270.0,838,11681.273701
270.0,720,11705.1974
270.0,689,11728.491716
270.0,653,11751.814355
270.0,737,11776.875036
250.0,676,11799.184205
270.0,586,11819.516719
270.0,722,11844.153972
270.0,603,11864.11569
270.0,662,11883.851945
270.0,642,11904.945938
270.0,471,11920.222938
270.0,585,11939.611513
270.0,594,11959.401505
270.0,618,11978.470803
250.0,697,12001.129236
270.0,566,12020.995017
250.0,603,12041.263874
270.0,621,12062.329699
270.0,546,12079.784093
270.0,607,12100.704364
270.0,557,12120.403099
270.0,599,12140.724293
270.0,713,12164.968356
270.0,584,12184.926197
220.0,540,12203.627423
270.0,727,12226.972267
270.0,573,12246.46568
270.0,523,12263.353219
240.0,590,12282.729156
270.0,604,12302.193874
270.0,631,12321.880095
270.0,708,12343.258596
270.0,565,12362.904147
260.0,536,12378.562656
260.0,544,12396.253437
270.0,597,12415.039852
240.0,566,12433.555461
240.0,539,12451.944797
260.0,643,12472.228107
270.0,550,12489.0368
270.0,546,12505.437437
270.0,621,12525.239592
270.0,580,12543.061698
270.0,672,12564.818969
270.0,639,12584.006396
270.0,564,12601.36523
270.0,519,12617.803177
260.0,563,12634.544597
270.0,736,12657.694042
270.0,670,12677.343293
260.0,542,12693.079131
270.0,588,12710.98699
270.0,554,12727.445126
240.0,518,12743.048564
270.0,557,12760.450287
270.0,623,12777.623173
270.0,699,12799.117074
270.0,594,12817.393164
270.0,552,12834.866172
260.0,564,12853.762432
270.0,648,12874.784588
270.0,522,12890.567805
270.0,563,12907.673903
270.0,594,12925.503786
270.0,628,12944.478562
270.0,611,12963.650938
270.0,525,12980.099192
200.0,449,12993.001768
270.0,666,13014.193491
270.0,613,13033.195132
260.0,556,13050.665956
240.0,675,13070.639896
230.0,443,13082.591501
230.0,562,13099.46389
270.0,639,13117.409405
270.0,582,13135.8124
250.0,558,13153.097506
260.0,566,13170.648737
260.0,604,13189.443907
270.0,638,13207.80634
270.0,684,13228.89821
260.0,631,13246.781806
270.0,647,13266.831204
260.0,781,13290.44598
240.0,559,13306.272526
270.0,594,13324.473017
250.0,576,13341.900558
270.0,624,13360.110132
270.0,660,13378.988844
270.0,499,13393.223979
270.0,579,13409.083107
270.0,649,13427.265658
270.0,624,13444.819261
260.0,607,13462.279655
270.0,665,13480.265167
270.0,694,13500.366289
270.0,674,13519.786124
270.0,650,13537.904248
270.0,623,13555.085577
270.0,675,13574.139677
270.0,571,13590.303208
240.0,578,13606.182482
270.0,561,13622.717672
270.0,641,13641.131181
270.0,626,13660.162207
240.0,517,13674.873302
270.0,510,13689.662202
270.0,634,13707.004917
270.0,633,13723.988153
270.0,561,13738.920839
260.0,590,13755.350587
270.0,593,13772.459985
270.0,563,13787.6029
270.0,537,13802.322903
270.0,615,13819.355835
270.0,635,13836.627182
270.0,726,13856.731762
270.0,543,13872.801328
270.0,637,13891.068851
270.0,627,13909.389492
270.0,552,13925.920316
270.0,586,13941.448838
260.0,567,13958.083159
270.0,544,13973.501844
270.0,522,13989.286806
270.0,554,14006.278069
270.0,675,14026.347024
270.0,594,14043.817418
270.0,674,14064.543976
270.0,556,14080.825425
270.0,519,14096.211511
260.0,715,14116.353148
260.0,629,14135.760605
310.0,679,14154.691323
270.0,583,14172.228368
270.0,571,14188.995847
260.0,698,14209.137105
260.0,523,14223.89389
230.0,486,14236.656036
250.0,637,14256.413248
270.0,572,14273.187531
260.0,599,14289.300565
270.0,706,14307.989875
220.0,521,14322.285506
260.0,574,14337.57748
260.0,663,14355.94725
270.0,529,14369.821962
250.0,623,14386.702057
270.0,692,14404.827763
270.0,579,14420.500193
270.0,628,14436.964918
270.0,591,14452.116786
260.0,575,14467.665381
270.0,545,14481.648144
270.0,604,14497.109812
270.0,577,14512.115256
270.0,668,14529.765496
270.0,608,14545.907311
240.0,502,14559.406582
270.0,616,14576.679387
270.0,655,14595.072124
270.0,644,14613.489305
250.0,573,14628.642152
230.0,497,14642.278611
250.0,529,14655.955062
270.0,579,14671.212105
240.0,523,14685.219902
270.0,626,14701.902985
270.0,705,14722.87992
240.0,519,14737.373102
250.0,655,14756.827714
270.0,593,14773.720281
270.0,563,14790.923064
270.0,549,14806.675894
270.0,523,14822.262665
270.0,672,14841.791345
270.0,704,14863.793924
270.0,571,14880.254502
270.0,564,14896.867556
270.0,619,14914.518675
270.0,617,14932.745503
270.0,591,14949.635514
270.0,651,14966.26547
270.0,570,14981.738853
270.0,602,14998.57503
270.0,734,15017.085813
270.0,645,15033.572432
270.0,623,15049.569379
270.0,539,15063.375888
260.0,542,15077.966243
270.0,568,15093.17103
270.0,605,15111.634752
270.0,589,15127.823496
270.0,666,15146.782327
270.0,601,15163.502551
260.0,597,15180.464113
260.0,692,15200.897733
240.0,486,15214.813828
270.0,524,15228.28227
270.0,642,15245.798588
270.0,606,15261.189761
270.0,520,15275.277031
270.0,515,15289.656724
270.0,601,15305.504284
270.0,593,15321.210655
270.0,626,15340.083544
270.0,558,15356.565519
240.0,580,15372.856801
270.0,682,15391.815553
270.0,499,15406.268442
270.0,613,15423.085109
270.0,524,15437.638893
270.0,550,15451.541564
270.0,566,15466.32845
270.0,520,15480.762661
270.0,669,15498.1492
270.0,582,15513.774982
270.0,515,15526.389772
270.0,622,15542.15588
270.0,567,15555.841986
270.0,565,15570.337087
270.0,465,15582.145377
270.0,597,15596.65604
260.0,529,15610.18826
270.0,621,15626.215714
270.0,631,15642.60781
270.0,561,15656.111797
250.0,624,15672.476441
260.0,548,15686.900807
220.0,492,15699.905628
270.0,620,15716.10973
220.0,431,15727.12641
270.0,489,15739.180993
270.0,507,15751.874616
240.0,630,15767.232491
270.0,567,15780.942238
270.0,627,15796.617764
270.0,582,15811.133143
270.0,517,15823.993049
270.0,701,15841.961237
270.0,632,15858.321314
270.0,572,15874.541497
270.0,538,15888.952244
270.0,521,15903.858021
270.0,568,15920.768373
270.0,597,15937.830253
270.0,547,15953.084185
270.0,581,15969.434211
270.0,532,15986.441559
270.0,526,16001.092767
270.0,548,16016.170853
270.0,663,16034.161913
270.0,545,16048.015378
250.0,501,16062.024588
240.0,548,16076.179089
270.0,653,16092.657882
270.0,569,16106.030931
270.0,523,16118.651376
270.0,599,16134.12212
270.0,608,16149.568144
260.0,559,16162.750715
270.0,616,16178.148016
270.0,661,16195.516135
200.0,433,16206.16147
270.0,591,16221.45359
270.0,587,16235.794815
240.0,565,16249.826029
270.0,608,16265.061708
270.0,569,16279.370981
260.0,596,16293.826988
270.0,565,16307.303011
270.0,557,16321.367127
270.0,565,16335.034736
270.0,612,16350.043059
270.0,579,16363.645273
270.0,529,16376.611309
270.0,555,16389.924773
270.0,524,16402.928005
270.0,533,16416.587672
270.0,514,16429.476981
270.0,550,16443.976519
250.0,618,16459.417007
270.0,536,16472.59844
270.0,542,16486.467438
270.0,594,16500.579449
270.0,545,16514.426984
270.0,524,16528.221047
270.0,592,16543.601253
270.0,546,16557.62395
270.0,523,16570.237288
270.0,526,16583.171869
270.0,531,16596.102069
270.0,538,16609.774914
270.0,624,16625.7794
240.0,497,16638.455112
270.0,579,16653.183915
270.0,565,16667.766066
260.0,529,16680.771885
270.0,546,16693.763147
270.0,573,16707.519311
270.0,570,16721.752971
260.0,522,16734.4752
270.0,589,16748.749409
270.0,607,16763.581636
230.0,538,16776.757952
270.0,544,16790.163987
240.0,505,16803.445974
230.0,524,16816.943333
270.0,586,16831.439637
270.0,631,16848.124643
270.0,579,16864.601682
260.0,511,16879.279777
250.0,567,16895.092914
240.0,511,16909.648443
270.0,573,16925.273413
270.0,554,16940.432359
250.0,545,16955.75398
270.0,539,16971.251082
270.0,494,16985.133995
270.0,559,17000.806325
260.0,612,17016.129103
270.0,517,17030.209908
270.0,559,17044.795432
270.0,597,17059.196203
270.0,639,17075.023343
270.0,622,17090.298714
230.0,480,17102.09273
270.0,662,17118.31826
270.0,623,17133.673328
270.0,527,17146.117544
270.0,571,17159.696274
270.0,587,17173.74194
270.0,571,17188.62133
270.0,686,17205.483032
270.0,619,17221.435522
270.0,605,17238.406414
270.0,578,17255.173467
270.0,642,17273.353435
260.0,613,17290.710495
270.0,574,17305.675632
270.0,522,17320.067887
260.0,496,17333.082967
260.0,548,17347.305781
260.0,527,17361.039173
270.0,500,17374.063267
270.0,518,17387.102571
270.0,493,17399.30061
290.0,739,17417.938571
270.0,584,17432.733763
270.0,623,17447.882673
260.0,520,17460.881543
240.0,496,17472.668397
270.0,575,17486.820126
270.0,566,17500.263609
250.0,610,17516.566812
270.0,571,17533.68955
270.0,494,17548.35136
270.0,699,17567.886804
270.0,533,17583.346323
270.0,526,17597.224189
240.0,529,17612.754312
270.0,551,17628.513743
270.0,629,17645.317772
270.0,512,17658.710057
230.0,491,17671.237831
240.0,579,17685.973992
280.0,597,17700.970347
270.0,566,17715.11054
260.0,540,17728.666484
260.0,613,17744.629741
270.0,511,17757.581907
270.0,723,17775.708585
260.0,563,17789.426324
270.0,586,17803.762607
270.0,586,17819.004414
270.0,545,17834.037596
270.0,589,17850.726409
260.0,549,17866.148133
250.0,654,17884.105654
270.0,497,17898.648462
270.0,675,17917.220057
270.0,529,17932.714979
270.0,667,17950.607522
270.0,615,17967.364672
270.0,537,17981.702185
270.0,560,17996.10978
270.0,624,18012.135634
270.0,533,18025.795123
270.0,555,18040.141969
270.0,648,18056.433767
270.0,527,18069.160278
240.0,552,18082.766534
270.0,571,18097.479885
270.0,595,18111.931062
270.0,632,18128.081875
250.0,563,18142.210752
240.0,556,18155.719418
260.0,542,18168.703986
270.0,523,18181.885674
270.0,532,18195.286144
230.0,497,18207.877368
270.0,632,18223.889637
270.0,535,18237.34425
270.0,570,18251.271137
270.0,558,18264.794632
270.0,563,18279.445055
260.0,518,18292.57328
270.0,569,18306.396925
270.0,616,18321.331499
240.0,461,18332.390693
270.0,557,18346.611043
270.0,537,18359.568456
270.0,599,18373.712544
270.0,546,18387.846575
270.0,596,18403.500233
250.0,622,18419.280887
240.0,585,18433.701939
270.0,575,18448.826337
280.0,585,18462.929774
260.0,519,18475.456149
270.0,566,18489.059309
270.0,568,18503.942883
270.0,657,18522.742263
270.0,580,18538.9787
230.0,444,18551.950324
270.0,547,18567.470332
230.0,492,18581.741012
270.0,549,18597.919097
270.0,581,18614.549193
220.0,482,18627.123384
260.0,533,18640.816092
270.0,539,18654.441028
250.0,528,18667.922063
270.0,559,18682.629791
270.0,542,18698.571841
270.0,590,18714.992543
270.0,518,18729.125858
270.0,548,18744.495615
270.0,582,18760.861009
270.0,595,18774.942889
270.0,643,18790.698914
270.0,548,18804.837826
240.0,518,18817.480752
270.0,595,18833.047159
270.0,648,18849.455025
270.0,692,18866.650552
270.0,544,18880.037269
240.0,568,18894.303316
270.0,489,18906.868911
270.0,618,18922.608095
270.0,560,18939.533313
270.0,648,18958.354417
270.0,619,18975.509802
270.0,649,18994.523771
240.0,573,19010.96732
280.0,545,19026.6228
270.0,630,19044.402474
240.0,583,19060.357169
240.0,549,19074.780043
270.0,607,19090.897624
260.0,517,19104.019569
230.0,548,19118.661196
200.0,472,19130.806471
200.0,431,19142.519654
270.0,587,19157.650461
270.0,561,19171.621262
270.0,681,19188.277858
270.0,581,19203.006454
270.0,672,19219.71773
270.0,616,19234.30814
270.0,663,19250.895238
270.0,510,19263.111286
270.0,543,19276.81844
270.0,576,19290.831612
270.0,529,19306.320309
270.0,581,19323.723151
270.0,475,19336.135537
270.0,575,19353.045344
270.0,545,19367.97001
270.0,464,19380.329818
270.0,650,19397.822363
270.0,540,19412.646711
250.0,521,19427.426169
270.0,470,19441.101489
270.0,501,19455.39996
270.0,461,19466.746109
250.0,499,19480.254699
270.0,575,19495.513249
270.0,532,19508.99342
270.0,646,19526.052331
270.0,524,19542.394049
270.0,563,19557.576264
270.0,617,19575.147515
270.0,494,19589.015578
270.0,540,19604.18768
260.0,591,19618.268392
240.0,510,19630.923943
270.0,550,19644.117635
270.0,727,19662.02725
270.0,724,19680.45549
200.0,496,19694.575665
270.0,494,19707.614921
270.0,634,19727.042839
270.0,618,19745.25638
270.0,558,19762.140356
270.0,523,19776.762209
270.0,603,19793.014976
270.0,729,19812.198369
260.0,618,19828.609536
270.0,633,19844.556944
270.0,670,19861.531194
270.0,638,19878.383136
270.0,636,19895.015764
270.0,591,19911.711114
280.0,633,19928.874131
270.0,496,19942.671443
270.0,636,19960.352318
270.0,732,19981.825775
270.0,617,20000.247648
270.0,672,20018.266119
260.0,549,20031.705593
270.0,617,20047.119682
270.0,633,20063.29586
270.0,652,20082.450804
270.0,525,20096.780558
270.0,669,20114.970227
270.0,604,20131.020121
270.0,565,20147.88691
270.0,503,20161.494594
270.0,594,20178.052313
260.0,565,20194.785975
260.0,552,20210.526045
270.0,723,20230.470761
270.0,587,20246.072896
270.0,648,20262.387884
270.0,617,20277.950704
270.0,644,20295.139381
270.0,585,20309.651282
260.0,591,20324.403288
270.0,587,20338.850705
270.0,584,20356.286529
270.0,538,20369.59161
270.0,534,20382.872688
270.0,606,20398.492585
270.0,533,20411.803782
270.0,639,20428.302082
270.0,633,20443.390254
270.0,570,20458.258365
270.0,548,20472.073207
270.0,550,20485.869023
270.0,731,20504.458568
270.0,651,20520.782534
270.0,537,20534.336881
270.0,646,20551.338647
270.0,624,20567.828513
270.0,599,20583.999507
270.0,657,20602.713181
260.0,571,20618.811779
270.0,632,20636.37553
260.0,477,20650.045563
270.0,696,20670.964338
270.0,600,20686.112937
270.0,587,20701.867159
270.0,578,20716.281634
270.0,637,20733.604745
270.0,488,20747.074203
270.0,615,20763.216044
270.0,573,20779.867331
270.0,565,20795.886851
270.0,578,20812.572046
270.0,488,20826.684676
270.0,593,20843.724021
270.0,609,20860.320707
260.0,503,20873.097996
260.0,533,20889.095924
250.0,514,20904.382661
270.0,574,20919.818428
230.0,528,20934.321466
270.0,572,20949.512357
270.0,615,20967.315833
250.0,541,20981.832878
270.0,623,20999.153965
270.0,628,21017.070211
270.0,647,21034.327581
270.0,573,21049.713069
270.0,602,21066.825932
220.0,479,21079.206558
270.0,548,21093.085266
270.0,562,21107.913278
240.0,501,21120.314077
240.0,498,21131.946861
270.0,642,21147.873314
270.0,502,21162.122123
270.0,512,21176.620416
270.0,580,21192.767964
270.0,583,21209.215378
270.0,524,21222.804133
270.0,589,21238.65939
270.0,526,21254.482137
270.0,568,21270.890851
270.0,619,21288.979469
270.0,526,21305.101341
270.0,521,21318.573324
270.0,562,21332.717843
270.0,601,21347.711852
270.0,600,21362.922324
270.0,612,21379.421056
240.0,490,21392.842679
260.0,498,21406.075414
270.0,585,21421.422599
240.0,488,21433.583274
240.0,503,21445.461881
270.0,527,21458.501996
260.0,500,21472.307905
270.0,516,21487.427611
270.0,582,21504.318226
260.0,559,21520.708303
270.0,562,21535.437858
270.0,603,21553.248999
240.0,514,21567.411999
270.0,578,21583.676012
270.0,619,21601.597533
270.0,565,21617.613959
240.0,534,21631.376278
250.0,626,21646.612531
230.0,502,21659.337463
260.0,544,21673.78663
270.0,512,21687.269377
260.0,549,21703.457766
270.0,587,21719.011245
270.0,578,21733.846981
270.0,559,21747.133713
240.0,543,21760.200269
240.0,509,21772.870051
270.0,585,21787.151779
270.0,529,21800.315272
270.0,612,21815.84833
260.0,478,21827.456326
270.0,586,21841.976134
270.0,528,21854.933066
270.0,573,21868.59149
270.0,530,21881.858354
260.0,485,21893.911198
270.0,601,21908.718592
270.0,500,21921.157758
270.0,514,21934.193249
270.0,579,21948.140084
270.0,603,21963.96763
270.0,521,21976.734618
260.0,532,21989.635598
280.0,566,22003.455652
270.0,497,22015.941238
270.0,672,22032.830928
270.0,567,22046.910283
270.0,589,22061.851809
270.0,509,22074.454426
260.0,524,22088.409025
260.0,590,22104.627248
270.0,524,22118.625111
250.0,506,22132.474449
270.0,595,22150.739731
270.0,522,22165.949978
270.0,607,22183.205756
270.0,590,22200.527573
270.0,523,22215.383048
270.0,589,22230.605695
270.0,577,22246.248924
270.0,583,22261.461103
270.0,600,22277.177443
270.0,585,22292.565521
270.0,545,22306.714257
270.0,562,22323.2205
270.0,672,22341.587628
260.0,509,22354.430435
240.0,497,22367.300778
270.0,692,22384.849261
230.0,467,22397.623634
270.0,580,22411.794481
240.0,570,22425.513293
240.0,529,22438.19227
270.0,534,22451.54095
240.0,542,22465.185724
270.0,651,22481.359635
270.0,611,22496.137768
270.0,544,22509.611663
270.0,518,22522.528584
270.0,574,22537.825812
270.0,606,22553.466517
270.0,551,22567.831237
270.0,597,22582.579864
270.0,550,22596.132103
270.0,544,22609.638747
270.0,589,22623.781114
260.0,581,22639.372923
270.0,677,22656.854826
270.0,549,22670.715546
270.0,638,22688.25147
250.0,522,22703.326173
270.0,513,22718.009802
270.0,554,22734.302747
270.0,549,22750.217544
270.0,543,22765.084188
270.0,608,22782.15996
270.0,562,22798.285142
270.0,519,22813.611762
270.0,606,22832.470964
270.0,508,22846.595261
270.0,506,22859.794536
240.0,479,22871.683393
270.0,517,22885.320316
270.0,563,22900.949023
270.0,577,22916.565449
270.0,491,22930.899921
270.0,551,22945.453227
270.0,492,22957.943099
270.0,661,22974.090303
270.0,539,22987.411705
270.0,544,23000.393124
270.0,576,23015.070084
270.0,525,23027.469801
270.0,625,23042.618785
280.0,601,23057.819339
270.0,591,23072.171246
270.0,551,23086.210121
240.0,552,23100.4191
270.0,607,23116.507357
240.0,607,23131.171674
270.0,603,23145.996118
270.0,597,23160.841549
270.0,533,23174.21502
270.0,526,23187.028377
270.0,706,23204.391573
270.0,530,23218.162108
270.0,530,23233.560206
270.0,596,23250.814613
270.0,521,23265.906785
270.0,558,23281.943712
260.0,552,23297.829137
270.0,510,23312.671773
270.0,523,23327.762261
270.0,674,23346.867379
270.0,584,23362.277778
270.0,538,23376.093342
240.0,586,23391.188848
260.0,566,23407.322081
240.0,485,23420.692892
270.0,641,23439.097411
270.0,588,23457.02789
260.0,558,23472.354264
270.0,623,23490.004139
270.0,565,23505.255323
270.0,582,23519.689074
260.0,576,23534.068687
270.0,571,23548.366447
270.0,541,23561.496103
250.0,529,23575.558889
270.0,579,23592.758416
270.0,581,23610.182839
270.0,577,23626.711575
270.0,552,23641.636271
270.0,529,23656.546846
270.0,507,23671.914999
270.0,568,23687.787538
270.0,665,23704.695755
270.0,638,23720.978239
270.0,621,23736.305246
270.0,632,23752.962862
270.0,609,23770.002761
270.0,543,23784.659867
270.0,575,23800.131144
270.0,587,23816.319083
270.0,613,23833.273669
270.0,549,23848.305711
270.0,518,23862.529615
270.0,583,23879.760559
260.0,518,23893.959619
270.0,488,23907.758799
270.0,573,23924.357964
270.0,532,23938.111853
270.0,579,23955.02233
270.0,641,23972.664026
240.0,527,23988.776443
270.0,597,24005.566852
270.0,569,24020.985583
270.0,486,24034.37153
270.0,579,24050.123512
270.0,584,24067.253154
270.0,645,24085.880105
240.0,537,24100.214171
270.0,588,24117.517185
270.0,590,24135.668012
270.0,605,24153.034244
270.0,544,24167.837811
270.0,631,24185.351369
270.0,632,24204.183075
270.0,605,24222.543709
270.0,488,24235.789227
270.0,576,24251.259792
270.0,547,24267.2803
270.0,587,24284.138412
270.0,530,24299.410021
270.0,518,24312.924065
270.0,631,24331.577108
270.0,578,24348.140387
250.0,523,24363.334199
270.0,515,24378.409296
270.0,558,24392.295237
270.0,627,24409.896938
270.0,563,24425.263911
270.0,578,24442.317774
270.0,558,24458.405925
270.0,547,24473.759947
270.0,485,24487.864163
270.0,555,24503.370064
270.0,554,24518.99819
270.0,513,24534.276766
270.0,552,24549.438451
270.0,587,24567.554796
250.0,498,24582.01042
270.0,581,24598.728929
270.0,530,24612.966635
270.0,638,24631.85125
220.0,555,24647.531844
270.0,555,24662.663572
240.0,507,24677.243848
270.0,547,24693.358201
240.0,516,24707.76867
270.0,539,24723.85482
270.0,613,24741.575988
260.0,570,24758.758701
270.0,583,24774.949964
270.0,529,24790.201738
270.0,573,24806.56016
270.0,558,24822.831249
270.0,540,24839.905439
270.0,579,24855.978837
270.0,575,24873.516363
270.0,605,24889.799257
270.0,638,24907.883012
270.0,568,24924.301854
270.0,586,24940.581352
270.0,571,24958.605261
260.0,508,24972.575024
270.0,525,24986.674829
270.0,541,25003.159586
270.0,510,25018.726028
270.0,586,25036.434976
280.0,556,25051.738143
270.0,511,25066.484059
270.0,571,25084.461014
270.0,559,25101.08749
270.0,656,25119.014782
270.0,680,25138.916893
270.0,577,25155.307347
250.0,530,25171.48714
270.0,550,25187.836601
270.0,538,25203.869237
270.0,575,25220.835127
280.0,548,25235.635155
280.0,618,25252.529723
280.0,576,25270.178469
270.0,545,25285.356539
240.0,633,25303.298037
250.0,608,25320.303392
250.0,527,25334.611332
270.0,540,25351.303964
270.0,584,25368.926245
270.0,582,25386.316771
240.0,534,25402.135785
270.0,567,25419.215631
280.0,556,25435.285889
280.0,649,25452.798266
270.0,529,25467.54482
270.0,684,25487.555279
270.0,538,25503.505182
280.0,568,25520.376273
270.0,611,25537.414356
270.0,565,25553.651031
270.0,558,25569.078581
270.0,650,25587.727674
270.0,568,25604.72065
250.0,569,25620.327078
270.0,525,25634.289126
270.0,540,25650.419749
280.0,567,25667.641401
270.0,621,25685.938115
270.0,588,25703.103256
280.0,606,25720.356737
280.0,591,25737.311586
280.0,563,25754.617496
270.0,597,25772.409182
270.0,532,25789.491786
250.0,543,25805.893008
270.0,624,25824.530229
270.0,543,25839.954761
270.0,660,25858.345516
270.0,647,25876.093927
230.0,598,25894.282552
270.0,573,25911.19402
270.0,513,25925.606828
270.0,589,25943.407362
270.0,586,25961.145549
280.0,598,25977.805124
230.0,492,25992.123239
280.0,596,26009.128258
240.0,539,26024.614525
280.0,665,26043.605155
280.0,709,26063.639205
270.0,604,26080.612018
270.0,507,26095.060011
270.0,527,26109.385749
280.0,612,26127.587775
250.0,560,26143.287155
250.0,633,26161.425711
280.0,652,26180.334978
280.0,551,26195.871305
280.0,632,26214.634095
270.0,580,26230.630353
280.0,682,26249.40651
270.0,636,26266.790243
280.0,531,26284.471819
270.0,672,26302.339722
280.0,610,26319.842095
270.0,570,26337.412008
260.0,504,26352.051963
280.0,562,26368.261736
280.0,710,26387.750108
280.0,585,26403.851458
280.0,581,26420.306226
280.0,650,26438.422566
280.0,593,26454.627973
240.0,586,26470.966692
270.0,643,26489.81862
240.0,505,26504.013987
280.0,677,26523.371706
280.0,613,26542.668276
270.0,578,26559.537756
280.0,637,26578.390418
280.0,735,26600.942608
270.0,649,26618.717382
240.0,638,26636.820902
280.0,618,26655.172786
280.0,611,26673.755567
280.0,629,26691.857027
280.0,592,26707.722164
280.0,640,26726.14198
280.0,639,26743.707733
250.0,619,26760.995418
280.0,650,26779.677634
280.0,637,26798.145805
250.0,574,26815.931445
220.0,499,26829.275393
270.0,631,26846.894078
280.0,598,26864.599671
280.0,637,26883.40952
280.0,528,26899.782531
270.0,643,26918.951372
270.0,593,26935.133945
280.0,544,26950.068787
240.0,540,26965.659726
270.0,633,26983.765278
230.0,566,26999.078242
270.0,545,27016.002551
280.0,580,27033.008434
280.0,597,27049.71528
270.0,638,27069.021021
280.0,546,27083.991667
280.0,649,27103.947548
280.0,590,27120.583686
280.0,632,27138.912167
270.0,603,27154.683612
280.0,681,27174.527136
280.0,719,27194.826806
280.0,618,27213.454569
280.0,582,27229.698803
280.0,636,27249.238695
280.0,643,27268.542111
280.0,584,27286.99223
280.0,697,27308.623501
270.0,526,27323.542222
270.0,577,27340.725083
270.0,571,27356.657387
280.0,608,27375.064607
270.0,659,27393.883112
280.0,595,27410.436858
270.0,524,27424.294821
280.0,550,27440.112217
280.0,583,27458.255704
280.0,611,27477.00166
280.0,548,27492.552042
280.0,665,27511.536341
280.0,576,27528.065449
280.0,616,27544.84674
300.0,616,27562.489381
270.0,610,27580.962365
280.0,658,27600.705255
280.0,691,27620.930241
280.0,636,27639.207741
280.0,558,27653.747547
300.0,551,27671.037815
270.0,574,27687.138707
270.0,631,27706.380176
280.0,553,27722.578743
270.0,568,27739.98798
280.0,600,27756.075915
280.0,528,27769.922213
290.0,629,27788.286626
280.0,627,27806.71407
280.0,659,27826.473298
280.0,695,27846.905976
270.0,660,27866.08178
270.0,610,27884.581196
250.0,627,27903.993413
280.0,574,27919.709545
270.0,632,27937.802537
270.0,550,27954.059149
280.0,621,27972.798217
280.0,638,27992.574234
260.0,526,28008.371285
280.0,547,28022.803881
280.0,591,28040.033218
280.0,632,28057.969597
280.0,641,28077.595239
280.0,640,28096.540915
300.0,699,28118.4334
280.0,708,28137.330814
200.0,442,28150.076931
280.0,614,28169.088968
260.0,566,28186.115707
280.0,615,28203.567654
280.0,713,28223.688475
280.0,730,28244.234281
250.0,702,28264.258376
280.0,537,28279.281745
280.0,675,28299.429876
280.0,610,28316.647471
300.0,699,28336.66867
300.0,614,28355.037627
240.0,721,28377.011057
280.0,644,28395.381946
270.0,640,28413.138556
280.0,707,28435.220431
280.0,593,28452.536808
280.0,634,28471.224546
280.0,620,28488.471989
280.0,681,28508.21141
280.0,566,28524.375171
280.0,561,28542.221122
260.0,599,28559.215884
260.0,558,28575.008799
280.0,715,28594.748085
270.0,565,28610.483902
270.0,535,28626.960331
280.0,565,28643.009244
240.0,511,28657.38815
280.0,604,28674.294866
280.0,648,28692.593084
280.0,720,28715.747382
270.0,669,28734.167129
280.0,694,28753.542199
300.0,559,28768.944331
290.0,545,28783.978681
260.0,533,28799.290399
280.0,706,28819.71838
280.0,529,28834.768434
270.0,698,28854.584343
280.0,655,28873.047535
280.0,512,28888.887936
280.0,653,28908.479853
270.0,597,28925.248206
270.0,637,28943.932597
280.0,619,28961.971755
280.0,576,28977.441377
280.0,569,28994.155219
270.0,654,29011.722448
280.0,546,29026.742194
280.0,606,29043.574343
280.0,685,29063.457298
280.0,595,29080.946629
280.0,597,29098.348331
270.0,568,29115.337069
280.0,551,29131.377794
280.0,524,29146.063916
280.0,606,29162.587179
240.0,567,29178.062778
270.0,569,29195.214081
280.0,527,29209.350385
270.0,558,29224.964514
280.0,535,29239.158807
280.0,549,29254.791554
280.0,664,29273.570247
280.0,605,29290.892227
280.0,519,29306.318498
280.0,550,29321.699108
280.0,611,29339.634922
270.0,618,29358.085038
300.0,556,29373.092798
280.0,549,29388.502918
290.0,623,29404.944844
280.0,752,29427.40992
280.0,643,29446.569283
270.0,691,29466.104087
280.0,643,29485.234208
280.0,702,29505.525896
240.0,536,29521.496128
280.0,693,29542.437159
280.0,614,29559.55676
240.0,687,29579.097862
280.0,560,29595.141472
220.0,557,29610.602852
280.0,537,29625.75433
280.0,528,29640.759685
280.0,661,29658.530022
290.0,566,29673.870368
280.0,539,29689.438601
270.0,494,29703.354677
240.0,528,29717.906182
240.0,500,29731.953743
280.0,669,29750.98989
240.0,639,29770.604665
280.0,575,29786.598939
240.0,647,29805.024392
270.0,646,29824.526607
270.0,492,29838.541409
270.0,523,29854.555891
270.0,696,29874.852288
270.0,590,29893.184645
280.0,539,29908.006782
280.0,567,29923.396607
280.0,668,29940.864331
290.0,617,29958.289539
270.0,597,29975.30458
270.0,625,29993.059754
270.0,613,30010.792612
280.0,767,30034.805043
280.0,750,30056.460686
270.0,601,30074.656671
270.0,667,30094.458461
280.0,659,30113.049145
280.0,668,30131.127136
270.0,602,30148.612842
280.0,639,30167.186709
280.0,485,30181.087375
280.0,528,30195.579188
280.0,652,30214.121369
280.0,693,30235.649855
280.0,505,30250.249502
270.0,502,30264.132961
280.0,576,30279.959723
280.0,582,30297.380966
280.0,573,30313.660971
280.0,602,30331.098551
280.0,607,30350.613623
280.0,596,30366.328472
270.0,549,30381.575907
280.0,583,30399.343774
280.0,562,30415.480267
270.0,552,30431.513305
280.0,613,30447.981387
270.0,649,30466.501735
270.0,575,30483.176792
270.0,556,30499.584735
270.0,601,30516.211157
280.0,597,30533.297654
270.0,580,30549.624461
230.0,525,30564.335855
280.0,649,30582.854934
280.0,676,30602.728899
240.0,565,30620.66839
270.0,615,30636.570077
280.0,576,30652.235199
280.0,620,30670.099291
270.0,587,30687.747244
280.0,700,30709.18591
280.0,673,30729.162314
270.0,541,30745.313101
280.0,584,30762.024087
280.0,660,30780.654871
280.0,643,30798.791349
260.0,485,30812.578841
260.0,575,30829.953496
260.0,621,30848.284119
260.0,663,30868.018065
260.0,441,30880.544083
240.0,671,30899.879056
260.0,680,30918.623073
260.0,533,30934.375198
280.0,702,30954.436269
250.0,664,30972.557345
280.0,649,30991.858027
280.0,759,31012.691222
280.0,660,31032.397863
280.0,693,31050.898852
310.0,684,31070.169527
300.0,652,31089.262867
280.0,594,31107.287765
280.0,702,31127.316286
300.0,610,31146.199768
310.0,596,31162.446875
280.0,668,31181.686219
300.0,651,31201.255766
280.0,576,31218.651871
280.0,618,31237.645805
280.0,725,31257.644032
280.0,659,31277.06976
300.0,636,31294.965475
260.0,590,31311.441145
300.0,674,31330.980198
310.0,721,31351.286639
280.0,635,31369.713774
280.0,670,31389.349622
280.0,573,31405.756766
280.0,587,31422.928696
280.0,595,31440.593831
280.0,577,31457.885799
280.0,655,31477.224886
270.0,571,31493.414678
270.0,555,31509.333245
280.0,556,31526.248452
280.0,681,31545.410451
280.0,711,31566.28989
280.0,594,31583.398351
280.0,609,31600.596452
280.0,580,31616.854506
280.0,708,31636.800279
310.0,652,31654.779103
280.0,533,31669.39993
280.0,575,31686.695552
290.0,657,31704.617782
300.0,560,31721.572971
280.0,539,31737.210232
290.0,543,31753.05865
300.0,614,31771.745607
300.0,563,31787.094619
280.0,656,31805.569829
280.0,570,31823.740078
310.0,593,31840.275893
240.0,524,31854.337734
300.0,657,31872.998845
300.0,544,31888.495215
300.0,642,31906.553147
300.0,552,31922.671019
280.0,593,31939.692184
280.0,580,31955.983615
270.0,613,31972.289211
280.0,593,31989.660587
280.0,608,32005.312695
280.0,562,32022.282519
300.0,686,32040.044969
300.0,588,32057.573633
270.0,597,32075.326254
280.0,608,32094.057074
280.0,553,32110.494108
280.0,590,32127.437754
280.0,560,32143.835014
280.0,540,32159.247528
280.0,533,32175.594829
280.0,620,32192.89913
270.0,511,32207.648715
280.0,556,32223.80357
280.0,556,32239.500234
300.0,713,32260.287063
280.0,637,32277.265644
300.0,624,32294.797899
300.0,562,32310.240439
280.0,640,32327.793971
280.0,617,32345.593636
280.0,553,32361.358761
310.0,582,32378.983808
290.0,639,32396.323779
300.0,639,32414.186018
310.0,615,32432.383463
280.0,560,32448.579299
280.0,577,32464.303562
280.0,619,32481.832582
280.0,577,32497.475762
260.0,666,32516.537267
270.0,556,32532.76107
280.0,567,32549.547579
270.0,570,32566.829745
270.0,545,32582.448529
270.0,539,32597.553931
280.0,534,32612.62328
280.0,576,32630.533786
240.0,558,32647.324405
290.0,570,32664.3071
280.0,572,32681.508363
280.0,707,32701.961274
290.0,602,32720.145627
280.0,616,32737.608399
280.0,559,32753.082252
300.0,635,32770.307522
280.0,616,32787.734539
310.0,693,32807.710947
280.0,583,32825.512991
280.0,550,32841.286781
280.0,654,32860.525689
300.0,593,32877.64993
280.0,525,32893.115316
280.0,580,32910.744456
300.0,706,32931.06714
270.0,579,32947.523419
280.0,589,32965.033212
280.0,556,32982.440386
280.0,570,32999.885997
280.0,604,33016.69689
280.0,527,33032.162006
280.0,624,33050.296502
300.0,582,33066.986315
280.0,606,33084.128387
270.0,559,33098.997113
280.0,603,33116.583696
270.0,625,33134.007834
280.0,579,33150.177846
280.0,586,33166.874771
270.0,544,33181.400882
270.0,533,33196.577225
280.0,574,33212.438819
280.0,580,33228.811806
270.0,620,33246.846786
280.0,542,33262.432138
280.0,541,33278.814649
270.0,634,33296.373296
280.0,557,33312.462464
270.0,528,33328.511112
270.0,592,33346.31895
280.0,570,33363.579401
270.0,604,33382.058387
280.0,566,33399.001049
280.0,507,33413.606696
260.0,534,33428.381756
280.0,612,33445.182641
280.0,554,33460.033843
300.0,584,33477.192291
280.0,604,33492.76404
280.0,617,33510.469811
280.0,740,33531.852849
280.0,585,33548.93086
280.0,551,33564.210877
280.0,599,33580.656531
280.0,611,33599.063153
280.0,638,33616.793453
280.0,570,33634.212452
270.0,512,33649.134613
270.0,581,33666.415286
280.0,609,33684.072029
270.0,531,33698.669974
270.0,679,33717.889192
280.0,543,33733.593851
280.0,562,33750.682391
280.0,531,33764.791966
270.0,558,33780.988242
280.0,709,33801.470773
280.0,576,33818.463699
280.0,739,33838.749474
250.0,654,33856.871816
280.0,646,33875.866208
280.0,583,33891.70216
280.0,656,33910.419817
280.0,638,33927.219911
280.0,721,33947.53221
280.0,627,33966.541326
280.0,637,33985.221237
280.0,769,34008.923428
270.0,678,34028.615116
280.0,652,34047.293087
280.0,572,34063.8881
280.0,655,34082.515414
280.0,599,34100.686719
270.0,571,34116.761828
280.0,563,34133.261696
280.0,689,34152.799128
250.0,596,34169.813087
260.0,639,34189.233578
260.0,589,34205.684818
280.0,739,34227.365618
280.0,639,34245.03752
280.0,664,34263.142735
280.0,641,34280.870667
280.0,558,34296.995312
280.0,537,34313.346576
260.0,516,34328.316472
260.0,545,34344.045386
280.0,608,34361.160641
280.0,579,34378.081636
280.0,617,34394.754705
280.0,578,34410.957395
280.0,571,34428.307907
280.0,589,34444.68223
280.0,577,34459.9274
280.0,586,34474.951221
280.0,739,34494.024565
290.0,755,34515.157263
280.0,610,34530.97732
240.0,521,34544.762983
280.0,663,34561.714109
280.0,552,34576.29506
260.0,591,34592.105647
280.0,556,34606.414336
280.0,571,34621.953304
270.0,584,34637.785347
270.0,544,34652.561911
280.0,573,34667.6762
270.0,594,34683.792378
290.0,603,34700.906465
280.0,617,34717.422004
270.0,555,34732.508496
280.0,619,34748.492259
280.0,593,34763.588833
280.0,612,34779.246819
270.0,644,34796.595616
280.0,549,34810.68712
280.0,776,34830.68077
280.0,619,34846.843705
270.0,587,34863.379641
280.0,705,34882.943696
280.0,616,34900.340168
300.0,660,34917.457917
280.0,571,34932.175472
280.0,596,34947.991847
270.0,678,34965.958999
280.0,680,34983.948794
280.0,612,34999.566104
280.0,581,35014.981933
280.0,559,35029.492578
280.0,532,35043.465118
280.0,639,35060.917224
280.0,563,35076.07154
280.0,671,35094.806529
280.0,689,35113.424336
270.0,651,35130.676287
270.0,543,35144.739069
300.0,607,35161.850196
280.0,577,35177.005062
270.0,603,35194.178391
280.0,561,35208.694819
270.0,537,35223.031951
280.0,597,35238.492418
280.0,656,35254.979678
280.0,650,35271.650098
270.0,565,35286.514632
280.0,581,35302.12795
260.0,647,35319.925605
280.0,621,35336.51353
280.0,573,35351.824074
270.0,603,35367.564432
280.0,540,35382.017492
280.0,577,35398.390536
280.0,573,35413.884247
300.0,564,35429.145963
300.0,655,35447.305441
270.0,594,35463.606898
300.0,551,35477.930324
270.0,596,35493.456648
270.0,660,35510.730735
250.0,531,35525.212221
290.0,598,35541.162736
300.0,661,35558.150309
280.0,583,35573.128914
260.0,597,35588.825328
270.0,634,35604.989741
250.0,534,35618.865755
270.0,576,35633.426266
280.0,586,35648.291485
270.0,573,35663.204464
270.0,599,35678.693311
300.0,660,35697.634941
300.0,745,35716.510205
270.0,605,35732.608781
270.0,612,35748.741761
280.0,701,35766.67367
270.0,583,35782.158978
270.0,564,35797.150608
300.0,599,35812.682744
300.0,611,35829.020153
280.0,624,35846.634278
240.0,550,35861.3333
280.0,537,35875.638606
300.0,569,35890.906149
270.0,607,35906.178508
280.0,712,35924.77062
300.0,575,35938.982698
220.0,563,35953.682441
300.0,608,35969.908785
270.0,516,35983.620308
270.0,565,35998.375477
280.0,552,36013.232024
250.0,535,36026.856239
270.0,543,36041.324797
280.0,594,36056.762497
300.0,575,36071.6023
300.0,634,36088.332641
260.0,582,36103.407357
270.0,604,36119.76185
300.0,584,36134.534757
260.0,522,36148.148295
300.0,609,36164.182188
210.0,556,36179.082881
270.0,546,36193.457626
300.0,708,36212.388751
300.0,556,36226.209967
260.0,558,36240.426608
220.0,624,36256.852496
300.0,624,36273.751626
280.0,663,36291.501111
300.0,580,36307.328436
250.0,568,36322.092485
270.0,604,36337.629763
300.0,637,36354.460089
300.0,601,36370.577947
250.0,567,36385.271251
270.0,539,36399.076973
300.0,613,36415.15254
280.0,631,36432.122127
300.0,622,36448.578336
300.0,547,36462.759705
300.0,609,36479.090539
310.0,631,36496.122907
280.0,636,36512.799541
300.0,602,36529.569616
300.0,563,36544.303408
300.0,668,36561.735296
300.0,555,36577.539534
300.0,593,36592.555974
300.0,658,36609.747095
300.0,578,36625.385743
300.0,644,36643.23998
300.0,662,36661.635301
300.0,636,36680.664703
300.0,718,36701.332842
270.0,678,36724.388764
300.0,677,36746.711315
280.0,599,36767.439575
250.0,572,36786.491703
280.0,655,36808.502387
310.0,716,36834.677219
250.0,543,36852.949924
280.0,582,36873.845706
280.0,523,36891.710828
280.0,687,36916.126042
290.0,740,36942.543207
270.0,667,36964.381073
290.0,675,36987.205124
280.0,540,37006.459671
300.0,609,37027.516172
310.0,660,37051.496043
270.0,600,37073.355383
310.0,622,37096.501248
280.0,616,37118.359404
300.0,686,37142.562116
280.0,536,37160.89444
270.0,567,37181.052443
300.0,640,37202.354609
260.0,589,37220.304025
270.0,615,37241.342604
310.0,628,37262.653487
300.0,579,37283.773122
310.0,591,37305.543797
300.0,590,37325.926132
280.0,578,37345.825957
180.0,451,37362.269609
270.0,640,37385.450589
300.0,575,37406.022372
260.0,547,37425.585884
310.0,633,37448.728302
310.0,733,37475.698539
300.0,612,37497.738131
310.0,645,37520.49946
270.0,638,37543.694426
310.0,621,37565.095219
310.0,652,37588.227844
270.0,585,37608.58999
260.0,583,37630.803938
310.0,697,37654.382204
280.0,603,37676.201185
240.0,631,37699.829364
280.0,545,37720.113437
310.0,605,37742.397043
260.0,543,37762.014076
210.0,547,37778.790967
210.0,463,37795.408657
270.0,611,37818.069125
190.0,460,37835.297214
270.0,556,37855.400054
310.0,590,37876.709159
300.0,610,37897.999341
310.0,670,37921.319995
270.0,574,37942.511826
310.0,580,37963.687103
280.0,583,37985.044132
280.0,557,38003.559374
270.0,711,38029.405795
310.0,615,38051.265918
310.0,570,38071.80409
280.0,580,38092.660749
300.0,606,38112.945248
310.0,563,38134.048986
310.0,569,38154.820992
310.0,632,38177.653485
310.0,674,38201.711917
310.0,733,38227.785627
300.0,734,38255.498615
310.0,605,38275.620789
310.0,740,38300.870486
310.0,765,38329.569841
260.0,685,38352.568092
310.0,800,38382.945535
310.0,657,38407.144792
310.0,732,38434.901762
310.0,720,38462.356766
310.0,544,38481.337754
310.0,647,38505.337738
310.0,720,38532.800385
310.0,669,38557.098048
280.0,741,38582.885233
310.0,648,38607.195529
250.0,591,38627.196689
300.0,584,38647.725879
310.0,714,38674.827045
310.0,589,38696.655246
310.0,649,38720.920922
310.0,653,38745.140359
280.0,548,38766.211646
310.0,578,38787.621806
310.0,585,38808.321734
310.0,655,38832.234914
310.0,564,38854.28654
310.0,611,38874.448857
300.0,711,38901.936458
260.0,516,38919.549659
270.0,507,38937.539349
310.0,594,38959.995361
310.0,579,38979.871942
270.0,583,39000.555827
310.0,645,39024.130435
310.0,578,39044.647332
310.0,582,39065.476792
270.0,525,39084.724422
270.0,604,39105.00523
310.0,591,39125.914673
300.0,575,39146.063597
270.0,620,39168.126076
260.0,516,39187.396531
270.0,562,39207.411518
310.0,592,39228.545092
300.0,632,39250.719399
310.0,589,39271.497559
310.0,669,39297.436296
310.0,569,39317.36126
310.0,581,39337.789151
310.0,598,39359.395645
300.0,548,39378.648604
310.0,564,39397.701461
310.0,658,39420.064329
310.0,588,39441.084707
310.0,684,39465.319622
310.0,592,39486.369514
310.0,712,39511.327368
310.0,576,39533.391164
310.0,706,39558.032929
310.0,608,39579.872255
310.0,577,39599.836922
270.0,546,39618.857231
310.0,595,39641.308821
310.0,650,39664.659093
270.0,587,39686.386293
280.0,656,39709.864909
270.0,566,39730.987825
270.0,649,39751.987202
270.0,572,39771.921979
310.0,658,39796.750936
310.0,608,39820.563946
310.0,775,39848.048225
310.0,718,39876.149587
270.0,645,39898.393742
270.0,680,39924.285776
310.0,614,39945.44036
310.0,629,39968.29208
310.0,767,39997.108669
310.0,688,40023.181898
310.0,629,40047.61304
310.0,658,40072.576122
310.0,679,40097.017664
240.0,619,40119.443633
200.0,581,40141.346692
310.0,738,40168.597625
310.0,634,40192.346828
310.0,618,40213.16409
310.0,596,40234.623301
310.0,690,40260.433023
260.0,652,40284.558233
280.0,614,40305.076822
270.0,607,40327.214925
310.0,702,40354.421768
310.0,736,40381.021181
260.0,589,40402.066117
300.0,738,40429.23571
310.0,516,40448.482373
310.0,573,40470.933743
310.0,656,40495.131549
310.0,649,40519.823333
270.0,620,40542.395403
310.0,555,40562.510615
310.0,678,40587.17579
310.0,670,40610.81701
310.0,649,40633.165483
310.0,643,40656.022294
310.0,617,40678.905577
310.0,628,40702.266501
310.0,644,40724.254224
310.0,691,40749.071902
310.0,611,40770.38657
310.0,622,40792.045743
310.0,678,40816.240267
310.0,569,40837.848932
310.0,588,40858.711635
300.0,571,40880.049592
310.0,700,40904.253132
310.0,614,40925.609374
310.0,682,40950.607143
310.0,638,40973.773935
270.0,642,40997.73305
250.0,572,41018.61045
310.0,566,41039.863345
310.0,627,41061.715405
310.0,653,41085.268316
310.0,630,41108.787919
300.0,636,41131.33568
310.0,807,41161.040646
310.0,855,41195.262041
310.0,683,41220.687984
300.0,674,41244.508653
310.0,627,41266.915977
310.0,684,41293.076461
310.0,623,41315.889008
310.0,566,41337.450092
310.0,639,41362.169907
310.0,724,41388.023477
240.0,515,41406.330537
310.0,738,41435.189859
310.0,572,41456.161643
310.0,747,41483.518878
270.0,519,41504.267154
310.0,722,41530.666687
310.0,710,41556.673323
310.0,623,41580.249453
310.0,599,41601.984475
310.0,690,41629.018345
300.0,660,41653.903831
240.0,505,41671.467969
310.0,555,41692.99618
270.0,518,41713.37137
270.0,578,41734.569387
300.0,764,41762.415547
310.0,659,41784.027448
290.0,585,41804.316267
310.0,648,41827.205206
310.0,620,41849.663991
310.0,648,41873.646571
310.0,606,41895.390423
310.0,632,41918.898238
310.0,767,41946.292279
310.0,604,41969.474506
310.0,663,41992.436407
300.0,709,42016.451709
310.0,631,42039.560739
310.0,719,42065.165333
310.0,614,42088.765899
310.0,640,42112.725384
310.0,683,42137.837773
310.0,657,42162.397437
310.0,632,42185.618391
310.0,665,42211.093559
310.0,687,42236.209587
310.0,684,42262.441585
310.0,694,42289.463021
300.0,654,42312.946213
310.0,781,42343.218822
310.0,739,42370.180586
280.0,652,42394.51638
310.0,689,42419.297478
310.0,758,42447.6379
310.0,694,42471.898071
280.0,689,42497.770844
270.0,604,42520.925218
310.0,790,42551.008975
270.0,771,42579.475796
270.0,703,42605.465868
250.0,678,42631.280785
250.0,691,42657.915786
270.0,609,42679.233509
310.0,624,42700.987595
310.0,711,42727.141664
260.0,658,42749.934507
280.0,607,42772.353018
230.0,502,42790.439419
310.0,641,42813.652831
310.0,671,42838.66263
310.0,660,42862.624137
310.0,703,42890.205128
280.0,592,42913.175178
310.0,678,42939.815507
270.0,632,42961.929673
310.0,632,42987.182897
310.0,670,43011.499725
310.0,638,43036.34357
310.0,691,43061.185321
300.0,670,43085.090806
310.0,732,43113.614908
310.0,697,43139.66879
310.0,660,43164.369723
310.0,726,43190.77522
310.0,784,43219.976063
310.0,745,43247.170195
310.0,730,43274.289641
310.0,620,43297.742162
240.0,525,43316.697139
280.0,568,43336.871959
310.0,582,43358.597781
270.0,610,43381.131785
310.0,697,43405.574885
310.0,691,43431.140105
310.0,693,43455.871744
310.0,643,43478.701406
270.0,598,43501.287537
310.0,592,43523.676275
310.0,620,43544.50065
270.0,614,43566.688357
310.0,663,43590.372594
310.0,655,43615.01315
310.0,579,43634.761965
310.0,658,43656.64519
310.0,621,43679.620184
310.0,590,43701.75521
310.0,689,43727.538089
300.0,685,43754.225535
310.0,656,43777.647009
300.0,623,43799.079674
240.0,607,43820.973471
280.0,594,43843.377937
310.0,723,43869.71096
310.0,622,43893.117074
310.0,702,43918.256663
310.0,648,43941.507203
310.0,741,43969.377965
310.0,639,43990.823737
310.0,652,44014.031111
310.0,758,44042.27036
310.0,605,44063.55697
310.0,616,44087.251239
310.0,636,44109.290251
310.0,570,44130.553726
310.0,675,44155.674495
310.0,660,44178.580739
310.0,651,44202.637836
310.0,725,44229.742007
310.0,792,44258.872794
310.0,740,44285.932758
250.0,526,44305.015913
310.0,576,44327.299705
310.0,572,44346.830767
310.0,614,44368.593951
310.0,711,44394.503858
310.0,715,44419.954916
310.0,645,44445.045563
310.0,736,44472.624044
310.0,645,44495.865291
310.0,648,44519.263536
310.0,632,44541.936665
310.0,621,44562.914279
310.0,619,44585.292498
310.0,718,44612.476717
270.0,642,44635.627539
310.0,657,44660.390282
310.0,591,44679.541311
310.0,598,44701.781601
270.0,657,44725.817686
310.0,619,44749.075663
310.0,685,44774.53786
310.0,571,44795.491798
310.0,691,44821.016005
310.0,584,44842.304364
310.0,839,44873.955034
310.0,692,44899.623719
310.0,736,44926.651519
270.0,616,44949.350478
300.0,715,44975.269986
280.0,668,44999.49787
300.0,669,45023.035123
270.0,534,45042.702651
260.0,484,45059.506481
310.0,652,45080.974432
310.0,647,45103.206609
310.0,593,45124.345609
260.0,585,45145.245743
310.0,633,45168.026989
310.0,600,45188.713586
310.0,661,45213.285473
270.0,619,45235.224272
310.0,635,45259.364039
310.0,633,45280.509024
270.0,550,45299.437366
310.0,581,45320.775584
310.0,588,45342.083818
270.0,543,45362.046312
310.0,571,45382.988217
310.0,554,45404.135331
310.0,601,45425.516959
300.0,686,45450.374809
300.0,671,45473.242912
310.0,676,45498.161614
310.0,624,45521.312415
310.0,605,45542.244302
310.0,568,45562.817119
310.0,661,45587.524523
310.0,575,45608.430107
240.0,630,45632.355278
310.0,613,45655.209046
310.0,648,45679.244993
310.0,593,45701.327764
310.0,604,45723.644541
310.0,582,45744.544559
270.0,623,45766.809129
310.0,705,45793.03627
280.0,560,45814.248676
270.0,574,45834.759409
310.0,599,45856.961853
310.0,591,45879.025774
310.0,598,45901.213246
310.0,647,45924.788475
300.0,572,45945.623638
310.0,628,45967.035655
310.0,654,45990.934349
270.0,571,46011.517438
310.0,640,46035.34997
310.0,609,46057.668324
310.0,621,46081.014585
300.0,541,46099.355825
310.0,552,46119.3612
280.0,558,46140.811203
270.0,620,46161.733569
260.0,599,46182.147908
310.0,721,46208.633548
310.0,550,46228.761005
310.0,704,46256.463032
310.0,556,46276.896434
310.0,568,46297.454038
310.0,648,46322.453268
310.0,638,46345.692112
310.0,644,46369.557061
310.0,607,46391.772794
310.0,542,46411.599052
310.0,635,46435.889325
310.0,641,46460.02493
290.0,572,46483.186507
310.0,569,46503.782194
310.0,634,46526.450619
310.0,577,46547.492579
310.0,581,46569.753322
310.0,552,46589.763495
310.0,563,46610.253614
310.0,600,46632.729334
310.0,603,46655.103311
310.0,599,46676.709054
310.0,602,46698.301687
310.0,562,46717.588683
310.0,561,46736.100761
280.0,580,46756.747775
310.0,690,46781.839909
310.0,619,46803.138582
310.0,589,46824.711122
310.0,616,46847.426803
310.0,633,46868.63241
310.0,577,46889.979016
280.0,567,46910.537477
310.0,644,46933.079384
260.0,538,46954.510146
310.0,577,46975.654114
310.0,578,46997.367721
310.0,597,47020.303147
310.0,656,47044.693368
310.0,634,47068.253468
310.0,643,47091.10025
310.0,642,47113.336871
270.0,726,47139.307261
270.0,600,47161.393556
310.0,685,47187.986499
310.0,615,47210.269419
260.0,513,47227.597217
310.0,552,47247.378072
290.0,593,47269.307684
310.0,648,47292.847675
310.0,594,47313.991456
310.0,591,47334.201395
310.0,562,47354.573143
310.0,616,47376.197945
310.0,603,47397.300002
310.0,589,47419.453143
310.0,604,47441.211412
310.0,643,47464.586162
310.0,697,47490.117898
310.0,539,47509.59551
310.0,587,47529.642007
310.0,545,47549.90448
310.0,627,47573.835768
310.0,632,47594.974058
310.0,538,47613.662308
310.0,587,47634.795535
310.0,548,47655.179246
310.0,586,47676.005023
310.0,641,47699.849572
300.0,617,47721.751899
310.0,622,47743.949873
310.0,595,47765.094434
300.0,552,47785.697231
310.0,578,47806.52761
310.0,597,47828.295424
260.0,544,47848.060608
310.0,560,47867.638469
310.0,630,47890.228544
270.0,664,47914.770992
310.0,631,47937.242467
310.0,591,47957.518443
310.0,622,47981.187312
300.0,628,48003.785951
310.0,665,48028.171233
310.0,639,48050.729112
310.0,562,48073.114107
310.0,680,48096.263605
310.0,578,48118.7501
310.0,602,48141.116776
310.0,626,48163.680825
310.0,630,48186.958009
310.0,637,48211.093112
310.0,627,48233.434604
300.0,601,48256.038573
310.0,655,48280.246032
310.0,584,48301.50636
310.0,589,48322.669268
310.0,587,48343.834808
310.0,646,48367.933194
310.0,538,48386.465009
310.0,542,48405.139689
310.0,634,48429.729556
310.0,538,48449.684778
310.0,584,48471.646872
310.0,636,48495.073352
250.0,595,48515.574055
310.0,661,48538.783632
300.0,616,48561.381836
310.0,565,48583.430484
270.0,550,48604.302866
310.0,596,48626.808951
310.0,544,48647.396236
310.0,596,48669.771077
270.0,575,48690.336539
270.0,583,48710.921509
250.0,600,48733.840027
310.0,594,48756.223816
310.0,601,48778.38518
310.0,660,48800.685911
310.0,595,48823.300633
310.0,619,48845.578686
310.0,633,48868.581148
310.0,606,48890.950747
310.0,565,48911.954161
310.0,706,48936.679027
310.0,556,48956.577572
310.0,587,48977.997534
310.0,605,48998.868794
310.0,617,49021.111471
310.0,598,49043.276709
310.0,587,49064.087938
310.0,613,49085.048146
270.0,538,49105.040739
310.0,681,49129.224566
250.0,572,49149.305614
310.0,660,49172.966767
310.0,596,49193.043366
310.0,611,49214.308259
310.0,588,49234.465146
270.0,606,49255.772054
280.0,576,49278.27101
270.0,525,49296.884716
300.0,547,49316.04941
310.0,618,49339.723243
310.0,628,49362.563972
310.0,602,49384.839127
300.0,591,49407.008082
270.0,589,49428.430755
270.0,613,49450.683962
310.0,587,49472.434944
310.0,580,49491.757154
310.0,592,49513.203203
310.0,574,49535.114584
250.0,495,49554.038591
270.0,575,49573.937912
310.0,602,49597.372707
310.0,579,49619.741814
310.0,593,49641.395584
280.0,611,49661.525204
310.0,595,49681.845249
270.0,537,49701.528273
310.0,611,49724.008603
270.0,634,49748.09683
310.0,655,49771.987777
310.0,630,49794.462741
310.0,609,49815.900471
310.0,593,49835.345861
310.0,635,49858.938104
310.0,590,49881.737684
310.0,662,49905.464738
310.0,625,49928.376812
310.0,593,49949.549502
310.0,636,49971.27144
310.0,614,49994.312999
310.0,583,50015.608084
310.0,706,50040.743553
310.0,584,50062.277107
310.0,708,50086.540796
310.0,582,50108.766681
270.0,576,50131.671925
310.0,646,50153.944262
310.0,680,50178.55943
310.0,637,50202.740289
270.0,523,50223.133445
310.0,599,50246.275918
310.0,700,50271.981247
270.0,616,50293.903434
270.0,660,50318.755184
310.0,650,50341.969436
310.0,670,50366.72851
310.0,675,50390.52208
310.0,764,50419.368848
310.0,687,50444.441458
310.0,670,50467.815847
310.0,682,50493.248345
300.0,621,50516.670611
310.0,659,50540.692334
310.0,601,50563.415334
310.0,608,50585.535466
310.0,573,50605.814985
270.0,542,50625.888381
310.0,599,50649.045871
310.0,677,50673.045201
310.0,692,50698.210639
310.0,699,50725.911043
310.0,696,50750.753172
310.0,639,50773.15976
310.0,584,50793.98616
310.0,718,50819.352474
310.0,671,50843.146262
280.0,611,50864.996718
310.0,711,50890.545472
310.0,731,50917.51472
270.0,585,50940.363152
310.0,660,50963.72421
310.0,684,50989.159728
310.0,731,51016.076632
310.0,659,51039.942723
310.0,604,51063.321313
310.0,602,51084.944313
310.0,606,51107.184011
310.0,652,51129.978316
310.0,701,51156.222652
310.0,591,51177.274214
310.0,579,51198.012843
310.0,716,51224.77097
270.0,596,51247.557373
310.0,592,51267.81549
300.0,556,51289.088014
310.0,674,51314.696885
270.0,535,51333.204897
310.0,565,51355.544798
300.0,579,51378.329739
310.0,606,51400.058051
310.0,674,51423.894549
260.0,580,51444.570168
310.0,626,51468.16374
310.0,618,51491.967427
310.0,647,51514.951012
300.0,619,51536.994462
310.0,653,51560.751457
310.0,655,51584.090379
270.0,578,51605.81058
310.0,621,51628.87778
310.0,589,51649.902536
310.0,583,51669.893695
310.0,660,51693.654281
290.0,591,51716.448704
290.0,629,51740.877846
310.0,639,51763.025382
310.0,579,51784.731684
310.0,716,51810.179764
310.0,605,51830.902818
310.0,622,51853.49563
310.0,704,51879.039264
310.0,626,51900.770528
250.0,489,51918.202279
310.0,758,51946.214828
310.0,652,51968.842533
310.0,615,51990.719857
310.0,721,52016.923989
310.0,561,52036.224557
310.0,556,52056.278703
310.0,652,52079.505599
310.0,680,52105.355262
300.0,549,52125.246888
270.0,515,52143.784843
270.0,569,52165.348657
310.0,642,52189.524492
310.0,569,52210.615119
310.0,590,52231.004274
310.0,780,52261.774428
310.0,716,52287.454038
310.0,586,52307.611434
310.0,580,52327.315578
310.0,593,52349.067884
270.0,508,52368.171638
310.0,642,52389.573553
300.0,693,52415.576605
310.0,660,52440.151723
310.0,639,52462.283415
310.0,592,52484.145814
310.0,699,52511.842068
310.0,670,52535.131352
310.0,667,52558.687458
310.0,623,52582.256756
310.0,681,52606.943377
270.0,525,52626.094416
310.0,665,52648.505285
310.0,573,52670.199704
310.0,664,52694.098737
310.0,694,52719.642105
310.0,719,52745.107765
310.0,600,52765.241581
310.0,607,52785.241118
310.0,616,52807.493838
310.0,609,52829.765201
300.0,698,52856.383883
310.0,718,52881.895342
310.0,578,52901.997706
310.0,570,52923.130693
310.0,622,52946.219049
310.0,678,52969.766451
310.0,668,52993.728966
310.0,616,53016.467021
310.0,702,53042.832129
320.0,690,53067.752955
310.0,635,53091.203374
310.0,704,53117.462964
310.0,690,53141.850635
310.0,706,53168.151426
310.0,643,53191.908032
310.0,625,53215.155767
310.0,673,53239.700093
310.0,760,53268.426513
310.0,697,53295.0476
310.0,607,53316.5742
310.0,610,53337.954155
310.0,565,53358.991712
310.0,619,53380.313785
310.0,640,53402.366162
310.0,657,53425.966615
310.0,558,53447.334784
310.0,681,53472.342825
310.0,617,53496.546044
310.0,726,53521.880931
310.0,775,53548.591735
310.0,610,53571.128334
310.0,625,53594.920892
310.0,614,53617.491828
310.0,603,53638.237028
310.0,650,53660.79105
270.0,676,53685.229483
300.0,605,53705.84687
300.0,635,53730.138578
310.0,683,53755.112931
270.0,568,53773.895278
310.0,573,53794.391269
310.0,620,53816.332431
310.0,628,53838.212548
310.0,609,53859.657598
310.0,625,53883.033144
310.0,672,53906.946927
310.0,597,53928.576199
280.0,581,53950.218664
310.0,564,53970.147128
310.0,670,53993.207767
310.0,691,54019.095296
310.0,683,54043.097416
310.0,682,54067.781963
310.0,621,54090.309447
310.0,660,54113.443572
310.0,641,54137.101805
310.0,688,54161.874332
310.0,638,54186.03599
310.0,565,54206.670849
310.0,666,54233.017571
310.0,664,54257.285473
310.0,616,54279.605048
310.0,747,54306.631998
270.0,591,54328.764199
310.0,679,54353.676624
310.0,624,54377.792448
270.0,634,54401.298601
310.0,647,54425.513096
310.0,625,54447.336647
310.0,590,54469.215346
310.0,560,54488.446607
310.0,752,54516.316331
310.0,632,54538.99006
310.0,664,54562.701203
310.0,700,54587.965981
300.0,593,54610.116106
310.0,651,54632.743488
310.0,719,54657.915792
310.0,640,54683.074525
310.0,624,54705.71226
270.0,555,54725.371356
310.0,696,54752.329168
310.0,650,54776.996259
310.0,647,54801.417948
300.0,562,54822.148161
310.0,651,54844.502731
310.0,620,54866.439695
310.0,622,54888.447946
310.0,567,54909.498717
310.0,619,54932.373238
310.0,684,54957.850051
310.0,587,54979.031078
310.0,628,55000.568549
310.0,641,55024.766694
300.0,735,55051.329248
310.0,597,55073.264644
310.0,723,55098.978759
310.0,654,55123.093841
310.0,768,55150.237181
280.0,585,55172.108591
280.0,671,55196.672594
300.0,615,55219.721264
310.0,779,55247.077032
1700.0,1100,55291.292235
310.0,629,55313.482066
270.0,656,55338.771593
310.0,678,55362.748841
310.0,707,55387.813943
310.0,717,55414.539786
270.0,670,55439.389138
310.0,755,55467.177047
310.0,685,55494.401858
300.0,671,55516.965371
240.0,631,55539.725782
310.0,600,55561.273475
310.0,719,55588.786906
310.0,745,55614.967172
300.0,681,55640.13032
310.0,686,55665.924837
270.0,589,55687.725533
310.0,662,55711.562964
320.0,843,55741.353559
310.0,624,55763.449179
310.0,671,55787.848351
310.0,657,55810.851031
310.0,753,55838.564607
250.0,522,55858.501275
300.0,652,55881.964169
300.0,688,55906.809264
310.0,699,55933.888377
300.0,666,55958.905806
310.0,713,55985.768362
310.0,701,56011.27552
310.0,616,56033.260455
310.0,662,56057.338008
310.0,572,56077.909612
310.0,737,56104.318415
310.0,619,56127.114426
280.0,548,56147.076344
310.0,638,56169.896747
310.0,686,56193.643998
310.0,602,56213.408122
270.0,533,56232.816219
310.0,635,56254.828863
310.0,577,56275.932196
270.0,629,56298.211985
310.0,675,56322.541759
310.0,684,56347.871661
250.0,609,56369.215658
310.0,672,56394.185349
310.0,692,56420.351517
310.0,677,56445.818248
310.0,622,56470.030506
310.0,675,56494.257904
310.0,662,56517.950458
110.0,305,56529.255898
310.0,716,56555.291064
310.0,653,56579.291985
310.0,629,56602.075904
310.0,624,56624.062726
310.0,578,56645.378834
310.0,608,56669.085929
310.0,642,56692.851229
310.0,638,56716.457981
310.0,751,56744.498009
310.0,636,56767.921348
270.0,661,56792.689974
310.0,602,56814.479315
310.0,725,56840.05898
200.0,516,56859.285307
310.0,673,56881.906984
310.0,699,56907.742688
310.0,615,56931.578314
310.0,644,56955.003107
310.0,699,56979.364854
310.0,643,57000.208514
310.0,598,57021.321558
310.0,642,57044.891969
310.0,664,57069.107013
310.0,675,57092.653254
310.0,603,57115.867324
310.0,741,57144.885705
310.0,705,57171.01378
310.0,636,57193.995005
310.0,602,57216.157613
310.0,806,57248.689574
310.0,653,57272.355868
320.0,734,57297.759198
310.0,602,57320.205458
320.0,787,57349.43389
310.0,647,57373.379697
310.0,655,57395.88121
270.0,665,57418.863009
300.0,756,57445.546706
310.0,577,57465.781462
310.0,661,57489.050901
310.0,671,57512.39967
310.0,772,57541.250645
310.0,697,57566.744085
320.0,722,57591.559877
270.0,666,57615.048756
310.0,704,57640.741083
310.0,691,57667.105093
310.0,540,57686.522917
310.0,710,57713.029739
310.0,688,57738.65399
270.0,603,57761.130019
310.0,679,57785.675106
270.0,680,57810.000576
300.0,798,57837.411234
310.0,696,57862.931938
310.0,653,57887.772861
310.0,597,57908.754277
310.0,615,57931.739315
310.0,660,57954.692767
310.0,559,57974.396801
310.0,673,57999.154583
310.0,757,58026.863622
310.0,709,58050.816103
310.0,593,58071.357278
320.0,833,58100.217507
310.0,640,58123.600011
310.0,728,58149.610157
310.0,710,58176.095826
310.0,679,58198.621402
310.0,596,58220.657743
310.0,724,58247.690162
310.0,576,58269.161045
310.0,718,58294.791942
310.0,652,58318.639394
320.0,710,58343.985966
310.0,653,58369.184195
310.0,601,58390.779382
310.0,713,58417.271837
310.0,685,58442.507218
320.0,759,58470.896944
310.0,594,58492.308643
310.0,705,58517.864425
310.0,702,58543.844773
310.0,593,58565.466647
310.0,668,58589.376047
310.0,621,58610.298229
310.0,747,58637.641361
320.0,721,58664.40925
300.0,526,58683.504644
310.0,632,58706.217088
310.0,657,58730.256797
310.0,590,58751.866323
310.0,688,58776.971821
310.0,576,58797.768902
310.0,670,58821.960559
310.0,573,58842.755388
310.0,668,58868.324882
310.0,633,58891.449435
310.0,685,58918.576132
310.0,582,58938.777446
310.0,691,58964.625551
310.0,806,58995.33637
310.0,604,59016.863223
310.0,555,59036.473272
310.0,638,59059.424546
310.0,600,59080.62542
310.0,648,59102.58639
310.0,583,59122.904352
280.0,615,59145.226458
310.0,633,59169.990128
310.0,669,59195.423719
310.0,657,59219.455523
310.0,610,59242.233235
310.0,657,59264.984882
310.0,604,59286.477407
310.0,681,59310.918574
310.0,620,59334.556233
310.0,664,59357.381208
310.0,652,59380.815636
310.0,633,59403.739101
310.0,589,59424.484844
310.0,599,59446.894397
310.0,651,59471.209115
310.0,670,59495.604769
320.0,680,59519.707211
310.0,634,59544.241315
320.0,650,59568.52804
270.0,569,59588.723544
310.0,708,59614.424448
310.0,637,59636.688121
310.0,642,59659.701181
310.0,645,59683.999374
310.0,587,59704.780151
320.0,783,59733.422879
310.0,750,59761.652927
310.0,673,59787.271758
310.0,635,59810.340663
310.0,650,59833.793311
310.0,651,59857.880408
310.0,692,59882.877435
310.0,677,59908.868928
310.0,653,59933.372836
310.0,615,59956.121632
310.0,621,59979.238576
270.0,576,60000.797097
1150.0,1057,60039.231502
320.0,642,60062.920334
310.0,609,60085.811484
320.0,644,60109.100537
310.0,629,60133.109507
310.0,541,60151.835743
310.0,660,60175.337389
310.0,584,60196.665484
310.0,639,60219.339091
310.0,621,60241.433202
310.0,617,60264.537897
310.0,561,60284.73404
310.0,596,60305.739184
310.0,585,60326.025954
310.0,586,60347.14386
310.0,593,60366.554543
310.0,623,60390.458166
310.0,574,60412.309626
310.0,545,60431.938134
310.0,596,60452.635064
310.0,686,60479.001418
310.0,602,60501.897354
310.0,572,60524.332624
310.0,663,60548.246764
310.0,695,60574.311927
310.0,735,60601.197165
1750.0,1092,60639.852428
310.0,574,60660.027185
310.0,583,60679.710859
310.0,594,60702.712635
310.0,603,60723.511895
2580.0,1121,60764.446016
2120.0,1071,60804.492794
320.0,669,60829.609786
2140.0,1036,60867.593778
310.0,598,60889.492594
310.0,619,60911.844256
270.0,542,60931.210041
310.0,612,60953.405714
310.0,654,60977.858387
320.0,619,61000.713908
320.0,715,61025.28476
300.0,600,61046.44469
310.0,624,61070.400906
310.0,555,61089.628959
1800.0,959,61122.823
280.0,576,61141.818773
310.0,551,61162.453136
320.0,638,61185.057601
1380.0,1022,61221.460199
250.0,511,61239.850843
310.0,580,61261.119593
2340.0,1042,61297.881256
270.0,696,61323.248454
310.0,575,61343.879376
280.0,704,61369.32713
1140.0,957,61405.011857
1300.0,906,61436.662192
320.0,588,61457.318566
320.0,780,61485.489547
320.0,749,61512.306207
310.0,589,61534.668253
310.0,609,61555.949699
310.0,640,61578.165069
310.0,635,61600.778999
320.0,668,61624.932773
310.0,644,61647.796016
310.0,608,61670.316379
280.0,634,61693.61536
300.0,583,61716.066355
310.0,640,61739.194712
300.0,613,61761.498243
310.0,622,61785.10744
310.0,611,61807.819883
320.0,625,61830.41357
310.0,604,61854.13694
320.0,706,61879.346858
310.0,701,61904.573246
310.0,695,61930.759298
310.0,670,61953.735703
310.0,655,61979.247016
310.0,683,62004.910298
310.0,636,62028.476178
310.0,608,62052.133126
310.0,724,62078.537436
310.0,657,62101.252054
240.0,590,62120.849695
1600.0,1042,62159.145906
310.0,714,62185.504391
320.0,752,62214.265197
310.0,679,62238.762626
1960.0,1096,62278.656814
310.0,616,62300.6966
2770.0,1108,62341.598527
2630.0,1256,62388.486839
310.0,606,62411.320461
280.0,670,62434.273106
310.0,597,62457.35708
1320.0,1034,62497.213622
310.0,619,62519.5047
310.0,680,62545.406073
310.0,619,62568.107284
320.0,742,62594.83945
2140.0,1074,62634.214578
310.0,663,62660.798594
2740.0,1109,62701.525129
310.0,645,62724.776868
290.0,583,62748.186273
2120.0,1018,62784.40239
2700.0,1035,62821.432414
310.0,618,62844.955361
310.0,620,62868.553957
2200.0,1055,62909.211709
310.0,647,62932.16587
320.0,630,62955.240389
3160.0,1147,62996.593281
2940.0,1174,63042.298624
3180.0,1203,63086.265274
310.0,627,63108.328195
310.0,764,63135.901689
1960.0,1021,63175.806644
310.0,596,63198.142267
2310.0,1134,63241.679977
2910.0,1181,63286.817654
310.0,619,63310.977903
310.0,615,63335.349154
2180.0,1005,63373.625367
310.0,655,63399.053691
320.0,773,63429.069204
2350.0,1121,63471.494468
2050.0,1136,63515.749761
310.0,539,63535.697688
2140.0,884,63570.287352
320.0,671,63596.605649
270.0,680,63622.483767
2220.0,969,63659.999726
3360.0,1190,63706.740261
310.0,696,63732.465041
320.0,645,63757.514084
310.0,575,63779.781637
310.0,686,63805.447695
1620.0,1013,63844.332816
310.0,621,63868.4207
2580.0,1103,63907.933518
1820.0,944,63944.798514
2680.0,1151,63989.978029
310.0,614,64012.852656
280.0,584,64033.741728
2540.0,1090,64075.87116
2520.0,1059,64116.26986
3240.0,1210,64165.460292
1660.0,1049,64207.491915
280.0,588,64226.749
3190.0,1135,64267.961354
310.0,708,64292.44385
1500.0,1081,64332.383022
310.0,667,64357.782581
2120.0,1022,64394.885909
3170.0,1238,64439.780939
2340.0,1068,64478.062279
1740.0,1047,64518.957146
1680.0,900,64552.342582
310.0,839,64583.659562
1440.0,827,64612.31187
1720.0,870,64645.019199
320.0,732,64672.03763
320.0,759,64699.949527
1460.0,838,64731.424853
1930.0,995,64767.322578
310.0,605,64788.398942
310.0,700,64815.628806
320.0,770,64843.621836
1720.0,967,64879.742493
1480.0,901,64912.482796
1280.0,887,64944.114586
1720.0,999,64980.499051
1700.0,922,65016.727381
1300.0,858,65049.926843
320.0,705,65076.082836
2080.0,868,65108.489997
320.0,755,65137.091238
1520.0,1014,65172.372203
1460.0,844,65203.631437
1740.0,914,65237.799116
270.0,599,65260.829679
1400.0,772,65288.997685
320.0,880,65322.029818
1940.0,962,65357.215658
320.0,1001,65395.327029
1080.0,1049,65434.379332
1540.0,1031,65472.036845
310.0,675,65497.154303
1880.0,879,65530.00351
310.0,808,65559.889791
1450.0,810,65591.439037
1600.0,771,65621.369618
310.0,709,65647.88565
1500.0,964,65683.060037
1880.0,848,65713.741538
2040.0,989,65751.430478
1720.0,893,65785.141844
2180.0,972,65820.691734
2320.0,938,65855.350252
280.0,657,65879.105167
310.0,759,65909.148222
1480.0,1003,65947.644953
1500.0,910,65983.712353
1260.0,844,66014.879387
1880.0,836,66045.758883
1540.0,851,66076.059289
1500.0,874,66108.69494
2080.0,855,66141.965707
2080.0,1071,66182.648224
1480.0,929,66216.083508
1500.0,813,66248.554144
1500.0,822,66278.533159
2300.0,928,66314.605987
1460.0,870,66346.297569
1680.0,835,66377.701614
2500.0,1113,66419.942327
280.0,672,66443.697583
1500.0,883,66476.330251
1720.0,857,66510.504346
1900.0,861,66544.242097
1580.0,935,66579.844392
2020.0,857,66611.8486
1480.0,793,66642.849601
1500.0,857,66675.916749
1900.0,860,66709.244788
1620.0,818,66739.50682
940.0,711,66766.053885
1680.0,841,66797.934923
1500.0,877,66831.83373
1800.0,775,66861.146501
1900.0,824,66892.154279
1300.0,1013,66929.471864
1500.0,926,66963.830637
1620.0,860,66995.462972
1440.0,837,67025.009453
1220.0,869,67058.709097
1800.0,815,67089.608222
2300.0,945,67126.239585
2080.0,852,67157.470968
1400.0,813,67189.369164
1880.0,839,67219.940544
1560.0,971,67257.402901
1980.0,1035,67297.29496
1860.0,837,67327.968266
1670.0,881,67359.637062
270.0,796,67388.428191
310.0,753,67415.287932
300.0,807,67443.93893
1850.0,880,67478.570179
1840.0,919,67511.525383
1100.0,736,67538.82481
270.0,752,67565.627223
2080.0,932,67600.460879
1740.0,1025,67637.596611
1500.0,900,67671.277159
1920.0,896,67704.307727
1430.0,902,67736.540952
1680.0,913,67768.942578
1300.0,936,67802.881287
310.0,679,67829.431278
1560.0,981,67865.963753
1500.0,900,67901.183268
1660.0,808,67931.821301
270.0,797,67960.499703
1260.0,834,67989.498828
310.0,715,68014.649474
1670.0,916,68049.384683
1860.0,989,68084.257252
1460.0,836,68116.910175
1760.0,961,68152.022907
2290.0,1131,68195.243137
1720.0,878,68227.109979
1950.0,1079,68265.561778
1850.0,1109,68307.282987
1760.0,1009,68344.434577
1540.0,933,68376.331488
2060.0,855,68407.576241
1670.0,913,68439.862638
1860.0,869,68471.422584
250.0,576,68493.371613
2020.0,879,68526.354689
2470.0,1277,68574.118038
1520.0,956,68610.579437
1500.0,881,68643.579923
1520.0,903,68677.133477
1940.0,986,68712.72933
310.0,867,68744.106534
1560.0,915,68777.898513
1620.0,1005,68812.683827
1470.0,1000,68847.607374
1360.0,931,68879.046363
1910.0,902,68914.399991
1580.0,919,68947.544607
280.0,755,68975.053126
1760.0,944,69010.976029
2560.0,971,69047.371454
1760.0,933,69080.20567
2440.0,1011,69115.699287
1700.0,955,69151.766423
2140.0,915,69185.499107
2730.0,1077,69224.79977
3070.0,1241,69271.394521
2460.0,1099,69312.611053
3500.0,1319,69362.646169
2100.0,981,69397.861649
2290.0,1045,69435.828884
2450.0,1074,69476.165978
2440.0,1231,69522.341663
320.0,875,69553.504195
250.0,604,69575.62858
1760.0,1013,69616.818264
1730.0,1112,69658.459817
1960.0,1023,69698.216453
2070.0,1115,69739.204169
2580.0,1073,69777.81429
1740.0,1003,69812.61201
1620.0,1063,69852.195786
310.0,870,69885.459677
2470.0,1145,69927.135836
1480.0,1028,69964.997693
1960.0,959,70001.558979
1500.0,893,70033.48101
2670.0,1006,70071.027305
2140.0,1148,70112.888331
310.0,857,70144.045774
2900.0,1092,70186.448205
1700.0,950,70223.363485
2180.0,1074,70262.733875
2690.0,1142,70306.522268
1700.0,953,70344.523985
1420.0,1057,70384.925573
2520.0,1067,70427.63125
1520.0,1026,70465.482371
320.0,872,70497.483265
3180.0,1217,70542.834134
320.0,709,70568.729587
2560.0,1060,70607.203484
3540.0,1376,70655.953757
2340.0,1108,70697.506522
2700.0,1128,70740.075817
3300.0,1173,70783.178054
300.0,522,70802.635801
3700.0,1173,70847.443349
3700.0,1339,70896.019065
3070.0,1149,70938.215551
2540.0,1020,70973.52041
3160.0,1177,71018.343746
310.0,697,71043.101475
2580.0,1212,71089.092064
3360.0,1264,71132.125518
1940.0,920,71166.074157
4100.0,1323,71213.658842
1760.0,1166,71255.014346
3570.0,1230,71300.47093
3230.0,1215,71344.988091
2700.0,1183,71390.153176
2840.0,1259,71436.553658
300.0,859,71467.460747
320.0,782,71496.49068
2980.0,1146,71537.906044
3110.0,1149,71580.393926
310.0,681,71604.920492
250.0,555,71624.689134
300.0,667,71650.496626
310.0,614,71670.770591
280.0,797,71697.284225
310.0,735,71724.185786
310.0,690,71751.415983
320.0,704,71776.522503
4160.0,1202,71821.865528
3400.0,1352,71870.809611
4100.0,1369,71921.113217
2300.0,1077,71962.324085
3980.0,1330,72011.644835
3820.0,1211,72053.646534
3620.0,1180,72097.026203
3280.0,1221,72139.485409
2290.0,930,72173.794855
2500.0,1080,72213.201133
2560.0,1188,72258.262302
240.0,570,72277.758344
240.0,708,72303.103898
3500.0,1262,72348.762544
240.0,517,72368.46258
2900.0,1081,72409.989318
3540.0,1128,72452.52111
3500.0,1172,72495.204275
320.0,628,72518.161724
250.0,492,72534.775178
250.0,527,72553.716371
240.0,532,72573.406501
270.0,589,72595.734856
240.0,589,72616.411237
270.0,561,72636.941758
240.0,532,72656.278142
250.0,497,72673.374838
270.0,531,72692.33311
240.0,527,72712.727083
270.0,511,72732.383225
240.0,550,72752.133169
270.0,585,72773.560238
240.0,588,72795.137805
250.0,651,72820.283205
280.0,585,72843.230572
270.0,573,72864.137673
270.0,601,72885.763202
240.0,514,72905.345232
270.0,494,72923.300188
270.0,577,72944.306089
270.0,598,72966.874599
270.0,547,72985.899409
260.0,517,73003.476887
270.0,706,73028.914782
270.0,545,73047.937407
270.0,524,73067.825366
270.0,617,73090.630875
270.0,625,73112.698207
270.0,578,73133.574952
270.0,578,73154.416791
270.0,596,73176.191102
270.0,627,73197.301506
270.0,611,73219.479001
270.0,563,73238.67807
270.0,517,73257.600507
260.0,533,73276.657947
270.0,518,73295.471674
270.0,522,73314.33784
270.0,576,73336.396506
270.0,532,73355.160079
190.0,465,73372.590253
240.0,540,73391.149944
240.0,498,73409.163016
270.0,571,73429.849483
250.0,524,73450.355588
270.0,647,73472.671986
270.0,568,73494.28718
270.0,607,73516.930058
270.0,624,73539.462343
260.0,596,73561.506735
270.0,559,73583.029391
260.0,610,73605.019164
270.0,620,73628.083014
270.0,572,73648.339629
270.0,588,73669.530452
270.0,672,73693.550983
270.0,596,73716.101119
270.0,566,73738.629765
270.0,623,73760.744619
260.0,538,73781.075111
270.0,578,73801.669323
270.0,587,73823.023623
270.0,629,73846.105934
240.0,498,73864.340001
270.0,520,73883.817252
280.0,646,73907.645657
270.0,620,73930.070728
260.0,538,73951.094105
270.0,524,73970.633971
230.0,529,73991.294323
270.0,628,74014.196422
280.0,548,74034.069159
270.0,679,74059.700929
240.0,623,74083.337004
270.0,710,74108.657223
270.0,662,74133.030007
270.0,630,74155.017451
240.0,598,74177.389652
270.0,644,74201.169014
240.0,571,74220.911475
270.0,715,74246.925074
270.0,697,74273.056044
270.0,588,74294.774622
270.0,689,74319.415745
270.0,661,74343.124063
270.0,620,74365.695016
270.0,667,74389.87805
240.0,622,74411.149877
240.0,515,74429.621731
240.0,610,74451.12569
240.0,509,74469.772766
240.0,574,74491.235887
240.0,600,74513.218832
240.0,666,74537.775237
240.0,632,74561.151931
260.0,647,74586.171195
280.0,662,74610.480254
270.0,780,74640.872124
240.0,552,74660.599809
270.0,607,74681.729381
250.0,670,74705.904812
240.0,545,74726.722749
270.0,683,74751.610284
280.0,675,74776.644004
280.0,742,74804.393858
240.0,702,74828.216789
240.0,537,74848.159427
260.0,695,74873.064255
260.0,603,74895.286295
240.0,715,74922.801657
250.0,525,74941.680603
260.0,608,74964.500834
280.0,663,74987.420841
260.0,576,75007.865217
250.0,540,75026.791842
280.0,664,75051.903296
270.0,616,75073.872466
240.0,534,75093.250771
240.0,557,75114.320882
270.0,638,75137.423895
280.0,637,75159.540574
270.0,706,75184.406093
280.0,688,75209.548101
270.0,665,75233.783168
230.0,479,75250.562449
240.0,644,75273.914841
280.0,649,75298.184378
270.0,573,75320.233589
250.0,661,75345.223526
270.0,656,75369.825319
270.0,717,75394.722882
280.0,652,75418.311353
280.0,694,75444.000531
260.0,563,75464.367286
270.0,534,75483.261759
2240.0,1301,75532.662346
240.0,603,75555.429396
310.0,736,75583.919784
250.0,648,75607.643412
280.0,715,75634.266974
280.0,673,75657.824654
260.0,607,75680.29966
250.0,539,75700.198001
310.0,685,75725.218391
240.0,640,75749.877413
260.0,737,75775.33567
240.0,570,75795.807757
270.0,617,75819.58839
3220.0,1240,75866.195713
280.0,634,75888.582899
270.0,629,75912.120938
250.0,600,75934.602736
240.0,670,75958.216699
320.0,789,75986.864267
280.0,789,76016.444211
280.0,720,76040.497345
240.0,585,76061.406252
280.0,770,76089.16881
260.0,654,76113.641912
240.0,640,76136.590307
270.0,607,76158.727882
250.0,639,76181.701822
260.0,643,76204.907182
320.0,755,76233.195641
320.0,808,76261.689727
240.0,676,76288.132868
250.0,592,76309.396347
310.0,663,76333.994143
320.0,633,76358.799097
3420.0,1197,76401.430109
2900.0,1172,76444.609244
3660.0,1363,76494.384691
240.0,651,76518.240324
3400.0,1224,76562.978672
3950.0,1402,76614.193567
270.0,737,76639.580125
270.0,632,76664.232638
250.0,634,76686.461796
2560.0,1153,76727.655248
3240.0,1389,76781.19112
270.0,651,76804.976062
280.0,715,76830.317808
3880.0,1357,76878.417612
3020.0,1278,76924.001971
3400.0,1255,76972.033408
250.0,635,76995.007894
3140.0,1182,77037.049357
320.0,765,77065.586751
320.0,712,77092.513717
320.0,795,77121.11373
250.0,613,77143.215778
320.0,873,77175.174593
310.0,856,77206.478522
320.0,781,77234.291065
320.0,697,77259.006659
320.0,728,77285.262251
320.0,634,77308.242331
320.0,704,77334.775438
320.0,823,77364.249736
320.0,744,77389.412235
2960.0,1451,77444.167729
3090.0,1307,77490.557987
2340.0,1220,77536.171943
2660.0,1173,77580.769068
3560.0,1546,77637.996585
2880.0,1247,77682.664804
3040.0,1161,77725.055434
320.0,690,77750.051337
320.0,647,77772.335492
2690.0,1159,77814.792542
3620.0,1332,77862.06011
2550.0,1214,77906.779017
3180.0,1258,77951.941341
2170.0,1145,77994.601424
2990.0,1142,78036.860732
2960.0,1111,78077.504693
3100.0,1214,78121.253819
3220.0,1243,78166.516984
4040.0,1351,78215.764036
2170.0,1082,78255.736765
3620.0,1287,78300.777479
3800.0,1468,78354.223092
2590.0,1238,78399.783939
3600.0,1309,78446.813813
3540.0,1327,78494.353492
3880.0,1381,78544.878087
2900.0,1179,78587.698119
3720.0,1223,78633.159408
3370.0,1074,78670.365839
3410.0,1274,78717.183131
3100.0,1093,78755.4604
4090.0,1167,78797.292543
3620.0,1300,78843.483907
3240.0,1281,78889.690041
2780.0,1221,78934.86454
3620.0,1285,78981.831515
3820.0,1305,79028.056724
2960.0,1240,79074.163503
2580.0,1224,79117.986516
3370.0,1325,79164.256418
3160.0,1263,79211.856956
3310.0,1222,79258.119107
3620.0,1273,79303.34043
2600.0,1222,79347.705955
3540.0,1264,79392.697151
3390.0,1253,79436.705458
4000.0,1420,79488.97409
2360.0,1089,79527.909429
2760.0,1113,79567.810271
3640.0,1319,79620.000626
3180.0,1199,79664.282543
2960.0,1117,79702.627222
3800.0,1369,79753.149623
1700.0,944,79787.028566
3400.0,1278,79834.442003
1930.0,1075,79872.020098
3960.0,1318,79920.79121
240.0,552,79939.751003
3270.0,1179,79981.398321
2100.0,1096,80022.399526
3200.0,1222,80066.99951
2540.0,1080,80106.821332
3320.0,1120,80146.718575
2500.0,1128,80188.473016
3820.0,1406,80239.604781
3540.0,1353,80290.826969
3860.0,1191,80334.133432
3530.0,1234,80378.344947
3960.0,1261,80423.375771
2910.0,1118,80462.97145
2620.0,1097,80502.40705
3500.0,1108,80543.742435
2690.0,1079,80583.462981
2450.0,1183,80626.371073
3620.0,1227,80672.127408
2540.0,1097,80711.723324
3380.0,1186,80757.278188
3500.0,1153,80799.280025
3620.0,1242,80844.692376
2750.0,1014,80881.936679
3640.0,1143,80924.709517
3080.0,1240,80969.929095
3780.0,1272,81016.404125
3700.0,1211,81059.349884
3360.0,1068,81098.447814
2160.0,1039,81135.583829
3720.0,1135,81177.481584
4000.0,1168,81220.037356
3540.0,1179,81264.074647
3120.0,1134,81305.969825
2900.0,1031,81343.054684
3480.0,1098,81382.683892
2940.0,1019,81420.485327
3500.0,1231,81462.972888
2660.0,1128,81505.321016
4000.0,1231,81551.160196
2340.0,1128,81591.575673
3540.0,1163,81634.437342
3100.0,1073,81675.076903
3100.0,1127,81716.555748
3710.0,1209,81759.639347
2960.0,1164,81802.001179
2860.0,1228,81844.676414
3290.0,1152,81888.118156
3360.0,1246,81933.853806
3710.0,1165,81977.093657
3980.0,1276,82023.607567
3580.0,1247,82067.858136
3380.0,1176,82110.728909
3530.0,1168,82154.029939
3560.0,1176,82197.83712
3680.0,1200,82244.524057
4070.0,1267,82290.675496
3150.0,1436,82342.050584
3470.0,1189,82385.695585
4160.0,1346,82433.371785
3450.0,1214,82478.360017
2780.0,1047,82516.351999
3660.0,1147,82557.247588
3980.0,1241,82602.491118
3070.0,1259,82647.411495
3940.0,1166,82690.332428
3760.0,1188,82734.94823
3500.0,1410,82786.37018
4160.0,1272,82832.675259
3800.0,1245,82876.83642
3900.0,1242,82925.153916
2960.0,1214,82969.220594
3560.0,1248,83015.113489
3550.0,1331,83063.470756
3760.0,1230,83107.157446
3760.0,1219,83153.39747
4020.0,1284,83201.276651
3990.0,1225,83245.563734
3160.0,1287,83292.144684
3490.0,1180,83333.946136
3530.0,1250,83379.278774
3730.0,1159,83424.826748
3740.0,1163,83467.780495
3890.0,1264,83513.432338
3300.0,1177,83556.896132
3570.0,1321,83606.90247
3860.0,1384,83657.864181
3760.0,1214,83701.149461
3900.0,1247,83747.874833
4020.0,1290,83794.761449
3820.0,1219,83836.896074
3910.0,1291,83883.009046
4100.0,1266,83929.51052
3140.0,1220,83973.116016
3580.0,1261,84018.791394
3710.0,1319,84065.195548
4160.0,1219,84109.721863
4150.0,1246,84152.999727
3140.0,1158,84194.453742
3740.0,1189,84237.073324
3960.0,1221,84282.772998
2940.0,1228,84327.426963
3560.0,1215,84372.160927
3700.0,1173,84413.130327
3760.0,1273,84461.459876
3350.0,1356,84507.655116
3610.0,1342,84553.623929
3310.0,1221,84597.912396
3710.0,1212,84638.766258
3690.0,1174,84680.713835
3180.0,1156,84720.958766
3100.0,1135,84759.501206
4310.0,1266,84802.737879
3320.0,1228,84842.408509
3680.0,1242,84886.203461
3730.0,1249,84929.334507
3520.0,1230,84973.645245
3960.0,1295,85018.748833
3430.0,1281,85064.644857
3760.0,1247,85107.508319
3960.0,1274,85153.74316
3760.0,1226,85195.20063
3560.0,1184,85237.663181
3750.0,1249,85281.662191
4150.0,1383,85329.834541
3160.0,1121,85368.766501
2970.0,1219,85410.248429
3700.0,1331,85455.981759
4160.0,1259,85499.987935
3350.0,1212,85542.007306
3600.0,1239,85584.747554
3340.0,1192,85625.498194
4220.0,1319,85669.350338
3760.0,1278,85714.438715
3530.0,1198,85755.740017
3530.0,1237,85798.153068
4100.0,1261,85840.375271
