# {"t_start": 1547446660.4090774, "env_id": "MsPacmanNoFrameskip-v4"} 
r,l,t
260.0,523,22.695429
300.0,778,48.77447
220.0,571,67.631241
480.0,598,88.410864
410.0,733,112.178899
490.0,608,133.328871
590.0,521,148.479465
290.0,491,164.040508
910.0,597,184.992935
420.0,655,207.438679
420.0,551,224.870557
440.0,503,242.767955
240.0,621,264.41055
360.0,699,286.71092
350.0,736,311.520699
1080.0,583,331.25531
570.0,514,349.074918
320.0,586,368.866221
910.0,504,386.618068
310.0,498,402.315834
400.0,464,418.652419
130.0,406,432.678488
90.0,292,442.813916
580.0,549,462.316197
520.0,866,491.936933
390.0,694,515.305594
380.0,547,533.51704
1720.0,744,559.674651
320.0,492,576.197361
560.0,585,596.841881
580.0,739,622.002935
610.0,876,652.571751
650.0,620,673.539812
300.0,568,693.22307
320.0,541,713.68428
870.0,716,737.887807
380.0,455,754.173469
740.0,724,780.319548
1150.0,644,802.517216
630.0,669,826.677137
800.0,651,849.819313
320.0,344,862.147125
830.0,578,881.214883
970.0,531,898.87622
790.0,558,918.335172
510.0,777,945.60482
570.0,595,967.029719
450.0,600,987.586153
530.0,448,1001.996699
340.0,396,1015.731239
620.0,827,1044.881638
360.0,583,1064.696124
1780.0,827,1093.782577
340.0,489,1110.572951
1120.0,758,1136.978199
280.0,547,1156.167066
310.0,511,1173.799657
360.0,583,1194.336623
430.0,448,1209.21504
520.0,546,1227.671896
210.0,349,1239.680377
530.0,538,1257.107458
1030.0,501,1273.748053
450.0,526,1292.758725
550.0,665,1315.90427
400.0,514,1333.443435
270.0,467,1349.128304
210.0,462,1363.994661
340.0,440,1379.848334
2240.0,602,1402.481133
210.0,368,1415.487
450.0,475,1433.301378
760.0,776,1461.089833
1000.0,776,1487.990613
1310.0,668,1511.789307
460.0,464,1528.826992
340.0,402,1544.013903
540.0,531,1562.741432
240.0,312,1575.393348
350.0,371,1589.011533
760.0,628,1610.34002
630.0,634,1631.959134
540.0,452,1648.797295
370.0,473,1666.09362
430.0,494,1682.840763
430.0,556,1701.880216
350.0,526,1721.068053
240.0,500,1739.408222
200.0,449,1754.906941
880.0,578,1775.245788
450.0,540,1794.606259
200.0,292,1805.137804
450.0,528,1823.130455
390.0,481,1840.4793
320.0,500,1857.281369
370.0,477,1873.95926
530.0,610,1895.707596
400.0,556,1915.301614
1260.0,676,1938.051747
290.0,334,1949.852824
1350.0,730,1974.08319
410.0,632,1995.813423
400.0,423,2011.18329
350.0,379,2024.87653
380.0,449,2040.46079
440.0,580,2060.44023
290.0,350,2072.397844
320.0,350,2084.181079
720.0,741,2110.107604
280.0,365,2122.381315
1100.0,595,2142.729768
480.0,546,2160.998265
1430.0,859,2192.168648
150.0,391,2205.909443
660.0,602,2226.798165
300.0,438,2242.554587
680.0,890,2274.038554
270.0,471,2288.757167
430.0,510,2306.434269
220.0,358,2318.294651
330.0,459,2333.76341
540.0,573,2354.579265
320.0,435,2369.10306
400.0,436,2383.785813
440.0,406,2399.159431
470.0,450,2414.099535
400.0,440,2429.182367
130.0,286,2440.178525
670.0,600,2461.948168
1350.0,740,2487.494217
490.0,500,2505.632465
260.0,369,2519.600626
880.0,541,2539.579601
490.0,520,2556.894673
560.0,606,2578.216794
310.0,550,2597.792272
660.0,560,2617.256868
440.0,449,2632.971236
830.0,686,2656.821901
440.0,439,2673.194278
310.0,369,2686.637611
720.0,571,2705.693602
340.0,452,2720.05346
630.0,792,2748.119932
590.0,648,2770.603792
620.0,670,2792.468396
730.0,711,2817.445766
1300.0,886,2848.363775
380.0,742,2873.218854
130.0,296,2883.839148
440.0,836,2912.142895
570.0,643,2934.806244
400.0,794,2962.900631
600.0,800,2990.310868
450.0,708,3013.956068
690.0,608,3036.965279
930.0,589,3058.057625
740.0,645,3080.415346
1170.0,878,3110.25375
590.0,516,3129.32043
450.0,654,3153.2816
450.0,599,3172.421403
610.0,662,3196.017265
640.0,639,3217.903565
490.0,604,3237.033792
470.0,595,3256.484308
1170.0,696,3281.078332
1290.0,741,3307.008226
760.0,688,3331.63334
720.0,1083,3368.810878
690.0,597,3388.930808
460.0,465,3405.166047
880.0,815,3433.799775
480.0,716,3459.553162
830.0,689,3484.703095
510.0,603,3506.054763
530.0,635,3528.693613
680.0,825,3558.790806
530.0,448,3574.28038
520.0,612,3595.582919
1170.0,668,3618.470615
720.0,634,3640.598925
650.0,594,3661.922879
840.0,671,3685.585152
1260.0,807,3715.556172
1250.0,719,3740.971681
600.0,649,3764.891394
750.0,608,3786.537707
490.0,639,3810.523278
1180.0,619,3831.424979
1230.0,789,3860.575393
650.0,625,3882.955472
480.0,525,3900.731754
400.0,496,3917.832182
510.0,538,3936.790145
670.0,739,3963.379789
1400.0,785,3991.377034
960.0,736,4017.079869
400.0,635,4039.822898
720.0,717,4064.039495
1080.0,560,4083.093951
940.0,817,4112.892821
1260.0,675,4134.974626
990.0,809,4162.192755
550.0,524,4179.085545
490.0,581,4200.357904
750.0,535,4218.462821
1590.0,1170,4259.296872
600.0,636,4281.496329
950.0,696,4307.805057
770.0,698,4334.453736
480.0,499,4352.302464
760.0,1010,4390.337593
720.0,549,4408.908175
750.0,623,4429.558379
620.0,603,4452.07718
1110.0,1021,4490.585426
890.0,936,4524.084565
660.0,651,4545.962038
1110.0,947,4578.567966
960.0,786,4606.502219
480.0,512,4625.184185
560.0,532,4644.049232
840.0,523,4662.027045
730.0,631,4684.896899
630.0,506,4701.818158
950.0,747,4727.672461
1180.0,787,4755.861045
430.0,516,4773.706213
430.0,511,4791.608533
570.0,488,4809.20756
790.0,740,4836.915983
600.0,742,4862.163806
1100.0,896,4893.394891
2200.0,775,4920.961434
840.0,619,4942.752315
710.0,584,4962.398756
960.0,694,4986.51807
500.0,445,5002.701287
760.0,684,5026.820539
600.0,638,5049.482062
640.0,571,5068.991894
1370.0,833,5098.64828
440.0,486,5116.857613
710.0,696,5140.79583
390.0,437,5155.661181
620.0,634,5178.08862
1000.0,832,5207.826238
1320.0,675,5230.365244
560.0,712,5256.57427
2800.0,960,5290.570873
1390.0,1134,5329.491261
560.0,630,5351.293143
590.0,608,5373.036627
1240.0,714,5398.215866
890.0,772,5425.705574
800.0,645,5449.663404
1080.0,630,5473.309911
1280.0,849,5504.867475
960.0,877,5537.914457
1190.0,828,5568.230215
1440.0,711,5594.414307
840.0,820,5622.973634
1230.0,685,5649.443046
450.0,357,5662.656165
570.0,461,5679.47925
600.0,508,5698.179578
620.0,497,5715.159992
990.0,639,5737.694689
480.0,654,5761.8662
750.0,645,5787.862521
870.0,1038,5825.378733
720.0,589,5846.941949
770.0,761,5871.210068
1450.0,726,5896.742089
420.0,446,5913.166408
490.0,543,5931.346002
480.0,459,5948.085198
1460.0,763,5974.912018
630.0,726,5999.209037
410.0,424,6013.860621
760.0,793,6043.062262
860.0,765,6070.071338
830.0,921,6102.49225
920.0,653,6125.635657
910.0,580,6145.861462
690.0,602,6167.632487
490.0,488,6186.217327
950.0,752,6213.025113
590.0,722,6238.684213
1230.0,656,6261.895687
660.0,502,6279.831429
600.0,718,6303.718623
870.0,670,6328.992628
850.0,869,6361.73764
940.0,807,6391.525847
430.0,520,6411.032221
520.0,463,6428.685162
860.0,605,6449.488617
990.0,701,6476.170972
1010.0,727,6501.914072
870.0,1044,6537.701019
410.0,461,6553.636411
630.0,508,6571.636636
710.0,560,6592.663461
740.0,647,6616.472051
370.0,353,6628.383128
1230.0,850,6657.183174
670.0,539,6676.040462
670.0,552,6695.878976
510.0,516,6714.173877
340.0,466,6729.671111
850.0,725,6757.749328
660.0,521,6775.540473
560.0,451,6792.829509
780.0,613,6814.44866
390.0,414,6830.637438
430.0,419,6846.174087
570.0,636,6869.065207
530.0,433,6884.196836
580.0,480,6901.461887
470.0,440,6915.394389
900.0,721,6941.910749
1190.0,656,6966.891366
380.0,481,6983.443587
680.0,790,7012.561706
720.0,826,7042.37636
370.0,430,7059.128352
850.0,636,7082.166837
650.0,570,7102.908899
590.0,475,7120.835859
380.0,397,7134.773079
490.0,422,7150.602213
510.0,425,7164.534351
540.0,484,7182.073148
380.0,421,7198.078737
440.0,373,7210.787127
650.0,594,7231.697622
760.0,632,7254.995857
570.0,480,7271.67649
1530.0,709,7295.966034
460.0,425,7311.484493
870.0,725,7336.88673
880.0,603,7357.3149
520.0,496,7374.61305
560.0,534,7394.34058
530.0,476,7411.339883
510.0,464,7427.871639
740.0,596,7449.238921
480.0,490,7466.176528
260.0,449,7482.030654
290.0,393,7496.502049
470.0,493,7513.851726
540.0,465,7529.695162
810.0,631,7549.480988
520.0,447,7564.82702
1250.0,640,7587.644406
490.0,522,7604.895412
430.0,467,7622.106223
890.0,605,7643.996543
390.0,411,7659.174452
2060.0,987,7694.121583
510.0,572,7715.621585
290.0,322,7726.870306
470.0,424,7741.594074
430.0,450,7757.0479
670.0,564,7777.044693
470.0,413,7792.867183
540.0,468,7808.445219
640.0,828,7838.499922
1110.0,854,7867.795888
690.0,460,7883.737003
460.0,426,7898.160096
450.0,535,7918.213345
580.0,531,7937.575297
510.0,534,7956.446227
540.0,589,7975.758014
470.0,462,7992.631174
480.0,622,8015.559164
690.0,513,8034.056591
750.0,772,8062.143603
410.0,538,8082.009217
580.0,533,8101.571639
350.0,578,8121.840058
970.0,985,8154.668123
480.0,434,8170.142229
300.0,649,8192.798416
460.0,464,8209.565764
500.0,474,8226.141428
1520.0,921,8257.855207
750.0,758,8285.547758
550.0,473,8302.543283
500.0,461,8318.789367
1440.0,754,8344.913101
440.0,411,8359.743693
540.0,467,8377.069539
580.0,581,8397.778316
540.0,450,8413.260468
400.0,496,8430.571778
630.0,524,8449.732278
930.0,859,8481.428341
1370.0,757,8508.374646
910.0,801,8534.19927
390.0,350,8547.398044
690.0,694,8571.369775
620.0,476,8588.817456
790.0,651,8611.202789
960.0,732,8636.788925
540.0,427,8652.052176
690.0,572,8671.123016
620.0,518,8689.377252
610.0,477,8704.603593
720.0,592,8725.384792
1080.0,807,8753.143157
870.0,805,8781.026993
1050.0,873,8814.816563
390.0,439,8829.975526
740.0,500,8847.446524
450.0,444,8863.991412
870.0,703,8888.052835
1310.0,729,8914.499863
720.0,544,8933.836229
850.0,976,8967.668326
910.0,670,8990.955816
660.0,683,9014.722764
440.0,451,9029.651931
780.0,494,9047.486955
450.0,372,9059.609039
1020.0,781,9090.214756
760.0,645,9112.230308
890.0,780,9140.968662
630.0,703,9165.759043
390.0,444,9182.702764
460.0,462,9198.497151
490.0,657,9221.171255
940.0,705,9246.111025
310.0,378,9258.815958
490.0,409,9273.595093
500.0,556,9293.930809
770.0,609,9315.727773
500.0,625,9339.276101
970.0,736,9364.84521
1180.0,604,9385.693126
450.0,530,9404.787723
730.0,600,9425.771909
550.0,500,9442.323347
620.0,646,9463.106706
490.0,537,9482.905523
920.0,827,9513.370115
670.0,722,9537.860141
700.0,602,9558.705831
540.0,570,9577.987926
1370.0,776,9607.393157
590.0,559,9628.546674
920.0,776,9655.806242
730.0,566,9676.046727
1170.0,944,9707.918866
1520.0,709,9732.779731
490.0,414,9747.791672
1640.0,1235,9793.398731
1400.0,891,9825.046209
1680.0,987,9859.315751
1340.0,814,9887.281181
600.0,561,9906.204027
560.0,472,9923.725388
760.0,597,9946.70456
810.0,617,9968.238678
580.0,468,9984.341742
1270.0,699,10008.517119
640.0,618,10029.947753
500.0,469,10046.637315
690.0,610,10068.981171
920.0,990,10104.71139
510.0,443,10121.714967
590.0,616,10144.164532
610.0,618,10167.692775
1290.0,766,10195.418354
1360.0,845,10224.3966
690.0,640,10247.389327
1280.0,658,10271.136474
510.0,455,10286.978081
610.0,505,10306.160253
660.0,764,10334.017775
620.0,490,10351.781403
530.0,464,10368.462793
640.0,622,10391.597645
480.0,648,10414.769993
520.0,551,10435.233579
830.0,734,10460.479574
790.0,637,10482.75764
700.0,528,10501.788105
520.0,444,10516.797351
530.0,520,10535.912669
480.0,471,10552.274824
840.0,604,10573.075638
610.0,506,10592.57248
820.0,789,10619.725083
950.0,687,10643.121191
1580.0,779,10671.911259
1280.0,765,10699.908682
620.0,528,10719.107647
410.0,510,10736.611345
750.0,642,10760.090423
470.0,411,10774.145011
960.0,939,10807.613559
710.0,796,10834.334319
600.0,632,10857.547197
860.0,662,10880.817777
320.0,451,10898.14786
590.0,559,10916.774971
480.0,439,10932.278048
580.0,565,10953.263819
610.0,552,10973.417453
960.0,681,10997.439078
760.0,675,11022.224415
830.0,766,11049.327462
610.0,517,11068.102967
540.0,475,11085.255026
1380.0,703,11110.344243
780.0,597,11131.573655
990.0,869,11160.907634
530.0,447,11177.720839
520.0,430,11193.032393
680.0,593,11213.580171
840.0,908,11247.20838
1240.0,651,11271.346469
670.0,609,11292.51463
1020.0,696,11317.31266
590.0,743,11344.864487
690.0,746,11370.857383
540.0,481,11387.096388
520.0,554,11408.032106
550.0,447,11423.273269
840.0,871,11452.329835
520.0,448,11467.526333
760.0,632,11487.271482
480.0,534,11506.337813
670.0,580,11527.03652
910.0,629,11548.697305
580.0,449,11564.655584
860.0,653,11588.938626
600.0,497,11606.396092
1980.0,637,11630.61236
750.0,576,11650.609025
430.0,418,11665.959221
750.0,600,11687.987525
670.0,679,11712.675911
610.0,460,11729.381836
560.0,468,11746.298629
570.0,459,11763.414532
570.0,558,11783.405443
540.0,570,11803.982691
690.0,557,11823.221387
610.0,577,11843.768671
1000.0,976,11877.237348
520.0,498,11894.602592
520.0,504,11912.479106
710.0,670,11936.647488
550.0,450,11953.640363
490.0,438,11969.026038
830.0,614,11991.715317
530.0,440,12007.527725
1040.0,781,12033.97166
850.0,955,12069.099349
940.0,633,12092.167665
400.0,421,12106.449425
700.0,732,12132.896987
550.0,496,12150.887179
740.0,670,12175.842103
630.0,502,12194.812553
780.0,610,12217.491095
450.0,472,12234.376499
880.0,845,12265.752163
650.0,561,12284.995088
570.0,779,12312.699413
680.0,739,12338.230427
610.0,570,12359.030996
750.0,852,12389.999325
580.0,425,12405.826791
1110.0,794,12434.211934
600.0,526,12451.944359
600.0,532,12471.47596
1090.0,808,12498.47909
990.0,858,12527.752034
500.0,474,12543.696367
680.0,616,12565.012635
850.0,859,12594.199685
520.0,498,12610.727229
620.0,493,12626.0959
670.0,584,12647.499177
720.0,567,12668.195323
820.0,820,12698.499821
620.0,453,12715.003053
560.0,486,12733.229672
630.0,656,12756.902623
720.0,680,12783.390779
610.0,660,12807.220637
500.0,664,12830.788463
500.0,591,12851.463511
620.0,502,12868.563138
650.0,715,12894.528183
400.0,404,12907.519565
1090.0,820,12937.463311
810.0,945,12973.580765
430.0,400,12988.163991
720.0,567,13008.380683
750.0,761,13037.295791
970.0,632,13058.97351
660.0,784,13086.195193
740.0,812,13114.826427
970.0,685,13139.892735
2680.0,910,13170.722788
700.0,806,13198.973466
630.0,563,13220.42909
580.0,524,13238.486077
650.0,550,13257.563775
490.0,422,13272.640469
770.0,712,13297.528879
1420.0,805,13327.041777
810.0,553,13346.719028
550.0,501,13365.060385
1620.0,846,13394.655153
830.0,702,13418.59023
770.0,682,13444.823009
820.0,625,13467.586992
650.0,521,13485.803525
890.0,732,13511.545607
810.0,669,13537.026074
810.0,634,13560.787345
360.0,412,13574.547308
490.0,420,13589.74558
840.0,564,13607.903207
860.0,571,13627.847675
1610.0,867,13657.825725
650.0,476,13674.839453
850.0,570,13696.910365
890.0,674,13720.348598
640.0,602,13742.225344
850.0,786,13772.739942
730.0,508,13790.231604
860.0,639,13813.470602
740.0,602,13833.674927
1520.0,824,13862.901941
1160.0,1114,13902.418859
1330.0,526,13920.486733
970.0,733,13947.206779
790.0,689,13970.991356
490.0,520,13990.470287
1130.0,926,14022.680082
650.0,578,14043.167578
590.0,515,14061.663009
510.0,530,14081.090246
870.0,625,14101.996563
620.0,560,14123.781334
610.0,450,14139.343625
450.0,456,14156.548342
940.0,784,14184.956206
640.0,581,14205.445546
680.0,585,14224.811261
1080.0,1042,14261.433305
620.0,559,14279.577661
470.0,400,14293.811088
700.0,541,14313.033059
530.0,413,14326.401671
600.0,529,14345.643358
810.0,682,14371.41917
810.0,568,14391.825212
780.0,695,14417.111861
910.0,596,14437.604235
890.0,609,14459.130008
700.0,660,14482.254029
880.0,794,14510.743423
610.0,487,14528.40669
980.0,607,14549.046696
610.0,515,14566.805024
790.0,575,14587.810395
830.0,774,14614.81837
670.0,564,14634.595546
520.0,554,14653.652531
510.0,424,14668.027563
1510.0,1129,14708.140352
640.0,483,14725.731093
550.0,485,14741.9295
690.0,524,14761.569231
680.0,584,14781.341486
690.0,617,14803.370932
1180.0,1260,14847.707577
650.0,497,14865.127851
1650.0,863,14895.916215
650.0,614,14918.340823
1080.0,767,14944.184373
630.0,466,14961.202113
580.0,471,14978.073934
670.0,490,14995.506337
740.0,580,15018.174475
820.0,625,15040.545255
750.0,665,15063.511053
910.0,587,15083.873488
660.0,615,15105.906207
700.0,756,15132.98696
1470.0,872,15163.226274
810.0,851,15193.078562
460.0,381,15207.17574
850.0,567,15226.906823
480.0,515,15245.069642
350.0,419,15259.586556
450.0,434,15275.351616
1130.0,1014,15310.618236
1190.0,816,15339.731557
1530.0,933,15372.68986
520.0,502,15392.307616
780.0,661,15416.134365
660.0,607,15436.325623
1470.0,761,15463.565957
410.0,441,15479.182451
610.0,575,15498.558787
1420.0,764,15526.648258
590.0,514,15545.302483
670.0,537,15563.027984
2170.0,680,15588.31084
980.0,786,15617.076313
630.0,585,15638.69959
710.0,519,15657.162143
640.0,514,15675.573386
860.0,618,15697.132416
2740.0,1058,15735.29336
1760.0,1227,15776.01526
550.0,461,15791.925771
480.0,522,15809.762961
730.0,510,15827.412495
720.0,597,15849.892674
570.0,490,15865.7373
590.0,537,15883.861403
1250.0,871,15915.077738
620.0,487,15932.75778
690.0,726,15959.581312
1200.0,986,15995.010611
730.0,666,16019.410109
660.0,704,16043.623813
970.0,692,16068.085576
640.0,548,16086.271084
760.0,501,16104.44891
800.0,825,16133.378143
560.0,521,16150.447237
800.0,698,16175.137639
550.0,531,16193.309498
790.0,665,16217.457203
920.0,596,16237.336917
600.0,516,16255.817321
600.0,487,16273.764241
760.0,502,16291.021615
580.0,534,16309.673132
270.0,416,16323.953936
480.0,590,16345.687021
750.0,769,16372.350692
970.0,775,16400.395773
630.0,550,16420.792438
1000.0,999,16457.964016
610.0,510,16474.890279
1250.0,868,16506.575834
530.0,497,16524.9618
860.0,642,16548.45531
770.0,603,16570.96277
950.0,755,16596.61859
790.0,682,16619.055009
1180.0,1175,16661.584328
450.0,440,16677.930585
690.0,553,16698.068785
900.0,674,16721.887405
1340.0,697,16747.145861
930.0,655,16770.798609
1400.0,752,16797.754309
770.0,579,16818.363446
710.0,642,16838.571862
750.0,647,16862.332253
840.0,777,16889.548915
850.0,750,16917.68054
710.0,719,16943.617913
1320.0,829,16975.313171
1120.0,882,17006.144276
1190.0,802,17032.719917
670.0,570,17052.584044
970.0,814,17081.33329
1060.0,907,17113.147991
680.0,512,17132.133278
830.0,633,17154.501127
370.0,340,17166.243185
850.0,614,17187.086482
870.0,662,17210.31258
470.0,397,17223.225781
730.0,585,17244.862461
620.0,467,17261.94748
690.0,523,17280.716321
460.0,372,17293.767661
610.0,518,17312.915163
830.0,758,17340.727773
680.0,562,17359.969569
680.0,481,17377.119375
810.0,528,17396.641009
1120.0,748,17422.780369
870.0,666,17445.162297
690.0,489,17462.54741
1100.0,720,17486.369493
1730.0,932,17518.910347
950.0,750,17544.797247
1190.0,804,17574.503487
880.0,651,17598.030003
960.0,720,17621.358131
1130.0,993,17657.815077
790.0,615,17678.881256
730.0,802,17706.743903
1980.0,961,17739.789608
780.0,734,17765.095981
1010.0,872,17797.044837
1200.0,846,17828.46955
840.0,634,17851.80399
920.0,601,17873.087352
790.0,589,17893.110427
1000.0,729,17919.122449
960.0,1003,17954.809577
970.0,918,17987.136319
800.0,572,18007.680155
1000.0,957,18042.410359
910.0,571,18061.837587
850.0,642,18083.489599
900.0,594,18106.047582
810.0,750,18132.526774
1030.0,1054,18172.143224
380.0,396,18186.371014
990.0,739,18212.898
800.0,610,18235.924879
1030.0,700,18260.66847
890.0,936,18294.363116
760.0,623,18316.980841
800.0,679,18341.159064
710.0,819,18369.404722
830.0,732,18396.952099
510.0,442,18412.741392
930.0,591,18434.96844
710.0,580,18454.020423
850.0,814,18483.240653
1170.0,899,18515.041849
840.0,631,18538.570254
950.0,1082,18578.861841
490.0,379,18592.935485
1070.0,761,18620.226255
1580.0,638,18643.302509
680.0,658,18666.667043
760.0,709,18692.10829
540.0,431,18707.987546
2770.0,989,18743.942975
910.0,651,18767.498921
640.0,437,18781.673704
840.0,751,18808.648581
820.0,721,18835.268
880.0,565,18855.23222
660.0,507,18873.969723
940.0,745,18902.659791
810.0,735,18927.801836
900.0,680,18950.812634
1770.0,849,18981.347016
770.0,581,19001.896521
990.0,1011,19036.911352
1280.0,1058,19076.093252
950.0,791,19103.173488
700.0,617,19124.805371
560.0,561,19145.351431
920.0,757,19171.557984
770.0,664,19194.273138
950.0,764,19221.533842
810.0,612,19243.122029
990.0,827,19273.293603
930.0,838,19303.189686
1170.0,764,19330.073182
1620.0,950,19366.861281
930.0,670,19391.124237
730.0,525,19409.234828
1250.0,912,19443.679347
1210.0,1084,19482.745764
1850.0,1213,19526.821206
850.0,734,19551.847898
550.0,451,19567.55231
980.0,956,19600.554306
1360.0,902,19632.775702
1290.0,885,19664.50485
960.0,815,19692.861728
800.0,677,19715.222563
720.0,628,19738.162988
1190.0,823,19766.653668
870.0,640,19790.367104
850.0,599,19809.908914
600.0,589,19830.896772
1120.0,840,19861.070339
1780.0,981,19895.050539
650.0,543,19914.391452
880.0,715,19939.389905
520.0,478,19955.546415
740.0,494,19971.936245
670.0,662,19994.050938
1270.0,961,20027.275022
860.0,603,20050.29092
900.0,658,20075.096739
1060.0,890,20105.934072
800.0,654,20129.929189
660.0,710,20156.707409
710.0,511,20175.201138
540.0,565,20195.886917
420.0,454,20210.954919
770.0,592,20232.570577
630.0,597,20254.302082
1690.0,729,20278.855376
790.0,663,20301.579514
810.0,760,20327.746135
720.0,721,20353.672446
750.0,727,20379.838304
750.0,535,20399.882898
740.0,534,20418.146339
1240.0,806,20446.508838
920.0,553,20466.498751
1010.0,823,20495.962564
790.0,597,20518.183544
1760.0,957,20551.679706
770.0,660,20575.462458
1020.0,680,20601.296284
500.0,465,20617.423289
700.0,581,20638.707241
1350.0,962,20671.767808
840.0,725,20698.008953
1090.0,695,20721.736741
1180.0,757,20749.262612
1100.0,738,20775.522393
710.0,553,20795.757805
630.0,513,20813.9203
1420.0,811,20842.881588
780.0,524,20860.602342
1160.0,821,20889.141735
910.0,664,20912.159093
1050.0,671,20935.111296
1390.0,1104,20973.325245
1780.0,1183,21016.813777
970.0,835,21046.281818
750.0,546,21064.895457
880.0,752,21093.453764
2400.0,1323,21140.380235
1010.0,948,21173.757936
790.0,584,21192.508982
1090.0,664,21215.86319
2450.0,1017,21251.800578
1280.0,778,21278.779463
780.0,629,21301.031516
700.0,520,21320.535877
1630.0,738,21346.241496
330.0,485,21362.802001
1160.0,986,21398.863211
850.0,722,21424.785935
570.0,408,21439.422152
770.0,693,21463.722919
440.0,493,21481.076028
870.0,747,21508.61791
1030.0,827,21540.176328
460.0,422,21555.408562
1030.0,888,21587.15326
730.0,544,21607.504961
1350.0,874,21637.877044
1930.0,925,21671.669044
1040.0,723,21695.91951
690.0,503,21714.243279
840.0,585,21733.391954
1000.0,697,21758.827103
570.0,543,21778.753246
1080.0,730,21805.73304
640.0,472,21821.852651
1140.0,771,21848.526865
1200.0,949,21881.49241
420.0,461,21897.254937
1070.0,730,21922.529492
1640.0,771,21949.039917
780.0,582,21968.389248
460.0,486,21984.889203
1020.0,996,22021.283011
1300.0,1003,22055.35794
1350.0,979,22089.374309
940.0,744,22114.575602
830.0,651,22138.232804
1210.0,763,22166.246171
360.0,411,22180.815397
1080.0,731,22205.38288
720.0,527,22224.099044
2390.0,668,22246.69832
950.0,868,22274.849482
1190.0,764,22301.631438
1380.0,984,22335.485254
1130.0,803,22363.796538
1020.0,766,22390.376032
980.0,682,22415.362237
2140.0,813,22445.241332
1010.0,712,22470.32769
1130.0,769,22497.376862
920.0,709,22523.06187
680.0,573,22543.656423
2010.0,1158,22583.96337
1020.0,788,22612.033697
1130.0,796,22640.28975
710.0,606,22661.470919
850.0,619,22683.288797
990.0,755,22710.223411
1650.0,797,22738.547363
1330.0,706,22763.95066
1340.0,877,22795.140404
680.0,530,22812.655892
670.0,646,22835.507365
1540.0,893,22869.455345
730.0,522,22887.797227
1000.0,705,22913.119295
2850.0,1118,22954.68255
1270.0,898,22987.134986
720.0,578,23006.54579
1380.0,1008,23044.065665
2200.0,902,23077.446635
940.0,732,23102.614359
640.0,571,23122.744471
1200.0,719,23149.746394
1160.0,918,23183.181783
920.0,819,23213.345775
1550.0,973,23248.985064
1470.0,724,23274.315285
840.0,595,23297.266894
790.0,641,23319.10384
940.0,896,23350.315998
780.0,520,23368.227674
900.0,765,23395.270624
1230.0,747,23421.269084
660.0,539,23440.622708
870.0,684,23464.81683
1220.0,702,23490.233849
1660.0,750,23517.031773
860.0,778,23545.5833
1390.0,1284,23590.08912
1100.0,804,23620.178404
970.0,676,23644.322332
1280.0,797,23673.377685
1240.0,719,23698.170628
1040.0,955,23732.626862
1680.0,1094,23771.865129
1100.0,787,23801.012478
1040.0,684,23824.640851
950.0,734,23852.192889
1720.0,915,23883.904988
1310.0,836,23913.599632
1410.0,813,23941.374899
1210.0,838,23971.546767
1330.0,896,24003.928304
1460.0,857,24033.512721
1390.0,816,24062.231169
650.0,540,24081.926607
770.0,671,24106.56572
1140.0,1036,24145.150851
1080.0,747,24172.006442
1310.0,896,24203.362266
550.0,413,24218.367242
930.0,690,24244.621407
1170.0,717,24269.793008
1790.0,1062,24307.575678
1840.0,1099,24347.317288
880.0,597,24367.235447
1180.0,730,24394.063868
1480.0,819,24423.90957
660.0,560,24444.470211
1210.0,856,24475.052754
1750.0,804,24505.597803
1680.0,992,24537.938686
1750.0,832,24568.035595
1410.0,675,24591.913347
1270.0,906,24624.263238
1400.0,765,24650.234117
870.0,544,24669.604373
850.0,711,24695.327181
1190.0,1138,24735.527073
1010.0,644,24760.303118
920.0,599,24781.876847
900.0,620,24804.725586
1550.0,1047,24843.371543
1580.0,1029,24881.648007
2350.0,767,24910.562425
1240.0,747,24937.578246
3170.0,1066,24975.967137
660.0,729,25002.340881
1500.0,832,25032.801744
2640.0,1242,25076.58896
850.0,523,25095.332302
760.0,530,25115.633868
530.0,543,25135.125495
950.0,840,25165.091479
880.0,638,25186.561242
1280.0,838,25217.458209
1300.0,524,25235.869383
1430.0,1081,25274.078241
830.0,627,25297.113322
680.0,562,25317.63235
2400.0,753,25344.717467
1650.0,806,25372.623266
1140.0,1027,25409.111697
1000.0,855,25439.548831
1030.0,831,25468.991943
1060.0,826,25497.363293
2770.0,1192,25540.105965
1030.0,836,25569.241272
710.0,539,25586.567478
780.0,598,25608.183526
1380.0,814,25635.899812
1330.0,783,25664.065371
1230.0,741,25690.42211
610.0,641,25712.969003
1010.0,923,25745.646881
1010.0,642,25769.719371
1630.0,892,25804.748018
1420.0,834,25833.848894
590.0,489,25851.43864
890.0,688,25875.8303
1910.0,954,25908.228821
1630.0,860,25936.100021
1270.0,791,25964.766366
970.0,706,25989.778449
600.0,535,26009.254641
1470.0,1012,26044.158937
900.0,861,26074.818177
1050.0,663,26098.596368
1640.0,821,26127.69142
1080.0,748,26155.081124
1100.0,805,26183.634951
830.0,865,26214.820483
900.0,596,26235.761322
780.0,555,26255.098973
600.0,423,26268.82394
1180.0,829,26299.201699
1040.0,782,26327.329782
1350.0,934,26360.491856
1320.0,573,26382.995734
650.0,472,26398.465538
730.0,524,26417.919641
990.0,674,26442.919456
1770.0,857,26473.295084
890.0,599,26496.667772
1240.0,834,26528.628229
2310.0,820,26557.607117
850.0,625,26580.498169
1460.0,982,26615.103
850.0,607,26636.893394
590.0,465,26654.554028
1230.0,885,26686.963834
1510.0,885,26719.774136
2630.0,1073,26758.238154
1010.0,924,26793.853092
1080.0,786,26823.697329
1250.0,872,26854.370854
2770.0,1024,26895.694002
960.0,588,26917.319092
1050.0,746,26946.806492
970.0,753,26974.380971
1110.0,733,27001.993753
1090.0,939,27037.068287
1370.0,1127,27079.111776
950.0,553,27099.632159
1510.0,940,27134.35363
2210.0,1125,27176.939556
900.0,751,27203.057434
1500.0,1142,27245.604314
940.0,575,27268.392959
930.0,693,27295.194417
940.0,740,27325.524013
1540.0,1004,27362.758528
2270.0,1095,27402.808841
3900.0,1292,27451.552444
960.0,669,27475.781471
840.0,605,27496.420377
1420.0,1114,27536.720498
1750.0,808,27566.601274
1070.0,996,27602.385172
1030.0,701,27627.769885
2670.0,826,27657.218426
1620.0,1031,27694.039994
1250.0,824,27723.622371
730.0,457,27740.334348
2880.0,1196,27781.49151
1200.0,803,27810.777167
820.0,639,27833.198816
1150.0,879,27864.771751
1550.0,973,27900.825562
1290.0,879,27932.392497
1270.0,713,27958.053755
1260.0,982,27993.692975
3330.0,1177,28035.882647
1000.0,843,28067.830218
1500.0,1113,28108.778543
1430.0,790,28138.106407
970.0,744,28167.153463
1250.0,733,28194.85681
2170.0,1133,28237.036165
1390.0,923,28269.902843
900.0,579,28290.89943
970.0,597,28311.588464
880.0,642,28335.921965
930.0,568,28356.58319
1020.0,600,28378.864922
680.0,710,28402.825698
1700.0,960,28438.003144
2020.0,1107,28477.983085
970.0,634,28500.25315
1780.0,1179,28542.519588
2390.0,887,28573.814002
1300.0,732,28600.445331
2000.0,1291,28648.037709
1050.0,724,28677.165436
1870.0,1018,28714.261205
1760.0,954,28750.614669
1120.0,860,28783.792195
1470.0,734,28812.115282
1780.0,1062,28851.81127
2060.0,993,28890.17404
940.0,605,28913.544922
1420.0,904,28947.196015
1360.0,855,28979.472717
1810.0,807,29008.229233
1130.0,905,29039.863271
2030.0,1118,29080.080837
1820.0,944,29114.176891
1330.0,952,29149.393793
1350.0,766,29177.615697
950.0,632,29200.521795
1700.0,859,29233.151857
1030.0,741,29260.355439
1760.0,840,29290.974825
740.0,641,29313.260058
1360.0,810,29344.829643
1570.0,965,29380.811399
1440.0,988,29417.115715
1950.0,1101,29457.301787
1380.0,621,29481.738722
1590.0,643,29506.850216
4400.0,923,29541.89163
1060.0,727,29570.426992
1460.0,1164,29613.623928
1870.0,1008,29650.392783
1530.0,1051,29687.806275
1990.0,1185,29730.275342
1430.0,1048,29767.951434
860.0,722,29796.027381
950.0,654,29819.982999
820.0,601,29841.562994
990.0,720,29868.293219
1300.0,992,29906.602951
1270.0,809,29936.006228
1800.0,1011,29974.16524
1040.0,669,29999.379793
1110.0,587,30021.253724
1150.0,882,30053.751191
1720.0,829,30084.629049
1150.0,782,30115.51572
960.0,708,30141.980175
900.0,679,30167.431226
950.0,664,30191.634051
900.0,612,30214.663419
800.0,627,30236.250777
1690.0,824,30265.32734
1000.0,778,30293.347224
810.0,520,30312.122747
1670.0,1045,30352.088763
1310.0,805,30381.930682
2430.0,1099,30421.302722
1700.0,876,30453.665242
1020.0,833,30485.103755
640.0,566,30507.125263
970.0,727,30535.654805
1800.0,1022,30573.898434
1120.0,693,30599.223079
1050.0,864,30628.743995
1560.0,710,30654.106536
910.0,709,30680.969975
910.0,639,30703.846754
910.0,778,30731.642111
690.0,515,30749.937569
1550.0,938,30782.164574
860.0,613,30804.134433
1720.0,860,30834.318661
870.0,606,30854.947407
1410.0,833,30884.249316
1920.0,825,30913.116555
3050.0,1020,30948.137125
1000.0,593,30968.819275
1420.0,846,30997.968171
1730.0,890,31030.35213
1080.0,862,31063.286435
1980.0,934,31096.665954
1430.0,801,31125.917362
980.0,866,31156.537894
900.0,587,31178.198672
1110.0,809,31206.286765
2630.0,1063,31243.725774
1420.0,1101,31283.15575
1210.0,774,31310.619488
1590.0,706,31336.864616
2370.0,1136,31376.632021
1290.0,901,31406.563495
1180.0,628,31429.046582
2470.0,975,31464.927071
1720.0,835,31494.698814
1280.0,1004,31529.921892
1300.0,865,31561.372213
1510.0,1418,31614.059353
1580.0,725,31640.566529
1990.0,1060,31676.150234
1090.0,768,31703.87956
820.0,625,31725.967199
1290.0,1138,31766.394526
1000.0,706,31792.370345
1180.0,843,31823.686351
1100.0,736,31851.075111
930.0,690,31878.120232
1450.0,1067,31918.250658
1460.0,1041,31956.12817
1230.0,780,31984.345249
1230.0,767,32012.923733
1890.0,1056,32052.676736
880.0,684,32077.254664
1300.0,889,32109.55896
920.0,598,32132.038578
2090.0,914,32164.741597
1270.0,798,32191.002099
1130.0,785,32217.928068
1240.0,848,32247.597336
1110.0,873,32278.799934
990.0,833,32308.408427
1930.0,865,32338.362998
1100.0,695,32364.260006
1560.0,990,32400.916173
2460.0,1177,32442.275674
860.0,642,32466.089722
1000.0,839,32497.387554
1140.0,805,32526.017819
2030.0,978,32559.130152
1130.0,744,32586.365199
1340.0,869,32617.457834
1030.0,659,32640.81157
1890.0,937,32674.046678
2130.0,955,32708.666867
1320.0,797,32737.430746
1480.0,914,32770.649643
1100.0,789,32798.782645
940.0,913,32832.565379
790.0,556,32852.894892
1600.0,1195,32895.425645
1300.0,1104,32936.31379
1470.0,1034,32973.775093
2600.0,861,33005.042039
860.0,641,33027.249156
1200.0,814,33056.78896
1520.0,760,33085.377134
1540.0,915,33120.088388
1570.0,816,33148.515102
1930.0,951,33182.692082
1150.0,765,33209.85296
1710.0,936,33244.640763
2100.0,511,33263.619463
1300.0,992,33299.248158
920.0,789,33325.934292
790.0,558,33345.640382
1000.0,618,33367.848987
1530.0,701,33392.255476
1690.0,1042,33430.643314
1150.0,910,33463.43721
1320.0,729,33490.061309
1150.0,681,33515.164895
450.0,442,33530.099402
1450.0,791,33559.370686
1390.0,871,33591.574804
1570.0,883,33624.316511
1160.0,836,33655.918808
950.0,688,33681.189201
1170.0,789,33709.817612
930.0,620,33729.862982
1060.0,821,33760.949185
1110.0,691,33787.041645
2550.0,668,33811.315016
890.0,669,33835.816696
1940.0,1181,33877.939111
1410.0,757,33907.081826
1250.0,901,33941.725538
1190.0,663,33964.366796
1770.0,1110,34002.850104
1670.0,996,34039.708343
1570.0,1118,34078.547987
1850.0,1029,34114.613159
1840.0,1087,34154.787561
2980.0,978,34187.424087
2710.0,918,34220.489158
3110.0,1054,34256.815053
2550.0,1138,34297.939751
1070.0,716,34322.886022
2860.0,1092,34364.072876
1820.0,842,34394.604393
1330.0,768,34421.126803
5750.0,1097,34461.370616
1980.0,996,34495.860302
1680.0,1183,34540.735253
2090.0,960,34573.689839
1750.0,1078,34613.48795
1430.0,779,34641.504409
1470.0,870,34672.971674
1340.0,843,34703.449227
1820.0,782,34730.598565
2580.0,1302,34775.944929
930.0,750,34803.38104
1370.0,1063,34843.94847
1530.0,1317,34894.015337
1920.0,858,34924.645702
1100.0,770,34952.674821
1050.0,696,34977.875211
1300.0,750,35002.67278
1450.0,894,35035.883976
1340.0,778,35063.224108
1330.0,974,35095.645509
1020.0,746,35122.797279
1640.0,945,35156.689515
1320.0,885,35189.167175
1120.0,784,35214.398068
1270.0,798,35243.427011
1440.0,915,35273.85141
1290.0,799,35302.090571
1430.0,826,35332.763177
930.0,610,35353.591261
1590.0,1150,35392.598889
1810.0,1228,35437.776791
1270.0,970,35471.547151
1800.0,858,35501.295522
1620.0,926,35533.511373
1240.0,1005,35568.398279
2160.0,950,35602.520808
910.0,717,35627.714773
1210.0,773,35655.25135
970.0,612,35677.697231
860.0,599,35698.510291
1200.0,809,35727.791949
840.0,625,35749.203837
1130.0,878,35781.051879
770.0,582,35801.615544
1130.0,763,35830.232228
1280.0,896,35862.079571
670.0,504,35881.110986
1000.0,705,35907.30187
580.0,506,35925.137787
1870.0,1217,35968.5206
500.0,411,35983.857386
1090.0,745,36010.281987
1560.0,712,36034.281331
1120.0,657,36059.375399
1280.0,899,36092.928322
820.0,522,36111.03135
790.0,585,36131.335851
530.0,462,36147.529557
1820.0,786,36175.906028
1430.0,944,36207.699856
590.0,546,36226.189443
940.0,669,36248.502444
400.0,410,36263.131212
510.0,500,36281.315602
500.0,400,36296.082797
710.0,637,36319.13474
400.0,472,36336.38695
560.0,580,36356.460537
1120.0,654,36378.991026
430.0,510,36396.779429
1100.0,739,36420.424356
710.0,573,36441.796418
1410.0,801,36470.977727
1530.0,761,36499.083719
1040.0,620,36520.7727
1000.0,627,36542.716254
560.0,561,36563.468953
2360.0,752,36590.859281
1350.0,567,36611.061378
2830.0,902,36642.182754
750.0,710,36668.73434
440.0,514,36687.662745
500.0,467,36704.425388
1060.0,656,36726.5401
1400.0,645,36750.724453
1750.0,932,36784.682894
1170.0,742,36810.68145
1350.0,798,36838.020436
1800.0,1040,36871.967512
890.0,634,36894.794698
590.0,439,36910.899395
880.0,677,36933.206647
1380.0,1052,36970.551244
880.0,681,36995.287938
770.0,566,37015.261062
1090.0,656,37037.624245
940.0,639,37061.700836
1160.0,715,37086.484725
600.0,440,37102.727155
1460.0,994,37138.267045
2600.0,795,37166.295151
1290.0,891,37197.468532
750.0,590,37219.236794
1160.0,612,37240.290855
1070.0,828,37270.515728
970.0,541,37289.424801
1040.0,636,37313.026453
1280.0,977,37345.920285
740.0,670,37367.500731
980.0,786,37395.025554
980.0,719,37422.224096
1320.0,694,37446.848144
1440.0,585,37468.264863
1220.0,945,37499.533325
1220.0,992,37534.146692
920.0,521,37552.136066
1220.0,888,37584.097033
1350.0,735,37610.461199
1140.0,703,37634.188237
1680.0,726,37659.579484
1420.0,632,37681.262357
1040.0,978,37715.368877
910.0,815,37744.405032
930.0,590,37766.21207
510.0,387,37779.581229
1140.0,706,37806.099961
1190.0,758,37832.124836
480.0,407,37846.659742
1020.0,622,37869.507393
1200.0,712,37895.409647
960.0,624,37918.425526
2510.0,943,37952.801793
860.0,636,37977.24218
1590.0,613,37998.723583
1640.0,1189,38041.532278
510.0,385,38055.725837
1500.0,662,38078.90555
1010.0,748,38106.198446
920.0,640,38129.28077
1380.0,806,38159.404773
1020.0,583,38181.493058
560.0,519,38200.630264
640.0,606,38222.384949
3800.0,734,38247.809372
1490.0,913,38279.917202
1030.0,712,38305.066203
1010.0,642,38327.668896
1530.0,721,38353.028744
740.0,518,38371.401455
540.0,529,38389.847681
980.0,862,38420.042325
1130.0,705,38445.033894
1440.0,514,38463.485387
430.0,506,38481.927455
1460.0,950,38517.059573
390.0,498,38534.601147
1370.0,783,38561.487277
2670.0,1039,38599.707938
1090.0,615,38620.991048
1070.0,676,38645.765091
900.0,636,38667.82741
930.0,563,38688.169004
840.0,437,38704.868953
790.0,523,38724.443894
1710.0,804,38753.30176
520.0,391,38766.171828
410.0,486,38782.462778
1310.0,647,38806.461397
1790.0,981,38841.620423
810.0,490,38858.598896
1890.0,886,38890.507862
910.0,537,38908.33056
490.0,564,38929.054081
3820.0,669,38952.974892
1290.0,628,38975.786615
1120.0,634,38998.014196
810.0,507,39017.241819
1000.0,575,39039.614536
1140.0,817,39068.569023
1440.0,821,39098.790823
4740.0,1073,39134.655812
1040.0,901,39167.036402
1040.0,599,39186.725977
750.0,526,39205.283233
1050.0,680,39229.469319
810.0,598,39251.689795
1110.0,848,39282.249116
770.0,609,39304.767524
770.0,549,39324.966719
1420.0,881,39354.873791
1460.0,971,39389.178357
1340.0,816,39417.3837
1080.0,631,39439.854296
940.0,590,39461.144926
2080.0,837,39490.830871
1330.0,747,39517.003982
660.0,584,39537.862672
1120.0,733,39561.701781
1270.0,774,39587.893063
880.0,476,39604.709156
1400.0,709,39628.91996
720.0,513,39646.065488
970.0,630,39667.753425
1250.0,804,39696.442736
880.0,589,39716.659497
1740.0,1070,39755.075679
1770.0,733,39780.330408
970.0,540,39800.216034
1600.0,789,39827.729122
1580.0,653,39851.754283
840.0,679,39876.204164
1500.0,939,39910.429336
1200.0,794,39938.381883
1860.0,1271,39982.477883
1210.0,744,40008.378839
1110.0,676,40033.794215
1080.0,670,40054.534968
680.0,517,40073.903888
430.0,360,40086.310218
1000.0,683,40110.752761
1170.0,771,40139.129527
1420.0,614,40160.482508
990.0,650,40184.117046
1820.0,736,40210.590401
1340.0,733,40236.551981
910.0,534,40255.88946
4680.0,1230,40299.052414
710.0,526,40317.631929
990.0,735,40345.240393
2130.0,928,40378.885023
1070.0,680,40404.5492
260.0,406,40418.69234
1670.0,930,40451.359662
1330.0,564,40471.771217
1040.0,539,40491.347473
590.0,484,40507.860537
1060.0,908,40539.586112
1690.0,667,40564.095404
1820.0,1022,40600.665252
1010.0,519,40620.079057
820.0,549,40641.209508
1980.0,809,40670.691148
1110.0,649,40694.427706
890.0,653,40717.326531
1010.0,521,40734.277111
2310.0,1090,40775.019756
640.0,625,40798.590745
930.0,621,40820.516908
950.0,714,40846.611775
1010.0,536,40864.003976
1890.0,816,40892.37747
1010.0,639,40914.848258
1320.0,902,40947.171095
1090.0,741,40975.086778
1230.0,690,40999.527013
870.0,604,41021.091307
1150.0,794,41049.598888
1080.0,565,41068.42704
1100.0,639,41091.529449
1710.0,813,41121.913339
1170.0,768,41148.87901
1470.0,873,41178.633082
4240.0,727,41206.129371
1850.0,703,41231.246949
1260.0,880,41262.091271
1650.0,749,41290.967041
1100.0,895,41323.569398
930.0,521,41341.504452
1840.0,1005,41378.104317
810.0,599,41398.794709
1540.0,763,41426.461292
960.0,636,41449.150191
910.0,689,41473.171772
990.0,724,41499.669093
750.0,425,41515.459883
2170.0,692,41540.880238
960.0,772,41569.564541
650.0,576,41589.819024
940.0,518,41609.061407
1950.0,931,41641.104306
1050.0,731,41664.923355
1420.0,613,41686.498058
1750.0,814,41714.729483
1240.0,929,41747.829286
1130.0,788,41775.984884
1640.0,680,41800.153012
1210.0,747,41825.867921
1170.0,729,41853.125366
1110.0,583,41872.880163
990.0,652,41895.956052
1040.0,933,41928.309219
1050.0,568,41949.036124
750.0,422,41963.255182
1090.0,622,41984.757878
1170.0,708,42010.455607
1150.0,755,42037.362988
1120.0,666,42061.542259
880.0,632,42083.097227
1270.0,636,42106.468583
1010.0,783,42134.738825
1210.0,664,42158.204293
3650.0,933,42192.366884
930.0,565,42212.193635
1440.0,652,42235.672686
1570.0,814,42263.810553
1590.0,781,42291.297341
910.0,511,42309.212032
1100.0,788,42336.565843
1330.0,808,42365.169351
560.0,450,42381.120009
2100.0,537,42401.628963
1430.0,891,42433.143797
950.0,743,42458.954448
1030.0,754,42485.830981
1440.0,820,42514.854794
1080.0,703,42538.457894
1900.0,906,42570.554968
1590.0,726,42596.930931
850.0,571,42618.168566
1730.0,675,42642.829966
1810.0,839,42671.155595
1470.0,1055,42707.871008
1200.0,676,42731.037628
1450.0,622,42752.800836
2830.0,809,42782.063513
3210.0,1098,42821.560492
1360.0,706,42846.22504
1780.0,705,42870.504506
2300.0,743,42896.363635
1220.0,680,42920.486642
1230.0,713,42945.24519
410.0,473,42961.836249
970.0,628,42984.136049
2020.0,909,43016.45875
730.0,480,43033.366637
1680.0,670,43057.15697
910.0,578,43078.709204
940.0,584,43098.658352
1170.0,697,43125.201365
1640.0,712,43151.489885
970.0,666,43174.495126
930.0,518,43192.640179
1030.0,594,43213.756915
1880.0,790,43240.779024
1060.0,596,43262.721125
900.0,823,43292.052295
990.0,610,43314.198961
1020.0,752,43339.395063
1060.0,625,43362.195881
1130.0,776,43390.334701
950.0,648,43414.439364
960.0,635,43436.777469
1050.0,611,43457.814228
1280.0,766,43485.977915
1200.0,1007,43521.96494
1500.0,921,43555.386002
970.0,675,43576.477409
990.0,723,43602.086869
1260.0,690,43625.888998
930.0,678,43650.191739
1060.0,707,43677.077236
1660.0,927,43710.70692
1410.0,666,43735.423408
1270.0,569,43755.828166
1000.0,794,43785.561096
1020.0,578,43805.684292
1220.0,726,43832.362815
1110.0,959,43866.951729
1290.0,942,43902.562201
1310.0,699,43926.59582
1070.0,792,43954.894451
1330.0,940,43989.407021
910.0,474,44006.281837
1030.0,658,44029.908434
1630.0,606,44052.467395
1020.0,590,44073.461559
1340.0,860,44102.904521
1300.0,674,44125.645924
1010.0,615,44148.099787
1210.0,711,44175.478866
950.0,574,44195.897283
1020.0,634,44218.228285
920.0,452,44233.70289
570.0,525,44252.942197
1660.0,936,44286.371258
920.0,562,44306.23567
1020.0,579,44327.118445
1710.0,804,44355.703979
1260.0,866,44387.881275
1980.0,880,44420.598127
490.0,440,44435.194468
930.0,703,44460.946013
920.0,634,44483.985997
1040.0,655,44505.779265
1930.0,819,44535.838475
960.0,585,44556.28057
410.0,439,44572.144066
1000.0,746,44600.083768
710.0,677,44625.347887
1140.0,1113,44666.227605
960.0,626,44689.08474
1710.0,820,44717.581985
2290.0,682,44741.445329
960.0,606,44763.322742
340.0,451,44776.798404
830.0,647,44799.328683
1750.0,664,44822.507118
2440.0,909,44855.630248
1340.0,640,44878.572791
1640.0,787,44907.672614
1590.0,789,44936.864182
1020.0,882,44970.202386
2410.0,603,44991.708397
1370.0,923,45022.242383
1100.0,745,45049.14958
1400.0,794,45076.250351
2050.0,1078,45117.095726
1570.0,680,45142.368412
1120.0,868,45173.274637
1000.0,684,45198.083458
1220.0,644,45221.358912
1160.0,973,45255.824881
1030.0,707,45280.15754
1840.0,851,45310.793716
1350.0,712,45335.553843
1380.0,758,45362.64708
1070.0,649,45386.188279
1190.0,637,45409.803214
1470.0,874,45440.82903
1330.0,664,45463.029148
1200.0,697,45489.012388
1480.0,787,45516.184947
1310.0,787,45543.671396
1170.0,656,45566.801495
1810.0,782,45594.484118
1390.0,731,45620.578663
1350.0,816,45649.403594
1400.0,608,45672.850568
1490.0,729,45698.922999
1170.0,641,45722.581553
1180.0,621,45745.008172
1430.0,641,45767.579653
1470.0,729,45794.622142
1430.0,654,45818.259166
1310.0,594,45839.186182
310.0,451,45855.379152
930.0,469,45872.934828
1320.0,814,45902.765773
1030.0,716,45928.911086
1100.0,823,45957.132718
740.0,524,45976.456158
1190.0,628,45998.237658
1180.0,860,46029.157729
1220.0,1114,46070.58335
1500.0,853,46101.056808
1050.0,709,46125.699229
610.0,565,46147.086592
1370.0,630,46171.164436
850.0,612,46193.143956
1790.0,801,46220.469913
1970.0,818,46250.965763
1050.0,564,46270.870852
1090.0,698,46295.513607
1300.0,636,46318.577169
1130.0,590,46340.118276
1290.0,495,46356.986085
1140.0,590,46376.596309
1120.0,672,46400.481654
1520.0,599,46422.318742
1690.0,869,46453.054707
1450.0,730,46479.920541
1380.0,620,46502.055632
1190.0,674,46525.991745
1360.0,533,46545.242953
1440.0,953,46578.950115
1130.0,598,46599.958357
1530.0,934,46633.228037
1160.0,488,46650.276692
1820.0,711,46675.752304
1320.0,691,46699.55115
1560.0,681,46723.271513
960.0,821,46753.553563
1130.0,674,46777.227602
1900.0,821,46805.469707
1290.0,589,46826.208871
1390.0,582,46847.012704
1820.0,568,46868.129385
1850.0,558,46887.515804
1880.0,638,46909.647893
1160.0,611,46932.115669
710.0,549,46952.286267
1490.0,1010,46988.248581
1130.0,883,47018.463281
1290.0,568,47039.347381
1240.0,693,47064.989464
2070.0,776,47092.404807
1750.0,980,47126.648973
1220.0,643,47149.265872
1220.0,654,47172.390209
1170.0,606,47193.734989
1160.0,624,47215.345417
1720.0,860,47244.645511
990.0,718,47270.478415
1660.0,688,47293.798681
1500.0,759,47319.779955
1090.0,655,47343.197491
1780.0,828,47371.850959
1110.0,790,47398.163534
1130.0,664,47423.257137
1120.0,685,47448.668747
1260.0,654,47471.439183
1700.0,796,47499.97611
1180.0,662,47522.818089
1200.0,759,47550.394103
2920.0,988,47586.593597
1880.0,709,47613.124336
1310.0,604,47633.670948
1450.0,1104,47672.756892
1100.0,914,47705.373591
1830.0,739,47731.844663
1140.0,644,47754.461636
1350.0,1373,47802.306179
1220.0,586,47822.15279
1070.0,717,47846.676817
920.0,540,47865.549608
1050.0,696,47889.487096
1240.0,700,47914.921781
1610.0,723,47939.367931
1230.0,640,47961.092297
1210.0,717,47985.116935
1170.0,865,48015.532697
1290.0,757,48040.559386
1430.0,813,48068.468826
1220.0,900,48099.8617
1020.0,758,48126.390151
1030.0,687,48149.702959
900.0,587,48170.293508
1730.0,755,48195.793363
1050.0,839,48224.6023
1020.0,689,48248.974212
1020.0,808,48276.599638
1820.0,743,48303.275337
890.0,688,48325.583054
990.0,556,48346.558576
1000.0,784,48373.121356
1100.0,604,48395.23298
1120.0,513,48415.014858
1260.0,723,48441.662081
1610.0,654,48465.301598
1460.0,851,48495.626737
1230.0,651,48519.74723
1580.0,681,48543.093841
1520.0,1073,48581.048935
1240.0,698,48606.934427
1070.0,799,48635.288678
1310.0,747,48661.508342
1540.0,814,48689.105168
1290.0,729,48714.758134
1790.0,697,48738.688657
1150.0,755,48767.660083
1420.0,864,48797.241583
1420.0,796,48823.088959
1000.0,726,48847.877257
1090.0,680,48872.088879
1550.0,753,48898.645558
1040.0,653,48921.243133
1620.0,840,48949.678762
1730.0,844,48979.399467
1510.0,855,49009.735661
1210.0,694,49034.817372
1900.0,793,49062.857331
1140.0,680,49087.277929
1420.0,901,49119.295066
510.0,471,49135.588054
1280.0,699,49160.34684
2160.0,641,49181.812731
1930.0,1175,49223.103135
1980.0,969,49254.061903
2610.0,996,49286.730252
2010.0,847,49315.658744
1790.0,937,49345.238995
1370.0,700,49366.423939
1050.0,622,49386.752486
2020.0,895,49414.975692
1280.0,746,49439.382346
1010.0,743,49463.15115
1950.0,833,49487.629254
1350.0,869,49516.143836
610.0,493,49531.726018
1200.0,584,49550.135169
1270.0,944,49578.816306
1180.0,599,49598.169114
1490.0,1026,49630.693102
620.0,555,49646.546943
1050.0,663,49667.867943
1650.0,725,49690.177192
1540.0,596,49708.836765
1410.0,648,49728.666736
1470.0,645,49749.09499
1770.0,896,49775.737235
1220.0,695,49798.204896
1310.0,750,49820.568891
1180.0,712,49842.592255
1790.0,1075,49876.346211
1160.0,737,49898.51186
1230.0,865,49925.423233
1390.0,841,49951.004491
1310.0,646,49970.502196
1610.0,928,49997.072837
1250.0,930,50024.378752
1200.0,724,50045.708646
980.0,521,50061.100896
380.0,424,50074.742851
1090.0,567,50090.584844
1390.0,619,50107.756265
1450.0,762,50130.706085
1130.0,656,50149.249517
1350.0,910,50176.484035
2490.0,814,50199.258823
1120.0,751,50222.417652
1980.0,648,50240.124778
1850.0,748,50262.77835
1220.0,861,50287.813749
1540.0,873,50314.363949
1710.0,631,50330.463789
1700.0,972,50356.027169
2090.0,908,50382.611105
1730.0,1030,50412.756509
550.0,462,50425.599608
2220.0,1087,50455.928497
2060.0,886,50481.02042
1680.0,669,50499.230507
2400.0,932,50527.370351
1290.0,706,50547.801278
1330.0,789,50569.728296
1240.0,645,50587.101011
2450.0,777,50609.578226
1860.0,834,50632.365899
1290.0,831,50656.927653
810.0,504,50671.382629
1680.0,653,50689.671806
1320.0,840,50711.801677
1520.0,743,50733.004496
1880.0,871,50758.308096
1420.0,664,50775.949889
2390.0,708,50795.879507
990.0,615,50811.960336
1750.0,717,50832.21721
1250.0,611,50849.048121
1460.0,763,50869.643667
1390.0,732,50893.092983
1110.0,660,50912.602083
1250.0,771,50935.527245
1090.0,656,50952.896242
1130.0,830,50977.236363
1380.0,664,50997.569106
850.0,539,51013.937906
870.0,588,51031.807174
1230.0,659,51053.6937
1790.0,883,51082.457136
1140.0,750,51107.337636
1220.0,584,51128.613437
1730.0,714,51153.523823
1080.0,633,51174.45723
1070.0,684,51196.616314
1370.0,882,51227.234443
1420.0,870,51256.213882
1080.0,763,51282.915462
1480.0,877,51313.870318
1880.0,864,51344.383946
1740.0,738,51369.620972
1700.0,782,51395.747353
1360.0,808,51424.001864
1620.0,550,51441.921381
1350.0,858,51471.708028
1550.0,965,51502.762356
1290.0,806,51530.569259
2610.0,896,51559.715276
1480.0,921,51591.900856
1580.0,796,51618.017164
1970.0,853,51647.354635
1570.0,629,51669.137131
1210.0,648,51691.516024
1540.0,775,51717.237578
1650.0,614,51738.196897
950.0,609,51758.653398
1070.0,546,51776.766937
1390.0,695,51799.274395
1410.0,793,51827.210869
1010.0,688,51849.507444
1260.0,703,51872.692485
1460.0,692,51895.716233
1800.0,682,51917.9828
1730.0,801,51942.693519
1720.0,599,51961.929681
1420.0,713,51984.673955
1280.0,673,52006.452401
1310.0,648,52028.08806
1690.0,734,52054.228828
1780.0,925,52085.055076
1970.0,791,52110.740822
1240.0,775,52135.75942
1300.0,616,52156.105672
980.0,684,52178.488544
1690.0,855,52206.559661
2330.0,1099,52242.252501
1330.0,837,52270.230147
1220.0,589,52287.927518
1290.0,804,52311.011677
2340.0,922,52337.413206
2450.0,694,52356.627414
2810.0,733,52377.481955
1090.0,613,52394.345115
1760.0,840,52417.831277
1590.0,1161,52449.825162
1200.0,584,52466.167743
1980.0,1118,52496.162133
1640.0,1309,52530.201264
2090.0,817,52550.882219
1030.0,675,52568.245869
1150.0,710,52586.614374
1220.0,634,52603.926129
1150.0,684,52620.59997
1750.0,721,52638.613311
1830.0,672,52654.847029
1670.0,765,52674.35818
1010.0,606,52689.178836
1300.0,676,52705.106942
2600.0,920,52728.396447
1280.0,644,52744.911365
1810.0,694,52762.040841
1650.0,567,52776.251016
1020.0,621,52791.566859
1020.0,731,52809.813209
1590.0,993,52833.689492
1100.0,720,52851.307744
1190.0,535,52864.771149
1480.0,740,52883.249962
1320.0,947,52907.224044
1090.0,712,52924.53252
710.0,608,52939.330402
1260.0,551,52952.690099
1580.0,652,52970.271447
1150.0,846,52991.134543
1260.0,819,53009.905446
1700.0,686,53027.375051
2490.0,668,53042.711428
1560.0,670,53059.531264
1400.0,811,53080.170215
2720.0,835,53099.403131
1770.0,712,53115.453605
1740.0,727,53134.458674
1770.0,751,53152.007358
1290.0,718,53169.131323
1650.0,807,53188.632014
1750.0,865,53208.440425
1320.0,778,53227.369886
1380.0,581,53240.614003
2620.0,703,53257.564599
1250.0,836,53277.258097
1470.0,809,53296.591689
2010.0,887,53317.869099
1570.0,774,53337.167347
1670.0,879,53358.83546
1450.0,763,53377.323669
1470.0,903,53400.781404
2000.0,1116,53428.608675
1980.0,833,53447.572799
1890.0,842,53467.360804
2980.0,992,53490.438377
1220.0,727,53507.490877
2100.0,777,53526.620583
1710.0,887,53547.682907
2110.0,961,53571.050767
2240.0,973,53593.70571
1500.0,872,53613.846135
1870.0,947,53636.834725
1320.0,791,53654.879718
1340.0,731,53673.167835
1760.0,785,53691.371549
2720.0,1072,53716.479363
1450.0,809,53735.512202
1320.0,812,53754.871708
1580.0,760,53772.945159
1360.0,879,53793.945551
1450.0,1019,53817.898312
1490.0,1126,53844.491013
1770.0,666,53860.915107
1090.0,842,53881.097556
1530.0,868,53901.507994
1460.0,692,53918.301197
1750.0,759,53936.772288
1840.0,898,53958.455318
2590.0,925,53980.294322
1320.0,687,53996.34473
1490.0,807,54015.768287
2530.0,760,54033.743062
1520.0,744,54052.316676
1110.0,620,54068.0712
1460.0,791,54087.089697
1770.0,681,54103.841637
1480.0,710,54120.3217
1600.0,926,54143.240837
2550.0,760,54161.046582
1910.0,1067,54187.386278
1750.0,836,54208.070007
890.0,607,54223.132271
2010.0,981,54249.459833
1250.0,842,54269.811013
1480.0,831,54289.189936
1880.0,763,54307.332875
1300.0,567,54320.202138
1470.0,883,54341.225003
2110.0,904,54363.209729
1530.0,717,54380.622186
930.0,597,54394.345836
1170.0,603,54408.967535
1160.0,626,54424.084786
1350.0,831,54442.823225
1530.0,1007,54467.281281
1080.0,597,54482.366657
1800.0,757,54500.707323
1740.0,646,54516.117606
1500.0,723,54532.839123
1170.0,609,54547.583935
1180.0,643,54562.347572
1260.0,648,54578.045562
1380.0,671,54594.430454
1740.0,707,54611.514869
1650.0,959,54634.362618
1450.0,744,54652.314183
1380.0,863,54673.142382
1600.0,659,54688.997574
1050.0,734,54705.980532
1740.0,665,54722.838739
990.0,616,54737.82375
1320.0,677,54754.539123
2130.0,753,54773.330759
1320.0,556,54787.735324
1180.0,812,54807.613927
1440.0,618,54822.477728
1100.0,535,54836.093216
1240.0,896,54857.217475
1680.0,1058,54883.044102
1270.0,815,54902.303905
1860.0,750,54920.598981
2740.0,901,54941.680637
1330.0,729,54959.039026
1690.0,667,54976.334477
1430.0,961,54999.196887
1320.0,800,55017.822411
370.0,505,55030.338111
1190.0,569,55044.072832
1340.0,702,55060.31952
1310.0,787,55079.226191
2070.0,995,55103.578228
1510.0,788,55122.992192
1490.0,791,55141.551786
1620.0,754,55159.009395
2050.0,861,55180.81296
2180.0,767,55199.701748
1430.0,683,55216.881196
1370.0,660,55232.919622
1320.0,673,55248.804498
2050.0,842,55268.262114
2710.0,1100,55294.601637
1890.0,838,55315.403676
1830.0,946,55338.154689
1070.0,750,55355.686473
1730.0,715,55372.867179
1550.0,775,55392.244007
1800.0,749,55411.551859
1540.0,731,55428.331355
1660.0,1019,55452.638813
1410.0,755,55470.265287
2380.0,795,55489.047692
1250.0,717,55506.873579
2110.0,1167,55534.071367
1850.0,799,55553.575501
1110.0,748,55570.817473
2310.0,1000,55593.645309
1430.0,679,55610.331061
1310.0,753,55628.699992
1200.0,649,55645.036735
1020.0,588,55657.859437
1780.0,670,55674.095949
1660.0,802,55694.308043
1770.0,731,55711.432661
1680.0,888,55731.846069
1860.0,657,55747.15068
1370.0,888,55768.429415
1840.0,761,55786.375162
2110.0,1041,55810.446966
1240.0,568,55824.708855
640.0,463,55835.545793
1440.0,1048,55860.651059
1630.0,765,55879.361252
2090.0,808,55899.201127
1880.0,896,55921.158316
1700.0,647,55936.702528
1680.0,736,55954.553239
2060.0,766,55972.977531
1700.0,725,55990.112946
1820.0,702,56006.884602
2120.0,1288,56038.053089
1670.0,872,56059.702033
1410.0,695,56076.537915
900.0,582,56090.508355
1320.0,643,56105.905377
1530.0,654,56121.284812
1530.0,710,56138.62765
1920.0,902,56160.568103
1990.0,969,56183.785835
770.0,550,56196.631843
1410.0,721,56214.652277
1770.0,1247,56244.848084
2270.0,1042,56269.121361
1950.0,823,56289.160418
1930.0,1033,56314.171164
1270.0,603,56329.904187
2040.0,889,56351.887521
1840.0,745,56369.470627
1990.0,783,56388.257485
2140.0,763,56406.458723
2030.0,956,56430.158698
1850.0,756,56448.698891
1630.0,904,56470.691477
1360.0,712,56487.161968
1740.0,1056,56511.313126
2050.0,984,56536.417811
1210.0,659,56551.931254
2360.0,883,56574.548672
1880.0,638,56590.191467
1440.0,714,56607.532581
2560.0,751,56626.790225
1220.0,711,56645.550172
2220.0,993,56668.62978
1290.0,618,56684.112785
2160.0,932,56706.852672
1860.0,885,56728.169131
1840.0,860,56747.938436
1720.0,738,56766.365193
1300.0,620,56781.736485
1790.0,665,56798.920547
2100.0,902,56819.996753
1310.0,731,56836.945761
1510.0,717,56854.428202
1870.0,1060,56880.109084
1190.0,607,56895.679084
1530.0,854,56915.355922
1280.0,683,56931.492676
1910.0,693,56947.56407
2040.0,1026,56972.175237
1560.0,740,56989.859771
1570.0,635,57003.80628
1320.0,763,57022.343702
1460.0,595,57036.777564
1630.0,793,57056.092106
1490.0,692,57073.119098
1700.0,825,57091.9436
2010.0,782,57111.105935
1540.0,809,57130.493453
1750.0,761,57148.127936
1320.0,507,57160.854213
1710.0,592,57174.829665
2210.0,826,57194.108379
2050.0,937,57215.902282
1810.0,878,57237.069764
1460.0,754,57256.481283
1910.0,968,57279.550456
2050.0,822,57299.136426
1690.0,818,57319.24222
1710.0,863,57339.8324
1630.0,698,57356.52198
1950.0,766,57375.569298
1600.0,793,57393.425462
1490.0,779,57412.488171
1460.0,761,57430.712809
1440.0,942,57453.816399
1460.0,780,57473.028077
1440.0,700,57489.549553
1260.0,645,57504.010638
1380.0,954,57526.712875
2150.0,847,57547.037736
2140.0,953,57569.838822
1000.0,711,57587.06476
1230.0,677,57603.326947
1390.0,707,57620.803003
1320.0,966,57643.645168
2020.0,909,57665.815872
2140.0,998,57689.747658
1540.0,832,57710.321607
1790.0,942,57733.620564
1190.0,771,57752.098239
1120.0,751,57770.540616
860.0,586,57785.436559
810.0,566,57799.707365
1380.0,676,57816.317589
1630.0,959,57839.89591
1480.0,806,57859.034407
1230.0,569,57872.233565
1560.0,1031,57896.496751
1200.0,702,57913.450752
1810.0,737,57932.067813
1840.0,941,57955.095466
2240.0,771,57973.06936
1430.0,901,57995.207726
1820.0,677,58011.268969
1890.0,692,58029.049573
1600.0,710,58046.683389
1180.0,730,58064.741505
1540.0,744,58084.077677
1350.0,920,58108.770098
2090.0,1105,58135.169004
1290.0,906,58157.970236
1140.0,758,58177.045708
1930.0,899,58199.568466
1760.0,756,58218.679153
2050.0,909,58242.43971
2020.0,967,58269.585742
1750.0,870,58292.985379
1700.0,832,58316.123232
2160.0,969,58342.577259
1590.0,635,58360.842123
2190.0,1059,58390.054018
1710.0,612,58406.956257
1260.0,811,58430.586074
1770.0,900,58456.285899
2160.0,890,58482.455386
2020.0,899,58507.973426
1100.0,593,58525.705292
1990.0,832,58550.530686
1060.0,703,58572.17798
1170.0,879,58597.292732
1420.0,757,58620.553748
1400.0,758,58643.005949
1320.0,615,58663.087438
1570.0,686,58685.694661
1710.0,851,58712.379438
2180.0,1040,58746.765017
1340.0,827,58773.77638
1380.0,800,58796.163411
1280.0,843,58822.094755
2080.0,778,58848.024614
1680.0,736,58870.625643
1140.0,567,58889.66665
2450.0,855,58917.14144
2400.0,944,58945.695871
1560.0,839,58969.95944
2210.0,780,58994.476995
1440.0,760,59017.590652
2710.0,747,59041.955264
1820.0,984,59072.681674
1680.0,886,59103.456386
1870.0,1062,59137.951262
1670.0,959,59168.400992
2170.0,736,59193.735029
1920.0,813,59221.874607
1070.0,638,59242.418635
1210.0,552,59259.880119
1730.0,1018,59291.824103
2120.0,761,59314.525404
1020.0,605,59336.268633
790.0,600,59356.789779
1600.0,860,59385.993634
1680.0,797,59411.567333
1910.0,801,59437.695436
1960.0,751,59462.675712
2070.0,938,59492.354223
1690.0,850,59520.487618
2310.0,989,59551.91848
2180.0,1781,59606.672647
2800.0,898,59638.648988
1710.0,914,59669.927888
1720.0,696,59692.748946
2210.0,822,59718.857118
1450.0,663,59741.039451
1270.0,692,59764.079605
2010.0,931,59793.225143
1680.0,788,59821.429467
1650.0,1179,59860.559479
910.0,560,59878.685189
1920.0,830,59905.084382
1250.0,874,59935.848383
2080.0,1027,59969.517919
1640.0,831,59996.663037
2340.0,1051,60031.71478
1310.0,950,60061.235023
1770.0,944,60091.822079
2370.0,941,60121.751399
1780.0,759,60147.795205
1320.0,914,60178.33531
960.0,742,60203.751219
1760.0,990,60236.599676
1530.0,1158,60274.965067
1760.0,1039,60308.32732
1830.0,1118,60344.505213
1940.0,875,60372.152416
1390.0,964,60404.644096
1400.0,773,60428.842427
1940.0,834,60455.867378
2130.0,866,60484.793792
2040.0,924,60514.508469
1680.0,874,60542.893742
1040.0,653,60562.708364
2770.0,882,60591.659656
1490.0,824,60618.857341
1520.0,743,60643.818183
1120.0,999,60676.919678
2600.0,847,60703.931934
2060.0,1099,60740.677631
1910.0,988,60775.231076
2580.0,830,60801.916032
1590.0,732,60824.218886
1420.0,860,60852.127121
2020.0,869,60882.778481
2060.0,1103,60922.103277
2100.0,1004,60956.102272
2110.0,931,60987.240829
1410.0,623,61007.811735
1570.0,769,61033.197241
1560.0,904,61062.639125
1880.0,949,61093.187618
2080.0,1054,61127.805835
2090.0,856,61154.802593
2090.0,807,61181.133006
1680.0,770,61206.956539
2210.0,972,61239.883707
1150.0,586,61259.784478
1640.0,796,61286.498249
1880.0,864,61315.065973
2070.0,1177,61353.341327
3000.0,1127,61391.261136
1490.0,823,61418.165605
2140.0,820,61443.591061
1440.0,1037,61478.322079
2110.0,827,61506.206986
1460.0,851,61534.745124
1570.0,866,61563.234807
2290.0,990,61599.083226
2280.0,913,61629.487412
1560.0,719,61652.668798
1640.0,759,61677.890099
1540.0,832,61705.363256
830.0,648,61726.860102
1620.0,836,61754.020651
1600.0,919,61783.541596
1790.0,1131,61820.027896
1240.0,832,61846.416349
1790.0,900,61877.513287
1550.0,856,61905.087172
2100.0,722,61928.953633
1800.0,972,61962.075546
1690.0,726,61987.378489
2220.0,757,62012.342519
1590.0,732,62037.581963
1480.0,827,62065.567875
1600.0,836,62092.171972
1010.0,639,62112.306159
1670.0,693,62133.713625
1610.0,1029,62166.380587
2290.0,822,62192.552339
2840.0,853,62220.539604
1740.0,806,62248.044275
2290.0,863,62276.422069
2200.0,1049,62310.617853
2590.0,1082,62346.122247
1890.0,806,62373.790453
1920.0,817,62398.962062
1690.0,1063,62436.055286
1880.0,916,62468.260442
1730.0,930,62496.900506
1690.0,698,62519.354819
1180.0,649,62540.4175
1640.0,760,62566.32554
2400.0,926,62596.901769
1400.0,845,62625.793568
840.0,571,62644.583501
1730.0,1251,62685.656174
1310.0,558,62704.983064
1680.0,928,62734.143918
1470.0,627,62755.761167
1560.0,853,62783.432155
1280.0,914,62813.626532
880.0,585,62832.136918
2140.0,976,62864.994239
1620.0,898,62895.240616
1570.0,1079,62932.958729
1530.0,770,62958.647577
1870.0,1087,62993.425111
2080.0,807,63019.89122
2110.0,782,63045.714088
1800.0,945,63076.89444
1530.0,753,63102.431755
1520.0,802,63128.990569
1650.0,666,63150.362615
1330.0,715,63174.207102
1860.0,627,63195.587849
2110.0,897,63224.02476
2630.0,1393,63269.090415
1410.0,549,63287.177999
2110.0,824,63313.522835
1350.0,954,63344.330498
2270.0,840,63372.797925
1340.0,699,63396.022995
1670.0,971,63428.098115
1810.0,766,63455.348802
960.0,475,63470.635898
1710.0,750,63495.503731
1610.0,864,63524.272449
1940.0,729,63547.911885
2070.0,965,63580.240855
2340.0,913,63612.897668
1870.0,957,63643.728301
1720.0,886,63672.277642
1760.0,898,63699.492675
2190.0,938,63729.173454
1890.0,824,63754.865893
1130.0,614,63775.335793
2070.0,778,63800.56935
1710.0,775,63827.443361
1050.0,703,63853.641179
1780.0,928,63885.903095
1940.0,806,63913.593565
2240.0,783,63938.59938
1590.0,940,63969.735132
1950.0,897,63999.197662
1640.0,746,64022.630606
1490.0,768,64047.039991
2260.0,842,64076.265485
1870.0,712,64098.326849
1760.0,791,64124.465154
1690.0,714,64145.836607
1600.0,807,64172.42113
2220.0,774,64197.089733
1560.0,730,64221.67378
1660.0,731,64245.295279
1340.0,780,64270.905555
1610.0,763,64294.477375
2840.0,850,64322.658257
2210.0,882,64353.275205
1720.0,882,64381.889508
1070.0,740,64407.914048
1670.0,908,64437.226416
1990.0,988,64469.175283
2140.0,794,64495.682165
2720.0,915,64526.316037
1450.0,685,64548.623711
1370.0,804,64576.104559
1760.0,797,64601.84026
2020.0,1222,64640.423516
2190.0,1092,64674.765329
630.0,599,64696.011592
2920.0,935,64727.221479
2290.0,916,64758.304288
1420.0,697,64780.852831
1790.0,984,64813.486833
1590.0,688,64834.943675
2050.0,807,64861.764398
1660.0,1163,64901.842463
1690.0,698,64924.443209
1820.0,1029,64959.048331
1770.0,969,64991.894119
2800.0,1140,65029.721271
1540.0,1003,65063.567694
2260.0,835,65090.841906
1310.0,643,65112.273573
1660.0,963,65145.333819
1640.0,820,65172.053626
1890.0,805,65198.192981
1920.0,953,65228.297656
1280.0,732,65250.329258
1700.0,780,65276.684401
1930.0,855,65303.066377
1540.0,696,65326.174497
1540.0,773,65350.744273
1390.0,741,65375.595435
1410.0,688,65399.85473
980.0,617,65420.095775
2020.0,1072,65455.665824
2190.0,981,65489.086607
1040.0,642,65511.438502
1390.0,769,65536.325044
1780.0,796,65562.762337
1860.0,1057,65597.537439
2170.0,999,65628.925097
1790.0,717,65650.305478
2460.0,968,65682.699051
1700.0,773,65708.269706
2240.0,1329,65752.291551
1770.0,819,65778.303792
1650.0,876,65807.54928
1710.0,817,65834.679577
1750.0,802,65861.474026
1700.0,858,65890.435011
1690.0,1018,65923.410192
2820.0,789,65950.76641
1560.0,737,65974.486454
2260.0,802,66000.814225
1510.0,941,66029.669296
1630.0,833,66057.725413
1630.0,742,66083.328298
1570.0,684,66107.215247
2450.0,1112,66144.081957
1770.0,794,66170.212455
1780.0,835,66196.54341
1630.0,744,66221.623497
950.0,560,66240.517048
1720.0,715,66265.057457
1590.0,688,66288.29862
1340.0,826,66316.606999
1940.0,744,66342.208394
1310.0,758,66366.774636
1560.0,808,66394.968952
2200.0,981,66427.573896
1550.0,1186,66468.749756
1770.0,875,66497.815448
2000.0,698,66521.557381
1910.0,1010,66554.149702
1610.0,800,66579.974627
2030.0,917,66611.12531
1840.0,815,66637.834442
1670.0,807,66665.673325
2140.0,936,66695.483121
1920.0,985,66729.501264
2540.0,684,66750.920195
1510.0,710,66775.119237
1810.0,880,66801.876437
1590.0,723,66826.563968
2200.0,774,66850.969728
1990.0,957,66881.668233
2450.0,859,66907.978141
2460.0,973,66939.406446
1470.0,1105,66975.932316
2330.0,1369,67018.314986
2290.0,822,67045.440142
1710.0,748,67068.973429
1730.0,860,67097.3001
1590.0,901,67127.743539
2050.0,929,67159.656528
1230.0,705,67183.442343
1820.0,777,67208.400852
1370.0,906,67236.409111
2300.0,932,67265.246882
2540.0,842,67292.601932
1870.0,674,67315.50005
400.0,360,67327.393621
1110.0,686,67349.595103
2010.0,817,67377.002525
1640.0,853,67404.341268
2120.0,654,67423.207035
970.0,649,67444.151628
2190.0,1034,67478.707489
1060.0,798,67506.695431
1500.0,733,67528.811881
1530.0,814,67554.796993
1600.0,948,67586.787769
1630.0,695,67609.455034
1380.0,759,67634.433354
1880.0,692,67657.286114
1710.0,780,67681.606923
1750.0,844,67709.944668
1740.0,659,67732.241097
1570.0,787,67759.040874
1650.0,716,67782.914588
1800.0,1028,67819.281267
2180.0,1004,67851.644836
2100.0,738,67876.578645
2330.0,837,67904.894608
1810.0,969,67938.885706
1530.0,599,67958.863296
1660.0,849,67985.631093
1600.0,647,68007.785285
1980.0,709,68030.917454
1830.0,844,68057.659745
1640.0,999,68089.807546
1380.0,782,68113.28973
1730.0,812,68140.192493
2400.0,1017,68174.129867
1900.0,738,68198.45359
1880.0,798,68226.131907
2760.0,891,68254.566273
2160.0,831,68282.261559
1810.0,932,68311.682054
1350.0,849,68339.627772
1570.0,820,68367.204748
2100.0,804,68396.329798
1930.0,824,68423.369609
2650.0,996,68455.489031
2240.0,806,68481.73556
1790.0,676,68504.120361
1600.0,773,68529.114362
1470.0,759,68553.249854
1950.0,799,68580.305497
1460.0,773,68607.185647
2040.0,906,68639.033844
1440.0,791,68666.279147
2290.0,960,68698.235299
1800.0,824,68725.694591
2850.0,1605,68777.758055
1260.0,837,68806.298646
2270.0,725,68830.818718
2220.0,858,68856.859605
1750.0,1005,68890.203518
2880.0,817,68915.798366
1630.0,1030,68948.077087
1640.0,777,68972.637226
1820.0,1212,69012.858825
820.0,528,69030.189637
1900.0,997,69062.080819
1630.0,678,69083.116935
2360.0,1006,69115.427515
2770.0,980,69146.368222
1730.0,748,69170.917592
2040.0,836,69199.019701
1700.0,818,69224.204632
1500.0,765,69249.527108
2280.0,825,69276.545614
2260.0,853,69305.100331
1620.0,782,69329.88606
1670.0,707,69353.390588
1680.0,844,69379.827502
2070.0,919,69408.58592
2430.0,1057,69443.839363
1660.0,811,69469.840627
1870.0,981,69501.606446
1820.0,954,69533.245516
2230.0,837,69560.275037
1750.0,800,69586.380146
2180.0,850,69613.086844
2180.0,943,69644.842407
1990.0,925,69674.889385
1260.0,618,69696.151269
1860.0,889,69726.25001
1590.0,1021,69759.730537
1380.0,966,69791.567615
1960.0,916,69819.994783
1580.0,1244,69861.004852
1920.0,1085,69895.621364
1830.0,860,69924.458256
1270.0,671,69946.697517
1720.0,876,69976.803271
1530.0,781,70002.74266
1760.0,847,70029.777376
1620.0,802,70054.943953
1800.0,954,70086.746461
2350.0,1056,70121.189442
1630.0,870,70148.961281
1530.0,852,70175.603349
1780.0,771,70200.235359
2300.0,871,70228.933872
2290.0,1044,70263.534053
1640.0,795,70289.14725
1850.0,896,70318.440741
1870.0,742,70343.050865
1520.0,808,70369.784446
2050.0,782,70395.46449
1110.0,583,70414.9346
1470.0,872,70444.755272
1400.0,679,70466.49802
2320.0,939,70496.991984
1950.0,965,70530.096127
1590.0,906,70556.607879
2260.0,881,70586.950089
1780.0,910,70615.996057
1760.0,848,70643.293019
2070.0,726,70664.868284
2190.0,779,70691.149288
1900.0,906,70721.305417
2130.0,769,70746.941471
1350.0,825,70775.351525
2190.0,779,70801.105788
2290.0,993,70833.893552
1590.0,806,70861.555078
1910.0,754,70887.968044
2070.0,814,70916.347106
1530.0,734,70940.221846
1690.0,709,70963.607762
1510.0,694,70986.521565
2220.0,886,71015.769991
1860.0,887,71044.583996
1780.0,769,71070.625277
2040.0,853,71099.051132
2290.0,1072,71132.941255
1620.0,766,71156.763319
1150.0,678,71177.736915
1570.0,954,71210.734781
2000.0,822,71237.650489
1390.0,957,71268.762475
1100.0,491,71283.116238
1610.0,827,71310.405294
1740.0,882,71339.601613
2280.0,1191,71380.244663
1730.0,787,71405.840393
2240.0,854,71432.257595
1680.0,1016,71465.979853
1580.0,700,71489.930248
1870.0,890,71520.142097
1570.0,781,71544.673692
1320.0,930,71574.932641
2090.0,736,71598.848094
1800.0,939,71631.759822
1700.0,964,71665.103159
2290.0,792,71689.632414
2070.0,1120,71728.10811
2220.0,829,71756.059296
1660.0,843,71784.947429
1950.0,820,71813.512167
1890.0,695,71837.017678
1780.0,736,71861.171728
1410.0,822,71887.875073
2170.0,863,71915.632923
1630.0,951,71946.352918
1540.0,883,71975.119822
1370.0,826,72001.648843
1630.0,916,72030.749986
1620.0,749,72056.22634
2050.0,702,72080.416069
2210.0,754,72105.028679
1290.0,787,72129.172363
1640.0,729,72152.765315
2110.0,681,72176.237857
2180.0,795,72203.772984
1710.0,796,72229.417851
2310.0,820,72257.992256
1680.0,755,72284.079208
1310.0,829,72311.070994
1730.0,864,72339.480124
2280.0,841,72367.243269
1690.0,775,72393.520527
1680.0,792,72420.347523
1710.0,775,72447.293381
2270.0,820,72473.268686
1740.0,942,72505.722748
2080.0,742,72530.87144
1570.0,778,72555.623097
1560.0,807,72582.7374
2610.0,1033,72617.525784
2710.0,822,72645.755291
1660.0,788,72673.20152
2000.0,886,72702.589489
1780.0,1152,72740.549492
1780.0,1015,72774.108268
1580.0,1015,72807.141896
2670.0,1037,72838.415569
2690.0,1135,72875.324958
1670.0,986,72907.549697
1860.0,1188,72948.625837
1660.0,925,72980.016456
1520.0,784,73007.828718
1890.0,1112,73046.069391
2250.0,910,73076.777561
2180.0,761,73100.911569
1830.0,782,73128.879969
2220.0,741,73153.861988
1580.0,785,73180.447941
2410.0,1134,73218.101766
1900.0,874,73249.865471
430.0,479,73264.657291
2440.0,1327,73310.115219
660.0,569,73330.660201
1500.0,929,73364.58953
1470.0,950,73397.837858
2310.0,1033,73434.17066
2320.0,986,73467.280115
1210.0,615,73489.57883
1730.0,807,73519.148924
2240.0,897,73550.206711
1820.0,1030,73584.594544
2360.0,976,73619.265952
1840.0,786,73643.640361
1050.0,653,73666.384154
3060.0,1021,73701.475766
2080.0,825,73730.448234
2270.0,801,73758.356042
2340.0,1242,73802.941885
1790.0,985,73838.990816
1630.0,844,73866.989247
2310.0,1145,73905.970175
2230.0,1026,73939.202539
1830.0,1064,73972.701233
1690.0,1338,74017.462377
1630.0,775,74042.510632
1430.0,826,74069.516353
1820.0,1072,74105.586738
2220.0,811,74132.073206
1650.0,789,74159.504491
1570.0,821,74186.273652
2020.0,908,74216.490101
1610.0,1035,74251.674336
2210.0,966,74283.664126
1660.0,758,74309.607394
1600.0,1031,74343.736692
2020.0,1115,74378.965883
1590.0,738,74403.18197
1360.0,744,74429.15846
2090.0,905,74459.226265
1800.0,1325,74502.195096
2290.0,1011,74537.71721
1650.0,785,74563.204491
1580.0,795,74587.123499
2370.0,796,74613.780041
2080.0,726,74638.725771
2350.0,902,74667.923563
1640.0,714,74691.845783
1770.0,954,74721.636897
1780.0,1084,74756.662258
1640.0,840,74783.807977
1590.0,614,74804.37063
1650.0,931,74835.817809
1460.0,776,74860.36513
2880.0,950,74891.456387
1420.0,767,74916.494738
2470.0,1045,74951.794109
2180.0,1036,74986.655474
890.0,550,75005.261899
1420.0,602,75025.588769
1830.0,1424,75070.866436
1140.0,701,75093.120788
1730.0,914,75121.517592
1920.0,918,75152.522189
1940.0,830,75179.350666
1610.0,1133,75216.09534
2310.0,1062,75251.264035
1700.0,1104,75288.027144
1580.0,668,75310.657215
2250.0,1006,75344.872454
1830.0,826,75370.324254
2500.0,941,75400.787226
2240.0,813,75428.686686
2580.0,914,75457.270159
2390.0,1003,75491.360429
2920.0,698,75514.728463
2250.0,838,75541.195434
2240.0,872,75569.738114
1670.0,748,75592.875278
2250.0,1414,75639.85539
3440.0,997,75673.568367
1650.0,677,75695.992695
1350.0,742,75720.617979
1960.0,877,75750.161669
1830.0,986,75782.594452
2280.0,994,75816.935087
1930.0,825,75844.956099
1520.0,1018,75879.144826
1880.0,877,75907.453406
2000.0,983,75941.517274
1570.0,785,75965.739901
1890.0,1077,75999.733088
1650.0,732,76026.486307
2330.0,1039,76061.705407
1690.0,881,76090.790622
1680.0,715,76114.210573
1960.0,679,76136.806496
1880.0,1075,76173.913169
1590.0,807,76200.745667
1410.0,699,76223.838412
2100.0,847,76251.584121
1680.0,898,76281.607307
2580.0,1164,76320.356354
2370.0,790,76346.398804
1750.0,780,76372.788906
1990.0,1143,76408.699297
3500.0,1108,76445.831026
2370.0,1330,76487.99389
1540.0,1044,76523.000025
2250.0,830,76551.228648
1820.0,1095,76588.04447
2130.0,1049,76623.243533
2310.0,1092,76659.699203
820.0,560,76677.717808
2330.0,802,76703.866899
2280.0,960,76732.631219
1720.0,823,76761.269318
2290.0,959,76793.96314
1000.0,557,76812.705122
2510.0,1256,76854.360757
1340.0,788,76881.46057
2360.0,898,76911.09905
2450.0,1402,76958.494155
1780.0,920,76989.392475
2270.0,962,77021.380255
1630.0,780,77048.491961
1960.0,1078,77082.406248
1610.0,856,77110.110067
1570.0,871,77137.425254
2290.0,847,77165.827394
2420.0,1307,77209.012056
1890.0,996,77242.676512
2150.0,812,77266.774349
2340.0,1007,77299.666573
1550.0,809,77326.000244
2120.0,677,77347.71035
2190.0,833,77374.783993
2200.0,811,77401.568093
2370.0,1051,77437.759296
1750.0,842,77465.434552
1610.0,817,77493.266653
1520.0,772,77517.720486
1860.0,932,77549.117752
1740.0,758,77574.578241
1740.0,918,77604.193682
2510.0,1107,77639.253294
2240.0,816,77666.234296
1990.0,1030,77699.190001
2160.0,703,77721.832677
1490.0,609,77742.29137
1830.0,1062,77777.295144
2050.0,966,77808.783706
2300.0,897,77838.204828
2230.0,821,77865.250041
2240.0,805,77890.815403
2250.0,824,77917.396964
2210.0,742,77942.542553
2430.0,1007,77974.231933
2160.0,990,78006.450593
2080.0,889,78034.921452
1600.0,753,78059.616577
1760.0,783,78087.254299
1670.0,795,78113.682326
1740.0,833,78140.573277
2110.0,723,78164.6155
1820.0,1142,78198.43748
2210.0,1015,78231.907542
1890.0,925,78261.924891
1740.0,855,78290.085866
1790.0,966,78321.973174
1520.0,706,78343.794085
1940.0,840,78371.949973
1620.0,714,78395.251286
1820.0,924,78427.136306
1850.0,1196,78467.791286
1680.0,860,78496.291866
1740.0,806,78523.846804
1770.0,778,78549.27272
2210.0,754,78573.226104
1750.0,792,78600.738051
1660.0,901,78631.1243
1750.0,1184,78670.21557
1690.0,747,78692.474603
2830.0,981,78723.772493
2740.0,1227,78761.422271
1760.0,791,78785.875923
1820.0,914,78815.130071
2050.0,853,78843.861402
1840.0,806,78869.756717
1970.0,761,78894.739321
3020.0,1371,78941.188008
1920.0,1006,78973.720831
1800.0,772,78999.953582
1700.0,891,79029.533293
1740.0,887,79058.211294
1530.0,1035,79092.355124
1340.0,853,79120.824609
1800.0,952,79153.973447
1580.0,731,79177.268017
1710.0,834,79204.69803
1610.0,634,79226.116237
1460.0,806,79250.905638
1920.0,1107,79286.476286
2630.0,1278,79328.936802
1730.0,663,79350.432803
1770.0,878,79380.512994
2600.0,1190,79419.512899
2010.0,900,79450.146988
1800.0,959,79481.701972
2360.0,971,79513.145811
1270.0,715,79536.175837
2110.0,841,79565.082237
1410.0,738,79588.121354
2250.0,810,79614.187286
1730.0,1023,79647.373949
1710.0,833,79674.844854
1680.0,762,79700.157268
1760.0,920,79731.287174
1780.0,796,79757.832288
2380.0,908,79787.5501
1810.0,956,79818.424134
2090.0,1092,79855.326122
2270.0,785,79881.544884
2200.0,1124,79919.693938
1750.0,763,79945.795922
1840.0,971,79977.407884
1400.0,794,80006.114626
1350.0,740,80030.717784
1670.0,851,80058.338922
2640.0,1131,80095.172101
1800.0,913,80125.103645
2270.0,794,80151.329055
1690.0,744,80175.959387
1910.0,1174,80216.076031
2250.0,1048,80250.185904
1990.0,1169,80288.991562
2730.0,1441,80335.139353
1760.0,769,80360.771615
1350.0,644,80380.952717
2530.0,1099,80416.669361
1630.0,835,80443.818924
1690.0,758,80467.919234
1980.0,716,80491.751258
1350.0,729,80517.520938
1890.0,807,80543.594102
1730.0,763,80567.54212
1530.0,968,80599.141003
2250.0,891,80628.879925
1650.0,1019,80662.557268
2220.0,829,80690.368935
2620.0,913,80719.509054
2200.0,797,80747.362233
1590.0,902,80777.672987
2200.0,798,80804.902885
2360.0,904,80834.620732
2220.0,867,80863.209496
1750.0,953,80895.285961
1560.0,887,80925.084861
1810.0,857,80953.825991
1230.0,617,80974.068001
2310.0,1022,81006.769453
1770.0,732,81030.40227
1640.0,832,81057.638951
1720.0,969,81089.71666
1830.0,940,81121.003195
2360.0,1370,81164.974046
2370.0,891,81193.812011
2630.0,997,81227.268394
1730.0,1118,81265.137235
2490.0,950,81294.774751
1920.0,1090,81330.279045
2310.0,888,81359.935324
2180.0,711,81384.029105
2260.0,1474,81429.570903
1650.0,849,81458.14739
1660.0,893,81489.155546
1770.0,884,81518.077247
1920.0,824,81545.656746
1560.0,622,81565.838026
1800.0,876,81595.466731
1860.0,1054,81628.424889
2300.0,836,81656.367734
2320.0,1008,81689.502728
2410.0,1227,81730.68995
1800.0,1233,81771.28317
1480.0,776,81796.6348
2040.0,811,81822.400862
1720.0,800,81847.21598
1530.0,756,81870.976321
2320.0,1064,81905.929121
1740.0,854,81933.734138
3050.0,929,81964.21639
2240.0,812,81991.689744
2500.0,970,82021.51447
1890.0,1345,82065.94523
2030.0,886,82092.522824
1740.0,1155,82131.894775
2120.0,901,82161.70066
2400.0,1006,82195.930871
2510.0,940,82227.275049
2100.0,858,82255.40111
2570.0,1532,82303.77373
2280.0,981,82336.123751
1770.0,915,82366.720071
700.0,498,82383.047803
2430.0,1008,82415.414306
1800.0,804,82442.1726
2220.0,832,82470.748091
1810.0,1144,82510.159874
1440.0,770,82534.476006
2450.0,931,82565.336678
1890.0,1230,82607.871081
1910.0,1087,82644.137395
1900.0,963,82673.677264
2170.0,707,82697.13257
2030.0,1067,82731.61932
2130.0,853,82759.558249
2530.0,1123,82796.389661
1800.0,1036,82828.806924
2210.0,1160,82867.448387
1840.0,845,82895.703465
1720.0,748,82919.832057
1820.0,1198,82962.25336
2580.0,1073,82999.236347
1570.0,745,83026.089962
2350.0,1003,83057.265897
1910.0,1097,83094.690759
2270.0,796,83123.427232
2250.0,789,83147.519667
1400.0,823,83174.139344
1680.0,880,83202.610183
2290.0,803,83228.50256
1790.0,1128,83265.661653
2330.0,1160,83301.823978
2400.0,1002,83335.906432
1340.0,740,83360.266468
1180.0,619,83381.094961
2420.0,928,83411.556992
1240.0,646,83433.326187
2440.0,1239,83474.904833
1610.0,929,83506.783148
2320.0,1096,83543.590488
1690.0,825,83572.191168
1540.0,879,83599.065641
1930.0,1020,83633.724648
1390.0,810,83660.267118
1720.0,867,83688.153111
1680.0,865,83716.466466
2210.0,762,83741.530109
1780.0,856,83769.754366
2060.0,733,83794.801003
1620.0,705,83816.671653
1880.0,1029,83849.448514
2000.0,1302,83890.505342
2710.0,1069,83924.395847
2400.0,1164,83961.207859
1800.0,924,83991.220719
