# {"t_start": 1548054588.9205587, "env_id": "RoboschoolAnt-v1"} 
r,l,t
-8.70196,1000,17.685065
-103.176894,1000,33.014316
36.938016,1000,63.215384
-174.866471,1000,79.326856
-84.596298,1000,110.371297
155.962683,1000,126.783023
38.069249,1000,157.644469
84.828474,1000,173.523377
25.794515,1000,204.032807
79.245555,1000,220.845781
73.717088,1000,251.098171
112.463613,1000,266.381934
163.030383,1000,296.813835
87.283205,1000,313.103497
190.729584,1000,342.418921
184.311943,1000,357.37928
310.156982,1000,387.996014
190.85774,1000,402.624187
332.907616,1000,433.802613
326.249244,1000,449.15239
252.791614,1000,480.794731
170.49852,1000,496.189682
339.571468,1000,528.107177
210.141845,1000,543.280406
247.281872,1000,573.460562
287.914524,1000,589.139962
398.711774,1000,618.893915
151.962632,1000,634.8206
269.015117,1000,664.982462
337.391264,1000,680.436587
255.062585,1000,709.91557
321.149175,1000,726.328791
314.59515,1000,757.839972
122.056272,1000,773.311371
385.760359,1000,806.499208
240.945003,1000,822.105178
374.744044,1000,854.011229
379.924268,1000,869.901855
443.888331,1000,903.910751
155.282559,1000,918.394351
364.528418,1000,951.262136
441.190405,1000,966.529484
283.851732,1000,981.467108
300.7845,1000,1012.954792
317.988081,1000,1028.371056
319.983555,1000,1061.245987
321.707112,1000,1076.557371
441.172349,1000,1108.872678
377.921258,1000,1123.370869
404.050984,1000,1155.692625
455.381939,1000,1171.374684
460.533531,1000,1205.391366
492.443999,1000,1220.707429
392.294213,1000,1252.484396
467.212226,1000,1268.631751
430.788467,1000,1300.530075
411.970155,1000,1316.429437
347.116561,1000,1347.250792
478.680787,1000,1362.091277
413.616316,1000,1392.517931
409.722535,1000,1408.125185
475.26964,1000,1439.56537
526.866839,1000,1454.567951
536.048982,1000,1487.184488
480.259948,1000,1502.715296
389.69524,1000,1535.093407
496.26391,1000,1550.232356
541.183213,1000,1583.787276
483.934845,1000,1599.56944
569.123894,1000,1631.242237
577.89867,1000,1646.96754
540.730117,1000,1678.27486
549.161239,1000,1693.672182
542.00645,1000,1724.239065
430.241254,1000,1739.518523
519.581845,1000,1772.61718
565.441464,1000,1788.364239
537.401734,1000,1822.287323
478.793642,1000,1838.013363
573.061656,1000,1871.826048
462.696085,1000,1886.52166
535.841238,1000,1918.24175
573.870136,1000,1934.172213
524.562156,1000,1965.321018
566.950756,1000,1980.198735
484.769438,1000,1995.479524
486.313581,1000,2025.573042
462.106032,1000,2041.813967
561.798158,1000,2073.691998
563.03564,1000,2089.766549
525.557079,1000,2121.399734
625.259195,1000,2136.854787
510.999819,1000,2167.986115
573.951851,1000,2183.526017
592.032323,1000,2215.554891
526.979177,1000,2231.200743
508.910377,1000,2262.838957
347.571358,1000,2277.947127
570.484483,1000,2310.106029
582.690204,1000,2325.528638
598.597555,1000,2357.866115
541.335639,1000,2373.147176
622.701028,1000,2405.019551
516.668393,1000,2420.075383
375.021254,1000,2450.233416
407.551342,1000,2465.466145
617.378277,1000,2496.86324
239.442305,318,2501.629849
598.641263,1000,2517.33948
609.670397,1000,2549.993741
616.268906,1000,2566.262382
549.141482,1000,2599.517262
640.827597,1000,2614.695914
577.219242,1000,2647.356986
609.883378,1000,2662.65442
626.867916,1000,2694.281509
629.255085,1000,2710.32363
633.873025,1000,2744.355539
583.783196,1000,2759.008146
619.529682,1000,2792.232322
528.005968,1000,2807.638643
631.212413,1000,2841.543607
599.228754,1000,2856.674374
636.695295,1000,2889.036448
651.24656,1000,2904.204405
690.09485,1000,2936.188891
647.425719,1000,2951.834629
644.634519,1000,2982.909935
593.278887,1000,2998.501803
665.372261,1000,3031.335487
672.876719,1000,3046.641745
677.701428,1000,3080.513855
662.32924,1000,3096.111452
609.579952,1000,3128.338357
622.119883,1000,3143.272875
649.143322,1000,3174.181686
554.488786,1000,3189.816256
693.94719,1000,3221.802966
623.069153,1000,3237.341262
669.389842,1000,3269.396155
711.129365,1000,3285.849068
714.808641,1000,3317.599371
663.401609,1000,3332.720594
623.051795,1000,3348.555157
730.61555,1000,3381.629015
622.707266,1000,3396.984337
677.117977,1000,3429.630021
526.363145,1000,3444.927375
716.802802,1000,3476.400903
664.706653,1000,3492.496707
706.334874,1000,3524.716298
687.753183,1000,3539.761068
623.306535,1000,3571.788439
428.226842,1000,3587.031923
746.037082,1000,3619.195723
573.789004,1000,3635.349136
694.887531,1000,3669.226272
703.838274,1000,3684.437681
636.054795,1000,3716.516895
681.218788,1000,3731.559024
709.177121,1000,3763.891807
722.381379,1000,3778.894012
694.969824,1000,3811.981008
562.720725,1000,3826.803318
701.521811,1000,3859.199982
677.076583,1000,3874.284441
654.559042,1000,3907.918998
716.557036,1000,3923.989528
705.6532,1000,3956.154341
674.963842,1000,3971.261346
686.276103,1000,4003.333341
680.718829,1000,4018.954959
663.485279,1000,4049.067464
690.233966,1000,4064.226701
737.540803,1000,4094.898359
731.522619,1000,4111.162221
692.29926,1000,4141.134961
743.527891,1000,4155.771523
404.797294,1000,4185.999536
560.227873,1000,4202.551788
664.68433,1000,4233.207034
720.211952,1000,4249.04755
428.234011,1000,4280.202165
762.113043,1000,4295.54928
688.861075,1000,4310.352419
738.827806,1000,4342.315701
727.595692,1000,4357.544436
782.395866,1000,4390.814655
688.353905,1000,4405.573272
769.002818,1000,4437.546548
417.59112,1000,4453.174233
719.117693,1000,4484.966971
696.977606,1000,4499.888701
419.347409,1000,4532.19917
569.010224,1000,4547.284836
672.102823,1000,4580.567917
685.986175,1000,4595.250665
657.117162,1000,4629.690363
752.777153,1000,4644.539418
734.148561,1000,4678.340731
693.907995,1000,4692.304489
675.179785,1000,4725.718358
621.488698,1000,4740.709052
689.872472,1000,4772.3407
719.424526,1000,4788.140467
643.582325,1000,4820.705835
760.114722,1000,4836.042319
707.359943,1000,4867.956616
627.154053,1000,4882.509247
701.316061,1000,4913.112493
697.858175,1000,4928.746284
715.663233,1000,4960.158563
713.564115,1000,4975.394318
718.683661,1000,5006.420173
754.352391,1000,5022.184031
684.792415,1000,5052.557901
698.62966,1000,5068.06978
714.867876,1000,5097.710363
742.095165,1000,5112.00184
680.64782,1000,5142.681556
688.093854,1000,5158.156054
680.027551,1000,5188.952519
692.765285,1000,5204.577145
713.5183,1000,5235.180969
736.17625,1000,5250.24823
665.69679,1000,5281.388245
684.593365,1000,5296.40425
459.191051,1000,5312.242258
691.748693,1000,5343.486003
624.83201,1000,5358.807819
725.045346,1000,5390.25465
666.356582,1000,5405.950943
765.943518,1000,5436.019772
693.876952,1000,5451.101832
698.509863,1000,5480.378486
611.795766,1000,5494.869709
714.702439,1000,5526.408296
765.088624,1000,5541.292859
708.171424,1000,5572.219615
712.341238,1000,5588.878876
732.186668,1000,5621.46708
717.041068,1000,5635.779508
716.642579,1000,5667.392609
681.35104,1000,5683.468806
667.483752,1000,5716.666609
667.037845,1000,5731.68893
619.581225,1000,5764.283276
732.800613,1000,5779.389539
767.363247,1000,5813.793272
695.578557,1000,5828.828904
715.72883,1000,5862.106862
675.080852,1000,5877.127463
732.858039,1000,5911.31722
658.404773,1000,5926.274096
729.052318,1000,5959.535036
719.005103,1000,5974.751169
710.352244,1000,6008.78882
724.29858,1000,6023.424389
673.467266,1000,6056.17112
767.875214,1000,6072.050221
678.556969,1000,6101.531083
695.513955,1000,6115.837466
335.375133,1000,6146.706607
686.114367,1000,6161.095984
618.683196,1000,6192.685706
730.488977,1000,6207.970482
782.083513,1000,6238.18712
749.063271,1000,6255.037461
665.398475,1000,6286.350214
750.787584,1000,6301.067206
567.116435,1000,6316.153377
636.653994,1000,6348.173904
616.275016,1000,6363.583668
726.933971,1000,6392.632823
714.033905,1000,6408.078951
698.501178,1000,6437.803177
774.292425,1000,6452.424104
709.664194,1000,6481.93792
692.585784,1000,6497.877082
754.526391,1000,6527.846125
773.223591,1000,6543.662609
703.337236,1000,6572.737744
719.804157,1000,6587.446508
584.822687,1000,6618.658368
728.480331,1000,6634.808576
670.911528,1000,6665.260252
736.864983,1000,6680.832717
670.668064,1000,6712.817835
725.059095,1000,6728.065787
479.529872,1000,6758.548062
689.735062,1000,6774.180959
685.644707,1000,6803.51906
784.198073,1000,6818.84836
737.963354,1000,6848.128911
481.523202,1000,6864.139333
556.946924,1000,6894.936756
712.181309,1000,6911.115786
716.530406,1000,6942.04956
743.814267,1000,6957.452471
789.942945,1000,6990.964868
524.451364,1000,7005.236603
399.170102,1000,7037.802602
681.788414,1000,7052.568446
638.726441,1000,7085.553928
768.207045,1000,7100.408376
786.122206,1000,7133.636002
759.136982,1000,7148.286087
748.726155,1000,7180.596366
798.966438,1000,7195.65725
754.693068,1000,7227.800192
736.229508,1000,7242.714187
723.714842,1000,7275.884393
738.254826,1000,7291.32796
498.935665,1000,7306.339553
785.841331,1000,7339.34031
473.521351,1000,7354.024912
639.076121,1000,7386.689983
718.085206,1000,7402.515212
739.564535,1000,7432.977542
522.915199,1000,7449.103199
756.894745,1000,7479.095137
710.194174,1000,7494.894825
733.823258,1000,7524.937543
633.863789,1000,7539.664802
652.774544,1000,7570.15649
649.15536,1000,7585.661368
735.406717,1000,7617.106038
639.308529,1000,7633.454803
759.851731,1000,7664.940559
684.389356,1000,7680.773859
778.766933,1000,7709.970656
784.17605,1000,7725.077905
726.407151,1000,7754.474349
600.145162,1000,7769.322512
712.671702,1000,7798.613211
738.439266,1000,7813.819259
697.380805,1000,7841.855469
701.507744,1000,7857.563401
629.655969,1000,7885.774364
622.77978,1000,7901.961495
639.337219,1000,7931.661644
776.770668,1000,7946.870488
751.779129,1000,7975.952885
616.03976,1000,7991.527923
397.687472,1000,8023.703979
705.862027,1000,8039.39951
747.172336,1000,8071.272432
731.58029,1000,8087.040627
707.556509,1000,8119.927198
736.85623,1000,8135.548763
672.732824,1000,8167.040095
724.838106,1000,8181.594353
743.070923,1000,8214.329268
578.049759,1000,8229.948355
730.051288,1000,8263.385934
687.039062,1000,8278.635971
786.213665,1000,8294.895622
737.928066,1000,8328.338426
644.335577,1000,8343.467767
622.100257,1000,8376.485378
350.386606,1000,8391.499285
635.461776,1000,8423.127296
778.794595,1000,8438.688319
647.668732,1000,8470.354489
637.537095,1000,8486.351522
627.140243,1000,8517.755775
590.997579,1000,8534.067655
756.308825,1000,8565.454531
744.790851,1000,8580.685288
680.980677,1000,8614.088973
771.490768,1000,8629.199009
821.275075,1000,8659.711679
818.365818,1000,8674.798885
738.751317,1000,8705.418566
691.830171,1000,8721.420399
312.815605,1000,8752.461264
797.356309,1000,8767.720477
722.06649,1000,8797.843156
780.501204,1000,8814.263833
748.992914,1000,8844.886184
756.869441,1000,8860.107464
734.016908,1000,8891.208118
765.016871,1000,8906.368295
733.714487,1000,8937.981991
718.364114,1000,8952.928205
691.907891,1000,8986.091521
733.296592,1000,9001.860516
751.102415,1000,9033.853012
654.28889,1000,9048.608819
766.444331,1000,9079.425358
658.908051,1000,9094.751571
686.52495,1000,9127.320905
765.35366,1000,9142.797864
754.769511,1000,9176.310341
780.004859,1000,9191.731398
748.183746,1000,9225.84862
791.494157,1000,9241.170743
789.634737,1000,9274.294688
615.338533,1000,9288.609272
768.693655,1000,9304.652871
671.507604,1000,9337.0286
795.192157,1000,9353.142508
794.18662,1000,9383.968179
608.606508,1000,9400.221678
799.236385,1000,9431.022299
874.524548,1000,9446.377417
808.212201,1000,9476.960024
927.490278,1000,9492.113365
765.1721,1000,9523.459838
820.506486,1000,9539.777505
663.587454,1000,9570.069729
843.091511,1000,9585.577122
954.705419,1000,9615.774694
552.334692,1000,9632.062658
872.098808,1000,9662.198915
771.831404,1000,9678.088729
728.228132,1000,9707.332622
892.302075,1000,9722.460111
892.381667,1000,9751.733497
843.987378,1000,9766.838712
881.00137,1000,9797.722856
788.910909,1000,9814.179045
679.239743,1000,9843.050882
788.78715,1000,9859.036056
858.278003,1000,9888.121749
686.193952,1000,9903.108003
769.175439,1000,9933.76826
927.868197,1000,9949.948882
767.695616,1000,9978.326603
767.451235,1000,9992.883831
803.734618,1000,10020.872222
777.374669,1000,10037.564533
764.948425,1000,10066.844765
757.620211,1000,10082.068956
793.710882,1000,10110.212968
749.836643,1000,10125.641373
861.766696,1000,10154.98867
842.512501,1000,10170.430805
905.083305,1000,10200.641226
454.088532,1000,10216.719543
810.718644,1000,10232.479727
739.748266,1000,10263.107669
823.706253,1000,10278.567653
832.750317,1000,10306.981738
832.541557,1000,10322.260913
828.256971,1000,10351.463424
785.232985,1000,10366.219285
840.602612,1000,10396.876742
781.31092,1000,10412.789392
821.466846,1000,10442.267674
694.693813,1000,10458.515412
816.749458,1000,10487.919405
778.073807,1000,10502.415124
741.289297,1000,10533.485564
705.571715,1000,10548.909413
877.113732,1000,10578.997067
722.616762,1000,10593.818958
768.065285,1000,10622.648619
724.51077,1000,10637.445863
822.589614,1000,10667.106423
692.793044,1000,10682.870449
816.547738,1000,10712.425796
836.313058,1000,10727.39603
751.640395,1000,10757.135332
598.056358,1000,10772.515404
990.730233,1000,10802.138326
778.098857,1000,10818.049775
968.831032,1000,10847.407429
1056.116356,1000,10863.389988
828.301991,1000,10893.330549
490.251282,1000,10908.28855
993.623137,1000,10936.993992
486.871104,1000,10952.86518
1003.8339,1000,10981.582736
644.638132,1000,10996.823427
980.476306,1000,11025.190951
898.843045,1000,11040.561943
867.111491,1000,11068.272226
782.918235,1000,11083.578493
834.894826,1000,11111.512676
1094.125437,1000,11127.248885
849.769356,1000,11156.740568
943.65413,1000,11171.526093
1045.406644,1000,11186.560093
798.101585,1000,11216.316871
892.688379,1000,11230.61129
826.222326,1000,11261.986457
989.375629,1000,11278.817654
732.290352,1000,11310.358587
912.10788,1000,11326.198569
935.916597,1000,11357.400568
900.319851,1000,11372.380025
674.076502,1000,11403.076816
578.572215,1000,11418.386536
975.079781,1000,11449.685792
1066.921489,1000,11464.444517
867.125316,1000,11495.770052
857.556664,1000,11509.951923
813.325517,1000,11542.281524
1001.623798,1000,11556.999501
1034.348809,1000,11590.823297
689.375579,1000,11605.987013
724.770952,1000,11638.524801
965.817791,1000,11653.361857
995.589063,1000,11685.675641
1028.107944,1000,11699.942655
1064.802194,1000,11732.202405
1022.236072,1000,11747.547509
793.751477,1000,11779.478299
813.749306,1000,11794.373238
873.980674,1000,11827.863101
858.594837,1000,11842.769275
851.331595,1000,11876.370225
935.915758,1000,11891.072855
778.520838,1000,11924.727021
812.713721,1000,11939.195873
855.820197,1000,11972.136091
956.382545,1000,11986.421928
941.015247,1000,12017.532841
678.766786,1000,12033.106696
806.975297,1000,12064.321853
865.412394,1000,12079.627469
941.265029,1000,12111.106245
1052.493812,1000,12125.888809
798.004336,1000,12158.044309
795.368563,1000,12173.300088
1078.536408,1000,12188.456639
1032.874221,1000,12220.95417
840.174943,1000,12237.312292
1121.380091,1000,12268.292776
1059.559876,1000,12283.765629
1109.180232,1000,12314.540966
840.50916,1000,12329.286746
1109.799058,1000,12360.926729
1156.696907,1000,12375.723653
1032.219074,1000,12406.867146
876.434955,1000,12421.825568
936.570715,1000,12452.860514
1011.299654,1000,12467.923694
901.568851,1000,12499.10435
1010.399299,1000,12514.735405
892.328854,1000,12545.172222
1004.779205,1000,12560.349047
1140.595616,1000,12591.151349
943.357288,1000,12606.048618
990.981621,1000,12636.064489
1046.221057,1000,12651.515082
1105.497087,1000,12681.674747
786.470952,1000,12697.552488
1077.269131,1000,12726.676009
1035.583539,1000,12741.781637
831.835989,1000,12772.837262
1055.692828,1000,12789.191538
1087.254516,1000,12821.086238
837.122134,1000,12835.836659
901.738456,1000,12868.542315
890.013337,1000,12883.368964
884.791701,1000,12916.657566
1058.26446,1000,12931.175364
842.615338,1000,12963.343939
1109.10362,1000,12978.9394
1106.884297,1000,13012.186375
873.470754,1000,13026.445337
724.849848,1000,13060.003696
1180.696427,1000,13075.24103
1119.981505,1000,13108.241014
1009.012254,1000,13122.609833
985.253214,1000,13155.606131
1102.13111,1000,13169.979396
1173.00934,1000,13185.538769
1057.754782,1000,13217.289964
1121.496175,1000,13232.610488
1117.854264,1000,13264.205431
1102.693653,1000,13279.261392
1055.057442,1000,13310.623058
1193.750384,1000,13326.25166
1140.279892,1000,13356.496251
1128.05974,1000,13372.100432
1135.142364,1000,13404.278868
1083.104322,1000,13418.973513
1018.207506,1000,13449.304542
1161.650321,1000,13464.88952
1007.964843,1000,13494.968994
1141.308545,1000,13509.368226
1073.262565,1000,13540.458637
1086.979052,1000,13556.083445
1130.946781,1000,13587.30649
1119.026539,1000,13603.069469
1136.679259,1000,13634.698828
1000.726066,1000,13649.831326
954.529379,1000,13680.690532
1111.01538,1000,13696.118191
1121.10556,1000,13727.532784
864.396151,1000,13742.613999
1135.1662,1000,13773.69738
1143.430868,1000,13790.010857
1179.505804,1000,13818.866803
1037.739958,1000,13834.387177
1087.037263,1000,13864.438259
1162.606088,1000,13879.699488
1124.897656,1000,13910.880129
1091.942321,1000,13926.534706
1068.712837,1000,13957.061342
1111.220751,1000,13972.98366
803.740604,1000,14004.521151
1123.894276,1000,14019.21815
1010.048004,1000,14050.602964
1120.249959,1000,14065.244167
1129.095587,1000,14096.951596
1059.542515,1000,14112.192142
1059.900476,1000,14141.076281
1097.319317,1000,14156.341719
1023.374238,1000,14171.155246
887.03879,1000,14202.527608
1143.415077,1000,14216.690392
965.132466,1000,14247.642977
1119.866396,1000,14262.511651
1085.126539,1000,14293.062376
997.894518,1000,14307.016619
1172.558556,1000,14339.505032
1086.975984,1000,14354.471891
1023.551279,1000,14387.760142
1150.98641,1000,14402.308367
941.482991,1000,14435.486106
1051.226129,1000,14450.2839
1086.19342,1000,14484.452938
1085.174011,1000,14499.350481
1027.352162,1000,14531.63318
1015.061092,1000,14546.485437
942.752373,1000,14580.878559
1128.555512,1000,14595.623877
898.619955,1000,14630.53702
1174.977821,1000,14645.940901
1013.218946,1000,14678.665941
901.864185,1000,14693.464112
1072.610531,1000,14725.878343
702.126943,1000,14741.046309
1083.271037,1000,14773.212473
921.621624,1000,14788.591264
1092.105401,1000,14818.950217
923.018053,1000,14833.827838
1007.561144,1000,14864.756249
1024.995097,1000,14879.751092
972.908253,1000,14909.269426
878.668728,1000,14924.359761
1002.860446,1000,14953.487653
1129.203277,1000,14969.115394
706.59875,1000,14999.941077
1097.313317,1000,15014.936534
1155.022389,1000,15046.683598
1010.97592,1000,15061.18514
1119.678326,1000,15090.859805
1133.395587,1000,15106.38775
669.616164,1000,15136.886171
1088.908638,1000,15151.83566
1079.637715,1000,15167.67675
1107.94858,1000,15196.667844
1098.632724,1000,15212.249707
666.001138,1000,15241.514043
1049.500699,1000,15256.878472
1072.514769,1000,15285.681613
1069.336284,1000,15301.069727
1009.336742,1000,15332.973433
1098.705809,1000,15348.005991
1071.715908,1000,15379.57267
1091.213855,1000,15394.421907
954.28927,1000,15425.014594
1146.48103,1000,15439.627959
1076.056629,1000,15473.621516
986.26587,1000,15488.926503
1184.765082,1000,15521.101314
850.081533,1000,15535.88499
1063.076903,1000,15569.276406
894.274102,1000,15583.821161
686.284491,1000,15617.039531
668.202924,1000,15632.290009
984.263072,1000,15665.005136
1073.062932,1000,15679.305245
1075.540441,1000,15711.337254
1029.612924,1000,15726.277164
1143.547028,1000,15759.098374
1075.566956,1000,15773.682316
1067.40441,1000,15806.895012
633.552765,1000,15821.956907
1045.296341,1000,15854.461897
929.304122,1000,15868.797227
978.170763,1000,15901.790236
1055.323813,1000,15917.66485
1028.331011,1000,15949.568185
1055.716622,1000,15964.681119
1034.284415,1000,15997.641195
1066.082978,1000,16012.751327
1082.757527,1000,16044.208387
892.447414,1000,16059.949042
1049.828139,1000,16092.201208
1073.267879,1000,16107.440284
1052.188439,1000,16122.720917
1038.795011,1000,16155.477647
996.134532,1000,16170.333703
1131.427092,1000,16201.45989
1067.723067,1000,16217.016544
1089.609772,1000,16246.629885
1029.03836,1000,16262.33451
731.889115,1000,16293.359972
891.442783,1000,16308.762188
1075.44238,1000,16338.528762
996.746355,1000,16353.867616
1032.669117,1000,16384.076164
1003.176894,1000,16399.008902
1070.706631,1000,16430.980698
1067.931772,1000,16445.780301
958.106117,1000,16478.289331
925.8611,1000,16492.429393
1003.990459,1000,16524.422655
1036.707616,1000,16538.995793
1051.174316,1000,16572.377642
1042.691499,1000,16586.960829
1009.74904,1000,16618.99119
1109.254022,1000,16634.091615
970.213273,1000,16667.348166
1017.307169,1000,16682.55092
1017.155946,1000,16715.347408
1012.862804,1000,16729.879447
1178.414153,1000,16762.503855
980.903606,1000,16777.901066
1002.993402,1000,16812.339885
1013.484037,1000,16826.62111
987.697681,1000,16859.442691
1077.237758,1000,16874.744331
920.929811,1000,16906.868142
1103.471051,1000,16921.888922
1065.583164,1000,16953.828878
1028.368771,1000,16968.91189
970.439805,1000,16999.414529
1080.912744,1000,17015.16681
1137.306262,1000,17043.433659
978.286411,1000,17059.610766
1152.212368,1000,17089.598044
1046.679252,1000,17105.115398
828.687115,1000,17120.464857
1029.815815,1000,17148.764415
967.512657,1000,17163.894023
1119.14687,1000,17192.321497
1014.252306,1000,17207.919281
1112.20755,1000,17237.562151
1125.278705,1000,17253.081597
1096.982775,1000,17283.838945
1051.407289,1000,17299.379252
1056.155854,1000,17329.13542
1154.43859,1000,17344.297194
785.568263,1000,17373.68353
1014.568377,1000,17388.671322
1036.464607,1000,17418.65008
1145.189744,1000,17435.076837
1146.745582,1000,17463.756275
1120.600215,1000,17479.827417
1157.521531,1000,17509.367284
1128.973652,1000,17524.774383
1134.479701,1000,17553.852537
1125.633193,1000,17568.840851
1148.626937,1000,17598.253133
1005.126306,1000,17613.270912
1020.588118,1000,17643.675126
1137.713316,1000,17658.073194
1060.659287,1000,17686.993095
965.053088,1000,17702.357054
843.706083,1000,17732.549087
1180.818658,1000,17747.433501
1143.071736,1000,17776.322028
938.88666,1000,17791.578314
1067.005599,1000,17820.890209
1134.629345,1000,17836.193105
950.489693,1000,17866.65002
867.394046,1000,17881.795851
862.60645,1000,17912.49738
1096.400342,1000,17927.361511
1024.926939,1000,17956.415324
1115.59418,1000,17971.607468
914.81716,1000,18001.498099
868.975162,1000,18017.707534
1168.5877,1000,18047.15543
1014.558485,1000,18062.453819
1103.656826,1000,18077.331032
1050.698063,1000,18105.376596
1090.593248,1000,18120.453179
1049.057255,1000,18150.92187
1022.138829,1000,18166.244642
1046.320487,1000,18194.940004
980.577356,1000,18209.581531
1091.735968,1000,18239.277062
1105.901896,1000,18253.830487
974.554912,1000,18280.914187
1099.072795,1000,18295.454721
612.85198,1000,18324.292258
814.431034,1000,18339.892876
1060.301569,1000,18367.690503
836.126108,1000,18384.144763
965.513953,1000,18411.447654
834.811163,1000,18427.731535
1142.675254,1000,18454.136658
1077.037854,1000,18470.038836
815.891958,1000,18499.488333
734.258146,1000,18514.669876
1026.390103,1000,18542.896303
993.178538,1000,18558.413574
1024.503419,1000,18585.522543
1079.575802,1000,18600.858226
1177.483808,1000,18628.995441
581.44526,1000,18644.686739
1127.40121,1000,18675.521921
1024.45984,1000,18690.423535
1081.505017,1000,18721.193901
560.654337,1000,18736.037887
1032.182868,1000,18766.974013
1098.891777,1000,18782.264868
646.406422,1000,18813.337075
1082.975983,1000,18828.499217
1150.47221,1000,18858.481543
1041.42967,1000,18875.033172
1114.058589,1000,18904.221945
1087.149182,1000,18920.282219
1033.28578,1000,18949.56924
901.60488,1000,18964.348756
630.805976,1000,18994.719481
1097.976947,1000,19009.348592
1026.201436,1000,19024.65158
1125.572329,1000,19054.261326
1084.286921,1000,19069.841149
508.68567,1000,19100.096616
1128.354256,1000,19115.444296
1150.355507,1000,19144.517488
1119.127101,1000,19159.42736
1036.114209,1000,19190.161617
1193.525055,1000,19206.015634
1047.558168,1000,19235.97485
1181.43274,1000,19251.012515
1156.995767,1000,19281.042321
1090.832667,1000,19295.765014
702.547161,1000,19325.656447
1158.922962,1000,19340.977826
1121.766714,1000,19369.980081
1120.400774,1000,19385.524798
1121.890372,1000,19414.69893
1070.554237,1000,19429.941664
1092.312096,1000,19459.957356
1090.350278,1000,19474.960323
1095.870999,1000,19505.32584
654.744401,1000,19520.520867
1126.088287,1000,19549.634157
1117.242339,1000,19564.787551
1192.997079,1000,19594.340238
1144.319965,1000,19609.826271
793.00666,1000,19639.630536
1093.502648,1000,19654.788054
867.60794,1000,19685.553082
1032.354627,1000,19700.438888
1130.922313,1000,19729.745105
936.174122,1000,19744.940624
1043.742603,1000,19776.463019
1062.479265,1000,19791.107196
1205.207596,1000,19820.513684
1121.247877,1000,19835.833261
789.374069,1000,19862.800701
1146.6332,1000,19878.605475
978.046207,1000,19906.342371
1096.241356,1000,19922.266375
590.939285,1000,19951.128359
1099.841345,1000,19967.799681
898.57377,1000,19983.450946
1125.845915,1000,20012.046204
1075.494145,1000,20027.007809
1038.720027,1000,20055.219982
1087.442436,1000,20069.982111
1025.270633,1000,20098.109271
1173.693348,1000,20113.122176
1033.508743,1000,20143.33663
906.395076,1000,20158.549831
1037.996773,1000,20188.24002
1155.204179,1000,20203.136649
939.053991,1000,20233.261164
995.951993,1000,20248.291137
937.7576,1000,20278.58027
1067.276865,1000,20293.741948
1038.41595,1000,20322.999409
484.542277,1000,20338.39185
974.127817,1000,20366.122066
783.52402,1000,20381.470333
1021.422161,1000,20410.093237
982.118857,1000,20425.101079
1172.862332,1000,20454.784684
1155.11418,1000,20470.258996
1049.440098,1000,20499.622011
700.349764,1000,20515.120962
981.218648,1000,20545.441416
784.720567,1000,20560.818573
1026.347574,1000,20592.447666
1087.810195,1000,20607.569264
1068.935085,1000,20637.347299
1135.727021,1000,20652.138261
1118.331003,1000,20681.064076
1186.931562,1000,20696.156948
1166.142277,1000,20725.559801
1049.531614,1000,20741.009129
981.075245,1000,20770.132453
1141.765305,1000,20785.694809
666.144279,1000,20813.547483
955.086553,1000,20829.313474
967.99254,1000,20857.172469
892.606235,1000,20872.859316
455.05647,1000,20900.859628
873.792909,1000,20915.987046
1019.455638,1000,20931.482115
1056.331565,1000,20960.831764
674.843722,1000,20975.795724
847.44408,1000,21006.078477
1095.504659,1000,21021.419482
570.180178,1000,21049.54591
907.044298,1000,21064.702771
1127.93896,1000,21093.420421
980.881848,1000,21109.347612
990.227046,1000,21137.935754
929.972294,1000,21153.837789
1053.164961,1000,21182.439141
1121.642256,1000,21197.621145
1188.437052,1000,21227.03819
1111.168725,1000,21241.510703
1129.692754,1000,21269.552279
1059.19461,1000,21284.142195
825.384824,1000,21311.66267
996.585682,1000,21326.398076
1016.697363,1000,21354.088137
1166.24605,1000,21368.665039
1147.487127,1000,21396.013887
1014.570685,1000,21411.055852
1072.295501,1000,21437.784573
1119.195983,1000,21452.370912
1010.573661,1000,21479.067274
1176.033383,1000,21494.18158
998.130614,1000,21520.986961
1061.459975,1000,21535.814143
922.175437,1000,21563.409578
945.906168,1000,21577.640207
994.020556,1000,21602.992095
990.39357,1000,21617.821232
810.997856,1000,21644.648221
1074.725032,1000,21659.083561
942.635337,1000,21687.745524
1085.086731,1000,21701.96086
1154.377679,1000,21730.064811
1144.420595,1000,21744.134078
1043.777133,1000,21771.636387
984.238186,1000,21786.525541
1094.481939,1000,21800.804478
954.455514,1000,21828.242304
890.428692,1000,21842.801428
936.788823,1000,21870.057544
1185.029856,1000,21884.696942
663.52629,1000,21912.612064
999.187282,1000,21926.838896
1005.841094,1000,21955.039273
1080.370373,1000,21969.132362
995.577118,1000,21997.612127
1155.383656,1000,22012.657205
982.657908,1000,22040.812165
1075.814519,1000,22055.248885
1001.333976,1000,22083.679553
1000.065181,1000,22098.244702
999.135791,1000,22127.577011
952.199837,1000,22141.23776
1050.537056,1000,22169.665627
1119.734989,1000,22183.800578
1098.872868,1000,22211.269027
1073.432461,1000,22225.722
1071.068623,1000,22253.334735
1009.604614,1000,22267.3201
1140.81626,1000,22296.078144
1140.016154,1000,22310.372195
761.825412,1000,22338.929483
1004.990817,1000,22352.930508
1044.514075,1000,22380.20833
1010.706648,1000,22395.623179
976.047708,1000,22423.199086
1029.663307,1000,22437.123298
1103.903423,1000,22464.274109
1071.730471,1000,22478.639462
1061.815122,1000,22505.402939
1139.180808,1000,22519.873914
983.219307,1000,22544.698771
1106.282622,1000,22559.826189
933.445433,1000,22586.328665
1082.666146,1000,22601.382644
1036.596257,1000,22626.761611
1124.754974,1000,22642.099157
1088.984417,1000,22669.818523
1182.770331,1000,22685.054209
1131.047214,1000,22699.954072
1144.957457,1000,22728.190484
1071.217792,1000,22742.791397
858.704087,1000,22771.017175
1144.615489,1000,22785.337196
1093.97294,1000,22813.646866
1116.294588,1000,22827.956415
1166.029782,1000,22855.441712
952.378276,1000,22869.854934
999.496542,1000,22897.336751
945.397153,1000,22911.707045
1093.786924,1000,22938.541613
1049.410204,1000,22953.196229
1103.73461,1000,22980.58728
438.263219,1000,22995.207846
1051.63056,1000,23023.069869
773.332118,1000,23037.884693
1117.675199,1000,23066.172802
1067.595873,1000,23080.862236
1120.695743,1000,23109.908444
1082.561046,1000,23125.038789
1113.996249,1000,23155.584282
945.937155,1000,23170.114748
1017.505603,1000,23200.095035
1093.012847,1000,23214.090089
1021.620331,1000,23244.409152
1120.731556,1000,23258.59736
1134.339007,1000,23288.899381
764.589056,1000,23303.893043
1147.115556,1000,23335.245897
1054.368689,1000,23350.033194
1238.840157,1000,23381.437763
1003.137834,1000,23395.952592
1184.783698,1000,23426.693451
1151.672932,1000,23440.827127
1022.559342,1000,23471.40747
1071.437112,1000,23484.801309
579.94145,1000,23515.537936
1094.517423,1000,23529.426706
1120.308952,1000,23558.131075
826.499136,1000,23571.843729
1041.587974,1000,23600.32356
1080.111914,1000,23614.354361
1001.287458,1000,23629.626931
1089.134153,1000,23658.952844
1145.850068,1000,23674.054181
949.71884,1000,23704.003674
837.970388,1000,23718.35482
1020.131667,1000,23747.385428
1104.755939,1000,23761.898191
1088.434938,1000,23790.443098
902.917591,1000,23804.842347
1046.257523,1000,23831.985884
1065.328081,1000,23846.563927
1057.510772,1000,23875.604712
1149.482396,1000,23890.493651
1134.496304,1000,23917.541754
1049.545517,1000,23931.374871
887.293512,1000,23959.75705
935.356021,1000,23974.808094
1149.206444,1000,24002.826305
828.69528,1000,24016.928391
1133.947995,1000,24046.91508
1089.479224,1000,24061.235732
1193.095472,1000,24091.01697
628.462387,1000,24104.999122
1190.092377,1000,24135.119395
1073.402975,1000,24150.478107
963.394443,1000,24180.430779
1140.193737,1000,24194.115706
1012.299525,1000,24225.084552
1061.857744,1000,24239.221612
1173.300821,1000,24269.612888
1117.855348,1000,24283.47891
917.38365,1000,24314.261959
1150.892328,1000,24328.490321
893.517018,1000,24358.24592
1021.690541,1000,24372.262501
1060.122394,1000,24400.571983
1194.617938,1000,24414.268663
1136.517675,1000,24441.960706
1145.419192,1000,24455.775306
1181.466322,1000,24482.248055
1113.404408,1000,24495.868002
1043.876297,1000,24520.958876
1074.986843,1000,24534.230621
1052.754998,1000,24548.121283
1004.003369,1000,24574.23386
938.692568,1000,24587.659398
776.125832,1000,24611.911748
433.518253,1000,24625.701275
1016.453527,1000,24650.04647
1141.914237,1000,24662.241464
1100.151409,1000,24686.518843
999.939155,1000,24700.345431
527.062082,1000,24724.976876
1041.809289,1000,24738.706633
1104.512474,1000,24764.303172
967.977348,1000,24777.86363
1076.144565,1000,24803.112842
1060.29444,1000,24816.508179
918.763679,1000,24841.323937
1053.423225,1000,24854.451525
1086.537111,1000,24880.367629
1159.654979,1000,24893.080457
1118.501657,1000,24918.283661
1136.369146,1000,24931.306947
1188.16636,1000,24957.570556
980.018623,1000,24970.823785
600.548271,1000,24996.141048
998.783741,1000,25008.785246
636.197822,1000,25033.717031
1074.321958,1000,25047.169765
1077.746227,1000,25072.648013
652.228902,1000,25085.660424
1152.05081,1000,25109.797044
945.537837,1000,25122.322949
1000.890255,1000,25147.623087
481.559704,1000,25160.665253
1082.504028,1000,25185.382566
1068.238878,1000,25197.873598
909.814036,1000,25221.940826
1098.642239,1000,25234.638371
1125.468681,1000,25259.683979
1207.430222,1000,25272.198187
807.084694,1000,25297.085335
952.72786,1000,25309.434096
1227.956707,1000,25335.262517
1203.130456,1000,25347.8685
1098.803548,1000,25359.762252
1045.747925,1000,25384.59901
1010.822109,1000,25397.966768
1112.133375,1000,25422.805252
890.318944,1000,25435.719233
1172.014991,1000,25460.230088
1107.263782,1000,25473.119276
1088.990872,1000,25498.103765
1224.365111,1000,25511.132225
928.118218,1000,25535.8252
974.717715,1000,25548.814463
927.317493,1000,25573.716557
1030.868764,1000,25585.754003
1047.911886,1000,25610.357388
1109.235812,1000,25622.933384
647.414018,1000,25647.966554
806.846899,1000,25660.433221
1064.058442,1000,25685.596538
1110.400501,1000,25697.952322
1078.594243,1000,25723.466579
849.412357,1000,25735.745666
1159.99302,1000,25761.724208
989.441114,1000,25774.620141
1119.351536,1000,25799.964227
1091.990222,1000,25812.133839
859.041562,1000,25836.804967
1054.448758,1000,25849.233351
1067.535953,1000,25873.563233
495.131852,1000,25886.077139
1084.587605,1000,25909.760689
1123.021558,1000,25922.237379
1057.758633,1000,25945.538037
1067.489205,1000,25958.944198
1058.309495,1000,25981.87569
1103.571288,1000,25993.393662
1075.219354,1000,26014.046411
1101.41079,1000,26025.919217
903.062989,1000,26046.515118
1002.492954,1000,26058.393622
1046.163147,1000,26079.842837
1079.18416,1000,26091.459023
1077.631902,1000,26112.646739
740.283523,1000,26123.336548
910.015689,1000,26133.862344
1167.76131,1000,26151.537657
1073.410895,1000,26161.887737
620.236049,1000,26180.207955
1128.022105,1000,26190.582963
1228.305915,1000,26209.017692
935.673885,1000,26219.126228
1152.013651,1000,26237.282412
683.394975,1000,26247.793048
1064.471238,1000,26266.799633
1091.836883,1000,26276.214381
1166.275064,1000,26292.425148
1141.103813,1000,26301.626133
1198.175142,1000,26319.217747
1107.604288,1000,26329.104634
759.629202,1000,26346.610689
1139.402691,1000,26356.645006
504.071436,1000,26374.277676
1198.620973,1000,26383.182595
1109.249669,1000,26398.111763
1183.543349,1000,26407.012048
633.335555,1000,26421.293325
1183.513284,1000,26428.731388
932.891952,1000,26443.411977
1169.808663,1000,26452.218001
1193.139328,1000,26467.180421
1184.800836,1000,26476.035615
454.927625,1000,26491.303318
1207.362967,1000,26500.337844
703.726785,1000,26515.440986
1092.91591,1000,26524.728436
1217.557093,1000,26539.089445
873.347154,1000,26548.022527
1112.564751,1000,26562.664125
1216.208728,1000,26571.689245
1111.433025,1000,26586.847242
1143.801016,1000,26595.883536
1056.880053,1000,26610.428561
740.950475,1000,26619.127827
996.087604,1000,26632.698895
1017.939075,1000,26639.922505
1174.563396,1000,26647.965813
1054.420212,1000,26660.957287
1103.482501,1000,26668.465903
1121.477155,1000,26681.708572
950.094354,1000,26690.607554
1215.103571,1000,26705.47585
1184.16073,1000,26714.623263
1120.89282,1000,26729.717866
1079.017032,1000,26738.400694
1009.861682,1000,26752.934528
1227.613269,1000,26762.052243
1144.001589,1000,26776.924084
1109.794508,1000,26786.171792
849.103683,1000,26801.060574
490.720511,1000,26810.023879
1182.920892,1000,26824.792116
969.129988,1000,26833.796546
1173.754909,1000,26847.469383
1063.421408,1000,26855.972235
1158.16117,1000,26869.953065
1067.505752,1000,26878.451849
1166.349534,1000,26891.677253
1133.474399,1000,26898.748945
1087.197717,1000,26911.506761
1051.528276,1000,26918.822124
1077.507985,1000,26931.551387
1058.251459,1000,26938.590557
1012.209568,1000,26951.33844
1100.548899,1000,26958.52269
1139.504696,1000,26970.997388
1048.729287,1000,26978.191011
1021.672331,1000,26990.878765
1005.602914,1000,26998.273021
1130.626733,1000,27010.898555
1049.934508,1000,27018.278535
1172.094482,1000,27030.924812
1042.304688,1000,27038.040083
1105.136316,1000,27050.982657
1047.989231,1000,27058.159103
1170.671088,1000,27071.012525
1100.66091,1000,27078.134805
