# {"t_start": 1548091942.3312926, "env_id": "RoboschoolHumanoid-v1"} 
r,l,t
-70.641478,15,1.437561
-96.446149,18,1.57738
-81.139849,18,1.741078
-90.715174,18,1.886476
-87.827775,19,2.043175
-96.662874,19,2.190173
-121.856016,19,2.336752
-103.522748,21,2.507918
-98.824183,20,2.672466
-96.395809,18,2.834166
-81.633845,20,3.010729
-88.169853,20,3.177891
-101.36943,18,3.32791
-96.282904,30,3.582792
-96.479029,22,3.781729
-81.878154,18,3.940268
-101.116884,21,4.153669
-87.492398,20,4.322294
-116.166688,20,4.488307
-134.355325,22,4.66436
-70.235937,19,4.828192
-105.952275,19,4.996622
-95.024239,19,5.15659
-117.567855,23,5.355537
-96.274844,19,5.518477
-82.680461,16,5.638767
-72.058804,19,1097.159602
-94.823115,18,1097.352422
-82.344788,19,1097.563466
-93.731205,19,1097.779177
-111.506859,20,1097.98996
-112.438735,19,1098.19637
-82.663057,22,1098.42872
-102.659094,21,1098.648322
-55.722355,20,1098.872175
-98.496792,18,1099.059942
-84.272364,19,1099.236791
-72.116472,19,1099.421719
-82.642261,19,1099.606948
-92.546123,19,1099.801414
-102.718633,18,1099.99788
-94.859361,18,1100.181972
-97.774213,19,1100.36593
-100.571926,18,1100.554247
-81.102128,19,1100.744893
-92.939165,20,1100.945822
-104.605627,21,1101.165749
-88.403549,20,1101.342788
-93.10521,19,1101.526492
-89.18464,21,1101.719106
-85.693531,18,1101.890845
-91.633935,20,1102.074657
-66.358929,20,2203.346943
-92.404149,20,2203.547648
-104.542516,21,2203.774565
-65.43632,17,2203.966405
-101.32327,18,2204.170706
-91.15986,16,2204.321915
-84.342502,21,2204.563905
-92.071437,19,2204.790529
-106.183114,18,2204.996364
-95.446957,20,2205.255569
-106.671663,17,2205.450055
-93.791738,16,2205.619858
-71.384252,19,2205.826033
-84.603956,18,2206.033746
-88.224152,19,2206.262604
-139.242296,21,2206.50626
-53.645928,17,2206.715065
-100.206835,21,2206.949378
-98.104935,23,2207.224574
-92.058755,18,2207.449743
-68.204482,19,2207.67011
-94.850476,27,2207.969529
-104.323672,20,2208.191436
-102.509474,21,2208.458035
-102.838998,21,2208.731621
-76.277679,19,2208.947675
-94.070011,23,3307.73279
-80.107418,18,3307.90417
-102.604257,19,3308.084086
-90.367615,19,3308.266428
-127.796151,23,3308.490564
-114.538166,21,3308.69617
-78.79962,19,3308.901149
-88.947365,18,3309.077583
-100.777742,19,3309.269049
-91.273038,18,3309.441761
-89.980668,18,3309.632488
-90.715589,19,3309.819673
-68.308178,18,3310.021718
-98.528556,18,3310.205458
-113.06938,19,3310.401001
-76.863059,17,3310.577214
-79.490098,19,3310.779255
-80.070028,18,3310.971022
-107.213324,18,3311.164049
-88.376786,17,3311.358196
-83.977044,18,3311.538274
-82.532188,19,3311.73397
-85.738324,19,3311.944216
-81.149695,19,3312.141507
-88.540289,19,3312.352489
-98.393149,19,3312.553844
-114.441542,21,3312.78515
-91.328257,19,4412.682009
-81.380128,19,4412.844829
-99.557156,18,4413.000099
-111.825799,19,4413.164363
-91.59245,22,4413.358767
-86.322986,19,4413.533972
-98.560823,18,4413.705786
-106.267823,18,4413.859703
-97.144947,19,4414.027898
-68.806393,19,4414.195703
-93.255528,18,4414.348455
-77.020712,19,4414.510543
-69.200909,19,4414.679641
-73.350634,18,4414.846888
-91.004777,19,4415.016131
-73.181868,20,4415.190898
-73.566495,19,4415.358081
-99.825513,19,4415.533217
-102.558497,22,4415.727101
-88.423243,18,4415.895282
-86.722871,19,4416.086565
-97.030974,19,4416.271348
-67.027385,19,4416.455403
-74.22389,20,4416.651708
-111.466213,20,4416.842387
-96.821646,19,4417.040824
-82.270373,17,4417.21253
-102.910746,19,5515.921601
-103.810762,20,5516.10292
-116.003484,20,5516.280397
-85.333538,18,5516.455042
-97.762701,20,5516.66728
-84.673378,18,5516.855736
-92.15835,19,5517.07395
-77.881668,20,5517.292328
-92.691475,17,5517.477636
-86.637528,18,5517.661072
-93.027608,20,5517.866533
-87.369979,20,5518.078237
-84.023509,19,5518.314234
-78.57155,18,5518.53467
-101.497288,19,5518.76357
-83.527596,20,5519.021312
-104.83766,18,5519.232805
-71.019382,18,5519.451562
-75.9718,19,5519.684352
-84.485055,17,5519.886644
-100.601278,20,5520.116041
-97.126082,18,5520.345076
-133.569752,18,5520.578191
-85.683174,19,5520.805238
-94.923879,19,5521.017953
-110.563524,21,5521.272481
-79.059006,19,5521.500298
-71.850546,19,6620.951979
-79.781103,19,6621.16767
-80.319,20,6621.378132
-119.106311,25,6621.658512
-111.479602,20,6621.900598
-74.059664,19,6622.090546
-106.825786,23,6622.298513
-93.607138,18,6622.452418
-132.370936,23,6622.650986
-87.750368,19,6622.826476
-86.981351,20,6623.019329
-75.177764,18,6623.184927
-76.885025,17,6623.327789
-98.159575,19,6623.487931
-109.293831,20,6623.668177
-77.462413,17,6623.816183
-66.118598,20,6623.998731
-86.812604,18,6624.170336
-88.793511,20,6624.360134
-94.551142,19,6624.532118
-76.178885,17,6624.677861
-88.272267,19,6624.841642
-81.497081,18,6625.003039
-66.089556,17,6625.152964
-69.157727,18,6625.342417
-79.898869,19,6625.526352
-80.907485,18,6625.690537
-88.32886,19,7724.714917
-78.971295,23,7724.946867
-93.467238,21,7725.170621
-104.669362,20,7725.369295
-63.233175,18,7725.540218
-72.36655,18,7725.714759
-105.105777,17,7725.89872
-79.15934,19,7726.086161
-125.928206,27,7726.346254
-82.745011,18,7726.520734
-103.962733,20,7726.726721
-82.319702,19,7726.923887
-90.762066,20,7727.129433
-68.651811,19,7727.308639
-63.618254,18,7727.485226
-89.110064,18,7727.659114
-64.209198,19,7727.842255
-80.776533,19,7728.02297
-108.844421,19,7728.236588
-88.636001,19,7728.418046
-55.374708,19,7728.600828
-75.055655,19,7728.793077
-79.376417,20,7728.982279
-72.032728,19,7729.171429
-103.632952,32,7729.494265
-133.040039,21,7729.700352
-75.090999,17,8829.31267
-91.920266,18,8829.478995
-69.369277,17,8829.644157
-71.66744,20,8829.830103
-80.173662,19,8830.017585
-121.071688,20,8830.228132
-54.406771,19,8830.41287
-76.270597,19,8830.587909
-94.80836,20,8830.786068
-99.620266,30,8831.092135
-87.77128,25,8831.353132
-76.880505,20,8831.553866
-90.888994,26,8831.797485
-73.794622,19,8831.985071
-76.797704,19,8832.169891
-77.088375,19,8832.34828
-69.404738,19,8832.546451
-96.771837,18,8832.72842
-69.239131,19,8832.912738
-70.568555,18,8833.084089
-58.267641,15,8833.228824
-70.415829,19,8833.409791
-64.572114,20,8833.618487
-76.497511,19,8833.819622
-90.733445,25,8834.059661
-67.701742,19,10022.177003
-63.628407,22,10022.403359
-59.118382,20,10022.6488
-69.309903,18,10022.869523
-92.999025,20,10023.101322
-90.38655,26,10023.394192
-71.638843,19,10023.617264
-71.982921,18,10023.820756
-76.728381,18,10024.025188
-76.564094,19,10024.255146
-79.802194,18,10024.466563
-99.301077,27,10024.782851
-65.12079,19,10024.986159
-77.143221,18,10025.209744
-70.960663,19,10025.439571
-59.102578,19,10025.654216
-74.387081,19,10025.85187
-63.362709,20,10026.065276
-78.115891,25,10026.354838
-68.678352,19,10026.600858
-61.235992,16,10026.770446
-96.195943,20,10026.990046
-96.289613,25,10027.260034
-79.642769,19,10027.471607
-84.894176,19,10027.696473
-73.958661,20,10027.921406
-66.171497,19,11162.952608
-104.366093,20,11163.224682
-69.054452,18,11163.463378
-70.128438,20,11163.752384
-61.466955,18,11163.984774
-92.609563,23,11164.286182
-88.655799,16,11164.491333
-63.858,17,11164.701551
-83.876227,20,11164.990167
-64.33102,18,11165.226743
-75.800575,20,11165.513426
-56.357737,19,11165.757994
-85.464801,18,11165.994536
-69.500913,20,11166.252294
-66.961989,18,11166.498158
-95.994373,18,11166.740248
-75.503685,18,11166.987044
-89.996417,24,11167.319062
-60.405565,18,11167.56817
-64.761863,18,11167.791273
-93.342169,18,11168.028115
-73.828157,19,11168.281102
-72.533332,17,11168.50112
-73.787639,19,11168.741608
-68.128304,18,11168.984626
-116.232228,22,11169.259873
-83.188908,17,11169.500644
-74.877571,19,12350.601612
-64.427623,23,12350.814612
-56.953272,19,12350.989676
-86.183602,19,12351.161597
-81.825558,19,12351.330224
-104.946956,29,12351.629068
-100.37455,31,12351.96095
-80.046311,19,12352.143752
-74.117625,15,12352.292405
-74.187798,19,12352.487775
-69.621533,18,12352.673738
-82.920411,19,12352.880015
-68.242806,18,12353.083493
-89.965559,19,12353.273889
-71.197842,18,12353.463692
-76.400044,18,12353.646047
-81.606925,19,12353.83754
-83.304172,25,12354.123564
-70.509135,25,12354.412343
-65.021574,21,12354.635962
-65.085029,26,12354.908578
-60.121647,19,12355.12654
-60.069337,20,12355.361176
-50.543836,19,12355.575873
-70.335325,19,12355.791205
-82.913038,23,13444.181468
-76.918862,18,13444.335072
-104.820174,23,13444.517422
-67.151433,19,13444.672941
-66.442753,19,13444.823493
-64.530968,20,13444.985801
-67.3153,22,13445.158946
-69.988991,20,13445.312096
-63.651898,20,13445.473746
-59.432024,18,13445.612455
-64.730315,18,13445.749654
-80.999741,20,13445.908952
-67.111486,19,13446.056706
-54.405157,19,13446.199429
-69.077448,19,13446.346552
-63.000642,18,13446.491589
-87.957219,19,13446.645574
-60.179266,18,13446.794291
-48.970214,17,13446.932452
-68.575755,20,13447.084527
-54.303544,19,13447.233516
-73.143801,20,13447.397438
-54.923559,18,13447.540303
-73.13514,18,13447.682903
-70.638562,19,13447.835507
-68.856368,19,13447.982751
-55.32877,20,14363.363152
-69.11348,18,14363.488178
-59.212152,19,14363.615884
-85.255222,18,14363.748553
-69.889074,20,14363.899527
-66.838778,18,14364.027815
-55.121696,19,14364.170757
-76.055556,19,14364.318505
-48.888047,18,14364.449823
-71.463098,19,14364.585052
-72.791027,19,14364.72046
-79.655335,19,14364.8561
-64.953141,20,14364.992403
-66.024039,19,14365.134503
-58.470281,18,14365.26689
-68.897714,21,14365.427725
-72.761911,19,14365.573789
-61.943453,18,14365.705942
-66.600502,20,14365.846834
-64.748826,19,14365.982167
-62.442847,19,14366.11623
-66.870192,19,14366.247838
-61.770325,19,14366.388913
-66.800254,18,14366.529341
-63.91508,18,14366.657416
-78.791406,18,14366.792539
-65.508455,21,14366.939482
-46.870413,18,15373.78999
-67.89593,23,15373.98102
-62.583306,18,15374.130423
-66.718449,21,15374.306551
-58.643935,18,15374.448755
-62.709758,18,15374.594925
-70.015792,18,15374.751131
-60.540744,18,15374.907696
-60.198679,19,15375.067854
-80.888892,21,15375.235193
-67.333204,19,15375.390962
-61.103365,19,15375.550167
-60.62366,18,15375.703822
-41.880362,19,15375.882873
-62.632901,18,15376.033306
-65.820691,19,15376.189332
-62.608857,19,15376.347902
-87.917701,23,15376.538801
-70.285222,23,15376.731852
-57.661441,19,15376.902403
-59.571312,19,15377.064917
-57.723635,18,15377.226529
-65.863189,22,15377.406523
-53.148121,19,15377.567407
-81.31741,26,15377.786554
-66.191607,20,15377.957199
-54.234413,18,16315.442153
-81.49946,19,16315.582763
-65.000105,18,16315.703621
-50.378405,19,16315.854154
-70.252154,18,16315.993795
-62.623366,20,16316.141482
-65.818121,18,16316.265138
-65.217119,20,16316.407253
-70.010528,19,16316.545123
-63.544151,21,16316.702894
-67.574235,21,16316.849148
-49.636763,18,16316.981436
-65.108492,19,16317.111608
-52.043875,18,16317.23822
-78.729782,20,16317.374376
-80.343786,19,16317.50064
-78.426483,18,16317.638322
-71.921949,20,16317.780975
-70.94155,18,16317.911313
-57.981083,20,16318.050885
-68.7529,18,16318.183465
-88.34422,20,16318.328138
-57.489691,19,16318.468444
-58.94654,19,16318.602033
-56.181319,19,16318.735465
-65.056934,19,16318.871646
-67.506759,19,16319.003368
-53.850748,17,18521.871171
-58.882551,19,18522.220808
-73.82839,18,18522.500203
-66.482256,17,18522.777588
-54.124365,19,18523.01353
-58.877358,19,18523.147491
-67.478408,18,18523.277171
-51.495502,18,18523.413342
-55.691285,19,18523.552784
-48.631388,18,18523.692548
-46.427136,20,18523.862489
-62.11641,19,18524.008671
-71.52606,18,18524.170287
-73.854416,22,18524.531275
-68.772141,19,18524.748681
-61.569136,19,18525.053611
-63.553171,18,18525.314417
-71.236957,19,18525.541497
-72.465402,19,18525.886899
-53.227472,19,18526.101156
-67.586286,19,18526.378416
-55.621348,18,18526.664241
-53.557265,18,18526.869749
-71.287285,21,18527.211564
-66.094561,18,18527.370741
-75.324981,20,18527.682235
-70.595664,20,18527.984181
-57.369513,20,20730.004758
-59.470071,19,20730.298249
-50.497884,19,20730.528773
-68.965969,18,20730.83112
-63.633247,19,20731.016798
-46.153426,18,20731.308365
-55.862534,17,20731.511538
-58.946634,18,20731.769019
-62.40029,18,20732.05597
-50.131809,19,20732.274319
-56.439176,20,20732.600896
-68.968096,19,20732.833898
-60.143544,19,20733.102558
-60.348015,21,20733.455597
-59.263291,20,20733.677109
-60.444435,21,20733.991691
-67.17707,19,20734.326852
-50.911637,17,20734.485332
-59.205214,19,20734.823618
-54.950865,19,20735.169776
-43.977708,18,20735.484735
-53.679675,18,20735.735297
-77.438155,19,20736.028195
-70.781485,17,20736.310683
-78.745908,20,20736.662735
-54.167357,19,20737.005186
-59.252281,22,20737.365899
-53.246288,19,22929.397689
-52.840916,18,22929.73833
-63.090185,19,22929.903831
-52.884911,19,22930.201032
-77.048713,27,22930.584357
-65.875498,20,22930.794496
-59.223583,20,22931.098763
-40.45833,18,22931.367505
-43.037462,19,22931.589841
-70.526164,20,22931.930176
-57.190552,19,22932.125082
-71.383373,18,22932.424307
-52.106081,19,22932.672163
-54.571641,18,22932.910558
-54.568319,20,22933.258563
-57.195433,18,22933.42604
-55.861145,19,22933.731291
-50.537182,20,22933.981274
-70.860095,18,22934.229207
-78.033667,18,22934.498788
-47.204121,19,22934.703703
-51.194324,17,22934.983568
-71.001477,19,22935.300736
-56.820415,19,22935.640681
-59.23679,17,22935.866687
-63.979188,21,22936.239856
-44.16184,19,22936.57692
-70.265428,24,25108.107539
-64.039933,18,25108.412078
-62.940447,18,25108.652431
-46.939884,19,25108.895463
-59.085906,19,25109.167865
-34.414078,18,25109.382312
-58.195882,18,25109.711088
-56.255756,19,25109.923087
-55.886707,19,25110.263249
-51.198391,19,25110.585118
-56.993792,19,25110.906633
-47.389189,19,25111.241732
-61.262832,14,25111.440556
-48.487923,19,25111.744534
-59.006758,21,25112.081305
-39.524654,19,25112.424776
-45.911344,22,25112.789152
-59.329444,20,25113.134025
-65.146215,19,25113.463224
-47.260266,18,25113.785698
-64.452356,19,25113.939337
-53.721824,19,25114.069621
-57.988223,19,25114.205405
-61.234109,18,25114.346385
-52.121638,17,25114.480975
-54.722853,19,25114.62693
-46.032582,23,25114.804321
-63.634054,18,27287.811742
-63.449839,18,27288.127363
-53.654024,19,27288.319729
-65.448376,16,27288.596411
-47.295218,18,27288.766973
-52.010414,19,27289.094986
-50.595737,18,27289.411847
-68.4446,18,27289.734255
-69.440192,19,27289.997139
-42.841529,22,27290.38147
-57.838707,20,27290.718514
-50.599451,19,27291.056578
-50.137479,18,27291.356569
-54.485691,18,27291.641744
-56.434974,18,27291.952875
-45.656974,18,27292.219635
-65.767044,19,27292.5295
-61.473898,20,27292.765268
-59.374673,19,27292.899868
-55.221453,19,27293.0349
-52.590068,19,27293.163548
-67.245864,19,27293.302089
-59.420646,19,27293.454365
-70.105172,19,27293.603024
-50.70978,18,27293.75615
-58.306366,19,27293.89717
-47.956641,19,27294.056045
-62.157192,12,27294.222066
-62.751746,18,29457.556013
-49.121217,18,29457.744885
-60.391,19,29458.024522
-84.846303,28,29458.442495
-59.481609,19,29458.637917
-56.486208,22,29458.949849
-64.357336,19,29459.247313
-46.555748,19,29459.462492
-64.887752,20,29459.779953
-51.155245,18,29460.042349
-44.703367,20,29460.282357
-55.490612,20,29460.613689
-50.002631,19,29460.777889
-65.979532,19,29461.097511
-50.269205,19,29461.326262
-51.146753,20,29461.577161
-58.83805,19,29461.866873
-61.970328,20,29462.190288
-46.56898,18,29462.490488
-54.66644,19,29462.767384
-55.505407,19,29463.106184
-76.98009,18,29463.413166
-46.419888,19,29463.717071
-54.386072,20,29464.05955
-55.708949,19,29464.377411
-54.486814,19,29464.631005
-52.939529,18,31621.6764
-66.806887,20,31621.821746
-53.080988,19,31621.97409
-41.365942,18,31622.126093
-58.414896,22,31622.299679
-49.041124,19,31622.449509
-53.080979,18,31622.689768
-56.197429,19,31622.957767
-47.760646,19,31623.222574
-47.548351,22,31623.519984
-57.916406,21,31623.846465
-52.421357,18,31624.032134
-53.575238,20,31624.320542
-61.806958,28,31624.727113
-45.466441,19,31624.94052
-72.641004,18,31625.197868
-47.167179,20,31625.453829
-46.611506,18,31625.677704
-55.061902,20,31626.000092
-56.750183,19,31626.20982
-63.689479,20,31626.521848
-47.220504,19,31626.752019
-45.64169,19,31627.009267
-64.351292,18,31627.341592
-34.566977,20,31627.504606
-42.957059,21,31627.830842
-51.339567,19,33773.289201
-51.141412,18,33773.61523
-52.057986,20,33773.764289
-37.495698,19,33773.895304
-47.448027,19,33774.03133
-55.370904,20,33774.17111
-42.49499,19,33774.305528
-46.590702,19,33774.444871
-51.875378,19,33774.570422
-37.239884,18,33774.69709
-55.635618,18,33774.819312
-46.011689,20,33774.954521
-49.54786,19,33775.083792
-57.942229,19,33775.2203
-45.062343,19,33775.372706
-47.39084,18,33775.504898
-49.196279,18,33775.634431
-54.338402,19,33775.786131
-54.465544,18,33775.914724
-49.960907,18,33776.14962
-60.427016,23,33776.432804
-61.211542,20,33776.682575
-57.685948,19,33776.944864
-39.721621,19,33777.253537
-53.422552,20,33777.458355
-55.317646,19,33777.77516
-45.088939,18,33778.023656
-62.39393,20,35912.56013
-57.472026,20,35912.704234
-46.018448,19,35912.846258
-44.134328,18,35912.980933
-50.697791,20,35913.130734
-47.062039,21,35913.308934
-57.04946,19,35913.463865
-47.571304,19,35913.615509
-49.399324,18,35913.751376
-41.271964,20,35914.006084
-34.76724,20,35914.281549
-48.465627,19,35914.498096
-48.90282,20,35914.782711
-37.943663,19,35915.053819
-64.949149,20,35915.265388
-50.416141,19,35915.602906
-45.382897,20,35915.801507
-49.103896,20,35916.097588
-62.46497,19,35916.458597
-62.299689,19,35916.616282
-60.097718,21,35916.965408
-59.205752,20,35917.187463
-54.194246,19,35917.462137
-49.964235,19,35917.781918
-39.415538,19,35917.980916
-57.733449,19,35918.304347
-69.496027,26,38059.472709
-60.031415,19,38059.689341
-48.378767,19,38060.010821
-64.897857,19,38060.223371
-47.220524,20,38060.495793
-38.112357,19,38060.798525
-53.0754,20,38061.022534
-57.707285,19,38061.322613
-45.799321,20,38061.536557
-48.492679,18,38061.807388
-45.268025,20,38062.121413
-50.694553,19,38062.341255
-63.281259,20,38062.683707
-49.007813,19,38063.014669
-52.03483,19,38063.350193
-44.235765,27,38063.756233
-48.271432,21,38064.133536
-42.251502,19,38064.443937
-50.576582,22,38064.836656
-48.557345,18,38065.146184
-50.511337,20,38065.395464
-47.55158,18,38065.718526
-72.063819,19,38066.055058
-51.473122,19,38066.375874
-39.837708,20,38066.517064
-52.611019,22,38066.66686
-48.585302,19,40208.241518
-52.135972,19,40208.554784
-56.503938,18,40208.710135
-52.583536,22,40209.066091
-52.96504,20,40209.26414
-58.480074,20,40209.558577
-40.281435,19,40209.851201
-47.827639,19,40210.069961
-56.852216,19,40210.394914
-44.349845,19,40210.643942
-34.596639,20,40210.878616
-40.972513,21,40211.166506
-50.239115,19,40211.392376
-46.565533,19,40211.710163
-51.554827,21,40211.960863
-41.555245,19,40212.243401
-55.643784,20,40212.584943
-46.44448,19,40212.888266
-38.85527,18,40213.150169
-49.4907,19,40213.41771
-47.246456,20,40213.73869
-41.313041,20,40214.087784
-50.410284,18,40214.411502
-45.029211,19,40214.736104
-45.743679,19,40215.03068
-47.157983,20,40215.368464
-46.143415,20,42352.37724
-50.859143,23,42352.717954
-41.527847,19,42353.01263
-43.930926,20,42353.22749
-52.634802,20,42353.555491
-58.72615,21,42353.764603
-46.095901,19,42354.046875
-53.652888,19,42354.300616
-66.307953,18,42354.527357
-48.993486,19,42354.868821
-55.868463,20,42355.212185
-45.821096,20,42355.552803
-67.097189,19,42355.800447
-38.232009,22,42356.204045
-43.860856,19,42356.526574
-42.948183,18,42356.829057
-45.013103,19,42357.160316
-46.503719,19,42357.474135
-38.30237,20,42357.750248
-51.064972,20,42358.089544
-48.751841,19,42358.386675
-53.841916,20,42358.656429
-42.574108,20,42358.79462
-55.089243,19,42358.92457
-38.394366,21,42359.07989
-42.611664,19,42359.229949
-45.304289,19,44486.23091
-48.249924,19,44486.557207
-36.979243,20,44486.746768
-45.868172,20,44487.044415
-42.964169,19,44487.337482
-51.789572,23,44487.589995
-77.63589,26,44487.986635
-45.512278,19,44488.302866
-52.137836,24,44488.550626
-44.209095,19,44488.82349
-49.590059,20,44489.130607
-45.106223,19,44489.349669
-44.644661,20,44489.692598
-47.961497,19,44490.014598
-51.753574,19,44490.346233
-42.427447,18,44490.550482
-46.953211,19,44490.871573
-29.073274,19,44491.198672
-44.893423,20,44491.552853
-51.235143,19,44491.878745
-48.772624,20,44492.221774
-52.363548,19,44492.483383
-42.113488,19,44492.784777
-58.332532,20,44493.104181
-39.605795,19,44493.402872
-41.994701,18,44493.527594
-53.780203,19,46613.225426
-59.985955,20,46613.541018
-51.103757,20,46613.886245
-46.895816,22,46614.156262
-41.492423,20,46614.40558
-40.351674,19,46614.625725
-56.336914,22,46614.928675
-45.081571,19,46615.242093
-44.322543,18,46615.394819
-44.46175,18,46615.708342
-52.145964,20,46615.934116
-47.318571,20,46616.206952
-57.706622,19,46616.527735
-53.727697,19,46616.67726
-43.210668,19,46616.977999
-36.345024,19,46617.189756
-45.323009,19,46617.502821
-45.546228,19,46617.750026
-45.393766,19,46618.071027
-31.367552,20,46618.410924
-38.656227,19,46618.697413
-51.612615,19,46619.011575
-38.96794,20,46619.336725
-43.097022,20,46619.694691
-63.236185,19,46619.989582
-44.816049,18,46620.272293
-53.477532,19,48735.175693
-33.186421,19,48735.40676
-50.319223,19,48735.602185
-45.086391,19,48735.901893
-42.238044,19,48736.121144
-49.917273,19,48736.390527
-40.169408,18,48736.707518
-48.590146,19,48736.897396
-34.026534,20,48737.216906
-31.077393,19,48737.491086
-35.670137,21,48737.717393
-42.953435,20,48738.078601
-53.485119,23,48738.322982
-32.146181,19,48738.58068
-38.842667,20,48738.947814
-42.083648,19,48739.120758
-33.224127,21,48739.441827
-32.071554,19,48739.722819
-48.200078,21,48739.94613
-63.539118,19,48740.264431
-41.153753,20,48740.468437
-44.354571,18,48740.76938
-37.731779,19,48740.976971
-57.986297,21,48741.343418
-51.134203,19,48741.654421
-43.182256,18,48741.948551
-41.627927,19,48742.226048
-33.523031,20,50848.771561
-46.015209,19,50849.099932
-41.566213,18,50849.251075
-42.458332,20,50849.539518
-44.209003,20,50849.779409
-34.556251,19,50850.104733
-39.751855,19,50850.347004
-48.917228,17,50850.58148
-40.092109,19,50850.867575
-45.991936,19,50851.072213
-42.263258,19,50851.38867
-51.731797,20,50851.538516
-55.691318,23,50851.884476
-34.478027,19,50852.074712
-48.216092,21,50852.384472
-41.968867,19,50852.733147
-50.359953,19,50852.887987
-52.815449,19,50853.195851
-37.562415,19,50853.414421
-47.340354,20,50853.673648
-43.960652,19,50853.879332
-36.521828,19,50854.156074
-44.643627,18,50854.410859
-54.488619,25,50854.703387
-41.60073,19,50855.032793
-43.105361,20,50855.374688
-42.871918,19,52929.545678
-46.658278,21,52929.871902
-40.64343,18,52930.073956
-53.805955,18,52930.378721
-58.610986,23,52930.635638
-40.811797,18,52930.874963
-48.375481,21,52931.063583
-45.118489,19,52931.374052
-43.045272,19,52931.650763
-37.050123,19,52931.866278
-63.867826,22,52932.209745
-40.855313,19,52932.448286
-44.239015,21,52932.708356
-38.588839,20,52933.062799
-47.72352,20,52933.202953
-32.044818,20,52933.477892
-48.776799,19,52933.704381
-33.068745,19,52934.04087
-47.070748,25,52934.345866
-43.333212,20,52934.707932
-35.480958,18,52935.006512
-30.216136,19,52935.260419
-54.735052,18,52935.492467
-54.226824,19,52935.793054
-34.120428,19,52936.127169
-47.698533,18,52936.455037
-34.183214,20,55017.781101
-32.646255,18,55018.017608
-42.934447,19,55018.364612
-56.34206,25,55018.669819
-49.974885,20,55018.887432
-46.07495,19,55019.088032
-35.478319,19,55019.370757
-36.323004,20,55019.652017
-40.848964,19,55019.881864
-45.368521,19,55020.209351
-40.795616,19,55020.430456
-43.613064,19,55020.698546
-41.052279,19,55020.98819
-40.64831,21,55021.17532
-39.784377,19,55021.452818
-46.081247,21,55021.701879
-36.288962,18,55022.002177
-29.066108,20,55022.233445
-32.574708,20,55022.539725
-33.874313,20,55022.878317
-36.123256,20,55023.194181
-48.386705,19,55023.470835
-40.47661,20,55023.810365
-43.058698,21,55024.175783
-48.161234,19,55024.514557
-37.910374,19,55024.853374
-43.750032,20,57111.57687
-34.786412,19,57111.843121
-44.539781,22,57112.202575
-34.275151,19,57112.457563
-34.74853,20,57112.697146
-34.847411,19,57112.901851
-57.971538,23,57113.210066
-35.957715,19,57113.497152
-41.30487,20,57113.720267
-37.587037,20,57114.068024
-40.931837,20,57114.39774
-38.5206,19,57114.720816
-51.553314,19,57114.904853
-29.216792,18,57115.249438
-35.333537,19,57115.599205
-52.530202,20,57115.952783
-34.412382,18,57116.270544
-37.25898,19,57116.613382
-29.851646,20,57116.826886
-43.710398,19,57117.137813
-34.657664,19,57117.466313
-35.235769,19,57117.783267
-36.35627,19,57117.910564
-40.765464,19,57118.046898
-34.96593,20,57118.185151
-33.853231,19,57118.323558
-45.810593,18,59184.86165
-42.403624,20,59185.079684
-26.781809,20,59185.313705
-32.047603,21,59185.595395
-32.561642,20,59185.960018
-41.421494,18,59186.111169
-37.980646,22,59186.483904
-37.865122,20,59186.823022
-31.210819,19,59187.143771
-34.684554,21,59187.389668
-36.689897,22,59187.725213
-33.266764,20,59188.0683
-35.770054,21,59188.382027
-33.110741,20,59188.744331
-46.06595,19,59189.051364
-36.921842,20,59189.299881
-38.576509,22,59189.663305
-45.6263,19,59189.982795
-43.167229,21,59190.26256
-26.005987,20,59190.403527
-47.980514,22,59190.557537
-38.688489,19,59190.695658
-38.121235,19,59190.842746
-29.501759,20,59190.996703
-49.47177,18,59191.137518
-59.499722,20,59191.298076
-47.629194,20,61269.560569
-45.521747,19,61269.696678
-37.414519,19,61269.83707
-35.71061,19,61269.976019
-32.238796,19,61270.124926
-38.653336,19,61270.265334
-40.58186,20,61270.410955
-37.815025,19,61270.549213
-33.600926,18,61270.683367
-46.346593,19,61270.923962
-36.859906,22,61271.203641
-31.172997,19,61271.369867
-49.606383,25,61271.744994
-29.244064,21,61271.986903
-35.616814,18,61272.238766
-47.431444,20,61272.53927
-52.804373,19,61272.741918
-34.691578,19,61273.07241
-33.130489,20,61273.330812
-38.915996,25,61273.611407
-44.34181,19,61273.891515
-44.213745,19,61274.109278
-34.973494,19,61274.425569
-30.09454,21,61274.642984
-42.623996,19,61274.923227
-36.20399,18,63346.519626
-40.643667,19,63346.753921
-33.282789,22,63347.120999
-58.621677,20,63347.457381
-28.442897,19,63347.720144
-35.03501,20,63348.03427
-36.51964,20,63348.371536
-31.497458,22,63348.788442
-47.621251,20,63349.118285
-41.914307,21,63349.459805
-40.106598,19,63349.665097
-37.419008,19,63350.004942
-38.895593,21,63350.373314
-27.996918,22,63350.727449
-35.727842,22,63350.872179
-45.102842,19,63351.009747
-41.731296,21,63351.15709
-33.860116,18,63351.294185
-36.675352,19,63351.439771
-51.464859,18,63351.579016
-35.694985,20,63351.73347
-35.009427,22,63351.892666
-44.115542,19,63352.104942
-37.897127,19,63352.417658
-33.972425,19,63352.593199
-37.509211,19,63352.938006
-28.783932,20,65418.800988
-34.8124,20,65419.090701
-34.861429,20,65419.332278
-54.248948,17,65419.624687
-43.85299,20,65419.760998
-45.30567,19,65420.061159
-37.946694,20,65420.29919
-43.179996,20,65420.614867
-24.550756,20,65420.917654
-33.949973,19,65421.245983
-30.430006,20,65421.555606
-27.777611,19,65421.796373
-30.239553,20,65422.142473
-52.627159,18,65422.429542
-30.082543,20,65422.770314
-50.365575,19,65423.085881
-43.078468,22,65423.488289
-33.386117,21,65423.736083
-39.159231,20,65424.074534
-36.500079,20,65424.415389
-41.72846,20,65424.750195
-35.276497,19,65424.911159
-30.218148,19,65425.050374
-39.517211,20,65425.199876
-41.349627,19,65425.338275
-32.282514,19,65425.478079
-43.04476,19,67483.828816
-47.959117,21,67484.167076
-34.926396,20,67484.352755
-37.8235,23,67484.656069
-36.827642,23,67484.921175
-47.213336,20,67485.236548
-28.553039,20,67485.521745
-26.299631,19,67485.763862
-34.298357,21,67486.099671
-43.72976,21,67486.471047
-41.397291,20,67486.613149
-38.087647,19,67486.870286
-36.075339,19,67487.108197
-43.711501,20,67487.443793
-34.589403,20,67487.668194
-36.013954,20,67487.935935
-44.781812,19,67488.276321
-25.416631,19,67488.461915
-55.016414,19,67488.755951
-31.846198,20,67488.901643
-29.91785,24,67489.285129
-34.334132,19,67489.550029
-40.397291,18,67489.783787
-44.456366,19,67490.119707
-19.909764,20,67490.466796
-31.630256,19,67490.773691
-35.994602,21,69550.440236
-36.738623,18,69550.75758
-32.31055,19,69551.089972
-31.661106,20,69551.418391
-36.50074,20,69551.611683
-37.211299,21,69551.974124
-26.014261,19,69552.304585
-46.997113,21,69552.624507
-41.750727,21,69552.773227
-41.51792,21,69552.915593
-37.432803,18,69553.039702
-39.662646,20,69553.180974
-40.032201,26,69553.369534
-57.287007,17,69553.516195
-36.488899,19,69553.669307
-36.287284,19,69553.820713
-31.797454,19,69554.000288
-36.011693,20,69554.326724
-23.482953,20,69554.52117
-35.178634,21,69554.870315
-32.103312,19,69555.045219
-37.227741,22,69555.370751
-34.144817,20,69555.72902
-34.75207,20,69555.929078
-32.055402,20,69556.22967
-43.239138,20,70490.527511
-29.814078,20,70490.672682
-31.122492,20,70490.807398
-24.746275,19,70490.943457
-34.402801,23,70491.097239
-38.484492,18,70491.2192
-48.218112,21,70491.357621
-44.11971,19,70491.496009
-33.289257,19,70491.639508
-33.634383,19,70491.767747
-43.514991,21,70491.911494
-39.051492,19,70492.041878
-33.678169,20,70492.182824
-28.88368,20,70492.326067
-40.04082,20,70492.46514
-34.023231,20,70492.618303
-26.94013,20,70492.763388
-39.729977,21,70492.91455
-38.288967,20,70493.048179
-55.874383,20,70493.19103
-51.033784,22,70493.336324
-41.393033,20,70493.474884
-54.934343,20,70493.60829
-40.366349,20,70493.753133
-31.552387,20,70493.891543
-32.075178,21,70494.041052
-30.695622,21,71257.302884
-29.544894,21,71257.444415
-34.917096,20,71257.574036
-45.401733,25,71257.744238
-22.471978,20,71257.885544
-35.211307,24,71258.057669
-25.248163,20,71258.19998
-37.949496,20,71258.340666
-28.996454,20,71258.48093
-46.106251,20,71258.612307
-29.301949,19,71258.751195
-37.228205,20,71258.887402
-37.422095,20,71259.021532
-44.692375,20,71259.156149
-34.621193,20,71259.291638
-41.647618,22,71259.444774
-30.62812,21,71259.595131
-42.20938,23,71259.761278
-33.747901,20,71259.90163
-34.761549,21,71260.045299
-32.786848,20,71260.177003
-37.444566,20,71260.313557
-36.576821,20,71260.460644
-47.848604,20,71260.610341
-36.292518,21,71260.753993
-24.660988,20,72024.764081
-37.730035,20,72024.905034
-37.427663,19,72025.041042
-46.279054,20,72025.177508
-37.668402,19,72025.319047
-31.062301,19,72025.456034
-37.565258,21,72025.595141
-24.889578,20,72025.73096
-33.864526,20,72025.880667
-30.460698,20,72026.022234
-31.906855,22,72026.175943
-36.699932,19,72026.311149
-16.532789,19,72026.443192
-38.683918,19,72026.578499
-24.289234,20,72026.713958
-28.73641,20,72026.851307
-43.38644,23,72027.016537
-40.917264,19,72027.149924
-29.377566,19,72027.280188
-26.328184,19,72027.412872
-30.365564,19,72027.539043
-26.383287,20,72027.679119
-34.968872,20,72027.819016
-34.588371,19,72027.950396
-41.130351,19,72028.078751
-23.26166,19,72792.67413
-33.265985,19,72792.810613
-39.016065,19,72792.942623
-31.160414,19,72793.071237
-45.297437,20,72793.203274
-38.139772,21,72793.350431
-23.940766,21,72793.494176
-32.518487,21,72793.635702
-35.862163,19,72793.764142
-26.374919,19,72793.898767
-45.648063,21,72794.03956
-27.863477,20,72794.178825
-33.950599,20,72794.322533
-31.006779,19,72794.451503
-35.493751,19,72794.585025
-27.482083,20,72794.731735
-26.994004,19,72794.87093
-41.222083,19,72795.011801
-44.424608,20,72795.14567
-31.246096,21,72795.285806
-30.954179,20,72795.430726
-37.364339,19,72795.562445
-31.981876,20,72795.70183
-34.428128,19,72795.835348
-27.674221,20,72795.978651
-35.678037,19,72796.114701
-36.020601,20,73559.733713
-30.60813,20,73559.86769
-35.914779,20,73560.013463
-41.80988,22,73560.173562
-39.445649,20,73560.307552
-28.375561,19,73560.440886
-39.3803,21,73560.592569
-24.439428,20,73560.735996
-33.38038,19,73560.871664
-30.554396,20,73561.01199
-30.576173,19,73561.159369
-33.084306,20,73561.305142
-33.619968,20,73561.448967
-31.789265,19,73561.580212
-21.520298,20,73561.714398
-30.54781,19,73561.853908
-50.896418,20,73561.99782
-41.458024,20,73562.132913
-23.394456,21,73562.276323
-33.01369,20,73562.422249
-38.766879,20,73562.555287
-26.024671,21,73562.700378
-41.677117,19,73562.836186
-39.307456,18,73562.961395
-36.848826,19,73563.096545
-34.490489,19,73563.231727
-37.522959,19,74326.235977
-26.520044,18,74326.360195
-24.983405,20,74326.507806
-29.99819,20,74326.649292
-25.877937,20,74326.791733
-34.805403,20,74326.92729
-38.3085,19,74327.059233
-42.320071,21,74327.215695
-32.43094,21,74327.362477
-34.343591,19,74327.492669
-28.145297,21,74327.645128
-29.540352,21,74327.78197
-33.2549,21,74327.922146
-23.551361,20,74328.062822
-33.222204,20,74328.195906
-32.559455,19,74328.328907
-27.183188,19,74328.461681
-34.781662,23,74328.622605
-33.748059,20,74328.761083
-32.236825,19,74328.892793
-31.869539,19,74329.020927
-36.560791,22,74329.170837
-34.47203,20,74329.313826
-48.280353,19,74329.454639
-41.133992,19,74329.589607
-34.183568,20,74329.727345
-31.763748,19,75093.187562
-32.90048,20,75093.328105
-36.490499,21,75093.470812
-26.807378,20,75093.606865
-29.187269,19,75093.74202
-25.089119,20,75093.880242
-37.316315,20,75094.024595
-37.807714,21,75094.166341
-33.527716,20,75094.30149
-24.538233,20,75094.440555
-36.243075,20,75094.576409
-32.268478,20,75094.718185
-28.938722,20,75094.854601
-38.3988,22,75095.001061
-33.431909,19,75095.128218
-29.204927,21,75095.272866
-39.575257,19,75095.407017
-43.548667,19,75095.544245
-37.934024,20,75095.688556
-25.94327,20,75095.830712
-28.610972,20,75095.96187
-31.75417,21,75096.110115
-34.000161,19,75096.251474
-41.397322,18,75096.376973
-28.288941,20,75096.522483
-33.380505,20,75096.668641
-27.032324,19,75860.534433
-31.708483,20,75860.671841
-50.027663,20,75860.812111
-43.309691,21,75860.959195
-27.429691,20,75861.109594
-41.175739,20,75861.251889
-32.670932,18,75861.368634
-25.304883,19,75861.499326
-40.157976,20,75861.63853
-31.482483,22,75861.787336
-40.488736,20,75861.921304
-44.308937,19,75862.051413
-36.745529,21,75862.197831
-37.571815,20,75862.333044
-34.484148,20,75862.471726
-34.580707,19,75862.606572
-29.855809,20,75862.738161
-44.170398,19,75862.868339
-30.407319,19,75863.004207
-45.682757,20,75863.136312
-25.904364,20,75863.276
-36.273332,20,75863.422504
-25.068653,19,75863.560724
-35.95704,19,75863.690171
-25.643217,20,75863.826513
-34.442537,20,75863.974779
-30.82185,22,76627.939691
-26.331698,20,76628.083192
-33.083934,19,76628.217608
-21.086477,21,76628.359126
-35.659733,22,76628.503294
-27.920875,21,76628.644346
-42.474988,19,76628.776349
-33.464399,22,76628.934688
-25.404041,20,76629.07947
-37.85798,20,76629.214643
-33.924356,20,76629.35289
-29.431709,21,76629.504585
-36.536401,19,76629.635381
-41.031178,19,76629.765353
-31.202538,20,76629.912873
-30.274241,20,76630.049933
-34.252696,21,76630.19249
-37.590224,19,76630.322581
-29.62968,20,76630.475643
-29.637893,20,76630.61598
-18.784196,20,76630.75847
-24.991474,22,76630.91126
-27.24301,19,76631.046772
-38.062689,20,76631.183801
-39.05754,21,76631.331674
-31.492611,20,77395.346409
-38.005011,19,77395.464228
-33.222013,22,77395.624615
-33.509321,21,77395.76595
-32.593753,20,77395.90957
-33.862305,20,77396.055399
-49.113673,19,77396.181219
-30.006731,19,77396.309622
-27.848097,22,77396.471843
-30.232012,19,77396.598419
-35.533274,20,77396.733518
-31.421186,19,77396.863885
-25.676483,20,77397.00581
-37.37705,20,77397.134135
-28.702349,19,77397.259897
-62.291304,24,77397.417701
-37.815384,18,77397.548743
-27.945619,20,77397.6887
-29.383789,19,77397.814985
-30.550301,20,77397.951957
-26.543541,21,77398.096434
-28.085315,20,77398.241171
-39.160228,23,77398.39976
-46.547382,20,77398.536894
-23.200896,20,77398.678606
-30.923799,20,78163.664098
-38.641186,20,78163.811471
-24.298716,19,78163.94712
-26.72218,20,78164.082714
-29.160695,20,78164.216605
-28.078282,22,78164.365172
-31.088974,20,78164.508053
-28.016281,20,78164.636641
-27.70692,21,78164.784817
-19.132326,20,78164.93249
-30.749211,20,78165.070626
-32.476296,20,78165.213286
-23.781741,20,78165.364441
-33.281427,20,78165.502065
-38.412711,23,78165.658302
-28.460551,20,78165.798696
-40.022187,19,78165.929243
-20.38993,19,78166.055497
-39.146499,19,78166.197483
-34.527532,20,78166.336977
-24.448761,20,78166.478354
-27.415087,19,78166.614361
-32.889113,24,78166.78005
-34.210362,20,78166.92391
-28.860551,19,78167.0558
-26.007009,19,78167.189093
-29.148957,20,78931.386234
-38.081021,20,78931.534318
-36.893734,20,78931.672436
-33.98975,20,78931.809207
-25.798942,21,78931.964652
-34.036319,19,78932.096404
-38.790085,20,78932.229987
-24.480642,19,78932.362466
-37.620676,18,78932.4892
-21.064564,20,78932.614858
-33.178673,19,78932.744918
-21.258336,20,78932.884975
-33.007428,20,78933.023157
-30.637581,21,78933.162561
-31.91219,20,78933.295004
-23.408235,19,78933.421117
-16.551797,20,78933.558067
-19.193309,20,78933.69546
-28.855321,21,78933.841
-23.940814,20,78933.982353
-38.494091,20,78934.113791
-31.295112,20,78934.248966
-29.601226,20,78934.390155
-21.386158,20,78934.534252
-28.457215,21,78934.69031
-29.785381,22,79696.31096
-25.675074,21,79696.451597
-28.948721,20,79696.58098
-24.208166,20,79696.717144
-24.636407,19,79696.848521
-26.201467,20,79696.983921
-25.159194,19,79697.11883
-23.25416,20,79697.254181
-25.72987,20,79697.401706
-35.672802,20,79697.543381
-36.034918,21,79697.691575
-23.573847,19,79697.823602
-42.933004,22,79697.977269
-32.513692,22,79698.122811
-14.393798,20,79698.272068
-23.601967,20,79698.407383
-25.555381,21,79698.550036
-35.964419,19,79698.685213
-33.31669,20,79698.820179
-23.988636,20,79698.956598
-38.261469,20,79699.099527
-30.728444,19,79699.226029
-23.290487,20,79699.368954
-28.944896,20,79699.50202
-30.047868,21,79699.649157
-28.102281,20,79699.790823
-45.881202,19,80464.510525
-25.035526,21,80464.657971
-30.266774,21,80464.808098
-29.944992,22,80464.953729
-20.196877,19,80465.087853
-27.565742,21,80465.237024
-36.377703,20,80465.387594
-28.953867,20,80465.534598
-21.053532,21,80465.681973
-17.628567,20,80465.81886
-43.80619,19,80465.955112
-21.608311,20,80466.09772
-20.442933,20,80466.241823
-33.759525,20,80466.387488
-24.095745,20,80466.532565
-34.98814,21,80466.681795
-25.602235,21,80466.834646
-23.177827,20,80466.974226
-28.082142,21,80467.127528
-30.502545,22,80467.276158
-39.11417,20,80467.419117
-35.706347,20,80467.560065
-22.695077,21,80467.70276
-26.139428,21,80467.853683
-27.953445,19,80467.984334
-29.117274,19,81232.864781
-32.502624,21,81233.016742
-29.882863,20,81233.156834
-31.437203,20,81233.290553
-35.920432,20,81233.430984
-24.870061,21,81233.572741
-28.455432,20,81233.710321
-22.167994,20,81233.853082
-35.686067,21,81233.993786
-25.012297,21,81234.13759
-36.402776,21,81234.288629
-26.662102,20,81234.428674
-35.203167,20,81234.575552
-34.831333,20,81234.718688
-29.12928,20,81234.859033
-26.680015,24,81235.027675
-25.505955,19,81235.159158
-29.006817,21,81235.318642
-28.228567,20,81235.463708
-38.586406,17,81235.586107
-31.184241,22,81235.739717
-46.610053,21,81235.885402
-30.49663,21,81236.024311
-37.235974,20,81236.164416
-31.201,22,81236.3216
-27.255273,22,81999.276144
-26.91266,21,81999.42096
-20.091514,19,81999.561493
-29.630858,20,81999.703998
-33.021831,20,81999.85169
-30.199777,20,81999.992287
-21.319008,20,82000.13279
-39.890092,20,82000.276407
-31.630023,19,82000.402695
-32.782947,21,82000.54479
-25.941686,21,82000.691107
-33.75098,19,82000.827777
-27.91788,21,82000.975406
-15.909655,20,82001.110503
-29.036576,20,82001.24455
-25.827257,20,82001.380254
-29.412485,20,82001.523661
-34.68944,20,82001.662405
-32.442213,21,82001.813308
-25.955186,21,82001.957376
-27.866913,21,82002.10572
-27.60061,19,82002.23473
-26.401484,19,82002.371308
-41.870413,18,82002.490562
-28.121837,21,82002.637576
-37.936713,22,82766.027905
-35.183607,20,82766.169711
-30.17195,21,82766.315117
-32.04526,20,82766.452831
-32.331134,21,82766.596258
-25.440141,20,82766.725645
-34.915398,20,82766.859454
-32.142512,21,82767.006453
-26.885472,20,82767.142972
-31.17283,19,82767.282758
-29.641832,20,82767.425677
-32.246088,20,82767.559778
-30.885097,19,82767.692205
-38.421953,21,82767.840827
-24.5097,21,82767.994829
-24.359248,20,82768.132841
-24.40241,20,82768.275773
-23.068964,19,82768.411992
-24.863131,20,82768.554868
-24.592858,23,82768.709343
-28.572211,20,82768.852852
-28.666767,20,82769.002962
-34.174122,20,82769.145681
-30.255054,19,82769.281743
-45.457223,21,82769.420779
-34.516251,19,82769.548481
-30.383354,21,83532.628422
-22.936608,20,83532.77137
-29.520812,20,83532.916534
-27.52036,20,83533.0611
-40.937684,19,83533.197236
-23.900935,20,83533.338827
-26.408009,19,83533.474067
-29.878081,20,83533.612117
-30.909005,21,83533.753683
-27.69546,21,83533.893868
-30.28817,19,83534.030409
-25.277879,20,83534.174172
-24.375393,19,83534.301336
-39.020195,20,83534.432328
-39.670551,19,83534.558121
-30.991302,20,83534.685777
-24.064059,21,83534.838727
-21.441836,20,83534.969511
-22.399213,19,83535.100527
-36.111854,19,83535.230962
-27.816038,20,83535.365646
-29.582416,19,83535.501244
-40.914085,20,83535.640484
-19.894602,19,83535.775256
-34.094547,21,83535.91644
-39.629343,20,84298.245279
-38.202209,21,84298.389678
-24.195645,20,84298.53155
-26.249804,21,84298.674049
-33.278132,20,84298.817269
-24.400534,20,84298.958556
-30.762719,21,84299.108495
-23.023913,22,84299.260372
-25.729242,20,84299.400384
-25.70491,20,84299.54105
-26.600532,20,84299.673674
-32.97208,21,84299.813561
-24.963171,20,84299.957278
-31.071741,21,84300.107394
-19.745962,21,84300.257294
-21.34458,20,84300.403571
-28.914983,20,84300.540152
-38.95358,20,84300.676834
-30.25068,20,84300.815806
-29.813018,20,84300.956699
-31.727425,20,84301.088084
-25.048983,20,84301.219311
-37.541787,20,84301.353942
-32.534489,22,84301.514242
-27.494217,21,84301.666556
-30.917111,20,85064.349895
-31.725326,21,85064.505762
-27.753295,20,85064.640298
-23.486239,21,85064.777293
-25.94951,19,85064.899804
-27.12495,21,85065.041875
-18.651864,20,85065.182087
-20.053143,20,85065.323337
-20.650159,20,85065.462712
-21.620972,20,85065.603385
-30.954998,18,85065.723521
-25.95841,21,85065.8689
-28.415283,20,85066.010753
-27.059254,20,85066.149232
-24.490881,19,85066.272871
-28.171418,19,85066.409182
-31.192832,20,85066.541851
-26.438594,19,85066.668258
-22.085918,20,85066.814845
-24.454839,21,85066.962978
-29.850417,20,85067.095895
-20.833275,20,85067.226798
-26.80143,21,85067.371212
-27.157276,21,85067.518593
-26.568237,21,85067.660256
-25.956183,21,85067.804178
-21.219115,20,85832.163091
-34.937294,19,85832.293752
-29.32508,20,85832.432534
-17.964463,21,85832.573132
-20.079696,20,85832.715782
-24.735544,19,85832.849826
-23.984532,20,85832.991912
-16.591767,21,85833.130413
-25.962332,23,85833.285964
-20.56269,21,85833.428954
-27.737919,21,85833.585704
-23.824871,21,85833.733558
-32.198238,22,85833.887136
-29.751318,20,85834.0223
-31.923464,20,85834.164033
-26.237993,20,85834.31201
-25.578353,20,85834.451082
-25.986896,20,85834.599054
-24.78916,20,85834.735862
-24.11352,20,85834.87918
-28.866886,20,85835.014227
-23.551624,21,85835.163209
-22.95462,20,85835.297775
-25.285964,23,85835.466408
-26.101814,20,85835.601666
-20.153755,25,86597.311053
-33.729575,21,86597.452813
-16.461661,20,86597.588356
-34.652224,20,86597.729956
-27.628948,20,86597.868923
-22.227328,20,86598.007816
-25.998372,20,86598.145238
-28.469342,20,86598.282947
-29.764534,20,86598.419012
-25.457259,20,86598.558698
-22.970876,20,86598.694623
-24.403649,19,86598.82489
-23.321343,20,86598.959779
-18.636474,20,86599.103086
-24.752144,19,86599.231835
-16.192702,20,86599.371258
-26.952138,20,86599.516654
-31.57983,21,86599.655893
-28.566827,19,86599.778612
-24.445769,20,86599.910633
-20.530497,20,86600.057373
-24.690981,19,86600.194545
-23.219959,20,86600.332479
-20.362418,21,86600.479421
-23.611188,20,86600.619491
-23.856539,20,87366.49445
-20.50119,19,87366.632671
-34.739015,26,87366.809279
-22.886773,21,87366.95084
-28.65638,20,87367.09584
-31.847783,21,87367.241321
-23.463,19,87367.376123
-20.488397,20,87367.514097
-19.291323,19,87367.655731
-31.744239,17,87367.7749
-27.695611,19,87367.900367
-24.525319,22,87368.069634
-19.98738,20,87368.21555
-24.515169,19,87368.341137
-22.272295,20,87368.469975
-26.06755,22,87368.619522
-33.359512,22,87368.77033
-19.714743,21,87368.91229
-24.655916,21,87369.060926
-38.335717,17,87369.181812
-26.797163,20,87369.326688
-27.337351,20,87369.462504
-25.88143,21,87369.609121
-28.393436,19,87369.74125
-23.73079,20,87369.891747
-26.964537,20,87370.025221
-22.921934,20,88135.328379
-22.490197,20,88135.476226
-25.21723,20,88135.62442
-23.599544,21,88135.774028
-40.002462,20,88135.916824
-22.442821,20,88136.056585
-25.80154,21,88136.212104
-29.08891,20,88136.358508
-34.341491,21,88136.512014
-19.094039,20,88136.654765
-25.121571,21,88136.809012
-21.342606,20,88136.949284
-25.603076,20,88137.094091
-23.604097,20,88137.241628
-21.824061,23,88137.406081
-28.997518,19,88137.536981
-34.553156,21,88137.683677
-28.443938,21,88137.832337
-24.144871,20,88137.975537
-26.203758,20,88138.120042
-26.064287,19,88138.249992
-31.008872,24,88138.426073
-30.916379,19,88138.564766
-19.406772,20,88138.696289
-26.885745,21,88138.844837
-31.615708,20,88956.056084
-26.195366,20,88956.196485
-32.561308,28,88956.388778
-28.921081,20,88956.525445
-28.292407,20,88956.672338
-21.008526,19,88956.803372
-20.355674,19,88956.929739
-31.215271,20,88957.063725
-23.365631,21,88957.210029
-25.269319,21,88957.352106
-18.521165,22,88957.515738
-20.726317,21,88957.668227
-32.582518,20,88957.831179
-18.10861,21,88958.021643
-21.97616,22,88958.197761
-16.72293,20,88958.362762
-16.045939,21,88958.538068
-31.843373,21,88958.697863
-26.332246,21,88958.880524
-37.44026,20,88959.049806
-24.095945,20,88959.218947
-33.196902,21,88959.386004
-27.808051,20,88959.559976
-20.119278,21,88959.732615
-17.013201,20,89734.630968
-25.158696,21,89734.766281
-33.369067,21,89734.909537
-29.548328,20,89735.049071
-18.389454,21,89735.200544
-27.487322,20,89735.334869
-25.866612,20,89735.47458
-20.798298,20,89735.614898
-22.072375,21,89735.753901
-25.810763,20,89735.885085
-35.358046,20,89736.021851
-20.829718,20,89736.159229
-23.764881,21,89736.301393
-22.605886,20,89736.432139
-20.235284,20,89736.563993
-25.56091,19,89736.696506
-22.518671,20,89736.835453
-18.632428,20,89736.974338
-24.730638,19,89737.114555
-29.99612,20,89737.250039
-23.260712,20,89737.387478
-25.192097,20,89737.530414
-32.94197,18,89737.649769
-26.985374,20,89737.790597
-23.578335,22,89737.948253
-27.552043,20,89738.086542
-20.157157,20,90508.904636
-20.063878,20,90509.047133
-23.223178,18,90509.170175
-20.732567,20,90509.30878
-22.9444,20,90509.445154
-26.214364,20,90509.587
-23.907775,19,90509.722893
-20.291978,21,90509.870366
-29.576712,19,90509.997941
-27.113899,20,90510.137882
-32.159538,19,90510.267325
-26.899349,20,90510.400509
-17.222221,21,90510.548074
-38.864776,21,90510.688994
-21.723214,22,90510.860726
-19.103881,20,90511.004304
-14.701855,21,90511.152751
-23.813162,20,90511.290674
-32.388922,19,90511.426644
-32.043132,20,90511.575093
-25.313318,19,90511.710846
-17.019655,20,90511.863154
-30.089534,20,90512.009047
-42.594575,19,90512.145796
-23.789689,19,90512.275139
-25.37592,21,90512.423751
-18.497743,21,91407.687976
-28.451029,20,91407.864626
-31.584505,19,91408.020379
-24.652167,20,91408.1808
-22.773721,23,91408.376449
-22.425563,22,91408.552766
-22.144514,21,91408.73224
-22.119175,20,91408.895721
-28.013811,20,91409.063133
-19.884018,20,91409.228248
-23.528569,20,91409.385297
-23.718199,20,91409.553161
-33.048824,19,91409.708818
-20.563154,21,91409.882117
-17.560457,20,91410.044842
-30.001979,19,91410.200166
-26.804346,19,91410.353863
-25.482747,20,91410.521416
-19.640146,20,91410.684693
-26.014536,20,91410.843823
-23.431022,19,91411.002517
-25.757109,20,91411.166411
-23.92472,22,91411.349121
-28.54544,20,91411.512173
-27.466844,21,91411.672831
-25.251623,20,92343.378821
-25.310563,21,92343.5313
-39.312532,19,92343.656353
-16.877919,20,92343.788259
-19.085257,20,92343.925196
-29.415902,20,92344.071986
-25.757431,20,92344.206255
-20.21007,21,92344.358778
-19.985869,19,92344.483196
-32.370517,21,92344.62281
-26.048969,22,92344.76749
-18.961193,20,92344.902768
-25.884061,21,92345.044642
-33.829438,20,92345.186703
-20.022763,20,92345.324752
-24.160097,21,92345.466212
-16.071743,20,92345.601963
-26.329817,21,92345.747326
-14.246995,21,92345.890317
-25.528769,20,92346.03383
-23.927002,19,92346.164283
-26.939314,19,92346.294313
-18.945157,20,92346.425069
-29.828962,20,92346.554408
-27.901344,19,92346.678107
-25.499265,20,93109.920104
-35.257004,20,93110.054303
-26.928554,20,93110.196988
-21.958197,20,93110.329294
-23.599247,20,93110.462044
-25.465516,20,93110.607136
-28.678353,20,93110.750021
-22.96178,20,93110.886336
-18.777557,20,93111.023641
-16.242066,21,93111.16722
-25.484073,22,93111.313235
-17.922747,20,93111.447097
-23.995136,20,93111.581322
-22.817268,20,93111.708905
-34.032469,20,93111.844397
-26.828484,21,93111.978862
-23.307453,20,93112.114926
-17.880553,21,93112.259068
-9.079741,21,93112.405978
-13.756431,20,93112.552015
-16.686957,20,93112.683274
-18.499367,23,93112.841456
-21.816029,21,93112.983705
-29.398824,18,93113.109263
-24.947728,23,93113.264599
-15.876045,20,93876.21898
-21.700549,19,93876.34891
-17.940799,19,93876.476615
-27.932882,17,93876.593526
-22.270497,20,93876.726711
-21.906763,25,93876.891947
-25.573174,21,93877.042944
-13.110154,19,93877.175334
-19.412097,21,93877.316391
-20.321726,26,93877.508695
-26.241176,20,93877.654087
-25.327546,20,93877.787745
-29.248361,20,93877.936868
-24.740481,20,93878.085111
-26.474038,20,93878.215961
-18.00443,20,93878.358766
-19.980119,20,93878.497659
-20.268893,20,93878.627631
-22.206254,20,93878.773307
-33.685378,21,93878.925681
-33.215298,19,93879.060137
-26.832751,20,93879.197127
-16.755446,20,93879.318965
-17.998064,21,93879.468958
-18.501641,21,93879.61738
-20.513609,20,94643.735722
-16.81581,20,94643.860934
-27.943538,19,94643.996642
-23.026899,23,94644.150926
-24.380493,20,94644.282327
-20.161194,19,94644.412881
-19.13228,21,94644.552298
-16.929023,20,94644.690054
-20.319155,21,94644.834929
-20.874762,20,94644.969779
-24.307435,21,94645.116894
-21.309106,21,94645.257867
-23.349942,20,94645.402425
-28.385276,20,94645.543403
-25.867702,23,94645.702888
-22.215714,20,94645.83408
-31.834858,19,94645.963416
-29.171025,20,94646.093546
-17.185679,22,94646.250945
-19.466252,21,94646.395514
-29.610563,20,94646.540586
-17.747552,20,94646.674709
-24.995874,20,94646.811171
-25.790352,21,94646.954772
-18.342966,22,94647.10272
-29.829014,20,95409.88424
-13.939722,20,95410.021085
-23.586186,19,95410.153014
-18.120261,21,95410.300309
-23.317773,20,95410.437997
-21.98428,21,95410.583218
-26.599245,20,95410.721889
-18.460794,22,95410.882252
-26.695309,25,95411.060685
-22.255822,21,95411.208491
-17.708963,20,95411.356996
-17.355837,21,95411.5037
-25.047798,21,95411.643752
-14.044997,21,95411.802735
-22.649944,20,95411.935801
-18.298443,21,95412.081004
-26.567001,20,95412.217967
-31.721833,20,95412.35383
-14.113704,19,95412.486726
-23.555652,23,95412.63848
-25.63972,18,95412.758687
-29.459854,22,95412.907147
-14.475212,20,95413.046253
-22.765264,21,95413.195348
-19.852041,20,95413.326198
-19.90541,19,96176.701851
-20.890338,20,96176.840167
-16.422088,20,96176.97367
-20.223491,20,96177.109927
-20.746058,20,96177.253593
-15.756203,20,96177.388437
-22.283796,19,96177.525385
-25.533526,21,96177.669382
-22.553599,20,96177.804569
-17.904599,20,96177.949823
-37.053163,18,96178.074971
-21.380991,21,96178.222274
-14.532775,21,96178.375964
-24.549045,19,96178.500336
-19.969167,19,96178.627228
-19.522817,21,96178.782197
-20.580423,20,96178.920321
-28.402576,23,96179.075304
-26.899838,20,96179.211935
-19.041361,20,96179.358119
-18.405367,20,96179.495263
-12.834171,21,96179.634424
-23.607315,20,96179.765493
-16.145932,19,96179.898401
-19.690532,21,96180.043561
-18.517544,21,96180.193406
-20.626495,20,96945.460854
-13.928804,21,96945.598562
-17.707123,22,96945.748156
-24.029001,19,96945.886856
-27.907383,21,96946.03958
-25.025206,20,96946.168323
-20.555379,21,96946.304938
-20.295057,20,96946.451178
-24.410038,20,96946.593349
-19.602441,20,96946.733612
-20.13575,22,96946.885017
-14.719828,20,96947.025971
-16.854296,19,96947.15398
-30.103455,20,96947.290402
-22.959441,20,96947.424014
-20.256007,20,96947.580751
-15.749895,20,96947.722265
-23.367179,19,96947.859343
-22.193923,21,96948.001395
-21.213428,20,96948.143534
-18.177543,20,96948.295082
-18.178021,20,96948.441068
-15.517796,18,96948.562817
-27.179231,20,96948.700495
-21.696072,20,96948.833775
-18.616851,20,97712.675241
-16.271214,20,97712.806222
-26.589622,20,97712.94128
-28.276798,19,97713.063389
-15.234549,20,97713.20797
-12.9175,19,97713.339205
-28.927007,21,97713.483039
-15.468913,20,97713.622779
-26.744506,21,97713.760226
-19.605363,19,97713.889825
-21.907381,21,97714.031348
-22.55882,20,97714.170115
-13.491919,20,97714.301264
-21.155563,20,97714.438599
-23.164249,20,97714.570489
-15.920433,21,97714.714876
-14.699993,20,97714.851623
-22.07243,20,97714.985981
-31.812795,20,97715.126945
-21.011138,19,97715.259238
-21.135765,20,97715.395051
-20.481347,20,97715.538066
-29.679922,20,97715.668813
-24.430049,19,97715.801565
-19.466577,20,97715.93248
-20.617229,20,97716.062824
-16.428228,20,98480.484061
-22.532569,20,98480.619098
-25.411133,20,98480.750727
-28.087505,21,98480.897012
-21.094708,20,98481.040488
-22.884832,20,98481.179595
-17.471291,20,98481.318269
-19.747324,18,98481.442033
-28.605753,20,98481.582906
-29.059055,19,98481.711204
-20.213103,20,98481.844484
-20.58187,21,98481.988455
-25.479939,17,98482.100542
-25.668331,21,98482.246314
-22.900707,19,98482.374296
-20.784204,20,98482.513252
-30.613899,17,98482.630405
-24.967389,20,98482.767094
-28.53758,18,98482.891587
-20.318717,19,98483.020164
-23.998914,19,98483.154079
-28.404365,20,98483.299494
-18.151066,21,98483.453914
-15.539478,19,98483.585597
-16.478179,20,98483.72392
-28.789021,20,98483.85749
-21.276584,21,99249.952764
-24.890812,21,99250.098005
-20.611525,21,99250.234412
-22.071182,21,99250.372352
-26.24263,19,99250.506893
-16.741416,21,99250.648868
-16.20876,19,99250.786245
-19.829161,20,99250.918763
-21.308007,19,99251.050516
-11.27203,20,99251.187701
-25.18469,23,99251.353693
-18.121848,20,99251.500614
-20.183505,21,99251.658683
-22.133099,20,99251.800491
-25.893813,20,99251.940645
-14.429069,20,99252.075684
-24.831264,20,99252.213588
-22.487547,19,99252.340545
-20.008672,20,99252.486883
-15.428613,21,99252.631533
-31.100947,20,99252.779453
-19.907912,21,99252.915227
-22.89332,20,99253.054307
-18.01333,19,99253.187469
-15.39985,20,99253.324112
-25.004731,20,100018.414516
-27.814407,21,100018.567184
-26.658647,20,100018.70989
-31.430513,19,100018.835459
-24.84571,20,100018.97365
-19.109036,20,100019.110803
-19.015301,20,100019.247904
-20.304311,20,100019.389605
-23.603919,20,100019.534112
-27.611663,20,100019.668471
-11.899589,20,100019.811575
-31.261814,19,100019.944162
-22.753591,19,100020.077681
-13.865069,20,100020.212496
-23.003281,20,100020.348198
-30.478409,20,100020.484773
-16.256958,20,100020.62067
-31.223758,22,100020.77056
-17.850192,20,100020.916861
-22.280108,20,100021.059652
-22.395006,20,100021.199481
-17.455844,20,100021.339978
-20.147437,20,100021.479094
-22.242712,19,100021.619094
-15.801147,21,100021.75546
-9.149983,20,100021.891331
-18.058072,19,100785.785316
-21.196784,20,100785.926245
-19.983829,19,100786.052624
-20.273916,19,100786.177935
-16.588118,21,100786.324511
-23.552261,21,100786.479839
-21.958019,20,100786.620183
-26.25871,18,100786.744748
-19.810881,19,100786.877099
-14.384962,20,100787.022189
-24.623727,20,100787.157969
-28.16707,19,100787.286612
-20.92048,19,100787.418533
-21.183888,21,100787.560816
-13.6564,20,100787.695488
-22.8053,20,100787.831306
-10.723162,20,100787.965808
-23.215624,19,100788.106636
-14.899929,19,100788.243276
-18.876124,20,100788.386178
-14.426674,21,100788.521945
-25.999976,20,100788.667566
-19.49615,19,100788.802946
-26.186747,20,100788.937203
-16.823532,22,100789.096668
-16.078498,20,100789.239259
-29.875222,19,101552.888598
-19.977961,19,101553.017085
-20.882009,21,101553.165255
-23.428581,20,101553.305255
-24.952086,23,101553.462444
-24.860531,18,101553.583822
-19.610215,20,101553.724542
-14.619718,20,101553.869892
-24.341541,20,101554.007308
-18.308478,20,101554.148492
-10.194647,21,101554.29743
-13.387009,20,101554.44026
-21.743923,19,101554.569736
-20.024999,20,101554.70808
-18.838788,22,101554.853271
-22.790408,20,101554.988007
-15.455307,20,101555.12653
-31.538862,19,101555.259427
-23.848426,21,101555.397842
-27.62387,19,101555.531352
-16.408187,20,101555.672635
-22.549592,20,101555.814518
-23.807807,20,101555.954317
-20.470856,20,101556.089945
-16.411476,20,101556.231556
-11.8064,20,102320.445001
-20.234435,19,102320.590393
-12.556301,19,102320.72445
-25.81267,19,102320.854895
-12.344497,21,102321.006177
-28.173398,20,102321.154836
-8.41873,20,102321.293653
-25.069654,19,102321.412585
-30.970594,20,102321.554779
-17.652108,20,102321.6948
-22.038633,18,102321.812633
-19.003944,20,102321.949963
-15.878304,20,102322.095147
-15.391493,20,102322.235994
-18.222607,20,102322.376065
-16.216491,20,102322.510099
-14.96062,20,102322.649169
-17.028489,19,102322.781651
-17.899606,19,102322.919115
-19.314473,20,102323.062762
-28.172886,17,102323.178084
-12.827272,19,102323.312305
-14.622616,20,102323.446758
-18.577612,20,102323.590703
-13.155335,20,102323.727
-10.645485,20,102323.865216
-16.641797,19,103088.787547
-20.398745,20,103088.935292
-32.236332,19,103089.069204
-17.602254,19,103089.211596
-18.699435,20,103089.350317
-20.056129,20,103089.479562
-13.966582,20,103089.617308
-18.144502,19,103089.747248
-18.769727,19,103089.88055
-26.09183,20,103090.020614
-13.113303,20,103090.15554
-22.892094,20,103090.288085
-29.063253,19,103090.417921
-24.616042,23,103090.584931
-21.956211,19,103090.721568
-16.777239,20,103090.864586
-24.418118,19,103091.000474
-22.849094,19,103091.135622
-16.353473,20,103091.275814
-29.188104,30,103091.486905
-26.513288,20,103091.620795
-21.913103,19,103091.759079
-19.829027,19,103091.890027
-16.489438,20,103092.025984
-13.843524,20,103092.165957
-21.753052,19,103092.30123
-12.547176,20,103857.578911
-15.15136,21,103857.727444
-19.66775,19,103857.856363
-19.877259,20,103858.008841
-22.882061,21,103858.156893
-11.764411,20,103858.305466
-20.273204,20,103858.455528
-15.188134,20,103858.599645
-16.984156,19,103858.736537
-19.785837,21,103858.883164
-32.073227,20,103859.020743
-19.380425,19,103859.16325
-11.63493,20,103859.305097
-13.588401,22,103859.464224
-17.866163,19,103859.597304
-16.127677,20,103859.738135
-20.522136,19,103859.878514
-26.386054,19,103860.021923
-13.154958,20,103860.163623
-19.124671,21,103860.316904
-22.253025,20,103860.462296
-17.101036,21,103860.619078
-18.152112,19,103860.75497
-17.430548,20,103860.891511
-24.19323,20,103861.030908
-17.672549,19,103861.167317
-20.108406,20,104634.356162
-22.584914,19,104634.491843
-20.736381,19,104634.631073
-19.498442,20,104634.779527
-21.408885,19,104634.920397
-21.656602,21,104635.069783
-44.57783,19,104635.204112
-25.118267,21,104635.359824
-23.006549,21,104635.512368
-10.175425,20,104635.658701
-23.216797,20,104635.81415
-16.869962,20,104635.963418
-22.485831,20,104636.112511
-26.509254,20,104636.254424
-20.512527,20,104636.401252
-12.697716,21,104636.554405
-13.647411,19,104636.689875
-12.188932,20,104636.834524
-16.510062,20,104636.977683
-12.337007,21,104637.1296
-21.594771,20,104637.272499
-13.505162,20,104637.412136
-12.730053,20,104637.556136
-17.411935,20,104637.69864
-14.825543,20,104637.842437
-14.132156,19,105412.289521
-12.466466,20,105412.433572
-24.282806,21,105412.584983
-21.546294,19,105412.724583
-20.006965,20,105412.8698
-10.611678,20,105413.017897
-12.162769,21,105413.167889
-11.725527,21,105413.31943
-16.831827,21,105413.469748
-21.083505,21,105413.616721
-19.238966,20,105413.767207
-18.624587,20,105413.907006
-13.292431,19,105414.039029
-22.080295,18,105414.173009
-25.556283,19,105414.308536
-20.160088,20,105414.453327
-12.148446,19,105414.591401
-15.21159,20,105414.73834
-22.951098,19,105414.879038
-24.047501,20,105415.023974
-30.741167,19,105415.156094
-17.176007,21,105415.319962
-14.30962,20,105415.468513
-17.655987,20,105415.606244
-12.868134,19,105415.7425
-20.151059,21,105415.890494
-18.377544,19,106188.986354
-15.752429,21,106189.138951
-24.035532,20,106189.28874
-18.171381,21,106189.438996
-20.416297,20,106189.582816
-13.443174,19,106189.722307
-17.375617,20,106189.868698
-20.498271,20,106190.004713
-13.040878,20,106190.149801
-16.958674,20,106190.293993
-12.083185,21,106190.443573
-17.927721,20,106190.59275
-24.999622,20,106190.738856
-16.413603,20,106190.881623
-16.292536,20,106191.033173
-13.538208,20,106191.17776
-26.775046,21,106191.328068
-17.580077,19,106191.463002
-17.069327,19,106191.594918
-23.738532,20,106191.739742
-18.702191,21,106191.893047
-19.706131,20,106192.033187
-18.01681,20,106192.179837
-19.828026,20,106192.330748
-13.586741,20,106192.473871
-13.004747,20,106964.703833
-8.230336,23,106964.863542
-16.584276,20,106965.006702
-23.204449,19,106965.141603
-16.351948,21,106965.291473
-14.773664,23,106965.450834
-15.936136,21,106965.603528
-11.076294,20,106965.749706
-17.435809,20,106965.89314
-18.750135,20,106966.036145
-11.061377,20,106966.183977
-15.983162,21,106966.334952
-25.644844,18,106966.452854
-12.988617,20,106966.594951
-14.050068,20,106966.73372
-19.330894,20,106966.883948
-24.077725,21,106967.031878
-15.468896,21,106967.18323
-17.950521,20,106967.325695
-19.186258,20,106967.455751
-24.767525,20,106967.593547
-20.131111,19,106967.728008
-16.454978,20,106967.87226
-13.778568,21,106968.023873
-14.928328,20,106968.166461
-23.380446,20,106968.307553
-17.549322,20,107741.958261
-24.184611,20,107742.10259
-14.244187,21,107742.25563
-19.606898,20,107742.389795
-28.611579,20,107742.534073
-16.260293,20,107742.68464
-18.896006,20,107742.820916
-17.278789,20,107742.966809
-13.750574,20,107743.114595
-26.428656,20,107743.261173
-17.798447,22,107743.426035
-19.084257,21,107743.57404
-19.095604,19,107743.716799
-15.937273,20,107743.868758
-20.687201,21,107744.014611
-8.385362,20,107744.150556
-12.799337,20,107744.286215
-11.421918,20,107744.43352
-7.854982,21,107744.58376
-13.776495,20,107744.727703
-24.760136,19,107744.859147
-31.47339,19,107744.999885
-13.413692,20,107745.142589
-17.659584,20,107745.275835
-15.811312,20,107745.417618
-13.187035,20,108511.954655
-17.599534,21,108512.101239
-12.579669,25,108512.288518
-15.680325,21,108512.441365
-22.175079,19,108512.57264
-15.583665,21,108512.717146
-20.053428,20,108512.848828
-17.356465,19,108512.984503
-20.2491,20,108513.128002
-18.838787,19,108513.261893
-14.660507,19,108513.396771
-27.092827,22,108513.542865
-14.482377,20,108513.692107
-17.496788,20,108513.829481
-17.198074,20,108513.961221
-7.61531,21,108514.104606
-17.67586,21,108514.25057
-13.324083,19,108514.379554
-17.58321,19,108514.510576
-15.877909,20,108514.65207
-15.88069,22,108514.817276
-13.1728,21,108514.956831
-11.371646,20,108515.093379
-18.172387,20,108515.232766
-20.752514,20,108515.37731
-23.067671,20,109281.137717
-13.675239,22,109281.288151
-13.77192,20,109281.435116
-17.692162,20,109281.579957
-16.192423,20,109281.723305
-7.90996,20,109281.867769
-23.761282,21,109282.015799
-15.869951,20,109282.158173
-20.773575,22,109282.309686
-24.530295,20,109282.453864
-9.993471,20,109282.60209
-6.644714,20,109282.739626
-18.104788,20,109282.877071
-23.76707,21,109283.019953
-12.997298,21,109283.170904
-13.377811,20,109283.315842
-16.587603,20,109283.457092
-8.330346,20,109283.593459
-16.367338,20,109283.737346
-15.828234,20,109283.880466
-20.76636,20,109284.024561
-22.129397,20,109284.1631
-19.16245,19,109284.302635
-16.602496,20,109284.451742
-14.376309,20,109284.597994
-23.879194,20,109284.74342
-8.289793,20,110051.661872
-18.063599,20,110051.801771
-21.211039,22,110051.949784
-15.785312,20,110052.095158
-18.143841,20,110052.232528
-11.851384,20,110052.36868
-20.535654,19,110052.505461
-17.567976,20,110052.645332
-14.8718,20,110052.780768
-22.281853,20,110052.924788
-13.948482,21,110053.063672
-11.067363,20,110053.204641
-21.708993,19,110053.336271
-22.599089,19,110053.474251
-19.459501,20,110053.613838
-14.580356,20,110053.75087
-18.480106,20,110053.885611
-19.896444,20,110054.017549
-13.778232,20,110054.154922
-22.979053,20,110054.289471
-19.232695,20,110054.416144
-24.097247,20,110054.554926
-19.990697,21,110054.704719
-14.879234,21,110054.854091
-15.352723,21,110055.003523
-17.132498,20,110819.486313
-18.773193,20,110819.624187
-25.058965,19,110819.748701
-12.590451,21,110819.892573
-13.616829,20,110820.033716
-11.2526,19,110820.167768
-21.334908,19,110820.302803
-11.8746,20,110820.448385
-18.276707,20,110820.588284
-33.525875,22,110820.74509
-19.32792,20,110820.880468
-15.751089,20,110821.025204
-13.081236,20,110821.155459
-15.018627,19,110821.289758
-11.373632,21,110821.430083
-13.739282,20,110821.563531
-25.687044,20,110821.710117
-11.986202,20,110821.854375
-14.863588,20,110821.991742
-8.877108,20,110822.130219
-22.324315,20,110822.278363
-16.642483,20,110822.423211
-22.10032,21,110822.571211
-15.210173,20,110822.70282
-14.283472,20,110822.838071
-24.746824,19,110822.96654
-14.600803,21,111589.721432
-20.410049,19,111589.85498
-16.097486,20,111589.993152
-15.090838,20,111590.13564
-15.275588,21,111590.281071
-15.526888,21,111590.434613
-13.283418,20,111590.573382
-17.772396,20,111590.709653
-20.16371,21,111590.857611
-10.29752,21,111591.007453
-13.152465,21,111591.147278
-15.802335,20,111591.285165
-16.471091,20,111591.426979
-9.24113,20,111591.568096
-13.072317,19,111591.703685
-11.351884,20,111591.838655
-15.153721,19,111591.965418
-33.79332,17,111592.077647
-21.395498,20,111592.214379
-17.473856,20,111592.348925
-18.255372,19,111592.478847
-15.572277,19,111592.615488
-16.632925,23,111592.77678
-9.909276,20,111592.905453
-19.2955,20,111593.040237
-14.210259,20,112358.644635
-17.829017,20,112358.784727
-23.749991,20,112358.915356
-19.798492,21,112359.051178
-23.663137,20,112359.184934
-18.200492,20,112359.314363
-20.200334,20,112359.450858
-13.752346,19,112359.581543
-19.925377,21,112359.72473
-17.106592,21,112359.869616
-9.531258,19,112360.002459
-18.672757,22,112360.156542
-16.376146,21,112360.300954
-22.825215,22,112360.459642
-17.757638,20,112360.592956
-23.176139,20,112360.738299
-13.593342,20,112360.875034
-21.888795,20,112361.011449
-12.066468,22,112361.168979
-28.609423,19,112361.297802
-20.769622,20,112361.426926
-21.271289,20,112361.556568
-23.149,21,112361.691799
-18.49655,20,112361.833557
-17.839116,21,112361.987443
-11.957202,20,113129.126649
-22.923748,20,113129.25965
-12.322153,20,113129.394412
-11.192213,22,113129.541516
-18.429149,20,113129.685867
-9.215334,20,113129.817867
-17.237609,20,113129.950426
-31.320849,16,113130.058233
-17.49588,22,113130.205012
-23.16431,21,113130.346214
-8.810907,20,113130.485748
-14.906641,22,113130.647754
-17.325649,20,113130.792703
-19.878869,22,113130.946802
-15.735873,21,113131.09094
-11.994155,21,113131.245688
-13.248979,21,113131.395249
-19.105682,22,113131.541295
-16.949677,21,113131.686366
-10.798312,20,113131.820984
-13.17025,20,113131.957244
-7.847648,20,113132.094905
-18.540708,20,113132.236407
-15.681827,20,113132.378332
-13.305527,20,113132.520266
-19.743645,19,113896.079816
-17.821771,20,113896.222126
-9.611402,20,113896.361529
-16.680784,20,113896.496159
-11.382146,20,113896.631847
-22.767947,20,113896.780319
-18.000614,20,113896.922754
-20.825162,20,113897.065747
-18.608785,20,113897.21155
-10.100089,20,113897.352748
-17.045692,20,113897.491402
-8.904668,21,113897.638606
-18.107318,20,113897.780379
-24.315553,20,113897.915434
-13.541487,22,113898.069971
-15.239038,20,113898.209763
-14.52876,20,113898.348022
-18.153991,20,113898.480494
-18.718484,20,113898.625845
-16.314153,19,113898.760755
-17.272992,20,113898.893203
-12.107475,19,113899.020045
-18.499521,20,113899.158945
-17.3349,22,113899.30984
-21.218925,22,113899.46472
-14.392943,20,113899.606818
-24.10212,19,114662.969584
-15.145605,19,114663.099326
-24.607332,20,114663.238443
-17.255753,20,114663.370414
-22.975402,19,114663.494736
-25.365728,19,114663.620539
-15.051602,21,114663.759978
-17.087814,20,114663.910199
-16.995178,19,114664.042646
-17.043107,21,114664.191199
-13.647499,19,114664.318328
-19.424365,19,114664.438108
-20.900402,20,114664.56658
-18.290646,20,114664.708737
-10.182383,21,114664.848165
-19.683303,20,114664.981098
-25.524385,20,114665.121632
-19.907793,19,114665.255771
-9.900742,21,114665.400479
-19.45191,21,114665.544945
-9.471586,20,114665.678366
-10.966685,20,114665.80792
-25.543351,21,114665.954305
-13.98783,20,114666.093414
-19.702009,21,114666.237505
-33.702028,20,115430.430945
-16.932539,20,115430.564243
-28.264806,20,115430.700786
-11.508512,21,115430.840752
-15.094213,19,115430.968569
-19.78227,19,115431.101703
-18.079055,20,115431.24579
-13.383203,20,115431.381043
-22.50297,17,115431.500166
-10.943675,21,115431.647852
-14.074869,21,115431.803071
-16.571702,21,115431.946994
-25.205222,20,115432.080102
-13.635306,21,115432.230159
-9.626142,21,115432.374665
-27.892925,23,115432.530027
-16.668518,20,115432.661293
-20.837838,21,115432.807607
-15.546356,20,115432.944514
-10.245323,20,115433.076779
-16.494939,23,115433.237277
-13.073551,22,115433.388035
-17.526812,20,115433.520947
-22.473461,20,115433.667876
-24.384729,21,115433.808253
-17.599065,20,116198.330323
-10.248363,19,116198.452138
-27.661676,17,116198.568822
-20.809449,21,116198.717681
-14.295721,20,116198.849603
-17.282219,21,116198.990277
-10.367367,24,116199.15792
-14.916908,20,116199.294159
-11.372014,20,116199.436469
-26.286204,20,116199.576453
-14.553455,20,116199.716686
-14.057322,20,116199.853579
-14.298018,22,116200.00063
-17.53734,20,116200.146894
-19.145689,20,116200.292461
-20.080168,21,116200.432082
-20.635675,23,116200.588541
-17.276627,20,116200.727652
-22.615562,20,116200.860079
-10.611065,20,116200.996541
-19.867251,21,116201.146608
-11.843711,20,116201.289378
-9.934152,20,116201.429444
-13.75588,21,116201.576525
-13.577452,20,116201.71466
-13.510499,20,116201.846966
-11.770665,21,116965.395611
-10.426102,20,116965.533754
-11.157819,20,116965.675394
-12.993862,20,116965.821866
-12.293353,20,116965.962374
-17.895045,20,116966.099371
-15.339515,21,116966.24942
-9.807789,20,116966.384425
-13.069673,22,116966.538804
-25.27646,20,116966.678668
-17.203005,20,116966.813285
-17.723086,21,116966.958528
-22.251273,21,116967.105195
-10.831835,20,116967.23757
-14.575854,20,116967.380921
-17.707609,21,116967.52109
-13.55745,20,116967.661923
-12.166686,21,116967.805914
-20.64928,21,116967.956285
-12.997582,20,116968.089704
-14.696447,21,116968.232258
-10.60999,20,116968.37678
-13.506974,20,116968.516055
-22.369173,21,116968.664969
-11.317041,20,116968.806397
-11.136598,20,117732.714593
-14.042201,21,117732.854609
-13.065702,23,117733.013222
-11.470894,20,117733.153823
-26.604738,21,117733.294533
-16.485513,21,117733.446362
-14.208139,21,117733.589797
-15.062696,19,117733.722794
-18.236478,20,117733.865385
-16.777836,23,117734.029312
-17.176151,21,117734.166005
-14.612023,20,117734.304804
-47.947726,26,117734.488572
-16.411221,20,117734.630036
-17.530483,22,117734.781599
-18.413668,21,117734.925489
-19.531675,21,117735.076829
-18.247983,20,117735.210861
-13.83379,20,117735.347216
-9.525582,20,117735.481427
-11.254761,20,117735.617137
-9.207124,21,117735.7606
-11.688051,22,117735.920511
-21.525013,21,117736.067038
-15.086286,21,118499.849696
-15.474534,21,118499.999855
-11.507025,21,118500.145475
-13.280703,20,118500.291085
-18.627065,21,118500.433481
-13.077777,21,118500.572521
-12.499269,22,118500.721807
-13.841668,21,118500.871794
-19.60605,20,118501.009049
-17.038284,21,118501.158324
-12.983696,21,118501.305213
-16.280231,21,118501.455374
-15.166232,20,118501.587126
-14.082415,22,118501.734906
-11.088372,20,118501.869842
-10.59819,21,118502.013542
-13.028368,21,118502.158727
-11.833594,20,118502.291669
-12.821954,23,118502.45182
-16.893312,20,118502.587254
-14.914454,20,118502.727419
-10.871346,20,118502.869084
-15.354934,22,118503.018157
-14.679958,20,118503.149415
-22.609142,22,119267.999969
-15.115539,23,119268.163297
-19.142423,20,119268.304774
-13.443031,23,119268.458635
-7.309293,19,119268.589651
-15.624144,22,119268.747213
-10.598627,20,119268.879791
-15.059274,20,119269.017333
-14.039916,20,119269.163208
-7.853252,21,119269.307465
-7.331206,20,119269.445308
-34.497587,18,119269.571215
-8.460315,21,119269.716784
-7.568927,21,119269.863688
-15.97828,21,119270.010729
-20.739473,21,119270.157243
-13.386051,20,119270.29593
-43.623827,18,119270.419264
-14.68701,22,119270.575187
-17.091931,22,119270.726659
-10.213098,21,119270.877145
-16.912297,20,119271.006271
-6.954369,20,119271.138535
-16.668049,20,119271.281842
-13.287994,21,119271.420565
-13.892613,22,120035.561051
-10.404513,19,120035.692713
-20.285901,20,120035.832179
-22.773655,20,120035.971739
-10.631748,21,120036.11475
-11.065304,21,120036.254841
-6.009032,20,120036.385426
-19.796838,20,120036.522516
-11.152036,22,120036.675167
-17.078785,21,120036.81643
-20.639529,20,120036.95564
-13.706259,21,120037.096814
-9.315476,26,120037.268484
-16.859014,19,120037.391241
-12.981163,21,120037.539065
-16.774685,21,120037.675446
-16.411991,21,120037.812688
-8.927017,20,120037.943722
-12.101572,20,120038.080853
-10.794776,22,120038.223647
-17.972142,20,120038.360277
-9.742962,20,120038.502936
-15.896615,20,120038.637892
-14.341048,21,120038.78546
-14.031496,20,120038.930349
-14.683266,20,120804.469606
-14.620214,22,120804.617078
-19.624889,19,120804.749245
-21.192821,20,120804.885657
-20.111926,21,120805.024534
-10.396382,20,120805.164437
-14.994139,20,120805.303913
-16.707566,19,120805.440522
-7.563461,21,120805.580829
-21.545889,21,120805.723019
-10.6487,22,120805.880681
-15.180798,21,120806.018698
-13.318322,21,120806.171085
-17.057403,20,120806.318155
-13.482316,19,120806.442961
-10.03765,21,120806.58592
-20.68025,18,120806.707225
-10.880181,21,120806.851831
-12.735106,20,120806.99667
-21.033594,20,120807.135717
-25.385121,23,120807.290528
-17.122969,20,120807.429833
-14.749857,21,120807.576386
-21.535966,23,120807.72945
-16.758072,20,120807.859558
-13.048289,23,121571.719034
-8.212688,21,121571.863978
-21.397947,20,121571.991551
-11.726614,20,121572.125104
-12.01712,21,121572.270583
-16.640851,20,121572.413574
-20.981517,26,121572.581455
-17.739943,24,121572.738102
-20.418142,20,121572.875094
-22.773256,20,121573.014657
-12.378917,21,121573.161348
-11.400338,22,121573.318395
-12.529133,23,121573.484361
-9.508571,20,121573.625097
-13.538492,20,121573.763
-4.474577,20,121573.894653
-12.433452,20,121574.032177
-12.573384,20,121574.159029
-18.033238,20,121574.293765
-15.472989,20,121574.429613
-8.152053,22,121574.590059
-13.659991,22,121574.734016
-16.925501,20,121574.868465
-20.907369,19,121574.997175
-22.855786,20,122340.780487
-14.979932,22,122340.93654
-13.84092,20,122341.076248
-25.342617,22,122341.230514
-8.826588,20,122341.365117
-12.784039,20,122341.510697
-15.095227,20,122341.64737
-16.115623,21,122341.790135
-14.562764,21,122341.938507
-13.296364,21,122342.082787
-12.620246,20,122342.218804
-22.17863,20,122342.359638
-9.043958,21,122342.503181
-23.639495,20,122342.63932
-14.114559,21,122342.773634
-10.590817,21,122342.912939
-11.646906,22,122343.0603
-9.574544,20,122343.195621
-18.563351,20,122343.332006
-18.034404,20,122343.46852
-14.195391,20,122343.602376
-14.306629,21,122343.740071
-21.219226,20,122343.873416
-10.117391,21,122344.024461
-3.962894,20,122344.161206
-7.561648,21,123107.045848
-13.766786,22,123107.195728
-16.523175,20,123107.34001
-12.075452,19,123107.475096
-19.918756,20,123107.612596
-17.457609,21,123107.763067
-10.093992,20,123107.90014
-11.19801,20,123108.030216
-26.648283,25,123108.206
-18.279048,24,123108.369408
-18.273408,22,123108.519264
-7.597593,20,123108.659455
-23.373696,20,123108.793898
-8.53011,21,123108.939523
-14.847475,19,123109.079478
-10.934602,21,123109.220315
-12.978131,21,123109.3566
-10.293942,21,123109.492928
-18.732061,19,123109.624212
-17.543929,20,123109.762356
-9.55012,20,123109.901374
-13.450717,20,123110.040931
-21.873653,20,123110.17308
-20.202381,21,123110.314076
-15.107695,21,123110.454195
-11.046245,19,123877.424285
-10.813401,20,123877.556772
-21.174709,20,123877.69392
-40.911783,19,123877.820886
-11.678504,20,123877.948515
-6.792147,21,123878.086391
-19.185951,19,123878.213837
-9.613568,20,123878.348754
-8.287902,22,123878.491344
-13.696557,21,123878.641943
-10.99359,21,123878.779679
-11.228528,22,123878.93091
-15.597093,22,123879.084807
-13.742862,20,123879.222944
-8.925637,22,123879.37456
-7.651915,20,123879.515347
-13.802011,20,123879.655896
-17.344607,20,123879.790476
-13.412055,19,123879.921685
-5.202256,20,123880.049392
-12.874654,23,123880.203889
-7.738728,20,123880.339564
-8.075443,20,123880.477676
-12.333848,22,123880.626159
-20.927584,21,123880.763919
-8.087972,20,124645.707806
-7.877288,20,124645.84216
-4.845135,20,124645.978853
-12.844978,20,124646.125532
-10.643243,21,124646.264425
-22.719285,25,124646.433811
-9.554902,20,124646.573895
-7.438221,21,124646.714727
-26.349344,20,124646.864201
-20.054506,20,124646.99525
-15.074483,21,124647.138093
-16.373398,20,124647.268088
-13.204366,20,124647.408537
-10.933624,21,124647.550914
-10.931621,19,124647.679295
-18.217317,20,124647.813792
-19.049958,18,124647.934914
-13.143519,20,124648.069985
-13.893108,20,124648.204346
-9.035308,20,124648.34467
-15.502561,27,124648.534796
-16.954043,20,124648.663327
-17.64469,20,124648.797771
-11.68428,20,124648.926325
-17.239126,20,124649.059468
-14.259194,20,125414.02227
-14.209016,20,125414.15268
-9.185474,23,125414.308159
-10.86294,20,125414.44617
-5.306542,21,125414.589224
-10.520236,21,125414.737282
-28.658609,18,125414.863391
-7.743705,21,125415.001053
-12.68775,21,125415.147019
-18.458421,26,125415.330446
-19.2237,20,125415.474062
-15.519868,21,125415.626654
-9.271773,20,125415.771906
-21.636507,21,125415.917643
-14.33645,21,125416.057454
-6.603761,22,125416.210528
-16.803029,20,125416.346014
-16.801631,21,125416.494968
-9.922941,21,125416.639829
-16.704009,21,125416.783651
-11.275178,20,125416.92702
-15.722266,20,125417.060964
-5.892264,22,125417.214809
-13.109026,20,125417.355279
-7.380805,21,126182.300341
-12.494587,20,126182.436361
-18.523128,24,126182.600519
-12.27216,29,126182.806342
-9.962851,20,126182.934917
-10.125096,20,126183.073527
-17.884176,20,126183.212422
-12.767909,23,126183.370988
-17.606468,22,126183.519615
-14.770067,21,126183.665201
-8.917955,26,126183.840395
-15.347292,23,126184.010819
-4.663036,21,126184.156159
-13.438317,23,126184.316991
-12.622302,20,126184.451915
-9.646258,24,126184.60835
-9.436273,21,126184.744612
-14.091801,22,126184.901025
-11.232691,21,126185.041822
-10.116274,21,126185.180311
-12.788826,20,126185.317225
-18.03527,19,126185.448584
-7.077461,22,126185.594754
-14.432826,21,126185.746029
-14.023562,22,126951.287712
-9.532069,20,126951.422315
-30.524682,17,126951.544641
-13.31757,20,126951.678176
-5.705949,21,126951.82121
-4.498043,24,126951.983109
-9.306013,20,126952.119529
-14.919624,20,126952.265299
-16.721925,21,126952.419486
-14.907365,26,126952.594442
-6.284566,20,126952.734415
-10.710768,23,126952.886248
-11.913839,20,126953.019578
-16.083102,20,126953.1557
-12.945252,20,126953.29719
-14.947429,19,126953.427081
-4.871999,21,126953.571969
-6.206832,19,126953.705534
-9.990707,20,126953.844609
-14.880375,21,126953.988798
-5.624028,22,126954.151798
-19.952427,23,126954.309469
-11.23184,20,126954.445623
-10.509308,20,126954.588536
-13.434544,22,128843.795826
-11.078058,21,128844.193655
-15.525773,19,128844.585986
-14.375972,20,128845.017477
-19.919005,20,128845.441574
-10.155313,20,128845.873126
-10.476651,20,128846.279612
-9.986723,21,128846.71857
-6.712889,20,128847.118324
-11.584172,21,128847.548838
-11.898964,19,128847.934326
-19.691717,23,128848.373104
-9.041969,20,128848.790244
-11.640717,20,128849.138452
-9.171675,22,128849.522971
-9.828903,20,128849.961763
-20.195976,20,128850.339355
0.345247,21,128850.726282
-5.58847,20,128851.163613
-15.86752,21,128851.565834
-9.986083,22,128852.019767
-9.680673,21,128852.453752
-13.712622,20,128852.821493
-8.331876,20,128853.250799
-13.653867,20,128853.659705
-10.791724,20,131835.474655
-15.273504,20,131835.870394
-12.526313,20,131836.265993
-8.688054,22,131836.689341
-1.991478,20,131837.047106
-4.637104,22,131837.453744
-15.216983,20,131837.855634
-11.491571,19,131838.194746
-11.686762,21,131838.602292
-16.975938,22,131839.050549
-3.930396,21,131839.416921
-13.919142,19,131839.773764
-7.199334,22,131840.284625
-2.510155,23,131840.723922
-7.714542,21,131841.158508
-16.438716,20,131841.567024
-10.722595,21,131841.984589
-9.123198,20,131842.397853
-21.020091,19,131842.780881
-15.371898,20,131843.148786
-14.367096,19,131843.532454
-9.357579,20,131843.902144
-13.967935,20,131844.271592
-14.627243,20,131844.703842
-11.632003,21,131845.061651
-18.350482,20,134812.436541
-16.031482,19,134812.779168
-10.385415,20,134813.178285
-5.740726,21,134813.560382
-7.548492,20,134813.934682
-8.477631,21,134814.377778
-7.561638,20,134814.777093
-6.122595,20,134815.165143
-19.026746,20,134815.596312
-7.865281,24,134816.076782
-12.474985,20,134816.455875
-11.008466,21,134816.898128
-7.829134,20,134817.262429
-12.001413,19,134817.610312
-13.38438,23,134818.11533
-22.444157,20,134818.498146
-11.894222,21,134818.905161
-28.614619,25,134819.419303
-15.09996,20,134819.80406
-6.922949,19,134820.19398
-13.811274,21,134820.575831
-12.185614,21,134820.953211
-7.451142,21,134821.376942
-10.490394,20,134821.73534
-14.391923,20,134822.102126
-16.880471,21,137774.857536
-18.013035,19,137775.217779
-12.616401,21,137775.69364
-21.229745,16,137776.022983
-13.331217,20,137776.472997
-9.08178,20,137776.922574
-17.013011,19,137777.322513
-10.513149,21,137777.785073
-9.650912,21,137778.195391
-12.145343,21,137778.595373
-13.929501,19,137779.004909
-13.659005,21,137779.39221
-12.488607,21,137779.775277
-3.067671,20,137780.168208
-17.343339,21,137780.540567
-22.249584,21,137780.911954
-13.733485,20,137781.30306
-10.481521,20,137781.687668
-14.531256,21,137782.097306
-15.316883,20,137782.515658
-6.971906,20,137782.892034
-11.600372,20,137783.272263
-8.856902,20,137783.69452
-3.415696,20,137784.095291
-16.01141,20,137784.464751
-13.575954,22,137784.936042
-9.432598,21,140780.27549
-8.879188,21,140780.650545
-12.279101,21,140781.099804
-11.433923,19,140781.450716
-10.412158,21,140781.848679
-8.542357,20,140782.278211
-8.203582,20,140782.667285
-8.109805,20,140783.074359
-12.900149,20,140783.519427
-9.293226,21,140783.936379
-11.818524,20,140784.298691
-11.044884,20,140784.704194
-8.280141,20,140785.096923
-17.168385,20,140785.485505
-10.321999,20,140785.900889
-15.018839,23,140786.345828
-11.579636,20,140786.709792
-11.003956,21,140787.156002
-8.662325,20,140787.532493
-15.406705,21,140787.908556
-7.129097,21,140788.343433
-8.677069,21,140788.737045
-12.616623,20,140789.098559
-9.428351,21,140789.532126
-16.567715,20,140789.879309
-16.746873,20,143795.61236
-9.289585,20,143796.008567
-10.833097,22,143796.430089
-4.702635,20,143796.826404
-12.622959,21,143797.250399
-12.990019,22,143797.706663
-15.265734,21,143798.124303
-16.810938,19,143798.471443
-12.065665,20,143798.893419
-2.178535,21,143799.296693
-11.498223,21,143799.713629
-17.999037,20,143800.127206
-11.822625,21,143800.511683
-14.251425,19,143800.880722
-10.236077,21,143801.292254
-8.349325,20,143801.65364
-9.926424,20,143802.013861
-12.80841,21,143802.419438
-9.497847,20,143802.76336
-21.761573,21,143803.170039
-14.325525,19,143803.539554
-14.862467,21,143803.926422
-7.592552,19,143804.278393
-4.812885,20,143804.696322
-8.811399,20,143805.066196
-6.318434,19,146812.67279
-10.880241,22,146813.136077
-17.240047,19,146813.534053
-5.476466,23,146814.053736
-5.33233,20,146814.459399
-10.055666,19,146814.844866
-5.648165,20,146815.245153
-7.503819,26,146815.829027
-16.272557,20,146816.250005
-9.838697,21,146816.703234
-20.226897,19,146817.082818
-13.427798,20,146817.462995
-10.032889,20,146817.877854
-8.738395,20,146818.266897
-6.297888,22,146818.70664
-10.196483,21,146819.155782
-13.048043,20,146819.523017
-14.219117,17,146819.843985
-11.328872,20,146820.301594
-8.997575,21,146820.712611
-5.555538,21,146821.133455
-4.631403,20,146821.572836
-6.717325,20,146821.974368
-8.407091,22,146822.430669
-8.306157,21,146822.90317
-11.760848,20,149767.075178
-8.397936,21,149767.655909
-6.279075,22,149768.248786
-8.949158,22,149768.8751
-11.243606,21,149769.430553
-3.625218,23,149770.101442
-0.684442,23,149770.845273
-12.139378,19,149771.426536
-11.128931,20,149772.088099
-8.051321,22,149772.709036
-13.205089,20,149773.346878
-13.307791,21,149774.014516
-13.378368,20,149774.711568
-12.45982,21,149775.307415
-6.023727,19,149775.831659
-7.683609,23,149776.450012
-9.083582,21,149777.072548
-11.668723,21,149777.590124
-11.491389,20,149778.246495
-11.313453,22,149778.885753
-17.237003,20,149779.466379
-2.810329,20,149780.071354
-12.877441,21,149780.70048
-9.416439,20,149781.2247
-11.557293,21,152734.153864
-6.275896,20,152734.635651
-15.304638,20,152735.083464
-11.067071,23,152735.651387
-3.643644,23,152736.198676
-11.586959,21,152736.648213
-5.166119,20,152737.155414
-9.558258,24,152737.675339
-14.082305,19,152738.096486
-14.255492,21,152738.652192
-4.416274,20,152739.078746
-16.06267,19,152739.514995
-5.548553,22,152739.993095
-17.601005,20,152740.390391
-10.904801,23,152740.898464
-9.74172,21,152741.353405
-22.969918,18,152741.727862
-10.725662,23,152742.251464
-11.040309,21,152742.6997
-9.45424,21,152743.238203
-4.85217,27,152743.850551
-4.3912,20,152744.335825
-8.520738,20,152744.771452
-16.475963,20,152745.194968
-1.989262,20,155702.695001
-11.074619,25,155703.228093
-5.758378,23,155703.758651
-2.974782,21,155704.196064
-15.78932,20,155704.634652
-2.585053,21,155705.10645
-4.767263,20,155705.578836
-16.5777,20,155706.042882
-15.609265,19,155706.427984
-2.468721,26,155707.058736
-15.481833,21,155707.499775
-14.275674,21,155707.935725
-9.390467,21,155708.418072
-8.000776,21,155708.841404
-16.04146,21,155709.370856
-6.489973,20,155709.807206
-7.723775,22,155710.26614
-13.32309,21,155710.805526
-13.980284,20,155711.232065
-14.254502,20,155711.708516
-10.765245,23,155712.215233
-5.138257,22,155712.700673
-7.878517,21,155713.203758
-10.202827,20,155713.662169
-10.932288,23,158664.92763
-11.762631,21,158665.429411
-11.591248,21,158665.901721
-13.559481,24,158666.427853
-6.313361,20,158666.849455
-5.7226,22,158667.348627
-8.158741,20,158667.814034
-7.184392,21,158668.27624
-6.041067,21,158668.70809
-6.916411,20,158669.201793
-8.70198,20,158669.5932
1.172075,21,158670.08912
-16.85799,20,158670.528072
-11.197813,27,158671.095974
-4.094946,21,158671.614346
-15.228765,23,158672.096817
-12.972439,19,158672.558973
-5.063526,21,158673.034241
-6.196074,20,158673.452696
-17.567969,21,158673.932749
-11.988191,21,158674.385775
-7.699344,20,158674.85012
-13.448837,22,158675.342918
-7.614419,19,158675.73305
-12.560207,21,158676.260517
-8.552761,22,160880.6981
-2.837167,20,160880.926774
-3.757509,21,160881.161629
-6.040946,20,160881.396781
-8.899401,20,160881.62919
-10.281472,22,160881.884691
-4.512566,20,160882.110117
-19.895952,20,160882.345217
-11.753927,19,160882.569896
-7.273498,20,160882.819957
-16.875909,21,160883.062524
-7.84483,22,160883.325113
-8.382761,20,160883.574661
-13.590808,20,160883.83495
-3.630572,21,160884.085583
-11.375016,20,160884.319776
-8.589468,21,160884.576259
-26.785914,17,160884.801093
-16.960947,19,160885.043658
-6.976942,20,160885.286932
-12.291586,20,160885.531161
-6.830438,23,160885.800688
-10.877951,19,160886.035159
4.897735,58,162910.102881
-9.579322,21,162910.340658
-10.227703,22,162910.6187
-12.223496,17,162910.819529
-9.188804,21,162911.059531
-10.777078,19,162911.281008
-4.638276,21,162911.532823
-3.861603,25,162911.846883
-18.19985,20,162912.087708
-14.780601,18,162912.299418
-12.816727,19,162912.52892
-12.382037,20,162912.771094
-10.570944,21,162913.044942
-11.082461,20,162913.279769
-9.859471,20,162913.519566
-3.131483,21,162913.775328
-2.641852,21,162914.030875
-16.970239,18,162914.261541
-12.328668,20,162914.500937
-6.266696,21,162914.755589
-9.075969,22,162915.029264
-7.199728,20,162915.323641
-5.711246,20,162915.560438
-19.138674,26,162915.880301
-9.104404,23,162916.150516
-3.534707,21,164930.050281
-1.065723,21,164930.296418
-5.264126,20,164930.532187
0.613391,20,164930.794782
-8.897823,22,164931.048868
-4.47684,20,164931.271986
-18.678421,19,164931.497791
-7.13425,24,164931.768705
-0.227999,21,164932.025025
-0.006911,20,164932.26158
-8.658978,23,164932.522683
-11.671358,21,164932.764507
-6.644745,20,164933.001457
-5.097743,22,164933.259416
-13.816602,19,164933.487659
-11.222484,24,164933.786348
-7.064902,22,164934.066834
-9.186423,21,164934.377969
-15.714821,21,164934.665558
-4.910354,21,164934.938341
-9.790418,24,164935.248182
-5.283271,20,164935.513837
-5.173466,20,164935.741773
-12.843624,20,164935.975423
-5.104319,21,166945.567454
-7.596239,21,166945.803147
-11.454779,21,166946.047114
-8.145429,20,166946.264403
-11.224321,20,166946.482548
-10.310097,25,166946.753104
-6.10352,26,166947.03664
-8.733275,21,166947.276825
-6.49053,22,166947.520672
-7.028008,20,166947.743977
-7.313826,21,166947.979629
-6.601893,24,166948.242877
-1.602258,22,166948.500048
-13.347411,20,166948.723497
-5.68071,23,166948.983054
-6.378132,20,166949.206222
-13.422024,21,166949.433386
-14.274435,22,166949.666913
0.128573,20,166949.895913
-3.23916,20,166950.117307
-9.876922,22,166950.361543
-3.19873,20,166950.582545
-5.862457,20,166950.80079
-4.671929,19,166951.006567
-14.000826,19,168975.012629
-3.587137,20,168975.240078
-2.575874,21,168975.469277
-8.955105,20,168975.694179
-14.714992,19,168975.901133
-17.760467,23,168976.171645
-4.405715,23,168976.442222
-13.508121,21,168976.657087
-11.659427,19,168976.874794
-6.087323,22,168977.125119
-7.748503,20,168977.352541
-0.274353,21,168977.609288
-4.769139,20,168977.835594
-8.460703,23,168978.106375
-12.863153,20,168978.345043
-0.736237,21,168978.598931
-7.345175,20,168978.840919
-7.374267,20,168979.06439
-8.898316,21,168979.311698
-18.018884,19,168979.530932
0.135617,21,168979.758675
-1.395094,21,168979.995288
-9.113785,20,168980.22598
-11.20481,22,168980.474292
-14.103227,19,168980.693074
-3.162096,21,170993.361229
-5.965515,21,170993.615762
-10.92802,19,170993.819374
-5.49322,21,170994.052088
-2.608293,22,170994.289001
-6.722996,21,170994.524806
-10.618501,24,170994.785253
-4.341208,21,170995.026836
-8.807945,24,170995.283721
-6.550326,22,170995.524335
-1.397439,22,170995.786895
-13.42412,20,170996.002203
-12.224739,19,170996.218822
-10.899296,23,170996.470542
-9.258594,22,170996.710808
-3.719119,23,170996.982155
-21.346462,21,170997.208099
-8.279593,21,170997.435983
-7.04737,20,170997.649124
-8.075284,20,170997.873646
1.808699,26,170998.162325
-2.402886,20,170998.377118
-7.531701,20,170998.596776
-7.783005,25,170998.88323
-9.358756,21,173013.294689
-8.968017,19,173013.526801
-8.491843,20,173013.751823
-4.867889,21,173013.991563
-7.943999,21,173014.222061
-4.396678,20,173014.448415
-3.197371,21,173014.677586
-0.09678,21,173014.908605
-27.136251,17,173015.107944
-7.373398,21,173015.341071
-7.643713,23,173015.586135
-7.015722,22,173015.833676
-8.219343,21,173016.077666
-3.49892,20,173016.304772
-8.858188,20,173016.521987
-6.206603,19,173016.737837
-3.935762,20,173016.960391
-6.169165,21,173017.186906
-2.204843,24,173017.451988
-7.664273,23,173017.70847
-15.371577,20,173017.931759
-11.106962,21,173018.175637
-9.772014,21,173018.430522
-0.915935,28,173018.73034
