# {"t_start": 1548091942.326112, "env_id": "RoboschoolHumanoid-v1"} 
r,l,t
-81.776319,19,1.527851
-103.990157,19,1.672639
-94.759772,20,1.869628
-91.660851,23,2.048001
-73.267306,17,2.180576
-85.112467,20,2.333634
-79.49432,18,2.476377
-109.969548,24,2.671566
-86.647239,18,2.822172
-90.587972,21,3.014571
-67.132157,20,3.189991
-90.261289,19,3.345702
-117.820343,20,3.505044
-87.544665,19,3.67467
-98.151244,19,3.849056
-82.77471,18,4.008715
-86.007993,19,4.203898
-98.746077,19,4.360489
-84.579489,19,4.521516
-86.232889,19,4.676054
-98.343044,20,4.846588
-66.977623,18,4.999801
-93.148919,19,5.157485
-92.135217,19,5.329235
-108.409841,18,5.478837
-113.752874,19,5.638408
-90.155556,20,1097.141834
-102.266814,20,1097.356941
-92.281767,17,1097.545958
-102.766802,21,1097.780257
-97.356833,19,1097.975236
-96.72724,20,1098.204005
-95.291402,18,1098.383464
-95.90671,18,1098.579722
-97.205406,20,1098.796947
-97.840264,18,1098.995057
-118.385378,22,1099.214918
-70.371835,18,1099.380149
-110.524187,26,1099.63605
-97.188259,18,1099.816334
-109.120823,20,1100.036308
-87.752886,18,1100.217504
-85.687065,20,1100.411306
-91.453471,17,1100.593404
-90.610352,18,1100.776419
-72.935867,21,1100.980874
-100.911155,19,1101.189279
-101.392483,18,1101.349082
-77.882459,18,1101.510178
-75.642281,20,1101.70788
-76.241323,17,1101.866142
-114.357717,19,1102.039312
-87.588779,15,1102.183249
-93.211782,18,2203.431944
-79.11813,24,2203.688657
-113.329366,19,2203.884468
-104.17432,20,2204.115149
-93.132415,19,2204.318012
-142.717599,21,2204.537658
-95.837687,20,2204.785629
-73.340411,17,2204.977521
-106.36095,18,2205.191676
-129.864511,28,2205.529388
-95.995325,20,2205.753969
-79.948017,20,2205.966631
-112.537145,16,2206.147711
-97.9442,20,2206.389015
-78.337947,18,2206.598712
-85.20541,19,2206.829122
-80.166937,20,2207.052743
-65.531414,17,2207.261189
-72.305868,19,2207.491417
-91.352626,19,2207.71784
-74.043172,19,2207.928459
-125.940286,19,2208.142813
-92.38867,17,2208.340089
-98.500123,19,2208.586388
-90.126816,21,2208.847405
-100.117845,20,2209.088245
-96.314346,19,3307.807703
-110.074843,25,3308.043509
-90.147402,19,3308.227702
-103.605367,17,3308.392275
-114.426874,24,3308.626714
-105.572843,20,3308.828287
-87.285579,21,3309.052619
-91.968541,19,3309.235791
-91.48218,21,3309.444547
-81.92024,20,3309.649043
-104.600637,23,3309.880123
-80.122854,18,3310.08056
-85.853715,19,3310.27317
-72.323059,18,3310.458684
-88.135265,19,3310.655157
-78.934702,18,3310.856776
-83.243582,20,3311.058988
-118.312926,18,3311.258206
-65.499873,18,3311.458664
-72.093698,18,3311.639349
-73.492834,19,3311.837831
-125.941731,22,3312.074218
-101.391282,18,3312.262609
-81.962643,19,3312.479932
-87.31433,20,3312.698173
-80.470409,18,3312.881622
-68.071638,18,4412.768488
-101.253243,17,4412.913508
-86.30183,18,4413.067097
-104.77772,19,4413.233109
-84.778227,18,4413.388298
-100.58015,20,4413.571114
-108.033738,20,4413.762746
-89.142158,18,4413.915349
-105.823044,19,4414.085148
-90.578452,17,4414.235718
-89.659117,19,4414.397532
-97.106297,19,4414.560744
-69.788616,19,4414.724875
-100.843441,18,4414.896765
-104.351699,18,4415.058611
-104.524846,19,4415.22216
-88.400074,20,4415.397095
-80.344866,19,4415.572878
-81.639836,19,4415.741458
-104.725263,19,4415.911658
-68.887674,19,4416.104728
-83.366586,19,4416.284506
-88.850514,19,4416.472958
-84.062778,19,4416.659361
-87.819874,20,4416.855756
-81.502567,22,4417.072064
-84.616306,19,4417.269138
-80.186464,18,5515.969312
-82.237143,18,5516.132834
-87.538405,18,5516.293981
-105.18781,20,5516.473394
-86.0906,21,5516.694539
-144.424356,24,5516.95712
-88.002943,19,5517.177056
-75.446223,17,5517.36114
-69.134799,19,5517.56346
-59.016577,20,5517.774138
-90.41383,24,5518.014293
-93.862063,18,5518.223399
-90.649039,19,5518.452228
-79.089847,18,5518.675435
-89.723878,18,5518.89846
-81.805185,20,5519.150623
-80.365156,17,5519.356217
-81.222157,19,5519.585272
-104.824578,19,5519.802891
-101.986539,16,5520.011049
-78.988396,22,5520.259162
-86.922924,19,5520.509666
-89.551744,19,5520.737541
-91.705356,20,5520.96963
-83.717664,19,5521.191983
-69.005208,18,5521.403445
-85.987356,18,5521.630822
-93.838522,19,6621.074613
-104.039442,18,6621.272762
-123.339588,27,6621.572741
-95.463945,20,6621.798539
-111.988783,19,6622.027345
-71.195159,18,6622.193931
-69.284124,21,6622.381166
-80.861091,18,6622.537181
-74.198733,20,6622.706955
-117.241931,27,6622.961952
-71.000281,19,6623.147312
-70.924252,18,6623.305168
-73.276228,18,6623.452073
-87.304292,19,6623.61875
-88.867986,19,6623.788788
-66.823191,19,6623.955977
-85.054636,19,6624.12753
-86.643306,19,6624.315759
-98.081783,19,6624.487946
-123.127271,22,6624.686843
-88.921873,18,6624.83974
-76.346485,18,6624.997865
-111.114795,20,6625.177638
-83.161655,20,6625.378899
-75.461042,19,6625.567643
-85.908066,22,6625.76907
-86.986984,18,7724.782069
-62.729364,18,7724.958486
-91.683179,20,7725.180029
-67.163551,20,7725.378279
-95.340185,19,7725.559933
-77.124387,20,7725.754
-77.245016,19,7725.95615
-59.393941,19,7726.14412
-92.343163,18,7726.318827
-114.842984,23,7726.543179
-75.894579,19,7726.734384
-88.732185,21,7726.947353
-81.006945,19,7727.149626
-123.833135,26,7727.396075
-94.499623,28,7727.670365
-117.385931,20,7727.860907
-74.445137,18,7728.026896
-87.752794,22,7728.275286
-83.546289,18,7728.451221
-99.450913,20,7728.637583
-69.27929,17,7728.81351
-100.296397,24,7729.040951
-81.172997,18,7729.214083
-82.696251,18,7729.400468
-93.657543,19,7729.585986
-82.259822,19,8829.223418
-76.841827,18,8829.398433
-81.316524,18,8829.567211
-89.477657,19,8829.747935
-87.764863,26,8829.995001
-77.887752,20,8830.198497
-95.699348,19,8830.393203
-104.613836,19,8830.570378
-64.103643,18,8830.743773
-66.107168,19,8830.931283
-84.348393,20,8831.13777
-65.174787,19,8831.325928
-79.493323,20,8831.542111
-59.987399,19,8831.724738
-105.495054,23,8831.945807
-77.163872,24,8832.177692
-68.377986,19,8832.356702
-85.63465,19,8832.553603
-67.374134,19,8832.745794
-75.975274,17,8832.911581
-71.311127,18,8833.087796
-80.365708,19,8833.268598
-63.178416,19,8833.450377
-81.698059,19,8833.6375
-103.388145,18,8833.835916
-91.919264,18,8834.012793
-70.063954,21,8834.209234
-66.312652,20,10022.343407
-75.938122,18,10022.54668
-74.297072,20,10022.792869
-81.270006,18,10023.003703
-76.031011,18,10023.210023
-73.228696,19,10023.431568
-82.501137,20,10023.658789
-73.451785,19,10023.88044
-59.361725,19,10024.094606
-75.713102,18,10024.314346
-83.380472,22,10024.569787
-77.192336,19,10024.793304
-81.964972,18,10024.988763
-58.823861,20,10025.238522
-82.630221,19,10025.461605
-64.229171,21,10025.699733
-42.624066,18,10025.886419
-92.907997,19,10026.086781
-84.788929,18,10026.30329
-67.856814,17,10026.496234
-65.225976,19,10026.730623
-76.525837,20,10026.950895
-59.31794,17,10027.129463
-76.81156,20,10027.349051
-70.72007,20,10027.57282
-94.105014,22,10027.836799
-73.302738,20,11162.87246
-56.518828,18,11163.109331
-83.387144,17,11163.319399
-77.798347,18,11163.556108
-72.904231,18,11163.820325
-79.424163,19,11164.061987
-54.121455,18,11164.309585
-73.243906,20,11164.56167
-57.6273,19,11164.8017
-82.270753,18,11165.057687
-91.944782,18,11165.296761
-83.735489,18,11165.550898
-63.690873,18,11165.787434
-56.954797,18,11166.025442
-47.31575,18,11166.262692
-68.752767,18,11166.509788
-76.993308,23,11166.808762
-79.967998,18,11167.059558
-69.959266,18,11167.308282
-72.801871,19,11167.574835
-77.737113,22,11167.848503
-92.195041,19,11168.10057
-82.064516,19,11168.352837
-83.31411,18,11168.583018
-85.266555,18,11168.813297
-109.221908,21,11169.089769
-56.865746,19,11169.332272
-79.417495,20,11169.609226
-77.310336,18,12350.687803
-69.867211,21,12350.885331
-72.12709,19,12351.057268
-72.713116,19,12351.23271
-76.327132,19,12351.400207
-84.25164,19,12351.596839
-75.965292,23,12351.842796
-90.427397,18,12352.029938
-73.729193,20,12352.222298
-61.269577,19,12352.407517
-58.941154,19,12352.606232
-84.380638,20,12352.81852
-60.946482,19,12353.038043
-61.503703,20,12353.245916
-74.665281,20,12353.455633
-94.070946,20,12353.654342
-73.644473,18,12353.831589
-73.273823,21,12354.054116
-89.29393,18,12354.26935
-72.644212,19,12354.492702
-73.098041,18,12354.680569
-65.737947,19,12354.888252
-72.49127,18,12355.0795
-90.392793,26,12355.391084
-65.476597,18,12355.58807
-85.427234,19,12355.806698
-74.723199,19,13444.178124
-66.421738,22,13444.356678
-76.557831,19,13444.511736
-58.863446,19,13444.668359
-63.976119,19,13444.818068
-70.472437,20,13444.983647
-77.322807,18,13445.123255
-58.313333,18,13445.265893
-60.398117,18,13445.4021
-71.843963,20,13445.56209
-82.375709,25,13445.752511
-82.275933,19,13445.903438
-49.792117,19,13446.05426
-59.524756,19,13446.196461
-66.94103,19,13446.341349
-50.18011,19,13446.496257
-66.398082,18,13446.642913
-74.917807,19,13446.793957
-78.213171,22,13446.974235
-61.210147,18,13447.112201
-71.461466,19,13447.262863
-53.92238,20,13447.421664
-79.642938,18,13447.567583
-59.957929,19,13447.713734
-57.394896,14,13447.829243
-69.145749,23,13448.009572
-70.453919,20,14363.390304
-50.284034,19,14363.522999
-77.089037,20,14363.658374
-55.433798,17,14363.783472
-61.082511,18,14363.92078
-79.884321,20,14364.065653
-74.56254,18,14364.197703
-76.772255,19,14364.343752
-52.689713,19,14364.485333
-53.309321,18,14364.617149
-82.570315,21,14364.764346
-115.814171,31,14364.982415
-54.020354,20,14365.122617
-65.348034,19,14365.26381
-97.484945,19,14365.412331
-56.863833,23,14365.585731
-60.634752,19,14365.727976
-72.320003,19,14365.863091
-71.500614,23,14366.024483
-86.390839,24,14366.193828
-73.780048,19,14366.329769
-66.713949,19,14366.471747
-86.554945,18,14366.610192
-69.097467,19,14366.744865
-67.513754,19,14366.886689
-61.700434,20,14367.024207
-58.065743,19,15373.892215
-72.192837,24,15374.090946
-60.362335,19,15374.247153
-59.982994,18,15374.397741
-82.673752,16,15374.525014
-86.643639,20,15374.691903
-75.820028,21,15374.876043
-60.99256,19,15375.03622
-59.887836,19,15375.196627
-61.252379,18,15375.338245
-96.925721,19,15375.494172
-75.244676,20,15375.666876
-96.570603,14,15375.77756
-68.860539,19,15375.95878
-71.279412,20,15376.125673
-67.616578,18,15376.270714
-91.878681,20,15376.439258
-52.98553,18,15376.588914
-61.327209,18,15376.737236
-75.333663,19,15376.903376
-66.834855,18,15377.064488
-55.99712,19,15377.226588
-64.39899,19,15377.391526
-58.209435,19,15377.550811
-69.848381,19,15377.712161
-72.687815,20,15377.87816
-68.704636,18,15378.032116
-55.940623,19,16315.521818
-66.394499,19,16315.659833
-59.732475,18,16315.78225
-71.901772,18,16315.927479
-83.901266,22,16316.093751
-57.61507,18,16316.229223
-60.826745,19,16316.360747
-78.167561,18,16316.490261
-64.774649,19,16316.625433
-78.768337,18,16316.760802
-48.923122,19,16316.89219
-73.76604,19,16317.032348
-61.295446,20,16317.169568
-73.801837,19,16317.304164
-56.304662,17,16317.418087
-63.666085,19,16317.54384
-74.501805,19,16317.686536
-82.853661,20,16317.830985
-79.369887,19,16317.968778
-56.758753,18,16318.094338
-65.665534,19,16318.232607
-73.924032,20,16318.37885
-63.216746,17,16318.504253
-64.225782,18,16318.62959
-55.485797,19,16318.76463
-69.234318,18,16318.895957
-55.192666,18,16319.020488
-60.461945,18,16319.144609
-76.085578,19,18522.172799
-81.278996,26,18522.628248
-51.257518,17,18522.902449
-57.787743,18,18523.085645
-51.304474,19,18523.220936
-51.046474,19,18523.360056
-85.218191,19,18523.50523
-81.223559,18,18523.633905
-65.264787,17,18523.769812
-54.31741,20,18523.935688
-59.517807,19,18524.086237
-69.051909,18,18524.249861
-61.32118,17,18524.561104
-63.931936,19,18524.776464
-63.571477,21,18525.103833
-51.068856,20,18525.395124
-41.955902,19,18525.612894
-52.417975,18,18525.945932
-62.439565,19,18526.159075
-79.015908,21,18526.462073
-75.483818,18,18526.772825
-54.769716,20,18526.973297
-66.515104,18,18527.276891
-79.850897,17,18527.429582
-71.231425,23,18527.770984
-60.562099,19,18528.09915
-75.570617,22,20730.110556
-52.430457,21,20730.456441
-56.975723,19,20730.679383
-56.882544,18,20730.929242
-54.949672,18,20731.180149
-52.931838,19,20731.406093
-43.594342,19,20731.733034
-60.652002,19,20731.935223
-59.203459,20,20732.24936
-55.052875,20,20732.545621
-61.938675,19,20732.763894
-58.265592,18,20733.078056
-59.73425,21,20733.347499
-67.916324,19,20733.581372
-54.665641,18,20733.922567
-74.654299,23,20734.191233
-64.35548,19,20734.462259
-66.671694,17,20734.731297
-55.009558,18,20735.032152
-54.790839,19,20735.35163
-57.963156,17,20735.632464
-60.953076,23,20735.995067
-56.785068,20,20736.331765
-50.830391,19,20736.671421
-51.791727,19,20737.003993
-51.216689,19,20737.318645
-53.95061,18,20737.608328
-67.920448,18,22929.60929
-70.127045,20,22929.883869
-64.864749,19,22930.17211
-56.146078,19,22930.366037
-60.817398,19,22930.689998
-44.701451,19,22930.91369
-40.899397,18,22931.164369
-72.035967,20,22931.489113
-67.719676,17,22931.661618
-53.01591,21,22932.023633
-64.40519,18,22932.197616
-57.984637,18,22932.489803
-81.319081,19,22932.751832
-39.908024,20,22933.002395
-67.672533,18,22933.326176
-69.91817,27,22933.685474
-41.681843,18,22933.865141
-44.784187,20,22934.215716
-53.880753,18,22934.38989
-61.754007,19,22934.679015
-45.707125,18,22934.886518
-59.2424,18,22935.179789
-66.648361,19,22935.530675
-65.388506,19,22935.844483
-59.468563,20,22936.196985
-47.163881,18,22936.522465
-59.775092,19,22936.814764
-80.59655,23,25108.336906
-49.10818,18,25108.567086
-71.148664,20,25108.898782
-56.252797,24,25109.161294
-57.505145,19,25109.41488
-53.918154,19,25109.758533
-52.730333,18,25109.936085
-74.515732,20,25110.300169
-69.43239,18,25110.620643
-63.204242,19,25110.94121
-65.639573,19,25111.244926
-81.188303,17,25111.521592
-69.795177,21,25111.860325
-56.857002,18,25112.140192
-79.525235,21,25112.505707
-48.961057,20,25112.847098
-52.784332,19,25113.18001
-55.523085,18,25113.481875
-65.198797,19,25113.812546
-52.281106,19,25113.990542
-53.397839,20,25114.127832
-45.182492,19,25114.263363
-37.10352,19,25114.41391
-46.196712,18,25114.557086
-43.216099,19,25114.703102
-52.999413,19,25114.84459
-64.22891,18,27287.844539
-50.906537,22,27288.214235
-48.659017,20,27288.430571
-68.291906,19,27288.698323
-64.950992,18,27288.952376
-58.548278,19,27289.247621
-53.735631,18,27289.537093
-60.72878,20,27289.876753
-64.087682,20,27290.227957
-65.483163,19,27290.565249
-81.086994,19,27290.895214
-67.126143,19,27291.239519
-47.505221,20,27291.565427
-70.545378,20,27291.825739
-53.500876,20,27292.143195
-56.331059,19,27292.472598
-61.187772,19,27292.772946
-61.838061,18,27292.896538
-60.714487,18,27293.019016
-49.317107,20,27293.157614
-65.970966,19,27293.292004
-54.171255,18,27293.426308
-44.263584,18,27293.574272
-55.183403,20,27293.738625
-55.935918,19,27293.887761
-55.933688,19,27294.03619
-47.251499,19,27294.244677
-54.329076,19,29457.603245
-51.037084,18,29457.783968
-59.681815,18,29458.071118
-53.806859,20,29458.361819
-49.753992,18,29458.561584
-55.073109,19,29458.86777
-67.154724,19,29459.059883
-52.918574,18,29459.374758
-57.471695,18,29459.57413
-62.148735,20,29459.857695
-48.654466,19,29460.196744
-64.546447,19,29460.374004
-55.872469,19,29460.688305
-47.240831,19,29460.867006
-60.206082,18,29461.16275
-63.795892,20,29461.429038
-43.840845,19,29461.645198
-50.897634,18,29461.925529
-51.39692,19,29462.225679
-48.09179,20,29462.569895
-43.13149,19,29462.836528
-45.802428,19,29463.175224
-65.167693,20,29463.506511
-49.078143,18,29463.831552
-47.754842,19,29464.140091
-56.22496,19,29464.456779
-46.277613,18,29464.689512
-48.7182,19,31621.742412
-51.046565,18,31621.872216
-62.179832,19,31622.021743
-50.750667,18,31622.175131
-41.624736,21,31622.342986
-50.71531,19,31622.492777
-83.082381,23,31622.813704
-51.328216,20,31623.053341
-52.718979,19,31623.36888
-51.707906,19,31623.590965
-56.554515,24,31623.934823
-43.291791,19,31624.194396
-41.637698,19,31624.423111
-53.34094,19,31624.746397
-58.343291,18,31624.904701
-47.580578,19,31625.212203
-61.919117,23,31625.467559
-58.138611,19,31625.727049
-42.142937,20,31626.03708
-51.777059,21,31626.278124
-58.698117,20,31626.58801
-54.134901,18,31626.810646
-61.684475,18,31627.056947
-87.62736,25,31627.444737
-54.036491,19,31627.6159
-49.002445,19,31627.908003
-42.800677,19,33773.380185
-47.76384,19,33773.705859
-52.431391,20,33773.849375
-59.698098,19,33773.981069
-48.323159,18,33774.108324
-36.835558,20,33774.249099
-45.759098,19,33774.38458
-54.42064,18,33774.516951
-46.744815,19,33774.641871
-36.731013,19,33774.775902
-52.846047,18,33774.89934
-45.481511,22,33775.044979
-43.92808,18,33775.171417
-46.749319,19,33775.312442
-53.993258,19,33775.457604
-52.40239,19,33775.600904
-63.150925,18,33775.727077
-72.505346,17,33775.865861
-61.427742,19,33775.999512
-67.414947,19,33776.303803
-51.617501,20,33776.51154
-50.148034,20,33776.785539
-49.460951,20,33777.044436
-42.303443,19,33777.371627
-49.101503,19,33777.544854
-42.867115,21,33777.866745
-49.39336,21,35912.524972
-47.112569,19,35912.667917
-51.375009,19,35912.801611
-65.304722,18,35912.93722
-45.02065,21,35913.093744
-46.83967,20,35913.246124
-45.078232,19,35913.40713
-52.567261,20,35913.57489
-34.989228,19,35913.719364
-46.897287,19,35913.869371
-58.786375,18,35914.171057
-48.558677,19,35914.372776
-59.334051,20,35914.660132
-60.000591,19,35914.878341
-46.158681,19,35915.21117
-48.899717,19,35915.362539
-56.447197,23,35915.714808
-52.274379,19,35915.990302
-52.010429,19,35916.223268
-54.303901,23,35916.578869
-56.31478,22,35916.859945
-60.252723,22,35917.139684
-32.023214,19,35917.468438
-49.10952,19,35917.684026
-49.796022,19,35917.958681
-36.839664,19,35918.251582
-57.712225,19,35918.481233
-47.171137,19,38059.617876
-49.696188,20,38059.851752
-39.125724,18,38060.103351
-40.008849,20,38060.411804
-48.579091,22,38060.641858
-58.570521,19,38060.951522
-45.114597,19,38061.231306
-45.733397,19,38061.4336
-49.789208,19,38061.724383
-61.375696,18,38061.933723
-48.818583,19,38062.25739
-39.750665,19,38062.484459
-43.080872,19,38062.789288
-51.245144,20,38063.132429
-36.266924,19,38063.442777
-47.136392,19,38063.736377
-38.656986,19,38064.077206
-45.643256,19,38064.393389
-35.77801,20,38064.732662
-56.306192,20,38065.093645
-57.661931,23,38065.419338
-48.602128,18,38065.756703
-55.998278,20,38066.101101
-53.230525,19,38066.424881
-34.380458,21,38066.575794
-49.064504,18,38066.698642
-67.698191,18,40208.25207
-39.359448,17,40208.459477
-57.293102,19,40208.715757
-50.967589,19,40208.960915
-54.299733,20,40209.212379
-52.845323,21,40209.564161
-45.545855,18,40209.718897
-47.127303,20,40210.042877
-53.51826,17,40210.297462
-50.481402,20,40210.553638
-42.412242,19,40210.868572
-44.410955,18,40211.010876
-55.471405,20,40211.344711
-42.657388,20,40211.565791
-48.364774,19,40211.834494
-61.734223,18,40212.108019
-47.977731,18,40212.388729
-51.538753,19,40212.682153
-59.865642,19,40212.97529
-50.0258,21,40213.320231
-72.614962,27,40213.725425
-56.639988,18,40214.052298
-47.378335,22,40214.415745
-45.868882,21,40214.778258
-39.762026,18,40215.024936
-72.589156,19,40215.341521
-56.070957,19,42352.379798
-54.203391,24,42352.742649
-59.251198,17,42352.940892
-59.495889,24,42353.263245
-57.055686,19,42353.589292
-38.398695,19,42353.745619
-53.030168,19,42354.070502
-41.294407,20,42354.275461
-39.141293,21,42354.571533
-56.701466,19,42354.911614
-46.956044,19,42355.215037
-48.390747,19,42355.535874
-43.944434,18,42355.780221
-52.952576,19,42356.136453
-55.941349,20,42356.490086
-50.032632,19,42356.821723
-52.896203,18,42357.14895
-53.61779,20,42357.495353
-40.723592,20,42357.714916
-47.61767,19,42358.030706
-45.045203,19,42358.351137
-63.077479,20,42358.676106
-60.132903,20,42358.809702
-59.014067,21,42358.95177
-40.202359,19,42359.093991
-44.839616,19,42359.24103
-47.418553,19,44486.230522
-47.967883,20,44486.514313
-49.587151,20,44486.742731
-47.802708,20,44487.068154
-36.463258,20,44487.308373
-34.855559,19,44487.563031
-52.804094,22,44487.921886
-36.305896,19,44488.150681
-77.301672,19,44488.407981
-57.191389,20,44488.672652
-45.014145,19,44488.91183
-28.429668,20,44489.249935
-63.516629,22,44489.513692
-31.192443,19,44489.812183
-45.795433,20,44490.138917
-46.867195,20,44490.469115
-56.131727,21,44490.832187
-55.8559,21,44491.178514
-55.910756,18,44491.462706
-41.711357,20,44491.800673
-53.587306,19,44492.104833
-32.071811,20,44492.391182
-44.272602,19,44492.734326
-51.729764,22,44493.098331
-54.143728,19,44493.42462
-40.444199,21,44493.562488
-39.967789,20,46613.248097
-45.368839,19,46613.568093
-53.566577,18,46613.827054
-56.999176,19,46614.070297
-58.796854,18,46614.396123
-48.604838,21,46614.568588
-49.407739,20,46614.897422
-39.54165,19,46615.112274
-43.048269,19,46615.363321
-42.199718,18,46615.604804
-30.484154,19,46615.844847
-54.563853,19,46616.183776
-51.301713,18,46616.351409
-47.995294,19,46616.653447
-35.139535,20,46616.824528
-49.331694,19,46617.1374
-43.072563,19,46617.419453
-44.232167,18,46617.623073
-43.779002,19,46617.968056
-76.965833,21,46618.328141
-55.772145,22,46618.688527
-48.381384,19,46618.903396
-52.1926,20,46619.222191
-47.117403,19,46619.561479
-43.476599,20,46619.903478
-33.020941,19,46620.236859
-56.849774,17,46620.544173
-35.544957,18,48735.370213
-37.605513,19,48735.542502
-30.90483,19,48735.81285
-56.619051,28,48736.158308
-54.815882,18,48736.425211
-47.144843,21,48736.795251
-29.435008,19,48736.966447
-40.742827,19,48737.274701
-47.26026,19,48737.5491
-47.516592,19,48737.756506
-49.387866,20,48738.08283
-45.961221,18,48738.275305
-39.292357,19,48738.594838
-30.706449,19,48738.822878
-41.281532,19,48739.079059
-47.405227,20,48739.432791
-55.103219,18,48739.598158
-48.170072,19,48739.913495
-47.87847,19,48740.091075
-44.163115,20,48740.413095
-41.974078,19,48740.631317
-44.854087,20,48740.898365
-44.250227,18,48741.224508
-42.575241,20,48741.549118
-53.576867,18,48741.826492
-35.817444,20,48742.098709
-42.705427,20,50848.724147
-43.29427,19,50848.984643
-43.701982,19,50849.228161
-39.998013,18,50849.398798
-41.606711,20,50849.726214
-41.309228,21,50849.994449
-59.384133,20,50850.265296
-42.810224,19,50850.589772
-34.68818,20,50850.817633
-52.260003,20,50851.074467
-59.963655,24,50851.44665
-51.502991,20,50851.596247
-42.155873,20,50851.90573
-35.76758,18,50852.080945
-36.582506,19,50852.391592
-51.994243,19,50852.648299
-41.951602,19,50852.881053
-49.342238,19,50853.170108
-52.792211,19,50853.377954
-48.249529,19,50853.685742
-42.823247,20,50853.853575
-50.597475,18,50854.162315
-31.337199,19,50854.340625
-47.046597,23,50854.673257
-44.458798,19,50854.972952
-45.073475,18,50855.250151
-44.959651,19,52929.460027
-42.105933,21,52929.727813
-40.208151,19,52930.038143
-38.810992,20,52930.323961
-45.673208,20,52930.546527
-52.087688,19,52930.870198
-35.357754,19,52931.004421
-37.718948,20,52931.301929
-42.09601,19,52931.526817
-34.007712,20,52931.842213
-55.526801,20,52932.093301
-40.877489,20,52932.344904
-45.256396,20,52932.688142
-35.455951,19,52932.862492
-41.385805,19,52933.171613
-38.842679,21,52933.331846
-49.407966,19,52933.668765
-59.72418,20,52933.867638
-49.408561,19,52934.154475
-47.874167,19,52934.448808
-45.27224,19,52934.78935
-51.222244,20,52935.13067
-32.742944,19,52935.339673
-48.891785,20,52935.658721
-33.81158,20,52935.981659
-44.374172,19,52936.301832
-46.749915,25,55017.712967
-43.62484,19,55018.019521
-44.724915,19,55018.291418
-55.241727,19,55018.541008
-39.001402,19,55018.854795
-42.752094,20,55019.001078
-41.24428,19,55019.296721
-31.695625,20,55019.516867
-39.626015,21,55019.841795
-48.371752,20,55020.121277
-36.393482,20,55020.365249
-33.956409,21,55020.708466
-55.73124,27,55021.102837
-46.736769,20,55021.240498
-44.60478,19,55021.53419
-46.106087,20,55021.759574
-37.700313,20,55022.074812
-35.243598,19,55022.313369
-45.990731,19,55022.599438
-42.477273,19,55022.925174
-49.178672,26,55023.30405
-39.426471,20,55023.65554
-42.034945,21,55024.017059
-43.522558,19,55024.350404
-50.229288,20,55024.714077
-50.447012,20,57111.441507
-48.101287,19,57111.77264
-40.582716,20,57111.978331
-84.068039,24,57112.35263
-40.633255,21,57112.693719
-46.014344,19,57112.843865
-45.711561,19,57113.167297
-40.035152,19,57113.333894
-42.352822,19,57113.640275
-40.302053,20,57113.901456
-36.071016,20,57114.218683
-43.632537,19,57114.510092
-35.001106,21,57114.831964
-35.486213,19,57115.114806
-39.644258,20,57115.477462
-47.523236,20,57115.838748
-51.970389,23,57116.227793
-36.195149,19,57116.567249
-34.266087,20,57116.813282
-34.074795,19,57117.14351
-36.455545,20,57117.482444
-32.798009,19,57117.791022
-44.099303,20,57117.949516
-40.170177,19,57118.08569
-32.637258,19,57118.217155
-30.281548,19,57118.356122
-26.077642,20,59184.881032
-48.528524,30,59185.199576
-37.747276,19,59185.534671
-38.630139,20,59185.725574
-34.473929,21,59186.063831
-40.115706,20,59186.327545
-37.357952,19,59186.64702
-35.636382,19,59186.941776
-46.724791,20,59187.243636
-34.421281,27,59187.646679
-31.331691,19,59187.983902
-36.231357,20,59188.276582
-39.09033,19,59188.576523
-32.909613,19,59188.919491
-44.576208,24,59189.208724
-35.872597,19,59189.539358
-33.462343,20,59189.890082
-36.178406,20,59190.233652
-45.795001,19,59190.371357
-28.052156,20,59190.510924
-31.884158,22,59190.668291
-45.99366,19,59190.808727
-34.576847,20,59190.962258
-41.460153,19,59191.108665
-48.631096,19,59191.255445
-48.093407,19,61269.522046
-39.524494,24,61269.693751
-28.418166,20,61269.843869
-36.864994,20,61269.987627
-41.943913,20,61270.139006
-36.810391,19,61270.283609
-37.24827,20,61270.430041
-37.28678,20,61270.572874
-36.855894,20,61270.725538
-42.55913,22,61271.004708
-43.24743,20,61271.25177
-29.886137,19,61271.416142
-46.145308,19,61271.732449
-27.896681,20,61271.929344
-40.502745,19,61272.240714
-31.571385,19,61272.434567
-36.460386,21,61272.733537
-42.28405,19,61273.049723
-39.266137,20,61273.273238
-42.281831,19,61273.588093
-52.436964,19,61273.753944
-39.184712,18,61274.06174
-46.540238,20,61274.250396
-38.785556,21,61274.54771
-41.82129,19,61274.853158
-37.196686,19,61275.061496
-41.282584,20,63346.662185
-45.318834,23,63347.041004
-30.651789,19,63347.367129
-44.894422,20,63347.712958
-29.948318,20,63347.89921
-32.922904,20,63348.251309
-37.518651,20,63348.611403
-38.635929,20,63348.963048
-45.786541,21,63349.31393
-39.460821,21,63349.639791
-27.803911,20,63349.885517
-37.910179,22,63350.272995
-34.492648,19,63350.592753
-36.435836,20,63350.849862
-46.45775,19,63350.978509
-38.761341,20,63351.126289
-37.749889,24,63351.300842
-59.425028,21,63351.45623
-33.308057,20,63351.613182
-31.901908,20,63351.767587
-31.515466,20,63351.915305
-38.138791,19,63352.084963
-32.684415,19,63352.430567
-38.616703,20,63352.619818
-33.723874,20,63352.920999
-40.632507,20,65418.838452
-26.959071,20,65419.084132
-36.583517,20,65419.353727
-41.029004,18,65419.652707
-45.665476,20,65419.807217
-50.999596,21,65420.119005
-35.512294,20,65420.357109
-37.707136,20,65420.673553
-35.288755,19,65420.953768
-43.413864,19,65421.287063
-26.825098,19,65421.569188
-41.029948,19,65421.842411
-50.369178,20,65422.150184
-32.956869,20,65422.487214
-46.997137,20,65422.828603
-46.138742,22,65423.208489
-27.989706,20,65423.569464
-39.949464,19,65423.779988
-34.78355,17,65424.06216
-42.801924,20,65424.379816
-41.343508,19,65424.695673
-40.350864,19,65424.934414
-34.864102,20,65425.074771
-28.375422,19,65425.218014
-39.548167,20,65425.36364
-29.444283,19,65425.506781
-34.920379,21,67483.860144
-33.621908,20,67484.195101
-33.4276,20,67484.381973
-39.325427,20,67484.585844
-31.209084,20,67484.877595
-47.982562,21,67485.216239
-40.156349,17,67485.386564
-33.4222,19,67485.711126
-35.06896,20,67485.985569
-34.896862,20,67486.25987
-32.410885,19,67486.572489
-28.808618,21,67486.740172
-28.873355,21,67487.079544
-35.945442,20,67487.337009
-32.166872,20,67487.584648
-39.567556,21,67487.930803
-31.415975,19,67488.133125
-33.99336,20,67488.422433
-27.941116,20,67488.76924
-40.818609,20,67488.907418
-38.559272,18,67489.136815
-36.775125,20,67489.397099
-30.587734,22,67489.763654
-28.913844,20,67490.041769
-27.695376,22,67490.406695
-28.865894,20,67490.74442
-36.292283,20,69550.426496
-33.822586,22,69550.802018
-44.550528,19,69551.136955
-34.228883,19,69551.461
-40.456513,23,69551.692639
-41.59825,23,69552.09728
-30.7052,20,69552.438654
-33.3197,21,69552.712061
-40.939365,20,69552.853261
-34.97888,26,69553.025346
-36.364677,20,69553.171595
-34.625031,19,69553.302984
-32.306924,22,69553.46763
-38.504498,19,69553.634805
-27.725845,19,69553.7851
-39.132018,19,69553.933936
-40.130929,19,69554.189751
-45.615387,20,69554.45101
-44.185789,20,69554.659646
-32.295086,20,69554.969424
-35.135537,20,69555.238374
-19.534965,21,69555.518814
-32.314311,20,69555.827904
-34.592726,19,69556.09607
-32.001082,20,69556.347478
-41.559015,20,70490.626434
-32.858537,20,70490.765542
-34.221511,19,70490.893687
-32.721659,20,70491.036308
-34.213645,19,70491.162403
-36.814789,20,70491.298594
-32.236388,19,70491.424158
-37.569978,27,70491.620614
-33.088724,19,70491.760636
-29.085975,19,70491.890126
-45.534053,28,70492.078874
-35.069686,19,70492.206997
-32.040156,19,70492.349204
-22.296702,19,70492.477949
-27.892335,19,70492.622293
-31.739381,20,70492.77053
-29.000954,19,70492.907625
-32.656874,20,70493.049458
-43.247834,20,70493.190792
-38.71062,21,70493.331568
-27.156362,21,70493.4752
-38.126196,23,70493.629382
-29.988744,19,70493.762139
-35.699477,21,70493.908243
-43.61385,20,70494.056228
-32.536557,20,71257.310347
-26.374921,20,71257.444022
-31.133153,20,71257.572359
-32.44195,21,71257.716573
-26.17588,20,71257.853632
-37.875946,20,71257.993278
-32.184513,20,71258.134916
-36.775185,22,71258.292629
-40.951846,19,71258.426478
-34.449329,20,71258.566844
-34.778788,20,71258.698848
-35.872958,20,71258.840687
-36.14637,19,71258.972219
-32.536476,20,71259.105787
-31.091206,20,71259.241847
-46.455413,25,71259.409182
-35.131302,19,71259.54308
-28.833819,20,71259.685911
-32.786886,21,71259.838146
-26.55039,21,71259.987921
-44.654763,20,71260.122583
-27.829039,20,71260.255883
-28.330809,21,71260.405645
-41.795882,20,71260.548198
-33.216408,19,71260.690507
-36.711353,19,72024.680969
-34.393322,21,72024.836305
-32.782941,19,72024.972115
-32.236163,21,72025.121193
-38.057812,21,72025.265584
-31.23605,19,72025.407082
-32.492392,19,72025.54109
-32.850765,20,72025.675322
-27.112262,21,72025.817436
-29.497988,20,72025.970989
-31.641211,19,72026.103062
-36.508622,20,72026.242824
-34.495939,20,72026.384512
-29.955866,20,72026.526824
-35.913114,22,72026.681164
-29.741186,23,72026.83532
-43.933543,20,72026.975897
-36.319056,19,72027.115432
-42.530264,20,72027.251706
-43.41912,19,72027.382577
-34.472176,20,72027.520856
-35.309416,19,72027.652366
-46.67444,19,72027.776922
-31.834966,19,72027.912849
-30.370336,19,72028.043314
-30.952732,20,72028.176351
-41.875785,20,72792.784177
-34.09598,20,72792.921651
-31.992758,19,72793.05337
-32.297119,20,72793.188531
-34.501784,19,72793.31865
-36.269123,19,72793.446912
-36.913658,19,72793.581045
-31.096074,19,72793.706563
-18.668352,20,72793.84207
-31.382046,20,72793.986548
-34.944579,20,72794.117857
-31.539987,20,72794.255635
-33.899599,19,72794.395481
-37.586949,21,72794.537001
-26.736071,20,72794.682821
-27.747759,20,72794.828535
-35.915591,19,72794.966561
-37.231605,23,72795.124962
-39.480942,17,72795.242695
-41.773728,19,72795.368953
-29.245814,19,72795.507793
-42.449459,20,72795.645834
-36.525904,19,72795.779401
-36.728292,19,72795.91576
-32.492379,20,72796.05856
-31.331808,19,72796.194611
-31.576091,20,73559.810625
-33.760131,20,73559.945876
-48.146682,29,73560.158955
-42.408817,19,73560.292735
-32.390852,19,73560.422615
-27.68441,20,73560.563792
-28.723398,20,73560.709316
-36.452113,20,73560.855079
-28.615821,20,73560.993654
-36.17012,19,73561.131287
-23.630041,20,73561.284123
-27.643474,19,73561.415879
-19.988348,22,73561.575998
-40.509285,19,73561.706228
-33.494494,19,73561.836587
-37.826681,19,73561.977162
-33.150468,20,73562.113132
-35.704596,19,73562.247136
-30.478984,20,73562.381724
-28.070688,20,73562.524944
-36.986745,19,73562.652873
-32.698929,21,73562.795704
-44.883237,19,73562.937749
-32.874667,19,73563.069442
-32.633866,22,73563.228315
-44.6617,19,73563.358063
-38.236861,20,74326.368581
-27.365883,19,74326.504317
-31.385258,20,74326.64623
-38.536714,20,74326.792299
-29.616304,19,74326.920831
-41.194707,21,74327.071781
-36.485657,19,74327.205566
-38.588239,21,74327.35707
-35.16389,19,74327.48649
-34.447634,20,74327.625785
-32.60639,20,74327.765964
-40.349069,22,74327.911328
-25.238053,19,74328.043512
-40.458541,19,74328.174826
-30.949359,19,74328.300776
-39.350495,26,74328.48719
-32.404097,20,74328.623468
-31.390254,19,74328.761864
-32.793956,19,74328.892497
-38.028611,19,74329.022601
-38.562558,18,74329.13866
-32.43549,21,74329.291721
-40.962919,17,74329.41117
-27.695168,20,74329.5587
-27.999902,19,74329.691094
-30.763117,21,74329.83301
-40.419203,21,75093.313581
-35.490454,19,75093.440945
-34.67518,19,75093.572199
-40.279219,19,75093.705609
-29.473023,20,75093.844958
-31.747717,20,75093.987709
-29.795855,19,75094.118576
-34.454227,19,75094.246726
-41.60961,19,75094.374413
-28.921609,20,75094.513527
-44.424112,20,75094.65352
-41.650574,22,75094.807868
-34.311744,23,75094.96022
-35.99315,21,75095.10122
-45.979711,19,75095.226887
-22.095581,21,75095.375431
-33.374922,19,75095.511395
-31.701149,19,75095.643322
-45.461387,22,75095.80499
-38.714276,21,75095.949935
-39.014479,20,75096.0829
-26.165756,19,75096.219155
-26.375249,20,75096.364628
-29.790118,19,75096.501514
-25.55699,20,75096.642945
-24.678344,21,75860.535859
-30.347729,19,75860.661819
-37.387379,20,75860.796343
-36.519664,21,75860.946633
-30.519314,19,75861.084321
-45.369677,21,75861.240552
-30.119358,20,75861.373844
-26.962041,19,75861.503897
-21.848836,20,75861.641507
-41.344364,19,75861.773287
-30.610359,19,75861.904022
-32.053647,19,75862.027597
-33.555694,19,75862.160943
-25.538997,19,75862.290354
-29.73564,20,75862.429193
-31.804984,19,75862.558739
-48.991383,18,75862.686959
-40.936904,20,75862.819294
-19.19413,20,75862.957134
-28.702607,20,75863.098111
-28.972841,19,75863.221084
-27.438472,19,75863.35732
-32.275923,19,75863.498107
-30.79042,20,75863.638173
-32.971392,19,75863.770284
-40.494928,19,75863.902891
-40.573006,19,76627.85998
-39.812164,18,76627.974432
-32.298178,19,76628.110028
-36.061896,19,76628.244573
-30.121246,21,76628.385925
-22.231854,20,76628.524401
-36.807059,20,76628.657764
-25.808139,21,76628.799626
-30.498286,19,76628.934949
-25.956935,20,76629.089442
-28.54891,19,76629.217065
-19.221094,20,76629.349525
-39.407587,21,76629.496666
-32.674629,19,76629.633665
-38.39807,21,76629.77871
-30.392566,21,76629.92878
-37.481109,19,76630.062211
-34.043371,20,76630.203448
-24.960182,21,76630.340413
-19.221133,20,76630.486004
-34.152785,20,76630.630913
-32.016845,19,76630.770323
-27.637569,20,76630.905896
-37.765379,19,76631.038263
-28.419156,20,76631.17923
-30.217715,20,76631.31968
-32.409914,20,77395.334323
-31.128724,20,77395.465905
-30.007672,19,77395.590785
-27.772274,19,77395.724276
-21.737998,20,77395.859746
-27.360535,19,77396.0024
-32.721823,20,77396.147738
-36.635801,20,77396.277998
-29.544275,21,77396.42937
-29.414739,20,77396.573084
-36.773366,19,77396.698164
-38.331399,21,77396.838065
-20.580289,20,77396.975201
-42.879488,22,77397.129114
-33.200064,20,77397.252985
-32.177192,22,77397.403391
-42.436005,22,77397.557916
-29.048661,22,77397.71458
-38.246061,20,77397.845958
-31.14321,20,77397.983907
-30.144447,20,77398.123482
-34.535791,23,77398.28574
-41.545252,21,77398.431316
-31.210203,20,77398.568193
-35.649694,19,77398.704476
-29.032616,20,78163.688019
-20.663822,20,78163.832334
-33.049024,20,78163.974367
-37.274598,19,78164.108182
-27.126969,20,78164.241171
-35.349908,21,78164.381167
-37.908393,19,78164.516115
-41.628889,20,78164.64667
-22.452426,19,78164.776277
-28.264529,20,78164.919999
-36.908077,20,78165.065334
-30.870253,20,78165.206776
-31.789855,20,78165.350401
-21.690421,20,78165.494827
-43.856099,21,78165.638581
-36.150785,19,78165.765445
-32.567275,20,78165.910193
-29.340202,20,78166.041533
-41.653121,18,78166.169217
-34.878808,21,78166.320487
-26.31245,21,78166.470103
-31.041334,20,78166.610598
-27.5742,20,78166.756083
-34.770338,20,78166.893967
-27.807631,20,78167.03495
-29.102135,20,78167.180228
-36.111142,20,78931.383485
-24.518604,20,78931.525481
-30.539728,20,78931.665196
-24.320892,21,78931.809221
-31.216119,20,78931.953095
-32.006985,20,78932.09695
-31.142248,21,78932.238453
-27.35032,25,78932.403974
-29.494946,20,78932.548051
-32.953905,19,78932.666562
-37.441217,19,78932.796773
-22.485786,20,78932.936961
-38.410914,21,78933.081136
-41.366036,18,78933.199064
-16.899406,20,78933.328384
-32.826339,19,78933.455762
-27.42425,21,78933.597463
-34.147983,20,78933.739695
-34.040301,20,78933.877477
-36.806193,28,78934.072558
-23.120384,20,78934.207669
-27.038839,19,78934.334856
-26.780515,20,78934.478398
-40.432111,17,78934.600433
-24.314519,20,78934.748215
-25.062381,19,79696.345534
-31.88902,20,79696.483203
-43.40731,20,79696.610684
-30.386672,21,79696.750125
-30.059463,21,79696.899559
-22.783534,20,79697.034158
-20.390196,20,79697.17712
-33.364773,20,79697.3129
-26.034271,21,79697.469185
-23.34458,20,79697.610652
-25.250956,20,79697.750127
-35.93848,20,79697.888538
-28.875929,19,79698.020787
-35.953756,19,79698.146618
-33.657624,21,79698.298223
-25.706552,21,79698.445503
-30.797505,20,79698.578955
-40.682251,18,79698.704308
-25.63313,21,79698.848468
-28.559909,19,79698.977354
-33.766182,19,79699.112628
-36.559828,21,79699.254261
-23.372207,20,79699.39696
-32.337188,20,79699.533028
-34.431387,20,79699.675074
-32.786134,20,79699.818591
-34.101564,20,80464.541942
-33.985754,26,80464.725263
-33.177468,19,80464.858614
-29.896071,21,80464.99767
-36.117033,21,80465.147015
-29.048543,20,80465.285178
-29.992977,20,80465.438511
-22.521257,24,80465.613387
-15.760544,21,80465.764964
-28.462084,20,80465.897813
-31.472665,20,80466.0425
-32.840068,19,80466.179675
-34.140188,25,80466.357417
-18.422629,20,80466.50212
-27.295458,19,80466.6416
-26.136408,20,80466.78524
-30.306928,20,80466.936878
-31.861525,20,80467.071947
-20.792216,20,80467.213677
-26.034769,20,80467.35087
-27.534748,23,80467.511796
-33.276007,19,80467.647719
-29.280518,20,80467.783838
-37.493996,20,80467.926326
-30.37113,21,80468.068535
-29.959817,21,81232.964845
-20.080201,21,81233.117967
-20.376541,21,81233.26465
-28.297511,20,81233.400315
-15.03817,21,81233.543683
-35.648844,21,81233.69078
-26.892373,20,81233.827383
-33.438623,23,81233.983821
-24.704343,20,81234.124476
-25.062064,20,81234.270094
-27.280867,20,81234.406576
-28.636544,23,81234.570871
-19.729262,19,81234.709276
-41.793739,24,81234.872017
-36.096663,20,81235.018157
-24.941546,21,81235.161493
-27.088654,20,81235.303903
-26.935461,20,81235.460148
-24.863312,20,81235.603931
-26.918585,21,81235.748699
-36.814545,23,81235.906903
-41.74132,26,81236.08293
-29.259235,20,81236.223089
-22.08336,21,81236.37334
-38.519841,22,81999.32815
-29.94041,20,81999.463785
-34.035917,20,81999.612419
-24.913256,20,81999.753841
-20.722548,21,81999.910448
-30.264978,20,82000.051615
-29.563311,20,82000.192452
-26.455568,20,82000.335778
-29.05007,21,82000.474219
-26.976994,20,82000.61069
-25.259629,20,82000.749712
-26.444044,20,82000.894346
-30.834902,17,82001.010537
-29.95761,27,82001.19745
-27.740638,21,82001.337654
-37.813012,20,82001.481006
-27.142781,19,82001.615276
-23.807123,20,82001.755383
-26.857691,22,82001.906505
-24.634567,21,82002.053901
-27.689844,20,82002.197239
-29.201403,19,82002.323314
-28.039295,19,82002.458051
-29.380239,20,82002.594269
-20.06138,21,82002.742078
-29.443521,21,82766.125969
-20.992852,20,82766.265565
-27.475641,19,82766.395306
-38.396823,19,82766.529149
-29.399667,20,82766.662196
-29.188802,21,82766.8002
-29.192969,18,82766.918723
-39.746963,20,82767.057485
-32.099156,22,82767.209971
-29.815786,19,82767.350243
-28.714557,20,82767.492383
-28.339762,20,82767.625435
-30.397683,19,82767.760069
-38.150708,21,82767.907409
-29.570734,20,82768.05323
-27.79313,21,82768.200101
-23.617312,20,82768.343462
-23.328853,19,82768.479425
-19.171042,20,82768.622743
-24.391867,20,82768.754797
-28.554823,20,82768.89499
-29.41553,20,82769.044232
-32.022277,20,82769.191468
-28.892067,20,82769.33276
-32.375406,21,82769.471666
-30.602842,22,82769.621299
-18.648577,20,83532.696511
-21.800426,20,83532.838907
-32.991192,21,83532.990162
-27.158274,20,83533.135283
-26.037942,22,83533.289279
-19.66475,21,83533.434797
-38.548358,19,83533.57659
-17.078321,19,83533.703224
-25.775752,19,83533.832356
-28.639445,26,83534.011826
-24.443312,20,83534.147086
-20.554138,20,83534.28641
-25.445901,22,83534.433924
-41.000128,21,83534.573155
-25.628189,22,83534.71453
-31.394406,20,83534.855339
-29.382141,21,83534.997505
-28.611746,19,83535.131412
-25.395712,20,83535.267222
-36.953021,22,83535.416552
-26.250666,21,83535.569897
-18.272567,21,83535.713074
-31.17797,20,83535.85762
-27.762833,21,83536.000212
-21.267495,21,84298.333987
-31.009427,20,84298.468761
-39.132287,24,84298.632601
-27.402443,20,84298.772929
-31.864753,19,84298.909316
-24.781999,20,84299.052037
-26.557508,20,84299.195007
-29.570457,20,84299.334184
-33.689604,22,84299.485577
-40.98182,20,84299.62869
-17.450604,20,84299.759418
-33.612478,21,84299.899591
-42.252367,22,84300.065954
-30.911694,19,84300.195157
-21.04398,21,84300.349072
-21.374249,20,84300.489924
-27.603902,20,84300.631184
-36.389437,22,84300.780375
-34.261952,21,84300.924989
-19.883704,27,84301.10659
-26.905344,21,84301.243399
-22.668119,20,84301.373879
-28.932395,21,84301.525522
-32.890637,20,84301.673294
-21.569592,20,84301.817495
-23.057962,21,85064.512242
-19.579989,20,85064.653716
-33.135314,20,85064.787498
-26.640152,20,85064.913515
-19.310635,20,85065.044722
-25.990312,20,85065.186706
-25.929899,20,85065.324118
-26.521956,20,85065.461974
-27.770693,19,85065.593642
-34.053031,23,85065.754213
-24.711681,20,85065.88975
-28.423652,21,85066.037539
-32.089084,22,85066.19129
-22.308885,21,85066.331422
-33.647025,21,85066.484077
-31.110729,19,85066.608477
-32.323938,20,85066.744653
-30.506747,19,85066.881483
-24.594795,20,85067.021549
-25.745646,20,85067.153589
-31.975718,20,85067.284934
-22.760065,20,85067.421048
-19.027399,21,85067.568746
-21.774955,22,85067.718144
-22.256469,20,85067.852932
-24.510711,20,85832.213858
-20.650679,20,85832.351884
-25.390489,20,85832.490913
-27.558826,25,85832.664032
-29.184251,19,85832.796305
-31.898093,22,85832.953567
-28.195223,20,85833.089791
-19.841933,21,85833.230832
-21.616252,21,85833.371579
-35.306534,19,85833.500848
-23.437499,21,85833.660044
-25.418762,20,85833.800059
-26.198971,20,85833.938047
-25.834834,20,85834.072379
-21.781691,20,85834.214278
-32.240944,24,85834.393558
-27.945555,20,85834.534827
-45.524128,29,85834.738286
-25.846786,21,85834.887007
-38.185737,20,85835.024638
-34.697634,20,85835.163523
-24.595084,20,85835.304102
-26.869787,20,85835.447276
-30.175816,19,85835.583704
-17.680144,20,85835.722175
-33.210942,21,86597.399454
-35.316799,20,86597.530148
-25.164332,20,86597.66771
-31.13965,21,86597.816835
-25.288383,21,86597.962262
-26.083535,20,86598.100886
-28.688413,19,86598.230203
-31.372246,20,86598.372783
-24.961106,21,86598.512891
-27.204653,19,86598.644692
-15.672514,20,86598.782926
-33.063154,20,86598.916274
-31.484085,20,86599.052364
-22.93702,21,86599.204918
-23.966697,20,86599.342682
-19.62748,21,86599.493149
-20.955781,20,86599.629485
-30.705526,22,86599.771556
-29.861768,22,86599.913905
-15.92628,22,86600.074948
-33.935562,21,86600.220861
-34.997495,25,86600.397664
-27.043291,20,86600.53736
-32.685713,22,86600.691332
-29.742334,22,87366.586547
-23.010419,23,87366.743865
-23.413618,21,87366.887783
-28.096928,17,87367.001631
-21.407798,21,87367.153949
-26.295825,21,87367.299618
-26.169511,20,87367.443045
-29.174448,22,87367.594312
-22.337742,20,87367.740604
-25.842672,21,87367.884471
-20.801563,20,87368.026639
-23.436407,20,87368.172964
-24.099515,21,87368.324741
-30.073848,20,87368.457149
-26.95274,20,87368.587166
-29.207127,20,87368.7211
-31.995847,19,87368.856742
-23.702097,20,87368.994373
-23.074765,21,87369.14048
-16.419081,20,87369.282284
-27.769783,20,87369.424321
-32.767669,19,87369.552917
-29.13044,20,87369.694257
-16.688872,20,87369.83509
-22.377129,20,87369.982974
-24.096854,21,88135.285545
-22.481967,20,88135.437229
-20.079536,20,88135.581568
-40.585036,21,88135.7344
-22.114436,20,88135.877223
-29.924198,19,88136.009469
-35.95221,18,88136.140439
-25.012185,21,88136.290506
-25.945007,21,88136.44356
-28.571436,20,88136.589496
-22.408157,20,88136.734247
-21.311787,20,88136.881367
-24.404262,20,88137.022988
-30.622934,21,88137.176937
-26.003072,20,88137.321276
-19.131812,20,88137.463953
-28.179512,20,88137.603298
-28.658238,20,88137.741756
-23.233682,20,88137.882558
-25.309648,19,88138.018303
-24.669825,20,88138.165457
-35.202215,20,88138.30013
-18.159914,21,88138.457011
-25.826593,21,88138.608603
-25.102956,22,88138.754659
-24.200183,21,88138.90284
-14.528654,21,88956.121878
-32.523692,21,88956.267342
-14.570909,20,88956.398118
-34.869172,24,88956.567814
-25.897004,21,88956.723043
-23.952666,20,88956.860403
-22.803443,20,88956.996179
-17.738912,20,88957.129757
-28.384373,20,88957.269276
-27.250541,19,88957.395596
-24.082809,20,88957.540104
-20.86709,20,88957.684911
-19.854238,19,88957.839295
-28.134107,19,88958.00294
-18.186777,21,88958.181197
-24.759398,20,88958.339314
-27.645658,22,88958.53159
-27.503834,21,88958.698066
-28.242938,21,88958.872258
-29.876855,22,88959.0578
-20.41269,20,88959.231799
-17.512915,20,88959.39061
-25.910092,21,88959.569302
-21.752197,20,88959.738624
-42.199265,18,88959.881344
-22.980104,20,89734.763778
-27.751845,21,89734.902539
-10.892525,19,89735.032032
-14.980344,21,89735.182757
-18.997616,21,89735.328671
-23.281814,21,89735.477688
-15.682256,20,89735.610038
-21.841579,20,89735.748722
-31.682864,19,89735.871324
-30.497869,20,89736.005839
-23.328738,20,89736.142009
-17.423451,20,89736.280659
-25.787576,23,89736.430457
-23.278387,20,89736.560983
-29.932373,20,89736.701399
-31.006549,22,89736.846346
-25.643669,20,89736.985456
-25.728537,20,89737.134963
-37.325357,20,89737.270921
-30.280894,20,89737.407082
-22.465019,20,89737.548496
-24.738114,22,89737.701065
-27.035595,21,89737.849638
-27.655941,21,89738.000467
-27.456958,20,89738.136808
-25.642272,21,90508.963224
-29.179175,21,90509.114075
-29.032587,21,90509.257097
-24.872678,20,90509.398064
-25.638885,20,90509.532585
-19.311182,20,90509.673478
-23.392128,20,90509.815362
-25.529507,19,90509.94762
-20.157209,24,90510.114101
-26.576554,19,90510.245747
-12.500219,22,90510.391951
-21.569438,20,90510.532154
-25.097485,19,90510.659698
-27.400313,21,90510.810681
-20.660844,21,90510.965759
-25.24685,20,90511.11411
-21.606012,20,90511.255745
-23.438968,20,90511.390979
-28.828835,21,90511.54539
-18.496256,20,90511.688934
-27.618482,21,90511.848715
-27.08213,20,90511.993902
-30.463127,20,90512.143807
-24.677913,20,90512.282834
-26.272123,22,90512.433467
-27.474911,19,91407.670571
-20.944879,20,91407.841642
-24.895372,19,91408.007068
-22.784161,20,91408.167985
-18.214809,20,91408.336304
-24.533616,19,91408.487279
-23.941095,20,91408.64926
-23.359906,22,91408.836554
-25.690414,20,91409.003488
-22.851389,20,91409.17002
-31.751033,21,91409.343586
-30.841808,21,91409.506865
-24.44848,19,91409.667809
-19.533781,20,91409.832685
-22.128742,21,91410.001154
-24.781079,20,91410.170282
-22.308287,21,91410.337973
-29.02614,20,91410.504644
-17.720261,20,91410.669896
-23.203552,20,91410.828631
-30.365194,20,91410.997885
-26.124618,20,91411.157951
-39.82781,18,91411.305635
-21.552249,21,91411.479529
-25.313475,21,91411.649715
-29.815677,20,92343.366596
-31.884455,21,92343.510125
-20.783537,20,92343.654855
-28.654107,19,92343.778517
-24.664708,20,92343.907056
-31.809027,20,92344.047952
-23.102557,20,92344.191151
-22.522434,20,92344.332844
-20.527478,20,92344.468942
-27.695729,19,92344.596709
-18.665683,20,92344.729009
-25.157671,19,92344.853117
-30.16658,19,92344.983437
-23.395513,19,92345.111777
-29.67394,20,92345.253723
-19.017902,20,92345.392102
-22.803445,20,92345.524686
-23.024993,20,92345.660841
-25.933304,20,92345.798438
-22.921769,20,92345.930695
-34.973212,20,92346.076487
-26.165326,21,92346.223315
-19.051039,20,92346.360793
-20.789199,20,92346.491093
-15.056932,20,92346.6203
-25.655928,20,92346.752819
-26.250267,19,93109.986006
-26.376399,20,93110.118996
-18.144221,20,93110.26427
-25.355085,19,93110.387035
-21.398721,20,93110.520695
-19.495261,19,93110.657301
-20.596338,20,93110.802614
-12.714534,20,93110.938424
-26.696038,20,93111.075189
-23.416517,20,93111.213293
-30.199746,22,93111.354656
-24.059989,22,93111.505241
-17.874528,21,93111.64731
-18.981436,21,93111.779626
-13.639769,20,93111.91465
-18.673655,19,93112.037101
-20.947337,20,93112.173737
-29.725312,19,93112.304892
-17.945695,21,93112.450151
-26.956406,20,93112.596282
-23.174369,19,93112.71975
-28.556951,21,93112.866161
-19.750082,20,93113.002271
-10.596957,21,93113.146557
-25.312496,21,93113.289818
-30.267755,17,93113.401893
-23.236277,20,93876.357815
-27.564723,21,93876.502917
-24.942109,22,93876.651348
-19.621796,20,93876.784996
-23.623735,20,93876.923548
-20.315336,22,93877.074035
-25.068215,20,93877.214101
-16.563713,19,93877.344917
-21.530426,20,93877.490546
-28.32301,22,93877.644987
-24.886202,20,93877.786181
-22.447375,21,93877.933428
-22.391738,18,93878.071754
-24.514029,21,93878.217532
-28.345386,20,93878.355974
-22.02248,20,93878.495121
-25.209601,20,93878.631949
-26.009375,22,93878.78009
-28.331313,20,93878.9271
-30.166955,20,93879.069955
-32.194894,17,93879.189945
-27.547478,23,93879.335065
-22.740361,20,93879.475278
-24.94071,20,93879.615235
-17.338283,20,93879.749485
-25.379497,20,94643.86607
-23.207599,22,94644.014088
-18.319526,20,94644.151141
-24.362513,18,94644.271494
-32.781435,21,94644.413566
-33.889344,22,94644.561716
-23.474797,24,94644.719445
-24.127384,20,94644.855694
-17.18451,21,94644.998352
-32.630118,20,94645.141159
-26.499073,22,94645.288556
-33.573756,20,94645.43173
-26.674032,20,94645.572304
-20.245043,22,94645.727678
-19.78536,20,94645.860622
-19.301932,21,94646.000045
-23.180774,20,94646.132936
-28.580767,21,94646.282245
-23.444096,21,94646.423532
-30.198137,21,94646.577112
-20.363153,23,94646.733531
-16.959639,20,94646.869512
-13.589307,21,94647.013297
-20.585664,20,94647.14659
-15.148956,21,95409.934258
-28.069342,21,95410.079493
-19.446244,20,95410.219598
-20.529511,22,95410.372944
-27.358439,19,95410.505241
-17.28302,21,95410.649531
-30.171434,22,95410.801925
-20.908315,21,95410.953416
-26.838709,20,95411.097414
-24.536845,19,95411.231384
-16.884985,20,95411.378946
-15.158,20,95411.521055
-24.855217,20,95411.655475
-27.199093,20,95411.802453
-17.696819,20,95411.943968
-16.53115,20,95412.076398
-21.738474,22,95412.231818
-26.970206,20,95412.362111
-25.478225,20,95412.49709
-23.635389,20,95412.633352
-22.705686,20,95412.766754
-21.976316,21,95412.913201
-32.24784,22,95413.055993
-26.570805,20,95413.203651
-21.363374,22,95413.351061
-17.178039,20,96176.734766
-20.952577,20,96176.871204
-28.933896,20,96177.004508
-24.444872,20,96177.140147
-17.130544,19,96177.27376
-27.407741,20,96177.409195
-18.371722,20,96177.552048
-24.820038,19,96177.685673
-19.787031,21,96177.825598
-24.082121,21,96177.974816
-17.504443,21,96178.1254
-21.823407,20,96178.267418
-17.711057,20,96178.411518
-24.617556,19,96178.538501
-27.485154,20,96178.670678
-22.317803,21,96178.823233
-26.73728,21,96178.970467
-22.353143,21,96179.110023
-24.898866,20,96179.24933
-19.684128,21,96179.400229
-20.440862,20,96179.539158
-14.118928,20,96179.672593
-26.479209,20,96179.805907
-26.095279,20,96179.943391
-23.218998,21,96180.087774
-14.943179,20,96180.23205
-15.242671,20,96945.499857
-16.048623,20,96945.632457
-27.058228,20,96945.765999
-22.842607,20,96945.90905
-16.8205,20,96946.055217
-21.056534,20,96946.188495
-20.508616,20,96946.313385
-17.821958,20,96946.459929
-20.393674,20,96946.605997
-27.276197,20,96946.74323
-16.857425,20,96946.884138
-16.469749,20,96947.025605
-18.191986,20,96947.16027
-20.802948,20,96947.29892
-26.989392,20,96947.42961
-16.881562,20,96947.574544
-20.204817,21,96947.728359
-21.171205,21,96947.881662
-13.417889,22,96948.031621
-21.904684,21,96948.179705
-18.417101,20,96948.328448
-21.610968,20,96948.478436
-17.118424,20,96948.610845
-23.274463,20,96948.750158
-15.73862,19,96948.878319
-17.579657,21,97712.7274
-25.631386,20,97712.856349
-19.276022,20,97712.992347
-20.517366,20,97713.121984
-25.813491,19,97713.256971
-18.196315,21,97713.407029
-19.425462,20,97713.541472
-33.974884,20,97713.680328
-26.163037,20,97713.811613
-20.56205,20,97713.949199
-22.483165,20,97714.081111
-18.693704,20,97714.220785
-33.965108,20,97714.351942
-22.129605,20,97714.490131
-19.852575,20,97714.620866
-30.183574,21,97714.766587
-26.463648,20,97714.901828
-14.247305,21,97715.044073
-19.334122,21,97715.191999
-12.85708,21,97715.337062
-20.957819,20,97715.473753
-25.056648,20,97715.616847
-19.66174,20,97715.74955
-19.920323,21,97715.892147
-15.782067,20,97716.026125
-17.115096,20,98480.437591
-24.210141,20,98480.573847
-26.626623,20,98480.710101
-17.792597,20,98480.842461
-35.502416,20,98480.983436
-23.078208,19,98481.118969
-26.176342,19,98481.253005
-19.528607,19,98481.384392
-11.748066,20,98481.523061
-21.157723,19,98481.656534
-12.810525,20,98481.793557
-14.246062,20,98481.925319
-27.557811,19,98482.054417
-21.62856,19,98482.181446
-24.138463,20,98482.320503
-24.404293,20,98482.454693
-26.772536,20,98482.594577
-19.746374,20,98482.736024
-19.670427,20,98482.871693
-23.054897,19,98482.998085
-17.907951,20,98483.137641
-25.989846,20,98483.278422
-22.22753,20,98483.428306
-21.781172,19,98483.562826
-13.769255,20,98483.701328
-27.190339,20,98483.839659
-16.089091,19,98483.962174
-25.253264,21,99250.060048
-18.732721,20,99250.199112
-22.489401,20,99250.327972
-37.020951,20,99250.460717
-18.645591,21,99250.605443
-16.37262,20,99250.742721
-19.629246,20,99250.886926
-25.636463,19,99251.011878
-24.741502,19,99251.142403
-26.815934,20,99251.281167
-20.892488,20,99251.426924
-22.828506,19,99251.567597
-23.922495,19,99251.708531
-23.018304,20,99251.8513
-23.232002,20,99251.990317
-19.894791,19,99252.121144
-19.75912,20,99252.256637
-16.70947,21,99252.39824
-24.8691,18,99252.52919
-23.538069,19,99252.661874
-22.930851,19,99252.799817
-19.917577,20,99252.933499
-16.886125,20,99253.064359
-18.860552,20,99253.208695
-18.212249,20,99253.344905
-18.649136,20,100018.433186
-23.281114,20,100018.578559
-14.073811,20,100018.727671
-20.63488,20,100018.858592
-17.1492,20,100018.991901
-26.834352,20,100019.130901
-20.083918,20,100019.270329
-11.463853,20,100019.408503
-26.881706,21,100019.562395
-14.36808,20,100019.69876
-23.754767,20,100019.841942
-19.919157,21,100019.988592
-23.738631,20,100020.130122
-16.02103,20,100020.263247
-16.874987,20,100020.39825
-13.264216,20,100020.53501
-22.855929,20,100020.670593
-26.836964,16,100020.778691
-17.733021,20,100020.91946
-21.097727,19,100021.056885
-20.334853,19,100021.193207
-20.785317,20,100021.334127
-21.512975,20,100021.475204
-17.952645,21,100021.623555
-35.343465,18,100021.74657
-14.691582,19,100021.870943
-22.403141,20,100785.767357
-28.951374,20,100785.90889
-16.345587,20,100786.04832
-15.188875,19,100786.175181
-16.176053,20,100786.31083
-25.700209,20,100786.449176
-20.980907,20,100786.601523
-21.614582,20,100786.740348
-22.592369,19,100786.868431
-22.298652,21,100787.018972
-17.785654,19,100787.154712
-18.17261,20,100787.290519
-23.159295,20,100787.432448
-17.376771,20,100787.564566
-16.30064,20,100787.698087
-17.290916,20,100787.82641
-23.264935,21,100787.975378
-20.874915,19,100788.111086
-19.463048,20,100788.252093
-23.845214,20,100788.400937
-27.763727,21,100788.541794
-22.482717,20,100788.677357
-21.300099,21,100788.837763
-20.781988,19,100788.958558
-24.37863,20,100789.106936
-18.888085,19,100789.239249
-17.878229,20,101552.901012
-16.919523,21,101553.040522
-20.010717,21,101553.192664
-30.516663,21,101553.338618
-15.778958,20,101553.472322
-15.205209,20,101553.609574
-12.921223,21,101553.753466
-19.597593,19,101553.89339
-23.399721,20,101554.033728
-17.834061,19,101554.161108
-20.044809,22,101554.317438
-17.413206,19,101554.454087
-30.999094,18,101554.581572
-16.089916,19,101554.716731
-16.489426,20,101554.844594
-27.233795,20,101554.977999
-29.268671,20,101555.112865
-28.534006,20,101555.251178
-16.319006,20,101555.387389
-16.961748,20,101555.523768
-17.227544,20,101555.662801
-17.695934,20,101555.807582
-19.705195,20,101555.945558
-17.200902,20,101556.08203
-11.856961,20,101556.219142
-19.68512,20,101556.367414
-24.526048,19,102320.578037
-14.396795,20,102320.722475
-22.065111,21,102320.870912
-20.471085,20,102321.008502
-21.921292,20,102321.1588
-19.261344,19,102321.29244
-17.716932,20,102321.425218
-22.676847,22,102321.573246
-23.524711,20,102321.714137
-18.473374,20,102321.847802
-22.463682,18,102321.973924
-18.069161,20,102322.115382
-14.149881,20,102322.258556
-24.35083,20,102322.393926
-13.14024,20,102322.535595
-22.6665,19,102322.661319
-18.117662,20,102322.804554
-14.240242,20,102322.947254
-18.037214,21,102323.099297
-20.816402,20,102323.236495
-16.516324,20,102323.378024
-19.21808,20,102323.511818
-12.592705,20,102323.657069
-16.862381,20,102323.792763
-16.389558,19,102323.923854
-18.587982,20,103088.853632
-22.36709,20,103089.000277
-25.758082,20,103089.144306
-28.478256,19,103089.283764
-20.460687,21,103089.429006
-13.427614,20,103089.558789
-23.880053,19,103089.69156
-25.679997,19,103089.820088
-22.084748,19,103089.954599
-15.793284,20,103090.094333
-19.810745,21,103090.234334
-22.92625,20,103090.365839
-13.437513,21,103090.513127
-12.693158,20,103090.657528
-13.94089,19,103090.794027
-25.704213,19,103090.930915
-14.500441,20,103091.072539
-18.073343,20,103091.217209
-20.865726,20,103091.355249
-25.543802,19,103091.487768
-15.762837,20,103091.628825
-17.158462,20,103091.770746
-18.423843,20,103091.906183
-19.621165,20,103092.045023
-27.53942,20,103092.187547
-23.953709,19,103092.318755
-13.360673,20,103857.5988
-39.32194,19,103857.726459
-27.198635,20,103857.871085
-17.303739,20,103858.017252
-31.00299,18,103858.148923
-20.207911,20,103858.295964
-18.388287,20,103858.443605
-14.733562,20,103858.589484
-23.75975,20,103858.733933
-7.591697,21,103858.879647
-23.126633,21,103859.029567
-14.851118,20,103859.170983
-15.318656,20,103859.316519
-12.38622,20,103859.461227
-22.737481,19,103859.596748
-18.903412,21,103859.741592
-22.996774,20,103859.889421
-13.945064,19,103860.030239
-17.992501,19,103860.170016
-18.988174,20,103860.313974
-18.759388,19,103860.45029
-17.517334,20,103860.599276
-20.378292,20,103860.747327
-24.883855,20,103860.885605
-15.312824,20,103861.026228
-20.932191,23,103861.183879
-20.670128,20,104634.375231
-17.341718,20,104634.515374
-20.068718,20,104634.660921
-18.318612,19,104634.802264
-16.897023,20,104634.949884
-10.578173,19,104635.089685
-17.981306,20,104635.2277
-24.620846,21,104635.382597
-16.620395,20,104635.530043
-17.136686,21,104635.679721
-10.919572,20,104635.832189
-17.437314,20,104635.985118
-22.881351,20,104636.136435
-24.595132,19,104636.273733
-10.302638,20,104636.417833
-11.349545,20,104636.565258
-28.183798,18,104636.691513
-19.247567,20,104636.838014
-17.084137,20,104636.98394
-14.64886,20,104637.123188
-13.940816,20,104637.267476
-23.669938,21,104637.414753
-21.395501,19,104637.553392
-16.183113,20,104637.695307
-27.162273,19,104637.831833
-24.664461,21,104637.978641
-20.361428,20,105412.437387
-18.346886,19,105412.574992
-19.739837,20,105412.717355
-22.965553,20,105412.865082
-18.773069,20,105413.008716
-14.420489,21,105413.168265
-18.049084,19,105413.299103
-13.938285,21,105413.453751
-13.334611,20,105413.594227
-22.137948,20,105413.736534
-11.587331,19,105413.876206
-18.976782,20,105414.015301
-25.793698,19,105414.151618
-15.844675,20,105414.301358
-16.118373,20,105414.441394
-25.513622,20,105414.584959
-20.973068,20,105414.733755
-22.90489,20,105414.878613
-15.65187,19,105415.017015
-12.877265,20,105415.159555
-20.8129,20,105415.306726
-35.179049,20,105415.460885
-15.795289,21,105415.606927
-26.197924,20,105415.746607
-26.171568,20,105415.885433
-23.050684,21,106189.000171
-14.694336,20,106189.149709
-17.269705,19,106189.2852
-17.010515,22,106189.447357
-21.915841,20,106189.585099
-16.813266,18,106189.71918
-23.142741,20,106189.863312
-15.883567,20,106190.007455
-32.400805,19,106190.141905
-18.05121,20,106190.287987
-14.054003,20,106190.430209
-18.27912,20,106190.574509
-16.661821,20,106190.722794
-16.492091,20,106190.86868
-18.63408,20,106191.008837
-17.975196,20,106191.162589
-17.434275,20,106191.306354
-10.535367,20,106191.447957
-23.916147,20,106191.588585
-25.982665,19,106191.718158
-14.816653,20,106191.868084
-13.083015,20,106192.009057
-11.439878,20,106192.151505
-10.384407,20,106192.301721
-21.158825,21,106192.461
-19.646834,18,106192.584551
-25.176873,19,106964.807956
-16.864395,20,106964.947448
-24.200891,17,106965.07306
-20.049369,20,106965.214962
-21.431938,21,106965.366037
-20.146582,19,106965.494936
-18.431181,19,106965.632792
-16.93465,21,106965.785139
-11.729755,20,106965.92925
-21.674124,20,106966.07344
-12.72924,21,106966.228263
-20.579859,21,106966.376537
-22.644319,20,106966.510247
-27.223107,21,106966.661132
-21.320303,19,106966.791316
-17.660953,20,106966.940113
-19.398212,20,106967.082958
-8.853699,20,106967.228826
-13.005323,21,106967.374883
-20.407871,21,106967.5143
-9.211368,21,106967.659387
-14.373535,21,106967.807692
-13.44743,21,106967.959299
-16.535906,20,106968.103405
-21.321902,20,106968.247075
-15.529321,19,106968.378737
-21.324404,21,107742.036738
-16.781565,21,107742.187347
-22.572311,20,107742.335285
-17.848128,19,107742.465357
-14.567684,21,107742.614409
-11.512129,21,107742.772156
-24.039256,22,107742.920921
-20.327705,20,107743.066579
-16.044219,20,107743.216657
-11.123307,20,107743.363765
-8.717829,21,107743.517962
-19.408142,20,107743.65959
-18.50371,21,107743.817617
-13.452367,22,107743.975739
-10.139463,23,107744.139077
-25.370899,20,107744.27482
-28.744182,21,107744.423875
-14.530919,20,107744.570682
-24.144201,20,107744.71373
-19.218718,21,107744.862606
-19.508271,20,107745.007699
-18.750824,19,107745.145281
-17.949041,19,107745.27436
-26.158952,20,107745.407908
-10.823758,20,107745.550507
-18.03149,21,108512.094176
-10.896832,20,108512.240612
-21.842611,19,108512.381873
-11.850798,19,108512.520391
-19.421884,20,108512.661305
-15.155303,20,108512.795742
-21.905772,23,108512.949624
-17.445406,20,108513.094647
-19.251414,20,108513.237019
-19.911788,20,108513.377738
-12.443394,21,108513.520737
-13.8194,20,108513.660111
-21.85906,20,108513.802094
-22.131611,21,108513.948374
-16.934078,21,108514.089513
-18.328107,20,108514.225834
-17.239302,21,108514.376149
-20.591441,20,108514.5064
-14.602955,20,108514.64733
-9.20047,21,108514.802349
-17.649395,20,108514.943524
-12.902262,20,108515.077002
-20.307093,20,108515.217494
-15.588177,21,108515.36466
-15.797006,21,108515.511726
-12.710179,21,109281.28209
-26.117428,19,109281.410536
-18.045151,21,109281.568588
-20.047707,20,109281.711175
-24.958747,19,109281.848104
-14.392018,20,109281.991019
-14.673782,21,109282.138608
-15.996252,21,109282.28664
-12.472895,21,109282.432326
-16.318655,20,109282.577266
-16.198621,20,109282.727847
-15.477485,20,109282.860421
-17.32191,20,109282.993177
-16.96542,20,109283.137959
-19.982605,19,109283.274676
-9.125398,21,109283.427023
-20.968269,20,109283.564308
-22.901156,19,109283.698317
-16.942948,20,109283.839216
-15.345622,20,109283.984298
-17.60084,20,109284.12505
-36.624138,19,109284.260278
-14.389735,20,109284.407512
-15.152327,21,109284.564614
-17.162076,20,109284.707413
-19.581991,21,110051.638562
-23.806293,21,110051.778823
-14.007265,20,110051.91745
-23.0412,18,110052.043143
-12.67795,20,110052.18805
-14.158451,20,110052.323874
-16.832768,20,110052.46119
-15.197838,21,110052.615408
-8.997339,20,110052.749758
-16.153042,20,110052.885249
-15.861931,20,110053.028466
-15.653691,20,110053.163209
-17.042123,19,110053.2986
-6.467531,19,110053.429043
-17.010826,21,110053.579589
-19.564845,20,110053.724748
-14.907595,19,110053.852965
-19.96396,21,110053.989647
-13.992212,21,110054.127018
-13.944628,20,110054.269584
-19.511449,19,110054.392002
-24.971379,20,110054.526216
-19.935641,20,110054.662692
-19.661175,20,110054.806722
-18.251329,20,110054.947963
-9.669302,20,110055.091085
-12.974527,21,110819.580267
-17.707652,20,110819.718265
-15.832166,20,110819.851541
-15.499653,20,110819.989357
-13.493019,22,110820.141171
-19.448324,20,110820.288249
-13.734485,20,110820.43007
-22.136975,20,110820.573997
-27.415034,20,110820.708752
-13.235162,19,110820.847615
-17.236343,20,110820.984797
-21.495544,20,110821.126549
-13.470989,20,110821.259581
-19.611347,20,110821.395869
-14.458645,21,110821.536269
-15.510887,21,110821.680124
-9.021191,20,110821.826528
-13.420618,20,110821.964703
-16.481724,20,110822.104455
-21.353326,20,110822.245697
-20.691804,20,110822.396135
-10.222991,20,110822.536579
-14.469739,20,110822.678126
-13.752925,20,110822.804765
-15.21893,20,110822.938781
-19.378998,20,111589.685708
-13.431319,20,111589.826979
-17.792715,20,111589.966259
-22.914623,17,111590.090208
-9.586062,20,111590.229609
-18.459312,20,111590.372758
-19.720543,20,111590.51587
-19.275622,20,111590.654223
-10.9448,20,111590.791967
-16.094527,21,111590.941287
-21.045693,19,111591.073229
-21.046499,25,111591.239666
-21.027198,20,111591.373068
-15.540634,20,111591.517246
-12.044781,20,111591.6566
-20.990274,22,111591.810077
-24.014386,19,111591.939615
-10.471104,21,111592.08093
-12.169547,21,111592.221499
-10.031593,20,111592.353783
-21.077079,20,111592.492766
-17.385144,20,111592.635362
-16.457868,20,111592.77992
-22.048108,23,111592.927099
-18.151295,20,111593.060381
-13.993505,21,112358.671939
-19.067207,19,112358.802304
-18.116783,21,112358.943694
-21.635817,21,112359.078682
-19.443774,20,112359.211441
-15.155102,21,112359.354311
-14.545598,21,112359.493815
-19.634138,20,112359.630484
-13.773046,21,112359.774733
-16.436204,21,112359.920382
-15.671647,22,112360.075327
-18.940689,20,112360.214427
-7.464952,21,112360.359063
-21.148715,20,112360.502896
-19.937242,20,112360.639196
-18.142566,21,112360.788854
-20.538368,21,112360.932692
-15.651019,20,112361.070938
-13.857837,20,112361.209575
-15.337636,20,112361.34848
-20.277044,19,112361.472253
-20.882647,20,112361.602142
-18.900864,20,112361.727717
-17.142459,20,112361.869141
-15.017756,21,112362.0238
-14.692797,20,113129.159557
-17.387232,20,113129.297667
-15.107138,20,113129.430172
-16.422713,20,113129.5674
-19.817193,19,113129.699761
-11.115975,20,113129.83545
-13.154122,21,113129.973167
-8.576134,20,113130.107913
-26.283204,21,113130.249363
-27.640911,20,113130.384859
-12.476048,20,113130.521825
-15.462584,20,113130.66943
-19.079192,20,113130.816963
-19.281329,19,113130.951332
-8.887177,21,113131.094983
-19.252838,21,113131.250558
-13.910839,19,113131.379738
-21.041847,25,113131.552583
-38.8504,17,113131.669369
-8.529793,21,113131.808903
-8.282213,20,113131.9503
-18.25196,20,113132.085253
-13.431889,20,113132.223683
-20.954796,19,113132.355801
-19.596905,20,113132.502934
-13.849219,20,113132.636817
-19.47398,20,113896.212457
-13.077594,20,113896.347579
-14.220092,19,113896.480716
-14.103647,20,113896.616727
-12.706713,20,113896.755746
-15.962449,20,113896.901546
-21.165924,20,113897.042285
-17.09485,20,113897.188494
-15.422572,20,113897.327127
-19.470826,21,113897.479836
-12.802929,21,113897.62518
-17.266596,25,113897.798621
-20.732855,19,113897.931578
-22.496228,20,113898.069366
-9.360458,21,113898.219183
-17.204268,20,113898.355428
-9.996362,21,113898.502092
-12.864424,20,113898.63708
-13.742857,20,113898.782448
-19.93068,20,113898.914994
-11.349193,20,113899.050763
-21.826219,20,113899.186997
-7.565268,21,113899.333656
-17.423672,20,113899.470213
-16.1245,20,113899.615121
-10.131026,20,114662.985018
-14.453016,21,114663.126962
-13.698499,20,114663.266192
-14.314226,20,114663.400422
-25.645589,20,114663.528004
-14.466366,20,114663.661883
-17.623758,20,114663.796654
-27.561483,20,114663.940379
-19.141763,20,114664.085733
-17.310231,20,114664.225574
-11.14443,21,114664.368981
-17.052632,19,114664.489479
-19.916454,20,114664.617715
-18.208595,20,114664.759814
-11.382014,20,114664.892244
-11.570182,20,114665.025429
-20.176951,20,114665.165778
-14.403219,20,114665.306234
-17.693549,19,114665.437339
-13.221125,20,114665.576864
-9.037375,20,114665.710462
-15.778391,20,114665.841528
-9.783109,20,114665.975811
-25.655677,19,114666.112445
-12.270503,20,114666.24809
-19.090609,19,114666.384583
-18.956868,20,115430.572365
-11.89541,21,115430.71184
-20.240596,20,115430.842773
-14.96126,20,115430.982752
-7.796678,20,115431.119178
-16.400493,20,115431.263372
-18.442004,20,115431.403321
-11.274239,20,115431.538655
-18.739145,20,115431.677449
-21.65957,19,115431.818941
-14.616753,22,115431.976269
-18.866774,20,115432.105322
-20.854207,20,115432.243485
-11.829784,20,115432.383731
-11.144203,22,115432.536097
-11.445993,20,115432.668379
-16.756124,19,115432.796765
-16.379249,21,115432.942053
-10.515933,20,115433.07613
-12.975292,22,115433.227191
-18.568815,20,115433.374048
-19.354878,20,115433.498215
-13.89503,22,115433.65239
-11.96907,23,115433.818858
-20.516339,20,115433.944394
-8.981083,20,116198.467243
-21.161487,21,116198.606752
-15.836299,20,116198.750829
-20.048867,20,116198.88245
-14.494625,20,116199.012024
-11.818425,19,116199.143661
-14.27756,20,116199.282781
-14.875646,22,116199.439965
-25.371273,17,116199.559915
-11.679207,20,116199.697465
-13.03939,20,116199.836493
-14.284018,20,116199.972884
-9.559039,20,116200.111143
-12.628731,21,116200.263495
-8.69611,20,116200.406729
-15.157402,19,116200.534764
-14.992143,21,116200.67646
-8.885925,20,116200.810743
-13.247905,20,116200.944458
-20.693319,20,116201.084359
-13.283278,21,116201.229681
-15.817335,20,116201.376146
-18.523648,19,116201.50785
-13.462102,22,116201.66658
-19.867879,19,116201.792792
-14.36253,20,116965.330343
-14.923241,21,116965.471848
-8.65225,22,116965.628052
-18.36921,20,116965.768352
-24.014265,21,116965.921705
-22.99793,20,116966.061667
-17.245615,20,116966.204092
-12.342739,20,116966.341576
-12.107312,20,116966.479517
-26.088497,19,116966.613178
-10.250928,20,116966.752609
-16.53733,20,116966.88809
-17.055998,20,116967.024744
-20.299156,20,116967.16283
-23.825831,22,116967.310993
-12.093331,21,116967.458836
-30.548868,19,116967.587821
-20.508021,19,116967.720001
-14.764221,21,116967.865008
-19.635126,20,116968.005013
-11.31219,20,116968.137689
-19.371925,21,116968.28349
-9.714167,19,116968.418618
-13.885038,22,116968.573738
-11.732142,20,116968.715719
-12.062352,20,116968.856292
-6.428366,22,117732.781528
-18.428046,20,117732.912837
-9.044618,21,117733.057994
-20.216569,21,117733.204779
-20.456207,21,117733.343729
-11.811531,20,117733.490403
-20.50899,18,117733.606163
-12.79303,20,117733.750243
-24.82132,20,117733.895843
-20.976948,20,117734.034304
-11.556583,20,117734.171234
-8.918541,21,117734.310118
-16.742535,21,117734.462358
-15.860578,19,117734.596244
-25.267869,20,117734.735618
-10.254333,22,117734.882722
-12.850001,19,117735.019621
-14.441029,19,117735.156049
-11.615249,24,117735.32599
-10.531344,22,117735.474862
-22.390652,19,117735.600573
-21.57052,21,117735.741667
-6.745853,21,117735.883414
-19.633897,19,117736.024156
-17.657184,21,117736.168158
-14.956051,20,118499.944722
-10.024452,21,118500.096847
-12.309465,20,118500.235166
-26.081767,21,118500.387856
-29.325007,20,118500.523227
-17.185234,21,118500.661391
-13.006214,20,118500.79564
-17.092172,20,118500.938181
-13.272946,20,118501.075951
-12.585612,25,118501.251757
-8.170952,20,118501.393676
-18.529238,24,118501.56327
-16.818749,21,118501.702985
-16.557791,22,118501.846642
-14.56793,20,118501.984555
-20.267325,20,118502.125962
-19.650808,20,118502.255135
-14.228911,20,118502.390937
-12.645188,22,118502.542953
-19.185035,21,118502.686913
-13.124111,20,118502.830122
-19.726674,19,118502.962288
-12.574704,20,118503.098656
-14.015907,20,118503.233389
-22.019603,22,119268.085219
-9.722578,20,119268.221453
-13.186726,20,119268.363107
-9.431403,19,119268.491619
-13.995058,19,119268.617941
-15.93384,21,119268.768255
-14.743312,21,119268.913899
-9.816756,21,119269.053247
-15.905312,20,119269.203421
-20.085768,20,119269.339292
-14.231035,20,119269.477714
-9.212738,20,119269.614473
-14.892409,22,119269.76782
-9.330302,23,119269.929842
-11.630734,20,119270.068695
-17.703451,19,119270.202075
-19.766029,20,119270.33969
-14.086489,20,119270.477653
-8.827394,20,119270.618221
-23.800209,22,119270.770131
-13.296066,22,119270.928154
-10.25222,22,119271.071505
-10.763673,21,119271.212682
-10.653187,21,119271.360375
-17.648889,21,119271.498443
-15.915936,20,120035.626931
-16.002637,19,120035.758928
-11.417515,22,120035.910554
-10.448209,22,120036.061187
-11.188888,21,120036.206381
-13.333012,20,120036.338724
-13.403787,20,120036.467005
-16.374727,22,120036.619582
-9.612383,21,120036.763692
-26.017044,22,120036.913689
-13.032419,20,120037.049368
-13.464453,22,120037.201651
-20.134097,21,120037.339827
-28.902737,22,120037.486651
-13.547247,19,120037.618651
-15.782393,20,120037.749467
-23.102743,22,120037.891695
-20.991457,21,120038.033222
-9.326218,22,120038.181973
-12.224837,21,120038.319132
-16.542643,19,120038.448082
-27.260635,20,120038.588353
-23.955156,20,120038.724574
-16.153638,21,120038.875001
-6.422959,19,120039.009393
-13.24269,22,120804.568857
-18.304068,21,120804.709144
-14.63942,20,120804.844049
-14.168085,22,120804.991072
-10.428993,21,120805.129169
-14.618015,21,120805.277627
-19.219697,20,120805.4262
-13.155575,21,120805.56969
-21.070792,19,120805.693066
-25.843544,23,120805.853964
-14.020614,24,120806.017672
-22.79213,20,120806.152837
-16.675402,19,120806.291754
-15.430767,20,120806.435327
-8.800983,22,120806.585015
-8.922489,20,120806.717244
-5.73238,21,120806.860378
-12.896349,20,120806.995691
-16.772743,19,120807.139602
-13.540456,20,120807.268333
-14.92965,21,120807.410227
-12.940756,21,120807.558492
-12.038064,20,120807.697628
-10.125362,21,120807.838345
-15.15238,22,120807.985286
-14.875965,21,121571.833693
-13.065376,21,121571.97142
-16.687863,21,121572.107796
-11.96733,20,121572.243565
-14.797417,20,121572.380248
-14.905815,24,121572.549879
-29.972729,23,121572.70366
-16.3119,19,121572.82497
-8.834871,20,121572.962857
-14.374321,20,121573.103454
-13.79934,20,121573.243156
-14.964606,21,121573.391903
-18.538944,22,121573.550239
-16.675462,21,121573.699111
-23.172612,28,121573.888553
-16.710461,22,121574.037476
-18.137843,20,121574.167501
-23.182526,20,121574.297752
-10.779027,23,121574.449161
-12.713894,21,121574.602795
-24.308026,20,121574.738727
-28.144774,20,121574.871801
-11.561159,22,121575.015997
-15.666812,20,121575.157403
-12.416457,20,122340.94643
-15.931576,21,122341.093647
-16.593703,24,122341.26447
-12.703873,20,122341.396369
-20.28143,21,122341.547317
-12.476777,21,122341.691564
-17.86446,25,122341.865889
-21.755949,23,122342.027316
-9.154414,21,122342.168277
-14.588184,19,122342.299315
-10.665468,20,122342.441177
-11.966093,23,122342.595881
-18.439212,22,122342.747845
-19.301202,20,122342.875092
-17.185759,20,122343.004752
-13.074018,20,122343.140201
-14.087364,25,122343.306941
-17.839371,20,122343.444695
-12.110915,20,122343.578852
-13.992476,22,122343.725346
-17.621995,23,122343.87469
-22.856624,21,122344.023392
-17.686529,21,122344.17255
-14.584516,20,122344.312107
-22.016976,20,123107.185493
-15.792618,20,123107.33154
-12.61452,20,123107.471321
-10.451438,20,123107.608217
-12.402914,24,123107.775876
-11.718923,21,123107.922093
-17.489629,21,123108.05857
-20.115452,28,123108.255864
-15.6834,21,123108.397859
-9.754528,24,123108.564279
-22.502381,20,123108.704186
-23.85319,23,123108.859709
-17.809593,20,123108.998418
-26.195335,21,123109.150854
-14.733684,20,123109.285792
-20.936959,18,123109.40255
-13.684225,20,123109.529376
-14.525398,19,123109.664065
-13.5317,20,123109.800802
-14.997279,20,123109.936646
-12.019945,21,123110.08251
-12.60936,19,123110.212944
-7.982421,22,123110.356459
-13.290697,21,123110.500008
-17.948188,21,123877.482512
-13.932283,20,123877.615113
-13.437722,20,123877.752833
-17.677451,20,123877.887024
-27.053127,20,123878.013207
-17.806959,20,123878.14436
-17.166262,20,123878.280689
-18.514757,20,123878.414454
-17.604671,20,123878.541993
-9.438449,23,123878.707852
-9.695332,20,123878.838089
-13.035732,20,123878.973769
-13.200261,22,123879.129594
-6.018963,23,123879.288478
-10.408877,20,123879.425761
-11.216464,21,123879.57424
-5.998507,23,123879.736507
-20.033261,23,123879.889622
-15.564042,21,123880.027768
-23.140711,21,123880.17098
-19.001621,20,123880.300386
-23.03493,19,123880.431167
-16.042571,20,123880.569156
-8.025507,23,123880.724924
-16.618004,21,123880.865733
-17.362788,21,124645.817778
-13.010134,20,124645.947525
-13.57214,20,124646.092391
-8.421961,20,124646.229699
-18.862901,20,124646.364223
-7.270523,20,124646.49962
-14.017392,21,124646.64645
-12.250925,21,124646.787231
-22.552845,20,124646.935405
-9.954417,22,124647.087019
-13.745371,22,124647.231681
-20.064675,20,124647.367943
-15.826249,21,124647.512063
-10.440875,20,124647.648289
-20.782463,19,124647.770655
-14.078576,20,124647.906376
-12.478974,27,124648.090453
-14.981012,20,124648.222297
-18.508361,20,124648.360124
-11.398991,23,124648.52352
-21.194018,21,124648.666582
-14.142249,21,124648.803717
-22.271577,21,124648.942864
-18.227208,20,124649.07325
-9.881956,20,125414.032951
-18.642534,20,125414.169678
-14.58846,22,125414.31238
-11.147975,20,125414.449247
-19.094677,21,125414.595797
-20.456889,18,125414.725724
-12.045162,21,125414.866785
-11.260489,20,125414.999273
-8.344105,23,125415.154846
-12.410387,22,125415.308552
-12.93701,25,125415.491604
-8.892995,20,125415.638519
-5.840968,22,125415.793138
-15.73142,21,125415.93952
-12.71646,22,125416.087559
-12.577994,20,125416.223308
-23.328462,22,125416.374087
-24.816824,20,125416.514117
-27.403428,26,125416.697357
-17.964276,21,125416.842448
-17.727272,21,125416.992907
-6.853068,21,125417.132299
-11.429597,20,125417.273097
-7.243713,20,125417.413398
-12.707244,20,126182.350734
-10.932132,22,126182.502823
-14.510609,21,126182.643448
-8.865777,21,126182.790347
-15.552424,20,126182.930249
-4.360265,20,126183.066813
-7.33572,22,126183.218448
-18.176008,22,126183.369406
-13.567028,21,126183.513971
-12.197382,22,126183.658951
-26.201038,18,126183.786215
-22.077375,21,126183.929521
-11.168149,20,126184.077377
-16.945119,18,126184.19953
-17.454031,20,126184.334853
-19.4307,25,126184.509711
-8.600576,22,126184.654418
-16.146292,21,126184.787581
-7.511447,20,126184.934562
-12.261656,24,126185.091927
-13.464954,22,126185.239475
-23.349424,18,126185.360897
-16.484378,20,126185.499357
-12.599165,21,126185.641323
-9.945922,22,126185.795916
-17.763052,28,126951.377308
-13.264797,21,126951.524662
-5.04129,27,126951.709678
-11.599071,20,126951.842898
-13.775957,21,126951.989579
-12.219327,22,126952.131538
-15.652932,20,126952.276357
-9.645204,26,126952.46987
-9.476084,20,126952.603017
-16.531527,21,126952.75216
-11.953622,21,126952.89128
-12.83993,20,126953.026915
-17.767516,20,126953.163752
-11.687741,20,126953.304082
-18.023394,21,126953.446302
-11.485369,21,126953.591778
-11.350614,20,126953.729557
-12.15674,20,126953.867732
-20.086276,23,126954.02854
-4.045854,21,126954.1788
-8.702976,20,126954.321829
-17.657763,19,126954.44722
-16.859003,20,126954.59022
-7.936082,20,126954.73114
-13.007363,21,128844.070795
-8.761209,21,128844.464769
-11.267401,19,128844.863089
-10.334566,20,128845.313638
-10.250531,20,128845.728038
-10.82375,21,128846.152418
-18.570581,19,128846.582158
-10.834211,21,128846.990389
-13.584363,21,128847.423301
-10.846137,21,128847.855684
-13.774153,23,128848.298495
-13.741577,22,128848.764292
-11.200356,20,128849.111185
-7.350483,21,128849.479321
-15.471446,21,128849.926935
-11.160721,20,128850.309898
-10.263875,21,128850.688034
-7.896507,21,128851.144666
-9.245828,21,128851.554765
-14.258017,21,128851.972636
-6.130696,21,128852.409756
-23.943736,17,128852.727526
-14.224418,19,128853.10621
-12.466629,21,128853.561196
-8.227826,21,128853.992969
-8.687825,19,131835.764176
-18.989326,19,131836.145653
-4.952877,23,131836.595528
-13.119687,19,131836.934173
-11.778965,22,131837.34777
-5.744559,20,131837.746069
-7.209827,21,131838.116365
-4.600724,20,131838.50115
-4.130377,22,131838.961815
-12.051872,20,131839.317367
-7.276235,21,131839.694417
-11.200505,20,131840.157
-13.667117,20,131840.543479
-17.009759,19,131840.900677
-22.716466,20,131841.360905
-6.342659,20,131841.750933
-7.874654,21,131842.154562
-10.578053,21,131842.607801
-19.692478,20,131842.988706
-14.607673,21,131843.370771
-14.096716,19,131843.736299
-9.823394,19,131844.105474
-8.865756,20,131844.481581
-11.314842,20,131844.8918
-12.200713,21,131845.264728
-15.234953,20,134812.632346
-9.539492,22,134813.033917
-15.043477,20,134813.427533
-9.271957,20,134813.814502
-8.72783,21,134814.195952
-10.164643,19,134814.611628
-15.497164,18,134814.966391
-5.726198,21,134815.376779
-9.823872,20,134815.828185
-8.660089,20,134816.205038
-12.369156,21,134816.611185
-9.460284,21,134817.050892
-9.287617,20,134817.413789
-13.61658,25,134817.919803
-6.309839,20,134818.32247
-15.29266,20,134818.702753
-9.83888,20,134819.146487
-7.534105,20,134819.519861
-9.154764,20,134819.897562
-12.174023,20,134820.313155
-14.596884,19,134820.650457
-3.072221,21,134821.029598
-16.186314,19,134821.412184
-9.248863,22,134821.813092
-2.9605,22,134822.216892
-8.861324,21,137774.965783
-10.677629,20,137775.367389
-12.097198,21,137775.841396
-24.569332,20,137776.268169
-15.539492,20,137776.739489
-19.178172,19,137777.112001
-12.065769,20,137777.536491
-6.45178,30,137778.176268
-12.102057,21,137778.580304
-7.790453,21,137779.025685
-8.263111,21,137779.409253
-6.297974,20,137779.773432
-13.237485,22,137780.209352
-12.699355,20,137780.565665
-8.886598,22,137780.9497
-14.346146,20,137781.326622
-13.121495,20,137781.732569
-12.408962,21,137782.135938
-7.032979,20,137782.551655
-8.798656,21,137782.950074
-10.661678,21,137783.346859
-6.558392,21,137783.792515
-3.469141,21,137784.201448
-8.77218,20,137784.587135
-7.624138,21,137785.033333
-7.091769,23,140780.400975
-12.389805,20,140780.766147
-10.851763,22,140781.224143
-9.543989,20,140781.59464
-9.164399,20,140781.992581
-16.176774,20,140782.415929
-7.502747,20,140782.8175
-3.421502,21,140783.236188
-10.400125,20,140783.673173
-12.336817,21,140784.082351
-12.682346,20,140784.445161
-8.657407,24,140784.925137
-10.847718,21,140785.340511
-16.201319,19,140785.714442
-9.918966,20,140786.143689
-8.747963,20,140786.518083
-16.272298,20,140786.893418
-12.391227,20,140787.313506
-12.236824,20,140787.680211
-15.127824,21,140788.05797
-8.42857,20,140788.479984
-7.532343,21,140788.868523
-15.488946,20,140789.222915
-7.609263,22,140789.671837
-9.308735,21,143795.411041
-13.41656,22,143795.818541
-10.066814,20,143796.229795
-12.137529,21,143796.633364
-10.386613,24,143797.111376
-6.306365,19,143797.512566
-12.886853,19,143797.897225
-12.375965,20,143798.26866
-7.392629,20,143798.657568
-12.200933,20,143799.068869
-7.459355,21,143799.482436
-9.831119,21,143799.932069
-12.248758,21,143800.320216
-5.741524,20,143800.685564
-11.09304,21,143801.11954
-8.17744,20,143801.477186
-15.364707,20,143801.836929
-15.279232,21,143802.228221
-9.147435,20,143802.598978
-6.099371,21,143802.967214
-12.390823,25,143803.47155
-5.460329,20,143803.829683
-15.072082,21,143804.231166
-19.032424,19,143804.618172
-19.145029,20,143805.003149
-9.375573,20,146812.615871
-7.703711,20,146813.017642
-7.87939,22,146813.5014
-12.02017,21,146813.969687
-11.716277,21,146814.401208
-10.629973,21,146814.828358
-6.110211,20,146815.218382
-4.654566,22,146815.731899
-1.0405,26,146816.275264
-9.836031,21,146816.715523
-11.158604,20,146817.119911
-11.100518,21,146817.52002
-4.931574,22,146817.96774
-4.973277,21,146818.382604
-11.218145,22,146818.817416
-11.729127,22,146819.284399
-11.923762,20,146819.649627
-7.263883,20,146820.040023
-10.700934,20,146820.491733
-8.673249,20,146820.890481
0.51608,23,146821.350286
-14.05893,21,146821.814159
-14.355578,22,146822.254758
-10.85817,21,146822.720059
-16.397692,20,149766.869765
-9.401168,20,149767.396603
-11.087103,20,149767.921926
-14.230801,21,149768.550832
-8.584007,20,149769.080832
-15.091579,21,149769.671602
-6.160128,21,149770.245793
-7.808687,24,149771.055294
-5.634468,21,149771.649744
-10.578392,21,149772.353685
-10.396396,22,149773.014586
-6.602404,22,149773.677511
-12.1734,20,149774.379297
-2.591189,21,149775.017656
-2.068301,21,149775.641198
-22.347659,20,149776.181065
-9.165014,21,149776.748727
-4.98248,20,149777.299885
-2.571154,20,149777.849778
-4.299105,21,149778.514819
-12.307158,20,149779.079767
-6.617919,20,149779.645629
-5.899386,21,149780.313207
-10.837355,20,149780.881497
-10.541799,20,149781.458913
-9.851995,21,152734.31547
-12.278201,23,152734.85736
-3.406451,25,152735.461897
-10.263186,19,152735.945569
-16.083804,24,152736.465587
-16.890126,21,152736.938218
0.062723,20,152737.418189
-13.210511,22,152737.892937
-17.181157,20,152738.411311
-11.356952,21,152738.888181
-13.611233,20,152739.32573
-10.207843,20,152739.794732
-6.618743,22,152740.246215
-10.793841,20,152740.650474
-12.941862,20,152741.105886
-7.363393,21,152741.545399
-12.328085,21,152742.037485
-3.996695,24,152742.543538
-9.025486,19,152742.964755
-14.41191,20,152743.460441
-1.17606,21,152743.94818
-9.807901,20,152744.442344
-8.079183,21,152744.891758
-7.491477,21,152745.378076
-19.21876,19,155702.818936
-4.301498,23,155703.30577
-8.986634,20,155703.767312
-13.185578,24,155704.269833
-1.677035,22,155704.766817
-8.037628,22,155705.241287
-6.378293,20,155705.739753
-10.94629,27,155706.310922
-22.196376,16,155706.662047
-6.582321,20,155707.154727
-4.574384,20,155707.576626
-7.257811,21,155708.014832
-9.154864,20,155708.474453
-7.325213,24,155708.966991
-9.578767,21,155709.491648
-4.914285,21,155709.961209
-15.353397,21,155710.397421
-3.078043,22,155710.941423
-8.177475,22,155711.439427
-6.51351,21,155711.927797
-6.394056,23,155712.422453
-19.214473,21,155712.943221
-2.22952,20,155713.365109
-16.584148,23,155713.882524
-6.619423,23,158665.158928
-5.975279,21,158665.658974
-8.515634,22,158666.145291
-17.885512,20,158666.601696
-21.943074,19,158667.007511
-4.565731,21,158667.477998
-9.334596,20,158667.935602
-7.270568,21,158668.389104
-13.308471,21,158668.86376
-11.935779,20,158669.321321
-8.199047,20,158669.714742
-9.170802,22,158670.241651
-7.798527,23,158670.723387
-1.159939,23,158671.234389
-7.965501,22,158671.759538
-11.82091,22,158672.21909
-5.500896,22,158672.755576
-12.201346,24,158673.291004
-7.508614,21,158673.749191
-10.435207,20,158674.1948
-3.828442,20,158674.61883
-13.610412,20,158675.077387
-8.828091,20,158675.522098
-10.075869,20,158675.977784
-15.278799,20,160880.572485
-15.167182,20,160880.802578
-2.997721,21,160881.044626
-2.501368,21,160881.28343
-8.653929,20,160881.512875
-13.188661,20,160881.744586
-8.446978,20,160881.976458
-6.43364,21,160882.212844
-4.667361,21,160882.465502
-11.327934,22,160882.718634
-11.450164,25,160883.028439
-7.116089,21,160883.269287
-5.931862,23,160883.554716
-2.652262,19,160883.806269
-3.972568,20,160884.053839
-15.200769,20,160884.280542
-11.331143,20,160884.527334
-4.83476,20,160884.781598
-10.226162,20,160885.032264
-12.490438,22,160885.30828
-11.626467,19,160885.545976
-0.294512,22,160885.801873
-9.687053,21,160886.060363
-2.966258,21,160886.320246
-4.253491,21,160886.569264
-13.389924,21,162910.181828
-3.835751,21,162910.419508
-9.01331,20,162910.677343
-14.434522,21,162910.920873
-8.022339,20,162911.151787
0.656155,21,162911.393865
-5.790632,20,162911.638107
-12.893199,23,162911.927924
-11.897626,20,162912.168918
-8.578117,21,162912.417326
-2.956842,23,162912.696229
-4.37267,21,162912.957032
-20.136784,21,162913.228526
-11.320261,21,162913.472782
-3.650674,21,162913.727496
-13.290036,19,162913.94709
-9.272189,20,162914.207885
-14.604438,20,162914.449102
-7.119336,20,162914.689084
-10.815701,20,162914.942685
-4.421005,27,162915.298568
-6.513464,20,162915.559268
-10.506579,18,162915.784012
-16.216824,20,162916.019396
-15.785784,20,162916.257838
-22.295652,19,164930.13066
-8.590821,20,164930.366988
-7.324697,20,164930.602625
-12.988617,20,164930.864124
-5.615002,21,164931.105013
-4.311234,21,164931.347639
-8.987243,20,164931.57946
-2.967922,21,164931.812468
-11.37317,20,164932.060687
-12.224424,20,164932.294531
-10.100135,20,164932.524469
-6.400671,24,164932.798223
-3.270212,20,164933.034351
-6.768317,23,164933.304303
-4.617759,21,164933.557503
-10.006205,20,164933.802858
-5.150796,20,164934.051888
-3.262104,22,164934.386284
-5.986951,22,164934.6775
-9.487383,20,164934.943409
-6.653283,22,164935.230255
-3.766708,21,164935.505537
-7.703479,21,164935.755551
-13.36439,21,164935.997845
-13.271113,23,166945.612371
-10.53484,20,166945.841132
-10.247123,20,166946.068131
-18.458957,20,166946.289654
-14.129382,20,166946.508059
-7.14131,20,166946.722994
-8.786358,26,166947.005174
-6.267158,21,166947.251222
-7.199994,21,166947.477058
-3.447374,23,166947.737549
-7.110327,22,166947.976816
-11.747354,21,166948.211487
-2.736768,22,166948.466467
-13.462009,21,166948.701391
-15.340959,20,166948.929638
-7.226221,21,166949.158632
-5.762783,20,166949.382965
-4.773346,21,166949.611953
-6.307252,22,166949.850162
-4.395709,20,166950.07466
-9.895766,21,166950.308536
-2.935961,21,166950.537516
-8.856697,21,166950.776013
-6.468142,21,166951.00153
-15.030237,18,166951.198992
-17.560689,29,168975.323423
-16.197531,21,168975.552724
-15.591949,21,168975.785276
-3.478669,21,168976.013246
-10.049301,19,168976.240895
-3.802823,20,168976.477277
-4.907184,19,168976.677205
-5.750221,21,168976.909025
-10.864863,19,168977.123121
-2.710349,21,168977.357927
-13.239626,20,168977.604758
-6.010794,20,168977.835633
-13.994042,21,168978.080931
-10.742701,20,168978.313544
-17.546496,18,168978.530892
-8.666554,21,168978.798485
-17.480634,19,168979.011117
-4.401223,21,168979.255969
-3.704638,20,168979.491025
-4.602299,21,168979.71758
-1.113996,23,168979.972897
-14.383878,20,168980.204519
-6.264299,23,168980.464915
-6.498907,21,168980.70707
-10.602168,21,170993.372712
-3.442245,21,170993.631653
-3.263656,27,170993.922462
-5.544168,20,170994.142787
0.837023,24,170994.398365
-12.876045,20,170994.6286
-8.861127,21,170994.856325
-8.222394,21,170995.097044
-3.59771,20,170995.311358
-13.072148,19,170995.518334
-7.013311,20,170995.749015
-5.822308,20,170995.974714
-7.942451,20,170996.196598
-6.928653,20,170996.424443
-6.891413,21,170996.649656
-5.451916,21,170996.889576
0.593027,24,170997.159996
-4.800321,24,170997.41943
-7.496836,20,170997.632689
-4.836542,23,170997.882116
-9.143681,21,170998.120369
-11.493455,21,170998.343978
-9.386571,20,170998.564119
-5.865912,23,170998.827541
-6.590274,20,173013.240083
-5.446841,20,173013.454374
-8.256932,19,173013.684468
-1.35367,20,173013.919345
-3.610567,20,173014.138947
-7.206046,22,173014.378427
-5.380266,20,173014.605159
-9.929027,35,173014.991795
-7.609596,20,173015.225384
-18.414272,21,173015.453885
-4.499495,21,173015.675594
-9.607223,19,173015.891223
-8.908339,23,173016.16024
-17.567042,19,173016.373569
-1.995675,20,173016.58988
-10.232449,25,173016.87371
-3.894213,30,173017.200643
0.96066,20,173017.419413
-8.438071,21,173017.655924
-7.938933,22,173017.899203
-3.114807,21,173018.135775
-12.688453,21,173018.382219
-4.108772,21,173018.630901
-6.117712,21,173018.849205
