# {"t_start": 1548091942.3266706, "env_id": "RoboschoolHumanoid-v1"} 
r,l,t
-63.124162,19,1.49988
-78.811337,18,1.635782
-110.960771,20,1.829459
-106.686858,20,1.982948
-77.044882,19,2.136189
-88.052704,18,2.274882
-84.032275,20,2.430547
-85.457156,21,2.603057
-115.207084,20,2.770715
-98.613896,22,2.970592
-114.891076,20,3.143758
-104.024228,19,3.304305
-77.16483,20,3.461809
-99.431109,18,3.620754
-100.104307,20,3.803152
-86.17382,19,3.970527
-66.423214,19,4.166528
-100.243386,20,4.332492
-86.800602,18,4.485666
-90.051431,20,4.649867
-92.479412,19,4.808429
-95.139406,22,4.997867
-107.282913,23,5.198736
-93.391519,19,5.360332
-91.20102,19,5.522045
-96.326007,20,5.680117
-85.440516,20,1097.21361
-101.783216,19,1097.412746
-73.785559,20,1097.644141
-83.749541,19,1097.84586
-93.594512,18,1098.048055
-103.743637,20,1098.25859
-79.695566,20,1098.468179
-112.879125,20,1098.67793
-80.372463,19,1098.893702
-86.11262,19,1099.089874
-106.671368,19,1099.266964
-71.891701,19,1099.451205
-69.55878,17,1099.618674
-111.65145,18,1099.79887
-114.908432,22,1100.038328
-77.368226,19,1100.229061
-71.481061,19,1100.417179
-81.319149,21,1100.636851
-89.331281,18,1100.813997
-90.071496,18,1100.994886
-92.455674,19,1101.195673
-106.250983,19,1101.364237
-120.005765,18,1101.537203
-97.989793,25,1101.768512
-63.402338,16,1101.922565
-92.536678,19,1102.095358
-114.318316,22,2203.386025
-84.011883,19,2203.578862
-114.166506,19,2203.782326
-104.531191,23,2204.043977
-89.496397,17,2204.232028
-92.85909,19,2204.418919
-67.194179,19,2204.637828
-84.312243,18,2204.857926
-74.202119,17,2205.052807
-90.702288,18,2205.2905
-121.29814,19,2205.501528
-97.12947,20,2205.72628
-103.639556,19,2205.927916
-84.227154,17,2206.121491
-69.033875,18,2206.34115
-65.382036,19,2206.557024
-97.012624,21,2206.815007
-78.745338,18,2207.011208
-74.512192,18,2207.229189
-93.14474,19,2207.463453
-118.202156,24,2207.74645
-153.772102,28,2208.056915
-102.096534,20,2208.288868
-94.068727,19,2208.53161
-79.965541,19,2208.773042
-89.423875,19,2208.998492
-77.29232,24,3307.780068
-99.18314,24,3308.007084
-108.989134,19,3308.190124
-88.103488,19,3308.374925
-97.113617,19,3308.565464
-82.142041,21,3308.771859
-101.868931,19,3308.971976
-106.713373,19,3309.15696
-138.229824,19,3309.350472
-104.882196,18,3309.522532
-103.301225,19,3309.721344
-90.58522,19,3309.923811
-79.100018,17,3310.09939
-96.827226,20,3310.319695
-74.718499,17,3310.483304
-75.364092,19,3310.682433
-104.810229,20,3310.898475
-102.08819,19,3311.105739
-68.262476,20,3311.329719
-140.129249,26,3311.592353
-90.191878,18,3311.772548
-73.09345,17,3311.962375
-76.318437,19,3312.16161
-104.020938,25,3312.441772
-78.828889,19,3312.648329
-121.059336,26,3312.910551
-85.637397,20,4412.805293
-80.245311,19,4412.971575
-78.857159,20,4413.143064
-65.943447,19,4413.310345
-92.223294,20,4413.487856
-94.661489,24,4413.718805
-84.765431,20,4413.887529
-113.853845,20,4414.067373
-124.452904,19,4414.235622
-97.920726,18,4414.388232
-137.356947,26,4414.609528
-72.955151,19,4414.790986
-78.24116,20,4414.965822
-66.566942,19,4415.13212
-117.726304,24,4415.346092
-96.677461,23,4415.555265
-75.231977,19,4415.724321
-88.718562,19,4415.893851
-92.595983,19,4416.087762
-111.880484,19,4416.269121
-122.139734,19,4416.455038
-76.727709,21,4416.661021
-88.871969,18,4416.836006
-100.491548,17,4417.000055
-66.9715,19,4417.201214
-73.327202,18,4417.388294
-101.678035,20,5516.088866
-66.786616,19,5516.257983
-86.392355,19,5516.428353
-99.600931,17,5516.609084
-84.960807,20,5516.824098
-90.714501,21,5517.060077
-84.326776,19,5517.262666
-73.35724,18,5517.462493
-79.839253,21,5517.678576
-81.974373,18,5517.864991
-72.89389,19,5518.055994
-98.629309,20,5518.307975
-83.125747,19,5518.544802
-98.670111,19,5518.76833
-137.508289,29,5519.133345
-82.248657,18,5519.348087
-90.536582,21,5519.605374
-98.228601,18,5519.819133
-105.634122,17,5520.024964
-88.092747,19,5520.247637
-95.241627,18,5520.483517
-72.502947,18,5520.699122
-83.113555,17,5520.90149
-96.849292,20,5521.128469
-103.027675,21,5521.372449
-74.692084,21,5521.631262
-92.304877,19,6621.08229
-122.152033,40,6621.523916
-88.146441,20,6621.750668
-68.177218,18,6621.968798
-95.037888,21,6622.164683
-89.935405,17,6622.320232
-99.444053,19,6622.48321
-73.187022,20,6622.653926
-87.114885,18,6622.820072
-84.051668,19,6623.000188
-101.141535,20,6623.190033
-74.910413,20,6623.361527
-81.07128,19,6623.517498
-87.841324,18,6623.681001
-63.203465,19,6623.845823
-75.952952,17,6624.002466
-133.616967,26,6624.25107
-93.013393,19,6624.424753
-80.538187,18,6624.588155
-121.872069,29,6624.837009
-95.955203,20,6625.012721
-93.381298,19,6625.1827
-96.668918,17,6625.358706
-90.02405,19,6625.548196
-71.927463,20,6625.729982
-75.424866,17,7724.731939
-121.842705,18,7724.910951
-71.800402,19,7725.121754
-90.006297,19,7725.314929
-91.976874,19,7725.49443
-70.801552,18,7725.667861
-80.935596,18,7725.864434
-105.930923,19,7726.05097
-69.307228,18,7726.224669
-120.315813,18,7726.396643
-81.90243,18,7726.575828
-72.389216,19,7726.765984
-105.574427,21,7726.989968
-83.983504,20,7727.186363
-67.565023,20,7727.378817
-105.105217,19,7727.562953
-94.583365,18,7727.735661
-56.838474,20,7727.922922
-64.156509,18,7728.113925
-77.976779,18,7728.302708
-89.015845,19,7728.488161
-86.928311,19,7728.673133
-101.915576,20,7728.872711
-90.51517,19,7729.051706
-102.393884,19,7729.247793
-84.242956,19,7729.431469
-90.054927,18,7729.610498
-88.777377,22,8829.273017
-73.024958,20,8829.459531
-85.836345,21,8829.662915
-67.725117,19,8829.839936
-71.365466,20,8830.038405
-100.771209,20,8830.245437
-99.808024,19,8830.433508
-80.369152,17,8830.589411
-63.097462,19,8830.779145
-100.987856,17,8830.94596
-75.926078,17,8831.121986
-63.140352,19,8831.320346
-95.16677,19,8831.514271
-86.473597,19,8831.698967
-66.817826,20,8831.89011
-88.15275,19,8832.073805
-86.433914,19,8832.251716
-61.92319,20,8832.446212
-75.676818,18,8832.632323
-80.919307,17,8832.80499
-76.193798,24,8833.042663
-49.446467,19,8833.222119
-76.577026,17,8833.385213
-76.327731,22,8833.600718
-101.417585,20,8833.818109
-74.60761,19,8834.004967
-82.3502,19,8834.180588
-81.24594,20,10022.31567
-82.123985,20,10022.542336
-82.968349,20,10022.796093
-72.767407,18,10023.00089
-66.037801,19,10023.216643
-57.228787,19,10023.441174
-71.039929,18,10023.641557
-73.181512,20,10023.884837
-93.701186,22,10024.130727
-75.116966,19,10024.359511
-89.248676,19,10024.585687
-75.331919,19,10024.798697
-64.402726,18,10024.994929
-62.768835,18,10025.220784
-66.307239,20,10025.455139
-88.716773,17,10025.646827
-69.19364,20,10025.858424
-74.38946,19,10026.059248
-75.443272,20,10026.292973
-79.369168,20,10026.538207
-99.030558,19,10026.756903
-74.945045,19,10026.969043
-73.677387,19,10027.170559
-114.903722,31,10027.5151
-108.456166,21,10027.765019
-78.310066,28,11162.889813
-71.718036,18,11163.129018
-71.329815,18,11163.361764
-52.792599,18,11163.599605
-63.811651,19,11163.863178
-62.941095,18,11164.106404
-75.203185,19,11164.351514
-74.7091,16,11164.565053
-71.227532,19,11164.808147
-74.461332,18,11165.056736
-63.873256,19,11165.311715
-76.641684,18,11165.572607
-78.239543,21,11165.835086
-68.200664,19,11166.102258
-83.583793,20,11166.346703
-93.046038,17,11166.581426
-65.797654,18,11166.823557
-90.850104,20,11167.098888
-89.114222,18,11167.349825
-78.457495,25,11167.68744
-80.718104,19,11167.930596
-66.203058,19,11168.183532
-76.383536,18,11168.414824
-67.099003,18,11168.644156
-73.642661,22,11168.939119
-85.08118,18,11169.177484
-74.267221,17,11169.380677
-59.57559,17,11169.611733
-82.92287,20,12350.710865
-70.162299,19,12350.885025
-73.816355,17,12351.039793
-88.225774,18,12351.204822
-77.69125,19,12351.370005
-65.50599,18,12351.556102
-83.375326,17,12351.732252
-77.426631,19,12351.935307
-64.287885,20,12352.130079
-73.827718,18,12352.306908
-63.566535,18,12352.488296
-64.979604,15,12352.655674
-53.480467,19,12352.85256
-79.466324,20,12353.07847
-92.896985,18,12353.269773
-61.241952,19,12353.466466
-61.923435,19,12353.657123
-72.999437,18,12353.838307
-56.212207,19,12354.040725
-95.191217,24,12354.310799
-89.713761,26,12354.615089
-82.024096,20,12354.823351
-75.587689,27,12355.121453
-84.060493,20,12355.360446
-54.135008,18,12355.560554
-99.423264,26,12355.853168
-77.70013,18,13444.19526
-79.35987,18,13444.346909
-64.350037,19,13444.500749
-51.103753,17,13444.640505
-71.290998,19,13444.790347
-52.307701,18,13444.939314
-68.263066,23,13445.120075
-71.890692,20,13445.27621
-49.543844,18,13445.413378
-73.814115,19,13445.566191
-75.186557,22,13445.734418
-53.96427,19,13445.884037
-69.016131,20,13446.04171
-73.230803,19,13446.185243
-60.592014,20,13446.338206
-79.575631,18,13446.485223
-64.924,18,13446.630276
-57.020373,20,13446.793122
-68.078379,19,13446.945734
-70.370807,19,13447.092669
-67.928584,20,13447.25036
-78.001273,20,13447.408805
-77.816841,18,13447.556028
-76.738832,18,13447.694514
-59.971168,19,13447.849832
-56.095823,18,13447.990211
-82.37577,20,14363.369782
-56.324589,19,14363.503099
-57.560921,20,14363.637837
-53.48724,19,14363.778564
-60.775461,19,14363.92089
-60.1439,18,14364.052658
-86.05276,20,14364.201829
-53.572477,18,14364.339946
-78.141305,18,14364.472705
-57.875945,18,14364.601683
-74.736577,19,14364.736729
-82.815928,19,14364.870787
-75.742595,17,14364.98712
-57.286377,19,14365.128063
-77.560227,19,14365.265398
-48.251129,19,14365.416153
-63.498928,19,14365.558196
-79.79102,19,14365.700423
-68.079843,18,14365.828258
-74.221526,18,14365.950958
-52.993939,18,14366.082189
-101.340142,23,14366.239262
-73.245284,20,14366.391044
-69.424297,18,14366.525976
-69.758955,18,14366.656226
-76.901879,19,14366.797131
-89.849111,19,14366.931875
-69.282597,20,15373.79717
-91.266746,20,15373.961701
-65.710895,19,15374.122211
-64.938018,20,15374.284978
-76.31484,21,15374.454671
-70.798408,22,15374.63692
-78.377405,21,15374.821673
-49.076704,20,15374.991158
-57.206425,20,15375.160238
-71.102531,17,15375.29242
-58.826707,19,15375.449147
-62.823927,18,15375.601541
-73.217016,18,15375.749983
-64.420662,19,15375.930808
-83.792295,21,15376.106027
-68.74125,18,15376.250257
-53.764235,19,15376.411321
-70.867985,18,15376.561299
-102.32654,28,15376.795562
-76.486937,19,15376.970366
-56.66052,20,15377.136286
-59.188752,19,15377.30114
-76.518836,21,15377.478309
-75.856242,18,15377.635272
-61.23566,21,15377.809495
-61.816256,19,15377.971617
-77.100499,26,16315.515914
-61.780711,19,16315.651068
-68.187137,20,16315.794347
-82.474936,17,16315.928697
-63.334403,17,16316.058532
-57.528044,19,16316.201783
-57.357925,18,16316.324228
-50.100138,19,16316.461945
-53.039524,20,16316.60554
-65.483391,18,16316.742368
-64.545647,18,16316.865155
-84.657758,20,16317.011314
-58.761628,20,16317.149371
-45.862818,18,16317.276307
-83.611439,23,16317.434669
-71.958751,19,16317.562238
-83.76105,18,16317.696598
-64.330039,19,16317.832341
-70.132707,19,16317.97065
-61.009046,19,16318.106569
-56.042738,19,16318.243809
-68.150609,19,16318.383115
-64.301785,18,16318.511794
-65.229149,18,16318.640597
-42.846026,19,16318.773196
-61.513728,19,16318.911207
-71.090555,17,16319.025168
-70.562403,23,18521.958397
-65.918781,19,18522.306194
-68.619384,19,18522.63502
-56.823665,18,18522.958271
-72.137079,18,18523.087252
-60.666144,18,18523.213516
-52.677151,19,18523.351847
-76.795463,16,18523.47726
-64.077848,19,18523.616112
-52.270494,19,18523.770216
-66.215555,20,18523.931937
-41.365229,19,18524.081888
-71.923654,18,18524.255388
-50.423962,19,18524.580879
-50.601779,19,18524.809679
-50.955145,19,18525.097599
-50.246838,19,18525.411109
-59.176778,18,18525.602131
-66.576988,19,18525.934352
-77.820767,20,18526.195868
-38.570967,19,18526.44636
-46.414138,18,18526.772454
-66.881345,18,18526.933536
-55.713972,18,18527.241591
-68.428278,20,18527.439582
-62.644679,19,18527.720407
-62.495635,18,18527.996433
-77.737669,20,20730.025749
-75.964937,19,20730.306635
-67.797938,20,20730.55901
-60.004214,19,20730.869431
-63.778954,18,20731.046624
-51.495604,18,20731.338384
-60.737029,19,20731.57814
-62.584628,19,20731.838888
-48.104818,19,20732.171085
-80.694932,24,20732.452653
-72.149162,22,20732.736178
-44.243352,18,20733.050437
-49.921126,22,20733.341476
-52.103585,19,20733.568005
-56.483814,19,20733.921506
-48.983367,18,20734.099747
-72.85582,19,20734.402893
-74.804373,25,20734.809593
-79.548668,19,20735.144929
-80.022934,24,20735.538794
-59.698067,20,20735.858897
-63.494573,22,20736.200854
-60.879467,17,20736.486049
-72.065402,18,20736.765394
-64.140443,18,20737.077327
-60.766082,20,20737.419777
-54.203252,19,22929.458256
-48.576519,18,22929.78166
-43.741829,19,22929.953581
-58.902113,19,22930.246282
-57.153524,19,22930.478846
-67.11216,17,22930.722904
-54.305887,23,22931.087816
-62.713123,20,22931.311571
-53.999298,19,22931.587253
-67.983318,21,22931.891274
-68.709272,23,22932.168581
-46.184439,19,22932.468985
-58.334443,19,22932.745724
-66.697818,19,22932.97551
-44.96344,18,22933.299182
-58.327976,22,22933.549324
-40.436669,19,22933.79442
-58.793828,19,22934.099633
-60.145701,19,22934.316929
-50.242459,22,22934.643188
-52.192329,19,22934.85856
-48.4632,18,22935.152182
-60.620063,19,22935.50303
-69.962979,19,22935.816954
-50.797875,19,22936.152881
-61.076584,18,22936.464319
-54.935981,19,22936.766396
-53.177914,20,25108.223119
-84.749678,19,25108.494615
-68.50417,18,25108.824723
-63.137911,18,25108.974174
-53.52671,19,25109.30414
-49.880746,19,25109.50413
-60.459931,20,25109.7998
-64.545291,20,25110.159301
-55.711323,19,25110.489337
-66.093441,19,25110.78821
-59.613833,20,25111.062637
-54.779327,19,25111.386732
-58.794845,21,25111.738649
-43.449703,18,25112.057173
-68.328488,18,25112.389195
-54.375053,20,25112.734486
-45.637124,19,25113.014334
-49.201564,19,25113.305367
-64.02037,19,25113.633551
-56.940711,18,25113.905354
-62.203394,18,25114.031358
-57.14296,22,25114.1828
-71.907577,19,25114.325031
-49.24424,21,25114.495292
-50.44691,20,25114.64861
-53.32417,19,25114.79356
-64.662436,19,27287.800578
-55.9696,19,27288.079655
-60.449535,19,27288.307154
-50.444123,18,27288.619021
-65.100214,19,27288.797655
-49.6648,19,27289.126051
-48.477602,19,27289.452873
-57.120911,19,27289.783779
-53.46049,19,27290.07261
-64.231917,24,27290.508401
-30.595359,19,27290.814783
-75.117718,26,27291.279238
-61.091811,18,27291.598665
-51.830304,19,27291.840539
-54.812709,18,27292.115732
-54.629214,19,27292.445952
-48.268472,19,27292.745118
-48.888929,20,27292.884673
-53.008973,19,27293.013304
-51.970921,17,27293.129153
-62.644405,17,27293.247444
-71.425641,20,27293.398584
-55.352614,20,27293.565966
-68.676141,24,27293.759734
-51.135454,19,27293.902871
-52.431227,19,27294.055958
-46.602835,20,29457.318079
-67.136624,18,29457.623664
-52.239858,20,29457.924865
-59.587429,19,29458.140567
-52.293651,18,29458.450073
-44.610559,19,29458.624538
-48.06898,19,29458.931806
-49.420443,20,29459.16972
-49.000995,19,29459.428666
-58.155038,20,29459.778492
-49.552725,20,29460.008004
-53.138493,19,29460.268537
-43.937146,20,29460.571207
-52.940912,19,29460.765878
-48.354417,19,29461.098608
-51.36559,19,29461.28182
-59.758885,19,29461.565994
-41.213937,19,29461.80626
-55.703483,19,29462.108193
-47.548666,19,29462.426085
-51.83232,18,29462.730293
-59.413608,19,29463.045185
-48.608318,22,29463.415262
-58.312593,19,29463.703661
-61.24099,19,29464.024571
-52.106429,19,29464.340759
-55.601248,18,29464.617019
-44.568319,18,31621.680477
-59.229685,18,31621.810459
-44.760448,24,31621.996922
-39.093625,18,31622.14743
-44.664722,19,31622.300098
-33.186495,20,31622.456614
-46.327887,20,31622.698087
-60.304186,22,31623.005569
-46.851022,18,31623.275902
-43.659752,18,31623.515107
-45.820423,19,31623.83955
-51.009606,18,31623.996489
-52.777823,19,31624.311487
-56.373808,18,31624.513671
-52.16033,20,31624.785757
-57.71804,18,31625.03622
-53.193042,19,31625.256883
-51.908931,19,31625.551067
-55.887486,19,31625.757271
-55.742559,18,31626.084529
-45.657178,21,31626.289688
-55.620342,19,31626.574308
-46.498435,19,31626.847368
-33.703886,19,31627.081822
-45.624712,19,31627.402729
-40.007301,20,31627.578367
-45.960079,18,31627.868252
-53.422763,19,33773.330274
-41.321586,19,33773.6629
-44.310978,18,33773.794902
-53.545884,18,33773.91824
-38.44322,19,33774.054776
-52.254276,19,33774.186403
-51.825388,19,33774.31825
-40.283806,19,33774.461213
-44.490535,18,33774.579708
-53.045519,19,33774.715043
-44.738714,18,33774.835351
-38.385037,19,33774.964394
-50.777882,19,33775.091846
-52.038337,19,33775.229688
-38.828007,17,33775.362225
-38.374691,19,33775.50679
-46.585578,18,33775.638229
-49.692801,19,33775.779652
-78.95999,19,33775.920097
-52.321932,20,33776.157875
-59.121393,19,33776.422081
-55.952179,19,33776.62028
-50.644373,19,33776.93737
-38.775169,18,33777.154765
-55.522672,19,33777.399981
-52.255128,19,33777.710062
-47.999939,18,33777.906976
-53.327428,21,35912.54389
-45.96726,19,35912.68315
-58.800262,18,35912.811548
-58.899686,18,35912.948345
-42.618183,19,35913.088834
-43.2692,18,35913.226087
-50.303218,18,35913.379338
-50.448039,19,35913.53997
-52.411831,20,35913.691973
-60.73234,19,35913.841436
-57.086844,20,35914.199341
-49.582473,21,35914.37997
-52.7234,21,35914.730512
-45.678525,18,35914.89316
-53.709805,18,35915.201104
-46.755123,19,35915.373453
-40.971212,19,35915.679357
-50.111589,18,35915.918429
-37.872154,18,35916.154553
-51.955823,19,35916.504616
-63.026918,20,35916.684559
-41.379927,18,35916.995878
-64.175779,17,35917.169645
-40.698467,19,35917.469561
-48.494331,18,35917.722372
-52.110489,19,35917.9626
-48.976668,19,35918.299831
-64.557058,19,38059.299817
-52.2561,19,38059.611884
-47.145232,18,38059.844147
-49.365162,19,38060.09709
-58.189145,19,38060.419159
-51.081,20,38060.603909
-41.922129,19,38060.914638
-40.192319,20,38061.203914
-41.918851,20,38061.413907
-59.682719,19,38061.718692
-40.879229,19,38061.928485
-44.350786,19,38062.245095
-41.049104,20,38062.519531
-54.426463,19,38062.820902
-50.09504,19,38063.142565
-47.996832,19,38063.439008
-46.112595,19,38063.76522
-68.43991,18,38064.071537
-44.591589,19,38064.386849
-43.819071,19,38064.703688
-50.063481,20,38065.066062
-41.515068,20,38065.352921
-50.019405,19,38065.697576
-71.055276,20,38066.050576
-50.159386,19,38066.374908
-47.928641,19,38066.518045
-60.02955,18,38066.641412
-58.306779,17,40208.188034
-50.625512,19,40208.371074
-47.433278,19,40208.670016
-43.013739,20,40208.893106
-46.747102,18,40209.146638
-43.785421,22,40209.498527
-42.035857,18,40209.65705
-42.755364,19,40209.983315
-57.865177,21,40210.268888
-57.277333,20,40210.526435
-64.436657,25,40210.880305
-43.204435,19,40211.066722
-59.056027,18,40211.349678
-28.440181,20,40211.644696
-47.972521,19,40211.86413
-56.821393,20,40212.19254
-63.818874,20,40212.537784
-41.98179,20,40212.857846
-50.332224,20,40213.102801
-46.845715,19,40213.389837
-73.182681,18,40213.697769
-45.493387,20,40214.048429
-39.234202,19,40214.379616
-41.018355,19,40214.730632
-53.406163,18,40214.931571
-46.796209,19,40215.250852
-44.94743,20,42352.329408
-54.54375,20,42352.657385
-49.073571,19,42352.846465
-42.750283,20,42353.164313
-43.322077,19,42353.404001
-36.970485,19,42353.635707
-43.730695,20,42353.925459
-34.405554,19,42354.144906
-41.026,22,42354.481428
-51.485974,19,42354.723564
-55.028653,21,42355.08022
-44.772967,18,42355.380252
-38.926657,21,42355.714803
-50.874685,19,42356.066198
-47.117385,19,42356.413129
-39.980137,19,42356.743624
-49.588792,21,42357.106864
-54.097972,19,42357.414675
-37.046421,19,42357.632114
-54.282707,20,42357.974967
-38.378278,18,42358.28806
-49.495884,19,42358.616477
-43.813427,18,42358.738388
-42.900414,19,42358.869251
-48.587724,20,42359.014324
-40.18007,19,42359.152138
-43.841704,19,42359.303982
-51.810639,20,44486.338702
-55.842743,19,44486.636109
-47.208277,19,44486.89553
-42.678568,19,44487.134144
-77.362693,18,44487.451759
-33.922636,19,44487.619995
-44.93956,19,44487.931304
-44.196797,18,44488.209515
-47.61189,19,44488.41321
-43.384388,19,44488.709602
-50.726231,19,44488.91738
-53.900257,22,44489.258071
-42.775429,20,44489.54853
-42.130917,19,44489.849663
-48.950154,19,44490.13612
-42.914823,20,44490.465094
-39.580391,19,44490.804374
-64.938191,24,44491.185455
-59.160774,18,44491.511193
-51.634507,19,44491.815624
-39.84165,19,44492.120153
-59.140059,18,44492.364551
-51.454039,21,44492.728604
-46.8953,19,44493.05974
-51.5557,19,44493.385132
-53.678546,22,44493.535091
-44.434023,19,46613.209753
-37.207452,19,46613.533498
-43.865377,19,46613.799602
-44.72006,19,46614.042428
-53.898084,27,46614.428764
-45.57766,23,46614.721205
-40.2599,20,46614.970014
-43.483772,19,46615.281669
-50.211126,19,46615.449694
-50.403744,19,46615.757309
-46.160352,18,46615.985857
-47.121394,19,46616.237043
-47.200699,19,46616.557694
-55.431935,20,46616.720222
-47.355051,19,46617.039078
-51.15204,18,46617.218564
-34.887746,20,46617.542071
-37.729672,19,46617.804134
-47.32944,19,46618.123945
-50.64869,20,46618.462992
-41.224481,19,46618.738853
-41.944373,19,46619.062341
-45.004484,19,46619.367456
-46.347146,19,46619.704261
-47.804336,19,46620.003623
-48.873132,21,46620.347435
-32.424086,19,48735.249123
-37.636125,19,48735.457979
-49.236199,20,48735.67629
-48.271483,19,48735.953585
-43.092132,19,48736.217361
-46.591089,20,48736.467435
-46.505248,19,48736.795573
-51.164173,19,48737.011189
-45.578466,18,48737.275907
-39.885579,21,48737.625761
-42.701384,19,48737.787315
-39.297662,19,48738.122189
-46.665675,19,48738.310815
-37.606928,19,48738.598472
-37.547654,19,48738.899106
-54.83869,19,48739.115159
-40.486475,20,48739.441127
-46.132439,19,48739.666177
-31.761246,21,48739.945226
-45.600862,22,48740.271718
-46.232338,18,48740.466027
-44.554698,20,48740.792222
-33.355173,20,48741.007177
-59.259155,24,48741.438254
-38.551797,19,48741.734368
-46.980222,19,48742.02384
-40.632077,19,50848.658874
-58.42299,20,50848.87102
-45.02302,20,50849.17383
-34.159,19,50849.347851
-35.780102,19,50849.675468
-48.24934,20,50849.881097
-48.262401,19,50850.176868
-61.529409,19,50850.484877
-50.672972,19,50850.697998
-36.287813,19,50851.002053
-40.652049,18,50851.18102
-43.467114,19,50851.467255
-42.446849,19,50851.621277
-43.302561,19,50851.922077
-47.56407,18,50852.104849
-45.706056,19,50852.393938
-40.119121,18,50852.686461
-34.664073,20,50852.896475
-39.82312,19,50853.214305
-44.46221,18,50853.38233
-53.036885,20,50853.683714
-48.428099,19,50853.857837
-41.933792,19,50854.162936
-36.723095,18,50854.375052
-44.50704,18,50854.631502
-41.811733,18,50854.881493
-56.265545,18,50855.17037
-38.95696,19,52929.363373
-42.957394,18,52929.62417
-46.341594,19,52929.964795
-37.130051,19,52930.148429
-55.195423,19,52930.442324
-33.114512,19,52930.688864
-41.968379,20,52930.93099
-48.688052,18,52931.094389
-45.380135,17,52931.390182
-53.901787,18,52931.616785
-41.897491,19,52931.86525
-42.155242,19,52932.185309
-35.314742,19,52932.372403
-42.845349,19,52932.685131
-44.691437,19,52932.887431
-47.008739,19,52933.166209
-45.941639,19,52933.315526
-35.80286,19,52933.649746
-53.890778,26,52933.992485
-38.057979,20,52934.218893
-39.438355,19,52934.556927
-41.086768,20,52934.919629
-43.728576,19,52935.239507
-40.036237,19,52935.402808
-43.12867,19,52935.738093
-37.495947,19,52936.069449
-47.371009,20,52936.428807
-41.500928,20,55017.705538
-55.399907,18,55018.001227
-42.103463,21,55018.33017
-55.95904,19,55018.54513
-40.824496,19,55018.849478
-44.444813,19,55018.99524
-35.250603,21,55019.350878
-44.595489,19,55019.523745
-31.187256,19,55019.823046
-41.456956,19,55020.094156
-48.067339,20,55020.337477
-42.095527,21,55020.681118
-37.648524,20,55020.931338
-36.044272,20,55021.162416
-44.261813,19,55021.353871
-33.311366,21,55021.668601
-34.86575,20,55021.991765
-46.208181,21,55022.202518
-42.566475,19,55022.526517
-43.004673,19,55022.853747
-52.444628,19,55023.182508
-41.647563,19,55023.372162
-44.471632,19,55023.704674
-38.759961,20,55024.062008
-28.337478,21,55024.42858
-43.628588,20,55024.791278
-44.00264,19,57111.502997
-30.325078,19,57111.820953
-52.473194,25,57112.209218
-39.589542,20,57112.450943
-40.32476,19,57112.704959
-25.622906,20,57112.891746
-50.121427,20,57113.199052
-44.01504,14,57113.337047
-37.16048,19,57113.633183
-41.060627,25,57114.03218
-37.128115,20,57114.353371
-34.987901,19,57114.640065
-42.978625,19,57114.865396
-34.553212,19,57115.212347
-31.409373,19,57115.562983
-43.629816,21,57115.936375
-32.851156,19,57116.247978
-50.48142,18,57116.560789
-38.19744,19,57116.785551
-38.963674,18,57117.103287
-42.504754,19,57117.427069
-45.628855,20,57117.731373
-34.028025,20,57117.914872
-31.054379,19,57118.049532
-31.400553,22,57118.202816
-39.925909,20,57118.34744
-29.080583,20,59184.90744
-40.032795,18,59185.102077
-42.90079,18,59185.282905
-55.200767,19,59185.590921
-26.498381,21,59185.892693
-37.894336,20,59186.119871
-40.527511,21,59186.48292
-38.991956,19,59186.810929
-33.634411,19,59187.145917
-37.971032,19,59187.322054
-38.256792,19,59187.629203
-33.398554,20,59187.979764
-49.909091,21,59188.310248
-38.362167,19,59188.614948
-53.470618,19,59188.955665
-41.313379,19,59189.159375
-33.805369,19,59189.48736
-32.084044,20,59189.834785
-47.476671,19,59190.1429
-42.055749,17,59190.309178
-38.959841,20,59190.447575
-26.568011,19,59190.581141
-38.564617,22,59190.74261
-37.005049,21,59190.903835
-39.301289,24,59191.092731
-41.973568,20,59191.242448
-43.5528,20,61269.512861
-34.511084,20,61269.657591
-38.582863,19,61269.8
-42.695881,18,61269.929552
-36.777664,20,61270.080182
-31.764227,20,61270.234428
-40.26631,21,61270.387997
-43.048595,19,61270.520387
-37.462293,20,61270.674185
-40.211293,21,61270.889638
-39.580439,20,61271.190719
-39.925411,20,61271.362444
-44.623761,20,61271.657924
-43.557267,20,61271.878214
-37.409858,22,61272.221036
-44.825094,19,61272.42776
-45.260819,19,61272.697592
-33.140945,19,61272.999013
-36.099828,19,61273.215667
-38.641486,20,61273.552823
-26.994123,20,61273.726516
-46.410723,21,61274.055681
-47.330255,20,61274.286748
-36.106476,19,61274.534046
-49.862286,21,61274.88607
-37.685999,19,61275.065503
-28.942252,20,63346.669202
-31.645106,18,63346.990342
-38.153963,19,63347.314043
-36.782254,22,63347.685671
-34.032443,19,63347.860349
-27.259228,20,63348.212407
-32.196059,19,63348.554131
-38.161279,19,63348.903389
-32.320243,20,63349.242281
-38.5314,21,63349.585024
-33.971887,19,63349.762649
-28.571003,20,63350.115352
-35.640329,20,63350.47011
-44.000476,21,63350.792549
-29.402996,20,63350.924387
-32.52167,20,63351.068933
-37.793543,21,63351.218626
-37.422284,20,63351.369749
-31.084949,19,63351.516988
-37.94121,20,63351.67022
-38.180432,20,63351.821609
-38.544145,19,63351.961027
-40.455772,19,63352.246209
-30.231166,20,63352.506171
-42.815728,20,63352.712363
-41.793091,20,63353.025297
-32.894326,19,65418.905907
-32.82218,19,65419.233425
-36.983829,20,65419.445033
-29.280244,20,65419.716306
-30.72018,21,65419.910257
-30.732301,22,65420.252112
-29.993854,18,65420.53943
-35.805065,20,65420.764803
-38.519983,20,65421.118051
-37.541464,19,65421.440954
-28.927525,19,65421.767541
-32.550241,19,65421.952877
-44.668557,20,65422.302504
-27.83651,21,65422.662153
-33.110157,20,65423.008093
-34.446782,18,65423.337931
-51.017676,19,65423.66275
-36.489423,19,65423.841964
-23.384471,19,65424.170614
-33.636843,21,65424.521051
-32.476939,19,65424.847618
-28.365912,19,65424.984956
-36.826507,20,65425.129081
-47.629943,21,65425.285204
-33.89069,20,65425.43013
-43.753304,22,65425.595929
-31.31047,20,67484.061238
-31.912765,19,67484.298252
-28.531692,19,67484.474568
-31.780393,20,67484.803008
-53.336545,20,67485.011141
-39.965875,20,67485.301366
-41.18922,17,67485.576299
-31.6454,20,67485.821872
-35.676197,20,67486.138674
-38.291124,19,67486.477209
-43.043199,19,67486.630035
-39.866949,20,67486.881146
-33.093443,21,67487.154164
-31.920105,20,67487.48122
-31.675374,20,67487.720762
-55.764611,22,67487.998882
-46.177186,19,67488.331436
-42.296729,21,67488.587732
-36.248343,20,67488.830556
-33.146848,19,67489.004287
-37.394045,20,67489.324133
-33.768713,20,67489.623743
-44.817024,20,67489.864344
-32.226178,19,67490.194151
-30.703772,19,67490.536494
-46.094066,20,67490.871086
-38.034384,24,69550.621391
-33.450419,19,69550.940016
-43.409987,19,69551.236809
-35.298213,20,69551.504678
-39.332393,19,69551.792565
-28.194327,20,69552.132274
-29.385965,20,69552.472026
-24.869804,20,69552.698663
-39.630464,19,69552.834194
-35.151316,19,69552.958516
-35.154173,20,69553.095574
-40.393491,20,69553.236034
-22.464014,21,69553.391881
-23.529275,20,69553.561468
-25.645171,19,69553.715692
-32.008942,19,69553.864546
-24.451169,20,69554.075918
-32.190168,19,69554.377055
-30.383381,21,69554.588549
-45.356668,20,69554.917562
-29.012784,21,69555.147908
-46.786894,20,69555.434459
-31.694801,19,69555.768524
-23.795768,21,69556.00464
-29.629727,23,69556.320166
-30.670186,20,70490.59774
-35.891396,21,70490.744499
-33.074395,19,70490.874445
-41.5256,19,70491.008223
-27.677815,20,70491.141323
-34.7742,19,70491.270488
-38.096428,25,70491.439166
-35.572461,19,70491.577625
-28.29862,20,70491.725552
-37.249166,19,70491.853961
-32.662656,20,70491.992781
-28.604611,20,70492.133779
-35.82324,23,70492.294452
-36.687359,21,70492.435686
-34.349914,19,70492.580155
-19.763367,20,70492.728116
-26.018069,20,70492.872546
-38.176086,22,70493.028331
-39.704548,20,70493.170586
-40.457507,20,70493.304132
-34.270945,20,70493.437413
-43.618763,23,70493.594465
-48.215099,21,70493.74346
-42.491313,19,70493.873408
-32.022784,19,70494.01531
-42.536462,18,71257.25793
-33.711528,19,71257.383508
-35.997715,20,71257.515122
-41.970179,19,71257.639471
-44.883038,19,71257.767041
-57.327291,25,71257.943801
-28.072447,20,71258.088192
-36.670232,20,71258.230088
-31.766788,21,71258.378275
-34.528212,20,71258.519628
-34.815405,21,71258.656914
-34.194518,21,71258.806783
-59.671984,19,71258.937541
-44.976508,19,71259.06501
-29.233883,20,71259.199778
-38.99562,17,71259.31477
-32.985533,19,71259.447364
-40.313134,19,71259.583538
-42.835707,24,71259.758443
-37.521442,23,71259.916744
-30.937587,20,71260.055341
-35.815358,19,71260.180953
-36.718323,23,71260.336586
-34.86494,20,71260.482342
-36.360776,19,71260.626424
-34.317657,19,71260.758775
-40.048797,20,72024.765449
-36.830849,19,72024.898619
-25.239446,19,72025.038037
-35.825682,19,72025.169697
-25.087583,20,72025.317241
-36.187585,19,72025.448962
-28.937808,19,72025.578511
-27.358627,20,72025.71583
-30.800293,19,72025.85032
-46.246473,20,72025.993252
-35.731778,19,72026.130967
-39.012751,19,72026.266191
-31.717632,20,72026.405174
-30.72253,21,72026.557996
-35.012069,22,72026.707165
-32.097465,20,72026.840335
-35.123183,22,72026.991894
-36.52823,20,72027.136057
-49.19901,22,72027.290247
-51.507374,20,72027.430318
-23.400145,20,72027.56242
-32.517779,19,72027.697967
-32.780439,20,72027.83523
-34.19401,19,72027.967708
-26.260289,20,72028.103123
-38.673978,20,72792.704517
-35.542731,19,72792.841394
-41.01235,21,72792.986804
-42.152657,19,72793.11473
-32.521323,19,72793.242152
-37.065858,20,72793.381093
-35.649682,21,72793.524328
-36.904527,19,72793.653839
-37.763517,21,72793.795637
-41.792088,20,72793.938045
-41.145266,19,72794.061621
-37.326846,19,72794.196105
-42.532825,19,72794.332499
-43.549139,19,72794.464054
-36.732426,19,72794.594627
-37.36756,20,72794.743355
-27.898785,20,72794.887199
-48.575907,20,72795.036058
-30.968753,21,72795.175682
-19.103629,19,72795.304169
-33.606287,19,72795.438813
-26.620556,20,72795.579732
-32.894903,20,72795.715181
-32.288646,19,72795.848673
-28.333844,20,72795.991298
-43.324505,19,72796.130438
-41.864193,19,72796.2662
-39.830739,20,73559.878195
-28.159198,19,73560.01317
-25.783261,21,73560.169701
-35.293819,20,73560.304443
-34.476031,21,73560.450052
-34.173154,19,73560.58676
-22.287294,20,73560.733404
-23.128269,20,73560.873506
-30.422194,19,73561.006956
-36.51262,18,73561.142522
-21.850354,20,73561.292827
-42.176179,21,73561.439427
-47.752067,21,73561.589123
-34.90026,19,73561.718674
-23.922086,19,73561.85444
-27.521576,19,73561.994101
-27.088554,19,73562.118639
-40.428096,19,73562.252251
-45.96725,20,73562.395681
-27.774473,20,73562.534178
-34.609327,20,73562.668461
-47.867315,20,73562.806695
-31.098033,16,73562.925593
-41.018165,18,73563.048594
-35.941423,19,73563.187317
-30.229395,20,73563.321704
-37.471114,21,74326.339886
-24.967971,22,74326.5037
-34.678124,20,74326.645681
-39.019098,21,74326.797937
-28.87562,21,74326.936679
-38.128794,20,74327.076948
-27.462915,20,74327.22657
-33.651567,20,74327.367184
-24.458785,20,74327.502529
-30.919737,20,74327.646727
-32.208071,19,74327.77608
-32.990423,21,74327.909185
-39.707232,20,74328.051578
-32.797334,19,74328.180573
-29.077566,20,74328.318892
-35.86152,19,74328.450751
-21.921921,19,74328.582424
-34.36157,20,74328.72592
-38.173674,19,74328.856994
-32.393577,20,74328.994481
-33.565665,20,74329.127156
-35.789328,21,74329.279608
-46.140052,20,74329.421707
-35.99662,18,74329.555482
-31.548948,19,74329.686954
-44.481689,18,74329.804683
-28.556535,19,75093.269039
-28.151403,19,75093.397672
-25.124282,19,75093.529872
-26.093654,20,75093.668905
-39.299338,20,75093.80963
-26.457013,21,75093.960337
-27.506083,20,75094.098412
-27.289886,21,75094.243233
-37.822729,23,75094.399019
-36.326286,21,75094.539929
-34.164147,21,75094.68601
-44.495473,20,75094.821362
-35.869249,20,75094.960497
-30.633245,20,75095.096088
-36.645107,19,75095.221687
-31.66968,20,75095.362148
-44.377312,20,75095.50674
-31.051428,19,75095.638264
-33.743162,22,75095.797461
-30.643052,20,75095.934254
-26.186496,20,75096.067899
-28.043955,19,75096.208923
-32.307399,22,75096.363898
-43.610507,19,75096.504046
-31.554668,19,75096.638366
-39.955925,22,75860.536527
-45.340091,21,75860.675464
-25.959212,20,75860.813966
-15.975824,20,75860.957616
-27.896979,19,75861.094075
-31.717768,19,75861.234283
-31.447302,20,75861.365873
-43.445298,20,75861.502271
-28.229903,25,75861.67834
-21.06358,20,75861.811548
-28.823023,20,75861.944617
-31.31528,20,75862.081914
-43.336124,20,75862.221344
-33.150128,19,75862.350347
-32.189079,20,75862.486388
-34.355104,20,75862.629161
-52.572963,23,75862.783263
-31.484581,19,75862.911616
-43.147137,21,75863.063478
-43.97924,20,75863.19316
-43.152858,20,75863.338637
-28.273444,20,75863.484168
-29.615651,21,75863.632338
-39.487558,21,75863.779499
-32.279409,19,75863.905523
-31.163986,20,76627.870806
-26.968183,20,76628.000724
-35.635214,20,76628.145431
-28.46447,19,76628.27827
-29.969007,19,76628.409816
-30.76026,19,76628.533591
-37.045942,21,76628.674565
-37.772865,20,76628.814156
-38.008271,19,76628.950786
-40.308352,21,76629.102637
-26.203254,19,76629.23228
-27.342986,20,76629.367137
-27.563266,20,76629.512008
-31.995181,20,76629.65008
-49.287408,18,76629.775727
-24.251681,21,76629.928914
-36.103161,19,76630.060861
-33.664211,20,76630.20089
-31.236908,19,76630.325428
-28.983541,19,76630.467131
-40.440054,21,76630.618802
-24.690665,19,76630.75565
-24.279851,20,76630.894614
-28.867928,20,76631.030792
-31.983564,19,76631.165676
-31.802746,20,76631.310496
-27.470191,19,77395.314469
-27.77615,19,77395.438084
-28.631077,19,77395.563004
-26.234601,20,77395.704369
-30.991014,20,77395.840683
-40.311781,20,77395.992734
-25.332361,20,77396.133492
-51.492106,26,77396.306525
-24.96444,21,77396.460591
-33.068715,21,77396.60437
-24.117251,21,77396.745972
-23.862885,20,77396.88153
-29.351368,20,77397.024499
-26.195759,21,77397.157827
-28.311171,19,77397.281948
-32.060266,20,77397.414238
-29.101903,19,77397.549869
-30.569874,19,77397.686565
-28.444095,20,77397.81854
-43.163732,20,77397.956825
-22.853767,19,77398.086998
-28.872061,19,77398.220947
-38.062717,24,77398.388695
-34.180712,20,77398.526009
-36.849601,20,77398.668101
-29.450386,21,78163.66172
-35.399238,24,78163.833797
-27.20192,19,78163.969633
-31.354737,20,78164.106088
-36.266176,20,78164.239605
-36.119688,20,78164.374961
-32.636781,21,78164.526522
-39.759473,20,78164.654173
-33.148654,20,78164.792065
-23.138401,19,78164.930748
-36.531993,20,78165.072715
-36.2782,20,78165.217438
-31.986795,21,78165.36886
-35.004729,20,78165.510516
-29.370015,19,78165.641051
-35.034981,23,78165.799014
-40.926663,20,78165.940876
-30.673879,21,78166.078481
-27.341585,19,78166.22088
-24.463892,20,78166.360615
-40.237203,20,78166.50117
-22.768859,21,78166.653172
-23.204486,25,78166.824403
-31.401531,19,78166.962039
-20.993846,20,78167.102076
-23.625969,20,78931.301481
-27.901514,20,78931.440577
-34.005255,20,78931.58338
-22.553311,20,78931.724594
-29.317798,21,78931.871664
-34.345157,19,78932.012447
-31.789736,21,78932.15508
-28.306594,20,78932.285184
-27.331096,21,78932.431365
-32.016944,19,78932.567338
-30.271377,21,78932.701544
-25.615408,20,78932.837554
-33.018035,20,78932.97414
-29.757203,20,78933.111493
-33.964806,20,78933.239219
-33.860235,21,78933.377964
-31.62265,21,78933.518637
-27.070083,20,78933.657451
-31.200412,21,78933.805609
-26.93699,15,78933.914364
-22.567931,20,78934.051856
-31.382704,21,78934.193931
-25.618121,20,78934.326387
-27.396773,20,78934.469157
-29.781264,22,78934.625477
-35.147664,19,78934.76274
-25.748215,19,79696.366675
-22.284198,20,79696.50283
-34.11192,20,79696.630273
-29.479405,20,79696.76756
-25.136691,20,79696.904979
-27.430594,21,79697.046404
-24.292023,20,79697.190167
-35.473735,22,79697.346711
-26.700806,20,79697.489367
-28.925168,21,79697.636864
-26.130131,21,79697.788027
-42.967605,17,79697.903751
-35.375405,20,79698.044165
-30.925102,21,79698.183346
-47.6362,26,79698.372436
-28.45661,24,79698.528516
-43.989923,25,79698.70755
-32.241473,19,79698.83407
-42.924016,27,79699.023033
-38.201595,20,79699.163653
-37.710685,20,79699.29995
-35.354374,25,79699.474061
-44.122124,21,79699.621055
-29.015961,21,79699.771638
-17.056168,19,80464.489018
-24.881925,20,80464.630245
-35.918877,22,80464.782855
-30.119025,19,80464.91705
-39.400577,20,80465.051973
-30.747581,21,80465.19584
-27.029392,21,80465.354321
-25.078098,20,80465.493545
-29.537245,20,80465.643745
-33.577418,21,80465.790943
-26.627491,20,80465.927134
-26.456949,20,80466.070606
-33.764389,22,80466.232047
-31.829432,20,80466.37388
-34.669357,22,80466.532757
-54.205456,30,80466.749263
-46.509648,20,80466.897795
-34.193458,20,80467.035087
-25.078153,21,80467.186178
-24.997792,20,80467.322959
-34.839334,19,80467.458141
-34.31016,20,80467.599278
-28.556424,21,80467.741983
-30.990701,22,80467.897862
-21.622663,20,80468.033928
-30.837956,20,81232.923501
-29.645141,20,81233.066771
-22.436599,20,81233.209769
-26.500441,19,81233.337614
-35.496091,17,81233.454851
-27.385315,21,81233.595731
-28.092456,22,81233.748891
-33.964037,22,81233.90174
-28.217057,22,81234.051351
-32.07537,22,81234.211503
-27.631037,19,81234.343552
-28.863491,19,81234.472404
-34.00533,18,81234.606673
-30.369652,21,81234.75724
-27.028727,21,81234.903258
-36.828458,20,81235.043862
-23.650809,20,81235.18259
-28.170938,21,81235.340801
-27.112653,20,81235.487763
-29.931688,21,81235.638734
-31.911201,19,81235.770758
-29.558164,20,81235.908792
-27.249753,21,81236.04628
-29.059546,21,81236.195678
-27.200451,20,81236.336549
-39.413636,20,81999.282051
-35.52978,23,81999.436023
-29.478272,20,81999.584647
-33.514178,22,81999.741932
-38.65927,27,81999.940977
-30.453362,20,82000.081567
-37.431129,17,82000.201822
-32.728395,20,82000.343562
-38.963875,18,82000.461461
-27.824574,20,82000.598812
-20.805945,20,82000.735929
-25.391568,20,82000.879646
-39.756509,19,82001.013682
-36.16697,20,82001.149681
-30.020606,19,82001.275758
-27.502098,21,82001.420069
-31.96447,20,82001.562236
-22.608643,21,82001.709669
-32.694944,20,82001.852499
-31.320633,20,82001.989068
-36.876049,21,82002.137337
-32.945053,20,82002.274045
-30.868567,20,82002.416698
-32.97284,21,82002.55687
-22.94546,20,82002.698448
-41.967755,24,82766.106461
-32.561397,19,82766.237146
-28.601048,22,82766.387532
-18.833174,21,82766.536663
-31.977202,19,82766.663049
-26.3015,19,82766.785333
-19.310712,20,82766.923128
-28.926965,22,82767.075321
-27.459141,20,82767.212838
-34.294747,19,82767.351356
-26.299515,19,82767.486183
-27.797086,19,82767.611812
-29.503693,20,82767.75387
-44.651642,20,82767.895815
-29.487116,20,82768.043745
-34.460635,21,82768.186839
-23.661713,21,82768.339191
-37.365725,17,82768.459566
-19.322304,19,82768.594902
-27.939749,19,82768.721195
-31.845357,19,82768.852278
-28.238337,20,82769.002584
-34.063067,17,82769.130204
-31.529968,19,82769.260508
-24.256111,20,82769.399768
-20.888605,19,82769.524954
-34.742699,20,83532.591879
-27.707333,20,83532.733238
-23.994189,21,83532.885701
-26.698386,23,83533.053961
-24.962473,20,83533.199281
-26.427537,20,83533.340221
-27.89232,20,83533.482049
-30.013793,20,83533.621742
-30.014675,20,83533.755181
-27.695961,20,83533.888945
-25.819166,20,83534.033167
-22.684745,20,83534.172845
-27.736596,21,83534.315015
-24.957847,20,83534.444114
-24.509839,20,83534.580869
-32.705163,20,83534.707881
-27.623467,20,83534.852454
-35.300858,20,83534.984016
-28.6042,21,83535.130252
-30.348756,20,83535.270511
-18.650905,20,83535.403898
-26.11182,20,83535.551296
-23.908947,20,83535.685542
-38.298735,19,83535.821295
-20.351266,19,83535.946675
-37.34592,19,84298.266766
-25.829764,19,84298.399348
-28.742628,20,84298.54004
-37.283274,17,84298.656595
-23.61109,22,84298.811447
-32.866429,23,84298.976005
-22.449378,20,84299.117306
-17.729502,20,84299.257515
-33.648009,23,84299.416247
-21.097191,20,84299.558089
-39.379978,21,84299.696568
-32.423887,24,84299.858858
-25.603864,20,84300.005493
-19.663104,20,84300.146839
-20.786567,20,84300.287538
-30.884023,22,84300.447545
-32.507078,20,84300.588859
-29.128396,21,84300.731101
-26.310043,20,84300.869807
-31.758676,22,84301.02037
-33.69658,20,84301.153236
-26.005388,21,84301.287425
-24.527209,20,84301.429615
-24.929038,18,84301.56243
-25.489147,20,84301.705048
-24.755497,20,85064.39199
-27.593252,20,85064.536226
-28.59067,20,85064.670912
-28.577703,21,85064.808778
-22.159859,19,85064.930438
-38.421344,18,85065.052213
-26.146174,21,85065.200982
-29.871239,21,85065.345891
-29.317372,19,85065.478918
-30.940551,19,85065.613863
-27.502481,21,85065.754146
-30.78885,20,85065.891896
-25.698997,21,85066.042442
-26.382227,21,85066.187602
-37.918058,21,85066.32965
-51.392256,29,85066.529008
-24.634365,21,85066.666767
-24.835279,20,85066.812589
-22.369555,20,85066.956673
-23.008699,19,85067.082276
-25.292222,20,85067.213062
-28.963137,20,85067.349803
-28.016986,22,85067.503855
-24.46024,20,85067.635235
-25.104243,21,85067.777514
-29.624416,21,85832.143481
-35.61381,20,85832.281596
-18.604886,20,85832.421466
-21.564469,19,85832.551453
-31.001119,20,85832.691933
-20.885214,21,85832.837453
-26.466573,20,85832.980022
-29.36819,26,85833.153458
-34.027809,22,85833.301756
-29.137644,20,85833.437889
-22.447476,23,85833.60919
-31.33435,21,85833.757598
-31.849851,20,85833.894573
-23.819468,20,85834.032717
-23.963287,20,85834.172225
-32.610393,20,85834.32011
-28.41971,18,85834.44255
-25.374621,20,85834.594317
-27.235538,20,85834.729527
-21.711201,21,85834.880186
-32.967585,19,85835.012771
-30.164988,21,85835.155516
-23.77115,20,85835.296455
-24.427846,20,85835.44342
-26.063155,21,85835.589314
-21.299076,20,86597.259821
-28.523385,20,86597.398231
-31.31919,20,86597.530381
-19.603929,20,86597.668216
-30.546105,19,86597.805298
-21.578751,20,86597.943065
-27.990384,20,86598.082424
-42.116509,25,86598.246525
-28.077284,19,86598.382192
-34.64952,20,86598.517381
-18.450878,21,86598.663691
-24.776284,19,86598.79739
-27.451065,21,86598.931746
-21.888235,20,86599.069667
-19.727749,20,86599.215764
-21.750254,20,86599.354534
-33.380546,21,86599.506036
-25.08788,20,86599.639066
-32.7537,20,86599.769489
-24.820023,20,86599.899402
-29.871618,22,86600.062726
-27.078149,20,86600.201342
-37.001032,20,86600.346479
-34.260944,19,86600.474568
-24.211139,22,86600.630638
-28.085808,20,87366.502106
-32.374403,19,87366.643864
-19.144097,20,87366.779026
-29.834758,20,87366.914998
-28.511754,20,87367.054305
-26.513923,20,87367.192666
-28.968529,20,87367.333443
-25.467691,20,87367.475832
-36.803013,21,87367.628519
-19.987437,20,87367.770244
-24.887472,22,87367.916684
-16.480685,21,87368.074593
-18.58077,20,87368.220226
-25.313602,20,87368.357009
-26.984347,21,87368.493856
-34.203618,20,87368.628553
-27.906543,21,87368.770115
-28.851331,21,87368.913084
-25.464859,21,87369.059666
-31.10408,20,87369.204147
-24.256272,19,87369.339497
-27.615074,20,87369.476819
-24.173997,21,87369.624441
-23.445761,19,87369.755873
-23.569906,22,87369.923031
-31.362541,21,87370.063423
-18.459716,20,88135.367988
-29.555761,21,88135.523228
-22.599684,20,88135.669576
-30.147406,20,88135.812039
-26.336067,20,88135.954567
-28.195175,20,88136.095523
-34.326079,20,88136.24274
-24.871643,20,88136.389397
-30.969731,20,88136.535133
-28.216296,20,88136.677143
-33.956137,21,88136.832194
-31.369256,23,88136.99598
-22.911988,19,88137.13353
-29.002298,22,88137.293792
-18.249268,20,88137.436455
-20.528664,21,88137.584077
-26.565502,20,88137.722825
-20.5488,21,88137.87132
-17.613883,22,88138.027894
-18.661747,20,88138.170071
-17.141578,22,88138.325931
-22.807441,20,88138.473553
-23.886922,20,88138.615699
-27.772261,20,88138.746802
-21.459856,22,88138.902008
-36.371272,20,88956.116055
-21.851084,20,88956.254509
-31.007515,20,88956.386541
-30.406669,18,88956.512769
-26.949831,21,88956.662051
-22.202143,20,88956.802912
-24.638613,20,88956.938377
-26.833739,21,88957.079489
-22.702298,20,88957.215325
-22.388847,21,88957.360432
-24.87159,20,88957.504385
-33.388309,21,88957.657258
-30.863498,21,88957.83053
-24.519954,19,88958.001245
-22.296709,20,88958.160845
-18.690549,20,88958.322197
-20.816087,21,88958.504124
-26.188915,20,88958.661573
-27.412702,21,88958.837174
-22.383351,20,88959.004949
-25.304955,19,88959.167454
-24.720207,21,88959.33773
-23.91928,20,88959.503026
-37.185255,21,88959.680814
-24.134006,20,88959.844935
-34.63231,20,89734.728086
-20.633203,20,89734.857841
-31.873282,19,89734.988411
-24.476944,20,89735.131966
-16.034163,21,89735.275968
-28.718954,20,89735.416972
-42.690114,21,89735.564942
-21.349594,19,89735.690941
-18.322474,20,89735.822989
-18.400346,20,89735.954724
-40.089713,20,89736.088747
-30.449139,19,89736.221161
-19.077505,20,89736.354678
-17.125391,20,89736.487252
-30.008362,21,89736.631484
-30.920446,19,89736.76081
-17.409729,20,89736.900491
-33.434453,20,89737.044494
-30.434503,22,89737.195229
-27.430607,20,89737.329952
-22.593308,20,89737.470433
-22.60098,20,89737.612544
-21.523612,19,89737.748769
-23.58636,20,89737.884947
-21.807724,19,89738.019259
-12.867428,20,89738.153686
-23.571434,19,90508.969126
-23.666222,19,90509.106191
-26.961825,20,90509.24342
-25.237764,20,90509.383729
-22.139489,21,90509.527207
-16.666918,20,90509.669035
-18.190334,19,90509.801108
-32.453449,18,90509.926543
-28.826723,22,90510.077601
-44.121739,20,90510.217591
-23.979124,19,90510.341576
-29.290924,22,90510.49599
-23.847264,20,90510.632055
-29.512539,19,90510.768744
-21.387548,19,90510.91164
-24.078852,20,90511.05635
-43.162071,19,90511.191644
-25.834544,21,90511.335522
-28.69677,20,90511.477659
-27.488655,21,90511.632556
-24.295763,20,90511.782076
-26.694338,20,90511.928923
-22.655212,19,90512.071989
-22.630465,20,90512.215095
-24.349736,21,90512.35942
-22.334319,21,91407.605201
-24.012637,20,91407.771278
-28.65629,22,91407.963068
-36.756947,19,91408.116039
-27.259555,21,91408.289929
-32.090865,21,91408.460016
-23.388332,21,91408.631271
-13.427084,20,91408.799102
-32.233118,20,91408.968172
-22.046068,20,91409.134409
-24.856484,20,91409.30027
-20.498524,20,91409.454743
-23.399157,19,91409.617136
-24.076678,20,91409.781821
-25.498544,22,91409.956379
-17.006372,20,91410.126107
-25.226435,19,91410.278459
-23.284312,22,91410.461557
-19.556743,20,91410.624545
-24.08299,21,91410.791817
-29.696842,21,91410.970594
-32.398593,21,91411.138003
-28.557104,19,91411.295303
-20.37832,20,91411.462235
-32.633512,20,91411.62162
-29.799881,20,92343.338953
-27.845967,20,92343.474786
-29.261212,20,92343.618858
-26.107955,20,92343.750019
-22.395363,20,92343.87938
-28.402707,21,92344.029313
-18.718767,19,92344.16298
-27.466387,20,92344.303792
-22.302039,20,92344.441198
-24.76252,19,92344.568434
-25.170942,26,92344.740188
-24.354678,19,92344.868886
-17.585183,19,92344.998795
-19.591682,20,92345.137461
-23.004314,21,92345.284738
-28.083132,21,92345.418288
-32.995849,19,92345.55316
-23.709589,22,92345.701386
-36.365615,20,92345.837238
-28.258626,20,92345.974329
-30.708934,20,92346.121082
-16.284604,21,92346.257472
-25.857894,21,92346.401017
-23.378048,21,92346.536486
-11.37892,20,92346.665914
-30.171641,20,92346.806282
-29.967299,20,93110.045099
-25.213267,20,93110.18589
-18.594207,20,93110.322228
-24.255491,20,93110.450975
-28.413246,20,93110.592392
-15.927701,20,93110.739398
-21.255913,21,93110.884028
-34.078681,24,93111.046884
-28.09434,22,93111.197699
-19.770228,20,93111.327079
-27.653367,18,93111.453232
-28.279867,21,93111.589941
-27.535065,20,93111.719423
-13.008814,20,93111.849977
-24.950015,20,93111.982953
-23.356535,20,93112.120131
-17.835809,21,93112.263577
-24.599914,22,93112.41252
-41.214793,20,93112.560865
-32.0078,22,93112.704834
-13.736019,20,93112.845814
-22.576369,21,93112.987288
-27.724896,21,93113.133128
-18.18782,20,93113.271212
-30.481173,20,93876.217995
-23.028588,20,93876.3584
-18.811582,23,93876.514909
-24.173288,22,93876.664156
-28.592551,20,93876.79486
-21.179517,20,93876.929399
-14.283554,21,93877.083325
-21.943666,20,93877.221893
-20.434292,21,93877.362895
-23.474078,20,93877.513142
-31.340776,21,93877.661112
-30.796799,20,93877.79779
-29.202312,20,93877.944099
-24.387261,20,93878.092087
-24.537237,19,93878.219377
-25.581159,21,93878.36919
-15.152798,20,93878.504626
-26.476696,19,93878.634175
-23.145469,20,93878.773036
-16.316377,21,93878.926646
-20.419101,19,93879.061575
-23.723873,20,93879.199792
-16.041972,24,93879.350028
-24.049797,20,93879.492541
-20.811694,21,93879.639829
-23.296596,20,94643.755699
-33.316637,25,94643.922328
-20.059846,20,94644.064313
-22.219081,20,94644.195897
-20.084009,21,94644.338593
-11.289999,20,94644.474886
-21.41587,21,94644.613759
-22.802963,20,94644.75283
-19.784344,20,94644.887459
-15.37784,21,94645.033997
-25.353161,19,94645.163798
-20.591204,20,94645.296546
-20.703244,21,94645.448478
-25.343376,20,94645.589221
-27.268756,21,94645.732864
-22.201089,20,94645.865318
-25.721339,19,94645.993914
-19.411153,20,94646.125176
-25.846017,20,94646.267199
-23.616816,23,94646.426398
-16.038353,20,94646.571055
-19.797123,21,94646.715565
-24.641107,20,94646.849386
-24.143875,20,94646.984912
-31.080772,20,94647.118633
-20.611845,21,95409.907256
-23.52406,19,95410.034175
-18.427703,21,95410.183818
-23.778301,21,95410.330147
-21.274603,22,95410.485597
-12.926075,20,95410.621352
-17.972288,20,95410.761386
-21.250081,20,95410.904909
-19.936517,20,95411.049014
-25.943736,20,95411.1879
-20.536138,22,95411.35167
-24.469804,21,95411.500726
-16.978148,20,95411.634786
-22.892273,20,95411.782639
-18.985028,20,95411.923202
-21.69717,20,95412.055704
-22.181091,20,95412.195901
-22.801756,21,95412.334536
-27.243698,22,95412.487334
-19.257513,21,95412.627483
-23.955638,20,95412.758919
-20.748401,20,95412.898863
-25.417583,22,95413.045567
-24.23351,20,95413.190976
-21.821603,20,95413.323534
-25.708121,19,96176.699987
-26.163287,20,96176.834611
-22.436025,19,96176.96017
-22.69179,21,96177.10389
-18.413018,20,96177.24639
-21.22687,19,96177.374304
-20.576532,21,96177.524877
-22.315887,21,96177.671002
-21.899302,21,96177.812572
-27.93976,20,96177.956432
-24.448488,20,96178.097898
-24.516661,18,96178.22369
-15.03978,20,96178.366765
-28.125838,21,96178.511084
-20.824788,21,96178.650485
-19.858161,20,96178.796018
-22.227309,21,96178.942158
-26.42951,20,96179.074718
-18.443651,21,96179.220518
-26.331483,21,96179.371888
-13.688651,20,96179.511103
-23.534765,20,96179.645147
-30.36326,19,96179.770636
-14.138638,20,96179.906849
-19.018431,19,96180.039363
-16.502609,20,96180.185707
-25.018104,21,96945.459347
-27.163058,20,96945.592481
-25.156323,20,96945.724949
-13.96534,19,96945.856603
-19.882664,20,96946.003551
-20.756412,19,96946.134301
-19.477258,20,96946.260059
-27.38071,20,96946.402785
-25.349897,20,96946.54864
-13.379232,21,96946.694474
-23.736772,20,96946.832103
-18.484182,19,96946.965956
-20.359818,20,96947.104614
-17.927197,19,96947.234956
-14.549596,21,96947.37572
-22.502715,20,96947.514592
-12.824979,19,96947.660623
-21.57034,19,96947.792749
-17.674779,21,96947.944141
-15.811237,19,96948.072296
-22.197199,21,96948.222611
-16.964969,19,96948.368959
-25.674958,20,96948.511526
-22.445346,21,96948.654389
-44.99282,19,96948.789025
-18.741169,21,96948.921246
-12.213337,20,97712.767472
-27.747872,19,97712.889996
-21.316499,20,97713.026302
-18.764065,21,97713.164727
-16.887101,19,97713.306275
-23.777269,20,97713.442127
-22.715559,20,97713.578151
-19.709977,19,97713.707268
-18.082691,20,97713.838133
-16.714516,20,97713.973662
-16.738324,19,97714.103519
-16.78148,20,97714.241914
-26.587599,20,97714.373566
-21.601777,21,97714.518128
-16.121463,20,97714.652471
-24.369972,21,97714.794697
-16.107057,20,97714.92942
-28.224464,18,97715.050462
-16.109809,20,97715.195056
-21.071598,20,97715.330652
-16.322569,20,97715.469833
-16.871053,20,97715.609542
-19.384043,20,97715.744352
-16.225233,20,97715.876192
-24.79438,20,97716.012219
-18.303016,20,98480.425495
-21.467655,20,98480.560748
-23.141885,20,98480.696734
-28.366276,21,98480.836026
-20.445966,19,98480.972595
-20.143601,20,98481.114033
-17.232424,20,98481.249003
-15.659049,21,98481.395724
-14.850282,21,98481.541579
-18.97471,20,98481.683728
-25.481157,19,98481.813806
-15.966266,20,98481.941923
-28.019047,19,98482.073455
-19.490957,20,98482.208786
-23.375294,21,98482.349093
-22.707899,20,98482.481277
-21.594252,20,98482.627095
-25.338696,20,98482.765761
-20.828637,20,98482.89965
-23.44309,19,98483.030787
-21.955261,20,98483.170783
-25.806355,20,98483.314306
-14.277966,20,98483.463331
-23.628228,20,98483.599904
-22.272077,20,98483.738185
-25.947463,21,98483.87955
-23.994397,20,99249.970881
-23.722563,19,99250.103245
-15.17353,19,99250.227282
-23.67074,19,99250.351854
-22.826324,18,99250.475917
-27.387692,20,99250.610198
-27.879926,20,99250.748993
-16.434523,20,99250.892134
-15.739874,20,99251.025486
-16.212884,20,99251.165766
-16.491063,20,99251.301766
-20.343664,20,99251.449262
-20.801905,19,99251.592386
-20.183989,20,99251.734626
-17.706404,20,99251.882975
-16.683411,24,99252.045504
-33.902245,20,99252.178083
-18.440897,20,99252.315355
-19.706759,21,99252.465552
-25.76306,20,99252.605517
-15.714754,20,99252.747523
-28.180811,19,99252.878165
-26.790061,20,99253.009439
-18.851503,19,99253.146121
-27.637503,19,99253.276764
-20.891513,19,99253.411659
-16.498899,20,100018.501636
-17.381511,20,100018.649674
-8.125167,21,100018.793841
-20.857313,19,100018.920349
-18.131631,20,100019.056763
-18.023099,20,100019.199849
-23.014631,20,100019.330055
-24.874768,19,100019.471542
-25.2015,20,100019.615856
-19.827766,19,100019.741944
-13.410428,20,100019.884705
-15.809852,20,100020.024468
-24.389571,20,100020.16131
-9.918898,20,100020.295644
-24.228021,20,100020.43608
-19.14281,20,100020.569761
-27.874843,19,100020.697302
-22.867881,20,100020.835412
-22.726991,19,100020.974494
-16.426528,20,100021.117637
-17.527003,20,100021.258448
-18.680599,19,100021.390638
-25.303201,20,100021.533789
-19.135507,19,100021.669127
-17.848127,20,100021.801073
-27.837454,20,100021.936085
-20.93236,22,100785.848618
-26.641105,20,100785.987522
-19.854155,20,100786.122033
-28.326055,19,100786.250085
-15.694312,20,100786.386417
-15.411937,20,100786.538305
-22.106395,21,100786.683562
-14.828491,20,100786.8178
-15.139382,19,100786.951601
-15.930436,20,100787.097569
-16.971184,20,100787.2362
-15.667161,20,100787.376534
-16.089927,21,100787.515098
-17.938323,20,100787.647927
-15.311256,20,100787.781025
-11.759551,20,100787.920046
-17.224018,20,100788.057614
-10.514815,20,100788.199999
-18.964278,20,100788.351091
-12.547174,20,100788.486623
-18.294392,19,100788.609854
-27.635316,20,100788.761041
-13.064051,20,100788.894764
-26.238638,19,100789.034785
-15.607886,21,100789.181324
-38.257319,17,101552.825358
-21.134584,20,101552.956798
-17.113436,20,101553.098449
-13.566114,20,101553.239371
-20.92682,20,101553.375463
-18.188681,22,101553.52666
-18.732749,19,101553.654683
-15.191902,20,101553.800454
-32.19571,20,101553.940298
-22.920992,19,101554.068531
-14.621154,20,101554.215173
-20.341266,20,101554.355155
-15.821552,20,101554.499896
-24.171412,19,101554.633669
-16.88295,20,101554.766252
-38.315685,18,101554.884338
-21.176925,19,101555.010801
-25.557496,21,101555.157151
-16.862208,19,101555.290126
-18.281859,20,101555.421101
-14.327777,20,101555.562414
-19.904212,20,101555.703496
-20.366718,20,101555.845989
-18.478171,20,101555.984587
-15.796118,20,101556.121143
-20.559857,20,101556.263243
-20.824805,21,102320.483533
-15.882765,21,102320.641274
-15.765537,20,102320.782842
-25.932174,19,102320.910605
-22.520402,19,102321.053476
-17.823108,19,102321.193849
-13.635538,20,102321.332176
-29.969103,21,102321.465197
-15.691505,21,102321.611792
-19.513413,19,102321.744232
-25.231347,20,102321.880324
-19.318502,20,102322.016599
-14.842334,19,102322.159657
-16.391887,20,102322.295826
-23.629344,19,102322.430057
-16.896255,19,102322.557368
-17.988308,20,102322.694696
-22.38219,20,102322.834714
-24.349559,20,102322.982718
-19.978466,19,102323.115824
-13.180518,21,102323.26026
-16.077747,22,102323.414362
-13.358937,19,102323.544204
-22.793214,20,102323.688262
-17.855886,20,102323.824167
-10.719574,20,102323.963144
-17.855426,20,103088.893844
-19.467045,19,103089.029436
-10.980337,20,103089.177804
-19.529191,19,103089.313686
-20.245345,19,103089.444816
-26.858854,20,103089.574971
-15.642332,19,103089.706012
-12.402934,20,103089.845291
-14.478199,21,103089.985609
-25.902621,19,103090.120237
-21.513138,20,103090.25282
-18.405967,21,103090.389912
-20.585594,20,103090.535769
-9.359581,21,103090.688307
-9.249611,21,103090.836325
-18.546002,22,103090.998298
-13.042935,21,103091.140414
-18.128025,20,103091.284216
-19.446284,20,103091.428319
-26.800413,20,103091.570259
-28.418478,19,103091.697728
-26.894505,20,103091.840213
-22.438316,18,103091.96195
-9.351174,20,103092.101911
-15.969254,19,103092.234276
-25.697196,19,103092.36938
-24.679415,20,103857.644104
-16.476327,20,103857.78775
-25.514785,20,103857.925386
-36.834518,21,103858.083672
-22.932244,20,103858.228113
-21.257847,20,103858.374279
-23.642599,19,103858.515137
-16.277661,20,103858.660548
-17.815183,20,103858.803405
-20.706695,20,103858.941417
-23.521769,20,103859.081287
-12.129176,20,103859.230522
-15.258694,20,103859.373306
-27.339987,21,103859.525813
-19.622102,19,103859.657952
-23.540019,20,103859.804155
-20.011862,22,103859.962972
-12.111456,20,103860.111247
-8.768532,20,103860.253976
-15.663723,21,103860.407229
-22.748133,19,103860.54888
-24.280876,20,103860.697422
-23.772308,20,103860.838286
-12.681104,20,103860.975927
-17.784164,24,103861.142036
-20.359763,19,104634.325695
-19.978305,18,104634.455012
-12.777063,20,104634.60066
-15.58869,19,104634.739504
-11.378718,23,104634.905598
-21.009689,19,104635.045851
-12.426481,20,104635.184821
-13.806284,20,104635.331391
-16.55752,20,104635.479247
-19.988535,20,104635.624396
-17.717863,20,104635.774775
-20.694683,20,104635.926525
-17.65153,20,104636.08079
-16.958858,20,104636.22568
-16.020886,21,104636.375102
-13.845831,20,104636.522829
-17.568322,20,104636.663566
-24.792559,19,104636.803244
-14.703369,20,104636.947944
-22.377136,20,104637.087434
-14.315769,20,104637.23069
-13.330309,20,104637.371511
-22.980632,19,104637.511698
-29.464888,18,104637.637691
-19.844178,20,104637.779216
-18.199262,20,104637.921293
-18.909123,20,105412.380064
-16.553707,20,105412.524944
-19.010011,20,105412.669224
-14.865053,20,105412.816393
-22.468272,20,105412.960042
-17.730755,20,105413.11081
-19.476354,20,105413.249711
-18.60393,21,105413.403534
-16.819722,20,105413.545066
-20.088102,20,105413.684929
-25.481351,19,105413.827659
-15.860337,20,105413.965897
-16.589737,19,105414.098805
-11.75693,21,105414.257982
-12.743502,21,105414.405149
-19.691684,19,105414.541916
-20.341263,20,105414.688329
-16.929822,21,105414.840857
-21.544041,20,105414.988408
-10.912643,20,105415.130355
-20.339752,20,105415.280998
-24.721102,19,105415.424084
-18.824607,21,105415.57136
-13.298634,20,105415.711803
-23.623003,20,105415.84972
-19.364915,20,106188.957663
-16.600837,20,106189.103803
-22.272034,19,106189.240967
-15.910709,19,106189.380114
-13.853381,20,106189.520972
-22.898771,21,106189.674969
-20.875499,19,106189.813093
-16.36142,19,106189.9519
-22.887289,19,106190.084287
-36.113138,20,106190.231274
-11.581992,20,106190.371441
-13.340143,22,106190.530275
-13.479801,20,106190.67813
-25.451479,19,106190.817124
-20.582028,21,106190.967517
-13.5591,20,106191.119386
-18.207219,20,106191.263191
-16.069394,21,106191.413042
-27.389896,20,106191.55353
-17.449646,21,106191.699444
-26.177609,19,106191.839216
-20.216257,20,106191.981343
-25.939691,20,106192.124433
-18.955076,20,106192.274039
-19.527122,20,106192.423905
-12.06852,20,106192.564672
-23.608035,20,106964.798024
-19.453503,21,106964.943309
-19.341238,20,106965.087124
-17.688487,20,106965.231436
-13.409768,21,106965.376505
-12.28691,20,106965.517054
-16.162141,22,106965.677464
-17.531663,20,106965.820533
-28.199721,21,106965.975986
-10.533538,20,106966.119237
-10.97084,21,106966.27198
-21.08022,20,106966.411171
-28.148381,19,106966.540364
-21.935011,20,106966.683735
-13.671367,20,106966.822684
-24.79703,20,106966.970323
-18.082885,19,106967.103414
-14.749576,20,106967.249138
-25.912996,20,106967.387004
-22.564283,21,106967.525137
-28.217351,20,106967.66645
-23.724681,21,106967.816387
-20.320395,23,106967.983567
-22.15875,21,106968.129939
-14.467904,20,106968.273559
-23.211893,20,107741.922424
-16.065036,19,107742.058821
-13.587047,21,107742.21036
-19.33354,20,107742.354131
-21.313444,21,107742.497271
-18.295412,19,107742.63627
-9.46097,20,107742.784207
-21.223391,24,107742.951301
-16.012396,20,107743.099495
-17.076948,19,107743.240928
-17.007824,21,107743.3956
-18.779178,21,107743.549165
-13.527154,21,107743.701365
-22.394788,21,107743.860832
-27.220962,19,107743.997481
-21.231897,21,107744.139356
-16.798508,21,107744.282322
-18.403943,20,107744.424524
-19.478828,20,107744.571344
-15.134276,20,107744.712705
-16.161674,20,107744.853146
-13.055208,20,107744.999272
-11.60463,21,107745.148718
-12.746028,19,107745.277854
-9.375146,20,107745.41663
-13.120592,20,108511.955112
-16.680652,20,108512.094986
-19.97478,21,108512.251788
-11.711615,21,108512.405472
-17.860293,20,108512.548489
-13.092611,20,108512.68605
-20.381375,19,108512.818251
-16.831109,20,108512.951707
-17.097961,20,108513.100672
-8.653281,20,108513.2372
-18.724352,20,108513.377689
-27.224974,20,108513.512577
-17.908579,21,108513.664297
-12.291584,25,108513.836332
-19.045818,20,108513.972836
-19.198283,20,108514.107886
-13.129785,20,108514.244069
-28.298689,19,108514.377951
-15.872135,20,108514.516243
-15.622332,21,108514.660613
-21.368195,20,108514.81289
-17.739154,20,108514.948838
-15.292788,21,108515.088733
-19.876862,20,108515.229562
-25.657808,18,108515.360326
-17.903358,21,108515.503982
-23.467535,18,109281.253911
-20.046152,21,109281.39818
-18.536431,20,109281.550512
-14.593484,21,109281.698678
-16.764856,20,109281.84325
-8.818472,20,109281.984465
-16.547423,20,109282.126798
-18.906503,20,109282.266595
-9.886369,20,109282.404064
-14.73463,20,109282.549432
-11.480765,20,109282.699688
-23.422487,21,109282.840756
-27.454929,19,109282.965385
-9.399301,19,109283.101512
-10.774942,20,109283.246997
-14.834797,20,109283.391073
-20.042148,21,109283.536888
-20.021053,20,109283.67914
-6.694049,22,109283.833953
-22.212339,20,109283.979792
-10.256239,20,109284.117676
-14.54205,21,109284.269742
-11.357823,19,109284.40665
-16.944005,20,109284.557266
-20.445535,20,109284.69927
-18.782695,20,110051.626359
-14.573374,21,110051.768743
-13.230467,20,110051.903116
-16.121589,19,110052.038944
-18.32999,20,110052.178591
-13.181372,19,110052.309092
-8.567115,21,110052.454402
-19.953952,18,110052.586967
-13.134628,20,110052.721394
-10.686151,21,110052.864994
-19.420468,20,110053.007438
-15.370062,20,110053.143767
-18.130769,20,110053.284511
-13.200308,20,110053.421935
-11.716955,20,110053.567268
-20.508699,20,110053.712304
-21.270917,19,110053.838813
-23.02828,20,110053.968128
-18.700165,20,110054.099787
-23.693628,19,110054.234685
-25.069938,20,110054.364476
-18.432299,19,110054.489964
-25.011616,20,110054.627281
-20.789853,21,110054.779182
-21.873701,20,110054.920833
-13.870354,21,110055.071755
-26.612968,21,110819.56066
-16.669771,21,110819.703312
-17.461269,21,110819.845235
-10.039008,21,110819.987128
-14.198089,25,110820.165291
-13.328022,19,110820.304122
-17.567874,21,110820.451499
-15.025203,20,110820.594998
-19.317853,21,110820.737002
-9.909218,21,110820.882473
-7.410511,20,110821.030642
-20.211805,21,110821.168133
-16.876666,20,110821.306474
-16.236962,20,110821.441841
-17.351792,19,110821.567733
-22.578564,20,110821.715933
-22.566315,20,110821.859115
-22.199926,20,110821.995137
-15.156907,21,110822.140937
-8.01025,20,110822.287923
-15.430631,20,110822.434427
-20.485465,19,110822.563695
-16.227548,20,110822.702332
-20.238157,19,110822.826767
-17.618712,20,110822.957839
-18.816252,20,111589.706792
-11.931677,20,111589.846547
-17.681508,20,111589.986487
-25.305965,20,111590.129463
-15.372155,20,111590.2647
-17.129322,20,111590.412672
-15.621116,21,111590.560164
-23.371375,20,111590.696534
-13.389692,21,111590.84481
-17.61711,21,111590.996699
-13.794252,21,111591.137701
-12.42717,20,111591.274754
-20.795677,23,111591.43369
-21.819793,21,111591.586779
-13.558382,20,111591.726125
-19.846251,19,111591.853842
-12.645048,20,111591.988099
-13.953586,20,111592.124653
-18.352882,20,111592.259178
-21.04007,24,111592.424429
-10.90297,20,111592.561462
-13.660807,20,111592.707207
-19.266639,21,111592.843428
-22.455221,20,111592.976547
-13.199836,21,111593.125315
-15.416638,21,112358.729876
-36.919946,17,112358.848221
-14.008581,20,112358.980438
-14.452219,20,112359.112097
-10.326864,20,112359.243166
-17.838354,20,112359.375043
-16.997991,21,112359.520578
-13.966141,20,112359.656708
-13.479053,21,112359.798359
-19.611076,21,112359.942347
-14.409871,19,112360.075754
-17.878671,20,112360.210453
-11.66139,22,112360.367832
-10.702503,20,112360.51193
-19.502828,21,112360.654484
-9.741899,20,112360.798364
-21.302795,20,112360.934427
-12.070813,20,112361.071918
-14.250092,22,112361.227293
-22.99297,20,112361.362973
-14.175472,20,112361.48992
-16.981969,21,112361.62607
-22.050853,21,112361.765433
-13.494343,20,112361.907822
-13.003092,21,112362.056441
-21.765486,20,113129.199815
-15.85385,20,113129.329006
-18.250111,20,113129.470044
-18.594312,21,113129.61193
-11.502384,20,113129.750415
-27.027315,20,113129.883636
-8.792401,20,113130.016207
-11.735384,20,113130.156697
-17.68491,19,113130.277408
-25.701418,22,113130.427495
-13.981757,20,113130.571251
-15.723105,20,113130.717705
-15.863516,20,113130.860473
-20.768565,20,113130.998075
-13.337481,21,113131.148762
-16.362467,19,113131.285394
-18.423782,19,113131.415976
-17.356548,22,113131.56561
-10.53397,21,113131.708814
-26.302158,21,113131.851279
-25.706094,20,113131.987344
-16.566905,20,113132.12514
-17.665409,20,113132.268358
-13.772355,20,113132.40874
-22.439496,20,113132.551456
-16.846805,20,113896.118296
-21.747196,19,113896.252992
-18.376583,21,113896.399959
-26.334036,19,113896.526651
-14.837932,21,113896.671494
-22.52968,19,113896.811054
-18.747267,21,113896.963748
-8.969036,20,113897.104538
-12.581059,20,113897.251245
-19.573392,20,113897.390826
-18.727348,21,113897.53686
-12.732202,20,113897.678299
-9.668676,19,113897.810759
-13.18548,20,113897.946347
-13.766807,20,113898.084532
-18.699991,19,113898.218638
-6.399669,21,113898.362734
-24.464564,20,113898.498115
-23.590801,20,113898.640039
-13.16754,20,113898.783371
-22.301051,19,113898.90925
-12.596211,20,113899.042863
-14.177443,20,113899.180963
-21.060541,21,113899.32772
-9.660875,20,113899.466103
-9.076397,20,113899.612738
-15.028934,20,114662.980666
-10.388651,20,114663.114374
-19.440157,21,114663.262611
-19.437812,22,114663.408805
-18.034837,20,114663.538271
-13.517813,20,114663.673731
-15.871063,21,114663.81203
-19.439139,23,114663.98002
-20.839285,20,114664.123746
-18.069921,20,114664.265013
-17.307435,21,114664.399386
-14.880766,20,114664.527507
-15.82856,21,114664.668869
-13.393044,22,114664.818447
-16.738713,21,114664.95892
-15.30922,20,114665.094242
-19.508225,19,114665.233024
-7.372033,22,114665.380196
-9.975112,19,114665.513266
-18.834577,20,114665.650809
-9.955826,21,114665.788924
-17.440651,20,114665.91974
-17.785427,21,114666.072378
-15.4538,20,114666.208107
-21.130601,19,114666.34553
-15.143012,20,115430.53214
-18.886156,20,115430.663633
-16.751439,21,115430.801839
-9.756853,21,115430.945066
-16.355428,19,115431.076454
-21.245197,20,115431.222941
-12.046586,20,115431.362025
-17.218801,19,115431.488751
-18.661608,23,115431.650604
-13.273525,21,115431.805384
-16.132915,20,115431.948674
-22.673388,21,115432.084763
-8.158066,20,115432.224324
-15.151023,20,115432.362401
-11.173219,21,115432.508397
-18.573779,20,115432.640969
-10.619878,21,115432.782512
-10.397555,20,115432.921775
-22.946591,21,115433.062816
-12.233733,20,115433.198661
-18.418421,20,115433.346478
-15.859558,23,115433.494003
-11.174704,20,115433.633519
-7.680725,21,115433.783052
-16.561982,21,115433.917062
-23.221266,19,116198.432499
-6.870336,21,116198.571878
-10.691392,20,116198.715729
-12.420762,20,116198.845547
-19.226161,20,116198.976867
-16.465183,22,116199.130797
-13.300415,19,116199.261827
-23.293689,18,116199.388056
-17.945791,22,116199.548728
-12.352133,19,116199.677522
-5.893196,21,116199.823873
-9.984972,20,116199.959583
-12.184931,21,116200.102531
-12.460801,20,116200.251894
-5.220108,21,116200.398671
-15.174011,20,116200.531368
-9.92823,23,116200.691785
-17.730512,23,116200.840755
-11.873076,20,116200.97709
-10.283573,20,116201.120867
-21.245515,21,116201.263659
-11.94362,21,116201.41984
-18.203275,20,116201.557912
-12.148642,20,116201.700859
-17.469071,20,116201.835337
-21.381965,22,116965.387082
-19.988976,19,116965.516685
-11.739524,21,116965.665091
-10.246777,20,116965.807281
-16.66816,20,116965.953259
-14.643581,20,116966.086413
-11.839391,20,116966.231976
-19.170359,20,116966.367457
-22.534773,21,116966.511595
-11.534973,20,116966.652472
-9.648063,20,116966.793964
-17.590565,19,116966.923266
-16.890432,20,116967.057599
-10.960529,20,116967.193383
-10.977961,20,116967.336479
-17.142696,19,116967.464619
-14.554406,20,116967.602733
-17.579614,20,116967.742981
-15.416638,22,116967.888089
-14.316665,20,116968.032225
-21.624888,19,116968.161605
-13.525463,21,116968.302665
-12.961306,20,116968.448335
-20.48332,22,116968.601719
-17.965345,20,116968.741982
-21.252635,20,117732.66016
-20.112407,21,117732.799802
-13.640385,20,117732.935685
-13.561408,20,117733.071421
-15.641066,20,117733.207851
-18.033388,19,117733.340824
-11.52732,20,117733.48407
-9.796427,21,117733.628379
-16.411064,20,117733.770965
-11.298243,20,117733.908587
-11.115083,21,117734.060359
-10.568908,19,117734.182085
-10.288388,20,117734.318516
-11.986178,21,117734.470897
-14.032446,21,117734.618745
-15.604535,20,117734.754593
-12.97036,20,117734.888272
-15.238256,20,117735.03651
-24.704052,22,117735.187012
-13.879697,20,117735.328202
-14.877938,20,117735.464866
-22.750778,17,117735.579725
-8.194786,20,117735.713522
-12.533116,20,117735.848076
-18.712448,21,117736.003558
-10.486233,21,117736.147833
-18.369666,21,118499.932102
-14.696842,21,118500.08321
-16.452403,21,118500.227849
-16.031831,20,118500.373435
-16.038307,22,118500.521744
-15.094539,20,118500.654286
-10.038914,20,118500.786605
-17.311016,21,118500.93757
-23.835528,20,118501.075964
-15.668882,20,118501.216766
-20.433508,21,118501.365093
-14.656588,22,118501.522221
-13.373695,21,118501.661861
-15.366654,22,118501.80644
-15.603544,20,118501.940381
-23.389218,21,118502.089207
-13.362106,21,118502.228351
-14.395222,20,118502.364023
-15.804555,22,118502.515112
-14.609188,20,118502.649705
-9.090887,21,118502.801734
-6.972073,21,118502.949026
-13.844141,20,118503.084267
-7.61658,20,118503.220278
-11.110098,20,119268.057024
-15.128025,20,119268.193783
-10.809226,22,119268.348291
-13.048049,21,119268.490482
-9.20067,24,119268.653713
-12.041266,20,119268.800947
-19.070059,17,119268.910146
-4.374735,21,119269.055563
-14.730979,22,119269.216611
-18.029461,20,119269.352831
-14.382001,21,119269.498875
-12.125774,21,119269.643728
-17.104382,24,119269.812163
-8.200357,23,119269.970779
-9.304127,22,119270.119641
-13.069186,21,119270.26784
-21.217525,19,119270.400893
-17.369779,21,119270.54231
-14.444571,20,119270.685404
-16.723648,20,119270.83154
-6.678575,21,119270.977341
-11.151869,20,119271.108191
-11.570463,20,119271.243763
-7.002813,22,119271.39548
-14.835396,20,119271.536183
-15.742595,20,120035.659446
-17.946507,19,120035.788268
-10.377177,20,120035.925336
-22.178803,20,120036.064008
-9.615163,21,120036.205648
-10.616784,21,120036.34616
-9.377253,20,120036.475367
-17.040471,20,120036.613927
-14.657012,20,120036.752673
-15.135096,20,120036.885918
-13.333817,21,120037.029798
-15.262177,21,120037.173469
-13.168197,21,120037.312074
-14.449883,20,120037.44162
-15.974666,22,120037.598877
-12.87982,21,120037.734053
-20.429563,21,120037.87106
-11.098474,20,120038.00545
-26.59971,19,120038.129979
-19.015057,22,120038.27681
-22.98831,20,120038.412253
-18.02358,21,120038.560383
-11.892603,21,120038.706197
-11.862867,20,120038.8461
-18.602754,19,120038.981471
-11.841599,20,120804.523781
-7.803027,21,120804.665295
-3.003145,21,120804.809084
-16.440969,21,120804.946307
-18.820222,20,120805.08053
-23.364236,20,120805.221395
-28.069556,20,120805.367906
-22.387636,23,120805.527395
-13.625481,22,120805.673383
-17.455736,20,120805.811013
-16.033059,21,120805.959177
-51.974574,17,120806.072058
-12.770183,20,120806.216846
-15.432561,20,120806.362607
-16.937024,21,120806.501821
-14.531704,20,120806.639287
-19.180939,20,120806.77057
-11.640173,20,120806.90814
-21.433411,20,120807.055806
-15.131268,21,120807.198698
-15.576961,20,120807.334068
-23.315761,19,120807.469213
-17.040696,19,120807.599304
-20.785381,23,120807.753158
-9.589142,21,120807.890696
-21.262319,22,121571.742383
-14.767553,20,121571.878829
-14.276643,21,121572.014194
-8.962614,22,121572.164684
-30.422618,20,121572.299978
-19.234416,20,121572.444601
-11.223746,20,121572.574527
-10.56506,21,121572.712938
-9.661386,25,121572.878995
-23.482031,19,121573.008893
-7.946239,21,121573.159032
-24.221085,21,121573.307747
-11.786383,20,121573.449587
-11.144535,22,121573.607479
-4.92167,20,121573.74555
-21.986499,20,121573.880728
-10.325033,21,121574.025636
-9.899293,21,121574.160535
-12.165966,21,121574.299683
-14.597252,22,121574.444249
-19.653084,21,121574.596235
-24.840066,22,121574.745237
-12.057017,20,121574.877195
-23.415509,19,121575.004725
-18.719849,23,122340.81053
-20.890656,20,122340.953377
-22.932671,20,122341.093142
-18.011306,20,122341.236973
-15.566595,20,122341.36862
-12.754939,20,122341.510394
-14.698741,21,122341.655683
-11.371585,21,122341.799133
-1.619671,20,122341.939628
-16.841006,22,122342.091554
-20.444053,20,122342.226832
-12.314134,20,122342.36837
-20.835608,20,122342.499964
-14.928857,21,122342.647427
-14.381991,23,122342.795991
-11.093956,20,122342.92897
-10.550809,20,122343.060243
-9.527471,21,122343.201756
-13.568148,21,122343.345536
-12.940901,21,122343.492061
-17.684543,19,122343.620049
-7.158945,21,122343.755209
-15.806148,22,122343.904514
-12.203324,20,122344.048307
-9.377455,22,122344.201039
-18.689744,19,123107.067288
-20.444066,20,123107.205297
-12.074923,21,123107.356899
-20.918834,19,123107.489253
-16.22725,21,123107.635212
-16.045315,19,123107.766912
-26.495892,19,123107.901824
-13.056598,22,123108.044284
-14.287539,21,123108.192197
-31.678731,18,123108.318527
-18.105319,19,123108.447142
-11.058914,22,123108.594977
-9.236177,21,123108.742438
-14.441212,20,123108.88141
-13.80803,21,123109.027398
-23.302071,20,123109.166396
-15.627801,20,123109.302734
-15.246232,20,123109.430537
-11.433378,20,123109.564329
-13.160096,20,123109.703587
-17.945731,20,123109.835605
-8.412066,20,123109.97443
-20.976216,22,123110.127216
-7.119138,20,123110.255202
-16.337109,20,123110.393778
-20.039217,19,123110.523197
-20.300121,19,123877.494357
-11.276439,21,123877.631905
-15.853232,20,123877.767162
-11.649229,20,123877.899251
-13.669424,20,123878.03036
-27.093372,17,123878.14216
-18.524295,24,123878.301451
-9.59946,20,123878.433491
-18.065885,20,123878.564195
-15.730908,20,123878.713161
-9.161698,22,123878.855003
-16.697969,21,123878.998025
-17.05574,20,123879.142652
-18.321831,19,123879.273501
-13.604384,20,123879.414269
-13.982293,28,123879.614944
-9.763328,21,123879.756576
-13.534492,21,123879.899654
-15.609372,19,123880.02295
-14.750782,19,123880.150568
-15.829231,20,123880.281224
-12.97963,20,123880.416518
-14.008695,20,123880.558329
-16.704479,22,123880.703936
-15.638836,20,123880.837907
-10.662079,23,124645.805202
-16.097209,23,124645.954561
-12.081272,20,124646.100833
-10.787714,19,124646.227279
-13.226857,21,124646.370422
-28.934607,18,124646.495826
-6.974216,21,124646.639102
-15.03129,21,124646.782439
-12.056145,21,124646.93933
-24.973006,21,124647.082232
-11.577057,20,124647.212662
-10.954685,22,124647.367509
-14.704588,21,124647.505272
-19.285453,20,124647.638711
-16.86407,20,124647.771908
-9.00681,20,124647.908204
-13.879915,20,124648.040019
-12.618445,21,124648.17925
-21.551085,20,124648.3173
-4.461375,22,124648.472448
-18.569014,21,124648.617765
-17.175201,19,124648.738816
-9.88976,20,124648.874328
-9.308183,20,124649.00383
-14.66371,20,124649.136236
-1.219258,24,125414.129058
-10.504555,20,125414.257583
-8.003551,20,125414.391098
-14.718333,20,125414.533468
-11.159239,22,125414.689778
-17.839182,20,125414.823374
-15.315861,19,125414.951045
-13.320793,21,125415.095161
-5.759151,20,125415.240358
-5.088959,21,125415.387026
-11.453049,20,125415.530316
-22.287723,20,125415.673342
-16.314671,21,125415.825336
-10.025801,20,125415.962302
-9.110428,20,125416.095317
-17.037538,20,125416.233426
-10.797328,20,125416.367694
-14.383704,20,125416.510817
-17.031439,21,125416.654679
-13.367357,20,125416.794001
-20.265487,22,125416.948957
-24.211137,23,125417.104446
-16.441629,20,125417.245205
-10.172536,20,125417.3857
-22.426468,21,126182.330852
-12.481469,20,126182.466467
-13.867822,19,126182.596837
-10.235623,21,126182.743133
-13.918942,21,126182.886307
-6.430012,21,126183.029679
-12.643389,20,126183.168273
-17.458963,20,126183.308236
-18.433714,21,126183.452504
-13.130998,20,126183.581287
-13.538783,27,126183.771581
-7.997797,20,126183.910837
-9.467181,20,126184.057233
-19.481807,19,126184.187241
-14.615826,18,126184.306397
-17.579921,20,126184.451196
-13.790205,21,126184.587101
-17.323061,20,126184.712467
-9.431808,21,126184.865258
-10.804985,22,126185.012035
-13.520597,21,126185.147619
-17.478667,20,126185.283369
-21.202753,20,126185.422691
-20.374906,20,126185.554484
-13.170181,25,126185.729515
-13.214305,20,126951.256555
-10.02151,21,126951.407781
-6.634023,22,126951.56094
-7.552699,20,126951.695703
-12.80687,20,126951.83052
-11.189576,21,126951.97547
-20.125776,19,126952.094757
-16.139681,20,126952.240269
-11.884617,23,126952.409101
-20.032913,20,126952.54698
-30.969654,32,126952.773661
-13.984911,20,126952.903074
-11.935952,19,126953.029554
-13.977153,20,126953.168555
-12.172578,19,126953.302587
-12.54766,20,126953.439767
-12.653511,19,126953.571454
-11.845696,21,126953.717052
-7.292269,21,126953.86136
-9.870692,23,126954.019078
-7.440968,20,126954.166914
-8.639325,20,126954.308411
-13.572508,21,126954.45086
-13.744118,20,126954.590607
-11.331061,21,126954.738494
-12.333631,20,128844.120894
-11.310785,21,128844.525671
-14.196913,20,128844.943151
-15.826978,21,128845.407176
-21.82659,20,128845.835488
-9.507544,20,128846.248228
-7.622451,21,128846.693955
-10.448385,20,128847.083088
-9.965999,19,128847.489106
-8.824559,21,128847.911223
-10.557296,20,128848.295641
-10.05137,20,128848.709131
-7.834705,24,128849.132269
-12.096194,21,128849.500535
-16.893841,20,128849.932013
-8.871211,20,128850.32375
-22.217018,20,128850.680292
-24.406147,22,128851.153862
-5.702236,21,128851.561234
-10.705362,21,128851.979718
-16.240678,20,128852.409099
-15.271312,21,128852.800142
-10.587208,20,128853.197791
-9.037135,20,128853.624538
-16.085892,20,128854.033559
-3.391335,25,131835.940948
-8.612355,20,131836.329477
-6.460235,21,131836.734916
-14.304438,20,131837.091882
-7.461482,20,131837.461585
-6.72611,22,131837.902876
-12.607196,20,131838.254848
-8.430319,20,131838.655651
-13.194651,20,131839.059227
-3.908726,20,131839.412867
-11.410432,21,131839.800194
-8.053981,20,131840.27763
-8.574934,20,131840.655531
-20.660477,20,131841.04188
-5.997775,20,131841.482537
-13.41548,20,131841.889438
-11.067103,20,131842.27945
-25.173266,21,131842.707196
-4.50989,19,131843.06561
-17.401868,21,131843.466038
-16.652655,20,131843.845507
-17.60562,18,131844.187146
-20.058531,19,131844.556304
-15.044669,20,131844.954488
-16.328349,21,131845.326228
-7.856274,22,134812.733067
-11.43405,20,134813.123122
-12.114911,20,134813.499743
-12.446228,21,134813.88788
-19.141867,20,134814.285465
-9.631534,22,134814.747577
-12.980212,22,134815.174087
-13.318895,19,134815.581122
-7.311739,20,134815.993619
-15.561223,21,134816.395532
-13.515959,20,134816.81381
-11.227529,20,134817.189706
-9.826218,20,134817.538172
-10.894507,20,134817.982853
-12.543822,20,134818.367767
-5.410382,20,134818.760329
-21.888745,21,134819.226163
-14.489157,21,134819.605794
-12.865043,20,134819.981941
-19.818114,19,134820.372819
-4.268372,20,134820.738581
-10.068865,23,134821.132788
-14.912708,20,134821.549081
-9.984521,20,134821.91093
-7.356157,21,134822.32128
-13.694686,18,137774.989166
-7.032727,23,137775.503074
-7.695347,20,137775.924909
-8.747488,21,137776.369124
1.825424,20,137776.831034
-12.728296,20,137777.247982
-9.108041,20,137777.667816
-24.454716,19,137778.074546
-8.897455,20,137778.453479
-12.877539,22,137778.891268
-2.360753,20,137779.283467
-13.104304,20,137779.65116
-13.410645,24,137780.11884
-13.09939,18,137780.453368
-16.611097,27,137780.921934
-12.480283,21,137781.33794
-14.165541,19,137781.699799
-17.061578,20,137782.087505
-2.951875,20,137782.50457
-13.204198,20,137782.885028
-12.543612,20,137783.259072
-12.530247,21,137783.707069
-9.848981,21,137784.122603
-4.939117,20,137784.492775
-9.100091,21,137784.948894
-17.423002,20,140780.270259
-9.629422,20,140780.620341
-10.500538,21,140781.078204
-11.27473,23,140781.499226
-9.914028,20,140781.877391
-8.235673,20,140782.313874
-11.8476,20,140782.707385
-7.051416,20,140783.110902
-12.208366,19,140783.530156
-4.670103,20,140783.926431
-23.718531,19,140784.275187
-15.89969,20,140784.679661
-20.484066,20,140785.0561
-16.621597,23,140785.51467
-11.237461,20,140785.939681
-14.974549,19,140786.308258
-10.337257,20,140786.673947
-13.536484,22,140787.12604
-12.029203,21,140787.519531
-20.209883,18,140787.839907
-9.234897,20,140788.257807
-12.936798,20,140788.634228
-10.273876,20,140788.996501
-9.773045,20,140789.414301
-17.033915,20,140789.77158
-13.215951,21,143795.502618
-10.63535,20,143795.89114
-6.803293,20,143796.294792
-4.567807,21,143796.697492
-9.645237,22,143797.136335
-10.325643,21,143797.574413
-7.700794,20,143797.98562
-13.272696,20,143798.34326
-6.547888,23,143798.819544
-7.564573,19,143799.19723
-15.216432,20,143799.577593
-8.24166,21,143800.043404
-11.972436,20,143800.395011
-13.376133,23,143800.826176
-5.936742,21,143801.256573
-14.696334,19,143801.598902
-7.76025,20,143801.951306
-3.586086,20,143802.348897
-11.45039,22,143802.726264
-2.757197,23,143803.158897
-11.631995,25,143803.635966
-15.243108,22,143804.045953
-4.965288,20,143804.424355
-8.834212,20,143804.829919
-19.225199,20,146812.449855
-17.881257,20,146812.843853
-10.024053,21,146813.319033
-4.856069,20,146813.723065
-13.379429,19,146814.13014
-10.188082,24,146814.633707
-8.554559,25,146815.130565
-3.946912,21,146815.6253
-19.933687,20,146816.02698
-16.748307,21,146816.452919
-21.157638,19,146816.880296
-6.589137,20,146817.26898
-11.350349,19,146817.629952
-4.976171,22,146818.094369
-6.704415,22,146818.504941
-14.003468,21,146818.937361
-18.307014,19,146819.337717
-11.443969,22,146819.739244
-10.923963,22,146820.209754
-7.575371,21,146820.655261
-11.894772,20,146821.062522
-9.731488,20,146821.485553
-12.858959,21,146821.916213
-17.197516,21,146822.325245
-10.496979,20,146822.777592
-13.310383,21,149766.977654
-9.591283,21,149767.539618
-17.372835,20,149768.077569
-10.707361,21,149768.708181
-11.262691,20,149769.198288
-29.111721,17,149769.71935
-18.262687,20,149770.24033
-16.274798,19,149770.878341
-10.924307,19,149771.458895
-11.079532,19,149772.073866
-6.092732,22,149772.711391
-10.157788,21,149773.385944
-14.302629,20,149774.014348
-16.004394,20,149774.723525
-21.791057,19,149775.249563
-8.245071,20,149775.818056
-8.43699,21,149776.376158
-10.99127,19,149776.955816
-11.14621,20,149777.42612
-6.644538,24,149778.180826
-10.927936,21,149778.780224
-6.829212,20,149779.390582
-24.42434,21,149779.975982
-11.378011,21,149780.651759
-10.262892,21,149781.194446
-9.291839,20,152734.124575
-13.248101,19,152734.534291
-7.668268,20,152735.009227
-9.121027,21,152735.525651
-8.464594,21,152736.051657
-9.353755,21,152736.509317
-12.013266,21,152736.992042
-7.036997,22,152737.491291
-13.227683,22,152737.974618
-1.050005,20,152738.513085
-2.522494,20,152738.964007
-7.716324,22,152739.440384
-17.832718,20,152739.88886
-13.702233,19,152740.285436
-6.876354,21,152740.734127
-3.959337,23,152741.22397
-15.275957,21,152741.668931
0.261046,21,152742.159047
-2.29595,20,152742.582361
-9.16227,20,152743.065796
-7.860003,20,152743.512629
-13.315652,20,152743.995606
-10.708918,20,152744.495903
-15.127072,21,152744.934589
-5.127293,21,152745.454038
-13.330634,20,155702.883596
-12.01134,20,155703.304857
-9.839611,20,155703.75282
-8.479257,21,155704.203741
-5.357968,20,155704.648861
-12.071434,19,155705.069186
-37.352032,18,155705.4756
-3.313978,22,155706.008198
-11.347725,22,155706.452671
-4.797823,20,155706.939284
-10.42355,20,155707.37036
-18.12937,18,155707.751126
-15.551337,22,155708.264239
-11.436846,22,155708.701759
-6.686616,25,155709.234226
-12.410972,20,155709.74483
-5.399113,22,155710.202353
-18.218183,20,155710.713143
-10.452358,21,155711.169919
-10.868542,20,155711.626338
-8.200059,22,155712.119092
-7.315448,21,155712.592098
-9.205822,20,155713.086497
-10.871846,21,155713.555186
-11.481772,19,155713.950046
-9.211912,20,158665.166883
-10.022154,20,158665.649676
-14.672217,20,158666.097796
-4.016542,21,158666.567752
-26.982981,19,158666.979812
-9.347662,21,158667.454368
-29.979456,17,158667.853333
-4.640556,20,158668.281836
-12.488497,19,158668.678286
-14.687076,21,158669.185677
-7.851805,20,158669.587526
-7.818758,21,158670.063074
-5.976762,21,158670.536115
-10.120857,19,158670.942947
-18.5141,20,158671.417933
-12.346963,22,158671.911101
-12.519448,21,158672.351184
-7.614146,21,158672.861409
-9.378471,19,158673.280573
-10.782162,20,158673.714029
-11.480552,22,158674.20352
-11.331868,20,158674.631735
-16.194885,25,158675.222669
-5.697517,21,158675.666351
-5.935299,20,158676.157119
-8.61203,22,160880.661885
-9.080927,20,160880.885716
-3.614585,20,160881.112
-10.103548,20,160881.352733
-0.784452,20,160881.578668
-2.315095,20,160881.81239
-6.55938,21,160882.053084
-8.105246,22,160882.305859
-16.070815,20,160882.544999
-9.368604,20,160882.788565
-9.446448,22,160883.048544
-12.941885,23,160883.316062
-12.596787,24,160883.620051
-11.607605,20,160883.877385
-8.262151,20,160884.118977
-11.265639,22,160884.376435
-10.234515,20,160884.618902
-11.240177,20,160884.883565
-6.811914,24,160885.186592
-12.576703,20,160885.438899
-6.020113,21,160885.678636
-20.245656,19,160885.909238
-3.091006,20,160886.157589
-6.808922,20,160886.407327
-3.76444,21,160886.653325
-9.602341,22,162910.27256
-4.70538,20,162910.514268
-3.596931,21,162910.767093
-7.911967,20,162911.001015
-10.710136,20,162911.231749
-11.689045,19,162911.450379
-3.932442,20,162911.70797
-12.742662,20,162911.946171
-8.993033,20,162912.187542
-13.26922,20,162912.427251
-0.41496,21,162912.683595
-10.708371,20,162912.931117
-10.07578,20,162913.185474
-8.195233,20,162913.420447
-6.337334,20,162913.664539
-4.330791,23,162913.931542
-9.581618,19,162914.182514
-7.941052,20,162914.42154
-4.058779,20,162914.664476
-10.040029,20,162914.909928
-10.590839,21,162915.182299
-9.014259,20,162915.459922
-8.346262,22,162915.730049
-4.336346,20,162915.969149
-15.527975,20,162916.205435
-13.147651,18,164930.067908
-7.252742,19,164930.293531
-8.041124,21,164930.536961
-13.858519,20,164930.795152
-12.619043,21,164931.041672
-27.253497,23,164931.302486
-9.175347,20,164931.540591
-10.330193,22,164931.788779
-10.182788,20,164932.034169
-0.575281,21,164932.281209
-8.129775,20,164932.508162
-9.272623,23,164932.771935
-11.130295,20,164933.006603
-9.31208,20,164933.243385
-9.620293,21,164933.490858
-8.962824,21,164933.752099
-5.197956,20,164934.0022
-11.532315,20,164934.301823
-0.974627,22,164934.598131
-7.916058,23,164934.902742
-4.172565,21,164935.178422
-4.071393,21,164935.457465
-15.212366,21,164935.702868
-14.717341,20,164935.936868
-7.735264,28,166945.611819
-2.203405,21,166945.845846
-5.648396,20,166946.078111
-5.95238,21,166946.305741
-4.80944,22,166946.544899
-7.490496,24,166946.806353
-6.461539,22,166947.045102
-6.438484,21,166947.284745
-12.168536,20,166947.506209
-5.914562,20,166947.730009
-8.1894,23,166947.981512
-3.177697,20,166948.2039
-4.545486,21,166948.450562
-6.044327,22,166948.69828
-11.839322,21,166948.935975
-4.798407,20,166949.157686
-3.304554,25,166949.432224
0.677368,22,166949.664733
-3.370483,20,166949.8942
-6.105702,20,166950.11487
-5.087833,22,166950.360174
-8.708494,24,166950.626036
-16.378932,20,166950.843284
-15.972172,22,166951.085654
-7.442812,20,168975.101249
-5.552781,21,168975.338045
-8.854988,20,168975.558104
-8.933177,22,168975.799502
-3.435222,20,168976.026154
-7.394165,22,168976.282779
-8.023757,20,168976.513231
-13.432998,22,168976.74539
-6.089935,19,168976.963898
-9.091333,20,168977.189855
-8.003302,24,168977.472728
-6.62202,20,168977.703783
-9.030891,19,168977.925773
-7.428556,20,168978.159734
-5.556467,21,168978.408209
-13.171366,25,168978.725181
-15.30444,20,168978.950544
-10.494247,21,168979.195008
-10.471068,20,168979.428466
-19.141301,21,168979.6557
-3.938669,21,168979.890508
-11.005421,24,168980.165239
-2.567059,20,168980.389737
-8.391542,21,168980.629993
-2.521641,21,170993.288719
-16.809302,23,170993.581858
-10.709798,22,170993.818336
-11.774831,19,170994.022367
-8.209414,21,170994.251812
-4.852848,20,170994.474417
-8.843622,21,170994.714221
-5.500571,24,170994.976032
-12.971263,20,170995.196764
-6.050574,21,170995.424563
-7.575267,20,170995.652067
-4.639016,22,170995.904035
-12.365795,21,170996.134255
-3.540307,26,170996.428401
-6.367013,21,170996.652087
-2.121251,21,170996.898229
-4.958073,21,170997.132066
-7.416967,20,170997.344543
-15.383501,19,170997.550955
-7.816727,21,170997.777047
-10.850367,22,170998.030247
-9.871421,22,170998.267357
-15.683956,20,170998.482157
-8.867928,21,170998.716241
-14.769248,22,170998.969961
-13.150724,40,173013.614444
-6.685249,20,173013.842859
-7.946804,26,173014.133234
-5.934953,20,173014.350807
-0.81643,24,173014.618199
-7.701221,20,173014.834094
-7.660573,21,173015.07857
-5.078832,21,173015.316795
-4.790777,23,173015.563139
-1.319807,21,173015.800961
-11.692028,21,173016.030529
-10.447319,20,173016.268209
-12.820405,21,173016.497429
-5.527775,24,173016.767594
-5.173681,20,173016.989327
-7.198537,21,173017.218594
-8.13225,21,173017.449724
-7.717787,20,173017.673155
-6.220702,20,173017.894958
-11.592764,21,173018.134584
-15.662654,19,173018.35443
-11.515712,20,173018.59233
-11.392159,21,173018.811494
