# {"t_start": 1547745192.5804803, "env_id": "RoboschoolHumanoidFlagrunHarder-v1"} 
r,l,t
-115.641287,170,5.950505
5.633926,18,6.423503
7.001753,17,6.817543
-72.991553,170,10.414509
5.963296,18,10.718875
-77.401433,170,866.884385
4.192488,19,867.381743
19.50935,31,868.053385
-92.366881,170,871.87207
-107.757203,170,875.351772
8.992105,18,875.689457
-29.855,170,1731.068898
7.066086,18,1731.435661
7.035479,19,1731.856766
-79.870302,170,1735.230076
-3.358583,12,1735.465571
9.54142,20,1735.977013
-64.995881,170,2594.697344
-56.751411,170,2597.992174
-65.447127,170,2601.446281
-3.408826,16,2601.798847
-32.441267,170,3460.994518
-89.898074,170,3465.08008
-112.286925,170,3468.275336
7.668646,18,3468.628361
-98.490358,170,4341.841168
-75.198264,170,4345.930983
-62.079841,170,4349.577513
4.849437,19,4349.971837
-81.575942,170,5223.897626
-109.56808,170,5228.141886
-71.76068,170,5231.280466
3.776518,18,5231.605974
2.643859,19,5231.969272
-43.652429,170,6103.419072
-58.349152,170,6106.68986
-92.727751,170,6110.891605
-70.478555,170,6984.587036
-47.204759,170,6988.019414
-5.020551,19,6988.551874
-2.047313,18,6988.946342
6.817038,17,6989.350391
-34.694792,170,6993.392811
0.198729,170,7867.535342
-42.615504,170,7871.72453
-93.675747,170,7875.454439
-94.616819,170,8747.510662
-74.024255,170,8750.514344
-36.252588,170,8754.659518
5.784761,19,8755.129228
-52.762389,170,9628.841087
0.15995,17,9629.174744
7.66651,19,9629.583212
3.692351,17,9629.878781
0.922816,17,9630.207188
0.520057,18,9630.597534
-105.488845,170,9634.566652
-81.470253,170,10507.10938
-74.53436,170,10511.51762
-29.49164,170,10515.49808
-31.685456,170,11387.309646
0.996699,20,11387.694259
-113.903705,170,11391.712132
-136.004435,170,11395.758467
-65.137841,170,12268.44185
-98.877428,170,12271.342402
-83.725125,170,12274.950711
-79.676581,170,13146.254065
-53.78886,170,13150.483379
-46.425357,170,13154.315757
-0.099585,18,13154.649122
-108.983043,170,14025.230331
-87.764623,170,14028.548303
-22.794822,170,14031.951462
-102.456204,170,14906.597795
-83.801588,170,14910.72874
-111.371883,170,14913.926964
-88.767203,170,15788.933324
0.885596,19,15789.365848
-87.273988,170,15793.359643
4.337384,17,15793.623915
-0.377413,19,15793.966393
-1.297205,17,15794.287938
3.19348,16,15794.534551
-84.788549,170,16652.045475
-108.457776,170,16655.732539
8.498403,18,16656.089844
-82.869756,170,16659.172725
4.260659,18,16659.532148
3.363309,21,16659.912372
-52.116848,170,17518.377932
0.481213,18,17518.782646
-92.122164,170,17521.774657
-64.109591,170,17525.083849
-124.488502,170,18381.721958
1.275813,17,18382.085058
-116.618195,170,18385.403798
-3.689396,19,18385.796513
1.662861,18,18386.124327
-85.373655,170,18389.232538
-99.866647,170,19242.17586
-0.181245,18,19242.472641
-50.184168,170,19245.637194
-137.786181,170,19248.773501
-46.28541,170,20086.744034
-59.123144,170,20089.785394
-3.820105,18,20090.092586
-140.149816,170,20894.599237
4.673251,18,20894.812211
-150.537061,170,20896.744712
-140.03697,170,20898.636297
-104.212802,170,21683.789355
0.054046,18,21684.0087
0.183411,19,21684.22189
-126.016546,170,21686.143348
-110.802274,170,21688.037868
-3.877766,17,21688.211462
0.941563,19,21688.451925
4.731866,20,21688.676898
-86.856666,170,22473.940825
7.682121,22,22474.202311
-106.884974,170,22476.060552
1.006789,21,22476.299812
1.18758,18,22476.500135
-92.920451,170,22478.342468
-109.414961,170,23263.053083
-91.125629,170,23265.032789
-61.79431,170,23266.934182
-89.468094,170,24292.611423
-115.553863,170,24295.226422
-87.620472,170,24298.029415
-106.591457,170,25418.569078
-4.392587,17,25418.952015
-132.491254,170,25421.630143
-2.582857,17,25422.017227
-5.30158,19,25422.283824
-118.849678,170,26542.243883
-157.867302,170,26544.903247
-111.574191,170,26547.671661
-163.948418,170,27733.224634
-115.230778,170,27738.282392
-3.803896,19,27738.660196
-116.173463,170,27742.643796
2.484577,23,27743.202557
1.24911,18,27743.79487
-154.679244,170,28935.037835
-111.184119,170,28939.954228
-134.797645,170,28943.966921
-155.039625,170,30130.279627
-96.608042,170,30135.400625
-111.922763,170,30140.098825
-100.098381,170,31333.859151
-62.05864,170,31338.564941
0.817763,22,31339.036499
-3.330408,17,31339.53098
-149.625728,170,31343.673453
-162.076051,170,32536.63789
-14.328359,18,32537.077589
-9.602478,19,32537.698244
-3.574265,18,32538.178117
-138.464975,170,32543.358875
-7.785217,16,32543.884942
-115.109689,170,33737.51413
-134.626238,170,33741.37992
-126.770977,170,33746.326998
-182.703536,170,34939.011141
-134.503525,170,34943.443458
-113.84151,170,34948.380354
-140.713918,170,36140.808639
-37.941921,170,36144.777422
-124.742668,170,36149.524681
-145.532995,170,37353.88174
-125.863004,170,37358.161145
-7.561279,19,37358.660377
-126.004524,170,37363.31409
-66.306236,170,38566.651205
-157.326785,170,38571.401246
-9.439901,16,38571.900493
-127.891343,170,38575.695457
-154.640485,170,39775.360825
-134.384971,170,39780.444839
-96.668235,170,39784.215108
-111.933853,170,40986.460322
-130.659052,170,40991.10736
-6.208959,20,40991.635151
-170.772088,170,40996.563291
-11.559649,16,40996.889249
-178.92233,170,42201.36018
-2.266603,20,42201.894251
4.225199,20,42202.361909
-4.74701,21,42202.820542
-3.013212,19,42203.395337
-153.62363,170,42207.645115
-152.452853,170,42212.622902
-13.932086,18,43403.154318
-7.870827,17,43403.550762
-84.869127,170,43408.751448
-5.324587,18,43409.31626
-177.566943,170,43414.019526
-171.51402,170,44613.984417
-4.976009,19,44614.337336
-138.792484,170,44619.166476
-170.616543,170,44624.010344
-11.118746,21,44624.414978
-136.21279,170,45825.892299
-157.206309,170,45829.899309
-5.636923,18,45830.251597
-181.030053,170,45835.2586
-166.146191,170,47036.057184
-142.934854,170,47039.889604
-178.669445,170,47045.097054
-81.819602,170,48232.419943
-112.34279,170,48236.740496
-1.317736,20,48237.178735
-12.501941,19,48237.746572
-134.078202,170,48242.081592
-80.910489,170,49237.18902
-6.987191,22,49237.621538
-157.216946,170,49240.899416
-173.499159,170,49243.866718
-200.821093,170,50088.323672
-107.884578,170,50091.158031
-168.894801,170,50094.247068
-186.155634,170,50923.474225
-203.410594,170,50925.642997
-148.544736,170,50927.851359
-194.172328,170,51724.045134
-162.56246,170,51725.960193
-25.857696,19,51726.177873
-189.224802,170,52512.609376
-160.088082,170,52514.844776
-198.420976,240,52517.846123
-195.507137,170,53332.866896
-12.002613,19,53333.304212
-1.769717,18,53333.816618
-199.706915,170,53339.209146
-169.351599,170,53345.243265
-196.107483,170,55641.022845
-141.646266,170,55648.995015
-14.352355,19,55650.027797
-160.317148,170,55660.219444
-182.946808,170,58235.397573
-183.392154,170,58246.564157
-176.426244,170,58257.345291
-19.717393,22,58258.912721
-177.597867,170,60856.871428
-210.308454,170,60867.299926
-11.566022,18,60868.359618
-15.891092,22,60869.993677
-212.3394,170,63481.230489
-15.519456,18,63482.367625
-181.31693,170,63492.903402
-235.455675,170,63503.059312
-9.298848,18,63504.423308
-202.945089,170,66096.771279
-218.033159,170,66107.808061
-257.159814,170,66117.655626
-181.7519,170,68706.606551
-144.445327,170,68717.157939
-251.409643,170,68728.366936
-17.504162,19,68729.399452
-197.357796,170,71320.755476
-221.515733,170,71331.419767
-18.273948,13,71332.083987
-192.790556,170,71342.707228
-196.407543,170,73925.037774
-189.681382,170,73935.353121
-10.866241,17,73936.377185
-26.088442,18,73937.379055
-17.866624,18,73938.589335
-22.351339,20,73939.736108
-239.95845,170,73950.971285
-209.417438,170,76543.207718
-208.356474,170,76553.921039
-265.922955,170,76564.543654
-216.186033,170,79153.826445
-176.133286,170,79164.270334
-229.089551,170,79173.983304
-242.764676,170,81768.374068
-283.382773,170,81778.642479
-221.399978,170,81788.923205
-237.681641,170,84390.965053
-41.528451,26,84392.675679
-232.066357,170,84403.846127
-261.643633,170,84414.755775
-269.631294,208,87012.377264
-288.475552,170,87023.296182
-27.345435,19,87024.344581
-26.969226,21,87025.699354
-239.16955,170,89631.775543
-239.968418,170,89642.416322
-263.645554,170,89652.431467
-297.399674,170,92234.505746
-267.847082,170,92246.076424
-14.885408,19,92247.528463
-17.426133,19,92248.371998
-216.607973,170,92259.364339
-240.001937,170,94853.975057
-19.680928,21,94855.270059
-285.908749,170,94865.376698
-272.290612,170,94876.752289
-14.361063,24,94878.402478
-172.583604,170,97488.293475
-264.432449,170,97498.763407
-262.010175,170,97508.57543
-288.434342,170,100104.273015
-27.4764,19,100105.523384
-217.221589,170,100116.072864
-252.249815,170,100126.701958
-307.688653,170,102698.246424
-285.676493,170,102709.61282
-26.578602,20,102710.633537
-368.883759,220,105304.649682
-33.553494,18,105305.791561
-253.1633,208,105318.443226
-256.736873,170,105328.653768
-21.680715,17,105329.819339
-294.798178,170,107928.114056
-192.149976,170,107939.58868
-19.425862,20,107940.583556
-293.402488,170,107952.35484
-359.277533,170,110531.357367
-294.797672,170,110541.698108
-279.452454,170,110551.911541
-389.974793,170,113148.589439
-36.750413,16,113149.484824
-381.487785,210,113162.938574
-371.611559,170,115744.625565
-32.252353,20,115746.339285
-42.876949,14,115747.181378
-283.473477,170,115758.709018
-303.931329,170,115768.016537
-270.249057,170,118333.799243
-317.141312,170,118344.793063
-321.109982,170,118355.43127
-345.521807,170,120945.281386
-389.626859,170,120955.826423
-391.288147,170,120966.436797
-29.175301,20,120967.869386
-322.305259,170,123538.688037
-357.568959,170,123549.514008
-44.399296,17,123550.635581
-355.381663,170,123562.126673
-25.88965,18,123562.981097
-359.981934,170,126153.084559
-309.858734,170,126164.331005
-423.556175,170,126174.454
-40.408184,19,126175.517857
-395.160513,170,128770.852827
-390.699362,170,128781.093765
-46.016531,23,128782.400213
-35.700068,17,128783.304754
-409.36386,170,128793.420561
-35.616215,19,131372.069289
-366.019634,170,131382.628008
-379.301835,170,131394.812205
-338.898509,170,133981.898485
-402.432345,170,133993.62452
-431.054462,194,134007.03608
-363.421889,170,136610.47471
-401.220411,170,136620.934485
-57.525834,22,136622.423795
-48.764361,18,136623.508698
-399.127749,170,136634.923734
-36.363486,19,136636.076814
-418.869751,170,139248.998197
-427.588362,170,139260.022556
-375.614738,170,139271.53042
-436.07142,170,141857.16707
-432.251354,170,141868.441267
-42.582566,17,141869.528905
-52.699134,21,141870.528772
-441.337591,170,141880.787393
-53.690797,19,141882.088725
-431.764685,170,144461.516106
-474.40308,170,144474.196065
-453.667001,170,144485.579264
-46.983189,17,144487.005185
-56.818768,18,147055.983418
-374.305754,170,147066.900826
-488.03161,170,147077.446168
-482.550034,170,149778.323029
-460.942124,170,149787.305741
-453.66304,170,149797.628034
-481.593253,170,152480.395957
-49.298542,16,152480.953483
-63.349528,19,152481.569259
-465.71874,170,152488.611135
-58.46554,18,152489.339228
-485.665305,170,152496.449983
-499.089174,170,154600.947273
-68.697611,20,154601.499003
-489.16204,170,154606.650397
-462.147235,170,154611.712665
-56.507057,18,154612.329818
-55.93742,17,154612.871133
-471.947748,170,156139.672601
-411.82079,180,156142.858264
-509.942962,170,156145.844478
-526.964662,170,157170.098049
-476.515046,170,157172.155553
-54.915267,17,157172.356837
-490.912411,170,157174.384849
-487.651606,170,157964.588916
-59.395243,19,157964.805232
-588.025402,170,157966.822985
-425.807502,170,157968.803711
-63.433693,18,157969.01383
-414.837892,170,158759.56508
-610.083522,202,158761.888214
-563.776095,170,159552.577553
-583.914275,170,159554.558146
-548.558096,170,159556.486119
-786.904491,268,160347.656541
-64.223564,19,160347.869293
-57.455877,18,160348.07478
-529.155567,170,160350.100393
-513.55842,170,160352.087514
-67.60003,17,161141.283168
-61.538576,18,161141.475428
-605.854485,170,161143.499503
-589.304857,170,161145.485684
-642.166136,170,161935.413284
-104.512436,28,161935.727886
-564.571759,170,161937.831391
-82.820875,21,161938.080721
-619.871075,170,161940.093841
-57.082431,17,161940.285247
-586.161642,170,162730.724126
-663.439455,182,162732.855452
-616.280202,170,162734.772443
-636.802021,170,163525.471924
-854.499626,214,163527.875308
-629.348336,170,163529.856363
-701.799898,170,164321.252193
-580.832673,170,164323.215608
-674.257063,170,164325.260495
-62.221925,17,164325.492869
-662.560489,170,165116.636731
-88.818001,21,165116.85873
-656.330804,170,165118.861102
-77.420007,18,165119.062974
-61.522263,17,165119.24888
-661.667995,170,165910.259365
-668.041175,170,165912.276311
-735.76584,170,165914.21907
-78.936813,16,165914.41527
-711.308375,170,166705.918742
-699.472242,170,166707.861274
-67.625669,16,166708.055973
-766.671089,170,166710.071532
-726.987251,170,167501.410796
-810.240247,170,167503.373997
-753.860662,170,167505.321694
-742.863532,170,168296.69359
-769.835297,170,168298.695154
-786.976188,170,168300.704246
-79.703252,19,168300.922884
-87.134905,19,168301.158692
-1026.791349,212,169093.111327
-2037.812905,402,169886.781907
-737.743084,170,169888.896269
-76.455941,18,169889.090913
-820.108621,170,169891.045493
-732.041295,170,170682.354706
-858.099456,170,170684.365629
-748.698244,170,170686.324452
-116.497479,21,170686.556173
-815.966496,170,171477.744846
-860.820144,170,171479.707693
-833.730924,170,171481.705321
-771.556169,170,172272.646309
-903.372561,170,172274.618637
-764.98713,170,172276.627857
-849.793013,170,173068.237483
-872.715171,170,173070.333693
-934.202698,170,173072.377826
-1024.775285,200,173864.545232
-951.448319,170,173866.500407
-930.582526,170,173868.463078
-969.148383,170,174660.440232
-858.80063,170,174662.421281
-1400.46018,264,175455.031222
-901.120847,170,175457.025855
-118.962896,16,175457.234732
-100.072179,18,175457.481306
-94.123392,18,175457.699481
-977.622354,182,175459.828789
-961.354485,170,176251.115318
-1033.525407,170,176253.049643
-985.535363,170,176255.026588
-996.820455,170,177046.888822
-119.186461,17,177047.085283
-998.965038,170,177049.13205
-988.675904,170,177051.04147
-1482.552914,234,177843.328901
-1078.411904,170,177845.322503
-125.969212,17,177845.53369
-1091.650602,170,177847.611288
-1065.842363,170,178639.008576
-1099.81408,170,178640.934146
-140.268542,19,178641.168051
-1080.825803,170,179432.735898
-1022.035804,170,179434.80029
-1115.867086,170,179436.743661
-113.788955,18,179436.950208
-1096.103861,170,180227.937285
-1214.478756,170,180229.85091
-117.381812,17,180230.049886
-1211.659882,170,180231.971889
-1185.791582,170,181022.87178
-1211.937685,170,181024.812005
-1194.26769,170,181026.832349
-1176.186708,170,181817.816509
-1159.419098,170,181819.756325
-182.557705,21,181820.041592
-1216.003606,170,181822.103236
-144.777038,19,181822.343454
-157.837062,20,181822.574469
-1195.478652,170,182613.979715
-1360.019763,170,182615.974816
-1255.362646,170,182617.932811
-134.001899,18,182618.129189
-1266.703522,170,183408.90113
-1323.683793,170,183410.945727
-1291.148424,170,183412.876464
-1350.841269,170,184204.304429
-1322.972966,170,184206.295015
-127.946055,17,184206.483043
-172.947509,17,184206.678671
-172.395588,23,184206.945919
-1243.314735,170,184208.942681
-146.04844,18,184998.831742
-1324.511849,170,185000.819019
-1370.774169,170,185002.765164
-1295.019917,170,185794.245171
-202.570984,21,185794.49544
-154.479763,18,185794.688985
-1405.046204,170,185796.684072
-1401.431277,170,185798.684224
-152.377033,21,185798.973239
-1390.350168,170,186590.523169
-1420.097095,170,186592.539263
-174.160056,17,186592.716783
-1382.834842,170,186594.767549
-1363.010628,170,187417.914329
-1433.175625,170,187421.98366
-168.305418,18,187422.43489
-1489.282024,170,187426.181267
-1510.278328,170,189788.521893
-1526.630113,170,189797.789056
-2404.267576,253,192209.476476
-1598.322345,170,192218.569294
-183.016045,16,192219.404802
-1518.643213,170,192229.28434
-200.675578,19,192230.331949
-1498.2476,170,194623.594897
-1663.768147,170,194633.731412
-1631.867995,170,194643.231958
-1570.566727,170,197067.479861
-1700.975952,170,197076.943544
-1633.897161,170,197085.905859
-242.5489,19,197086.944399
-1983.973306,202,199531.536303
-1761.073835,170,199540.330614
-183.372031,17,199541.080941
-273.678656,24,199542.224576
-1645.82887,170,199550.97755
-2566.537635,252,202029.888745
-262.329748,21,202031.131311
-1740.415572,170,202039.923832
-324.546563,27,202041.047334
-237.76739,23,202042.41671
-230.416103,18,202043.653295
-1707.335468,170,204499.362431
-1786.684627,170,204508.17945
-200.203408,18,204509.118994
-15109.098512,874,209464.060893
-1855.982139,170,209473.811431
-1799.172243,170,209482.760809
-1992.0474,170,211950.454257
-1841.29236,170,211959.163306
-1985.257807,170,211968.242527
-2008.847961,170,214536.141594
-2058.444913,170,214545.517903
-2188.613623,180,214556.972407
-2048.271888,170,217276.363958
-3734.164518,288,217294.081029
-2054.893195,170,219991.458985
-2122.235982,170,220002.380151
-2090.187519,170,220013.064198
-2163.13585,170,222729.815997
-2246.940122,170,222739.973403
-2192.034058,170,222750.895811
-2262.78627,170,225454.63032
-2437.417923,170,225466.125716
-2294.255943,170,225476.217685
-2417.766261,170,228174.043562
-2322.748902,170,228185.539195
-293.114217,19,228186.849663
-369.516468,21,228188.065032
-2171.801418,170,228199.27112
-2377.024941,170,230915.7787
-310.723714,18,230917.112996
-2422.332962,170,230927.599869
-2275.719094,170,230937.399987
-316.956646,20,233658.373451
-2497.373609,170,233668.268666
-2541.094201,170,233677.996869
-2334.174514,170,236395.758158
-360.77456,21,236397.367218
-2610.523377,170,236408.040992
-2587.886663,170,236418.531236
-513.576881,29,236420.283427
-299.11572,18,236421.150853
-2533.768228,170,239192.412777
-2608.091844,170,239203.165572
-2614.820204,170,239213.38545
-2635.763399,170,241993.30322
-2671.715941,170,242003.850606
-319.170141,20,242004.864839
-379.801587,19,242006.098047
-14885.900769,596,244776.096936
-2749.551366,170,247643.74296
-2740.820304,170,247654.915361
-2630.438886,170,247664.868527
-3244.188617,190,250632.509363
-322.200439,19,250633.894842
-375.886317,22,250635.504585
-344.811832,19,250636.742859
-447.741207,25,250638.391414
-2953.3939,170,250650.179972
-344.29773,19,250651.308572
-2856.356858,170,250661.961407
-271.440774,16,250663.170016
