# {"t_start": 1552316244.3005455, "env_id": "KungFuMasterNoFrameskip-v0"} 
r,l,t700.0,1041,111.38102
2400.0,1281,245.500767
900.0,1195,381.250072
3000.0,1207,518.205392
2900.0,1112,652.939337
7500.0,1931,865.574281
7400.0,1606,1055.244446
7400.0,1922,1267.040595
14100.0,2556,1539.596335
16200.0,2673,1835.2635
12100.0,2276,2087.489005
18000.0,2566,2371.82577
13000.0,2095,2600.88705
18900.0,2571,2893.044532
21100.0,2598,3177.20135
13600.0,2086,3407.029065
24400.0,2985,3732.662277
14200.0,2254,3983.924128
21300.0,3054,4322.377868
17500.0,2017,4552.961059
15300.0,2055,4779.494302
12100.0,1945,5004.753493
15700.0,2159,5250.219865
14900.0,2292,5491.325012
16100.0,2554,5780.104469
11700.0,2101,6017.503612
6600.0,1568,6187.11013
13200.0,2294,6439.269694
12300.0,2183,6673.576801
13500.0,2513,6950.255388
13000.0,2316,7207.74941
11800.0,1871,7408.851487
17600.0,2621,7707.983498
18600.0,2883,8026.960011
15900.0,2505,8308.066166
11600.0,1937,8522.903537
15000.0,2469,8802.701403
14900.0,2306,9058.185924
15000.0,2312,9318.021836
15400.0,2360,9576.775405
10800.0,1891,9780.194136
12600.0,2198,10017.141836
13000.0,1953,10242.380379
12800.0,2130,10479.886429
12900.0,2361,10755.528143
11200.0,2022,10983.195338
13700.0,2255,11233.381076
16100.0,2273,11485.943555
16000.0,2327,11743.625518
9600.0,1729,11931.675727
10200.0,1759,12136.827757
15000.0,2204,12381.868914
10200.0,2004,12611.365455
14700.0,2514,12894.105112
13800.0,2137,13125.149359
8800.0,1873,13336.135689
14800.0,2377,13586.765697
9100.0,1978,13809.778797
17600.0,2285,14061.492789
18200.0,2601,14344.365853
14800.0,2205,14596.270537
13200.0,2418,14873.447309
28300.0,3337,15246.110209
24900.0,3248,15607.113176
13500.0,2069,15848.18683
13000.0,2360,16109.085678
13100.0,2125,16348.003997
16700.0,2782,16654.200947
15600.0,2501,16936.64803
10500.0,1860,17135.408621
21200.0,3167,17492.269677
8800.0,1730,17699.526384
23200.0,3066,18044.897091
27800.0,3717,18456.314832
11200.0,2046,18683.816628
15400.0,2413,18966.932446
21700.0,2798,19276.753184
17200.0,2378,19574.802876
15900.0,2715,19890.446788
16700.0,2651,20232.962965
20500.0,2772,20595.645476
9200.0,2222,20890.389473
15100.0,2343,21199.632013
14300.0,2295,21511.152291
15100.0,2393,21827.668116
19700.0,2744,22197.706137
24900.0,3283,22635.841898
21700.0,3164,23075.596569
13400.0,2234,23384.229532
19400.0,2849,23755.931176
17900.0,2884,24136.655445
21900.0,2937,24540.004138
14900.0,2458,24879.828438
20600.0,3136,25303.831858
13800.0,2352,25614.091109
14900.0,2291,25918.72404
17800.0,2738,26280.013541
16100.0,2422,26605.458295
17700.0,2770,26979.67688
17000.0,2349,27295.609878
15100.0,2412,27623.078308
14900.0,2582,27955.257792
16100.0,2504,28293.497813
18900.0,2786,28672.052464
11400.0,1784,28916.100933
16800.0,2774,29290.412761
12700.0,2124,29575.679008
14300.0,2090,29852.014566
23500.0,3325,30306.282508
17700.0,2554,30663.949015
15900.0,2306,30970.949739
24800.0,3209,31407.010144
12500.0,2076,31679.507031
17600.0,2560,32022.700149
22400.0,2959,32419.757979
14300.0,2278,32738.509423
17700.0,2306,33052.567274
14300.0,2288,33360.684473
13700.0,2193,33657.819974
13300.0,2239,33957.349185
16200.0,2314,34266.547954
16800.0,2484,34621.961502
15300.0,2506,34956.29465
20300.0,3097,35385.971175
27100.0,3246,35824.766394
16700.0,2781,36209.850145
17400.0,2734,36579.907229
16300.0,2472,36908.190961
14500.0,2126,37201.906914
18200.0,2724,37567.497097
27200.0,3382,38020.289845
16800.0,2413,38355.095439
23200.0,3033,38769.01361
20400.0,2887,39146.483943
17500.0,2364,39479.666972
22000.0,2996,39885.568029
27400.0,4315,40473.813768
14000.0,2238,40771.597569
19900.0,3239,41225.939559
16100.0,2556,41573.361164
11400.0,2235,41867.422925
18200.0,2904,42272.740992
19000.0,3229,42711.030187
29000.0,3969,43249.953062
14900.0,2565,43593.395391
18900.0,2800,43982.057038
21100.0,3123,44404.142917
25400.0,3260,44845.438775
17400.0,2671,45192.819028
9800.0,1900,45448.458334
29300.0,3660,45956.780148
19700.0,2928,46349.998008
21800.0,3285,46781.457849
22600.0,3263,47223.221571
13300.0,2445,47555.036888
10500.0,2145,47848.802909
15700.0,2723,48205.265432
20900.0,3439,48668.237243
12000.0,2676,49024.561423
12900.0,2447,49357.703214
18000.0,2939,49747.265065
10600.0,2246,50045.963651
18800.0,3195,50476.53391
12400.0,2199,50769.955712
16200.0,2723,51146.118234
14500.0,2584,51495.389653
6200.0,1689,51718.521439
18000.0,2940,52124.720249
14100.0,2822,52506.587784
16000.0,3222,52930.279169
13700.0,2813,53304.025777
6700.0,2086,53589.578345
5800.0,1642,53807.544
17000.0,2994,54213.701876
10700.0,2312,54521.741541
29800.0,4244,55094.278402
17700.0,3063,55515.381026
13300.0,2558,55856.971216
14400.0,2632,56216.6831
17900.0,2892,56617.611886
18600.0,3283,57045.451909
10000.0,2033,57317.673652
17600.0,2991,57708.737158
8000.0,2018,57980.40093
18900.0,3017,58386.42983
16200.0,2451,58711.05975
12500.0,2280,59025.592309
17200.0,2562,59382.377419
13000.0,2130,59676.379844
11300.0,2239,59985.931689
7800.0,1808,60228.419332
11700.0,1954,60485.780342
21500.0,2942,60891.008587
20400.0,2825,61269.444151
23400.0,3416,61731.896019
19500.0,3035,62139.147069
19900.0,3439,62600.893232
15200.0,2722,62959.805191
12900.0,2434,63295.139752
9800.0,2282,63609.133118
19000.0,2958,64009.25744
17000.0,3000,64411.625025
13200.0,2345,64727.346777
11300.0,2254,65027.89701
17300.0,2717,65395.705391
16100.0,2467,65732.858136
9400.0,2054,66009.95408
9200.0,2218,66308.123715
14000.0,2459,66640.755044
25900.0,3543,67120.065693
8900.0,1906,67390.753549
18500.0,3320,67828.192266
5300.0,1519,68031.857491
16600.0,2799,68409.777591
10600.0,2009,68680.729004
12600.0,2162,68964.827586
11400.0,2299,69278.834217
12900.0,2496,69616.828994
12200.0,2418,69940.683331
8200.0,2058,70227.134676
15900.0,2685,70584.258175
6900.0,1992,70849.562139
20900.0,3019,71258.660585
16700.0,3002,71662.882378
15200.0,3158,72089.935786
21200.0,3423,72541.580561
9600.0,2315,72851.533117
20900.0,3457,73318.427858
18400.0,3378,73771.998919
11300.0,2131,74056.987591
22000.0,3230,74503.771507
13500.0,2834,74895.53458
14900.0,2728,75258.473379
8800.0,2122,75542.74667
5600.0,1693,75766.66877
13900.0,2729,76121.787713
14900.0,2670,76487.059439
8100.0,2181,76775.281255
13700.0,2558,77131.925393
12400.0,2340,77451.850465
16300.0,2526,77789.387831
16700.0,2769,78158.633981
21600.0,3155,78466.570872
26900.0,3255,78666.600354
18500.0,2978,78857.691853
17100.0,2612,79029.557086
8600.0,1985,79154.709991
13800.0,2637,79320.623569
9100.0,1907,79439.624044
7500.0,1892,79556.854767
18900.0,2894,79736.990393
13800.0,2626,79900.086441
14600.0,2520,80060.052566
15900.0,2467,80214.86917
12500.0,2363,80360.630431
15200.0,2743,80541.852353
14800.0,2674,80713.120412
19800.0,3402,80914.171013
14500.0,2576,81068.908092
14900.0,2522,81219.391318
8700.0,1980,81336.344854
19300.0,3239,81541.187517
16200.0,2720,81702.193179
18400.0,3110,81890.125579
10300.0,2305,82025.539964
19500.0,3311,82230.354108
12700.0,2396,82382.247834
15300.0,3068,82569.853951
15000.0,2559,82723.029806
16000.0,3063,82900.393543
18100.0,2854,83070.478568
10500.0,2293,83212.58295
21000.0,3368,83415.778244
15700.0,2856,83583.957786
17800.0,3048,83775.775546
17500.0,2980,83952.539391
14900.0,2675,84123.288752
22200.0,3434,84335.356956
13600.0,2708,84496.347904
10900.0,2290,84636.323441
8400.0,2297,84772.962083
22500.0,3379,84974.732129
7800.0,1986,85094.527744
13600.0,2825,85262.983005
10800.0,2316,85401.130769
19200.0,3161,85591.221206
13200.0,2776,85756.736341
15800.0,2874,85928.698725
6700.0,1598,86024.708362
21400.0,3613,86234.327401
15300.0,2847,86406.133423
18500.0,3469,86619.267965
27900.0,4233,86889.784564
6800.0,1931,87014.067744
11800.0,2158,87151.410447
4800.0,1490,87240.366008
21400.0,3967,87475.958439
12500.0,2565,87630.101401
10200.0,1999,87747.326057
7000.0,1815,87857.731352
14300.0,2686,88017.115583
20400.0,3613,88229.567737
19400.0,3209,88422.327583
12900.0,2722,88585.198694
21900.0,3804,88816.516543
12900.0,2198,88947.461444
13100.0,2716,89109.926115
17200.0,3331,89307.42613
9800.0,2334,89454.211481
6500.0,1786,89561.440501
16600.0,2808,89725.164121
17000.0,2929,89902.511169
12100.0,2575,90057.657826
12900.0,2483,90208.5595
13800.0,2628,90373.210101
14300.0,2413,90530.113455
10200.0,2506,90692.003784
15200.0,3157,90894.469498
14700.0,2636,91061.487711
23000.0,3934,91314.252014
10100.0,2410,91460.822496
12800.0,2880,91630.276147
13000.0,2569,91786.513168
17400.0,3199,91980.814113
17000.0,3104,92163.754315
6600.0,1741,92272.532758
14400.0,2609,92430.16811
12900.0,2708,92587.8696
13200.0,2661,92749.768697
19100.0,3314,92950.805855
12100.0,2493,93096.769162
17500.0,3156,93286.86242
18900.0,3865,93516.249095
16400.0,3279,93711.151174
12100.0,2528,93863.967378
19800.0,3279,94058.929626
9300.0,2123,94191.592661
17500.0,2938,94364.097202
16700.0,3006,94540.223155
19900.0,3321,94736.74838
6700.0,1854,94849.924942
14400.0,2771,95019.256172
18900.0,3581,95235.164509
19400.0,3178,95425.61799
15100.0,3152,95609.339617
10400.0,2353,95757.00762
21200.0,3717,95979.001792
21700.0,3764,96201.423054
13100.0,2812,96374.630607
26600.0,4407,96638.899851
19400.0,3590,96851.23454
11800.0,2546,97010.818437
14200.0,2771,97180.945009
17500.0,3157,97365.541396
5800.0,1693,97465.246452
20700.0,3773,97687.146445
18700.0,3254,97880.608393
22200.0,3886,98109.923857
15900.0,3218,98293.559411
21400.0,3676,98521.095714
13300.0,2957,98699.352167
21400.0,3664,98910.118277
11600.0,2780,99087.406667
15400.0,2633,99248.945606
7800.0,2019,99361.572844
16500.0,3000,99531.63268
16600.0,3280,99705.646117
24600.0,3919,99914.827362
17800.0,3231,100085.51883
13600.0,2738,100231.845212
13300.0,2560,100368.417679
8400.0,1848,100468.299244
14500.0,2678,100613.000981
10300.0,2562,100747.175112
12100.0,2466,100877.628251
18900.0,3178,101056.5154
9700.0,2314,101182.21233
15400.0,3377,101364.952976
26200.0,3946,101589.010657
23000.0,3627,101789.228758
10100.0,2312,101923.997827
20200.0,3333,102111.722329
25800.0,4520,102357.807176
18900.0,3160,102533.723639
23400.0,4203,102759.747438
20700.0,3699,102958.95245
11100.0,2295,103087.716788
14100.0,3066,103258.245343
28100.0,4682,103516.070715
13600.0,2745,103664.230433
16000.0,3398,103854.594714
18800.0,3286,104032.999635
22200.0,3558,104221.837231
14900.0,3325,104399.543559
21500.0,3930,104617.925611
10400.0,2295,104740.193712
15300.0,3161,104924.649275
19300.0,3757,105140.822129
13100.0,2936,105312.80487
24700.0,3713,105526.514032
31900.0,4793,105809.15045
33300.0,5219,106112.081782
19600.0,3297,106298.335878
25900.0,4102,106526.094146
9400.0,2209,106650.764185
14200.0,2710,106799.911114
18100.0,3256,106986.355528
12000.0,2441,107124.664832
12100.0,2460,107260.381793
23800.0,3808,107475.6237
25100.0,3974,107703.63273
18400.0,3215,107887.170629
13600.0,2652,108037.763167
27800.0,4322,108283.478673
24300.0,3937,108499.024112
14100.0,2941,108661.322309
20000.0,3206,108835.91777
20800.0,3804,109050.013977
9200.0,2311,109181.823734
17100.0,2771,109336.316571
24800.0,4085,109568.792459
19200.0,3395,109757.75764
26500.0,4367,109992.151236
12100.0,2598,110131.544518
15100.0,3103,110303.627773
6300.0,2096,110414.520331
9500.0,2353,110543.753741
24200.0,3714,110743.111714
23500.0,3985,110953.291035
12900.0,2627,111094.872183
21000.0,3858,111288.941715
22200.0,4200,111503.074578
18900.0,3148,111665.395101
12700.0,2737,111810.692869
18800.0,3214,111985.684436
20800.0,3583,112186.163055
10600.0,2323,112310.954669
19800.0,3667,112503.667575
16500.0,2943,112655.079431
10300.0,2338,112782.604701
12200.0,2679,112919.873728
23000.0,3818,113158.655872
25100.0,4047,113436.858709
18600.0,3427,113684.255852
13700.0,2802,113891.763947
12900.0,2688,114086.761867
16800.0,2919,114300.37009
25200.0,3983,114590.2126
16500.0,3216,114823.698369
15300.0,2902,115026.721357
22000.0,3768,115313.675999
17300.0,3067,115542.226177
14400.0,2851,115752.230834
17400.0,3227,115976.017888
15800.0,2932,116170.208887
