# {"t_start": 1547545151.0386884, "env_id": "RobotankNoFrameskip-v4"} 
r,l,t
5.0,5681,196.355731
6.0,4940,371.776561
3.0,2785,469.966579
7.0,3472,585.001272
5.0,4097,726.75396
0.0,3936,865.594146
4.0,2324,947.959046
1.0,2180,1021.107742
0.0,1192,1063.338752
3.0,1893,1126.410055
3.0,3346,1240.117218
4.0,3383,1350.955338
0.0,1510,1404.570093
2.0,1844,1467.583049
2.0,1096,1504.445468
2.0,2296,1585.883956
1.0,2242,1664.851087
2.0,1537,1720.255321
0.0,2147,1796.571862
2.0,2284,1876.612566
4.0,3419,1996.858089
1.0,1899,2065.71592
3.0,3025,2173.080476
2.0,3885,2306.704346
5.0,2627,2401.776285
3.0,1521,2454.057522
1.0,1346,2499.933927
3.0,4087,2637.704968
4.0,1759,2694.13899
1.0,1309,2739.023775
3.0,5150,2909.86971
0.0,2176,2982.370658
2.0,2507,3064.559455
6.0,5459,3248.818908
1.0,2311,3326.691936
2.0,2544,3409.991481
2.0,3407,3522.157726
2.0,3153,3630.163891
0.0,2889,3731.945696
6.0,2934,3830.64676
3.0,2699,3920.540867
6.0,4956,4089.699004
5.0,3130,4195.398485
0.0,2136,4266.459605
1.0,4243,4413.920696
1.0,2602,4501.945854
4.0,2524,4587.460447
2.0,2362,4668.686754
3.0,2784,4767.873879
1.0,1866,4832.580614
1.0,2214,4905.786472
4.0,2452,4983.904982
4.0,3745,5109.568894
1.0,3022,5208.907699
2.0,2981,5305.502163
1.0,3885,5433.544725
0.0,3935,5565.750169
3.0,2405,5647.967364
1.0,2050,5714.898337
1.0,2374,5793.607487
5.0,3302,5900.79603
3.0,1034,5934.056947
2.0,2887,6027.556385
2.0,1533,6080.44474
0.0,1889,6139.803463
7.0,4168,6280.526556
2.0,1176,6320.341689
2.0,1970,6384.537436
6.0,2187,6455.807068
3.0,2311,6536.856005
3.0,2118,6618.026668
2.0,2532,6708.579235
1.0,2203,6788.568229
3.0,1936,6859.634384
2.0,2682,6959.083034
2.0,1974,7030.043237
2.0,2542,7125.404134
7.0,3532,7254.741665
0.0,1090,7295.30174
2.0,1626,7354.064123
2.0,2105,7431.843386
1.0,2039,7510.492682
1.0,1706,7572.754749
2.0,2320,7658.302481
5.0,2548,7752.130176
3.0,1539,7810.638931
4.0,4254,7967.983303
1.0,1726,8031.714359
0.0,2711,8132.018498
3.0,2833,8236.384454
1.0,2146,8314.631455
6.0,3582,8447.623171
0.0,1367,8498.619362
3.0,2660,8594.759284
7.0,4675,8766.472372
5.0,4656,8940.554132
1.0,1475,8993.294027
0.0,2165,9071.164511
4.0,2213,9153.382776
4.0,2732,9251.919138
3.0,3256,9372.914545
2.0,1548,9431.538779
2.0,2846,9534.975842
0.0,1895,9604.457546
2.0,2276,9684.779331
3.0,2190,9766.282249
6.0,4115,9915.957605
1.0,2135,9991.032698
0.0,1267,10040.551973
7.0,3058,10153.201058
1.0,2422,10241.661001
1.0,1026,10279.019375
1.0,2391,10363.592885
5.0,3457,10490.30449
8.0,4295,10647.440898
4.0,2538,10743.277981
5.0,2711,10843.543265
3.0,3263,10963.92704
3.0,2543,11058.185273
3.0,2457,11151.380267
3.0,1895,11218.920691
3.0,1612,11275.35406
5.0,3157,11390.327463
3.0,3258,11510.78155
5.0,2579,11604.7974
5.0,4048,11752.643072
3.0,2400,11840.025426
3.0,2300,11922.419787
2.0,1223,11968.373611
7.0,2680,12066.807603
8.0,3343,12190.837856
7.0,4268,12347.173018
0.0,1241,12391.75826
2.0,1932,12463.284422
6.0,2374,12550.793309
2.0,3148,12664.824142
1.0,1322,12713.794596
1.0,2064,12789.203459
2.0,1194,12831.847873
2.0,2509,12925.405801
3.0,3371,13048.34121
1.0,2149,13126.353214
5.0,2829,13231.222361
2.0,2202,13313.343965
4.0,2931,13420.31018
1.0,2260,13506.225941
0.0,1794,13574.259302
4.0,3863,13715.205762
7.0,2289,13796.473426
0.0,1771,13861.302294
7.0,1984,13936.850855
3.0,1951,14006.772235
2.0,2682,14102.14941
7.0,2288,14184.518314
2.0,1936,14257.890315
1.0,2247,14339.06014
2.0,1538,14397.06336
1.0,1544,14452.816031
1.0,3098,14567.560511
0.0,1681,14630.049605
2.0,2315,14716.298831
4.0,2697,14813.206441
5.0,2432,14901.325314
4.0,3061,15008.757947
5.0,3078,15122.517772
7.0,2560,15216.002986
9.0,3562,15346.664317
1.0,1555,15403.816083
4.0,1549,15460.922939
1.0,1594,15520.136824
8.0,4752,15693.56377
4.0,2275,15776.631287
1.0,1175,15819.604038
2.0,1030,15859.76564
2.0,1166,15902.366376
2.0,2140,15982.524931
3.0,2552,16077.322504
6.0,3283,16200.330479
2.0,3447,16326.396392
2.0,1582,16386.389539
3.0,2626,16478.121152
3.0,3625,16607.669327
3.0,3345,16730.069458
1.0,1468,16781.56203
5.0,2590,16876.529241
1.0,2075,16952.683472
5.0,2816,17054.755646
4.0,3473,17180.348441
2.0,3036,17292.515511
5.0,1641,17354.308257
5.0,3314,17477.248527
2.0,1499,17533.82215
3.0,1797,17599.739356
1.0,1879,17671.147676
4.0,2178,17752.176674
2.0,2573,17849.34098
5.0,3137,17963.244054
2.0,1727,18025.553992
2.0,2641,18120.227747
5.0,2728,18218.88647
7.0,4166,18373.433991
1.0,1791,18439.288081
8.0,3183,18558.330268
1.0,1882,18626.803456
6.0,3313,18748.340487
7.0,2373,18836.095163
3.0,1233,18882.646883
1.0,1867,18949.228798
5.0,2538,19042.692932
2.0,1151,19086.152957
5.0,3178,19202.696772
5.0,3307,19327.914376
3.0,2418,19411.948223
0.0,1995,19480.679972
5.0,2932,19590.331852
2.0,2515,19682.992498
3.0,2661,19779.761717
1.0,1936,19851.880144
3.0,2136,19933.341774
4.0,3856,20072.960554
5.0,3005,20181.732378
3.0,3606,20316.337001
1.0,2173,20397.159891
5.0,3878,20538.432549
1.0,1377,20590.368787
1.0,1505,20644.348368
3.0,2584,20741.451243
2.0,1477,20794.520212
4.0,2362,20881.779436
0.0,1491,20935.567165
1.0,1087,20974.267607
2.0,1974,21044.747869
5.0,2939,21148.621934
2.0,2203,21228.114719
3.0,2195,21311.305647
1.0,1551,21369.250315
1.0,1738,21432.004207
6.0,2520,21523.96746
2.0,2615,21619.33935
2.0,2212,21701.570358
4.0,2383,21788.16563
1.0,1556,21844.204926
5.0,2844,21948.340157
3.0,1863,22019.118215
5.0,1381,22069.869627
3.0,1616,22128.381186
5.0,3657,22259.250953
3.0,3796,22398.09629
4.0,2683,22493.631673
3.0,1799,22560.946543
9.0,4795,22739.430602
6.0,2239,22820.069933
3.0,2754,22924.497099
3.0,2029,23001.466244
3.0,2073,23079.180653
6.0,4238,23240.506318
7.0,2928,23350.216388
3.0,3259,23469.073426
3.0,2705,23569.250857
8.0,4747,23748.128144
2.0,1374,23798.204734
0.0,1459,23848.350286
4.0,2925,23956.830833
1.0,1356,24005.738487
3.0,2175,24085.354392
1.0,790,24114.71458
3.0,3504,24241.939249
3.0,2731,24342.392026
1.0,1218,24386.889727
3.0,3351,24507.5004
1.0,2217,24586.963395
2.0,2209,24665.135104
4.0,3111,24777.859426
3.0,3024,24889.847968
1.0,2853,24996.529493
3.0,2720,25093.398466
7.0,3535,25223.965416
1.0,2012,25297.692802
5.0,2506,25392.906047
4.0,1287,25442.016417
3.0,1934,25513.550584
3.0,1536,25567.613216
0.0,1285,25615.237934
2.0,1557,25674.05991
4.0,2587,25767.883981
1.0,1528,25823.933022
4.0,3902,25967.879756
2.0,2184,26047.107477
0.0,1906,26115.092228
1.0,687,26140.096291
1.0,1339,26188.190961
3.0,1711,26250.54266
1.0,1947,26323.423252
1.0,2045,26399.384542
2.0,1903,26466.544997
3.0,1379,26517.928166
4.0,2114,26595.939038
1.0,2655,26693.490701
2.0,2500,26785.994577
1.0,1063,26824.082108
3.0,2920,26931.261359
3.0,2065,27007.383715
2.0,2960,27114.5954
1.0,1839,27182.985177
2.0,2288,27267.708196
2.0,4449,27433.678763
1.0,1241,27481.975627
1.0,2698,27580.098775
3.0,2571,27674.452762
1.0,2735,27778.614939
2.0,1247,27824.186986
2.0,2927,27933.985701
2.0,2502,28027.454788
0.0,2018,28101.06027
6.0,2935,28211.473175
1.0,2419,28300.927839
2.0,2965,28408.875472
0.0,2157,28486.621351
1.0,1753,28547.496973
4.0,3095,28657.044057
2.0,1778,28723.300799
1.0,1828,28791.129402
4.0,2058,28867.196391
2.0,2707,28965.359984
6.0,3895,29110.180933
3.0,1949,29183.83132
2.0,2673,29281.990541
2.0,2989,29394.218284
3.0,2178,29472.557984
0.0,2109,29549.481613
1.0,1814,29616.602764
2.0,4273,29781.903344
5.0,2783,29889.855525
3.0,2946,30001.652896
2.0,1194,30047.512758
2.0,3033,30160.410099
3.0,1953,30231.428669
2.0,2917,30336.89566
5.0,1986,30411.461982
9.0,3683,30546.671866
3.0,1721,30609.869512
3.0,3185,30726.862247
4.0,1818,30794.357192
3.0,1787,30859.997037
3.0,2229,30940.58581
4.0,2394,31026.623746
4.0,1725,31089.638354
4.0,4594,31254.238648
2.0,2437,31346.803537
5.0,2840,31452.160869
3.0,2496,31546.53528
1.0,1885,31614.582372
4.0,1658,31674.93338
3.0,2722,31770.231456
0.0,1985,31842.08703
10.0,6603,32081.664021
9.0,4117,32232.016519
14.0,6028,32449.558461
1.0,1867,32519.238457
5.0,3561,32649.214138
6.0,4208,32805.579371
1.0,2916,32913.908411
0.0,1500,32967.455231
8.0,5160,33155.795691
8.0,5229,33350.115024
5.0,3101,33463.743561
3.0,2965,33573.526648
1.0,1137,33614.657278
0.0,1743,33675.504763
4.0,3159,33792.743249
3.0,3243,33913.646361
5.0,2468,34007.011751
4.0,2613,34103.575286
1.0,2918,34212.951833
3.0,2393,34299.110859
6.0,3371,34422.80904
3.0,2022,34496.308586
3.0,2226,34581.440836
2.0,2798,34683.045053
1.0,2332,34767.650222
3.0,3608,34900.03993
2.0,2051,34973.029633
7.0,3559,35101.260845
3.0,2210,35184.640909
3.0,2067,35260.733071
3.0,3535,35390.572112
2.0,2034,35463.734897
1.0,2025,35538.4057
3.0,3218,35655.372936
1.0,1194,35696.280575
1.0,1690,35756.944391
3.0,3102,35865.564464
1.0,1642,35922.602893
2.0,2749,36021.000806
8.0,4211,36175.674044
3.0,2857,36281.227203
4.0,3532,36412.900182
2.0,1585,36472.608204
2.0,2023,36546.318784
3.0,3027,36658.060822
8.0,4871,36840.651965
3.0,2286,36924.698286
1.0,1848,36994.398232
1.0,1747,37058.84425
6.0,6142,37289.140131
4.0,2748,37393.129911
1.0,2619,37486.807499
3.0,3888,37625.237587
1.0,1603,37684.872856
3.0,3735,37822.811517
1.0,2048,37900.34005
1.0,2068,37974.351623
2.0,4076,38125.677064
2.0,3324,38249.501656
3.0,2110,38323.729075
1.0,1869,38393.69383
0.0,1586,38452.521801
7.0,3837,38596.823361
3.0,2918,38705.178778
2.0,2000,38778.999802
10.0,4819,38961.761903
5.0,2699,39061.951588
4.0,2287,39146.139874
6.0,5203,39338.999909
11.0,5233,39530.511246
7.0,3871,39670.678493
4.0,2867,39773.752738
0.0,1554,39828.539689
4.0,3606,39962.333077
5.0,2720,40062.448329
4.0,2114,40144.42154
4.0,2286,40229.579549
3.0,1952,40303.160579
3.0,2217,40378.667477
3.0,3310,40501.876228
2.0,2648,40599.262875
4.0,2842,40704.994316
4.0,2069,40781.554368
1.0,4321,40942.183179
3.0,3202,41062.281474
4.0,2025,41133.239127
0.0,1529,41190.814103
0.0,1632,41253.056007
4.0,2907,41359.79603
2.0,1975,41432.370468
1.0,1631,41493.156817
6.0,3421,41619.345446
0.0,1760,41684.200946
1.0,2282,41768.941919
0.0,1200,41812.050023
5.0,2839,41918.133315
2.0,2045,41996.380032
0.0,1313,42047.031458
0.0,1054,42085.080455
2.0,2269,42167.933879
5.0,4271,42323.393599
2.0,1724,42385.366372
7.0,3398,42510.571337
2.0,1202,42554.422462
0.0,1061,42590.815071
1.0,1767,42652.533206
3.0,1964,42720.606314
2.0,2653,42812.121673
3.0,1823,42875.043029
3.0,1585,42931.697648
4.0,3290,43046.278699
1.0,1933,43113.318335
4.0,4336,43262.446129
1.0,1823,43323.84015
1.0,1122,43363.203049
1.0,2579,43452.393392
1.0,2597,43540.066924
1.0,2163,43615.679431
1.0,1495,43665.494168
7.0,5539,43857.529038
1.0,1353,43902.817866
5.0,2398,43982.706746
1.0,2157,44058.05619
3.0,1469,44110.222527
1.0,2172,44185.541945
5.0,2333,44264.187265
5.0,3158,44374.10532
7.0,3769,44506.28134
5.0,2967,44615.845818
1.0,1481,44665.795376
1.0,1253,44710.047436
2.0,3200,44822.860842
3.0,2106,44895.68323
8.0,3481,45011.903952
4.0,3363,45128.588907
4.0,2317,45207.391862
3.0,5796,45406.841911
9.0,3299,45521.760226
8.0,2883,45622.351449
3.0,2715,45716.656044
0.0,1371,45762.20948
4.0,1122,45803.353435
5.0,2708,45896.517931
4.0,2892,46003.584748
5.0,2212,46086.548606
2.0,1589,46145.677327
0.0,1189,46190.007841
1.0,2601,46281.009348
4.0,2126,46353.404444
3.0,3223,46458.431814
2.0,1895,46517.558892
3.0,3154,46623.963861
5.0,2363,46705.99803
5.0,2917,46807.373682
1.0,1903,46870.359168
1.0,2559,46958.730899
3.0,2031,47021.31958
4.0,1745,47073.925429
1.0,1214,47112.483638
0.0,2138,47180.97626
3.0,2259,47249.91944
5.0,2082,47310.969101
5.0,2902,47395.70336
6.0,3180,47485.286642
5.0,2430,47555.432084
0.0,1647,47601.34354
4.0,2594,47675.535118
0.0,1246,47711.474948
0.0,2711,47786.344982
1.0,1361,47823.094223
1.0,3786,47927.932197
5.0,1962,47981.52207
6.0,4118,48098.732675
1.0,1496,48141.129526
7.0,3262,48233.395723
2.0,2040,48290.041087
0.0,1539,48332.823178
2.0,1467,48375.364964
2.0,2546,48448.754523
2.0,3016,48532.149122
5.0,2723,48608.034869
3.0,3012,48689.376841
0.0,1341,48725.563303
2.0,1852,48775.766982
3.0,2788,48847.557775
2.0,2387,48911.214885
2.0,2654,48982.501693
1.0,1209,49015.510817
2.0,1354,49051.01537
4.0,3007,49128.480602
4.0,2732,49199.376419
0.0,1188,49230.682975
2.0,1497,49271.220622
4.0,2631,49342.649292
2.0,2300,49401.005994
1.0,2697,49470.861696
2.0,2354,49533.429257
2.0,3544,49625.194024
3.0,3374,49713.918016
2.0,2394,49776.63865
1.0,1811,49823.255476
1.0,2553,49890.693346
1.0,1532,49932.245937
5.0,3233,50017.866457
1.0,2614,50087.232917
2.0,1100,50116.393221
7.0,3556,50210.775169
3.0,2736,50283.903654
3.0,2984,50365.341835
1.0,1907,50414.771173
2.0,1339,50449.184382
1.0,1681,50494.068703
1.0,1841,50543.55398
3.0,1771,50591.430605
1.0,846,50614.363555
1.0,1325,50649.203698
6.0,3065,50729.43295
6.0,3520,50822.732993
6.0,3473,50912.843317
1.0,3737,51013.24137
5.0,1590,51055.063858
5.0,2578,51124.005129
2.0,1934,51174.951481
10.0,5184,51312.799556
6.0,2778,51387.007544
1.0,1738,51433.07101
5.0,3121,51518.638011
9.0,3536,51613.092898
2.0,2720,51688.601042
6.0,4037,51796.234787
5.0,3563,51892.441962
11.0,4641,52011.440421
6.0,3653,52107.441659
1.0,2483,52171.730412
1.0,2275,52230.508531
3.0,2472,52297.229641
2.0,4604,52420.919493
0.0,1627,52464.282319
1.0,1641,52508.914096
6.0,6563,52685.658253
4.0,2701,52758.809985
4.0,3108,52842.780331
1.0,3171,52931.975492
1.0,1547,52973.695914
8.0,3946,53080.262959
1.0,1215,53112.316225
7.0,2989,53195.077226
0.0,1882,53247.643062
2.0,2513,53316.630654
0.0,2005,53373.5836
2.0,3200,53467.487501
0.0,1537,53512.59165
0.0,2254,53578.813638
1.0,1351,53619.876537
6.0,4554,53767.47329
1.0,2950,53863.870816
0.0,2339,53948.248151
6.0,5489,54150.498539
2.0,1737,54216.774094
6.0,3844,54359.594002
4.0,3437,54485.455155
3.0,3051,54599.871474
5.0,3793,54748.552078
1.0,1858,54822.210342
8.0,4157,54980.040528
5.0,1923,55054.456199
3.0,2752,55155.667787
6.0,3809,55304.030822
8.0,4456,55476.751879
3.0,2499,55572.78314
3.0,2894,55687.532789
2.0,2505,55786.499651
4.0,1823,55857.251856
2.0,1365,55913.147679
7.0,3520,56054.443841
4.0,2266,56144.91094
1.0,2410,56240.746342
5.0,3351,56376.407793
5.0,3208,56505.793374
7.0,4208,56674.052425
8.0,2446,56773.931142
3.0,2926,56890.057357
8.0,4973,57088.831853
5.0,3155,57209.696283
5.0,2159,57292.021616
1.0,2830,57401.581161
9.0,3190,57528.089139
2.0,2449,57621.192131
4.0,2387,57712.384284
7.0,3474,57851.370021
5.0,2647,57955.726812
0.0,1094,57998.576986
2.0,2362,58091.752621
2.0,2057,58171.242778
1.0,2935,58285.050558
4.0,3109,58404.009161
3.0,3135,58525.201695
10.0,6213,58767.202546
1.0,1101,58810.392091
4.0,3189,58932.411761
3.0,3349,59061.024053
9.0,4145,59224.705692
3.0,2527,59317.530631
0.0,1457,59373.05728
2.0,2646,59474.393298
1.0,2116,59554.757549
7.0,2600,59653.825834
3.0,3847,59801.290357
0.0,770,59828.492393
2.0,1766,59894.33915
1.0,1716,59959.541213
5.0,2673,60064.862241
2.0,1761,60138.481197
1.0,2285,60228.254251
1.0,2641,60334.496521
3.0,1573,60396.879379
3.0,3788,60542.348731
6.0,3024,60662.953183
5.0,2357,60756.094499
1.0,1516,60816.885002
5.0,3346,60944.446107
4.0,2367,61038.241631
2.0,2611,61141.012
3.0,2987,61257.417398
6.0,4208,61428.054847
2.0,2080,61505.99799
3.0,3189,61632.989756
3.0,2434,61728.671197
1.0,2045,61811.29674
9.0,3794,61964.925792
2.0,2141,62047.631012
8.0,3809,62193.586204
4.0,4551,62369.83887
2.0,2878,62478.362813
1.0,1617,62542.519559
2.0,2340,62635.236614
4.0,3915,62788.331424
4.0,3873,62938.098849
7.0,3907,63089.741512
3.0,2477,63184.509542
2.0,1909,63259.763569
3.0,2305,63353.108935
2.0,2532,63454.947314
6.0,3569,63593.271735
2.0,1870,63663.068751
3.0,1798,63734.370753
4.0,1902,63809.390164
2.0,3893,63959.424611
8.0,4223,64121.935592
1.0,2533,64219.885968
8.0,3397,64349.355103
2.0,1975,64425.027632
2.0,1898,64497.882776
4.0,3597,64640.217551
2.0,2407,64732.234657
2.0,2641,64839.33576
6.0,4359,65009.086752
8.0,2930,65118.298324
2.0,2916,65233.464781
2.0,1551,65292.886086
1.0,1813,65363.960253
3.0,2377,65458.711395
2.0,1557,65523.584125
2.0,2213,65605.756743
2.0,1724,65673.0925
3.0,1907,65748.135085
3.0,2210,65834.059797
3.0,1243,65881.099207
3.0,2104,65964.164574
7.0,2616,66070.795512
3.0,3266,66197.324377
2.0,1743,66264.670568
5.0,1913,66338.155537
5.0,3119,66463.64503
4.0,3012,66576.096973
8.0,5552,66790.366294
7.0,3189,66911.681142
4.0,2200,66997.671044
11.0,5869,67228.85906
6.0,2315,67319.38501
8.0,4361,67495.722253
1.0,2196,67580.733396
5.0,3284,67713.926282
2.0,1747,67780.665077
9.0,3368,67912.962791
3.0,2830,68026.415729
6.0,3621,68161.820476
5.0,2770,68270.503903
6.0,2554,68371.392908
8.0,3802,68519.280879
3.0,1862,68595.091854
5.0,3132,68715.66218
6.0,3285,68844.6328
17.0,6225,69088.616957
3.0,3314,69215.822556
4.0,1946,69288.814578
9.0,3168,69410.769463
4.0,2215,69499.541367
5.0,2486,69596.570694
3.0,2277,69683.641045
1.0,2353,69774.399757
5.0,2118,69856.891811
5.0,3420,69987.004724
3.0,1672,70054.309566
8.0,3568,70194.296528
9.0,4871,70388.689284
1.0,2899,70498.257398
4.0,3499,70633.170098
8.0,4234,70798.74284
7.0,2278,70882.424582
2.0,1821,70952.048051
6.0,2184,71039.63504
6.0,2284,71131.691366
9.0,3612,71270.041048
9.0,4439,71441.144394
9.0,3376,71570.848344
5.0,3336,71705.942977
7.0,3308,71830.106202
4.0,2632,71933.18896
4.0,2266,72025.204967
6.0,3908,72176.081535
3.0,1987,72255.382421
3.0,2116,72336.479471
5.0,2558,72437.062049
6.0,4827,72627.760275
4.0,1681,72687.52595
1.0,2163,72769.148757
4.0,2704,72876.563741
7.0,2843,72987.212008
7.0,3811,73137.171595
4.0,2150,73222.440974
5.0,4434,73396.293685
10.0,4825,73589.955887
7.0,3368,73723.46193
1.0,2311,73811.879296
6.0,3719,73955.540591
5.0,3242,74083.847795
11.0,3531,74222.388447
2.0,2013,74302.16688
3.0,1837,74374.196622
2.0,1677,74436.362111
6.0,4097,74595.014358
2.0,2161,74673.129737
4.0,3106,74784.249443
1.0,1606,74844.904928
9.0,3751,74982.716807
7.0,3459,75110.535182
2.0,2333,75200.247235
4.0,3307,75321.971326
5.0,1789,75389.616021
8.0,3425,75520.198928
11.0,3409,75649.547315
7.0,3644,75792.709311
6.0,3960,75942.715478
3.0,3151,76064.542136
8.0,3589,76200.138244
5.0,2299,76286.444524
3.0,2242,76371.128335
6.0,3519,76504.798649
2.0,2875,76613.126583
10.0,3923,76762.707875
8.0,3487,76890.62344
4.0,3112,77008.894478
8.0,4315,77171.19766
3.0,2191,77251.759858
3.0,3184,77372.532074
7.0,3241,77491.825892
7.0,2771,77598.620701
6.0,4823,77778.246664
8.0,3164,77895.253063
5.0,4887,78075.056755
6.0,3964,78222.723271
4.0,2049,78297.99396
9.0,3401,78430.899961
5.0,2169,78514.895964
10.0,2773,78622.695463
11.0,4054,78766.650845
1.0,1533,78823.647266
8.0,3475,78957.316555
5.0,4829,79145.021474
6.0,2335,79227.18606
4.0,3420,79356.999674
1.0,2300,79440.163788
2.0,2127,79514.952906
4.0,2811,79612.173546
4.0,4705,79781.917267
11.0,5263,79972.545437
6.0,3854,80112.921495
3.0,2638,80205.835106
4.0,2455,80294.853374
8.0,3186,80405.746021
9.0,3917,80547.40271
3.0,2519,80637.607213
4.0,2470,80723.666557
5.0,2630,80817.693872
3.0,2180,80898.724458
5.0,2016,80971.183622
6.0,3350,81090.452176
8.0,3192,81204.543154
4.0,2564,81296.71009
4.0,3741,81431.557887
3.0,2083,81503.534452
3.0,1554,81557.501871
4.0,4327,81707.663702
9.0,5267,81882.166135
4.0,1988,81951.672838
9.0,3843,82087.283
6.0,3249,82197.471771
9.0,3569,82320.424831
3.0,1637,82376.373067
5.0,1932,82445.216161
7.0,2234,82521.791781
2.0,1670,82582.152835
6.0,3998,82716.677115
4.0,2702,82810.699919
12.0,6081,83012.14746
6.0,3398,83117.690717
3.0,2829,83204.906003
0.0,2219,83271.742994
2.0,2270,83341.007933
5.0,2062,83404.196842
11.0,3588,83512.263839
2.0,2011,83570.471583
3.0,2156,83632.281268
5.0,1856,83686.169266
4.0,1711,83735.289791
3.0,1496,83779.554923
6.0,3524,83880.970375
7.0,2577,83954.512441
6.0,3373,84052.574999
6.0,3464,84156.087081
1.0,1508,84199.142525
1.0,2531,84273.518819
3.0,1630,84319.433712
3.0,2331,84386.007712
9.0,3750,84493.534564
1.0,2288,84558.165381
4.0,2009,84614.216376
9.0,3355,84711.60406
4.0,3235,84805.05391
8.0,3126,84894.473073
3.0,2751,84972.468831
7.0,2358,85039.059519
3.0,2153,85096.644854
8.0,3332,85192.467439
12.0,5405,85350.412652
8.0,3195,85443.433768
8.0,3891,85556.906855
4.0,3149,85652.650012
0.0,1770,85704.994146
10.0,3385,85815.983943
7.0,3878,85962.652772
4.0,2141,86047.162449
9.0,3326,86182.405318
5.0,2844,86298.811441
10.0,5053,86501.248959
3.0,2295,86595.791638
6.0,1800,86665.256515
3.0,4826,86859.723815
7.0,3150,86989.447404
6.0,3421,87128.393257
1.0,2014,87205.440083
4.0,2393,87297.396284
7.0,3129,87419.894657
4.0,3300,87547.577817
4.0,3103,87668.475202
5.0,3027,87784.725635
5.0,2906,87900.292475
6.0,4309,88069.623462
7.0,3898,88219.879472
8.0,3585,88356.345026
3.0,2383,88445.433149
5.0,2355,88530.075533
12.0,3710,88660.694913
5.0,3418,88786.202729
4.0,3187,88902.644948
7.0,3725,89033.452664
10.0,4360,89189.630897
2.0,1933,89258.700418
8.0,3733,89384.601851
14.0,6352,89605.764425
