# {"t_start": 1547545153.4600627, "env_id": "RobotankNoFrameskip-v4"} 
r,l,t
5.0,4542,157.861685
3.0,3062,264.164776
0.0,1240,309.356492
9.0,7173,557.016621
0.0,2495,643.591238
6.0,3566,764.505842
1.0,1819,828.804646
1.0,1319,875.0896
2.0,2800,974.111422
4.0,3751,1102.577763
7.0,4603,1257.365497
4.0,3703,1382.025424
4.0,2096,1454.863521
1.0,3020,1559.273982
1.0,2253,1637.682541
0.0,1197,1680.720879
2.0,1852,1747.66618
1.0,2293,1829.290739
2.0,1947,1896.343389
2.0,2100,1968.881169
1.0,2512,2060.725375
0.0,2238,2141.642227
2.0,2324,2219.559263
0.0,1875,2284.540601
5.0,4391,2441.551911
1.0,1691,2499.290518
1.0,2364,2580.034188
1.0,2631,2667.131225
1.0,877,2693.55715
3.0,4054,2829.614669
0.0,1851,2890.671409
1.0,2760,2982.901346
5.0,4348,3128.632966
3.0,2077,3199.069235
1.0,1633,3251.457904
4.0,3696,3375.481592
3.0,2464,3454.703686
0.0,2592,3542.227609
0.0,3043,3646.680561
0.0,1230,3691.442424
2.0,1247,3733.748533
1.0,1795,3795.697289
1.0,1264,3836.305362
2.0,2407,3916.121084
2.0,2651,4006.886031
2.0,1559,4059.770633
3.0,5203,4235.842049
2.0,3538,4356.485343
3.0,1869,4421.351656
3.0,3382,4536.006956
2.0,2145,4609.541109
2.0,1791,4670.312362
1.0,1726,4731.936724
1.0,2766,4828.80793
3.0,4389,4971.844731
0.0,3073,5074.365569
0.0,629,5095.674706
1.0,964,5126.337701
2.0,1908,5189.240033
1.0,3126,5291.26199
4.0,2612,5377.215688
3.0,2254,5451.166538
4.0,2594,5539.788686
1.0,3082,5642.828447
2.0,2308,5718.46462
2.0,2504,5803.099975
5.0,2410,5879.616534
3.0,2327,5955.901273
0.0,1607,6006.917552
5.0,2802,6102.539551
7.0,2871,6192.524893
1.0,2160,6265.79605
1.0,1836,6330.254515
3.0,2937,6423.915347
3.0,2793,6520.929135
0.0,2595,6618.842875
1.0,3509,6744.104629
6.0,4210,6900.632603
8.0,4335,7059.730705
4.0,2825,7165.03239
4.0,3360,7287.588611
4.0,3345,7409.780637
4.0,3070,7527.009645
2.0,1287,7573.802628
3.0,2969,7683.817147
0.0,1497,7739.479192
1.0,1480,7794.092063
1.0,1791,7859.86983
2.0,1926,7930.929344
1.0,1632,7992.798598
3.0,2786,8096.342057
2.0,2862,8202.179419
1.0,1748,8265.792473
0.0,1842,8331.684083
1.0,1723,8395.137325
1.0,2499,8489.407109
2.0,3765,8626.955428
5.0,4008,8773.282235
3.0,2180,8853.631799
0.0,1564,8912.734641
1.0,2899,9019.567663
2.0,3804,9157.691484
3.0,2385,9243.740095
0.0,1637,9303.969305
6.0,4055,9455.855691
2.0,1479,9510.151098
6.0,4609,9675.544574
3.0,2504,9768.201172
3.0,2503,9858.637861
2.0,1746,9921.826594
2.0,2970,10031.047301
0.0,1854,10099.923185
4.0,2941,10206.813637
5.0,1996,10280.712647
1.0,1652,10338.354905
8.0,4266,10495.039588
2.0,1254,10541.137536
5.0,3373,10663.627456
1.0,1900,10736.271895
4.0,2631,10832.735677
8.0,2931,10941.230972
5.0,2722,11041.175754
1.0,2143,11122.888744
3.0,2865,11226.592004
3.0,1685,11285.742358
3.0,1147,11326.950156
0.0,1204,11371.969548
1.0,1891,11441.190636
2.0,1489,11496.060475
2.0,4321,11655.49091
6.0,3034,11763.367014
3.0,2530,11854.95252
5.0,2024,11929.888923
1.0,959,11965.080441
1.0,2041,12041.15335
3.0,3733,12179.098083
2.0,1257,12225.6314
10.0,3182,12340.935782
1.0,1769,12405.12612
2.0,2746,12507.304074
1.0,2455,12595.982997
6.0,5049,12780.777347
1.0,2222,12861.765423
3.0,2003,12937.269322
4.0,2852,13040.436084
2.0,1939,13110.972819
1.0,1788,13178.691558
1.0,3115,13291.47572
3.0,2588,13386.254123
4.0,2576,13483.893821
2.0,1681,13547.656651
2.0,1983,13620.59664
3.0,1691,13682.818717
2.0,2136,13757.412218
7.0,4137,13911.09501
3.0,4896,14088.44773
2.0,3670,14221.73262
4.0,1767,14288.454139
1.0,1196,14331.081136
0.0,764,14359.777311
5.0,3698,14496.810375
3.0,1536,14554.856136
0.0,1017,14589.439245
1.0,2402,14679.21218
6.0,3074,14791.160245
5.0,4042,14937.095541
2.0,1841,15000.501499
5.0,2497,15093.486824
4.0,2918,15200.44533
3.0,2558,15292.647094
1.0,1700,15355.652967
3.0,1841,15423.667715
6.0,2439,15514.15922
5.0,3419,15640.023796
5.0,2451,15728.634869
2.0,1962,15800.7242
0.0,865,15832.420264
2.0,5386,16035.336248
6.0,3862,16180.039664
5.0,3283,16298.213681
0.0,1632,16359.237264
6.0,3341,16479.525809
0.0,2135,16556.07435
2.0,2677,16653.577271
3.0,2952,16759.140262
3.0,2558,16851.853766
1.0,1718,16914.648252
4.0,2834,17018.786447
2.0,2284,17102.929916
4.0,1934,17171.217076
3.0,2864,17276.550895
2.0,2966,17385.564425
3.0,1685,17449.503281
1.0,2549,17546.09756
4.0,5155,17737.383843
4.0,2404,17828.695852
1.0,1514,17886.907048
2.0,2068,17958.994108
4.0,1949,18029.477741
1.0,845,18059.46873
6.0,4174,18209.551099
2.0,1681,18272.758467
1.0,1756,18337.091162
3.0,3132,18452.905813
8.0,3034,18565.479918
2.0,1199,18610.724144
4.0,2800,18712.307111
5.0,2399,18801.482429
5.0,2416,18890.61078
5.0,3294,19010.107023
4.0,1750,19076.759096
0.0,751,19102.881528
7.0,4316,19263.255761
2.0,1642,19325.783849
2.0,1681,19385.187389
5.0,2187,19459.60143
2.0,1455,19512.230747
3.0,1936,19583.605491
5.0,3339,19708.848695
6.0,3577,19838.857148
2.0,2092,19918.284201
1.0,2165,19997.64856
2.0,2425,20083.978919
0.0,1141,20126.438121
2.0,1929,20196.074598
1.0,3173,20314.939773
6.0,3082,20428.539242
4.0,2096,20505.852951
4.0,1754,20569.793034
5.0,2431,20659.152149
2.0,1455,20713.262817
2.0,2213,20794.175614
0.0,1607,20853.200867
1.0,1864,20923.123417
3.0,1772,20984.638105
2.0,2517,21074.78778
0.0,1101,21114.606428
0.0,1520,21166.620794
1.0,1648,21226.187412
0.0,1932,21298.340784
7.0,2599,21397.016859
2.0,2400,21484.707289
1.0,725,21509.766766
2.0,1781,21574.308505
2.0,1975,21648.177698
1.0,1573,21705.17257
2.0,1915,21774.790906
3.0,1988,21846.959663
1.0,1289,21893.441226
5.0,3909,22037.892385
0.0,2069,22116.84761
4.0,1662,22172.907326
1.0,2274,22256.19249
2.0,1293,22301.844621
2.0,3716,22437.546149
4.0,2055,22511.448828
1.0,1580,22570.844567
5.0,3285,22693.723795
4.0,3062,22803.904482
4.0,2707,22907.492311
5.0,2988,23020.309159
5.0,2197,23103.012499
4.0,1600,23162.756517
1.0,2417,23254.329219
9.0,3340,23378.314519
2.0,2229,23461.83339
0.0,1350,23509.836116
5.0,3091,23625.554775
1.0,1742,23691.244975
3.0,2962,23800.106665
3.0,3701,23933.867934
3.0,2694,24032.327873
0.0,1843,24100.634897
2.0,2060,24174.932096
1.0,2260,24257.762017
2.0,2120,24335.886287
4.0,3074,24447.663866
3.0,3398,24570.416767
1.0,3154,24682.129191
2.0,3178,24797.346464
3.0,2242,24880.356472
3.0,2637,24978.329024
3.0,2076,25051.194937
3.0,1946,25123.12153
3.0,3385,25247.551716
4.0,2542,25342.446411
2.0,2768,25448.962436
7.0,2928,25555.13791
3.0,2110,25633.33687
2.0,2398,25721.397357
2.0,1485,25775.590313
7.0,3368,25900.414016
2.0,1352,25950.561608
4.0,2104,26026.217101
2.0,2579,26118.735485
3.0,2297,26202.275422
6.0,2626,26299.383374
3.0,2903,26407.369513
4.0,2206,26485.375315
2.0,1863,26555.065225
5.0,2215,26637.204411
4.0,2202,26717.764206
2.0,2434,26806.881812
2.0,1151,26849.2418
3.0,1882,26918.664716
3.0,3098,27032.071096
3.0,3313,27152.690569
1.0,4338,27312.312191
4.0,2515,27407.698654
4.0,2639,27509.254739
2.0,1296,27555.181476
1.0,2618,27649.838756
2.0,1631,27712.039739
0.0,1526,27768.835138
3.0,3211,27888.894354
1.0,2769,27992.709266
3.0,1990,28064.931059
4.0,3107,28182.17281
3.0,1958,28255.432024
4.0,3256,28374.244976
4.0,2170,28452.783483
4.0,1862,28518.02806
1.0,2211,28596.431968
2.0,1876,28662.998976
3.0,1744,28727.726258
0.0,2130,28807.205043
2.0,1783,28872.096242
5.0,2671,28970.073463
1.0,840,29000.008675
3.0,3122,29117.184409
2.0,2315,29203.195135
6.0,3711,29342.843225
2.0,1615,29401.90278
6.0,3807,29539.74729
4.0,2923,29648.562861
4.0,3803,29796.42506
0.0,908,29831.199377
4.0,1267,29880.22239
4.0,2859,29988.972303
7.0,2214,30072.813894
1.0,1248,30118.878077
3.0,1176,30162.579386
2.0,1332,30210.259871
2.0,1986,30283.230826
3.0,1457,30334.666166
4.0,2640,30434.291817
1.0,1810,30502.088624
4.0,3169,30617.176492
3.0,2170,30696.719981
6.0,2652,30794.658356
5.0,2387,30881.809184
0.0,1301,30928.996665
5.0,2951,31035.607566
5.0,4888,31212.829911
2.0,2067,31288.635452
6.0,5464,31493.156113
1.0,2001,31568.731714
4.0,2395,31654.959681
3.0,6759,31895.822041
7.0,3248,32017.080982
4.0,2159,32093.193506
3.0,3493,32221.090718
2.0,1481,32272.284118
14.0,5613,32476.797346
1.0,1952,32547.572059
8.0,2392,32635.353818
3.0,3016,32747.731319
7.0,1943,32819.691401
7.0,3236,32939.330665
6.0,2985,33048.223338
3.0,2677,33145.892284
1.0,3169,33263.257467
3.0,3560,33392.203231
1.0,2258,33477.366771
2.0,2621,33573.730207
1.0,1191,33616.673078
2.0,1755,33678.572092
2.0,2283,33761.351282
1.0,1377,33814.071946
0.0,1262,33860.826451
1.0,1866,33928.507883
4.0,3209,34050.403604
8.0,4122,34204.590003
10.0,4641,34373.545163
5.0,1930,34444.140885
4.0,2298,34529.460451
3.0,1901,34599.030964
7.0,2850,34703.644088
2.0,1630,34763.988409
2.0,1809,34830.488378
2.0,1797,34895.278939
3.0,3200,35011.141292
5.0,3177,35125.443514
4.0,1939,35198.730838
2.0,1865,35266.564885
3.0,2261,35349.356462
3.0,4097,35499.565854
3.0,1237,35544.188782
3.0,2087,35620.605289
3.0,2161,35696.409343
4.0,2502,35785.40345
3.0,3079,35894.157074
0.0,2135,35968.945805
4.0,2303,36051.235092
1.0,1295,36098.443637
4.0,2917,36208.627159
0.0,1506,36263.502842
1.0,2476,36354.822411
5.0,3447,36483.656506
2.0,3880,36625.882088
3.0,2333,36710.868374
1.0,1970,36784.679869
2.0,2371,36873.195013
2.0,2016,36948.416214
4.0,2005,37023.670862
4.0,2125,37103.170102
0.0,1553,37158.056237
5.0,4011,37311.478384
0.0,3160,37429.67484
3.0,4108,37577.51092
2.0,2580,37668.946091
4.0,2318,37756.353896
3.0,1598,37813.720053
3.0,1638,37875.692762
2.0,2308,37960.105969
4.0,5292,38157.217988
8.0,3644,38289.130154
0.0,1702,38351.007129
7.0,5301,38548.820296
7.0,4171,38704.855563
2.0,4130,38858.730366
2.0,2206,38941.99124
4.0,3196,39062.365446
1.0,1880,39131.879932
3.0,4529,39300.080639
7.0,4269,39455.947331
2.0,1845,39522.504878
5.0,4100,39671.688949
7.0,3956,39813.233821
0.0,1847,39881.985702
0.0,3161,39998.25877
0.0,1780,40063.78371
8.0,4618,40239.040407
3.0,2511,40329.640021
2.0,2859,40432.523067
0.0,1518,40489.352727
3.0,2776,40592.183964
2.0,2281,40675.304659
6.0,4649,40848.67044
2.0,2124,40927.503928
1.0,2501,41021.722575
1.0,2802,41121.849794
4.0,3925,41269.148471
5.0,2385,41357.909128
8.0,3850,41501.023231
9.0,2757,41600.385176
1.0,2037,41677.833899
1.0,1803,41743.214795
4.0,3316,41867.01401
1.0,1526,41923.750704
5.0,2642,42024.275302
5.0,3018,42136.786914
1.0,2422,42224.519327
1.0,1893,42293.244658
4.0,3483,42420.422203
3.0,2037,42494.408787
1.0,1219,42540.052301
3.0,2728,42635.067826
1.0,2659,42727.091776
1.0,2765,42822.534862
4.0,2634,42914.477656
7.0,5165,43095.512937
2.0,2048,43166.911856
1.0,2343,43246.17143
0.0,1795,43306.17238
3.0,2432,43391.778513
1.0,1747,43451.961123
4.0,2463,43533.97614
4.0,3151,43644.234351
3.0,2390,43725.619366
3.0,3304,43838.373556
5.0,3065,43943.510885
2.0,2576,44031.468293
4.0,2678,44125.568843
3.0,2330,44206.517124
2.0,1717,44263.587571
0.0,1078,44302.966655
1.0,1289,44347.591394
2.0,2115,44420.043388
8.0,4970,44597.512873
1.0,2108,44671.487126
4.0,3301,44789.046208
2.0,1220,44830.529231
1.0,1531,44883.98785
3.0,1527,44935.160016
3.0,2304,45011.885724
0.0,1794,45074.820363
5.0,2708,45167.802669
5.0,2606,45256.232128
5.0,1975,45325.231564
9.0,2488,45409.536025
1.0,1376,45457.002852
3.0,1623,45512.908905
5.0,2501,45599.838563
2.0,2315,45680.058688
1.0,1716,45739.112889
3.0,1851,45805.490825
2.0,1859,45868.370988
5.0,2498,45960.053043
4.0,1352,46009.290588
3.0,1850,46078.661653
5.0,3012,46191.671934
5.0,2790,46288.629513
5.0,2442,46371.037776
4.0,3142,46472.191391
3.0,2917,46568.736674
2.0,1185,46608.687045
0.0,1002,46641.686298
2.0,2207,46719.017436
5.0,2684,46810.925138
1.0,1461,46859.542675
2.0,2891,46958.895095
1.0,1513,47005.72611
2.0,2331,47076.248414
1.0,2824,47167.002113
4.0,4272,47296.490851
3.0,1780,47348.386859
3.0,2659,47424.13139
0.0,2365,47491.84294
3.0,1491,47535.000217
2.0,1956,47589.4306
2.0,2355,47655.865757
2.0,2303,47722.010581
0.0,1093,47752.231677
2.0,2227,47813.262093
0.0,938,47839.391891
6.0,3102,47924.803283
3.0,3874,48032.813449
4.0,2593,48106.485897
1.0,1780,48156.281814
1.0,2192,48218.695809
4.0,2493,48287.765108
3.0,2499,48358.991337
1.0,1936,48416.32778
4.0,3785,48521.529264
2.0,2477,48589.379623
1.0,2007,48644.444965
2.0,1502,48685.189302
2.0,2661,48756.513731
2.0,1723,48803.280615
5.0,3304,48888.688603
1.0,1352,48925.043628
7.0,4297,49040.174659
12.0,6477,49209.589911
1.0,1569,49251.490192
2.0,2437,49318.234546
3.0,2714,49388.182633
1.0,2306,49447.161137
2.0,2523,49515.070069
4.0,2843,49587.745152
0.0,1580,49628.729664
0.0,1169,49659.719872
0.0,1146,49689.499374
1.0,1301,49722.619771
1.0,2584,49791.333505
4.0,2895,49865.863836
1.0,2147,49923.333938
4.0,1984,49975.669239
5.0,2504,50042.937401
1.0,992,50068.990952
5.0,2584,50137.884068
0.0,1488,50176.090891
3.0,2596,50245.715152
5.0,3103,50331.152667
5.0,3369,50419.122203
6.0,3240,50504.840076
2.0,2076,50560.414468
1.0,1564,50603.122215
5.0,2896,50680.568549
6.0,3360,50767.703619
2.0,1234,50800.939887
1.0,1904,50850.510483
5.0,3387,50938.838768
5.0,2319,51001.654915
6.0,2940,51080.254961
7.0,3875,51182.468683
7.0,2581,51251.967965
7.0,3588,51346.905613
4.0,2501,51414.827302
10.0,2636,51484.149671
6.0,3044,51566.569296
1.0,1307,51602.466184
3.0,3025,51685.118643
9.0,2637,51755.203731
2.0,3532,51850.501182
8.0,3910,51953.605338
2.0,1964,52002.868037
9.0,5795,52154.549797
2.0,2268,52212.746886
2.0,2448,52278.757687
4.0,3495,52371.753631
2.0,3729,52472.269884
5.0,3805,52574.870648
5.0,3419,52668.484793
6.0,3754,52769.681181
3.0,2369,52833.25589
8.0,4975,52970.844764
5.0,2739,53043.279418
2.0,2137,53102.250894
5.0,2410,53168.209112
4.0,2829,53247.444226
0.0,1048,53276.986957
6.0,4039,53391.041363
2.0,2688,53468.787043
5.0,5080,53620.174338
2.0,2817,53709.878527
3.0,1475,53758.523569
0.0,960,53791.097191
0.0,2356,53867.662253
0.0,750,53894.414118
1.0,1659,53954.209331
4.0,2615,54051.417815
1.0,3891,54194.485352
1.0,1684,54257.766525
5.0,4776,54435.705814
4.0,1768,54499.785185
2.0,2658,54598.939461
3.0,4012,54755.979945
5.0,3737,54899.325025
5.0,3688,55041.292217
7.0,3164,55159.398478
4.0,2832,55269.682949
1.0,1556,55328.911473
5.0,3328,55457.594847
7.0,3758,55605.497721
4.0,2806,55714.961022
4.0,2938,55831.382013
7.0,2943,55950.309786
0.0,1918,56025.34362
5.0,4409,56205.122411
2.0,3337,56339.511817
4.0,2408,56433.670948
2.0,1299,56485.80064
6.0,4443,56664.248981
3.0,2508,56766.527934
3.0,2232,56853.480869
6.0,3865,57006.397383
1.0,1173,57055.208977
4.0,2723,57162.233939
1.0,1018,57199.856395
3.0,2685,57303.122029
9.0,5985,57538.770151
3.0,2225,57622.666141
5.0,2517,57719.370368
3.0,2105,57802.088062
2.0,3470,57940.507141
2.0,2482,58037.347291
5.0,2934,58153.556632
1.0,2266,58239.102908
3.0,2791,58347.708144
0.0,1887,58421.670642
3.0,2975,58535.787287
4.0,3763,58685.626539
3.0,2727,58788.807897
10.0,5415,58997.650144
1.0,1526,59055.192277
1.0,2497,59155.543549
2.0,2578,59251.337534
3.0,2901,59360.273245
1.0,1497,59421.692664
4.0,3309,59543.939828
1.0,1177,59589.738683
2.0,1731,59654.993675
7.0,3205,59776.664273
0.0,1577,59835.085826
5.0,2818,59940.772388
1.0,1727,60006.740239
2.0,1509,60069.466825
9.0,2847,60184.12301
3.0,2710,60293.467042
3.0,3210,60419.953248
7.0,3549,60557.014248
9.0,3241,60688.39346
2.0,3628,60829.550894
8.0,3670,60971.195043
2.0,2402,61067.449221
4.0,4417,61240.786074
0.0,1175,61286.93668
4.0,3787,61438.781206
1.0,1996,61512.877578
5.0,2352,61608.616635
1.0,1546,61669.151448
0.0,1478,61725.802552
2.0,2773,61838.69529
5.0,2674,61946.564958
3.0,4257,62112.670721
2.0,2098,62192.225224
1.0,3803,62340.31981
2.0,2356,62430.217007
2.0,2886,62540.621081
4.0,2217,62628.707051
3.0,1847,62699.874223
3.0,1894,62774.752569
2.0,2540,62873.143751
6.0,3310,63000.171137
3.0,3163,63123.87219
6.0,2965,63238.705252
4.0,2830,63352.664033
3.0,2179,63439.021565
2.0,3378,63568.844039
1.0,1900,63642.189486
2.0,1891,63716.529895
4.0,3835,63869.398731
4.0,2744,63973.619788
2.0,2383,64066.008763
2.0,2909,64178.701178
6.0,2576,64276.259481
6.0,4986,64466.449446
7.0,3419,64598.958271
6.0,3671,64744.655111
1.0,2503,64844.779677
0.0,892,64880.81741
1.0,2922,64995.100346
4.0,4669,65170.967727
1.0,2383,65263.780184
1.0,1516,65323.219997
3.0,2426,65419.761427
9.0,5149,65621.201321
4.0,3273,65749.596082
5.0,2481,65846.426873
6.0,2304,65935.148243
0.0,2352,66030.38926
3.0,3024,66150.195264
6.0,2829,66258.505512
3.0,1796,66328.685225
3.0,3286,66459.45881
1.0,2445,66552.126914
1.0,3488,66685.677357
2.0,2434,66777.121531
5.0,2544,66874.820362
6.0,2082,66956.752843
4.0,2647,67061.096558
6.0,2630,67163.100742
0.0,879,67196.934564
5.0,2772,67306.189814
2.0,2185,67394.544041
5.0,4837,67586.242255
3.0,1958,67665.174056
3.0,3192,67791.312591
5.0,2399,67886.352781
5.0,3475,68022.798773
11.0,4052,68176.656231
3.0,1875,68249.625439
6.0,2187,68335.907261
3.0,1847,68406.650139
9.0,3326,68536.570385
5.0,2937,68657.049659
7.0,2447,68749.523601
6.0,2770,68858.329274
3.0,2571,68958.504993
2.0,2250,69047.118361
6.0,2939,69160.3934
2.0,2038,69234.624687
0.0,1339,69287.033248
3.0,1916,69360.644206
10.0,4253,69529.965384
6.0,4233,69691.068852
4.0,4123,69852.656341
4.0,2007,69927.460626
4.0,2657,70032.575266
0.0,1758,70100.436094
4.0,2852,70212.84991
9.0,2963,70329.584935
6.0,3351,70461.590498
5.0,2843,70571.602872
10.0,3443,70703.72059
6.0,3059,70823.21691
6.0,4018,70974.533247
9.0,3875,71131.003929
3.0,1839,71200.395947
11.0,3806,71349.523532
8.0,2497,71443.655275
2.0,1744,71509.84827
2.0,2058,71591.490631
7.0,3531,71732.192272
0.0,872,71766.111477
3.0,2262,71850.767633
3.0,2285,71938.75347
1.0,2384,72034.540686
12.0,4870,72224.773609
6.0,3484,72359.681228
1.0,1837,72432.708946
8.0,4144,72596.982763
9.0,5189,72792.41068
9.0,3796,72942.306411
3.0,2666,73045.553622
10.0,3817,73196.478082
3.0,2225,73283.121679
2.0,3153,73407.918643
9.0,3374,73542.725048
10.0,3855,73698.234013
7.0,3159,73818.126401
1.0,2095,73900.030573
8.0,3492,74034.421717
5.0,2159,74122.169497
5.0,3611,74262.582847
1.0,1843,74335.889725
2.0,1943,74408.228426
2.0,1830,74479.927151
4.0,2189,74563.762552
17.0,5691,74770.92824
8.0,3282,74892.588832
1.0,1645,74952.408162
4.0,3370,75075.768959
7.0,4846,75259.789366
5.0,1905,75330.433463
9.0,3530,75465.098643
5.0,4160,75620.442065
2.0,2282,75713.672173
4.0,3660,75853.045039
5.0,2713,75955.456704
7.0,4149,76115.16928
6.0,3301,76242.470235
6.0,3474,76370.865659
6.0,2309,76455.890734
5.0,2169,76540.420685
1.0,2170,76622.647809
3.0,2223,76706.801893
9.0,3195,76823.460514
2.0,3288,76948.228415
3.0,2282,77035.198551
7.0,2936,77146.047501
5.0,3997,77295.900341
10.0,3355,77420.802121
7.0,3405,77547.607906
10.0,3253,77671.704672
6.0,3368,77795.063976
5.0,1613,77856.827855
5.0,1848,77923.14673
4.0,1992,77998.472538
4.0,2207,78077.575014
5.0,3169,78195.567219
5.0,2120,78272.958489
4.0,2724,78378.900035
6.0,2501,78474.860689
4.0,2611,78577.845535
6.0,2431,78668.026923
9.0,5227,78855.327206
4.0,2422,78952.065267
2.0,1971,79025.724175
2.0,1970,79103.750966
2.0,2962,79212.647096
3.0,2405,79302.30851
6.0,1797,79368.779582
4.0,2128,79446.931246
1.0,1199,79489.148904
6.0,3372,79605.397481
6.0,3421,79729.122867
4.0,2911,79834.489253
6.0,3180,79947.8386
2.0,2447,80038.988342
5.0,2499,80128.592364
2.0,2050,80200.050975
6.0,2055,80275.852389
11.0,3365,80391.615568
3.0,2162,80470.078629
10.0,3316,80589.732455
5.0,3085,80699.211373
7.0,1999,80767.369503
13.0,6340,81001.137017
3.0,3466,81122.838836
10.0,3109,81236.079406
2.0,2428,81320.811317
9.0,3250,81438.000606
3.0,2785,81534.887041
2.0,2000,81603.564107
8.0,3799,81735.987253
2.0,1815,81795.704172
8.0,3537,81914.673555
3.0,2418,81998.905639
10.0,4453,82154.646843
6.0,2633,82245.371906
7.0,3027,82346.989746
5.0,3444,82469.556662
7.0,3100,82577.462425
4.0,2129,82651.63656
6.0,3470,82769.411955
2.0,2315,82847.803851
8.0,3176,82954.921863
5.0,2080,83019.32209
11.0,4226,83151.109449
2.0,1566,83200.166575
10.0,3229,83295.672689
8.0,3561,83406.096676
5.0,4284,83533.458658
2.0,1940,83589.886921
5.0,2320,83657.874555
6.0,3076,83746.344747
1.0,1970,83805.095633
5.0,3201,83896.77008
6.0,2161,83958.099723
4.0,3051,84046.938361
6.0,2768,84128.738823
3.0,1920,84184.814483
3.0,3143,84276.23644
7.0,3084,84363.641804
6.0,4699,84498.38161
3.0,3531,84600.235992
8.0,3479,84698.949355
6.0,5705,84864.244466
4.0,3292,84956.564301
4.0,2264,85019.986658
11.0,3287,85110.023343
6.0,3440,85210.541059
5.0,3868,85324.242081
6.0,3145,85414.825003
4.0,3456,85515.258487
8.0,3352,85616.222359
2.0,2155,85680.7821
4.0,2363,85753.091558
6.0,3499,85877.488061
3.0,2176,85960.230054
5.0,2224,86047.890139
2.0,1508,86106.591124
4.0,3847,86267.523299
7.0,3248,86398.710009
2.0,2029,86480.745906
4.0,2103,86564.353656
4.0,2053,86644.186456
5.0,3302,86776.426773
3.0,1900,86852.72359
2.0,1781,86927.821718
1.0,1708,86997.645447
0.0,2357,87093.907286
5.0,3927,87245.669023
4.0,2339,87335.795018
0.0,1887,87409.12499
10.0,3522,87545.20771
1.0,1661,87609.696981
1.0,2146,87693.042201
3.0,2603,87795.079771
3.0,1898,87869.295864
6.0,3072,87989.35745
4.0,2258,88077.797362
5.0,4419,88248.04113
5.0,2371,88338.626314
3.0,3462,88465.738555
6.0,3290,88581.894767
5.0,3481,88708.178625
5.0,2641,88806.375481
3.0,2603,88900.246274
3.0,3149,89012.588862
3.0,2424,89096.583422
4.0,2610,89191.277882
6.0,5863,89393.181103
1.0,1908,89460.034298
7.0,3761,89589.385669
