# {"t_start": 1547997864.1460233, "env_id": "RoboschoolHumanoidFlagrunHarder-v1"} 
r,l,t
-93.33306,170,15.570118
-135.951479,170,26.492878
5.552864,20,27.635535
-2.301045,19,28.839795
-78.647433,170,2754.709484
-11.49528,13,2755.454965
-54.18485,170,2766.234951
-115.913554,170,2777.235315
-59.38307,170,5495.762753
-109.949397,170,5505.633784
0.242187,20,5506.851456
-98.677104,170,5518.161153
-76.46798,170,8248.898348
-8.590092,18,8249.567646
-4.211761,18,8250.60237
-5.83039,16,8251.582418
-89.904971,170,8262.032884
-78.318711,170,8272.72709
3.70884,20,8274.021592
-87.252073,170,11012.870848
-10.631889,170,11024.171328
-103.671343,170,11035.442548
6.897176,19,11036.739519
-7.113871,12,11037.46692
-36.219169,170,13863.401433
2.665457,18,13864.343204
2.107112,20,13865.341518
-1.610109,18,13866.594087
3.558748,17,13867.799312
1.308371,18,13868.992332
-115.566601,222,13880.813424
-51.476464,170,16664.583683
-86.691993,170,16674.123217
-4.770953,18,16675.554554
-133.391318,170,16683.997021
5.811585,18,16684.600936
-8.003056,19,19290.125292
7.14503,18,19291.298438
-83.801737,170,19300.711794
-62.17156,170,19309.502817
-135.535405,170,21925.084932
-74.635383,170,21933.476736
-82.684931,170,21944.143104
3.58668,18,21945.455322
1.352806,17,21946.304827
1.459119,18,21947.083555
6.992271,18,21947.96961
-80.264047,206,24786.39842
-106.137424,170,24795.363966
-112.424922,170,24803.560901
3.174108,23,24804.810724
-98.723275,170,27889.817004
4.141924,18,27890.862766
1.643225,18,27891.676383
-102.078088,170,27901.703387
-93.970583,170,30343.008236
-91.312153,170,30348.916304
4.063817,16,30349.688871
-93.025838,170,30356.4074
-129.876863,170,32553.93705
-2.721871,19,32554.584887
-68.822777,170,32561.096241
-91.186033,170,32567.011327
-108.825423,170,34267.776904
-105.435233,170,34273.432408
-52.102021,170,34277.843339
-98.178909,170,35757.515764
-106.000842,170,35763.031697
-83.546162,170,35768.202224
-96.530441,170,37241.247904
-121.771937,170,37247.100147
-1.446268,17,37247.630437
-73.929213,170,37253.201466
-106.509967,170,38594.278698
1.045436,19,38594.833903
-0.096824,18,38595.519285
-12.301451,19,38596.185361
-138.991553,170,38601.241826
-109.012458,170,38605.503841
-110.936578,170,39741.135496
-3.697886,19,39741.519598
-111.937314,170,39745.648444
-8.552324,20,39746.276881
-92.877428,170,39750.657423
-86.314603,170,40835.734572
-124.965779,170,40839.093982
-3.062532,18,40839.482172
-104.144585,170,41925.031398
-151.595869,170,41928.687049
-135.036718,170,41932.249589
4.368551,21,41932.804478
-153.692182,170,43019.866207
-170.089067,170,43023.296569
-102.414305,170,43027.521104
-112.735727,170,44116.540261
-120.511524,170,44120.509924
-151.172837,170,44124.905153
-129.664462,170,45211.504329
-167.537492,170,45215.506039
-173.534663,170,45219.722918
-118.739662,170,46303.157965
-68.344832,170,46307.006549
-90.243838,170,46310.388001
-144.119683,170,47396.348659
-8.368049,18,47396.838294
-138.366611,170,47400.951972
-159.778077,170,47404.252185
-144.680149,170,48490.754633
-163.660707,170,48495.564944
-198.286023,170,48499.270407
-163.605838,170,49571.997447
-223.952557,170,49575.516097
-6.146991,17,49575.953388
-16.804981,17,49576.344308
-10.091324,18,49576.786998
-164.4341,170,49581.05045
-17.811367,20,49581.529956
-180.668934,170,50580.344058
-12.703387,16,50580.656915
-216.724902,170,50583.494202
-184.444449,170,50586.40254
-8.175484,19,50586.718729
-185.623234,170,51507.314827
-173.656814,170,51510.214503
-195.480758,170,51512.996766
-221.596825,170,52434.217132
-236.662369,170,52437.070785
-20.74752,17,52437.412458
-171.760346,170,52440.356579
-9.981139,19,52440.710304
-221.88994,170,53359.876628
-18.68438,18,53360.176058
-195.39676,170,53362.904799
-21.344199,17,53363.178048
-13.883597,18,53363.514817
-16.328469,21,53363.853288
-223.952423,170,54283.919191
-251.925588,170,54286.747333
-237.042982,170,54289.636618
-243.140336,170,55094.106386
-243.905014,170,55096.059863
-208.813185,170,55097.914142
-215.666968,170,55894.698426
-263.278376,170,55896.632625
-255.812616,170,55898.558255
-246.567596,170,56914.237898
-226.647975,170,56919.008625
-229.044071,170,56924.922122
-22.679425,18,56925.438475
-245.066083,170,58027.991483
-212.406948,170,58033.555765
-20.421199,18,58034.322637
-274.102705,170,58039.229035
-20.235985,18,58039.732552
-236.637948,170,59134.185318
-283.154808,170,59138.607236
-263.625685,170,59143.735958
-316.165182,170,60243.471564
-31.871453,17,60244.219373
-254.807569,170,60249.37552
-273.908064,170,60255.077684
-320.114206,170,61351.733841
-31.83933,19,61352.39105
-34.541082,18,61353.039731
-318.336462,170,61358.205575
-310.184302,170,61363.185715
-350.338613,170,62460.558482
-257.644736,170,62465.972818
-337.572795,170,62471.746369
-360.78437,170,63571.325202
-379.528827,170,63576.97333
-360.890355,170,63581.959951
-401.992896,170,64679.747645
-39.269486,19,64680.456743
-343.269682,170,64685.773332
-925.075672,352,65781.130644
-415.880313,170,65787.431418
-48.869028,19,65787.996019
-44.620757,18,65788.578342
-47.553348,18,65789.153203
-381.398635,170,66886.534403
-448.139837,170,66891.545436
-463.649189,170,66896.890661
-39.323971,17,66897.394681
-56.967451,20,66898.344964
-46.89041,19,66898.945288
-42.680399,21,66899.668257
-436.228767,170,68001.424807
-442.191593,170,68007.203809
-38.684992,18,68007.735407
-40.37847,16,68008.207899
-39.573835,17,68008.72468
-46.896205,18,68009.266372
-485.01713,170,69104.332194
-517.946053,170,69110.107176
-499.29589,170,69115.986034
-465.906779,170,70213.381989
-55.345745,18,70214.103857
-474.79583,170,70218.896738
-500.275642,170,70223.702161
-55.284701,19,70224.505817
-51.288181,18,70225.074709
-496.860843,170,71323.882058
-528.650528,170,71329.345103
-61.409193,18,71329.877912
-512.399163,170,71336.251039
-58.930496,19,71336.822608
-615.17135,170,72439.83088
-72.523732,18,72440.559164
-569.99913,170,72446.678659
-623.336711,170,72452.517283
-569.425126,170,73551.798747
-713.905974,186,73558.225746
-696.213669,170,73563.401092
-68.143772,17,74635.572296
-648.197526,170,74640.890768
-712.8528,170,74645.796246
-68.38169,19,74646.325047
-703.044663,170,75631.111661
-913.547388,206,75637.394315
-679.183071,170,75642.657553
-86.827164,18,75643.27808
-1434.237237,292,76632.285508
-813.079643,170,76637.366707
-820.631032,170,77621.075099
-808.623435,170,77626.403502
-843.482247,170,77632.354735
-128.853051,20,77633.006781
-1176.513152,222,78621.262904
-97.654571,17,78621.702795
-98.70891,18,78622.215275
-915.113159,170,78627.457809
-900.574237,170,78632.87608
-889.398433,170,79616.396481
-941.991569,170,79621.497733
-121.665991,18,79622.135679
-996.517301,170,79627.313215
-94.779165,17,79627.984763
-1042.714759,170,80613.409035
-1012.854087,170,80618.168728
-1065.621054,170,80623.317049
-1115.893403,170,81605.619683
-1160.503409,170,81609.50204
-1123.482855,170,81613.840974
-1211.066066,170,82504.979057
-1167.071986,170,82508.124887
-1203.977541,170,82512.194564
-1305.455916,170,83368.161029
-1193.685463,170,83370.69517
-1306.295193,170,83373.094176
-1381.583344,170,84183.44561
-1385.195675,170,84185.335417
-1366.727639,170,84187.235664
-1386.937159,170,84983.58512
-1554.695918,170,84985.526582
-174.635074,19,84985.747331
-1484.82627,170,84987.748579
-1656.833517,170,85796.375462
-196.445549,17,85796.610978
-1640.354203,170,85798.595646
-1633.606108,170,86594.680613
-1715.696463,170,86596.704653
-1942.380306,200,86599.044197
-1715.091073,170,87395.914865
-220.709391,18,87396.13624
-187.669852,17,87396.334251
-1770.517753,170,87398.28817
-1720.520776,170,87400.211558
-234.675584,18,87400.428748
-1905.354837,170,88185.308354
-1909.413745,170,88186.408696
-220.701002,18,88186.521154
-2022.097918,170,88187.629064
-2019.418041,170,88941.236621
-2029.385017,170,88942.351543
-2022.570693,170,88943.441138
-2156.517962,170,89696.975856
-2176.118369,170,89698.0638
-2253.324149,170,89699.165466
-243.270871,18,89699.282866
-252.201344,16,89699.378964
-2421.086971,170,90470.908842
-2365.133286,170,90471.997907
-2178.868392,170,90473.08116
-302.533927,21,90473.213101
-3313.931266,220,91234.655357
-2433.856246,170,91236.104138
-2506.654047,170,92009.56358
-2578.264895,170,92010.641679
-2657.591867,170,92011.740302
-2622.269686,170,92769.184639
-2874.530095,170,92770.26965
-2865.497459,170,92771.362502
-2882.994445,170,93554.52592
-321.06043,18,93554.640586
-362.011706,15,93554.734265
-335.837139,18,93554.843094
-3191.935604,170,93555.928253
-3003.027943,170,93557.019846
