# {"t_start": 1547997864.1369781, "env_id": "RoboschoolHumanoidFlagrunHarder-v1"} 
r,l,t
-91.010953,170,15.684597
-77.661047,170,26.626598
5.835915,19,27.766386
11.838989,19,28.944139
-77.330969,170,2754.786888
6.195094,15,2755.741879
-64.97507,170,2766.474118
-88.999074,170,2777.489366
-54.752857,170,5496.010963
-60.016613,170,5505.868618
9.559834,19,5507.021428
-89.49665,170,5518.334219
-72.815827,170,8249.077889
4.329795,22,8250.05284
0.136974,18,8251.15447
2.778258,20,8252.348609
-86.470926,170,8262.81084
-74.310844,170,8273.486161
2.004137,18,8274.569436
-130.994055,170,11013.438033
-76.821191,170,11024.819242
-91.688121,170,11036.085901
2.259197,19,11037.253665
5.426596,18,13854.506651
-84.292068,170,13864.267985
8.038724,17,13864.980448
6.397887,19,13866.172945
5.535488,19,13867.470214
-4.363574,18,13868.856348
5.174863,18,13869.77338
-88.1419,170,13878.78441
-61.241318,170,16661.820387
-7.64731,170,16672.344493
10.651127,21,16673.116148
-88.781904,170,16682.527492
4.971308,18,16683.263258
3.702797,17,16684.114562
1.154516,19,16684.763463
-83.65259,170,19298.932256
-93.694174,170,19307.443696
-120.454146,170,19316.931645
-101.743291,170,21931.741873
-96.531776,170,21941.969398
1.320484,18,21943.051353
4.494556,18,21944.201099
4.282278,17,21945.496628
8.739187,20,21946.494275
-91.122373,170,24782.863348
-34.040626,170,24791.585851
-118.909975,170,24800.21126
3.170453,18,24801.420295
-199.579638,262,27890.941574
1.658138,19,27891.749398
-2.177602,18,27892.899128
-78.6604,170,27902.810359
-69.261236,170,30343.763931
-85.155123,170,30349.879579
-0.12667,18,30350.494441
-106.837959,170,30357.26414
-128.615008,170,32554.736421
-2.47173,20,32555.615752
-71.980635,170,32561.932001
-129.113467,170,32567.854113
-114.610123,170,34268.812297
-107.669708,170,34274.208205
-69.503871,170,34278.568268
-106.090722,170,35758.255809
-77.463619,170,35763.780232
20.732821,170,35769.116093
-95.599601,170,37242.139548
-134.981934,170,37247.888701
3.051984,18,37248.633646
-97.503328,170,37254.024796
-98.90598,170,38595.059386
-7.361143,19,38595.780865
-5.504554,19,38596.436349
-3.045041,19,38596.976306
-84.879555,170,38602.10952
-123.839033,170,38606.100988
-121.086981,170,39741.764454
-11.15051,17,39742.121658
-62.790821,170,39746.442608
0.352563,18,39746.94912
-131.869143,170,40832.263536
-120.263225,170,40836.245756
-105.032795,170,40839.64625
-12.630825,20,40840.086941
-108.708132,170,41925.714938
-149.086982,170,41929.199435
-119.851971,170,41932.952204
-13.406042,22,41933.532814
-162.058025,170,43020.452614
-162.247772,170,43023.961825
-97.887023,170,43028.227988
-128.566176,170,44117.178718
-135.095729,170,44121.173235
-117.499761,170,44125.633414
-118.286946,170,45212.098137
-147.435436,170,45216.220581
-129.173852,170,45220.491419
-135.1575,170,46303.952601
-80.875686,170,46307.584901
-179.099159,170,46311.194286
-161.816642,170,47397.087662
-8.103905,17,47397.499178
-188.541985,170,47401.541257
-178.946849,170,47404.848207
-103.598733,170,48491.456091
-166.709915,170,48496.252349
-152.20637,170,48499.919254
-148.987586,170,49572.589159
-123.071462,170,49576.200058
-10.087399,17,49576.594941
-14.742138,19,49577.071051
-7.055275,18,49577.523738
-191.326715,170,49581.743695
-9.718696,18,49582.128294
-171.553315,170,50580.910835
-10.534841,18,50581.211616
-194.874163,170,50584.046082
-344.080029,224,51505.655941
-13.519714,16,51505.91624
-201.514055,170,51508.746041
-207.71801,170,51511.646404
-179.886595,170,52432.769893
-207.605014,170,52435.62982
-262.254606,170,52438.547937
-21.1193,17,52438.830915
-156.997976,170,53358.131032
-6.817161,17,53358.409363
-133.565809,170,53361.242623
-20.658781,16,53361.499526
-185.820555,170,53364.26214
-11.352724,18,53364.54308
-10.353611,17,53364.827021
-30.972749,16,53365.069916
-244.748239,170,54285.201916
-241.614416,170,54288.0012
-157.943029,170,54290.796102
-221.972202,170,55095.034878
-212.648951,170,55096.944024
-237.334451,170,55098.845526
-266.356542,170,55895.647969
-275.881114,170,55897.550341
-206.953136,170,55899.51496
-267.238729,170,56916.257774
-198.410086,170,56921.172094
-250.279972,170,56927.28612
-18.806258,21,56928.038956
-289.827068,170,58030.251392
-174.165599,170,58035.953708
-39.002471,20,58036.584014
-285.138916,170,58041.249652
-39.187676,20,59131.519179
-332.516374,196,59136.824322
-267.327714,170,59141.681393
-303.276465,170,60241.260035
-320.420948,170,60246.874691
-27.964242,19,60247.446015
-257.761564,170,60252.977501
-371.38569,170,61349.740172
-315.479595,170,61355.402491
-29.400609,18,61355.931314
-32.518252,19,61356.478395
-348.322474,170,61361.078033
-211.892244,170,62458.686741
-306.125942,170,62463.694011
-373.139473,170,62469.619123
-329.360377,170,63568.508921
-336.996394,170,63574.59404
-373.777162,170,63580.250954
-359.930415,170,64677.690663
-396.887386,170,64683.16681
-42.089953,18,64683.744858
-385.674028,170,64688.847303
-422.354309,170,65778.588183
-370.865622,170,65784.457978
-36.687798,18,65785.061498
-55.553912,17,65785.626485
-47.87816,18,65786.304348
-365.248479,170,65791.926493
-427.764813,170,66889.061453
-409.680349,170,66894.364469
-57.069166,15,66894.972646
-66.003167,19,66895.548212
-53.633679,18,66896.052409
-43.568829,18,66896.591607
-514.829641,170,67998.779634
-473.999553,170,68004.463002
-55.956746,17,68005.082466
-53.698231,20,68005.727835
-44.89041,17,68006.205535
-40.977481,18,68006.734505
-469.049338,170,68011.862082
-465.371396,170,69106.995968
-479.156899,170,69113.30069
-517.70272,170,69118.566933
-51.27567,18,69119.105863
-504.289024,170,70216.459186
-520.582098,170,70221.175463
-49.678159,19,70221.625159
-55.593019,18,70222.193967
-640.13302,204,71322.253765
-590.731641,170,71327.805177
-65.91553,17,71328.290805
-556.270347,170,71334.60059
-63.504234,18,71335.213746
-527.551036,170,72437.541998
-74.436893,19,72438.563453
-571.97039,170,72444.945352
-570.585196,170,72450.790858
-631.73796,170,73550.068814
-618.537652,170,73555.612305
-591.513934,170,73561.345632
-73.870856,17,73561.912889
-653.60177,170,74638.922979
-683.438026,170,74643.868239
-97.586076,18,74644.393464
-679.727709,170,74649.312093
-739.582039,170,75634.273963
-783.060139,170,75639.35227
-84.535303,18,75639.980788
-708.544634,170,75645.141528
-759.668723,170,76630.794184
-770.650845,170,76635.420067
-797.484836,170,76640.972323
-806.332973,170,77624.550472
-83.853667,17,77625.109904
-905.416431,170,77631.013177
-95.261756,18,77631.69347
-85.047189,19,77632.247481
-863.146426,170,78619.124038
-822.605477,170,78624.082873
-892.076993,170,78629.562188
-828.359808,170,79613.57233
-107.873906,16,79613.991212
-935.596495,170,79618.515968
-115.454318,19,79619.061873
-958.758638,170,79624.513446
-980.592576,170,80610.478027
-1028.669443,170,80614.929545
-1042.082973,170,80619.917411
-1091.964902,170,81603.369971
-1213.210152,170,81607.057297
-1095.104857,170,81611.092742
-1727.926882,234,82504.100348
-1124.632795,170,82507.328218
-1219.474513,170,82510.902814
-1211.155191,170,83367.594703
-1363.91392,170,83370.057647
-1269.143178,170,83372.599597
-1296.004407,170,84183.069065
-1326.30337,170,84184.965626
-1436.875303,170,84186.819317
-1361.987937,170,84983.225672
-188.685025,17,84983.405582
-1408.894745,170,84985.362972
-1531.021083,170,84987.358449
-173.270037,18,84987.564712
-1582.583929,170,85796.185603
-2042.866726,212,85798.67866
-1662.98822,170,85800.570839
-1710.05278,170,86596.778084
-1828.893106,170,86598.769683
-185.675403,17,86598.959529
-161.474455,16,86599.139903
-1771.065485,170,87396.033648
-1800.769619,170,87398.020903
-288.297952,23,87398.273548
-1824.412553,170,87400.164909
-1780.079551,170,88185.25609
-265.417447,21,88185.403885
-1928.918903,170,88186.501268
-1868.711375,170,88187.608477
-1971.365167,170,88941.216344
-1983.245735,170,88942.333442
-2181.906526,170,88943.42854
-2126.291713,170,89696.946443
-2235.296013,170,89698.039667
-242.890418,17,89698.152296
-280.877042,18,89698.268496
-3581.592858,288,90470.568516
-2338.286814,170,90471.645525
-2399.620566,170,90472.741666
-322.816706,21,90472.873333
-2481.536042,170,91233.703591
-2483.22548,170,91235.165485
-2448.401127,170,91236.592677
-2445.939418,170,92009.978406
-2620.976748,170,92011.072293
-2592.119855,170,92012.172861
-2717.221583,170,92769.60576
-2849.867851,170,92770.686127
-2979.647761,170,92771.785071
-341.831943,18,92771.898365
-298.581104,17,92772.016659
-334.21864,17,92772.135605
-3210.512364,186,93555.373975
-3036.322796,170,93556.457715
-3039.785078,170,93557.554234
