# {"t_start": 1546750283.114186, "env_id": "AsteroidsNoFrameskip-v4"} 
r,l,t
530.0,667,21.304604
1300.0,1743,58.897425
930.0,581,71.907822
1080.0,887,91.338816
1830.0,1640,128.415387
1740.0,1599,164.433683
1410.0,632,177.736265
1520.0,1011,199.752959
1390.0,543,211.848315
1610.0,656,226.108029
1300.0,920,247.309537
1080.0,339,254.474532
1450.0,621,267.981378
1080.0,667,282.908716
730.0,513,294.123786
730.0,378,302.153624
1320.0,802,320.672235
2000.0,702,337.492694
1280.0,1058,360.91419
1470.0,858,379.696588
1030.0,496,390.535342
780.0,530,401.97989
1520.0,638,416.483085
980.0,773,433.316254
1080.0,375,441.328526
1320.0,713,456.901651
630.0,247,462.452088
1080.0,653,476.458464
1610.0,1047,499.142259
4120.0,1494,532.11756
1460.0,983,553.640959
880.0,331,560.665749
1030.0,542,572.258647
680.0,420,581.411985
1280.0,694,596.174963
1980.0,957,617.329801
2200.0,1070,642.108048
1660.0,1168,667.353269
1280.0,687,682.953359
1280.0,459,693.271236
1500.0,1118,718.271108
1740.0,803,736.50467
1280.0,773,753.65375
2000.0,719,769.765944
1730.0,958,790.813051
1030.0,546,802.662227
530.0,323,809.53436
1420.0,788,826.843651
2000.0,981,848.521729
1490.0,1042,872.084392
980.0,524,883.651264
530.0,320,890.719368
780.0,368,899.129875
1080.0,414,908.182277
1440.0,655,922.67983
1280.0,580,936.128118
1830.0,869,955.184777
1180.0,435,964.479366
1370.0,1231,991.796885
1830.0,819,1009.658307
1740.0,804,1027.129526
730.0,322,1034.138237
780.0,453,1044.248265
1080.0,379,1052.611297
1130.0,500,1063.530585
1590.0,973,1085.302455
830.0,305,1091.651822
1030.0,368,1099.51127
1180.0,622,1112.948964
1030.0,414,1122.163025
1300.0,794,1139.773995
780.0,287,1145.983178
1660.0,1595,1181.145849
830.0,392,1189.902258
1540.0,846,1209.008679
1280.0,740,1225.334514
1080.0,351,1232.774972
880.0,414,1241.50379
1280.0,935,1261.960582
880.0,309,1268.375562
730.0,379,1276.562707
880.0,337,1284.226611
1740.0,1466,1317.752158
1080.0,773,1335.208788
730.0,249,1340.454887
1180.0,587,1353.297262
1350.0,1167,1379.614916
1830.0,1077,1404.243469
1080.0,422,1413.145157
2050.0,1479,1445.108227
1690.0,932,1465.77927
1360.0,812,1483.688086
1830.0,1075,1507.7343
1080.0,422,1516.816045
1750.0,929,1536.989554
1080.0,381,1545.96019
1760.0,882,1566.614842
830.0,391,1575.195467
1480.0,1109,1599.932281
680.0,354,1607.404771
930.0,425,1616.927392
1130.0,662,1631.671929
1450.0,484,1641.733263
2000.0,1814,1681.60231
1410.0,1051,1705.351996
1850.0,1131,1730.458817
880.0,423,1739.978496
730.0,409,1748.665214
1080.0,418,1757.536892
1510.0,1002,1779.612011
880.0,358,1787.118914
1030.0,466,1797.346759
1280.0,643,1811.232271
930.0,404,1819.85717
1440.0,1022,1842.005731
1650.0,1301,1871.06261
1030.0,482,1881.694409
2450.0,1248,1908.589331
3750.0,1752,1947.999065
460.0,243,1953.081593
980.0,426,1962.827491
1800.0,1383,1994.300117
780.0,450,2004.085354
530.0,332,2011.378661
730.0,414,2020.37767
530.0,284,2026.588859
830.0,348,2034.111672
1030.0,438,2043.651992
1370.0,785,2061.039009
1280.0,562,2072.963427
780.0,323,2079.910363
1320.0,779,2096.67345
1930.0,1104,2120.757228
1080.0,660,2135.503357
1340.0,1310,2165.10843
1840.0,963,2186.454055
1540.0,1062,2209.870289
780.0,325,2216.681761
480.0,232,2222.157568
1660.0,958,2244.881221
1710.0,1169,2271.441234
2850.0,1455,2303.055128
980.0,404,2311.809893
2600.0,1224,2338.956073
1930.0,1441,2371.118411
780.0,462,2380.792162
1740.0,1134,2405.623552
1080.0,388,2413.86081
980.0,383,2422.184582
2700.0,1507,2455.822528
1530.0,1182,2481.85034
1950.0,960,2502.423032
1080.0,608,2516.055468
1700.0,1232,2542.63457
1760.0,735,2559.054764
680.0,279,2565.260851
1470.0,746,2582.908159
1370.0,725,2599.300276
1780.0,627,2613.362964
1700.0,744,2629.643252
980.0,367,2637.574143
1900.0,858,2656.357101
980.0,329,2663.48663
1300.0,925,2683.558712
1180.0,520,2694.650687
1300.0,875,2714.380955
530.0,277,2720.722241
580.0,501,2731.735889
780.0,291,2738.084829
1320.0,787,2754.891012
1300.0,541,2766.803578
930.0,665,2781.791263
1180.0,417,2790.733302
1430.0,1469,2822.933358
780.0,394,2831.416118
680.0,552,2843.287579
1180.0,518,2854.718251
880.0,425,2863.938172
1300.0,556,2875.81826
1280.0,1145,2900.728908
630.0,365,2909.051814
1080.0,565,2921.575724
1710.0,1036,2944.033158
1080.0,402,2952.516939
1300.0,943,2973.932229
930.0,369,2981.903586
630.0,285,2988.162056
830.0,444,2998.301939
1080.0,529,3009.800936
1130.0,957,3030.5388
2750.0,839,3049.007905
1710.0,536,3060.811502
1680.0,662,3075.220556
1180.0,607,3088.598882
1080.0,684,3103.324476
1300.0,1296,3131.879487
1690.0,917,3151.982569
1180.0,385,3160.100377
1180.0,699,3175.355516
1300.0,954,3196.378111
1560.0,565,3208.753461
1280.0,928,3229.090504
830.0,287,3235.22185
480.0,279,3241.19888
1180.0,534,3252.942141
1420.0,1662,3289.116794
1080.0,404,3297.713405
1710.0,1381,3328.59981
1860.0,1145,3355.101377
730.0,452,3364.727084
780.0,333,3372.068738
880.0,410,3380.825928
930.0,465,3390.815655
1180.0,369,3398.541054
1180.0,573,3411.123898
930.0,401,3419.66434
1540.0,1083,3443.177605
2100.0,798,3460.891462
1300.0,1232,3488.081553
730.0,357,3495.703955
2550.0,1268,3524.2185
1320.0,1143,3549.525748
1300.0,808,3567.877673
2230.0,557,3579.910932
1510.0,1084,3603.248772
1300.0,838,3623.000804
1300.0,1101,3646.742275
1280.0,866,3666.173555
1780.0,1047,3688.984611
1490.0,1237,3716.087794
1280.0,971,3738.072647
1980.0,504,3749.061581
1560.0,619,3762.829705
1390.0,959,3783.629827
1580.0,946,3804.092549
1450.0,1139,3830.332147
1300.0,621,3844.464354
630.0,383,3852.995674
1470.0,1273,3881.053038
1320.0,874,3900.303517
1030.0,521,3911.447998
930.0,446,3921.39315
1410.0,1240,3948.475828
1320.0,926,3969.02116
1470.0,874,3988.249993
780.0,353,3995.85011
1560.0,790,4013.120946
1280.0,939,4033.684368
510.0,313,4040.597423
630.0,385,4048.740292
980.0,463,4058.49546
1370.0,1052,4081.853138
930.0,424,4091.684175
1300.0,894,4111.442306
830.0,366,4119.533307
1080.0,426,4128.729965
580.0,273,4134.681574
680.0,402,4143.367079
680.0,234,4148.559955
630.0,274,4154.55624
2380.0,686,4169.326179
680.0,353,4176.738058
1280.0,1472,4211.992504
3480.0,2172,4260.097582
410.0,410,4269.429667
1180.0,683,4284.586453
1130.0,531,4295.821653
480.0,236,4300.836882
980.0,657,4315.336337
1030.0,519,4326.323315
2350.0,1026,4348.857743
1080.0,416,4357.650702
1030.0,475,4367.818938
1550.0,955,4389.877338
1300.0,1044,4412.498993
1880.0,939,4433.287153
1960.0,1070,4457.297475
1180.0,497,4468.091518
1680.0,812,4485.935318
1370.0,932,4506.506187
1390.0,1008,4528.486885
1540.0,1084,4552.336914
3220.0,1249,4581.312163
880.0,429,4590.926314
2300.0,1528,4624.788105
1600.0,566,4637.001835
1440.0,1008,4658.907184
880.0,389,4667.408052
1320.0,883,4686.39482
1410.0,886,4705.955316
1300.0,500,4717.366085
680.0,351,4725.099283
1080.0,439,4734.544096
830.0,391,4742.869447
380.0,235,4747.849745
1180.0,530,4759.374708
1280.0,793,4776.623648
2750.0,1124,4801.97547
2400.0,1028,4824.271003
930.0,354,4831.831321
1540.0,1030,4854.354645
2280.0,1182,4879.860128
2180.0,975,4901.907118
780.0,323,4908.715222
1280.0,797,4926.63437
530.0,362,4934.26147
1280.0,574,4947.329411
1080.0,470,4957.272453
1750.0,883,4976.35146
930.0,363,4984.315518
1510.0,1035,5007.412359
1390.0,736,5023.516675
1370.0,951,5045.042536
1350.0,1188,5071.597373
730.0,350,5079.101814
1320.0,993,5101.16405
1180.0,486,5112.30978
1630.0,817,5130.739205
530.0,329,5138.44424
2200.0,949,5159.814567
1540.0,665,5174.665617
730.0,388,5182.895722
1680.0,1301,5211.830927
1440.0,1190,5238.464069
1080.0,767,5255.337885
1600.0,1113,5279.61161
1080.0,414,5288.455944
1510.0,622,5302.494691
1280.0,633,5316.678766
1780.0,903,5337.095709
1710.0,830,5354.817101
730.0,280,5360.873625
530.0,243,5366.373021
1660.0,515,5377.451726
1560.0,809,5395.241304
330.0,232,5400.77668
1080.0,455,5410.719547
1710.0,750,5427.666399
780.0,285,5433.691588
1080.0,359,5441.33747
1030.0,415,5450.251673
1640.0,938,5471.324857
730.0,383,5479.376236
780.0,455,5489.424111
1080.0,626,5503.134497
1280.0,553,5515.802311
980.0,334,5523.109032
930.0,750,5539.598377
1490.0,1178,5565.288345
580.0,302,5571.920628
780.0,319,5578.741214
1540.0,929,5599.227786
730.0,331,5606.413716
1320.0,808,5623.751789
1390.0,1253,5652.408452
980.0,432,5661.769029
1030.0,586,5674.421287
1130.0,568,5687.008574
1080.0,553,5699.111617
930.0,314,5706.104786
930.0,350,5713.732842
2200.0,1259,5741.18036
2600.0,1233,5768.18904
980.0,409,5776.92081
1180.0,591,5790.210606
1730.0,1152,5815.440671
2150.0,796,5833.233579
1320.0,876,5852.392321
1490.0,830,5870.36391
980.0,509,5881.659449
1610.0,759,5898.943674
430.0,238,5904.449442
1030.0,432,5914.12164
1570.0,778,5931.556622
1370.0,1124,5956.632382
880.0,331,5963.516071
1590.0,657,5977.81797
1440.0,429,5986.992052
2100.0,787,6004.585712
1180.0,662,6018.803302
1520.0,714,6034.410455
1300.0,752,6050.683163
1340.0,714,6066.343715
1780.0,1229,6093.876364
730.0,257,6099.29852
1180.0,620,6113.153885
930.0,488,6123.271284
930.0,520,6134.884397
1460.0,716,6150.860322
730.0,338,6158.088801
1540.0,660,6172.41115
1180.0,804,6190.795743
1180.0,536,6202.856978
2350.0,1666,6239.486754
1390.0,884,6258.660356
680.0,358,6266.413618
2250.0,709,6282.070899
1080.0,406,6291.2444
780.0,287,6297.615329
1610.0,816,6315.625643
1350.0,424,6324.87582
580.0,278,6331.557655
1180.0,418,6341.018609
1080.0,420,6350.114716
980.0,391,6358.761542
880.0,545,6370.863531
780.0,236,6376.068491
1300.0,651,6390.564279
1440.0,608,6403.812612
680.0,351,6411.855531
1830.0,1178,6438.333477
1700.0,903,6458.438519
630.0,447,6468.539624
1080.0,462,6478.670201
1180.0,751,6495.593599
4050.0,1721,6533.450605
1640.0,971,6554.755545
880.0,434,6563.969651
1300.0,1210,6590.330307
1370.0,998,6612.68449
980.0,351,6620.663978
1710.0,770,6638.535218
1640.0,927,6658.827675
880.0,477,6669.353394
880.0,340,6676.640842
1590.0,927,6697.002236
1180.0,616,6710.082382
1300.0,673,6725.125916
1320.0,521,6737.391887
1320.0,621,6750.808174
1540.0,792,6768.185875
730.0,339,6775.473478
1810.0,904,6795.219683
830.0,467,6805.596651
1180.0,603,6819.153667
1280.0,684,6833.97585
1580.0,639,6848.609604
1370.0,886,6867.743565
1680.0,791,6885.938298
730.0,323,6892.910198
1030.0,412,6901.632673
1390.0,898,6921.069019
830.0,300,6928.105736
680.0,240,6933.092977
630.0,236,6938.15203
1130.0,428,6947.152054
1390.0,695,6962.490402
1280.0,506,6973.307031
2030.0,1100,6998.703402
1180.0,694,7013.692365
680.0,259,7019.208106
1030.0,379,7027.437133
530.0,407,7036.896738
980.0,329,7044.625596
1510.0,1295,7073.077857
830.0,404,7082.672168
1180.0,577,7094.98691
580.0,478,7105.32687
1400.0,789,7123.148245
1300.0,587,7136.506518
1510.0,789,7153.981976
880.0,473,7163.927715
1320.0,465,7173.882434
530.0,204,7178.037271
830.0,342,7185.51751
630.0,237,7190.769964
1180.0,589,7203.461653
930.0,576,7216.06518
1030.0,628,7229.494487
1180.0,911,7249.277219
730.0,305,7256.511998
1440.0,1031,7279.549031
1080.0,491,7290.264933
1730.0,690,7305.903678
1080.0,437,7315.200693
1760.0,717,7331.407902
580.0,239,7336.354703
1490.0,758,7352.999529
1980.0,813,7370.813307
1960.0,983,7392.304814
1910.0,1095,7416.746578
930.0,370,7424.702118
1180.0,590,7438.067467
1520.0,666,7452.589706
1320.0,1010,7474.660048
1540.0,813,7492.851553
1300.0,1047,7516.102304
1030.0,371,7524.325235
1280.0,720,7540.195354
1710.0,970,7562.047752
1540.0,731,7578.16341
730.0,397,7587.12632
1300.0,658,7601.67432
830.0,307,7608.213431
830.0,306,7614.635027
1180.0,567,7627.278114
680.0,293,7633.685694
880.0,453,7643.796292
1320.0,744,7660.646549
1750.0,1225,7687.502097
960.0,369,7695.695979
1280.0,677,7710.75543
1280.0,1313,7739.703749
1300.0,505,7750.622879
930.0,427,7759.887472
1950.0,1291,7788.415945
1130.0,643,7803.305124
1520.0,1047,7826.734365
1810.0,1413,7857.637918
430.0,338,7864.773294
630.0,484,7875.98939
2050.0,1080,7899.323955
1340.0,1193,7925.884123
980.0,376,7933.73665
2180.0,1148,7958.891166
830.0,342,7966.414686
580.0,365,7974.610466
930.0,324,7981.572021
980.0,745,7998.313932
1030.0,531,8009.870198
680.0,355,8017.477247
930.0,301,8023.876433
1730.0,516,8034.996546
2050.0,856,8053.588091
1590.0,1014,8076.292942
1530.0,730,8092.533155
1180.0,652,8106.85599
1180.0,603,8120.251153
1080.0,398,8128.958589
1300.0,673,8143.672745
1630.0,1358,8173.547361
1610.0,585,8186.375486
1080.0,362,8193.841271
880.0,414,8203.16025
1420.0,1199,8229.30946
2650.0,1105,8253.402112
1470.0,936,8274.363014
1800.0,1213,8300.950791
880.0,519,8312.413321
1280.0,930,8333.102667
1960.0,795,8350.919263
930.0,365,8358.977044
630.0,284,8364.952106
1590.0,601,8378.082804
430.0,387,8386.369495
730.0,406,8395.303125
1130.0,519,8406.604392
880.0,296,8412.928159
780.0,279,8418.860764
1300.0,741,8434.925579
2450.0,961,8456.250175
1680.0,501,8467.751547
880.0,385,8476.274838
1280.0,646,8490.66769
1510.0,956,8511.817111
1710.0,679,8527.33507
1390.0,970,8549.006256
980.0,568,8561.354132
1180.0,692,8576.394205
1280.0,1204,8602.671805
1080.0,352,8610.513543
1280.0,783,8627.944097
1750.0,954,8649.043682
1590.0,709,8664.941428
530.0,462,8674.769361
580.0,237,8679.84616
1180.0,605,8692.852969
1730.0,605,8705.982063
1360.0,745,8722.695587
1760.0,769,8739.860605
1370.0,801,8757.715202
1610.0,1114,8782.608767
1180.0,482,8793.09299
880.0,439,8803.028925
1180.0,1009,8825.269744
780.0,297,8832.09882
630.0,233,8836.94229
1300.0,1176,8863.453077
2000.0,1469,8895.9726
1180.0,445,8905.846063
1680.0,742,8922.406632
980.0,340,8929.799078
1030.0,612,8942.853302
930.0,386,8951.05404
480.0,376,8958.979397
930.0,698,8974.516869
1600.0,646,8989.448502
880.0,260,8995.201014
1300.0,866,9014.275514
930.0,358,9021.996971
1300.0,651,9036.61505
830.0,353,9044.002917
1540.0,1112,9069.106628
780.0,365,9077.035322
1280.0,795,9095.121497
1800.0,843,9113.155085
530.0,251,9118.341441
1080.0,529,9130.112364
1080.0,409,9138.738874
710.0,314,9145.76503
1130.0,414,9155.082137
1710.0,638,9168.835552
680.0,234,9173.864985
880.0,436,9183.121666
680.0,273,9188.898683
1390.0,656,9203.623881
780.0,562,9216.469735
730.0,285,9222.533917
1180.0,500,9233.671688
1080.0,419,9242.645977
1340.0,859,9261.291892
1280.0,1056,9284.856018
1670.0,782,9302.756067
1680.0,923,9323.754305
780.0,360,9331.94794
880.0,461,9341.912181
1560.0,822,9359.760373
930.0,456,9370.026757
1660.0,439,9379.971118
980.0,326,9386.952453
830.0,492,9397.810246
1180.0,706,9413.029251
1490.0,699,9428.725346
1180.0,480,9438.730909
730.0,332,9445.854241
1280.0,670,9460.629871
1450.0,599,9473.805543
1300.0,618,9486.820278
1370.0,626,9500.422162
580.0,322,9507.679782
1080.0,362,9515.317436
1490.0,1056,9538.723111
1180.0,711,9554.083919
730.0,331,9561.2124
1130.0,559,9573.202207
830.0,321,9580.051212
1080.0,501,9591.198822
1300.0,1506,9624.530973
1180.0,506,9635.642088
980.0,503,9646.679531
1130.0,403,9655.260528
580.0,280,9661.518248
1350.0,1592,9696.777072
1390.0,567,9709.246706
1030.0,412,9717.99565
980.0,399,9726.865273
1450.0,778,9743.834452
1080.0,408,9752.691235
1130.0,504,9763.356894
1180.0,599,9777.483866
1540.0,829,9795.394896
1510.0,945,9816.23536
930.0,380,9824.346724
2800.0,1611,9860.043718
1410.0,755,9876.97956
1080.0,596,9889.647093
1180.0,655,9903.727984
1800.0,971,9926.069674
2550.0,954,9946.741334
1600.0,1240,9974.696495
1440.0,797,9991.79881
630.0,381,9999.945358
580.0,344,10007.826976
880.0,444,10017.374294
1030.0,457,10026.995921
1650.0,1131,10052.575047
830.0,328,10060.774333
580.0,420,10069.75021
610.0,248,10074.955832
1300.0,1130,10100.080268
1610.0,793,10117.550007
1080.0,327,10124.64489
2480.0,1241,10152.867662
1760.0,771,10169.650168
1880.0,755,10185.901083
1850.0,802,10203.474262
1180.0,506,10214.548518
1370.0,463,10225.263394
980.0,431,10234.944448
1180.0,623,10249.205809
1510.0,754,10266.321854
980.0,347,10273.446182
980.0,558,10285.726373
1410.0,451,10295.295395
1080.0,604,10308.689915
1280.0,552,10320.813879
880.0,407,10329.472237
730.0,327,10336.579762
1080.0,401,10345.484448
1780.0,1342,10375.153616
860.0,288,10381.272288
1080.0,593,10394.154623
2300.0,1007,10416.51763
1650.0,1324,10445.485054
930.0,285,10451.616083
980.0,564,10463.978566
980.0,579,10476.991168
1180.0,368,10484.948996
680.0,272,10491.35221
1560.0,895,10511.043221
1180.0,450,10520.838144
1180.0,726,10536.277867
1360.0,898,10556.333134
1030.0,547,10568.620148
1300.0,605,10581.647846
1300.0,1293,10611.251619
880.0,414,10620.188571
330.0,458,10631.272962
1080.0,458,10642.083277
780.0,413,10651.162853
1400.0,983,10673.23685
1680.0,738,10689.905291
980.0,505,10701.260862
1420.0,572,10713.571781
1660.0,957,10734.277144
1540.0,743,10750.907465
1180.0,327,10758.157454
880.0,358,10765.988079
2300.0,1276,10793.925805
980.0,317,10801.141204
1180.0,531,10813.322517
780.0,449,10823.143977
1180.0,672,10838.02728
480.0,273,10844.001368
2300.0,1747,10883.615268
1350.0,654,10897.964226
1300.0,687,10913.06286
680.0,304,10919.545487
1080.0,460,10930.050673
1350.0,658,10944.638843
880.0,472,10954.918037
1470.0,726,10971.086063
780.0,471,10981.488278
930.0,542,10993.050508
1530.0,754,11009.955847
1300.0,1145,11035.127188
1530.0,428,11044.205125
1450.0,912,11064.39331
1580.0,762,11081.993949
830.0,296,11088.425446
1370.0,711,11104.165738
780.0,307,11110.903079
830.0,320,11117.688476
1480.0,707,11133.636809
930.0,347,11141.408578
430.0,425,11151.533475
430.0,236,11157.058211
930.0,487,11167.909656
1540.0,854,11186.629456
1180.0,811,11204.57077
1600.0,773,11221.702592
1910.0,997,11244.099429
2050.0,1022,11267.065074
1180.0,670,11282.918892
780.0,498,11294.348265
1180.0,497,11305.615128
1080.0,620,11318.961771
730.0,321,11325.60068
1300.0,850,11344.6462
780.0,339,11351.924029
1080.0,384,11360.128787
930.0,307,11366.706649
1180.0,424,11375.74429
930.0,451,11385.351241
1420.0,556,11398.190988
730.0,427,11407.18341
1180.0,561,11419.11917
1350.0,1869,11461.242461
1280.0,397,11470.312529
1610.0,724,11486.790359
980.0,321,11493.994262
1080.0,463,11504.089011
1080.0,523,11515.691997
830.0,330,11523.346003
510.0,281,11529.694038
1560.0,655,11544.424062
680.0,327,11551.585705
1620.0,569,11564.591411
1540.0,680,11579.453135
930.0,316,11586.293691
1400.0,370,11594.356861
1510.0,1252,11622.299502
1080.0,402,11631.345515
1080.0,376,11639.320405
1180.0,768,11656.491269
930.0,389,11664.626231
1350.0,453,11675.053831
830.0,389,11683.940557
830.0,317,11690.72966
1730.0,774,11708.117525
1610.0,1079,11732.48451
1570.0,667,11747.228888
1180.0,727,11763.332548
1490.0,682,11778.310987
1080.0,485,11788.903293
1180.0,400,11797.452445
1080.0,297,11803.988554
1350.0,1009,11826.319145
1300.0,564,11839.663692
1690.0,730,11855.555481
730.0,326,11862.510746
1300.0,675,11877.359308
980.0,426,11886.34516
1300.0,765,11903.018837
1030.0,587,11915.865725
880.0,325,11922.573815
580.0,297,11928.685387
1080.0,476,11940.022917
1180.0,488,11951.032658
1640.0,1265,11978.115961
1340.0,835,11997.401203
1280.0,557,12010.281319
1080.0,365,12018.15045
2380.0,1036,12040.70564
1510.0,374,12048.95424
1280.0,614,12062.15511
1320.0,562,12074.707706
1630.0,1458,12106.639906
780.0,277,12112.614489
680.0,356,12120.427109
1540.0,767,12137.435767
1410.0,986,12159.486076
680.0,230,12164.401526
1680.0,759,12181.870979
1560.0,812,12199.446623
1300.0,706,12214.796931
1760.0,560,12226.928085
1390.0,702,12242.074518
1080.0,572,12254.392862
1280.0,770,12271.681201
630.0,315,12278.214795
1510.0,970,12299.750175
1800.0,819,12318.032975
1760.0,941,12338.735295
730.0,306,12345.108861
930.0,466,12355.951873
1280.0,988,12377.704188
1300.0,667,12392.38385
1180.0,547,12404.264311
1900.0,1174,12430.884862
1630.0,603,12443.995748
1370.0,517,12454.967205
1080.0,679,12469.88073
580.0,243,12474.924453
1370.0,913,12494.994839
1030.0,587,12507.731964
1640.0,849,12526.945007
1320.0,542,12539.242599
1320.0,777,12556.480166
780.0,335,12563.404809
1320.0,718,12579.018611
1710.0,964,12600.024124
880.0,419,12609.046316
880.0,285,12615.418304
1300.0,928,12635.423174
1440.0,1032,12658.655869
1280.0,808,12676.142768
630.0,327,12683.032959
1790.0,486,12693.893695
980.0,515,12705.559289
1180.0,318,12712.527582
1180.0,918,12734.410021
1080.0,370,12742.307684
1080.0,412,12751.302168
730.0,275,12757.302813
680.0,329,12764.205904
1780.0,935,12784.325788
1780.0,819,12802.74887
1300.0,740,12818.873581
1660.0,800,12836.828058
780.0,288,12843.575553
2750.0,950,12865.570151
480.0,279,12871.776077
1390.0,1533,12906.306253
1530.0,997,12927.866505
2450.0,898,12947.457922
1460.0,791,12964.92648
2000.0,1141,12989.656241
1520.0,625,13003.967606
1420.0,644,13018.538016
630.0,264,13024.413437
1080.0,416,13033.321687
1450.0,807,13051.612504
1300.0,996,13073.575113
1710.0,764,13090.924997
1180.0,562,13103.421902
1300.0,334,13111.039405
980.0,421,13120.284735
1650.0,1128,13144.948604
1900.0,1122,13170.129309
980.0,251,13175.236076
1830.0,1018,13197.685473
1300.0,988,13219.128698
680.0,415,13228.315055
1030.0,423,13237.680763
1640.0,1100,13261.68859
680.0,345,13269.087234
1510.0,635,13282.921532
1530.0,1108,13307.525318
480.0,205,13311.717685
830.0,281,13317.63122
730.0,486,13328.254938
1660.0,800,13346.930357
880.0,302,13353.623328
1280.0,685,13368.330917
580.0,304,13374.711864
1420.0,1028,13397.871668
980.0,488,13408.36019
830.0,460,13418.375867
630.0,248,13423.552024
830.0,334,13430.835223
980.0,450,13440.872221
1030.0,448,13451.276624
1780.0,891,13471.143004
930.0,291,13477.568593
1690.0,987,13499.032848
1530.0,624,13512.347393
630.0,363,13520.570077
1280.0,460,13530.212311
780.0,307,13536.902749
1830.0,876,13555.736598
1280.0,581,13569.073986
1300.0,627,13583.670441
510.0,239,13588.666481
1280.0,474,13599.434471
2250.0,763,13616.627467
880.0,468,13626.36524
1080.0,568,13639.770812
1300.0,610,13653.139704
930.0,305,13659.552956
1300.0,1275,13688.259102
930.0,292,13694.771789
1610.0,762,13712.040544
1180.0,544,13724.081666
1610.0,946,13744.572066
880.0,364,13752.787533
1370.0,674,13767.740108
1080.0,645,13781.784143
680.0,251,13787.11035
2150.0,1128,13811.973581
1280.0,502,13822.929502
1810.0,761,13839.477086
1730.0,1268,13868.773715
1500.0,474,13879.598471
1080.0,418,13888.549734
880.0,413,13897.561346
980.0,549,13909.41615
1540.0,1262,13937.761639
1470.0,806,13955.718702
930.0,363,13963.701933
1180.0,498,13974.622023
2530.0,1069,13998.58725
2060.0,1096,14023.687632
1850.0,1264,14051.006945
1180.0,426,14060.625241
2200.0,649,14074.936608
1420.0,726,14091.240095
1280.0,924,14111.261941
1300.0,586,14124.224463
1660.0,692,14140.170393
830.0,293,14146.382864
830.0,367,14154.355171
1350.0,944,14174.662622
1030.0,336,14182.003139
880.0,544,14193.705097
880.0,249,14199.024318
1280.0,525,14210.337372
1180.0,809,14227.778228
1320.0,1274,14255.925565
2050.0,1315,14285.11346
1130.0,682,14300.676185
830.0,352,14307.970348
1800.0,1365,14337.8801
780.0,457,14347.706031
930.0,347,14355.242028
3100.0,1177,14381.036548
1080.0,530,14392.412318
1370.0,834,14411.654536
2000.0,1162,14437.491037
880.0,332,14444.667651
1560.0,557,14457.264249
1680.0,854,14475.860069
980.0,318,14482.613761
980.0,648,14496.45874
1520.0,1074,14520.787379
1300.0,486,14531.238277
1600.0,1217,14557.590499
1530.0,708,14573.172868
1390.0,893,14592.985345
1300.0,486,14603.410239
2200.0,813,14621.071805
1280.0,676,14636.278636
1300.0,994,14658.492456
880.0,376,14666.569206
930.0,323,14673.678629
1180.0,549,14686.093136
1300.0,794,14703.249237
1750.0,1551,14738.514165
1180.0,956,14759.401409
1030.0,317,14766.04882
1280.0,1003,14789.566797
1450.0,690,14805.142116
780.0,321,14812.350045
980.0,368,14820.555979
1280.0,473,14830.904047
1480.0,1555,14865.940153
1680.0,1106,14890.322163
1560.0,902,14910.093247
1370.0,575,14922.639748
1180.0,385,14931.329918
3270.0,1374,14961.99048
1280.0,674,14976.405879
1390.0,794,14993.891481
2480.0,837,15012.021812
1180.0,527,15024.052065
880.0,338,15031.336697
1080.0,466,15041.451771
2250.0,701,15056.628724
1320.0,778,15073.532965
1590.0,1147,15099.428758
1080.0,322,15106.343077
1490.0,910,15126.413118
1620.0,877,15146.599664
930.0,361,15154.708593
1660.0,860,15173.457332
680.0,469,15183.614151
1030.0,534,15195.281026
1590.0,914,15216.23245
2350.0,814,15234.5743
1420.0,617,15247.947187
830.0,449,15257.9245
1930.0,634,15271.790006
930.0,386,15280.066291
1390.0,1073,15303.760786
1080.0,368,15311.6441
830.0,390,15320.419778
1440.0,856,15339.967066
980.0,390,15348.530435
880.0,320,15355.209673
1640.0,913,15375.194406
980.0,646,15389.103454
1030.0,390,15397.392218
1300.0,787,15415.250365
1280.0,1592,15450.214643
1590.0,780,15467.646069
1180.0,633,15481.411042
1960.0,833,15499.571439
1900.0,1059,15523.626522
1280.0,1050,15547.059016
1340.0,616,15560.693694
1320.0,976,15582.912705
1320.0,945,15603.139386
1680.0,715,15618.561286
1560.0,1021,15640.95931
1830.0,853,15661.1587
2100.0,966,15682.453217
1180.0,486,15692.922451
1300.0,483,15703.258038
1430.0,964,15724.204138
1510.0,923,15744.29707
1130.0,498,15755.373462
1370.0,1817,15796.046876
930.0,325,15803.08691
880.0,418,15811.905181
1600.0,894,15831.621154
1180.0,392,15840.388833
1690.0,1389,15871.217792
830.0,297,15877.405267
2100.0,1383,15908.203832
1030.0,314,15914.842003
2550.0,2122,15961.511798
1300.0,578,15974.575585
980.0,465,15984.661031
1490.0,919,16004.889117
1730.0,895,16024.543659
1490.0,673,16039.26645
1300.0,859,16057.802668
1750.0,1136,16082.811118
1800.0,927,16102.907352
1180.0,446,16112.408234
1710.0,1203,16139.396513
2700.0,1376,16170.621463
1690.0,649,16185.045351
1680.0,594,16198.516006
1390.0,673,16213.16543
1440.0,470,16223.333746
1320.0,788,16240.372728
1680.0,687,16255.197515
1630.0,485,16265.819849
1280.0,587,16278.961097
1780.0,811,16296.642306
1300.0,1403,16327.097749
2100.0,1071,16350.799023
530.0,320,16357.850723
1280.0,558,16370.223711
1080.0,452,16380.652614
930.0,321,16387.528526
1540.0,871,16407.258328
1180.0,461,16417.244375
1800.0,861,16435.494473
1560.0,704,16451.161852
1390.0,1449,16483.99068
1590.0,1082,16508.72664
1320.0,662,16523.212652
1430.0,1405,16553.891034
880.0,333,16561.556326
980.0,280,16567.553723
1460.0,872,16587.000728
930.0,336,16594.234591
830.0,296,16600.402642
1080.0,565,16612.774162
730.0,338,16619.793197
980.0,238,16624.80141
930.0,338,16631.828062
1180.0,418,16641.004377
1410.0,892,16660.670255
1730.0,1011,16682.304753
1080.0,561,16694.471699
1180.0,701,16710.210075
1670.0,884,16729.788843
1300.0,1092,16753.87651
1180.0,487,16764.397068
1930.0,960,16785.425744
1470.0,781,16802.665992
1320.0,516,16814.108747
1520.0,946,16835.63828
1560.0,1217,16862.814074
1080.0,689,16877.985669
1370.0,484,16888.447238
1440.0,795,16905.608483
1300.0,814,16923.775697
1370.0,662,16938.465395
1470.0,702,16953.310615
1830.0,593,16966.180364
1630.0,700,16981.629627
1180.0,435,16991.61254
680.0,316,16998.880608
1300.0,479,17008.872672
1910.0,513,17019.878386
980.0,436,17029.379705
1400.0,709,17044.884952
1740.0,973,17066.583624
1180.0,475,17077.504616
730.0,322,17084.646218
1280.0,417,17093.775374
880.0,276,17099.659723
1490.0,1019,17122.627719
1080.0,366,17130.133764
1540.0,652,17144.208727
1680.0,636,17158.212332
880.0,284,17164.256961
1610.0,759,17180.734623
1280.0,665,17195.749894
1180.0,473,17206.045943
780.0,283,17211.981976
1280.0,906,17232.209551
1530.0,613,17246.015247
1080.0,629,17260.128067
1300.0,1011,17282.429998
1180.0,558,17294.622914
1280.0,662,17309.017312
1300.0,799,17326.84388
1420.0,955,17347.408884
2010.0,1551,17382.329634
1560.0,724,17398.232041
1280.0,793,17415.310929
1490.0,1207,17442.676881
930.0,404,17451.651863
1340.0,805,17469.244781
1680.0,698,17484.554333
1080.0,689,17499.780591
1080.0,345,17507.721102
1280.0,708,17522.846253
1080.0,386,17531.134652
1880.0,704,17547.249117
1180.0,459,17556.846504
680.0,240,17561.895801
1440.0,1550,17596.835217
1710.0,1002,17620.016425
830.0,395,17628.417562
1280.0,379,17636.442822
1690.0,941,17657.145636
1830.0,553,17668.959649
1350.0,575,17682.29364
1280.0,1014,17704.162628
930.0,377,17712.516943
1300.0,737,17729.149883
680.0,382,17737.479991
1300.0,705,17753.268992
1030.0,308,17760.110579
880.0,333,17767.313692
1180.0,800,17784.619852
1470.0,541,17796.143781
1560.0,765,17812.914779
830.0,379,17821.214941
780.0,234,17826.473998
1490.0,696,17841.960269
1180.0,518,17853.528119
1560.0,857,17872.507505
1750.0,1230,17899.390011
630.0,297,17905.85351
930.0,417,17914.72625
2050.0,859,17933.682397
880.0,335,17940.909174
930.0,314,17947.516922
380.0,238,17952.559284
1180.0,685,17968.175201
2300.0,977,17990.610395
980.0,243,17995.910587
780.0,331,18002.999414
1080.0,414,18012.149833
1780.0,787,18029.991133
1280.0,726,18045.816849
530.0,369,18054.220354
1280.0,719,18069.972275
1600.0,788,18087.849122
830.0,241,18093.023115
1610.0,1177,18118.92201
1320.0,698,18134.3937
1030.0,630,18148.810629
1730.0,709,18165.039945
1590.0,2546,18221.675131
1080.0,509,18232.795606
1650.0,520,18244.322884
1610.0,905,18264.473
580.0,238,18269.308733
930.0,234,18274.399112
1130.0,450,18284.216347
1080.0,593,18296.955765
780.0,497,18307.605103
1180.0,369,18315.402084
1280.0,559,18327.879704
1900.0,496,18339.824625
1180.0,477,18350.419085
1030.0,422,18359.835655
880.0,346,18367.023767
1680.0,1160,18393.768022
780.0,319,18400.789304
1300.0,565,18412.691711
980.0,306,18419.100776
1460.0,704,18434.990572
1080.0,517,18446.019943
780.0,323,18452.798733
2050.0,1339,18482.327015
2100.0,750,18498.628781
980.0,450,18508.558755
580.0,290,18514.836592
1080.0,369,18522.967208
1300.0,1107,18547.085742
1830.0,719,18562.903535
530.0,302,18569.254947
1640.0,942,18589.440101
1280.0,607,18603.373868
1370.0,504,18614.370241
1130.0,522,18625.585103
1450.0,718,18640.850718
1030.0,480,18651.705413
1320.0,1355,18681.544137
2550.0,1394,18714.024512
2400.0,663,18728.077837
480.0,236,18733.157121
1600.0,1469,18765.386405
1080.0,414,18774.446892
1320.0,607,18787.499417
980.0,436,18796.915671
1850.0,1074,18820.522903
1780.0,659,18834.892036
1600.0,617,18848.678856
1370.0,666,18863.513954
1370.0,955,18883.996885
1280.0,855,18902.799428
1670.0,1065,18926.006832
1180.0,563,18938.342826
1780.0,1228,18965.179619
880.0,322,18972.403835
580.0,277,18978.574222
1280.0,745,18994.901185
1630.0,477,19005.203892
830.0,319,19011.852672
1420.0,1078,19036.065945
2100.0,614,19049.386336
1320.0,717,19065.412121
1180.0,1072,19089.656132
1300.0,985,19112.189254
730.0,260,19117.954346
1440.0,851,19137.098318
1320.0,649,19151.381117
1300.0,556,19163.192985
780.0,416,19172.398779
680.0,547,19184.594187
1280.0,749,19200.622315
2180.0,1027,19223.484339
1650.0,863,19242.404785
1490.0,904,19262.159098
980.0,371,19270.050504
1180.0,585,19282.737061
1340.0,632,19296.490876
1180.0,621,19310.845884
1180.0,518,19322.123776
1080.0,703,19336.980843
1510.0,776,19354.182636
1360.0,604,19367.52302
1080.0,400,19376.088303
930.0,309,19382.835809
580.0,309,19390.038333
1180.0,476,19400.160916
1660.0,1323,19429.655315
1590.0,1224,19456.231761
1080.0,479,19467.387143
1320.0,1021,19490.895692
1080.0,544,19503.238356
1130.0,515,19514.49475
1080.0,471,19524.508849
1440.0,1100,19548.891752
1280.0,908,19568.637893
1300.0,633,19582.359376
2100.0,901,19602.335486
1350.0,599,19615.256915
1300.0,433,19624.890872
1680.0,1048,19648.260422
1280.0,505,19659.193299
1030.0,289,19666.515417
1460.0,982,19687.555648
1320.0,581,19700.74484
1320.0,645,19714.615987
1680.0,1373,19744.488119
1030.0,375,19752.640491
730.0,245,19757.985521
1180.0,418,19767.212268
1450.0,608,19780.78828
1320.0,1672,19818.437747
1470.0,1247,19845.650925
830.0,380,19854.446317
1180.0,511,19866.047469
1510.0,586,19879.038371
1080.0,387,19887.346621
1080.0,276,19893.29884
1080.0,384,19901.896591
930.0,334,19908.89629
1080.0,668,19923.799417
1080.0,399,19932.798348
2250.0,748,19949.897722
1370.0,628,19963.689889
1590.0,591,19976.230739
1440.0,1045,19999.53349
1320.0,736,20016.622437
1300.0,750,20033.438378
1280.0,686,20048.61206
1490.0,788,20065.618813
1470.0,658,20080.292978
1780.0,794,20097.511299
1660.0,980,20119.077954
480.0,231,20124.159447
980.0,442,20133.59066
1760.0,827,20152.395197
1780.0,593,20165.809524
880.0,321,20172.545251
1680.0,1409,20204.271785
2900.0,1059,20227.639201
1460.0,1258,20255.235277
2000.0,1313,20285.590312
1830.0,808,20304.084804
2050.0,936,20324.591213
1080.0,288,20330.892012
1630.0,708,20346.624167
1390.0,450,20356.853302
1680.0,740,20373.257476
1930.0,862,20391.803602
1660.0,1183,20417.876526
1370.0,883,20437.373162
1320.0,989,20458.882953
1320.0,632,20472.722315
2350.0,905,20493.124575
1350.0,945,20513.952231
1680.0,1002,20535.597761
930.0,461,20545.469149
1300.0,574,20558.162153
1320.0,585,20570.647475
1080.0,638,20584.917609
780.0,273,20590.731579
1520.0,1289,20619.711604
980.0,451,20629.611845
780.0,513,20640.597408
1750.0,739,20657.755678
1510.0,1071,20681.935826
1280.0,1287,20710.271325
1370.0,565,20722.684357
830.0,241,20727.539786
1320.0,574,20740.103045
730.0,279,20746.299004
930.0,360,20754.384446
1180.0,512,20765.483879
1830.0,704,20781.266513
1490.0,519,20793.586164
1080.0,406,20802.275764
1280.0,1027,20824.416365
1280.0,807,20842.636369
1810.0,1641,20878.367219
1510.0,704,20893.659067
1180.0,804,20911.500479
730.0,247,20916.477886
1030.0,272,20922.280941
1630.0,623,20935.596799
1180.0,496,20946.288559
830.0,415,20955.163692
1320.0,667,20970.479189
1280.0,1329,21001.087687
1080.0,498,21011.827892
1300.0,630,21025.964827
1540.0,914,21046.844037
780.0,418,21056.658962
1950.0,1225,21084.299071
1490.0,795,21101.818077
2000.0,905,21121.440697
630.0,325,21128.520951
1780.0,802,21147.131064
980.0,433,21156.367688
1180.0,509,21167.242576
780.0,411,21176.068219
1570.0,1245,21204.999991
780.0,390,21213.552524
2150.0,1001,21235.079792
930.0,612,21248.277532
1080.0,393,21256.895341
1280.0,774,21274.064102
1300.0,778,21290.785913
1280.0,818,21308.419377
930.0,341,21315.793782
1470.0,1228,21342.89338
1660.0,1278,21371.957783
1440.0,605,21385.691508
1320.0,970,21407.369569
1080.0,326,21414.433513
1560.0,944,21435.09894
1520.0,1119,21459.621734
1510.0,837,21478.185327
1080.0,504,21488.889327
1280.0,541,21500.72765
1710.0,954,21522.128228
1370.0,1483,21556.383965
1180.0,428,21566.29517
1080.0,341,21573.487787
1080.0,351,21581.078618
1410.0,680,21595.984437
1180.0,438,21605.336275
1080.0,338,21612.611291
2100.0,956,21634.419172
880.0,327,21641.652776
1370.0,1256,21669.02669
1690.0,516,21680.351427
730.0,289,21686.421026
1180.0,426,21695.683365
1450.0,1674,21733.336763
1350.0,622,21746.518625
980.0,338,21753.802201
1370.0,853,21772.556337
1280.0,790,21789.840323
1730.0,1088,21813.774341
1080.0,447,21823.184005
1080.0,524,21834.851656
1340.0,638,21848.716674
1880.0,1274,21876.901327
1320.0,768,21894.547909
1610.0,831,21912.67917
1460.0,1047,21936.696959
980.0,519,21948.27638
2080.0,742,21964.476979
1080.0,482,21974.998931
1830.0,782,21993.36296
1880.0,1392,22024.175435
1880.0,637,22037.91189
1180.0,571,22050.103979
880.0,317,22056.90123
1080.0,381,22064.833813
2300.0,769,22081.409652
1590.0,1267,22109.407773
1470.0,808,22126.829721
1320.0,738,22142.830076
1540.0,790,22160.590299
1080.0,456,22171.376004
1410.0,731,22187.203316
1440.0,754,22203.79153
2050.0,890,22223.323716
2150.0,1457,22254.902988
2050.0,997,22277.12873
1370.0,1691,22315.08328
980.0,428,22324.255076
1520.0,798,22341.46296
1080.0,426,22350.918472
1430.0,514,22361.87034
1280.0,689,22376.981392
830.0,390,22385.313995
830.0,370,22393.280322
1320.0,1688,22430.392286
1880.0,1297,22459.189245
1880.0,1240,22485.921737
1080.0,379,22494.319231
1510.0,1179,22520.310066
1080.0,634,22533.951836
1180.0,312,22541.066552
1180.0,581,22553.538152
1080.0,459,22563.805957
1300.0,883,22583.364666
1480.0,828,22601.810514
680.0,237,22606.81184
1610.0,477,22616.780916
980.0,347,22624.399217
1280.0,325,22631.475021
880.0,415,22640.555242
1830.0,1023,22662.876597
1410.0,720,22678.660478
1030.0,323,22685.726863
1410.0,504,22696.741962
830.0,273,22702.76931
980.0,308,22709.821527
1780.0,682,22724.63748
730.0,244,22729.777781
930.0,422,22738.892528
1540.0,986,22759.943244
2550.0,917,22780.263385
1930.0,733,22796.582852
1280.0,840,22815.091756
1280.0,1161,22841.191912
1320.0,429,22850.496903
1180.0,518,22861.888426
1300.0,591,22874.850105
1080.0,588,22887.750901
1440.0,450,22897.397573
1510.0,633,22911.267203
980.0,442,22920.923683
1280.0,477,22931.125309
830.0,410,22940.020693
1320.0,490,22951.39997
1610.0,1139,22976.220422
730.0,347,22983.601985
980.0,579,22996.676407
680.0,337,23003.594335
1370.0,637,23017.378289
1950.0,2291,23068.218418
1300.0,591,23081.13848
1180.0,498,23091.684914
1740.0,3065,23160.164761
1470.0,1020,23182.034984
680.0,315,23189.007269
1030.0,433,23198.400917
1710.0,1310,23227.219212
1280.0,651,23241.571647
1860.0,619,23255.499932
1300.0,461,23265.681354
1300.0,517,23277.344145
1760.0,2046,23322.367725
1280.0,409,23330.990164
1350.0,668,23346.462192
1280.0,759,23364.019383
1590.0,1155,23389.473274
1030.0,522,23400.918473
980.0,338,23408.58007
1030.0,273,23414.313156
2000.0,991,23435.907225
1280.0,1204,23462.278956
1390.0,859,23481.600832
1460.0,664,23496.572639
1180.0,1008,23518.90299
1810.0,587,23531.975045
1180.0,321,23538.558887
1440.0,755,23555.531394
1390.0,899,23575.609443
1660.0,1002,23597.767367
1370.0,806,23615.411038
1530.0,888,23635.151578
1540.0,1755,23673.809505
1300.0,985,23695.332285
2650.0,729,23711.761201
1180.0,486,23722.920346
1280.0,410,23732.336308
1540.0,481,23742.775398
2650.0,1078,23766.077453
1470.0,579,23778.894026
880.0,282,23784.906954
1620.0,736,23801.277962
1510.0,771,23818.279308
1300.0,1521,23851.349343
2950.0,1076,23875.028219
1480.0,966,23896.955464
1130.0,471,23907.443271
1510.0,830,23926.251803
1490.0,1347,23955.731242
1180.0,454,23965.835412
1180.0,913,23985.845198
1950.0,703,24001.045127
1180.0,413,24009.911888
1340.0,1150,24035.507703
1180.0,885,24054.414099
1530.0,733,24070.924905
980.0,328,24078.057662
1450.0,595,24091.902114
1280.0,560,24103.77548
2150.0,1163,24129.945822
1180.0,505,24140.993997
1640.0,907,24160.666665
1280.0,547,24172.585059
1180.0,969,24194.650127
1660.0,1490,24227.438715
1180.0,518,24238.99044
1280.0,733,24254.947706
930.0,301,24261.346617
980.0,427,24270.57242
1460.0,1053,24294.037832
1710.0,865,24312.600019
1470.0,734,24329.408821
1950.0,802,24346.562292
1280.0,889,24366.765471
1370.0,836,24385.225564
1340.0,443,24394.906629
1370.0,1020,24418.599944
1300.0,553,24430.529591
1280.0,581,24442.630383
1180.0,475,24452.802946
1280.0,466,24463.525833
1610.0,680,24478.414769
1300.0,374,24486.619275
1680.0,985,24508.395511
2080.0,1066,24531.704637
1540.0,1040,24555.219307
1300.0,609,24568.466848
3200.0,841,24587.003376
1180.0,553,24599.160779
1370.0,612,24612.831882
1490.0,782,24630.332639
830.0,343,24637.761855
1730.0,1083,24662.611192
830.0,311,24669.193301
1540.0,602,24682.287446
2550.0,1056,24705.82962
1460.0,712,24721.34262
2400.0,1597,24756.963143
1030.0,568,24769.190961
1660.0,1982,24813.75725
1610.0,1255,24841.786167
1350.0,824,24859.891986
1810.0,570,24872.583323
1830.0,593,24885.052727
1750.0,759,24902.007809
1460.0,912,24921.839843
1760.0,847,24940.478872
1280.0,601,24953.261317
980.0,277,24959.270974
1590.0,882,24979.414714
2350.0,1080,25003.73311
1710.0,1132,25028.298469
1280.0,590,25041.605674
1300.0,1029,25064.451902
1540.0,735,25080.600416
1180.0,555,25092.467583
1390.0,870,25111.390761
1540.0,829,25129.860321
1350.0,501,25142.054942
1080.0,377,25150.181427
1280.0,825,25167.796573
1780.0,912,25188.281265
1740.0,1297,25217.715894
1640.0,617,25231.387487
1420.0,1046,25254.382406
1510.0,822,25272.6359
1470.0,1188,25299.272368
1830.0,1066,25323.073255
780.0,376,25330.838514
1340.0,842,25350.312776
2050.0,676,25365.551275
1680.0,678,25380.11009
1080.0,431,25389.700539
1510.0,1141,25414.563084
1960.0,1124,25439.71907
1810.0,779,25456.624441
1740.0,624,25470.086569
1850.0,1137,25496.156793
1180.0,401,25504.631135
1080.0,377,25512.796232
980.0,498,25523.208082
1590.0,610,25536.681373
1780.0,1237,25564.021475
1080.0,326,25570.752986
1900.0,730,25586.832552
3100.0,1173,25612.958358
1900.0,1128,25637.457366
1320.0,871,25656.071974
2200.0,1947,25699.753779
1030.0,367,25707.887059
1280.0,765,25725.050758
1830.0,1001,25746.957855
1370.0,503,25757.785215
1660.0,869,25776.413644
1300.0,534,25788.416037
1830.0,839,25807.112677
1390.0,714,25822.399008
1080.0,319,25829.828582
930.0,522,25841.636845
680.0,312,25848.20968
1180.0,522,25859.50856
1300.0,560,25872.028794
1660.0,612,25885.182961
1280.0,1210,25911.900247
1180.0,472,25921.926278
980.0,453,25932.040008
830.0,387,25940.757389
780.0,426,25949.81782
1350.0,619,25963.145278
1280.0,1029,25985.560452
1030.0,410,25994.616118
1680.0,1085,26018.326553
1780.0,919,26038.490542
930.0,308,26044.975144
680.0,365,26052.693785
1830.0,1383,26083.259551
2430.0,781,26100.030137
1780.0,613,26113.337948
1180.0,576,26125.784608
2150.0,495,26136.506439
1280.0,464,26146.659084
1460.0,912,26166.946278
1410.0,830,26185.126117
1780.0,1045,26208.376727
1490.0,682,26223.484652
1420.0,784,26241.509341
1390.0,514,26253.100592
1080.0,465,26263.553032
1880.0,498,26273.995271
1660.0,515,26285.08146
1460.0,1048,26308.00162
1180.0,411,26316.940904
1580.0,1452,26349.526356
1180.0,556,26361.88592
1830.0,1037,26384.960504
1300.0,894,26404.913168
2100.0,1204,26431.817214
1180.0,493,26442.322368
1420.0,418,26451.165551
2400.0,1052,26474.308556
1280.0,648,26488.225782
1780.0,645,26502.602911
1180.0,449,26512.969038
1750.0,851,26531.667521
730.0,236,26536.725701
1280.0,799,26553.885542
2130.0,771,26570.838916
1830.0,717,26586.679316
1790.0,1021,26608.994915
1660.0,835,26627.430573
1490.0,436,26636.830815
1300.0,884,26657.113039
1350.0,510,26668.569372
1800.0,980,26690.155503
1780.0,1336,26719.426047
830.0,287,26725.396758
1300.0,945,26745.953532
1490.0,815,26764.210496
1560.0,1040,26788.471859
1560.0,768,26805.879335
1280.0,476,26816.231611
1520.0,608,26830.281832
1280.0,522,26841.859336
2100.0,775,26858.789024
1080.0,448,26868.287336
1280.0,1079,26892.276382
1640.0,1143,26918.75975
2080.0,1362,26949.271429
1930.0,1359,26980.502164
1390.0,1506,27012.962237
2030.0,1035,27035.770633
1640.0,1026,27058.742908
1490.0,815,27076.876062
2450.0,1540,27111.056513
1490.0,811,27129.403761
1900.0,853,27147.667175
1980.0,983,27169.957477
2380.0,913,27189.777577
1430.0,1195,27215.736469
780.0,253,27221.024905
1280.0,759,27237.511106
1430.0,742,27253.856964
1730.0,1580,27288.438524
1800.0,1031,27311.43302
1320.0,645,27325.33214
2450.0,1869,27366.893893
1880.0,1015,27389.783103
1470.0,1136,27415.869765
1610.0,1059,27439.196675
1730.0,977,27460.865241
1900.0,695,27475.945356
1300.0,1094,27499.650177
2400.0,1261,27527.592029
1780.0,898,27547.396292
2450.0,1477,27580.500499
1180.0,338,27587.568665
2150.0,698,27602.731978
930.0,333,27609.701455
1320.0,1150,27635.529215
980.0,368,27643.433053
2050.0,866,27662.153782
1300.0,698,27677.504335
1930.0,1089,27701.092419
1300.0,904,27719.165854
1640.0,807,27735.183507
1370.0,578,27746.841273
1610.0,884,27764.745585
980.0,370,27771.935057
1300.0,512,27782.169971
1880.0,715,27796.487674
1180.0,399,27804.293522
1420.0,643,27817.372711
1300.0,627,27830.121587
1650.0,1115,27853.13877
2450.0,993,27873.431403
1300.0,550,27884.96033
1610.0,738,27900.11668
1540.0,897,27918.355509
1280.0,1007,27939.067379
2000.0,1015,27959.620709
1460.0,533,27970.105417
1390.0,940,27989.349541
1560.0,805,28005.672354
