# {"t_start": 1546750285.3512876, "env_id": "AsteroidsNoFrameskip-v4"} 
r,l,t
1730.0,1518,39.709699
1300.0,1836,80.201344
1280.0,1356,110.793956
580.0,328,118.04827
1300.0,1735,157.060918
1320.0,650,170.855726
1490.0,725,186.742357
1280.0,828,204.751416
630.0,336,212.000093
1420.0,1236,239.87516
1980.0,1007,262.15478
680.0,240,267.271458
1350.0,661,282.072082
930.0,462,292.032253
1440.0,1548,327.741645
980.0,675,343.272
1700.0,698,358.34472
780.0,363,366.797032
730.0,378,374.576742
880.0,310,381.368357
880.0,599,394.287618
1560.0,690,409.768697
1300.0,646,424.127576
1320.0,626,437.490868
1490.0,1139,462.859231
1280.0,727,478.693221
1480.0,1358,507.988028
680.0,583,520.627724
1080.0,459,530.633851
1470.0,788,548.171735
1080.0,570,560.40451
1560.0,1140,585.413163
1390.0,774,601.99306
1980.0,1040,625.573685
1340.0,1003,648.096004
3200.0,1769,687.610639
1180.0,397,696.400021
580.0,361,704.403811
1080.0,414,713.276392
1280.0,836,731.618921
2150.0,1161,758.111636
1180.0,782,775.721077
880.0,319,782.669101
1300.0,1133,807.56
1180.0,590,820.325765
1370.0,715,835.878038
730.0,414,844.951009
730.0,274,850.974243
1610.0,795,868.783495
780.0,362,876.954464
830.0,352,884.312024
1080.0,579,897.914684
1280.0,533,909.577378
1490.0,667,924.439915
1660.0,857,943.968188
1370.0,656,958.075361
1280.0,567,970.526634
830.0,367,978.504193
1300.0,876,997.471739
1910.0,960,1018.525259
1540.0,565,1030.8301
1180.0,533,1042.671956
2130.0,1264,1071.212487
880.0,409,1079.888125
1780.0,1079,1103.681933
1370.0,1678,1141.258778
1690.0,824,1159.524109
1340.0,741,1175.427546
1540.0,784,1192.923554
930.0,311,1199.672357
580.0,245,1205.177367
1390.0,1355,1234.835581
680.0,286,1240.749078
830.0,332,1247.872344
710.0,328,1254.905751
1460.0,777,1271.778306
1400.0,1499,1306.031082
1660.0,633,1320.718765
980.0,453,1330.738915
1180.0,523,1341.960048
830.0,277,1347.718981
1390.0,1014,1370.482333
480.0,205,1375.261923
1730.0,677,1390.715901
1790.0,1112,1415.235966
630.0,428,1424.268497
1490.0,820,1441.861344
1490.0,886,1461.320328
1080.0,386,1469.679053
1300.0,818,1487.760754
1460.0,1170,1513.995677
880.0,353,1521.537163
1830.0,895,1541.641623
1780.0,718,1558.383076
2400.0,920,1579.362379
1520.0,781,1596.567334
1080.0,547,1608.48932
1280.0,597,1621.356007
1710.0,1112,1645.939906
1390.0,1120,1670.509452
1420.0,819,1688.376783
2950.0,1640,1725.536067
2030.0,741,1741.724856
880.0,332,1748.897538
680.0,437,1758.128088
780.0,367,1766.131189
1540.0,719,1781.755754
2250.0,1121,1806.383299
780.0,349,1813.867392
1700.0,870,1832.502947
930.0,445,1842.144812
1510.0,825,1860.559937
610.0,382,1868.791961
280.0,322,1875.902106
580.0,329,1882.894808
1080.0,464,1892.81548
1130.0,376,1900.694999
3310.0,1671,1938.334826
1780.0,994,1960.113776
2150.0,1283,1989.574769
610.0,533,2001.335577
1300.0,842,2020.084222
1320.0,1209,2046.86407
930.0,538,2058.643272
730.0,343,2066.155048
1830.0,996,2087.468943
1080.0,671,2102.024102
680.0,503,2112.641466
1280.0,649,2127.326884
1280.0,712,2143.058368
1470.0,569,2155.448312
1880.0,1016,2178.736816
1080.0,1035,2201.278207
1560.0,891,2221.475146
1080.0,503,2233.414228
980.0,355,2240.975435
1280.0,633,2255.822968
1370.0,741,2272.419547
830.0,476,2282.889838
630.0,329,2289.687818
1350.0,795,2306.808697
980.0,398,2315.31947
1030.0,630,2329.433233
880.0,389,2337.928876
1630.0,774,2354.970566
780.0,317,2361.666582
1810.0,1059,2384.999047
730.0,547,2396.869547
1360.0,1085,2420.265548
930.0,445,2430.593183
830.0,385,2438.770407
1030.0,495,2449.58981
980.0,447,2459.478037
1610.0,975,2480.569085
1410.0,708,2495.820939
1320.0,692,2510.977317
1080.0,401,2519.684686
1410.0,855,2538.281807
1730.0,976,2559.750435
780.0,363,2568.165592
1840.0,835,2587.496682
1440.0,1064,2611.938627
1180.0,437,2621.358259
2080.0,988,2643.025135
1350.0,569,2655.443631
1340.0,835,2673.588694
480.0,325,2680.484608
1440.0,501,2691.249083
1280.0,990,2713.074863
730.0,233,2718.486779
980.0,426,2728.159658
980.0,338,2735.515949
1300.0,1865,2776.341923
1550.0,1042,2799.548087
1080.0,652,2813.591513
480.0,322,2820.583838
1180.0,532,2832.158427
1540.0,986,2853.525703
380.0,205,2858.257889
980.0,314,2864.827281
1280.0,561,2877.09831
1670.0,1896,2919.070721
1850.0,960,2940.131069
1520.0,753,2956.524565
1510.0,545,2968.564769
1540.0,865,2988.016516
580.0,205,2992.679469
1730.0,689,3007.821864
880.0,410,3016.653323
1280.0,1003,3038.531617
1300.0,1105,3063.164372
480.0,283,3069.1065
730.0,259,3074.611286
3920.0,2175,3122.387279
830.0,474,3132.717106
1520.0,1081,3156.498527
780.0,308,3162.990847
1180.0,372,3171.017746
1560.0,700,3186.081873
1600.0,805,3203.949772
1620.0,844,3222.674887
1280.0,1126,3247.652037
1560.0,1545,3281.383846
2550.0,1680,3317.946987
1830.0,772,3336.138242
1440.0,966,3357.889566
1180.0,502,3368.796975
530.0,304,3375.294732
1350.0,719,3390.802025
1080.0,857,3409.300118
980.0,658,3423.557556
1360.0,588,3436.263608
930.0,436,3445.798547
1600.0,541,3457.721801
1590.0,1110,3482.321823
1630.0,818,3499.771865
630.0,313,3506.7768
780.0,446,3516.742354
1300.0,817,3535.07204
930.0,504,3545.96486
2400.0,967,3567.895358
1300.0,809,3585.36174
880.0,509,3596.259461
3730.0,1825,3637.443941
880.0,374,3645.513246
1390.0,871,3664.707234
1340.0,674,3679.539046
780.0,360,3687.080785
1460.0,909,3706.94201
1280.0,973,3728.698623
1280.0,800,3746.418499
980.0,417,3755.741751
1830.0,874,3774.85966
2200.0,643,3788.707028
1180.0,553,3800.674778
1510.0,686,3815.671079
430.0,240,3821.118699
530.0,322,3828.882582
1410.0,1038,3852.427556
1650.0,1034,3875.247692
1320.0,717,3890.808678
1780.0,922,3910.98462
1340.0,512,3922.251903
1030.0,337,3929.904596
1180.0,1016,3951.821142
2080.0,622,3965.200368
930.0,277,3971.183688
1460.0,699,3986.879161
1800.0,1045,4009.639855
1280.0,910,4029.719497
530.0,348,4037.023768
1570.0,673,4051.772722
1810.0,1083,4075.192563
980.0,336,4083.264408
930.0,512,4094.679206
1660.0,1165,4120.460072
1080.0,774,4137.610092
1030.0,554,4150.229301
1620.0,916,4169.85904
1390.0,575,4182.576513
1300.0,683,4198.961276
580.0,287,4205.801611
1180.0,676,4220.749042
1300.0,559,4232.991441
630.0,326,4240.263363
1660.0,1121,4265.268754
930.0,427,4274.308798
980.0,338,4282.112579
1510.0,1564,4316.27371
1800.0,1134,4340.773982
1800.0,1119,4365.61952
2030.0,711,4381.517557
1180.0,1042,4404.626546
2450.0,1283,4432.976199
1180.0,909,4453.341153
1580.0,1313,4482.425538
1180.0,684,4497.315648
630.0,310,4504.053509
1180.0,531,4515.777867
1440.0,854,4534.155671
1780.0,773,4550.822859
880.0,239,4556.281533
1390.0,1100,4582.175183
680.0,371,4589.91528
1650.0,609,4603.51283
1180.0,457,4613.733049
1280.0,748,4629.612098
1540.0,808,4647.504309
1300.0,1258,4674.759947
1300.0,983,4696.290081
980.0,645,4710.871609
1730.0,749,4727.60789
1300.0,687,4742.491492
1440.0,622,4756.010211
1280.0,867,4774.848566
1030.0,516,4786.152888
1350.0,649,4800.747823
1860.0,1067,4824.100501
1320.0,809,4841.733576
1690.0,514,4852.964563
1280.0,968,4873.81166
1080.0,426,4882.809844
1470.0,823,4901.516082
1430.0,1088,4925.473911
1280.0,637,4939.490597
1130.0,725,4955.745117
1460.0,533,4967.133286
1860.0,1013,4989.309462
2400.0,961,5010.758835
680.0,250,5015.977356
1280.0,930,5036.542847
1390.0,646,5051.308945
1470.0,755,5068.336573
1180.0,349,5075.729193
1560.0,490,5086.210647
1680.0,1112,5111.661593
2000.0,1297,5141.406958
1030.0,657,5156.348233
630.0,240,5161.553992
1280.0,563,5173.972754
730.0,251,5179.224984
930.0,425,5188.192892
1080.0,459,5198.513473
680.0,427,5207.884997
1320.0,957,5228.901825
1560.0,755,5245.683532
930.0,316,5252.623386
980.0,425,5261.777069
2050.0,935,5282.131393
1300.0,557,5294.33793
610.0,307,5301.283637
980.0,346,5308.443871
1180.0,706,5324.913759
980.0,332,5331.937026
1080.0,457,5341.984902
2200.0,1131,5366.857962
1520.0,548,5378.860821
1320.0,412,5387.642256
1180.0,1153,5414.195008
1640.0,620,5427.812648
630.0,240,5432.926116
1180.0,429,5442.005209
830.0,564,5454.628333
680.0,393,5463.277334
1660.0,750,5479.480389
1810.0,934,5500.021402
1610.0,926,5521.474181
980.0,356,5529.257574
1730.0,670,5543.656462
1180.0,422,5552.573961
880.0,326,5559.445357
730.0,346,5567.104703
1030.0,485,5577.71247
1030.0,329,5584.795634
980.0,330,5592.080902
1280.0,471,5602.126072
1080.0,378,5610.282248
1370.0,626,5623.628979
1470.0,769,5641.218391
1590.0,971,5662.772745
1030.0,288,5668.794463
1900.0,1058,5692.453943
1460.0,787,5710.203678
1490.0,579,5722.556443
880.0,364,5730.47956
980.0,373,5738.344002
1510.0,724,5753.691206
1300.0,676,5768.959456
880.0,705,5784.247795
1630.0,1559,5818.663092
980.0,416,5827.602715
1280.0,806,5845.596938
1370.0,514,5856.722121
1180.0,464,5866.748616
1180.0,432,5876.14081
580.0,361,5884.199394
780.0,367,5892.491709
1470.0,819,5911.258467
680.0,297,5917.628392
830.0,286,5923.649906
830.0,299,5930.698977
1420.0,806,5948.48138
1030.0,482,5959.04314
1410.0,1525,5992.452844
980.0,339,5999.993737
730.0,280,6005.827132
880.0,347,6013.245466
1740.0,786,6030.379466
1180.0,518,6041.633645
2150.0,653,6055.870161
1640.0,847,6074.426662
1320.0,1092,6098.817519
2080.0,894,6118.592634
580.0,477,6128.712
1370.0,1407,6160.253334
1750.0,879,6179.674374
1080.0,543,6191.83794
680.0,394,6200.63438
1180.0,380,6209.084128
1030.0,623,6222.653452
1280.0,721,6238.059585
1880.0,1008,6260.422841
1410.0,655,6274.525973
1280.0,931,6295.618441
1080.0,373,6303.984185
1850.0,803,6321.508406
930.0,334,6329.809862
2050.0,998,6351.812027
880.0,347,6359.519403
1530.0,611,6373.309693
780.0,425,6382.660904
1350.0,747,6399.358213
730.0,404,6408.328358
1370.0,1008,6430.986488
1080.0,519,6442.657612
480.0,274,6448.495691
1700.0,820,6466.694286
930.0,299,6473.205137
1860.0,875,6493.063377
780.0,324,6499.92355
1080.0,479,6510.529778
1710.0,616,6524.082303
1420.0,757,6540.595249
1180.0,657,6554.656033
1900.0,1154,6579.808337
1180.0,362,6587.448324
1880.0,1039,6610.51915
1280.0,580,6623.879638
1800.0,575,6636.959638
1420.0,750,6653.413584
830.0,370,6661.784648
1080.0,531,6673.404648
1350.0,853,6691.697895
1540.0,900,6711.280379
1560.0,708,6727.627717
1410.0,1287,6756.258241
1080.0,997,6778.272489
1130.0,318,6784.952053
1320.0,798,6802.704703
930.0,701,6818.267498
980.0,339,6825.685431
1460.0,751,6842.356279
880.0,375,6850.989997
1510.0,694,6865.717431
1280.0,662,6880.472463
1530.0,534,6892.733735
1350.0,613,6905.918782
1080.0,502,6916.702926
830.0,386,6925.317973
1560.0,832,6943.551515
880.0,237,6948.582571
780.0,348,6955.841897
1490.0,811,6973.637672
2000.0,867,6993.683202
2050.0,820,7011.839127
980.0,454,7021.557924
2000.0,1024,7045.320992
580.0,237,7050.433931
2380.0,1388,7081.869556
980.0,426,7090.901778
1540.0,624,7104.481214
1830.0,766,7121.835159
1300.0,660,7136.647814
1300.0,753,7153.09221
2050.0,876,7172.079062
1180.0,570,7184.603825
830.0,374,7192.601711
1790.0,1115,7217.155324
880.0,277,7223.09184
1390.0,817,7240.625793
530.0,205,7245.008
380.0,255,7250.700015
1680.0,1212,7277.777967
1640.0,777,7295.52129
860.0,530,7307.130933
1030.0,399,7315.648202
780.0,464,7325.953368
830.0,326,7333.032219
1300.0,867,7352.305277
1540.0,674,7367.038804
630.0,356,7374.672038
1180.0,632,7388.479032
1400.0,1130,7412.834796
580.0,239,7418.299734
560.0,198,7422.970134
1320.0,679,7438.053091
1370.0,572,7450.369015
1470.0,1040,7472.952717
1080.0,329,7480.566505
730.0,382,7488.85063
880.0,362,7496.786213
1740.0,982,7518.56123
1180.0,607,7532.197169
830.0,341,7539.483077
830.0,376,7547.944232
980.0,367,7555.819946
1280.0,503,7567.010628
1030.0,817,7585.101907
530.0,298,7591.642585
1300.0,718,7607.613395
1300.0,978,7628.915909
1850.0,757,7646.350587
1180.0,562,7658.718046
1610.0,704,7674.274737
830.0,341,7681.524986
2250.0,878,7701.251198
1370.0,843,7720.040558
880.0,376,7728.210052
830.0,597,7740.935869
1780.0,738,7756.975586
1300.0,449,7766.721299
1300.0,1033,7789.484621
1030.0,328,7797.147488
1180.0,496,7808.21606
930.0,423,7817.736747
680.0,404,7826.623056
2230.0,668,7840.944149
1320.0,745,7857.294187
1760.0,856,7876.56369
1080.0,755,7892.847734
1280.0,588,7905.722588
580.0,307,7912.17765
630.0,307,7918.754636
2400.0,777,7935.802164
1930.0,789,7952.96837
880.0,274,7958.798231
2380.0,1010,7981.492622
1080.0,540,7993.437902
1530.0,724,8009.548356
1380.0,1123,8033.879379
1080.0,618,8047.289232
1130.0,685,8062.911063
1440.0,980,8084.419772
1180.0,611,8097.951982
1180.0,416,8106.956948
1440.0,552,8119.362889
680.0,273,8125.074585
1080.0,319,8131.886802
1130.0,388,8140.318537
680.0,235,8145.206536
1440.0,1109,8169.696888
1180.0,311,8176.377051
1850.0,766,8193.002318
980.0,413,8201.989002
880.0,428,8211.34738
980.0,574,8223.502027
780.0,639,8237.745634
680.0,395,8246.183203
1780.0,1085,8270.105087
480.0,282,8276.091378
1540.0,748,8292.619756
980.0,527,8303.950562
1540.0,911,8324.444007
1510.0,380,8332.702725
1080.0,409,8341.589603
1850.0,1328,8371.146329
580.0,352,8378.778053
1320.0,530,8390.315097
1450.0,556,8402.376573
930.0,484,8413.06114
2050.0,1452,8444.63237
1080.0,371,8452.968112
530.0,347,8461.181446
1950.0,1258,8489.530663
2350.0,842,8508.135314
1980.0,1036,8531.405833
1440.0,770,8548.744979
330.0,194,8552.74103
880.0,272,8558.553935
2450.0,1011,8580.560041
1080.0,741,8596.729153
1180.0,1100,8621.159188
1360.0,1000,8643.35464
980.0,467,8653.863894
1470.0,486,8664.286437
780.0,387,8672.683277
1650.0,1230,8699.849288
1280.0,737,8716.019031
1540.0,905,8736.379077
680.0,250,8741.505565
1180.0,803,8759.671681
1320.0,435,8768.918389
1740.0,575,8781.615442
630.0,238,8786.87243
730.0,242,8792.203142
730.0,293,8798.524409
1080.0,685,8813.624263
680.0,340,8821.220596
330.0,191,8825.153816
830.0,373,8833.56247
630.0,325,8840.974541
1860.0,859,8859.992462
1280.0,505,8871.469127
1180.0,669,8885.832738
930.0,352,8893.318068
1580.0,1026,8916.368145
1180.0,686,8931.371763
1430.0,1562,8965.300423
1030.0,430,8975.374825
1390.0,519,8987.276309
1620.0,762,9004.075829
830.0,482,9014.502877
630.0,277,9020.275501
930.0,295,9026.504597
1180.0,533,9038.522367
1390.0,969,9060.540477
710.0,272,9066.247335
580.0,247,9071.487554
1880.0,557,9083.621509
1510.0,1143,9109.160396
560.0,491,9119.783195
1030.0,512,9131.118233
1080.0,516,9142.280059
730.0,376,9150.266896
1130.0,440,9160.242053
1080.0,334,9167.212646
1280.0,587,9179.987468
630.0,336,9186.982942
1180.0,937,9208.46236
1080.0,516,9219.870952
1750.0,835,9238.501155
980.0,359,9246.202413
480.0,288,9252.249109
830.0,295,9258.421965
830.0,277,9264.357667
980.0,287,9270.631034
930.0,525,9282.114936
1280.0,810,9300.566625
1370.0,814,9319.232567
1280.0,1014,9341.971668
830.0,685,9356.74516
880.0,384,9365.436769
880.0,414,9374.792601
1280.0,477,9385.316464
1130.0,590,9398.170202
1300.0,562,9410.174307
1580.0,1094,9434.472865
2130.0,1511,9467.765862
1030.0,815,9485.390794
980.0,320,9492.080816
580.0,332,9499.275651
1460.0,737,9515.468668
1180.0,1127,9540.258649
1730.0,1573,9574.718318
1480.0,929,9595.568205
1350.0,696,9611.055975
1080.0,396,9619.400006
1180.0,833,9637.46229
1280.0,1088,9661.843749
780.0,413,9670.953862
1300.0,796,9688.646425
1630.0,1198,9714.858264
1300.0,567,9727.657746
1500.0,531,9739.174055
1800.0,908,9758.624815
1180.0,888,9779.132993
530.0,314,9785.707528
1180.0,381,9793.839216
1180.0,848,9812.40164
880.0,350,9819.80153
1460.0,594,9832.92539
1300.0,711,9848.561413
980.0,604,9861.966712
1780.0,1137,9886.784387
880.0,309,9893.502675
1980.0,1204,9920.583879
2400.0,1569,9955.141814
1030.0,407,9963.9418
1030.0,483,9974.917692
630.0,262,9980.530324
2150.0,1171,10006.00119
1700.0,955,10026.975673
1280.0,816,10045.287298
1540.0,806,10064.330161
1300.0,894,10083.75649
880.0,358,10092.134557
1470.0,992,10113.435643
1470.0,559,10126.468435
1650.0,1167,10152.532736
830.0,543,10164.285684
830.0,287,10170.291643
1180.0,857,10188.878601
730.0,293,10195.231875
980.0,400,10203.730921
1300.0,538,10215.93153
1900.0,1221,10243.820473
880.0,340,10251.657701
630.0,501,10263.003087
1860.0,790,10280.118363
1280.0,602,10292.998755
1700.0,898,10312.977835
1440.0,677,10327.858497
2100.0,1567,10362.498666
1470.0,499,10373.215149
1180.0,385,10381.704829
2000.0,879,10400.71339
1320.0,550,10412.545751
730.0,370,10421.205053
1780.0,981,10442.549608
1560.0,794,10460.033764
980.0,383,10468.541444
930.0,417,10477.617698
980.0,508,10489.214364
730.0,349,10496.699878
930.0,468,10507.259333
1280.0,780,10524.118112
880.0,356,10531.701876
1280.0,629,10545.939184
1730.0,657,10560.269897
930.0,385,10568.574584
880.0,427,10577.665309
680.0,307,10584.412463
2400.0,1022,10607.779038
1300.0,968,10630.372922
830.0,306,10637.525667
1030.0,543,10649.804477
1720.0,655,10664.20883
1670.0,476,10674.950441
1580.0,1019,10697.862494
830.0,281,10704.072746
1410.0,651,10718.077686
1540.0,1184,10744.211747
1660.0,672,10758.992352
1500.0,936,10779.921322
1180.0,900,10799.401078
1080.0,467,10810.394906
1830.0,1224,10837.781664
1320.0,554,10850.168005
1630.0,576,10863.344931
1860.0,747,10880.006581
2000.0,841,10898.425672
1460.0,1117,10923.613526
830.0,306,10930.181456
510.0,242,10935.399201
1300.0,648,10949.62142
1300.0,939,10970.634931
880.0,345,10978.283708
780.0,230,10982.887599
530.0,317,10989.777171
1300.0,1026,11012.661524
980.0,402,11021.262178
980.0,409,11030.066179
1850.0,851,11048.396976
1700.0,1070,11072.890268
1560.0,1021,11096.049409
1530.0,881,11115.24662
1560.0,1056,11139.584731
1180.0,1007,11163.131011
680.0,357,11170.847873
880.0,399,11179.248736
1780.0,614,11192.951085
2500.0,966,11214.210868
730.0,281,11220.157269
830.0,501,11231.580403
1460.0,1206,11258.503713
980.0,561,11271.71482
2110.0,1068,11296.64609
1180.0,726,11312.719703
980.0,455,11322.331166
1350.0,571,11334.457714
830.0,393,11343.0464
1130.0,601,11356.660373
930.0,470,11366.746469
1750.0,825,11384.608097
780.0,333,11392.416021
1370.0,943,11412.741378
1030.0,284,11418.695093
1080.0,493,11429.760242
2010.0,1328,11459.199935
1180.0,394,11468.205115
1840.0,748,11485.599065
1180.0,515,11497.019463
1390.0,580,11509.898742
630.0,275,11515.787595
980.0,588,11529.511955
1700.0,872,11549.002044
930.0,357,11557.126219
1370.0,1162,11583.076228
1080.0,420,11592.160204
930.0,484,11602.618313
1080.0,559,11614.468974
1780.0,613,11628.927856
1280.0,692,11643.954365
630.0,329,11651.435686
1540.0,673,11666.173244
1080.0,501,11677.694782
1080.0,416,11686.955443
780.0,348,11694.803396
880.0,366,11702.501437
1450.0,731,11718.935438
1080.0,389,11727.523321
680.0,312,11734.265073
730.0,325,11741.522639
1280.0,363,11749.118298
1080.0,539,11761.479694
1180.0,323,11768.305043
1610.0,699,11783.491243
1300.0,621,11797.194607
1420.0,904,11817.351939
1440.0,435,11826.758171
980.0,393,11835.610979
1510.0,605,11849.50309
1180.0,498,11860.259333
1080.0,497,11871.117176
1320.0,1006,11892.786839
1390.0,714,11908.634855
1280.0,1146,11933.831811
1810.0,686,11949.451295
1280.0,956,11969.990351
1880.0,720,11985.719684
1300.0,816,12004.820068
1080.0,469,12015.463883
780.0,360,12023.204147
1520.0,840,12041.361795
580.0,194,12045.694912
1420.0,701,12060.929136
2200.0,1078,12084.581074
1280.0,598,12097.473624
1130.0,416,12106.624407
1180.0,564,12118.927812
730.0,232,12123.930431
1720.0,1077,12148.075345
580.0,237,12153.368095
1180.0,534,12164.949673
1080.0,576,12178.288137
1280.0,542,12190.213814
980.0,296,12196.306283
1540.0,572,12208.502306
1280.0,961,12229.720103
1280.0,772,12246.451363
980.0,324,12253.115292
1300.0,653,12267.749289
1520.0,786,12284.694825
980.0,408,12293.723316
1540.0,831,12312.461506
1630.0,926,12332.84938
1790.0,710,12348.201927
880.0,355,12356.507376
1550.0,1087,12380.95638
980.0,483,12391.002693
780.0,283,12396.971284
1180.0,382,12405.334966
1490.0,455,12415.640887
1030.0,373,12424.305866
1560.0,973,12445.279623
880.0,382,12453.478213
1800.0,952,12474.312059
580.0,341,12481.714804
1420.0,638,12495.506068
1440.0,650,12509.823433
930.0,313,12516.612259
1760.0,536,12528.458977
1080.0,294,12534.895748
2900.0,1199,12561.981258
1710.0,895,12581.322473
1460.0,476,12591.574758
1300.0,1057,12614.801962
1630.0,765,12631.303838
1080.0,330,12638.489813
930.0,393,12647.190663
930.0,380,12655.669326
1280.0,871,12674.503052
1080.0,406,12683.206992
1420.0,833,12702.232601
1410.0,513,12713.889273
580.0,241,12719.509239
1280.0,594,12733.03373
2000.0,1081,12757.287604
1410.0,599,12770.047788
1180.0,413,12778.838151
1180.0,510,12789.89856
1690.0,675,12804.763495
1300.0,688,12820.161604
1180.0,416,12829.244984
2100.0,903,12849.941047
1530.0,895,12870.944152
1610.0,760,12887.836276
1370.0,597,12900.944318
880.0,503,12912.092171
1080.0,350,12919.566525
1080.0,475,12929.417166
1460.0,1243,12956.739686
1590.0,580,12969.402725
1780.0,947,12990.454116
1610.0,1074,13014.868735
1710.0,795,13032.523147
1340.0,723,13048.844989
1300.0,931,13069.556147
1280.0,1415,13101.691885
980.0,529,13113.612246
480.0,253,13119.063855
780.0,249,13124.302021
1680.0,827,13142.174024
1660.0,781,13159.548233
2100.0,962,13180.656282
1080.0,471,13191.161696
780.0,240,13196.263114
1280.0,506,13207.18424
1420.0,754,13223.183989
1390.0,644,13237.826342
1590.0,1424,13269.005734
730.0,423,13278.292305
730.0,255,13283.849036
880.0,379,13291.918537
1510.0,1006,13314.014172
1490.0,1360,13345.313523
880.0,411,13354.161676
530.0,231,13359.059098
1780.0,593,13371.684838
880.0,400,13380.437927
1440.0,957,13401.873408
980.0,454,13411.542663
1300.0,1039,13434.497747
1610.0,769,13452.130583
1420.0,803,13470.251229
1440.0,630,13484.045607
1580.0,990,13505.614808
1490.0,889,13525.013139
1130.0,429,13534.301794
1710.0,581,13546.724327
1300.0,903,13567.031329
1300.0,657,13581.999366
1390.0,802,13600.281964
1420.0,774,13617.657636
1080.0,477,13627.872858
1180.0,663,13643.350351
2050.0,1168,13668.794399
630.0,240,13674.301668
1440.0,1639,13711.655396
1280.0,885,13731.158016
980.0,405,13739.948201
1860.0,669,13754.846117
830.0,274,13760.770567
1410.0,1184,13786.778935
1900.0,712,13802.046675
1180.0,672,13817.108615
1490.0,467,13827.193928
680.0,326,13834.430991
1350.0,1111,13859.710227
1420.0,645,13874.395756
1660.0,826,13892.483024
830.0,236,13897.695601
1520.0,859,13916.69742
1950.0,773,13933.966419
1350.0,1074,13957.856968
1180.0,488,13968.755305
1430.0,755,13985.149518
1030.0,469,13995.668076
3220.0,1417,14027.841609
1080.0,529,14039.208177
880.0,372,14047.119799
1540.0,679,14062.205658
1300.0,686,14077.618903
2080.0,685,14093.008152
1730.0,1009,14114.965572
1560.0,963,14136.814431
730.0,445,14146.507512
1810.0,592,14159.452624
730.0,341,14166.798107
1440.0,770,14183.525382
730.0,371,14191.175745
1640.0,1337,14220.553488
1400.0,753,14236.918948
1640.0,971,14258.339674
980.0,452,14267.971801
1300.0,776,14285.243543
1800.0,874,14304.851803
1280.0,795,14321.987144
1670.0,1204,14348.629323
1590.0,991,14370.406066
1640.0,747,14386.469967
1130.0,431,14395.758157
1320.0,489,14406.798272
1280.0,600,14420.730011
1300.0,590,14433.327772
980.0,679,14448.454092
1710.0,550,14461.091288
1610.0,805,14478.351312
1460.0,851,14496.610193
1350.0,665,14511.362235
580.0,286,14518.067563
930.0,426,14527.178829
1080.0,412,14536.032448
880.0,401,14544.413873
1080.0,368,14552.220059
1590.0,1041,14575.395594
1080.0,430,14584.749652
1680.0,938,14604.93992
780.0,311,14611.679162
1460.0,980,14633.443124
1390.0,1420,14664.99355
1410.0,441,14675.364156
1930.0,1173,14701.173617
1080.0,424,14710.201989
1080.0,417,14719.852797
1490.0,862,14739.123993
580.0,389,14747.688304
1560.0,651,14761.743015
1410.0,969,14783.535522
780.0,282,14790.245586
2180.0,2260,14841.786059
1180.0,946,14863.021082
1280.0,1081,14886.86343
1280.0,1000,14908.507345
1440.0,1054,14932.236047
1930.0,1198,14959.032618
930.0,395,14967.372647
1390.0,1053,14990.478203
1180.0,465,15000.522381
1370.0,947,15021.420565
1080.0,386,15030.236555
1980.0,597,15042.864215
780.0,420,15051.957013
1610.0,824,15070.092191
730.0,334,15077.044014
1670.0,664,15091.781015
1560.0,1028,15115.214496
980.0,360,15122.859668
1460.0,1026,15146.311858
680.0,242,15151.683289
980.0,277,15157.665965
680.0,469,15167.627508
1280.0,506,15178.707088
780.0,237,15183.716275
1590.0,825,15201.914185
1950.0,1008,15224.882995
1080.0,484,15236.041361
1300.0,1426,15267.665034
1300.0,682,15282.361896
980.0,415,15291.140771
1300.0,954,15312.654817
1080.0,717,15328.486845
1340.0,1038,15351.995046
680.0,203,15356.361549
1350.0,1595,15391.147705
1080.0,412,15399.849672
1280.0,1489,15433.358577
1980.0,1108,15457.599043
1080.0,628,15471.458607
980.0,386,15479.781602
1180.0,680,15494.353662
730.0,312,15501.629853
1570.0,904,15522.0505
1460.0,815,15539.733391
1280.0,1108,15564.806723
1280.0,590,15577.566843
1280.0,764,15594.854439
1280.0,1126,15619.335486
1520.0,1092,15643.361939
2030.0,865,15663.708782
880.0,360,15671.800303
1130.0,572,15683.975077
1510.0,1417,15714.719151
1180.0,576,15727.142088
980.0,338,15734.381445
1750.0,612,15747.968323
1080.0,315,15754.689965
980.0,317,15761.458684
1410.0,499,15772.544127
1420.0,787,15789.810936
1440.0,599,15803.226809
1660.0,899,15822.786878
1280.0,697,15838.11886
1830.0,719,15854.131498
1950.0,735,15870.24269
980.0,542,15881.85192
730.0,290,15888.195075
1080.0,389,15896.695154
1300.0,1277,15924.772291
1080.0,432,15934.424379
930.0,614,15947.607451
880.0,360,15955.353867
3100.0,1571,15990.434822
1080.0,339,15997.919834
1900.0,1188,16023.925546
1080.0,397,16032.376319
980.0,413,16041.188521
1320.0,1312,16069.897416
1030.0,369,16077.748448
1560.0,749,16094.18734
1620.0,791,16111.377021
980.0,462,16121.474593
1300.0,873,16140.782661
1490.0,787,16158.861477
630.0,302,16165.682815
1080.0,506,16176.989288
980.0,342,16184.177519
930.0,567,16196.826935
980.0,297,16203.499608
780.0,206,16207.646884
1470.0,493,16218.335132
1420.0,914,16238.186824
1300.0,454,16248.058827
2450.0,1100,16272.276845
1580.0,844,16291.000775
1030.0,509,16301.713471
1740.0,1269,16329.597661
1980.0,742,16345.696223
1440.0,819,16363.91488
1180.0,506,16375.474823
1610.0,1581,16411.131153
1710.0,989,16432.40337
1350.0,618,16446.131537
1900.0,1042,16468.74825
1180.0,478,16480.016943
1320.0,960,16502.452973
1540.0,653,16516.578455
1080.0,393,16525.218866
1300.0,757,16541.460161
1680.0,1187,16567.960888
1340.0,882,16587.954852
2550.0,853,16606.114231
880.0,470,16616.404331
2000.0,946,16636.720156
1280.0,959,16657.955835
1530.0,961,16678.691462
2200.0,1384,16709.511626
2200.0,789,16726.807912
1080.0,335,16734.146605
1910.0,493,16745.030713
1300.0,704,16760.44302
1180.0,435,16769.554247
1440.0,671,16784.40686
1280.0,673,16799.113672
680.0,293,16805.435753
1370.0,580,16818.419004
1080.0,619,16832.344992
1280.0,785,16850.213928
1930.0,618,16863.490986
1830.0,824,16881.865069
980.0,295,16888.017442
1340.0,630,16901.685442
1380.0,639,16915.39533
1560.0,585,16928.339124
780.0,503,16939.540616
1470.0,1418,16970.196345
930.0,346,16977.925671
480.0,246,16982.956636
980.0,491,16994.546061
780.0,380,17002.88419
1130.0,319,17009.690435
1900.0,445,17019.082937
1950.0,1038,17041.826626
1300.0,633,17055.849134
1510.0,863,17075.464428
1460.0,754,17092.218992
1280.0,725,17108.447632
1320.0,1125,17133.418431
1080.0,418,17142.325048
880.0,375,17150.628965
730.0,234,17155.329663
780.0,480,17165.773027
1390.0,519,17176.881799
560.0,344,17184.729213
1320.0,649,17199.136291
1080.0,387,17207.149754
1370.0,1098,17231.678364
780.0,396,17240.396537
1390.0,540,17252.446307
1080.0,312,17259.139776
1420.0,828,17277.859591
1450.0,532,17289.299022
780.0,307,17295.730379
1610.0,788,17313.135684
1760.0,1061,17336.372224
1180.0,521,17347.624769
1420.0,1075,17371.822093
1960.0,1025,17394.724795
1540.0,1271,17422.702424
1180.0,387,17431.113854
1370.0,1030,17454.29502
1080.0,578,17466.855702
1520.0,505,17477.715836
1410.0,608,17490.961604
1710.0,844,17510.289676
1630.0,1270,17538.791389
1280.0,521,17549.854464
880.0,316,17556.347776
1080.0,864,17576.601105
1180.0,613,17589.47359
1280.0,757,17605.806521
1780.0,1008,17629.106791
2000.0,1268,17656.959835
1320.0,480,17667.346486
1320.0,486,17678.038802
1300.0,1074,17701.936233
880.0,404,17710.836635
1280.0,534,17722.702194
1280.0,722,17738.523184
1410.0,926,17759.289561
1180.0,339,17766.966991
2150.0,1433,17798.097158
1820.0,1156,17823.791041
3100.0,1705,17862.28548
1180.0,1025,17884.930587
930.0,202,17889.227614
1340.0,840,17907.327074
1280.0,905,17927.428818
1440.0,912,17947.217073
1630.0,787,17965.019848
1080.0,434,17974.930819
1030.0,260,17980.684422
730.0,257,17986.016528
1180.0,609,17999.848112
1180.0,424,18009.104564
1540.0,609,18023.194199
580.0,232,18028.295572
1180.0,360,18035.740324
780.0,373,18043.656043
1080.0,542,18055.794869
530.0,232,18060.844064
1180.0,415,18069.928373
1580.0,674,18085.522166
1080.0,375,18093.357343
530.0,348,18100.805901
1540.0,788,18118.249633
880.0,228,18123.188161
1300.0,409,18131.880791
1080.0,422,18141.32804
880.0,426,18150.855535
2600.0,935,18172.617529
980.0,319,18179.313479
1180.0,476,18189.74578
1080.0,416,18199.042149
1390.0,1251,18226.115025
1340.0,709,18241.96996
1350.0,1134,18267.332833
1300.0,706,18282.637138
2100.0,898,18302.258086
1300.0,858,18320.883728
1630.0,1334,18352.171545
1180.0,1094,18375.920424
680.0,366,18384.489103
1280.0,1060,18408.22646
1180.0,1172,18434.148401
1300.0,719,18449.693313
780.0,237,18454.72687
1030.0,436,18464.054853
1710.0,1162,18489.887957
1420.0,884,18509.144067
1180.0,775,18526.374156
1460.0,661,18540.835728
1440.0,793,18557.996141
1390.0,592,18570.984742
930.0,330,18577.871745
780.0,236,18582.799372
830.0,360,18590.530356
980.0,323,18597.533161
1680.0,855,18616.736192
1300.0,549,18628.4357
680.0,278,18634.202792
430.0,232,18639.119939
2030.0,912,18659.545373
1180.0,522,18670.746397
930.0,388,18679.295688
1700.0,639,18693.543777
1180.0,434,18704.076076
2900.0,1135,18728.909161
1300.0,411,18737.659341
2600.0,785,18754.899284
1370.0,971,18776.054733
1300.0,739,18792.119022
1370.0,626,18805.75583
1420.0,1192,18831.997349
1350.0,662,18846.602716
880.0,463,18857.054919
1300.0,370,18864.876615
880.0,347,18872.421329
1280.0,529,18883.587909
1460.0,792,18900.850972
1280.0,1002,18922.663036
1130.0,553,18934.937298
1780.0,1183,18960.506539
1690.0,1089,18985.484769
1280.0,668,18999.765177
1730.0,707,19015.197926
1390.0,397,19024.298633
1370.0,1180,19049.968216
1490.0,604,19063.264735
780.0,456,19074.02052
1180.0,934,19094.590729
1350.0,653,19109.441223
1280.0,840,19128.445043
1580.0,803,19146.53611
2000.0,916,19166.520283
1400.0,652,19181.245187
1300.0,485,19191.548128
1320.0,435,19200.982296
1080.0,564,19213.383259
1580.0,748,19229.944985
1600.0,714,19245.24488
1280.0,570,19257.428501
1430.0,1019,19279.773463
1300.0,742,19296.085716
980.0,376,19304.614158
1180.0,499,19316.029161
780.0,376,19323.957374
1080.0,330,19330.771077
1180.0,494,19341.374783
830.0,269,19347.239272
1300.0,601,19360.173378
1420.0,799,19378.035258
1780.0,992,19400.175505
1350.0,559,19412.250728
980.0,536,19424.052161
1470.0,539,19435.850747
1280.0,731,19451.300595
1510.0,742,19468.540205
1610.0,813,19486.876231
980.0,473,19498.04748
1370.0,681,19513.117316
1830.0,788,19530.341465
680.0,211,19534.869993
530.0,233,19539.854365
1180.0,531,19551.445057
980.0,558,19563.384151
1900.0,1109,19587.776576
2400.0,1372,19618.048277
1730.0,1320,19647.450264
1430.0,568,19660.54615
1030.0,358,19668.536259
1080.0,343,19676.004863
1880.0,1548,19710.198101
1300.0,973,19731.545998
1540.0,673,19746.089246
1440.0,1172,19772.251585
1350.0,853,19791.487487
1080.0,379,19800.156763
1280.0,465,19810.242689
1080.0,677,19824.737199
1180.0,523,19836.267349
1300.0,478,19846.801257
980.0,379,19855.671055
930.0,454,19865.537033
1180.0,498,19876.427256
1490.0,625,19890.134921
1280.0,520,19901.815791
1740.0,728,19917.759485
1280.0,854,19937.447931
930.0,324,19944.411156
1280.0,358,19952.441499
1030.0,388,19960.780069
1530.0,804,19978.214676
1030.0,572,19990.36686
1710.0,1190,20018.237198
1080.0,427,20027.637315
1320.0,699,20043.079106
1180.0,757,20059.674247
1320.0,930,20080.217117
980.0,551,20092.099476
1280.0,993,20113.697061
930.0,414,20122.828916
1460.0,884,20142.525382
1300.0,539,20154.868877
2600.0,1078,20178.820987
1390.0,602,20191.830579
880.0,246,20197.487875
1440.0,937,20218.25124
1350.0,589,20231.278103
1080.0,457,20241.425994
830.0,251,20246.700811
1780.0,609,20260.162421
2000.0,925,20281.355297
1180.0,513,20293.148348
1480.0,633,20307.115385
1610.0,1003,20329.121499
1650.0,1591,20365.347962
1030.0,401,20373.909491
1610.0,906,20393.898124
1980.0,780,20410.993732
1180.0,544,20422.53027
1300.0,1782,20461.722803
780.0,277,20467.560369
1180.0,535,20479.384523
980.0,467,20489.920717
980.0,418,20499.176815
1710.0,1462,20530.944156
1080.0,597,20544.033133
1030.0,521,20555.449073
1640.0,860,20574.084797
1900.0,945,20595.38766
2100.0,1452,20627.701971
880.0,413,20636.610711
1880.0,832,20655.501563
1180.0,646,20670.320254
1030.0,363,20678.396303
2250.0,1219,20705.449212
1500.0,613,20718.636908
1560.0,1446,20750.927799
930.0,384,20758.932991
1280.0,1056,20783.307881
1530.0,815,20801.626991
1360.0,590,20814.105651
1690.0,470,20824.231548
1080.0,546,20836.595152
1560.0,651,20850.720155
1030.0,319,20857.611216
1180.0,819,20875.199703
1530.0,819,20893.08157
1300.0,885,20912.571587
1360.0,724,20928.263008
1590.0,656,20942.310547
1300.0,1633,20979.317867
2030.0,1115,21004.757152
930.0,358,21012.659169
1530.0,534,21024.560448
2000.0,1199,21052.207284
1180.0,503,21064.176358
1080.0,506,21075.078435
1540.0,1044,21098.141972
1080.0,419,21107.101786
680.0,379,21115.149994
930.0,299,21121.396748
1300.0,790,21139.05607
1340.0,626,21153.421913
1370.0,770,21170.017819
1480.0,1254,21198.670443
880.0,378,21206.994113
1460.0,1521,21240.384434
1300.0,654,21254.55116
1080.0,453,21264.850219
1130.0,409,21273.643146
1320.0,675,21288.032766
1300.0,784,21304.920941
1460.0,743,21321.309274
1280.0,1338,21351.315139
780.0,370,21359.683541
1180.0,467,21370.00972
2600.0,1236,21398.097891
1180.0,807,21415.538953
1280.0,341,21422.977555
1360.0,639,21437.041249
2500.0,1172,21462.802135
1410.0,1050,21485.718545
1180.0,697,21500.938982
2350.0,964,21522.618781
1030.0,392,21530.922457
1960.0,1315,21562.269581
1300.0,505,21573.084139
1280.0,661,21587.382951
1180.0,732,21603.611888
1560.0,768,21620.034026
2250.0,893,21640.704225
1080.0,498,21651.355635
1300.0,505,21662.156162
1580.0,612,21675.961716
1690.0,533,21687.464932
1280.0,894,21707.505531
1280.0,488,21717.885394
1520.0,539,21730.05191
1370.0,676,21744.580896
930.0,353,21751.957037
830.0,278,21757.857019
1730.0,639,21771.769085
1980.0,1341,21801.700269
1480.0,647,21815.648027
1300.0,683,21830.396654
1680.0,827,21848.624721
1180.0,984,21870.232072
1490.0,1144,21896.612603
1660.0,1327,21925.529772
880.0,317,21933.367018
2500.0,1085,21957.549944
1630.0,756,21974.122844
880.0,293,21980.737427
1390.0,618,21995.110092
1320.0,942,22015.44302
1630.0,1041,22038.52889
1490.0,1866,22078.893326
2230.0,804,22096.88484
780.0,270,22102.597644
1610.0,947,22123.159014
1710.0,631,22136.741431
2400.0,989,22158.383657
1690.0,1058,22182.846322
1780.0,1263,22210.467174
1790.0,773,22227.401003
1440.0,661,22241.687267
1490.0,560,22253.782792
1540.0,1052,22277.110659
1280.0,919,22298.173754
1180.0,571,22310.367405
2050.0,910,22330.179737
1420.0,844,22348.568018
3100.0,1792,22388.057968
1410.0,591,22400.674992
1460.0,734,22416.854498
1180.0,336,22424.077461
1470.0,557,22436.463938
1590.0,863,22455.204906
1280.0,991,22476.663215
1300.0,1018,22499.111702
1560.0,1290,22527.503476
1480.0,606,22540.987267
1300.0,883,22560.247043
1370.0,507,22571.294707
1830.0,430,22581.231194
3100.0,1744,22619.36375
1280.0,990,22641.671297
1080.0,466,22651.530615
2350.0,1539,22685.568117
1320.0,642,22699.673153
1080.0,523,22711.51933
1180.0,613,22724.963858
1180.0,767,22741.597915
1080.0,899,22760.970678
1280.0,660,22775.614857
1180.0,393,22784.293601
1440.0,583,22796.922649
1760.0,1279,22825.342282
1350.0,1434,22857.318323
1580.0,1221,22884.638008
1080.0,607,22897.635392
1300.0,650,22911.818075
1750.0,675,22926.857821
1180.0,625,22940.267316
1710.0,1224,22967.835567
1340.0,813,22985.699588
1340.0,1092,23009.755363
1430.0,1439,23041.801747
1410.0,540,23053.345949
1560.0,1121,23077.880451
1520.0,581,23090.400177
1350.0,1284,23118.127954
2180.0,1282,23147.190237
1280.0,417,23156.470514
1830.0,1018,23178.428233
930.0,431,23187.549499
1280.0,876,23207.142095
1780.0,788,23224.277077
1780.0,898,23244.118031
1280.0,741,23260.953773
2230.0,1081,23284.953659
1080.0,441,23294.276223
1080.0,392,23302.93885
1280.0,486,23313.558059
1300.0,685,23328.244278
2100.0,1259,23357.57852
1080.0,392,23366.325387
1880.0,1121,23391.083348
1280.0,673,23405.905881
1280.0,1239,23433.101027
1030.0,395,23441.516646
1410.0,1001,23463.346884
1420.0,1165,23490.127749
1370.0,854,23509.127244
1580.0,834,23527.511225
1280.0,753,23543.726459
930.0,296,23550.120936
1660.0,720,23566.741001
1560.0,953,23587.704361
1520.0,672,23602.113992
1640.0,855,23621.233861
1440.0,635,23635.244176
1080.0,331,23642.157578
1180.0,558,23654.56794
1710.0,1446,23686.204752
1360.0,654,23700.411247
1080.0,470,23710.622419
1810.0,582,23724.903111
580.0,231,23730.162
1490.0,542,23741.758363
1280.0,367,23749.345435
1680.0,551,23761.27952
1080.0,364,23769.035718
1280.0,1686,23806.706567
730.0,236,23811.526701
1340.0,1318,23840.730413
1080.0,467,23850.58162
1390.0,1154,23875.765662
1180.0,471,23886.573085
1540.0,824,23905.033316
2200.0,1276,23933.90803
1180.0,537,23945.25486
1180.0,912,23965.639941
1370.0,957,23986.54161
1350.0,938,24006.944073
1180.0,741,24023.105598
830.0,231,24028.055058
1180.0,916,24047.989634
3270.0,1514,24082.515398
1470.0,620,24096.220696
1320.0,1128,24120.794603
1670.0,537,24133.084424
1280.0,577,24145.734972
1180.0,282,24151.712086
2600.0,1112,24176.484366
1610.0,628,24189.952189
1180.0,570,24202.997454
1470.0,1134,24228.111762
1080.0,699,24243.408187
1370.0,1187,24269.168399
980.0,404,24278.076612
1560.0,927,24298.483973
1180.0,414,24307.345214
2650.0,1478,24340.394704
1340.0,836,24358.531046
1180.0,430,24368.619122
1030.0,349,24375.999434
1600.0,786,24393.379941
2550.0,997,24416.278527
1850.0,850,24435.04892
3000.0,912,24454.721248
1500.0,1256,24482.555006
1390.0,1088,24507.087637
930.0,365,24514.842453
1370.0,619,24527.922106
1560.0,1164,24554.180699
1880.0,803,24572.31383
1470.0,619,24585.55044
1450.0,792,24603.121075
1860.0,730,24619.400291
1300.0,660,24634.200154
1610.0,736,24651.111374
1500.0,816,24669.214579
1180.0,518,24680.378331
1550.0,1023,24703.163759
1180.0,569,24715.464767
780.0,325,24722.729113
1280.0,1258,24749.999551
1950.0,688,24765.695381
1780.0,875,24784.744934
1080.0,544,24797.345673
1390.0,1110,24822.054401
1180.0,452,24832.250405
930.0,280,24838.086198
1440.0,707,24853.267721
1080.0,403,24862.356594
980.0,473,24872.683246
1280.0,527,24883.822157
1540.0,725,24899.722956
1300.0,587,24912.685863
1410.0,796,24930.06352
830.0,239,24935.116364
1370.0,599,24947.922293
1460.0,534,24959.908299
2900.0,1194,24987.111404
1780.0,433,24996.414337
980.0,326,25003.543901
1280.0,407,25012.218649
980.0,368,25019.871999
1490.0,711,25035.770045
1080.0,528,25047.541644
2250.0,1548,25081.78043
1180.0,494,25092.370971
1580.0,964,25113.529501
1460.0,942,25134.409236
1460.0,536,25147.332361
1610.0,526,25158.554529
1180.0,376,25166.332053
1500.0,599,25179.63596
1300.0,589,25192.909691
1730.0,910,25213.551382
980.0,328,25220.851349
930.0,241,25226.072415
1180.0,735,25241.919604
1660.0,729,25258.10364
1030.0,518,25269.47761
1180.0,490,25280.279162
1350.0,735,25296.706856
1880.0,1022,25319.310087
880.0,401,25327.955502
1880.0,1166,25354.534809
1570.0,582,25367.754766
1600.0,909,25387.581739
1730.0,1642,25423.801335
1860.0,708,25439.574064
1420.0,1182,25465.378953
1180.0,486,25475.800081
1980.0,1379,25507.107278
1540.0,1042,25529.800083
1730.0,1428,25561.355036
1180.0,550,25573.096039
1280.0,424,25582.295523
1610.0,998,25604.383369
1080.0,384,25612.867331
1300.0,849,25631.096065
930.0,413,25640.031446
2250.0,685,25654.721725
2030.0,641,25668.686625
1300.0,445,25678.79866
780.0,372,25687.172179
1300.0,828,25705.135603
1370.0,964,25726.910595
1320.0,737,25742.659282
1680.0,955,25763.626709
1300.0,600,25776.44044
2350.0,1220,25804.018571
1390.0,1086,25827.858118
1280.0,1275,25856.44486
1710.0,613,25870.414006
1080.0,361,25878.078823
1460.0,842,25896.018987
1440.0,500,25906.856213
1640.0,700,25922.228639
2080.0,940,25943.506165
930.0,499,25954.048482
1410.0,960,25974.968307
930.0,317,25981.80575
1420.0,523,25993.093356
1520.0,507,26004.176606
1460.0,660,26018.55832
1510.0,1208,26045.052214
1370.0,640,26058.82583
1030.0,373,26066.94521
1300.0,540,26078.662116
1370.0,709,26094.04704
1030.0,370,26102.00727
1300.0,562,26114.007315
1470.0,609,26127.363101
1710.0,1076,26151.239287
1690.0,866,26170.526412
1390.0,731,26186.03583
1440.0,1337,26216.212633
1540.0,605,26229.685728
1980.0,753,26246.965869
1300.0,564,26259.536981
1180.0,753,26275.938565
1460.0,690,26290.830839
1370.0,882,26310.151478
1590.0,705,26325.824522
980.0,504,26336.738546
1670.0,671,26351.842997
1900.0,839,26370.436271
1280.0,455,26380.722363
1510.0,775,26397.81006
1030.0,332,26404.978575
2100.0,1250,26433.05607
1300.0,976,26454.01446
1660.0,1253,26481.56624
1680.0,832,26499.737732
1490.0,505,26511.1578
1080.0,324,26518.680934
1080.0,375,26526.75682
1530.0,545,26538.480379
1180.0,677,26552.962011
1300.0,594,26565.883585
1180.0,585,26578.626486
1940.0,1174,26604.351791
1610.0,794,26621.93049
1180.0,239,26627.151085
2100.0,661,26641.763877
1420.0,496,26653.215107
2800.0,902,26673.485383
1080.0,416,26682.413105
1280.0,927,26702.478086
1780.0,524,26714.02065
1560.0,561,26725.982111
1320.0,1000,26747.83873
1320.0,643,26762.038697
1490.0,937,26783.590791
1180.0,608,26797.876152
1850.0,975,26819.617998
1350.0,673,26835.32585
1490.0,809,26853.090413
1830.0,624,26866.459426
1390.0,859,26885.085606
1390.0,900,26905.487619
1980.0,1018,26929.351518
830.0,316,26936.170445
1180.0,589,26949.012424
1180.0,330,26955.90221
2030.0,1067,26980.7946
1520.0,532,26992.248327
1300.0,939,27012.366304
880.0,328,27019.731393
1280.0,584,27032.233907
2900.0,1284,27060.979919
1280.0,650,27075.496322
1130.0,443,27085.169758
1640.0,873,27104.466897
1560.0,1017,27127.181483
1860.0,1620,27162.993121
1490.0,710,27178.54389
1080.0,532,27190.038466
1410.0,834,27207.980683
2250.0,1094,27231.777225
1860.0,524,27243.479222
1530.0,668,27257.752976
1180.0,464,27267.743282
1370.0,647,27282.035835
1130.0,511,27292.765693
1530.0,590,27305.847389
1930.0,1151,27331.149068
1390.0,681,27345.837097
1080.0,306,27352.420657
1350.0,896,27372.867569
1300.0,726,27389.233853
1730.0,633,27403.352504
1080.0,543,27415.913888
1620.0,762,27432.776178
1180.0,431,27441.873278
1370.0,994,27463.871714
1560.0,626,27477.603336
1180.0,973,27498.639339
1830.0,688,27513.722352
1780.0,816,27531.751
1280.0,603,27544.795645
1030.0,356,27552.74474
980.0,424,27561.930614
1300.0,723,27578.093533
1730.0,856,27596.416661
1180.0,459,27606.421012
1320.0,642,27620.672374
1660.0,679,27635.720945
2150.0,691,27650.535897
1510.0,631,27664.448061
1590.0,2164,27710.928061
1830.0,708,27725.018368
1660.0,802,27741.089807
1690.0,647,27754.300569
1640.0,1318,27780.822592
3450.0,1583,27812.607293
1080.0,430,27821.261749
1760.0,1343,27849.308861
1030.0,348,27855.977992
1730.0,565,27867.176011
1180.0,247,27872.569549
1470.0,745,27887.892725
1490.0,784,27903.997874
1680.0,835,27921.104894
1180.0,470,27930.622581
730.0,236,27935.189889
1320.0,521,27945.834043
1180.0,315,27952.162161
2080.0,897,27969.948316
930.0,365,27977.138202
1370.0,525,27987.854837
1300.0,657,28001.082784
980.0,338,28007.883488
