# {"t_start": 1552315995.8020332, "env_id": "ChopperCommandNoFrameskip-v4"} 
r,l,t
900.0,1980,84.549245
600.0,975,126.285523
1000.0,1645,215.679039
600.0,767,256.983274
600.0,809,302.912063
700.0,1223,389.1141
400.0,526,428.368513
700.0,1117,519.822706
700.0,889,585.977648
800.0,1185,676.471683
400.0,909,748.454271
400.0,493,790.250851
1000.0,1047,870.55365
800.0,859,932.062884
500.0,413,964.949711
0.0,489,1004.619672
600.0,578,1051.097701
1200.0,1239,1145.2226
900.0,1279,1249.444468
500.0,377,1279.040267
800.0,565,1323.29162
800.0,649,1375.798184
800.0,646,1424.529475
800.0,1176,1526.995839
1300.0,1162,1616.427455
1300.0,1793,1759.274617
1000.0,2327,1940.917852
700.0,685,1992.286521
700.0,712,2046.052582
800.0,958,2124.744548
800.0,1135,2216.04774
1500.0,2625,2416.601174
600.0,889,2487.420847
500.0,585,2535.826717
700.0,957,2605.205593
800.0,537,2646.033066
500.0,515,2686.266899
500.0,719,2745.713235
1200.0,1265,2838.645926
600.0,786,2900.399258
800.0,802,2968.980239
800.0,1383,3071.989598
600.0,565,3120.819635
500.0,637,3171.151583
1200.0,1263,3263.461499
400.0,756,3322.932411
900.0,1003,3402.103611
600.0,1476,3521.882414
800.0,741,3572.610867
800.0,519,3614.889409
600.0,589,3664.309882
1000.0,1195,3756.949949
500.0,539,3796.440711
400.0,842,3866.916758
800.0,1190,3956.471734
700.0,773,4017.496158
700.0,476,4059.345608
1100.0,1497,4175.645874
700.0,657,4226.245782
900.0,1114,4318.131667
900.0,910,4391.0948
600.0,648,4438.762914
1000.0,641,4483.938478
400.0,462,4524.14775
500.0,424,4556.288316
800.0,719,4607.256737
700.0,736,4669.361818
1200.0,1579,4791.486835
900.0,689,4848.356977
600.0,390,4879.327404
1000.0,1287,4980.641203
1400.0,1970,5130.368098
700.0,577,5173.059207
1000.0,867,5245.014185
800.0,765,5305.777329
1200.0,2284,5484.489927
600.0,416,5515.517918
1000.0,705,5564.9195
800.0,849,5635.078857
500.0,357,5663.351767
1200.0,993,5734.703835
500.0,512,5775.463152
1400.0,1056,5863.011125
800.0,530,5903.232809
500.0,440,5934.810908
1200.0,854,6006.631406
1600.0,2968,6237.8039
700.0,643,6287.17358
900.0,589,6329.687752
1200.0,1313,6428.83533
300.0,367,6458.456032
1200.0,843,6529.805347
1000.0,539,6567.258461
600.0,796,6631.783855
1800.0,2637,6839.592375
700.0,1133,6920.325562
700.0,546,6968.766581
900.0,460,7002.528266
1800.0,2239,7187.945255
700.0,974,7261.200159
500.0,852,7332.359595
1100.0,2055,7492.468599
900.0,675,7541.930099
700.0,1047,7623.391621
800.0,1564,7743.028206
600.0,1402,7852.302529
3000.0,2411,8044.768437
400.0,952,8119.989269
1300.0,3775,8429.377792
800.0,1258,8520.063734
800.0,1609,8651.294554
900.0,1032,8734.059137
800.0,1098,8816.210805
800.0,1778,8956.483553
1300.0,2318,9137.806446
1800.0,5774,9584.392428
400.0,620,9634.614794
700.0,1564,9756.535324
700.0,684,9814.715127
1200.0,3043,10044.201572
1300.0,1436,10158.87863
1300.0,3983,10459.448397
500.0,1128,10546.355677
400.0,668,10595.865993
800.0,655,10644.447973
400.0,636,10693.990771
1100.0,1236,10790.330922
700.0,947,10859.557346
500.0,419,10888.054711
200.0,641,10938.313704
1000.0,1357,11045.951818
800.0,810,11106.899987
300.0,606,11156.199822
500.0,695,11205.400171
700.0,554,11248.656718
1300.0,1405,11350.338286
300.0,446,11390.021263
1200.0,1354,11491.2233
700.0,999,11570.540936
700.0,777,11633.788366
900.0,624,11686.798503
1000.0,1926,11840.18189
600.0,741,11898.485763
1000.0,1073,11979.688888
800.0,799,12042.765039
1600.0,1452,12154.878453
500.0,916,12233.03784
700.0,897,12297.062593
500.0,528,12347.264619
600.0,1473,12456.999702
800.0,835,12520.322345
600.0,887,12590.38275
300.0,565,12640.789172
700.0,846,12703.644661
400.0,658,12752.640526
1400.0,1993,12910.340379
1400.0,1477,13022.952842
1200.0,1403,13139.21533
1200.0,1499,13260.225735
1100.0,1394,13365.896057
1000.0,1080,13449.494701
800.0,480,13490.625514
1200.0,1701,13614.933645
400.0,500,13655.49623
800.0,759,13716.268868
900.0,1094,13796.753181
700.0,367,13827.867111
700.0,1211,13914.704329
900.0,1053,13996.617926
1600.0,1790,14139.171973
400.0,468,14178.658885
1200.0,1525,14296.576596
1100.0,1078,14376.583942
1200.0,1275,14476.053309
1100.0,1704,14604.728792
1000.0,1145,14696.98532
300.0,731,14760.416482
700.0,477,14797.150229
1100.0,1695,14927.689273
1500.0,1709,15059.835917
1700.0,4245,15390.775407
1800.0,3430,15664.328649
700.0,732,15722.586202
400.0,480,15755.157539
1200.0,1425,15864.967472
1500.0,1991,16032.65921
1600.0,3105,16278.595328
1100.0,973,16360.394055
600.0,773,16411.092501
1000.0,999,16493.53369
400.0,472,16534.332372
1300.0,839,16597.079135
600.0,1005,16677.977158
1200.0,1393,16790.2072
700.0,929,16857.917021
600.0,672,16908.19991
600.0,599,16955.32377
900.0,562,16998.173407
1200.0,1175,17090.676406
500.0,1008,17172.663411
400.0,666,17224.31157
1400.0,1862,17377.052523
1000.0,2666,17587.198178
900.0,717,17641.756474
600.0,409,17671.65219
900.0,656,17721.621637
400.0,605,17771.445565
1100.0,604,17820.447297
600.0,557,17859.553038
700.0,616,17910.256383
1100.0,1663,18038.41069
700.0,909,18113.773175
1200.0,1268,18212.622594
1400.0,2008,18362.585717
700.0,1029,18446.112736
600.0,610,18497.650631
2000.0,4686,18857.291519
1300.0,3186,19103.208272
600.0,820,19168.649951
300.0,599,19211.44601
900.0,1063,19288.627516
1200.0,1558,19415.035918
800.0,1844,19564.484331
800.0,2278,19767.775718
1100.0,2108,19945.565744
600.0,721,20009.545846
1200.0,2107,20177.551112
900.0,1126,20278.746819
1700.0,3419,20585.448035
900.0,1166,20693.469512
500.0,574,20750.670155
1000.0,1427,20875.336484
1200.0,1540,21017.531916
500.0,598,21069.967505
500.0,608,21130.328252
900.0,893,21215.398923
1100.0,2203,21412.159573
800.0,460,21457.786754
800.0,683,21516.203782
900.0,1555,21657.677983
1300.0,1331,21776.614409
700.0,549,21831.016597
700.0,494,21870.244092
500.0,568,21927.30435
500.0,726,21984.755087
1200.0,2177,22183.581243
1200.0,1895,22362.521677
1100.0,1921,22542.923726
900.0,689,22604.384575
300.0,590,22661.245782
700.0,1084,22756.189866
600.0,600,22814.678346
1200.0,811,22885.814564
1300.0,1249,23002.583155
1400.0,2051,23189.48694
900.0,752,23260.344225
1100.0,1635,23404.909729
700.0,1167,23515.061924
400.0,739,23588.957328
1300.0,2034,23774.925465
800.0,985,23868.352082
1500.0,2007,24047.199279
1200.0,1639,24201.358922
600.0,405,24237.443357
2200.0,1826,24402.883104
800.0,1147,24512.133799
900.0,407,24548.271104
600.0,525,24594.66279
1300.0,1135,24701.763628
700.0,511,24748.8248
300.0,287,24771.195095
1000.0,1497,24907.661676
900.0,1399,25037.088002
800.0,510,25085.846512
1100.0,1162,25195.276315
800.0,748,25264.617875
700.0,546,25310.660776
600.0,536,25358.772845
1000.0,1005,25452.406146
1100.0,883,25527.514988
1000.0,902,25614.934763
600.0,617,25675.37214
1700.0,2467,25898.425605
800.0,481,25945.336662
700.0,660,26009.679396
1200.0,1500,26153.654089
2500.0,4078,26521.74165
800.0,1094,26613.600231
400.0,543,26658.776278
900.0,963,26751.992892
1400.0,1259,26872.314984
1200.0,1981,27056.294476
800.0,610,27112.927132
800.0,1117,27209.234211
900.0,1105,27319.388966
1100.0,1341,27441.970585
600.0,703,27511.962667
600.0,426,27547.787813
1600.0,2175,27745.706542
1200.0,1040,27839.275347
1600.0,1820,28006.648666
800.0,457,28051.115641
600.0,770,28117.822049
700.0,477,28154.341749
1300.0,1388,28285.120595
800.0,731,28356.710312
800.0,966,28438.781319
400.0,665,28498.86263
2700.0,5045,28960.132554
1200.0,1038,29052.215026
800.0,1085,29152.957967
1400.0,1860,29331.411673
400.0,572,29379.070306
1000.0,1526,29520.121476
700.0,1224,29627.331305
800.0,896,29711.071569
500.0,545,29765.997759
1200.0,1382,29886.995942
1000.0,861,29969.33972
800.0,827,30041.342134
900.0,1071,30142.597534
800.0,419,30178.3145
1000.0,1042,30273.949408
1000.0,919,30356.219426
500.0,897,30439.336545
700.0,927,30525.040042
1300.0,2589,30758.317308
1000.0,1142,30861.597375
600.0,604,30921.771793
900.0,1631,31073.997985
900.0,588,31122.300255
1200.0,921,31205.137146
1800.0,1874,31377.10175
700.0,776,31446.630285
700.0,799,31516.981534
1100.0,1074,31613.014719
1100.0,639,31671.234096
1600.0,1602,31823.538851
1700.0,2356,32034.478617
700.0,634,32095.502043
500.0,495,32143.599873
1000.0,1099,32238.949417
1000.0,1501,32374.65207
800.0,396,32411.632893
1100.0,1261,32529.214353
700.0,870,32603.939766
600.0,575,32658.883387
2000.0,4138,33037.008901
900.0,925,33120.279761
700.0,472,33164.919012
600.0,572,33211.672284
1000.0,1300,33331.79846
300.0,872,33414.040164
1000.0,1107,33515.679206
1400.0,1247,33622.204513
1400.0,1317,33751.572047
1300.0,925,33834.033615
1400.0,1404,33962.968874
400.0,399,34002.232585
1300.0,1905,34178.312806
1400.0,1132,34271.766178
1000.0,1569,34420.705715
1200.0,2133,34604.814939
500.0,560,34650.84441
1100.0,720,34721.291398
1700.0,3085,35004.167751
900.0,1021,35099.993141
1100.0,1670,35247.347812
1200.0,2351,35460.995608
700.0,806,35542.271753
600.0,1005,35626.197836
1400.0,750,35696.042229
800.0,429,35733.343476
600.0,577,35791.435161
1400.0,1428,35923.962434
800.0,691,35985.827204
1100.0,861,36064.396708
1000.0,1255,36184.358686
800.0,380,36220.830762
1000.0,887,36296.912545
500.0,384,36331.048135
1200.0,1718,36487.486629
900.0,650,36547.796501
500.0,493,36593.112372
1500.0,1544,36731.067623
1000.0,1052,36826.802193
600.0,696,36882.361919
1100.0,1236,36995.794612
1300.0,1236,37107.854277
700.0,457,37151.111873
2800.0,2317,37367.727592
300.0,411,37403.624183
800.0,488,37448.816077
1500.0,2228,37654.204842
500.0,774,37720.573315
1000.0,938,37800.827974
500.0,885,37881.110625
900.0,802,37952.379273
1200.0,1217,38070.93455
400.0,507,38117.082782
700.0,494,38165.18387
1200.0,830,38237.744756
500.0,841,38308.188845
700.0,478,38353.331255
700.0,771,38425.241401
700.0,496,38473.375343
800.0,911,38553.836305
900.0,1113,38655.777262
600.0,631,38705.046778
500.0,373,38739.051095
700.0,543,38784.30834
900.0,561,38837.158005
1200.0,1449,38968.620842
1000.0,1345,39089.110242
2400.0,2182,39289.302411
800.0,1333,39411.056417
800.0,1063,39503.218185
1100.0,1385,39636.143553
1200.0,1760,39802.618101
900.0,1025,39886.228345
800.0,1528,40025.984201
800.0,1277,40144.081652
1200.0,1139,40251.555685
800.0,468,40294.144227
500.0,508,40341.842107
500.0,603,40391.923738
1000.0,850,40471.542115
1000.0,1434,40604.829628
600.0,630,40664.381496
600.0,879,40745.04112
1300.0,2008,40922.237874
1600.0,2077,41108.2181
700.0,567,41165.060838
600.0,729,41225.206634
800.0,980,41322.503273
300.0,563,41371.714182
800.0,1302,41489.685267
900.0,778,41561.026578
600.0,1049,41664.646979
700.0,739,41726.019861
600.0,578,41780.182964
1100.0,2110,41968.549355
800.0,631,42025.852789
300.0,476,42072.539242
600.0,556,42119.902816
800.0,1056,42215.906418
800.0,601,42272.090293
800.0,902,42353.04475
900.0,1241,42459.834493
800.0,1256,42579.546472
1000.0,1141,42689.580605
800.0,687,42749.488968
1000.0,1130,42856.420578
600.0,790,42927.648399
1100.0,1194,43035.181774
700.0,724,43104.865893
500.0,591,43161.673175
1000.0,1272,43272.392747
300.0,613,43331.358615
1600.0,1589,43481.540307
800.0,802,43554.731741
1100.0,1020,43648.682094
2100.0,2184,43850.863387
800.0,657,43906.592183
800.0,680,43967.779905
1100.0,1113,44072.626081
600.0,679,44132.783067
700.0,1303,44248.242548
900.0,1286,44367.598333
600.0,584,44416.335281
600.0,557,44475.938233
1000.0,1381,44597.289391
1500.0,1549,44745.851169
400.0,607,44796.207495
1200.0,1310,44917.250288
700.0,524,44968.237201
600.0,591,45025.593833
800.0,773,45091.650221
600.0,885,45176.156882
1500.0,2360,45388.101691
1400.0,1670,45542.696538
1100.0,1743,45707.355881
900.0,1658,45861.425277
800.0,971,45943.564858
700.0,1008,46039.158863
800.0,719,46099.771404
900.0,724,46168.572487
1000.0,2173,46365.559831
1300.0,1990,46544.077784
500.0,610,46602.971783
1800.0,3121,46897.397813
600.0,549,46945.229321
600.0,1088,47043.651887
600.0,724,47112.371586
1400.0,1114,47207.902726
500.0,971,47300.233737
1000.0,1681,47452.831503
1500.0,2533,47691.255164
1300.0,2100,47878.343749
900.0,1649,48032.657088
600.0,884,48116.467736
900.0,1001,48201.570105
1000.0,1523,48342.791262
800.0,482,48389.286183
1200.0,1115,48496.410767
500.0,796,48567.941211
700.0,679,48629.093222
1200.0,2521,48863.961917
600.0,531,48912.122483
800.0,1050,49007.60955
1100.0,1072,49107.746755
2300.0,2482,49340.576805
700.0,523,49387.069496
800.0,484,49425.270162
700.0,508,49469.887086
800.0,495,49516.311315
1300.0,1265,49632.689515
1500.0,1856,49796.874555
1000.0,446,49843.479153
800.0,744,49906.782852
1200.0,1469,50046.030665
1700.0,4243,50426.913601
1300.0,1640,50578.73054
800.0,1049,50674.792705
1300.0,829,50748.981168
1400.0,1854,50922.600698
600.0,1144,51029.625274
2700.0,2515,51251.214802
600.0,422,51288.11431
1000.0,1274,51407.650987
1000.0,832,51491.837121
1400.0,1923,51672.940973
400.0,575,51719.298697
800.0,513,51765.657171
800.0,412,51800.662472
1300.0,1274,51915.48036
800.0,575,51974.891722
1400.0,1667,52114.5059
1600.0,2612,52359.035681
1200.0,1209,52464.114525
1000.0,1321,52582.841945
800.0,740,52652.875045
1400.0,2252,52861.461077
1100.0,1797,53028.257731
400.0,543,53077.746642
800.0,659,53139.470989
1100.0,784,53212.919438
500.0,726,53281.094615
700.0,523,53328.287957
600.0,448,53367.540557
800.0,581,53424.020617
800.0,1045,53519.886262
1100.0,1323,53638.737674
600.0,669,53698.769915
300.0,692,53758.032394
1100.0,849,53839.70584
1400.0,1259,53956.518051
1300.0,1803,54119.493589
700.0,653,54178.330048
800.0,737,54248.92332
800.0,1046,54346.68958
1400.0,1353,54466.666059
1400.0,1772,54635.725943
400.0,557,54683.386851
1500.0,2665,54924.258639
1800.0,3122,55209.892381
1800.0,2468,55437.792696
1300.0,1219,55550.407261
900.0,1799,55715.233426
800.0,1150,55816.80256
700.0,815,55884.741589
1200.0,1373,56014.277524
500.0,708,56074.360502
500.0,833,56153.670796
900.0,1184,56259.525584
700.0,558,56308.719885
500.0,555,56370.03376
900.0,831,56442.200277
1100.0,1099,56549.192603
800.0,604,56600.714773
1300.0,2190,56791.99036
1200.0,1155,56894.273832
800.0,775,56967.902428
900.0,793,57043.760451
900.0,1269,57160.079005
1600.0,3068,57441.302004
1000.0,1748,57599.719077
700.0,858,57676.01756
400.0,563,57734.821538
1100.0,1109,57833.657744
1500.0,1848,58010.162463
700.0,522,58057.083801
1500.0,3064,58335.09241
2600.0,3197,58628.984712
1000.0,1061,58732.294247
1000.0,1310,58848.071322
700.0,745,58917.299086
1100.0,1241,59022.407644
1200.0,1321,59139.867352
700.0,502,59184.231802
800.0,668,59245.176217
1100.0,1658,59394.541921
800.0,726,59462.219472
1000.0,953,59545.651568
500.0,556,59604.249831
1300.0,1722,59763.186618
500.0,526,59810.454425
800.0,836,59892.437663
1200.0,1474,60026.632507
700.0,657,60089.450985
1500.0,2295,60304.394168
1400.0,2449,60525.035477
1000.0,944,60609.125386
400.0,378,60643.793823
2500.0,4421,61060.304258
900.0,1472,61187.854078
800.0,926,61268.630525
1000.0,1745,61429.016984
1000.0,1652,61586.121513
700.0,1026,61683.384931
1200.0,1292,61799.770404
1700.0,1370,61915.971154
800.0,968,62012.280598
700.0,1251,62127.559275
800.0,1134,62225.451386
600.0,450,62272.313962
1100.0,1886,62437.664329
900.0,682,62508.371386
1000.0,823,62581.793675
1600.0,1356,62715.200213
700.0,545,62763.026956
1000.0,1165,62865.828309
1500.0,1967,63041.726194
1300.0,1172,63147.69287
500.0,736,63217.889999
1100.0,706,63276.205964
800.0,693,63343.898139
1400.0,2242,63548.703635
900.0,1106,63656.854367
1100.0,1228,63765.940173
400.0,453,63813.238736
1100.0,2156,64020.308889
600.0,1035,64116.268155
1100.0,1417,64247.259943
600.0,315,64274.699811
700.0,495,64322.089138
1000.0,914,64404.7515
1100.0,912,64490.785078
700.0,667,64550.123105
800.0,712,64616.179609
500.0,969,64700.665618
1100.0,1129,64808.126529
1500.0,1871,64973.651368
500.0,761,65045.751933
2200.0,3595,65383.393288
900.0,852,65463.691185
1500.0,1821,65633.286919
1100.0,1571,65769.038711
900.0,2755,66028.750028
800.0,505,66076.413908
700.0,742,66136.921402
700.0,786,66203.675241
1100.0,1433,66343.079025
1200.0,1722,66496.869098
900.0,1253,66614.567404
1500.0,3495,66936.909864
2700.0,2664,67178.299898
1000.0,942,67259.365465
1600.0,1953,67436.710513
1400.0,1262,67552.827271
800.0,798,67621.771983
600.0,598,67677.185227
1200.0,1243,67784.975517
700.0,802,67862.066372
700.0,505,67900.964877
300.0,719,67972.903964
600.0,651,68030.489187
800.0,584,68090.98773
1200.0,1875,68258.599043
800.0,1042,68348.347882
1000.0,1339,68475.762664
500.0,566,68523.569658
1100.0,1427,68652.120226
900.0,1104,68756.954798
2400.0,3358,69063.963614
500.0,588,69110.973974
700.0,794,69182.12348
400.0,363,69216.694366
600.0,963,69311.780227
600.0,482,69350.016298
700.0,607,69408.83583
800.0,1019,69503.321796
800.0,769,69577.47314
700.0,482,69620.842926
800.0,713,69681.854987
900.0,994,69774.635838
1100.0,929,69859.557534
900.0,708,69927.14415
700.0,646,69988.232051
800.0,1047,70082.154551
700.0,689,70141.518967
1200.0,1213,70247.352937
800.0,1071,70347.856072
1200.0,1603,70492.818238
900.0,1086,70592.804044
600.0,543,70639.048356
800.0,566,70688.617237
800.0,443,70723.352026
1000.0,1159,70831.595974
1000.0,1017,70927.830235
1100.0,1393,71054.343719
800.0,361,71090.111709
900.0,757,71158.92373
900.0,629,71218.273189
600.0,683,71276.196668
500.0,473,71322.840256
500.0,597,71370.788259
1000.0,1555,71512.635895
900.0,857,71592.007692
1000.0,851,71664.685925
400.0,447,71710.959728
1500.0,2278,71913.006148
1300.0,1393,72035.844672
500.0,407,72081.299392
1500.0,1624,72228.338415
800.0,497,72276.652232
1700.0,2090,72464.258904
800.0,613,72521.422531
200.0,520,72569.451026
600.0,757,72639.038057
2300.0,2544,72875.444269
600.0,354,72900.673544
600.0,380,72936.609565
300.0,521,72984.386249
400.0,384,73019.68699
700.0,573,73074.461568
800.0,1301,73194.743682
600.0,470,73231.050584
1100.0,1008,73328.631654
1000.0,828,73408.808495
700.0,525,73455.691539
900.0,1129,73554.829758
1200.0,1676,73708.396774
1100.0,1586,73861.266074
800.0,598,73909.224852
700.0,680,73975.750259
1000.0,1871,74142.34282
500.0,361,74179.131878
800.0,657,74238.778028
900.0,775,74309.90064
600.0,462,74347.346578
800.0,668,74414.196461
1400.0,1672,74565.520215
1500.0,2801,74810.317333
1100.0,1264,74930.205836
300.0,392,74965.984318
1200.0,1565,75111.543999
1000.0,1261,75229.630938
200.0,448,75274.79199
1400.0,1967,75456.284424
800.0,497,75503.060533
1000.0,1429,75631.406144
700.0,697,75690.296244
300.0,452,75734.267697
600.0,600,75782.351077
500.0,709,75851.803216
700.0,541,75898.54958
400.0,545,75946.920644
1300.0,1885,76126.516306
1400.0,1556,76270.087991
800.0,502,76315.425831
1200.0,1712,76472.238781
600.0,722,76543.382993
600.0,641,76603.791798
1000.0,1177,76709.741708
600.0,546,76759.450166
800.0,1331,76876.171375
600.0,797,76957.752791
1400.0,1620,77099.400279
700.0,1522,77242.453598
1400.0,1890,77415.735824
800.0,837,77485.185989
700.0,919,77565.392913
600.0,536,77612.772616
1500.0,1219,77728.076504
1000.0,1097,77826.364018
1200.0,1583,77982.220218
500.0,547,78030.312378
600.0,728,78093.403509
1100.0,1524,78227.903614
800.0,437,78271.952279
800.0,681,78331.857069
1000.0,812,78405.548386
800.0,546,78453.200541
700.0,518,78500.077557
