# {"t_start": 1547545197.7931678, "env_id": "VentureNoFrameskip-v4"} 
r,l,t
0.0,824,34.795535
0.0,2161,99.754998
0.0,3052,197.657369
0.0,3832,320.838154
0.0,2815,414.647058
0.0,2643,498.600232
0.0,2015,561.56126
0.0,1529,612.852132
0.0,1974,673.806673
0.0,2203,743.317685
0.0,1774,797.267976
0.0,5900,985.552836
0.0,1771,1042.093832
0.0,4121,1173.028359
0.0,6731,1387.433614
0.0,1440,1431.387467
0.0,2175,1501.839921
0.0,1647,1556.193756
0.0,6238,1763.327813
0.0,2588,1844.955059
0.0,1404,1887.344612
0.0,5883,2080.422274
0.0,2965,2174.276911
0.0,1837,2236.463916
0.0,1766,2295.08838
0.0,3889,2422.50871
0.0,1056,2455.637884
0.0,1923,2518.397727
0.0,6238,2710.329813
0.0,1682,2762.704553
0.0,1309,2802.924962
0.0,2142,2867.951416
0.0,2431,2946.647661
0.0,2046,3011.449076
0.0,1561,3059.051049
0.0,1644,3111.289291
0.0,2778,3198.756941
0.0,1447,3242.425975
0.0,4827,3387.500015
0.0,1293,3429.117579
0.0,1337,3468.502637
0.0,908,3496.063509
0.0,1458,3544.124508
0.0,1065,3576.690883
0.0,4961,3731.58924
0.0,3385,3836.635908
0.0,2378,3913.724845
0.0,1096,3947.410794
0.0,1299,3988.533051
0.0,2491,4063.221786
0.0,1471,4107.414401
0.0,2866,4198.655685
0.0,1580,4249.050872
0.0,1583,4299.062229
0.0,2179,4368.289163
0.0,1981,4431.4939
0.0,3936,4550.450957
0.0,1750,4607.927454
0.0,1634,4657.453082
0.0,5759,4834.113434
0.0,2096,4898.826678
0.0,4988,5058.026091
0.0,1986,5118.608062
0.0,1706,5170.686957
0.0,5004,5321.823367
0.0,1900,5379.296305
0.0,1322,5419.381479
0.0,1826,5477.955856
0.0,1576,5526.554934
0.0,1536,5572.284358
0.0,2402,5647.566531
0.0,1199,5685.27545
0.0,2347,5759.287141
0.0,1090,5793.923054
0.0,1223,5830.407379
0.0,5242,5990.203541
0.0,2699,6070.083799
0.0,2398,6145.283991
0.0,2126,6210.416523
0.0,1667,6262.572582
0.0,1512,6308.848811
0.0,5121,6470.867704
0.0,1208,6513.470646
0.0,1968,6579.742155
0.0,1734,6637.245809
0.0,3339,6747.06304
0.0,5543,6930.131602
0.0,1072,6967.059778
0.0,1522,7020.590761
0.0,2617,7110.694082
0.0,1404,7159.377477
0.0,2227,7234.095354
0.0,1155,7273.142362
0.0,2293,7347.884323
0.0,1800,7408.11031
0.0,3591,7525.551626
0.0,1516,7576.146586
0.0,2003,7641.845407
0.0,2173,7717.875922
0.0,2686,7806.177787
0.0,2369,7883.190886
0.0,4313,8026.899311
0.0,3870,8160.314996
0.0,1497,8210.904857
0.0,3518,8331.299331
0.0,3795,8461.088258
0.0,2812,8555.347961
0.0,3025,8658.66691
0.0,2351,8735.717074
0.0,3138,8844.742843
0.0,3846,8971.306038
0.0,2855,9068.867571
0.0,1293,9111.39351
0.0,1469,9159.853362
0.0,1869,9223.837757
0.0,1726,9282.049022
0.0,1338,9326.915633
0.0,2247,9402.360756
0.0,2532,9486.587972
0.0,1608,9541.623034
0.0,1638,9597.635532
0.0,2714,9686.898711
0.0,851,9713.667916
0.0,7702,9975.148061
0.0,1912,10038.805665
0.0,1427,10087.415123
0.0,1695,10147.343097
0.0,2177,10220.641072
0.0,2742,10318.434302
0.0,2698,10408.046966
0.0,1282,10451.035871
0.0,1810,10513.373221
0.0,2918,10610.239173
0.0,1669,10666.402396
0.0,1967,10730.434549
0.0,1324,10771.801246
0.0,1130,10810.827795
0.0,1613,10863.833872
0.0,2264,10941.541849
0.0,2954,11039.857828
0.0,1690,11096.327496
0.0,1240,11137.577503
0.0,2734,11229.077996
0.0,10033,11568.908179
0.0,1612,11622.36396
0.0,1469,11674.341383
0.0,1340,11719.407927
0.0,3853,11843.654232
0.0,940,11876.099036
0.0,1658,11932.81725
0.0,1078,11968.072551
0.0,1480,12017.633789
0.0,1006,12053.098941
0.0,3916,12185.768668
0.0,2192,12259.449337
0.0,3941,12392.647346
0.0,2099,12462.607908
0.0,3641,12584.911603
0.0,1816,12645.337739
0.0,5516,12831.687667
0.0,1545,12882.227526
0.0,1893,12945.062438
200.0,1854,13005.527782
0.0,3875,13137.476199
0.0,990,13170.155656
0.0,9140,13476.890166
0.0,3456,13592.3169
400.0,8358,13875.691178
0.0,2358,13955.233563
0.0,824,13981.936074
0.0,1375,14027.107244
0.0,1846,14090.707219
0.0,2537,14177.425304
0.0,2426,14259.048306
0.0,6836,14490.37602
0.0,4554,14644.26451
0.0,2045,14712.252383
0.0,3120,14816.550631
0.0,3208,14925.51692
0.0,1343,14970.343775
0.0,3178,15076.912949
0.0,929,15109.037035
0.0,1436,15156.819048
0.0,2689,15243.835118
0.0,2815,15337.398317
0.0,2685,15427.749387
0.0,2490,15511.778312
0.0,1981,15579.038012
0.0,2764,15670.457597
0.0,2308,15747.570446
0.0,971,15778.816432
0.0,4381,15923.423687
0.0,6738,16151.677995
0.0,1862,16213.856594
0.0,2189,16286.04121
0.0,2547,16371.818033
0.0,1806,16433.828101
0.0,1885,16497.037141
0.0,1088,16533.834947
0.0,2384,16616.711358
0.0,3029,16719.673167
0.0,2348,16799.49085
0.0,1230,16841.875194
0.0,1252,16883.217655
0.0,1643,16938.311374
0.0,2254,17014.079394
0.0,3507,17130.680468
0.0,2311,17209.81398
0.0,2010,17277.385507
0.0,2312,17354.007862
0.0,3047,17456.656495
0.0,1129,17496.22312
0.0,4318,17641.815064
0.0,3648,17760.019962
0.0,2520,17845.367798
0.0,1282,17886.658538
0.0,1868,17949.150989
0.0,1698,18003.089525
0.0,2435,18087.218905
0.0,1655,18143.302111
0.0,2696,18234.46178
0.0,1646,18290.144585
0.0,1745,18347.797194
0.0,1364,18392.057034
0.0,3501,18513.858457
0.0,1752,18572.697669
0.0,1395,18621.712192
0.0,1682,18678.393058
0.0,2745,18771.686254
0.0,1536,18824.235705
0.0,3307,18936.716709
0.0,2699,19028.819591
0.0,5518,19210.662362
0.0,5011,19381.966671
0.0,1766,19439.958361
0.0,2005,19508.119172
0.0,726,19534.155741
0.0,3201,19645.233416
0.0,2499,19729.217381
0.0,5901,19928.882108
0.0,1681,19986.55616
0.0,1414,20033.487452
0.0,2658,20122.696848
0.0,1547,20173.059717
0.0,3214,20280.467454
0.0,3832,20408.887493
0.0,1642,20463.510818
0.0,4755,20621.425283
0.0,2617,20711.042814
0.0,3296,20817.934973
0.0,5977,21017.134935
0.0,1725,21076.549014
0.0,1272,21118.483917
0.0,1663,21174.445304
0.0,1814,21233.196463
0.0,1632,21289.095402
0.0,1257,21331.068944
0.0,1665,21387.526658
0.0,1764,21444.404963
0.0,3966,21578.244997
0.0,1307,21623.176388
0.0,3721,21747.997226
0.0,2915,21845.689605
0.0,1845,21908.782794
0.0,2338,21989.574375
0.0,1685,22047.093129
0.0,2056,22119.311623
0.0,2468,22201.952992
0.0,1515,22251.79799
0.0,1690,22306.091679
0.0,1212,22346.555702
0.0,1401,22395.259035
0.0,1184,22434.062513
0.0,1494,22483.493135
0.0,1673,22539.447957
0.0,1622,22595.283527
0.0,3029,22696.543764
0.0,1508,22748.476154
0.0,1502,22798.603674
0.0,2338,22878.358858
0.0,971,22910.555703
0.0,1209,22950.544568
0.0,2895,23047.577138
0.0,3743,23175.045765
0.0,954,23207.266545
0.0,3245,23318.501067
0.0,1875,23379.985741
0.0,1824,23443.959716
0.0,2049,23514.521932
0.0,1375,23561.571916
0.0,1970,23627.172437
0.0,1469,23675.457559
0.0,2774,23770.330945
0.0,1598,23822.037714
0.0,2151,23893.933758
0.0,2371,23972.608398
0.0,2548,24059.494079
0.0,1877,24123.351066
0.0,1271,24168.16748
0.0,2182,24239.063706
0.0,2830,24333.571517
0.0,2687,24423.839696
0.0,1885,24486.308866
0.0,1818,24546.827908
0.0,1069,24582.244938
0.0,4306,24728.764832
0.0,1865,24791.689671
0.0,5951,24989.671706
0.0,1240,25031.647123
0.0,2121,25102.783572
0.0,2110,25172.817904
0.0,2977,25275.767235
0.0,2868,25369.855263
0.0,2257,25446.010265
0.0,2203,25520.580626
0.0,6102,25731.729716
0.0,1508,25782.507904
0.0,1301,25823.98128
0.0,2713,25918.991046
0.0,2400,26001.420884
0.0,1931,26067.126375
0.0,2094,26136.638938
0.0,1854,26201.065053
0.0,1055,26236.850706
0.0,2428,26319.000457
0.0,2014,26389.783979
0.0,929,26420.945408
0.0,1935,26486.554726
0.0,849,26513.473948
0.0,1404,26560.948947
0.0,3804,26692.50326
0.0,1011,26724.662981
0.0,982,26757.140285
0.0,1471,26805.283229
0.0,1333,26851.430413
0.0,4150,26992.348871
0.0,1210,27033.122788
0.0,2735,27123.520044
0.0,1611,27180.099217
0.0,1722,27238.546173
0.0,1300,27280.95391
0.0,2879,27376.248718
0.0,1785,27436.510361
0.0,2268,27513.288146
0.0,891,27543.443948
0.0,4602,27700.162789
0.0,1101,27738.991394
0.0,1292,27783.725955
0.0,2300,27860.02774
0.0,6781,28092.491071
0.0,2602,28181.850187
0.0,1663,28238.203001
0.0,994,28271.153154
0.0,1940,28336.054557
0.0,1356,28379.786343
0.0,1819,28441.324674
0.0,2217,28515.911577
0.0,1056,28552.121188
0.0,1312,28595.649707
0.0,1100,28632.995298
0.0,2789,28724.064657
0.0,2620,28808.722134
0.0,3652,28930.337893
0.0,3281,29039.311572
0.0,1266,29081.476517
0.0,1707,29138.523254
0.0,3041,29240.313191
0.0,2863,29335.399668
0.0,2318,29410.009387
0.0,1947,29473.280583
0.0,1341,29517.326985
0.0,2176,29590.635322
0.0,1448,29640.404287
0.0,1967,29706.558415
0.0,2667,29793.886198
0.0,1870,29858.907223
0.0,1433,29906.97104
0.0,2489,29994.085899
0.0,3596,30114.307686
0.0,6186,30323.855679
0.0,1523,30374.739453
0.0,2808,30468.69583
0.0,1468,30516.721119
0.0,5086,30694.689807
0.0,2639,30787.075948
0.0,3237,30896.892742
0.0,1217,30937.726969
0.0,1455,30985.770645
0.0,2861,31080.130396
0.0,1747,31139.113193
0.0,1510,31190.188045
0.0,4687,31348.993255
0.0,2351,31425.110995
0.0,1174,31464.929189
0.0,7049,31709.308691
0.0,3908,31840.930509
0.0,2202,31917.11961
0.0,1701,31973.849681
0.0,2504,32056.474676
0.0,1944,32122.514558
0.0,1656,32180.081037
0.0,2025,32247.273047
0.0,2397,32325.775598
0.0,1932,32390.79043
0.0,1755,32450.86316
0.0,2349,32530.868125
0.0,1274,32573.122383
0.0,4806,32740.238055
0.0,1867,32802.81428
0.0,2116,32870.751809
0.0,2031,32937.976699
0.0,1423,32987.83966
0.0,1585,33042.970622
0.0,1875,33104.682032
0.0,1735,33165.256813
0.0,1358,33211.303158
0.0,1758,33269.37009
0.0,2471,33352.252563
0.0,1215,33392.853526
0.0,4230,33538.168197
0.0,1596,33593.837276
0.0,1254,33634.896001
0.0,4452,33780.392036
0.0,5907,33979.90301
0.0,5109,34153.14182
0.0,1490,34202.669367
0.0,2925,34302.828411
0.0,4086,34441.194951
0.0,2304,34515.781908
0.0,1295,34559.721535
0.0,1333,34604.355746
0.0,1741,34660.575432
0.0,1301,34704.817711
0.0,1490,34758.085212
0.0,1868,34824.410621
0.0,7693,35080.069549
0.0,5077,35251.129713
0.0,1802,35310.005647
0.0,2797,35400.346651
0.0,2108,35470.589099
0.0,1414,35517.268565
0.0,8372,35802.834279
0.0,2778,35900.623897
0.0,2174,35970.535351
0.0,896,36000.424436
0.0,4878,36169.149046
0.0,1117,36206.854821
0.0,1941,36270.889926
0.0,2229,36343.360882
0.0,2108,36414.969728
0.0,1906,36480.935773
0.0,2640,36568.373274
0.0,1424,36615.479941
0.0,1396,36661.214546
0.0,1119,36698.391425
0.0,2395,36781.268458
0.0,3665,36904.461722
0.0,2156,36978.930408
0.0,2781,37071.263586
0.0,3357,37185.809198
0.0,2491,37273.852327
0.0,816,37300.974973
0.0,7557,37558.047483
0.0,2711,37648.545202
0.0,2416,37727.580634
0.0,2948,37826.455587
0.0,2565,37913.774313
0.0,2703,38008.42609
0.0,3384,38120.873405
0.0,2422,38202.144584
0.0,2066,38271.342175
0.0,2268,38346.567304
0.0,1427,38395.200019
0.0,2290,38470.252623
0.0,1741,38529.957729
0.0,1801,38588.914936
0.0,1790,38651.115437
0.0,1655,38706.68587
0.0,1828,38767.563362
0.0,2301,38843.326905
0.0,1755,38902.815971
0.0,3059,39008.615058
0.0,2040,39080.810567
0.0,1167,39120.603963
0.0,3686,39246.003133
0.0,1744,39307.370099
0.0,1277,39349.648644
0.0,2626,39440.74448
0.0,2684,39533.670195
0.0,4690,39692.225797
0.0,5726,39884.35025
0.0,1887,39946.625234
0.0,1264,39988.243909
0.0,1926,40051.380816
0.0,1645,40106.008111
0.0,1893,40169.458869
0.0,1878,40231.271372
0.0,1845,40292.958691
0.0,2387,40374.15019
0.0,1359,40421.724608
0.0,1314,40466.217694
0.0,1028,40500.812648
0.0,3003,40603.975921
0.0,2401,40683.963787
0.0,2165,40757.562626
0.0,2273,40832.80699
0.0,3119,40933.675137
0.0,3479,41048.716098
0.0,1004,41081.77526
0.0,2908,41180.336373
0.0,1620,41232.551305
0.0,5010,41406.423391
0.0,2776,41500.50322
0.0,1377,41546.437498
0.0,1025,41579.832875
0.0,1477,41628.681744
0.0,1911,41693.195084
0.0,1568,41748.016732
0.0,1904,41813.523946
0.0,2250,41890.146038
0.0,1049,41926.815481
0.0,1452,41975.987959
0.0,1370,42024.05993
0.0,1231,42066.543094
0.0,4260,42211.79033
0.0,2031,42282.158401
0.0,1226,42322.081479
0.0,1903,42385.623056
0.0,1244,42427.858933
0.0,1346,42473.812161
0.0,1171,42510.459365
0.0,1535,42558.97379
0.0,1254,42599.950693
0.0,2447,42677.924906
0.0,1149,42714.486921
0.0,1053,42747.665237
0.0,3243,42850.448982
0.0,1548,42901.096306
0.0,1112,42934.875097
0.0,1687,42987.194045
0.0,1587,43040.265227
0.0,2902,43134.910576
0.0,1510,43182.625379
0.0,1289,43224.426462
0.0,2882,43316.57903
0.0,1832,43373.583287
0.0,2251,43445.127313
0.0,2473,43526.866031
0.0,1602,43575.698994
0.0,1610,43627.291628
0.0,1624,43680.743165
0.0,2465,43756.507644
0.0,1567,43807.383705
0.0,1635,43857.741927
0.0,1545,43905.273666
0.0,1692,43956.263413
0.0,1352,43998.671281
0.0,936,44029.521201
0.0,1177,44067.157698
0.0,1333,44111.290896
0.0,1362,44153.82014
0.0,4049,44279.796368
0.0,1668,44331.734909
0.0,1444,44377.205096
0.0,1391,44421.038152
0.0,2756,44510.85664
0.0,4798,44668.363029
0.0,2432,44746.299782
0.0,1846,44809.321849
0.0,1369,44851.830716
0.0,1649,44904.984597
0.0,891,44934.615163
0.0,5632,45107.723346
0.0,1275,45148.036204
0.0,2476,45226.752814
0.0,1545,45274.570831
0.0,1916,45333.679636
0.0,3214,45437.355484
0.0,2360,45513.239153
0.0,4124,45643.829111
0.0,1593,45692.887809
0.0,2043,45757.041795
0.0,4668,45908.169262
0.0,2453,45989.564297
0.0,1949,46054.587057
0.0,1988,46120.526236
0.0,2287,46193.383843
0.0,1827,46251.754091
0.0,3109,46347.980951
0.0,1079,46381.143661
0.0,1008,46412.819512
0.0,1490,46460.745498
0.0,1508,46506.638068
0.0,3093,46601.482545
0.0,1612,46651.944263
0.0,3118,46747.109389
0.0,3323,46849.195127
0.0,2433,46922.489434
0.0,1067,46953.08946
0.0,1595,46999.439698
0.0,1403,47039.071745
0.0,1760,47088.131162
0.0,1179,47121.509063
0.0,1944,47178.260818
0.0,1132,47210.66324
0.0,2726,47287.539156
0.0,1557,47331.015542
0.0,1625,47375.29643
0.0,1441,47412.029865
0.0,1725,47457.745763
0.0,993,47482.290301
0.0,1926,47535.064451
0.0,1812,47583.408009
0.0,1999,47636.540256
0.0,1188,47667.991622
0.0,2442,47732.038998
0.0,1668,47775.750968
0.0,2670,47848.34793
0.0,2106,47904.970348
0.0,1955,47956.590439
0.0,1095,47985.44571
0.0,1593,48029.309419
0.0,1569,48070.327713
0.0,1775,48118.382093
0.0,2003,48173.321335
0.0,1450,48212.745454
0.0,2267,48270.483352
0.0,5856,48426.699494
0.0,2491,48491.175285
0.0,6602,48659.567241
0.0,2535,48722.235234
0.0,2014,48773.311139
0.0,1313,48805.887184
0.0,1517,48843.722729
0.0,1719,48887.382908
0.0,3944,48988.121926
0.0,5507,49126.484772
0.0,3870,49222.585611
0.0,1220,49253.82872
0.0,2596,49317.595774
0.0,4223,49423.700961
0.0,3720,49516.422093
0.0,1563,49555.837899
0.0,1353,49590.232929
0.0,2242,49645.234216
0.0,1688,49687.557607
0.0,5617,49827.639934
0.0,1026,49855.045518
0.0,7323,50034.971328
0.0,2153,50089.353642
0.0,7197,50268.359468
0.0,8541,50480.002034
0.0,1786,50524.099581
0.0,1268,50556.557364
0.0,2418,50618.426521
0.0,1988,50669.287185
0.0,2165,50721.965122
0.0,1913,50770.605817
0.0,3136,50849.335208
0.0,8878,51069.399862
0.0,2530,51132.222492
0.0,1611,51172.877433
0.0,1825,51217.275715
0.0,5031,51346.10981
0.0,1562,51384.942271
0.0,1786,51431.18437
0.0,1095,51458.688216
0.0,2193,51514.997157
0.0,2467,51575.368864
0.0,1999,51626.624786
0.0,2801,51696.300661
0.0,1474,51734.03918
0.0,2765,51801.05765
0.0,4481,51913.701807
0.0,1137,51941.450876
200.0,1558,51980.016918
0.0,2050,52031.693754
0.0,2752,52098.264356
0.0,2637,52163.594227
0.0,3557,52250.463938
0.0,2612,52313.33396
0.0,3206,52392.603869
0.0,3050,52467.843449
0.0,1128,52496.541739
0.0,2701,52563.511438
0.0,879,52586.324634
0.0,5678,52731.392874
0.0,1873,52776.675924
0.0,2856,52850.034939
0.0,1900,52898.096176
0.0,11411,53187.163335
0.0,3272,53271.759034
0.0,987,53297.595405
0.0,5873,53457.421388
0.0,2753,53537.274925
0.0,4043,53656.010567
0.0,4297,53785.719425
0.0,1604,53834.616675
0.0,1650,53886.883333
0.0,1149,53922.850201
0.0,1974,53990.902385
0.0,1575,54043.695683
0.0,1723,54102.25886
0.0,2483,54186.571627
0.0,993,54221.3948
0.0,1151,54262.858926
0.0,1484,54314.89453
0.0,1423,54363.236097
0.0,2330,54441.274297
0.0,2416,54525.738976
0.0,1916,54592.487928
0.0,1071,54631.254122
0.0,2818,54727.412428
0.0,1285,54773.872416
0.0,1763,54833.498244
0.0,2039,54905.745062
0.0,2943,55012.046412
0.0,2180,55083.501328
0.0,1778,55143.97176
0.0,1042,55180.412065
0.0,2147,55259.781871
0.0,5194,55441.489659
0.0,4085,55590.360512
0.0,4665,55758.732914
0.0,1681,55821.87133
0.0,1416,55877.434617
0.0,2097,55950.498871
0.0,5612,56155.498703
0.0,1720,56224.971664
0.0,3020,56332.775165
0.0,1150,56374.610077
0.0,1017,56412.171295
0.0,2232,56491.587597
0.0,1124,56530.338997
0.0,2531,56621.335059
0.0,2647,56716.272694
0.0,1824,56784.795929
0.0,2144,56862.698997
0.0,3292,56979.707557
0.0,1810,57040.840131
0.0,1991,57114.634941
0.0,1751,57178.826063
0.0,1512,57234.994195
0.0,1842,57302.730617
0.0,1660,57363.593878
0.0,938,57397.623396
0.0,3001,57504.608024
0.0,2216,57583.137702
0.0,1118,57621.955914
0.0,1527,57675.136819
0.0,2543,57766.217972
0.0,1176,57810.880927
0.0,1593,57869.677633
0.0,1926,57938.039904
0.0,1504,57992.780372
0.0,2389,58075.209239
0.0,2770,58176.959751
0.0,1681,58236.182671
0.0,1061,58271.339935
0.0,2494,58363.122698
0.0,875,58393.955319
0.0,2788,58495.914072
0.0,1350,58545.029977
0.0,1934,58612.003052
0.0,1149,58654.93515
0.0,1377,58703.98057
0.0,3639,58837.468588
0.0,1398,58888.471941
0.0,3578,59016.332124
0.0,1081,59055.752125
0.0,4423,59213.195945
0.0,1559,59269.503673
0.0,1960,59340.346473
0.0,2912,59444.79258
0.0,2781,59546.187708
0.0,2334,59627.707225
0.0,881,59656.297298
0.0,5321,59850.425678
0.0,2173,59926.948031
0.0,1851,59993.736234
0.0,2019,60065.069699
0.0,1060,60101.347654
0.0,1012,60135.24159
0.0,3331,60262.656885
0.0,1805,60330.102933
0.0,935,60365.148952
0.0,3792,60501.266855
0.0,3331,60620.814281
0.0,1595,60679.122102
0.0,2016,60750.729849
0.0,1226,60793.275875
0.0,2425,60879.818907
0.0,1694,60940.042534
0.0,2792,61039.613399
0.0,2100,61116.040466
0.0,2157,61190.915311
0.0,10292,61545.291659
0.0,1195,61588.779901
0.0,1209,61634.013047
0.0,4752,61803.785305
0.0,1361,61853.428548
0.0,1079,61890.735367
0.0,2608,61983.70873
0.0,3797,62116.249447
0.0,1754,62180.87934
0.0,1300,62227.493655
0.0,2123,62300.664199
0.0,1679,62360.654181
0.0,1570,62416.732037
0.0,1623,62476.04546
0.0,4772,62649.491365
0.0,2016,62722.292542
0.0,2336,62804.667944
0.0,1847,62869.383084
0.0,1289,62912.188816
0.0,1208,62955.968557
0.0,4270,63111.328542
0.0,1700,63170.348784
0.0,1333,63218.69484
0.0,1822,63283.984158
0.0,2243,63364.271698
0.0,1800,63429.844716
0.0,1111,63469.625631
0.0,1696,63532.437476
0.0,2582,63623.028701
0.0,3803,63764.029539
0.0,2840,63865.42319
0.0,1613,63924.21537
0.0,1053,63960.616082
0.0,2136,64038.649715
0.0,1936,64108.41342
0.0,2314,64193.819832
0.0,1035,64230.408835
0.0,1967,64298.508622
0.0,4242,64449.821327
0.0,1889,64514.304841
0.0,1956,64583.675384
0.0,2040,64654.012507
0.0,1267,64698.885717
0.0,1982,64771.364896
0.0,1673,64831.07597
0.0,2320,64913.309943
0.0,1672,64972.381789
0.0,1831,65040.182725
0.0,2127,65117.27699
0.0,3008,65222.845183
0.0,1849,65285.064034
0.0,4966,65461.487865
0.0,1624,65517.687146
0.0,2143,65596.142853
0.0,3873,65738.220867
0.0,1726,65800.754672
0.0,1572,65858.828515
0.0,1275,65905.672109
0.0,1644,65965.523302
0.0,1407,66015.054261
0.0,3013,66121.966451
0.0,2581,66217.384542
0.0,1492,66268.986408
0.0,2152,66346.237167
0.0,4209,66494.265512
0.0,1703,66555.335967
0.0,1611,66613.05516
0.0,1396,66663.774053
0.0,1174,66706.741626
0.0,2138,66780.291065
0.0,845,66810.280097
0.0,1517,66865.306481
0.0,2258,66945.818995
0.0,1483,66996.208967
0.0,939,67028.037485
0.0,1208,67072.257662
0.0,1828,67137.055586
0.0,2216,67215.283343
0.0,2797,67317.538233
0.0,2859,67420.091576
0.0,1589,67473.712414
0.0,3046,67585.638662
0.0,1235,67629.611637
0.0,2078,67703.139998
0.0,708,67727.608977
0.0,1434,67776.229109
0.0,1227,67822.291841
0.0,1459,67874.274925
0.0,1627,67931.179175
0.0,1713,67992.244348
0.0,2623,68087.323445
0.0,3730,68220.366528
0.0,1084,68256.782744
0.0,1204,68298.302746
0.0,1193,68341.05845
0.0,1563,68398.569187
0.0,1246,68444.232115
0.0,2015,68514.159254
0.0,1878,68581.356049
0.0,2967,68689.476048
0.0,2801,68789.115655
0.0,1237,68832.531378
0.0,2293,68911.512291
0.0,2315,68994.999907
0.0,1875,69060.435185
0.0,1311,69110.978736
0.0,2350,69195.080347
0.0,2090,69269.114793
0.0,2227,69347.043972
0.0,1499,69399.875399
0.0,1695,69460.402681
0.0,1791,69525.608317
0.0,1324,69571.433286
0.0,1976,69642.155123
0.0,2821,69745.863648
0.0,1124,69783.821728
0.0,1376,69831.993412
0.0,2054,69904.510088
0.0,2967,70014.03335
0.0,2044,70086.140553
0.0,5449,70277.030966
0.0,5384,70467.373856
0.0,2470,70555.074214
0.0,1780,70619.908579
0.0,921,70654.008283
0.0,1257,70698.229307
0.0,1470,70747.674464
0.0,1418,70799.611273
0.0,2830,70903.168736
0.0,1290,70949.481531
0.0,1561,71005.796455
0.0,1664,71065.50218
0.0,1836,71131.285091
0.0,1270,71176.836155
0.0,1430,71227.20709
0.0,1232,71272.063431
0.0,4166,71423.036719
0.0,1143,71465.34498
0.0,1427,71517.432588
0.0,1473,71571.717382
0.0,1848,71637.660722
0.0,1647,71690.631214
0.0,1321,71739.945352
0.0,2331,71822.647018
0.0,2242,71901.867661
0.0,2695,71996.242145
0.0,2197,72075.31652
0.0,1550,72129.036393
0.0,3209,72244.089826
0.0,1853,72311.11552
0.0,1619,72365.24028
0.0,2222,72444.64862
0.0,1906,72515.220414
0.0,1497,72569.657391
0.0,4138,72716.713808
0.0,968,72752.180831
0.0,2170,72831.302814
0.0,1168,72873.86892
0.0,935,72906.032834
0.0,1775,72968.289147
0.0,3225,73081.688717
0.0,2701,73176.536732
0.0,1787,73238.944583
0.0,1162,73279.492749
0.0,1868,73348.996555
0.0,1710,73412.616026
0.0,2454,73494.837361
0.0,2015,73567.762131
0.0,2021,73640.794707
0.0,1594,73698.134556
0.0,1640,73755.658431
0.0,835,73785.04392
0.0,1535,73839.935155
0.0,2579,73928.221653
0.0,2388,74012.902465
0.0,2467,74102.795946
0.0,1162,74144.292851
0.0,2317,74227.517406
0.0,1294,74272.826748
0.0,3053,74381.903126
0.0,1487,74434.228658
0.0,2739,74532.228282
0.0,2911,74636.447273
0.0,1200,74677.323976
0.0,1224,74719.05156
0.0,2515,74804.968914
0.0,3081,74914.210683
0.0,2446,74994.872902
0.0,2171,75071.115829
0.0,2585,75159.924703
0.0,2328,75242.111171
0.0,1279,75288.097937
0.0,3226,75398.458223
0.0,2262,75473.491574
0.0,2471,75559.133417
0.0,1224,75601.247189
0.0,2399,75685.122792
0.0,1340,75731.844563
0.0,1308,75777.931894
0.0,2092,75850.821085
0.0,1431,75897.675199
0.0,1784,75958.737019
0.0,3411,76076.784648
0.0,2014,76146.645038
0.0,1392,76192.34393
0.0,2862,76292.420524
0.0,2647,76382.10066
0.0,1453,76432.003005
0.0,1387,76477.051486
0.0,2002,76546.40478
0.0,1342,76591.714682
0.0,1862,76657.429035
0.0,2802,76753.098362
0.0,1159,76791.340735
0.0,1324,76836.094388
0.0,2184,76910.583244
0.0,1414,76961.208231
0.0,1620,77019.174355
0.0,2903,77118.584955
0.0,2989,77221.201144
0.0,1301,77263.621473
0.0,2167,77338.359848
0.0,1042,77377.047734
0.0,2241,77455.548357
0.0,3594,77580.466325
0.0,1708,77643.251505
0.0,3026,77749.899894
0.0,1468,77799.826103
0.0,1889,77863.361961
0.0,1212,77904.307963
0.0,1844,77968.3896
0.0,3578,78095.474288
0.0,1098,78137.575188
0.0,1351,78181.895148
0.0,1219,78222.459843
0.0,2399,78304.847752
0.0,2226,78384.517207
0.0,1027,78420.515334
0.0,1677,78475.046132
0.0,1216,78518.278675
0.0,1757,78578.435438
0.0,1519,78629.577331
0.0,3140,78740.101542
0.0,1545,78793.137239
0.0,4532,78952.10878
0.0,1211,78992.708985
0.0,2012,79062.809401
0.0,2087,79135.962893
0.0,2171,79205.173124
0.0,1488,79254.519646
0.0,1639,79308.245718
0.0,2308,79382.79107
0.0,2364,79463.032798
0.0,4552,79616.456309
0.0,1915,79682.786323
0.0,1571,79734.848453
0.0,3577,79852.444503
0.0,1042,79885.131853
0.0,3420,79999.105774
0.0,3358,80111.824525
0.0,2295,80186.458847
0.0,1009,80219.147689
0.0,1852,80278.598024
0.0,947,80308.635995
0.0,4834,80469.641563
0.0,2014,80534.075796
0.0,2069,80603.878174
0.0,3087,80706.03441
0.0,1473,80756.514712
0.0,2696,80848.281415
0.0,2205,80919.712313
0.0,1558,80972.213197
0.0,1540,81023.575103
0.0,3713,81147.488848
0.0,2252,81222.244394
0.0,3138,81326.858923
0.0,2024,81392.566434
0.0,2017,81457.061012
0.0,1834,81518.284376
0.0,1253,81557.39325
0.0,771,81582.778079
0.0,2336,81653.483111
0.0,1481,81701.989983
0.0,3273,81806.411798
0.0,2796,81893.85597
0.0,1310,81933.263371
0.0,2460,82013.155418
0.0,2886,82104.450944
0.0,1773,82160.58617
0.0,2877,82252.391961
0.0,2022,82314.860526
0.0,1846,82373.137329
0.0,1933,82437.05906
0.0,1893,82497.804222
0.0,1528,82547.70796
0.0,1961,82610.535159
0.0,1613,82663.547614
0.0,1399,82711.371896
0.0,1475,82756.826862
0.0,1440,82803.300146
0.0,1943,82858.904347
