# {"t_start": 1547076565.4332447, "env_id": "PrivateEyeNoFrameskip-v4"} 
r,l,t
100.0,2697,59.649816
100.0,2694,116.109818
100.0,2694,171.764658
100.0,2694,227.823054
0.0,2696,284.197968
0.0,2694,341.704265
-14.0,2694,397.983696
100.0,2694,454.833763
100.0,2693,512.204066
0.0,2697,569.548676
0.0,2696,626.759822
0.0,2695,683.214181
100.0,2697,739.995275
0.0,2695,799.810165
100.0,2690,863.095351
0.0,2692,928.489697
100.0,2691,997.8681
100.0,2692,1069.877619
100.0,2692,1146.678855
0.0,2694,1226.991023
100.0,2694,1313.583976
100.0,2695,1403.838674
0.0,2693,1502.351725
100.0,2692,1606.253708
100.0,2693,1714.539979
100.0,2694,1821.463411
0.0,2694,1934.644256
100.0,2695,2052.431667
100.0,2692,2168.222276
100.0,2691,2282.79029
100.0,2692,2398.14523
100.0,2694,2514.368795
100.0,2696,2630.329002
0.0,2691,2745.382233
0.0,2695,2861.995166
100.0,2695,2977.848315
0.0,2691,3094.552962
0.0,2692,3209.735646
100.0,2696,3327.448307
100.0,2696,3443.177425
0.0,2691,3559.961037
100.0,2693,3675.684801
-1000.0,2694,3791.338302
100.0,2694,3908.269083
100.0,2693,4023.843623
0.0,2694,4141.675903
100.0,2691,4257.6235
100.0,2692,4375.30896
100.0,2692,4492.994801
100.0,2690,4611.743599
100.0,2697,4727.954247
100.0,2694,4844.130666
100.0,2690,4963.229533
100.0,2693,5079.321394
100.0,2696,5194.628177
100.0,2694,5310.098516
100.0,2695,5426.663579
100.0,2692,5544.38449
100.0,2697,5660.562314
100.0,2692,5776.928383
100.0,2694,5893.497836
0.0,2691,6011.894411
100.0,2694,6126.940238
0.0,2694,6243.686131
100.0,2697,6361.890001
0.0,2691,6476.429509
0.0,2691,6592.818318
100.0,2694,6708.344712
100.0,2696,6824.77242
100.0,2694,6940.583045
100.0,2696,7057.845162
100.0,2697,7174.911431
100.0,2696,7291.965445
100.0,2691,7404.802876
100.0,2691,7521.093837
100.0,2692,7637.624655
0.0,2698,7749.977119
0.0,2692,7863.155454
0.0,2691,7981.568388
-112.0,2692,8095.9643
0.0,2696,8215.059947
0.0,2695,8327.913554
-62.0,2697,8446.425084
0.0,2691,8562.561601
0.0,2698,8683.494007
100.0,2693,8799.340228
0.0,2692,8919.063445
0.0,2696,9034.30021
0.0,2692,9151.028049
0.0,2696,9270.434658
0.0,2694,9385.700618
0.0,2691,9501.703996
0.0,2693,9618.203974
0.0,2697,9732.763855
100.0,2694,9845.628588
0.0,2698,9961.396852
-42.0,2691,10078.359411
100.0,2693,10196.590224
0.0,2694,10311.910716
0.0,2691,10428.989153
100.0,2697,10544.445683
0.0,2691,10662.253542
100.0,2697,10780.043698
0.0,2697,10898.272366
-591.0,2690,11014.561213
0.0,2695,11132.680627
0.0,2694,11247.608092
0.0,2691,11365.328375
100.0,2692,11482.162598
0.0,2695,11599.646978
0.0,2696,11716.525865
0.0,2697,11830.627901
0.0,2690,11949.047283
100.0,2695,12061.070243
-700.0,2693,12178.304048
0.0,2697,12294.888853
0.0,2695,12412.407851
0.0,2694,12528.944572
0.0,2695,12645.105799
0.0,2697,12762.88571
0.0,2694,12878.948721
100.0,2692,12999.06593
0.0,2693,13115.541383
0.0,2697,13235.15496
-1000.0,2694,13353.003335
0.0,2692,13470.451062
0.0,2697,13589.939957
0.0,2697,13705.32528
0.0,2696,13821.72146
0.0,2690,13938.96279
0.0,2693,14056.062432
0.0,2696,14173.241286
0.0,2693,14291.102557
100.0,2694,14405.841529
0.0,2696,14521.094068
100.0,2695,14639.674462
0.0,2691,14756.493185
0.0,2695,14868.438582
0.0,2691,14987.162613
0.0,2695,15101.467381
0.0,2690,15217.724826
0.0,2692,15333.065206
0.0,2691,15447.01812
0.0,2694,15566.062085
-900.0,2694,15681.52004
-842.0,2697,15796.658826
0.0,2693,15911.108141
0.0,2692,16029.397697
0.0,2696,16145.354048
-438.0,2698,16260.968378
0.0,2691,16376.475593
0.0,2694,16491.726019
0.0,2693,16607.792646
0.0,2691,16725.085103
0.0,2690,16838.791337
0.0,2696,16953.833635
0.0,2693,17069.887357
0.0,2697,17183.928965
0.0,2691,17297.416378
0.0,2694,17413.988643
0.0,2697,17531.033822
0.0,2691,17647.300963
0.0,2695,17764.475212
0.0,2691,17880.924012
0.0,2696,17996.903845
0.0,2692,18112.258057
0.0,2691,18228.656671
0.0,2694,18343.583422
0.0,2693,18458.43674
0.0,2693,18574.7596
0.0,2691,18691.778436
0.0,2697,18808.967764
0.0,2697,18925.289185
0.0,2692,19043.122765
100.0,2692,19158.890877
0.0,2691,19277.112165
100.0,2694,19393.078881
100.0,2697,19510.274011
100.0,2694,19628.570393
100.0,2697,19742.648326
100.0,2692,19857.71146
100.0,2693,19973.016135
100.0,2692,20087.364507
0.0,2693,20201.613281
100.0,2691,20316.898611
100.0,2695,20433.343357
100.0,2693,20547.789896
100.0,2698,20664.392046
100.0,2696,20780.257322
100.0,2692,20897.381236
100.0,2690,21012.02625
100.0,2692,21128.597998
100.0,2697,21246.081686
100.0,2697,21362.053975
100.0,2695,21477.538677
100.0,2696,21593.479375
100.0,2692,21709.195154
100.0,2695,21825.468092
100.0,2691,21942.381645
100.0,2690,22060.136384
100.0,2691,22175.685903
100.0,2694,22291.033294
100.0,2695,22410.377403
100.0,2694,22526.275393
100.0,2697,22646.558801
100.0,2691,22761.32699
100.0,2694,22875.5422
100.0,2694,22991.815339
100.0,2691,23108.929677
100.0,2692,23226.602857
100.0,2694,23341.366646
100.0,2697,23456.355588
100.0,2691,23571.962745
100.0,2695,23686.346054
100.0,2693,23801.796096
100.0,2692,23916.957615
100.0,2691,24032.246227
100.0,2694,24150.721071
100.0,2690,24265.288746
100.0,2691,24382.668398
100.0,2696,24500.904967
100.0,2697,24616.916439
100.0,2695,24733.035594
100.0,2693,24848.575054
100.0,2697,24964.123072
100.0,2696,25082.999798
100.0,2695,25197.916317
100.0,2697,25315.330774
100.0,2697,25429.858471
100.0,2692,25545.20206
100.0,2697,25661.34198
100.0,2692,25777.021637
100.0,2692,25893.051195
100.0,2695,26009.907388
100.0,2697,26122.635921
100.0,2691,26235.908532
100.0,2693,26344.245899
100.0,2695,26455.885838
100.0,2692,26569.837573
100.0,2694,26680.838294
100.0,2696,26796.184783
100.0,2692,26908.517321
100.0,2695,27021.111217
100.0,2696,27135.328284
100.0,2697,27249.979517
100.0,2690,27360.856639
100.0,2694,27476.696121
100.0,2691,27589.27937
100.0,2695,27705.173466
100.0,2692,27818.804914
100.0,2695,27931.833314
100.0,2697,28045.549071
100.0,2690,28161.220464
100.0,2691,28274.636438
100.0,2694,28389.099059
100.0,2691,28503.938498
100.0,2692,28620.10585
100.0,2698,28735.045291
100.0,2693,28850.407386
100.0,2691,28963.942956
100.0,2695,29078.250365
100.0,2697,29190.861347
100.0,2692,29304.648039
100.0,2694,29417.648811
100.0,2691,29530.799984
100.0,2692,29647.774521
100.0,2694,29759.884877
100.0,2693,29874.264119
100.0,2692,29985.963863
100.0,2695,30100.982709
100.0,2696,30214.752397
100.0,2698,30328.017274
100.0,2694,30443.995388
100.0,2694,30559.984016
100.0,2696,30674.857241
100.0,2693,30784.285695
100.0,2694,30899.408632
100.0,2696,31013.999421
100.0,2696,31127.153366
100.0,2697,31241.773209
100.0,2695,31356.101149
100.0,2694,31469.83261
100.0,2691,31583.898322
100.0,2691,31697.801146
100.0,2690,31811.321981
0.0,2693,31925.208012
100.0,2696,32042.113837
0.0,2695,32155.310297
0.0,2696,32268.077906
0.0,2695,32380.756181
100.0,2694,32491.945217
0.0,2691,32608.034197
0.0,2696,32722.363858
0.0,2696,32836.044868
0.0,2695,32949.946197
0.0,2691,33064.312124
0.0,2695,33179.127282
0.0,2693,33290.940176
0.0,2696,33405.621388
0.0,2691,33517.559205
0.0,2696,33630.948672
100.0,2694,33744.855991
100.0,2698,33862.531662
100.0,2694,33977.830945
0.0,2693,34094.169827
100.0,2698,34211.335544
100.0,2692,34328.530985
100.0,2690,34444.801657
100.0,2691,34561.658393
100.0,2695,34677.564264
100.0,2692,34790.150499
100.0,2695,34907.802384
100.0,2697,35026.1611
100.0,2697,35144.572632
100.0,2690,35262.966048
100.0,2695,35379.241166
100.0,2693,35495.918426
100.0,2694,35610.605023
100.0,2694,35731.357602
100.0,2690,35847.768536
100.0,2696,35964.631068
100.0,2696,36081.401541
100.0,2692,36195.705899
100.0,2692,36311.222012
100.0,2693,36428.055202
100.0,2697,36545.153481
100.0,2692,36660.896183
100.0,2695,36776.569399
100.0,2696,36892.782422
100.0,2697,37011.517946
100.0,2697,37126.906107
100.0,2693,37243.023418
100.0,2696,37359.321185
100.0,2695,37478.008165
100.0,2692,37592.28581
100.0,2693,37709.306248
100.0,2692,37827.092606
100.0,2693,37946.608938
100.0,2694,38062.273945
0.0,2690,38180.413098
100.0,2694,38297.892994
100.0,2691,38415.49665
100.0,2694,38531.471639
100.0,2693,38647.169672
100.0,2697,38763.196816
100.0,2695,38879.336921
100.0,2698,38994.881661
100.0,2692,39109.444012
100.0,2692,39224.620119
100.0,2695,39342.502485
100.0,2695,39456.709647
100.0,2692,39575.547401
100.0,2693,39688.454384
100.0,2696,39804.529022
100.0,2690,39920.018057
100.0,2692,40034.535182
100.0,2691,40148.970252
100.0,2690,40260.842238
100.0,2691,40376.660206
100.0,2696,40490.877852
100.0,2698,40605.775145
100.0,2694,40718.244146
100.0,2693,40831.266396
100.0,2694,40945.019582
100.0,2694,41058.588402
100.0,2693,41170.836138
100.0,2693,41284.247383
100.0,2698,41400.381387
100.0,2694,41514.011864
100.0,2690,41628.585267
100.0,2693,41740.435545
100.0,2692,41855.276839
41.0,2691,41971.485253
100.0,2691,42084.705723
100.0,2692,42198.256207
100.0,2697,42311.860924
100.0,2696,42424.830348
100.0,2693,42538.670973
100.0,2696,42655.325244
100.0,2695,42772.030576
100.0,2691,42885.803195
100.0,2695,42998.937328
100.0,2691,43112.48977
100.0,2696,43226.537132
100.0,2696,43341.299361
100.0,2698,43456.960965
100.0,2692,43571.845062
100.0,2695,43684.348537
100.0,2694,43799.394897
100.0,2697,43912.228841
100.0,2690,44024.678362
100.0,2693,44139.628301
100.0,2695,44253.104335
100.0,2695,44365.983714
100.0,2692,44479.00924
100.0,2692,44591.474344
100.0,2698,44703.565316
100.0,2694,44820.230195
100.0,2692,44932.736542
100.0,2696,45047.157383
100.0,2696,45160.976894
100.0,2696,45276.457981
100.0,2696,45391.994175
100.0,2693,45503.577664
100.0,2691,45617.771061
100.0,2692,45733.704481
100.0,2694,45848.035412
100.0,2696,45961.823329
100.0,2693,46075.539697
100.0,2691,46190.172562
100.0,2693,46308.488302
100.0,2691,46425.700542
100.0,2694,46539.927637
100.0,2696,46653.131759
100.0,2693,46767.384056
100.0,2697,46882.177014
100.0,2695,46996.572484
100.0,2691,47107.763955
100.0,2696,47219.269637
100.0,2693,47335.882147
100.0,2691,47450.713368
100.0,2695,47561.786255
100.0,2694,47676.807162
100.0,2697,47788.592723
100.0,2694,47901.846971
100.0,2695,48015.358167
100.0,2694,48127.654758
100.0,2693,48239.721451
100.0,2694,48352.454649
100.0,2694,48466.277023
100.0,2691,48580.493503
100.0,2695,48694.490227
100.0,2693,48810.936974
100.0,2692,48925.689145
100.0,2695,49039.228749
100.0,2695,49154.630944
100.0,2695,49270.345481
100.0,2692,49383.952659
100.0,2691,49500.225538
100.0,2694,49611.74565
100.0,2698,49723.769996
100.0,2695,49838.782641
100.0,2696,49952.323463
100.0,2695,50065.953993
100.0,2698,50179.198383
100.0,2696,50289.867062
100.0,2694,50402.996212
100.0,2697,50516.362575
100.0,2695,50629.045214
100.0,2696,50743.170708
100.0,2696,50857.290149
100.0,2695,50973.237801
100.0,2697,51089.544155
100.0,2697,51204.439403
100.0,2693,51320.501433
100.0,2696,51434.797571
100.0,2693,51549.666957
100.0,2691,51664.040356
100.0,2697,51780.857658
100.0,2692,51898.904531
100.0,2693,52011.206696
100.0,2693,52125.470782
0.0,2693,52239.520706
100.0,2697,52353.756016
100.0,2691,52468.988129
100.0,2695,52580.515859
100.0,2695,52695.028916
100.0,2697,52809.38053
100.0,2697,52921.333821
100.0,2693,53035.692376
100.0,2695,53150.28896
100.0,2695,53262.401316
100.0,2692,53376.400941
100.0,2692,53493.336532
100.0,2690,53607.057595
100.0,2695,53725.21743
100.0,2694,53841.85817
100.0,2694,53957.702434
100.0,2693,54071.827706
100.0,2692,54186.688262
100.0,2697,54306.923944
100.0,2694,54426.321896
100.0,2695,54544.51814
100.0,2691,54661.495071
100.0,2697,54776.221427
100.0,2696,54893.16191
100.0,2692,55011.80883
100.0,2695,55129.813877
100.0,2695,55247.841649
100.0,2693,55364.997897
100.0,2697,55482.618164
100.0,2692,55600.783421
100.0,2694,55718.871332
100.0,2693,55836.240355
100.0,2690,55953.299537
100.0,2693,56068.094543
100.0,2696,56183.145643
100.0,2694,56300.71395
100.0,2693,56417.59896
100.0,2691,56532.923779
100.0,2691,56652.438555
100.0,2693,56770.245509
100.0,2695,56886.328697
100.0,2695,57002.796127
100.0,2694,57120.011642
100.0,2692,57234.330289
100.0,2695,57351.217877
100.0,2691,57465.848886
100.0,2696,57579.183847
100.0,2695,57693.23723
100.0,2691,57805.769516
100.0,2696,57923.973717
100.0,2694,58036.936789
100.0,2691,58150.032938
100.0,2695,58265.563243
100.0,2698,58378.537471
100.0,2692,58492.048681
100.0,2694,58606.154745
100.0,2693,58717.832628
100.0,2692,58834.788733
100.0,2698,58946.519984
100.0,2692,59059.577527
100.0,2696,59173.49998
100.0,2697,59287.568932
100.0,2695,59401.922148
100.0,2695,59515.202358
100.0,2696,59631.822081
100.0,2694,59745.443711
100.0,2693,59858.104145
100.0,2691,59971.381295
100.0,2695,60084.895356
100.0,2691,60198.820371
100.0,2698,60310.857169
100.0,2696,60425.033112
100.0,2696,60538.464692
100.0,2695,60652.554093
100.0,2691,60766.57403
100.0,2694,60878.677281
100.0,2690,60995.030335
100.0,2697,61109.358316
100.0,2697,61222.010603
0.0,2694,61337.073925
0.0,2693,61449.184669
0.0,2691,61562.557225
0.0,2696,61676.909235
100.0,2692,61791.284061
100.0,2698,61905.361284
100.0,2694,62019.332714
100.0,2692,62130.8065
100.0,2697,62247.099349
100.0,2695,62361.429825
100.0,2693,62472.603485
100.0,2692,62585.587984
100.0,2692,62698.988951
0.0,2696,62812.282083
100.0,2695,62926.61438
100.0,2696,63039.262511
100.0,2692,63155.399986
100.0,2692,63272.677062
100.0,2694,63388.050863
100.0,2691,63504.150962
100.0,2694,63617.70269
100.0,2691,63731.443304
100.0,2697,63845.620251
100.0,2691,63957.853127
100.0,2694,64073.170156
100.0,2693,64187.459681
100.0,2691,64299.476384
100.0,2692,64416.356304
100.0,2691,64529.151887
100.0,2692,64643.919617
100.0,2696,64757.015849
100.0,2697,64873.045957
100.0,2693,64985.676575
100.0,2694,65100.865522
100.0,2694,65216.123918
100.0,2694,65333.099923
100.0,2696,65447.983773
100.0,2691,65561.343334
100.0,2692,65677.152703
100.0,2694,65790.572978
100.0,2690,65902.254347
100.0,2691,66015.432937
100.0,2694,66128.673468
100.0,2695,66243.729991
100.0,2691,66358.961623
100.0,2693,66473.838588
100.0,2696,66591.001393
100.0,2694,66704.596992
100.0,2696,66819.709409
100.0,2697,66931.465271
100.0,2696,67044.98542
100.0,2694,67156.90399
100.0,2697,67270.224355
100.0,2695,67379.960661
100.0,2697,67493.109723
100.0,2694,67607.344441
100.0,2692,67725.554439
100.0,2698,67842.909446
100.0,2690,67959.715651
100.0,2697,68075.217936
100.0,2696,68192.022215
100.0,2694,68309.49904
100.0,2698,68428.021169
100.0,2693,68546.3151
100.0,2694,68661.558171
100.0,2694,68777.969837
100.0,2691,68893.081872
100.0,2696,69008.619769
100.0,2692,69123.359158
100.0,2695,69234.906198
100.0,2695,69346.22982
100.0,2692,69459.607165
100.0,2695,69574.17791
100.0,2697,69689.123132
100.0,2696,69805.247311
100.0,2696,69917.654285
100.0,2691,70030.332201
100.0,2692,70145.267212
100.0,2698,70259.57287
100.0,2694,70375.085654
100.0,2691,70489.595361
100.0,2696,70606.136112
100.0,2690,70720.38599
100.0,2691,70832.990563
100.0,2693,70946.804832
100.0,2691,71058.663109
100.0,2691,71173.949785
100.0,2693,71289.141042
100.0,2691,71403.245256
100.0,2693,71514.934586
100.0,2693,71631.101054
100.0,2696,71745.060639
0.0,2693,71857.835029
100.0,2693,71972.94708
100.0,2693,72086.325523
100.0,2692,72202.070096
100.0,2695,72317.041107
100.0,2694,72431.617254
100.0,2691,72544.196952
100.0,2691,72659.38749
100.0,2694,72771.399558
100.0,2691,72884.727226
100.0,2697,72996.694394
100.0,2694,73111.669785
100.0,2690,73227.411085
100.0,2695,73342.527739
100.0,2694,73459.38664
100.0,2692,73572.822778
100.0,2692,73684.691206
100.0,2694,73796.671958
100.0,2692,73912.374424
100.0,2693,74027.404783
100.0,2694,74143.663883
100.0,2694,74258.033523
100.0,2693,74374.579413
100.0,2691,74488.362494
100.0,2691,74601.337599
100.0,2693,74718.616966
100.0,2693,74836.34583
100.0,2695,74954.22543
100.0,2695,75069.434042
100.0,2696,75187.273321
100.0,2691,75307.859377
100.0,2692,75424.518721
100.0,2697,75547.164201
100.0,2697,75664.174056
100.0,2695,75784.357856
100.0,2698,75906.280849
100.0,2693,76027.032615
100.0,2692,76147.668984
100.0,2695,76271.690714
100.0,2693,76390.2107
100.0,2698,76507.906876
100.0,2695,76628.20118
100.0,2695,76748.94381
100.0,2693,76868.149818
100.0,2692,76990.403364
100.0,2695,77111.509156
100.0,2695,77231.758177
100.0,2696,77350.763284
100.0,2695,77471.62427
100.0,2696,77595.044798
100.0,2694,77713.044629
100.0,2694,77833.119752
100.0,2691,77950.638422
100.0,2696,78068.943357
100.0,2692,78190.34732
100.0,2695,78310.139836
100.0,2691,78428.236415
100.0,2692,78547.77856
100.0,2697,78666.645413
100.0,2695,78787.34534
0.0,2695,78909.628879
100.0,2697,79029.300564
100.0,2698,79151.858788
100.0,2692,79271.020359
100.0,2695,79390.832178
100.0,2696,79513.395525
100.0,2697,79630.649605
100.0,2692,79751.342264
100.0,2698,79875.00865
100.0,2695,79995.251213
100.0,2692,80117.471893
100.0,2695,80237.945408
100.0,2691,80360.38592
100.0,2696,80479.356263
100.0,2694,80599.650262
100.0,2691,80720.828977
100.0,2694,80844.458735
100.0,2693,80961.865224
100.0,2695,81082.757645
100.0,2691,81202.625097
100.0,2693,81328.290735
100.0,2692,81450.717814
100.0,2693,81579.232838
100.0,2691,81705.912434
100.0,2695,81827.6269
100.0,2697,81950.680488
100.0,2697,82069.457566
100.0,2692,82190.01051
100.0,2692,82305.098823
100.0,2695,82424.395571
100.0,2692,82543.87361
100.0,2696,82666.245285
100.0,2697,82787.54302
100.0,2695,82907.823668
100.0,2692,83027.397362
100.0,2695,83145.847564
100.0,2695,83265.443936
100.0,2695,83383.224497
100.0,2694,83502.019983
100.0,2696,83619.836953
100.0,2691,83740.607673
100.0,2692,83858.229918
100.0,2692,83978.84522
100.0,2697,84098.310076
100.0,2696,84221.833985
100.0,2696,84342.053227
100.0,2696,84461.320046
100.0,2694,84581.044973
100.0,2691,84701.251735
100.0,2695,84818.36278
100.0,2694,84937.71768
100.0,2696,85055.682381
100.0,2691,85171.417366
100.0,2692,85287.61951
100.0,2691,85403.601226
100.0,2695,85518.561437
100.0,2698,85634.603372
100.0,2697,85752.761509
100.0,2695,85871.523069
100.0,2697,85990.281363
100.0,2694,86108.677869
100.0,2695,86225.982388
100.0,2690,86341.405695
100.0,2695,86461.366993
100.0,2692,86576.83784
100.0,2698,86694.010512
100.0,2691,86810.926198
100.0,2692,86925.587002
100.0,2696,87043.755738
100.0,2696,87163.172494
100.0,2692,87279.57481
100.0,2697,87397.863322
100.0,2691,87512.902213
100.0,2691,87627.593248
100.0,2693,87740.802258
100.0,2696,87856.408386
100.0,2693,87970.588551
100.0,2692,88083.301329
100.0,2694,88197.401076
100.0,2694,88316.160337
100.0,2698,88432.760055
100.0,2691,88549.314854
100.0,2695,88665.846303
100.0,2694,88784.21307
100.0,2696,88902.358483
100.0,2698,89017.851354
100.0,2691,89135.878829
100.0,2694,89249.097796
100.0,2698,89362.29125
100.0,2693,89474.445992
100.0,2697,89588.406922
100.0,2695,89702.061455
100.0,2691,89811.465587
100.0,2695,89927.173388
100.0,2695,90042.081647
100.0,2696,90155.594239
100.0,2697,90269.266544
100.0,2693,90386.925936
100.0,2696,90501.677045
100.0,2692,90616.81468
100.0,2693,90725.24967
100.0,2694,90835.833658
100.0,2696,90948.584733
100.0,2695,91058.824912
100.0,2693,91172.528111
100.0,2697,91284.79764
100.0,2693,91396.436733
100.0,2693,91506.268101
100.0,2691,91614.654684
100.0,2697,91726.687336
100.0,2697,91840.480367
100.0,2694,91952.182915
100.0,2695,92059.366864
100.0,2694,92169.761958
100.0,2694,92279.151096
100.0,2696,92387.980222
100.0,2690,92497.705715
100.0,2696,92608.896121
100.0,2697,92717.161616
100.0,2697,92825.047729
100.0,2693,92930.63215
100.0,2697,93039.61853
100.0,2695,93144.071
100.0,2695,93255.531484
100.0,2696,93366.505218
100.0,2697,93473.781964
100.0,2692,93582.019617
100.0,2696,93689.346875
100.0,2695,93798.626197
100.0,2691,93909.260491
100.0,2697,94017.212505
100.0,2697,94122.23946
100.0,2694,94229.797126
100.0,2691,94338.082384
100.0,2698,94447.448543
100.0,2691,94555.328889
100.0,2692,94664.182981
100.0,2696,94773.722389
100.0,2693,94881.959751
100.0,2694,94989.18855
100.0,2697,95097.92194
100.0,2691,95205.233293
100.0,2693,95316.584702
100.0,2691,95424.922281
100.0,2693,95534.031088
100.0,2693,95641.442888
100.0,2691,95752.356357
100.0,2697,95859.581098
100.0,2692,95963.852085
100.0,2695,96067.659905
100.0,2693,96171.326317
100.0,2695,96274.242912
100.0,2693,96377.338315
100.0,2690,96473.656924
100.0,2695,96570.920537
100.0,2691,96670.952636
100.0,2696,96771.22649
100.0,2697,96869.899466
100.0,2694,96968.173186
100.0,2692,97068.68496
100.0,2696,97172.20877
100.0,2691,97269.786748
100.0,2692,97369.464453
100.0,2692,97464.56441
100.0,2695,97562.189938
100.0,2696,97659.667436
100.0,2694,97757.279161
100.0,2693,97854.037854
100.0,2691,97949.427491
100.0,2693,98046.6147
100.0,2695,98144.175897
100.0,2693,98235.505989
100.0,2693,98324.540592
100.0,2693,98415.948585
100.0,2696,98504.855612
100.0,2692,98595.371096
100.0,2697,98687.235092
100.0,2693,98780.512628
100.0,2695,98872.660901
100.0,2694,98963.886473
100.0,2695,99050.54125
100.0,2694,99135.621063
100.0,2691,99220.13476
100.0,2693,99307.517064
100.0,2697,99395.111167
100.0,2691,99481.425514
100.0,2693,99568.633993
100.0,2695,99654.74667
100.0,2697,99740.033027
100.0,2698,99828.726691
100.0,2697,99914.775249
100.0,2697,100003.312416
100.0,2690,100090.056129
100.0,2695,100178.22221
100.0,2692,100262.470668
100.0,2694,100346.72496
100.0,2691,100421.982894
100.0,2697,100490.551926
100.0,2694,100558.61145
100.0,2690,100625.396931
100.0,2694,100691.729291
100.0,2695,100758.22862
100.0,2695,100825.457622
100.0,2693,100894.019819
100.0,2693,100957.849496
100.0,2697,101020.872639
100.0,2693,101078.837756
100.0,2692,101134.989514
100.0,2695,101192.457943
100.0,2698,101249.126295
100.0,2696,101305.279139
100.0,2693,101363.591646
100.0,2693,101420.684747
100.0,2695,101477.309823
100.0,2697,101533.829594
100.0,2691,101586.285533
100.0,2694,101637.595725
100.0,2697,101691.243983
100.0,2691,101741.420314
100.0,2691,101789.362831
100.0,2697,101836.978502
100.0,2694,101884.521564
100.0,2693,101932.34324
100.0,2690,101979.761366
100.0,2694,102028.624437
100.0,2696,102076.312448
100.0,2692,102124.161472
100.0,2698,102171.822296
100.0,2692,102216.605711
100.0,2692,102260.928137
100.0,2692,102305.403081
100.0,2695,102350.857709
100.0,2693,102394.307423
100.0,2694,102438.37307
100.0,2691,102482.218405
