# {"t_start": 1547446651.5019963, "env_id": "KungFuMasterNoFrameskip-v4"} 
r,l,t1200.0,1063,38.227247
1700.0,1191,80.310162
2300.0,1225,124.221472
700.0,906,155.772197
4900.0,1713,216.853565
3500.0,1362,264.811371
5000.0,1383,314.32458
1800.0,1301,360.066108
3400.0,1299,405.879371
6300.0,1701,465.658358
5000.0,1861,531.032353
4900.0,1691,591.114466
8700.0,2353,674.86439
3800.0,1449,728.805652
2600.0,1228,772.649401
2600.0,1305,818.809866
3400.0,1210,861.985751
5500.0,1679,924.06871
2100.0,1224,968.424744
5000.0,1464,1021.078172
7700.0,1608,1078.1543
5500.0,1420,1131.360231
6800.0,1424,1183.947954
6000.0,1487,1238.22389
8600.0,1927,1307.065804
18600.0,2347,1390.48135
19100.0,2431,1476.687164
14500.0,2276,1560.000605
18000.0,2454,1649.416739
15500.0,1904,1722.62262
12300.0,2003,1796.8663
19500.0,2469,1888.04729
17600.0,2379,1975.821486
17000.0,2940,2085.496318
12000.0,1667,2146.004926
14000.0,2032,2220.676128
9400.0,1682,2282.953514
15300.0,2210,2366.298398
17300.0,1953,2436.083833
10000.0,1387,2485.260236
11800.0,1872,2554.013068
9500.0,1572,2614.46646
11000.0,2104,2692.448112
17500.0,2506,2779.93127
12600.0,2075,2853.374134
7400.0,1334,2902.661153
18500.0,2285,2984.358967
16100.0,2204,3063.326255
9700.0,1900,3131.855723
11200.0,1683,3192.863889
24100.0,3015,3301.972933
24200.0,3164,3417.180565
11400.0,1663,3479.848774
9700.0,1690,3539.537678
10500.0,1752,3601.042006
11000.0,1721,3665.173147
9400.0,1951,3737.834457
13400.0,2388,3826.876595
14500.0,2223,3909.907743
10900.0,1897,3977.837528
11600.0,2132,4057.528746
15700.0,2264,4140.420224
11300.0,2150,4217.97433
11200.0,2124,4296.367845
10400.0,1855,4365.660172
22000.0,3107,4478.422703
17500.0,2459,4572.557858
26500.0,3305,4693.615963
19300.0,2491,4782.649575
14700.0,2132,4861.512088
13000.0,1840,4928.618
22400.0,2979,5038.327487
12000.0,1769,5107.192116
20800.0,2761,5212.388179
16800.0,2274,5295.579798
35600.0,4046,5442.917475
20700.0,2754,5548.036545
10800.0,1461,5604.050332
20000.0,2457,5695.500051
15800.0,2207,5780.133545
19800.0,2439,5871.611918
17100.0,2217,5954.854252
13300.0,1794,6021.29864
16600.0,2128,6097.699507
12100.0,1918,6168.137911
18900.0,2298,6254.328049
16000.0,2074,6334.356723
27300.0,2960,6445.501126
16200.0,2249,6529.301635
21300.0,2455,6619.319265
15000.0,2070,6695.122783
14400.0,1960,6766.07397
21800.0,2386,6852.09683
15400.0,2069,6930.30618
22400.0,2774,7032.205686
14400.0,1995,7107.310837
16800.0,2194,7189.220033
13100.0,2062,7266.773877
20400.0,2442,7355.147755
15900.0,2182,7435.232304
16600.0,2024,7508.690158
13100.0,1663,7572.712873
32900.0,3469,7701.007638
19200.0,2526,7794.948625
23700.0,2665,7895.63626
27700.0,3413,8024.832889
18700.0,2336,8113.204438
21300.0,2745,8216.762618
13200.0,2027,8291.762171
23000.0,2635,8389.032728
31700.0,3521,8518.918528
20900.0,2898,8626.145085
18000.0,2553,8722.431382
18400.0,2345,8810.775094
20600.0,2468,8900.182433
9600.0,1633,8960.1072
10600.0,1640,9021.747067
14700.0,1925,9096.276048
11600.0,1592,9154.519164
14700.0,2004,9227.614105
9200.0,1504,9283.577511
26900.0,3108,9401.410978
19000.0,2527,9494.194456
9200.0,1783,9558.704559
19700.0,2228,9640.425351
13000.0,1836,9708.582
21200.0,2508,9803.518245
23200.0,2722,9907.381851
11600.0,1770,9972.246187
8800.0,1776,10038.146914
25400.0,2781,10142.499087
22200.0,2774,10247.066784
23000.0,3014,10359.923054
20800.0,2513,10453.051117
14600.0,2158,10534.665155
16600.0,2295,10618.681742
13800.0,1916,10688.262324
15400.0,2297,10773.765368
13000.0,1894,10846.858345
16100.0,2320,10933.168905
10800.0,1715,10998.145079
16800.0,1919,11069.746666
20900.0,2341,11156.042767
16500.0,2146,11234.746895
21600.0,2748,11333.462388
13800.0,2145,11409.537031
22800.0,2773,11513.040256
9700.0,1769,11579.243391
33200.0,3816,11719.79153
23000.0,2771,11820.403118
17800.0,2195,11901.292629
27000.0,3234,12019.271847
23800.0,2834,12122.918141
24700.0,2850,12231.52077
11800.0,1665,12292.60385
24800.0,2961,12404.352873
25400.0,3096,12522.697118
29600.0,3455,12649.365837
26800.0,3101,12764.598953
25000.0,3106,12879.496714
14600.0,2075,12957.463404
25000.0,2941,13065.384839
23000.0,2537,13156.898623
21200.0,2578,13251.871869
16800.0,2179,13335.016788
17200.0,2213,13417.129568
13800.0,2031,13491.018225
23200.0,2652,13587.118186
21400.0,2719,13688.025899
13400.0,2097,13766.251441
15400.0,2297,13850.970152
15500.0,2155,13929.816051
13900.0,2073,14008.88212
16400.0,2333,14094.40984
20800.0,2512,14190.380251
14200.0,2031,14267.503411
17400.0,2456,14358.767581
17900.0,2235,14441.680108
16300.0,2473,14528.05476
19000.0,2456,14622.806803
15000.0,1883,14690.281999
13300.0,2059,14766.350377
10800.0,1927,14836.035399
11900.0,1767,14901.143675
28700.0,3402,15027.924356
19900.0,2562,15121.161065
11500.0,1765,15187.43591
18500.0,2420,15278.852651
15000.0,1992,15350.319883
26200.0,2931,15460.404272
23700.0,3212,15582.257743
32500.0,3594,15721.508118
17100.0,2141,15800.968223
29600.0,3145,15918.29051
18300.0,2124,15997.307167
18500.0,2510,16089.768696
26600.0,3172,16207.542529
29300.0,3105,16321.3637
20800.0,2434,16410.362961
12500.0,1928,16482.864388
14000.0,1996,16556.336222
22000.0,2639,16655.215417
18500.0,2312,16745.119995
18400.0,2293,16830.188252
30600.0,3172,16946.454693
15800.0,2038,17024.121751
21900.0,2708,17122.058077
10600.0,1824,17189.254649
16000.0,2243,17270.534081
18900.0,2253,17355.121565
26500.0,3180,17469.991553
14500.0,2243,17553.643255
30300.0,3424,17680.428788
13700.0,2062,17755.64016
20000.0,2635,17852.178047
26200.0,3017,17964.586085
16300.0,2379,18052.801246
22500.0,3017,18161.796009
23400.0,3151,18277.436752
24500.0,3581,18407.050418
20400.0,3321,18527.604034
16700.0,2740,18628.720421
15200.0,2398,18715.690024
14400.0,2349,18803.470858
30200.0,3827,18941.92755
18600.0,2786,19044.650264
19200.0,2855,19148.244694
28000.0,3539,19276.54539
36800.0,4911,19457.142537
21900.0,2663,19554.834153
18200.0,2597,19649.01492
15400.0,2345,19737.104708
23200.0,3328,19862.484006
12700.0,2081,19937.797673
31900.0,3484,20066.175807
21500.0,2562,20160.061435
43600.0,4511,20323.617054
10800.0,1736,20388.074172
27400.0,2947,20498.305781
15600.0,2167,20577.452943
20100.0,2526,20674.326679
20800.0,2455,20765.959811
17500.0,2184,20845.145899
22400.0,2570,20937.478734
19500.0,2454,21026.873792
15500.0,2128,21104.618492
14000.0,2003,21176.606363
9600.0,1702,21241.499129
12900.0,2112,21319.067812
13600.0,2067,21396.035742
13800.0,2023,21471.998922
16200.0,2046,21546.694622
18700.0,2347,21634.200356
19200.0,2732,21735.825445
19500.0,2529,21826.809694
12500.0,2040,21903.468088
20600.0,2849,22008.762699
19400.0,2666,22109.963005
20800.0,3324,22231.451503
18900.0,3064,22346.857378
10500.0,2286,22430.315403
21200.0,3253,22554.646125
14100.0,2730,22653.842199
12700.0,2586,22751.098687
13900.0,3030,22866.415055
13300.0,2865,22977.140306
20000.0,3399,23100.976599
17200.0,3574,23233.96353
9300.0,2559,23326.831893
9400.0,2254,23411.386654
13300.0,2959,23519.834071
17700.0,3282,23638.651931
18200.0,3537,23767.836345
18000.0,3639,23901.255741
22500.0,4198,24054.011652
7700.0,1766,24120.449592
9400.0,2080,24198.814808
14600.0,2727,24301.263986
18800.0,2743,24403.765965
28400.0,4501,24568.513425
19100.0,2776,24671.23276
18100.0,3017,24780.741393
18200.0,3122,24895.816512
14800.0,2722,25000.010378
16200.0,2695,25102.288502
12900.0,2781,25204.57265
9900.0,2153,25283.86939
14500.0,2730,25384.524491
14600.0,2457,25476.549841
19200.0,2963,25587.872047
30800.0,3806,25727.733327
16300.0,2744,25830.904383
12300.0,2553,25925.697541
20200.0,3543,26056.504612
20300.0,3540,26189.586755
7900.0,1820,26255.735208
26700.0,4054,26406.062352
19100.0,2777,26511.004911
14100.0,3021,26629.025012
13200.0,2456,26723.548007
17300.0,2742,26830.823808
14500.0,2658,26931.537674
12700.0,2343,27023.974905
14800.0,2779,27131.357212
25200.0,3915,27280.688711
9100.0,2018,27358.245901
21400.0,3257,27484.76642
17700.0,2889,27592.472399
21200.0,3509,27725.471773
23900.0,3196,27845.206386
18500.0,2385,27935.858035
31800.0,3884,28081.358778
19300.0,2540,28180.313872
13900.0,2019,28258.270367
19500.0,2765,28364.746335
25100.0,3901,28514.67683
15500.0,2526,28608.936697
17800.0,2663,28712.462248
16500.0,2497,28806.862794
24200.0,3203,28929.457063
16000.0,2216,29013.600001
26500.0,3420,29146.860661
30100.0,4079,29304.035783
26200.0,3197,29421.69989
15300.0,2535,29518.067637
20900.0,3077,29637.029932
26200.0,3717,29779.98783
16100.0,2806,29890.104404
17000.0,2773,29998.092714
27800.0,3944,30150.560416
13000.0,2019,30229.231919
14300.0,2600,30326.837823
16500.0,2482,30420.959217
12800.0,2311,30512.916051
12100.0,2164,30596.798363
15800.0,2452,30689.077827
14400.0,2293,30774.551737
23300.0,3585,30906.267932
13600.0,2606,31003.373744
24700.0,3280,31118.867312
33600.0,4223,31273.381511
19300.0,3103,31387.234458
14300.0,2741,31486.008049
20400.0,3502,31613.652098
31600.0,4522,31786.714087
27100.0,4229,31949.157733
19200.0,2746,32055.62973
30100.0,3804,32198.045342
29500.0,3649,32334.868418
13200.0,2125,32412.324554
21200.0,2830,32517.414087
13700.0,2021,32591.19147
32500.0,3862,32729.990889
22300.0,3103,32846.724632
23500.0,3105,32967.111062
19700.0,3205,33091.868623
24100.0,3680,33232.158448
14900.0,2729,33331.878525
23300.0,3828,33470.304929
11200.0,2357,33560.19278
12400.0,2235,33644.144787
19100.0,2832,33751.848756
15900.0,2868,33861.970684
7900.0,1846,33929.764361
12700.0,2450,34019.194295
14800.0,2471,34110.411887
6300.0,1805,34179.956101
15400.0,3175,34301.58902
13900.0,2299,34383.128312
13400.0,2440,34470.713928
16200.0,2563,34564.775578
35500.0,4012,34714.784271
25800.0,3209,34832.753413
19500.0,2564,34928.17543
20600.0,2691,35026.651762
28900.0,3392,35154.819233
17300.0,2366,35241.913131
20400.0,3072,35355.144435
12800.0,2094,35432.11886
19500.0,2999,35542.21737
23200.0,3851,35682.708766
13100.0,2332,35768.004316
22800.0,3101,35882.756777
17800.0,2672,35982.100398
17900.0,3281,36103.77296
7700.0,1853,36171.608837
17100.0,2813,36276.102466
20700.0,3478,36401.137655
24300.0,3965,36551.208598
19400.0,2945,36661.764264
9700.0,2457,36749.373879
22700.0,3937,36895.869586
20700.0,3283,37017.257359
26600.0,3744,37157.46202
16800.0,2734,37258.595104
32200.0,3917,37407.695902
16000.0,2948,37514.643678
18000.0,3013,37625.586817
11700.0,2068,37703.657836
26200.0,3542,37834.182612
8900.0,1575,37890.713815
19500.0,3290,38012.425678
20400.0,3173,38131.231464
16400.0,3372,38256.407142
13600.0,2773,38357.583368
18800.0,3134,38472.763203
10200.0,2349,38562.763014
18300.0,3153,38680.502553
24400.0,3989,38828.454266
14400.0,2607,38923.333832
19800.0,3223,39043.670455
7500.0,1704,39108.011789
13200.0,2776,39209.082475
19300.0,3375,39333.062694
14300.0,2637,39434.972973
27000.0,4625,39605.417434
18000.0,2993,39718.738019
28300.0,4220,39873.915159
6900.0,1930,39945.859851
14000.0,2671,40043.778085
23100.0,3217,40163.659661
15600.0,2713,40264.051692
22900.0,3120,40375.532013
27000.0,3888,40522.484269
18300.0,2783,40626.358276
38100.0,5057,40815.021231
31800.0,4374,40975.862827
44700.0,5417,41176.022526
15200.0,2434,41267.074668
25200.0,3647,41401.848444
22500.0,3424,41530.479009
27400.0,3239,41650.371058
34500.0,4244,41806.125794
22700.0,3432,41930.665825
36000.0,4674,42104.029135
25500.0,3862,42249.330268
21400.0,3160,42369.867626
21400.0,3432,42496.588848
8800.0,2035,42570.305226
11400.0,2008,42642.476197
17100.0,3235,42764.310616
26600.0,4025,42917.293762
32700.0,3861,43058.732739
24100.0,2956,43169.01251
22600.0,2851,43273.77135
31400.0,3721,43409.746333
31500.0,3865,43555.526157
25300.0,3501,43680.112656
32000.0,3968,43828.289515
19400.0,3149,43947.703892
13200.0,2220,44029.174279
16200.0,2720,44129.031487
31900.0,4027,44279.278727
22000.0,3597,44412.944106
21800.0,3699,44550.778597
15700.0,2892,44658.624084
16900.0,3555,44786.58608
26600.0,4966,44966.726807
22200.0,3544,45100.222851
17600.0,2959,45213.289627
15100.0,2390,45300.318928
32400.0,4094,45456.237041
40000.0,4769,45628.928535
20500.0,3103,45744.247961
22000.0,2967,45852.349288
31900.0,4129,46002.932809
31700.0,3742,46142.974665
20100.0,2847,46249.936235
36300.0,4099,46400.921403
29100.0,3977,46545.373516
40300.0,4757,46724.930023
29800.0,3395,46852.128523
31700.0,3824,46989.866937
50700.0,6259,47221.765852
33300.0,4206,47377.052946
31900.0,4368,47542.541707
31900.0,3936,47687.530005
20300.0,2993,47798.481807
33000.0,4131,47950.80446
34900.0,4680,48120.196286
26400.0,3819,48253.905734
12200.0,2090,48333.955374
18600.0,2825,48437.546856
32000.0,4302,48598.465842
32300.0,4403,48757.189593
24100.0,4100,48905.189788
34900.0,4676,49073.152545
26500.0,3812,49212.034281
31900.0,4365,49361.401056
21700.0,3719,49483.193338
30000.0,4234,49619.42274
27700.0,3871,49743.813184
25800.0,4052,49879.711758
17100.0,3073,49976.613783
20400.0,3423,50082.518437
17100.0,3184,50176.235631
21000.0,4065,50297.105899
26900.0,3477,50404.035884
23400.0,3203,50497.884166
26500.0,3755,50604.205705
17000.0,2773,50684.073808
27500.0,3847,50793.731197
27000.0,4227,50916.68873
28400.0,3771,51037.748915
23800.0,3764,51169.207969
22400.0,3146,51278.459633
26600.0,3535,51401.149654
30200.0,3506,51524.12411
22300.0,3161,51635.930521
24900.0,2708,51729.199269
19700.0,2725,51824.636462
24200.0,2890,51925.457536
23000.0,3212,52034.252336
22400.0,2800,52127.837327
26900.0,3801,52254.761522
29900.0,4618,52393.859414
14000.0,2294,52458.217535
42000.0,5314,52601.658283
32600.0,4677,52723.692419
18300.0,3021,52800.046564
9800.0,1901,52848.531149
22600.0,3393,52931.563483
25900.0,3912,53028.174579
20300.0,3538,53115.174925
12500.0,2643,53181.258173
31900.0,4585,53296.870833
23900.0,3499,53383.117728
14400.0,2684,53451.648056
32400.0,4241,53557.549934
38600.0,4949,53683.694042
22900.0,2940,53754.514461
33600.0,4303,53858.595817
25900.0,3451,53942.756276
11900.0,2148,53995.831815
21100.0,3160,54073.47629
14300.0,2579,54137.569235
18100.0,2949,54212.220904
14600.0,2589,54277.78998
8400.0,2239,54333.336878
21200.0,3217,54413.490515
29000.0,4326,54521.782792
25900.0,4235,54624.280319
30100.0,3931,54722.582882
19700.0,2749,54792.31011
9900.0,1950,54840.261341
28300.0,3761,54932.139942
31900.0,3589,55021.339917
29500.0,3757,55114.191681
32700.0,3784,55210.839597
24100.0,3285,55291.598752
26800.0,3886,55387.495766
28800.0,4311,55493.771171
20400.0,3108,55569.985272
21500.0,3861,55666.460648
33700.0,4888,55785.687568
21300.0,3041,55860.289178
19100.0,3179,55939.310449
18600.0,3212,56019.603554
29000.0,3991,56119.544473
27800.0,3610,56210.601345
30500.0,4636,56322.883766
25500.0,3907,56419.749233
22900.0,3389,56503.52612
21100.0,3160,56581.533127
37000.0,4126,56686.02352
21000.0,2873,56755.214723
31500.0,3810,56848.706938
30900.0,3609,56938.020315
26500.0,3100,57014.475317
14300.0,2252,57069.122708
24800.0,3262,57148.929562
26000.0,3019,57223.051393
21900.0,3238,57302.162357
20700.0,2745,57369.416735
25200.0,3266,57449.676329
30200.0,3773,57541.618485
36900.0,4908,57662.592206
22600.0,3370,57748.076007
28400.0,3645,57838.73754
21100.0,3556,57924.284815
14900.0,2832,57994.181351
18000.0,2723,58064.270185
21400.0,3502,58156.337437
21000.0,4012,58263.913107
15300.0,2690,58340.023569
19000.0,3184,58433.516393
28400.0,4517,58570.399297
28300.0,3974,58697.184733
18000.0,2710,58792.552573
11000.0,2052,58861.185138
19100.0,2503,58945.309534
21700.0,3426,59057.63627
31100.0,4207,59198.064276
32300.0,4453,59349.008822
27000.0,3651,59474.098183
17200.0,2942,59576.552362
22400.0,3656,59703.996719
18700.0,3215,59815.080792
30000.0,3799,59944.678772
24400.0,2850,60043.396363
23700.0,3231,60158.108852
32400.0,4409,60308.371805
41500.0,4934,60479.159238
35400.0,4638,60636.447358
30800.0,4205,60781.94466
26200.0,3791,60914.08771
12100.0,2074,60984.447052
19000.0,3124,61092.493373
32100.0,4143,61234.600334
20400.0,3498,61355.865137
28400.0,4173,61502.805319
18900.0,2931,61601.382137
22800.0,3298,61714.570467
24200.0,3405,61834.452227
26400.0,3455,61950.471679
36100.0,4194,62094.931208
19800.0,2761,62190.036224
28200.0,4621,62350.659037
23200.0,3151,62454.947299
32300.0,4101,62594.374854
16600.0,2904,62690.250108
31600.0,4185,62835.600423
16600.0,2733,62930.162032
20200.0,3282,63045.524105
28100.0,3716,63173.030427
25700.0,3803,63304.791948
22600.0,3538,63423.12806
27900.0,4182,63564.311978
26900.0,3739,63692.005369
17200.0,2782,63786.863813
28500.0,3594,63907.835738
38000.0,4516,64055.519655
32900.0,3796,64187.178866
21700.0,3016,64289.845214
24500.0,3425,64408.808357
26700.0,3232,64521.093593
24800.0,3150,64627.819872
21600.0,2707,64720.136497
24400.0,3694,64845.542076
31500.0,4415,64996.839933
26100.0,3760,65126.338137
22500.0,3374,65242.20747
17100.0,2888,65343.163734
34100.0,4809,65506.031582
24700.0,3377,65625.40847
32500.0,4693,65790.911675
23400.0,3149,65899.140647
25600.0,3518,66018.347555
20800.0,3142,66120.142488
33200.0,4044,66259.974719
16100.0,2611,66347.578517
25000.0,3803,66479.762076
23700.0,3249,66593.253704
29000.0,3754,66725.6564
28200.0,3724,66853.633205
34200.0,3755,66978.510082
35400.0,3951,67112.093488
23800.0,3518,67232.349788
33400.0,4189,67374.421533
29900.0,4333,67525.396078
22000.0,3104,67628.872738
25900.0,3541,67751.598588
24500.0,3140,67859.856834
32100.0,4091,68000.404485
18800.0,2542,68087.642552
36000.0,4749,68252.766405
24200.0,3249,68360.756969
16300.0,2609,68447.514901
32200.0,4418,68600.549377
24700.0,3280,68713.103538
27200.0,3433,68829.19258
31000.0,3675,68957.834762
17400.0,2299,69038.694171
22800.0,2729,69132.135108
32500.0,3591,69257.718723
30200.0,3391,69374.28341
41000.0,4264,69522.554801
38100.0,3983,69659.248309
21600.0,2656,69750.113849
19800.0,2451,69835.756671
25200.0,2992,69941.167111
32600.0,3740,70070.64345
32200.0,3379,70188.315536
18700.0,2122,70260.044166
27200.0,3306,70373.667623
34100.0,4045,70513.837757
29600.0,3210,70625.312412
49900.0,4509,70780.792228
18600.0,2301,70859.506241
25900.0,3121,70968.365354
28900.0,3109,71074.489887
24100.0,2713,71167.485952
27100.0,3419,71282.712521
25700.0,3035,71383.68929
27200.0,3177,71493.082213
35300.0,3979,71629.154311
23400.0,2965,71733.484272
16000.0,2412,71813.762075
22800.0,3214,71922.789383
31700.0,3873,72054.678819
18700.0,2745,72149.822036
23800.0,3100,72253.29299
17200.0,2681,72342.446452
19100.0,3024,72443.802594
19700.0,2997,72545.733903
19000.0,3022,72645.984476
20600.0,2991,72749.797368
31200.0,3807,72881.380746
25400.0,3598,73011.751325
30900.0,4411,73173.631708
18700.0,3177,73288.39416
24900.0,3701,73423.694148
30600.0,4260,73574.349931
42700.0,5132,73751.808595
24700.0,3608,73878.728521
25700.0,3864,74011.152684
16400.0,2956,74112.472205
22100.0,3122,74219.844441
43100.0,5912,74423.807132
37400.0,5413,74602.580683
24100.0,3402,74717.163774
22300.0,3424,74833.949382
21600.0,3156,74941.111701
17800.0,2631,75029.369301
29100.0,4130,75168.594818
29400.0,3890,75302.900385
24400.0,3990,75438.11652
23900.0,3235,75549.719568
22400.0,2961,75653.642113
31600.0,3975,75789.437103
24300.0,3325,75902.050197
22800.0,3666,76028.009149
33700.0,4295,76174.006932
26600.0,3466,76292.390931
31700.0,4109,76431.347708
35300.0,4549,76587.349957
37500.0,4788,76751.402022
31400.0,4293,76900.303037
30200.0,4080,77042.108893
31200.0,4622,77195.538355
31600.0,4283,77341.75261
31600.0,4213,77479.929475
25800.0,3365,77591.374904
38500.0,5381,77771.71632
22000.0,3484,77894.287439
22700.0,3595,78019.819536
28500.0,3752,78150.886701
28600.0,4178,78296.318152
25500.0,3870,78432.294828
30700.0,4383,78579.147033
19300.0,3194,78685.955832
18100.0,3338,78803.27846
28400.0,4242,78954.133723
30800.0,4618,79111.133859
36800.0,5587,79304.511879
29800.0,4317,79450.027797
13700.0,3335,79563.328451
30700.0,3637,79693.668506
21800.0,3646,79819.196574
29800.0,4406,79969.771174
30700.0,3825,80106.290047
14600.0,2449,80192.925763
20000.0,3160,80297.63437
38700.0,4956,80470.681712
13900.0,2778,80565.787817
23300.0,3481,80683.607431
28800.0,4298,80831.422136
41900.0,5331,81017.047124
25400.0,3789,81149.250286
22300.0,3216,81262.431124
24200.0,3591,81383.026647
31500.0,4583,81539.369691
27400.0,4066,81680.186959
26100.0,4509,81835.994756
19900.0,3280,81949.095543
22000.0,3540,82068.998538
39700.0,4840,82231.516822
33600.0,4447,82388.455166
30500.0,3849,82520.450847
29000.0,3888,82653.218261
29400.0,3591,82782.449184
19100.0,2779,82877.752083
33500.0,4561,83036.780453
27100.0,3435,83155.803358
38300.0,4753,83321.277101
26400.0,3460,83438.492501
30400.0,3800,83570.254863
26500.0,3321,83679.858451
44500.0,4945,83854.712066
40100.0,4942,84022.140872
18800.0,2498,84103.163553
34300.0,4128,84239.6976
33100.0,3868,84359.055714
33200.0,3932,84477.268763
46300.0,5164,84632.110028
30500.0,4024,84752.297796
22700.0,3035,84845.664853
24700.0,3155,84940.239247
32300.0,3868,85055.335868
32300.0,3932,85175.864582
37000.0,4090,85299.381607
32000.0,4264,85430.037599
41200.0,4943,85580.251961
40700.0,4940,85722.040406
43900.0,5129,85867.64484
26100.0,3558,85967.640067
29200.0,3640,86065.829188
23200.0,2802,86144.508132
38200.0,4406,86268.816198
39500.0,4730,86401.873359
35900.0,4191,86520.863878
43000.0,5004,86658.947843
