# {"t_start": 1552316343.8522127, "env_id": "KungFuMasterNoFrameskip-v0"} 
r,l,t
600.0,1242,150.17073
900.0,957,266.022422
1300.0,1082,377.247372
2100.0,1327,525.666707
2700.0,960,633.544585
6600.0,1643,818.535167
13800.0,2343,1074.445619
9500.0,1738,1266.952292
18000.0,2300,1514.811771
17900.0,2302,1765.485007
12200.0,1770,1965.664937
20900.0,2688,2266.017656
12500.0,2113,2507.411073
12400.0,1982,2722.332406
23000.0,2743,3037.524189
16800.0,2193,3284.793182
9500.0,1545,3461.738494
23900.0,2785,3769.77862
19900.0,2439,4036.2747
13700.0,1949,4255.997164
22700.0,2901,4569.634096
19300.0,2777,4889.246568
10100.0,1627,5082.379951
10800.0,1697,5272.713222
22000.0,2634,5560.439687
21900.0,2688,5856.682613
9600.0,1643,6040.052459
24900.0,3016,6381.547607
17900.0,2316,6636.562436
27400.0,3120,6973.156404
18900.0,2541,7260.04511
13000.0,1864,7468.41423
8200.0,1856,7678.043382
15500.0,2116,7915.548059
18200.0,2558,8197.644354
11900.0,1997,8414.731977
16100.0,2207,8656.467789
13800.0,2067,8884.263358
22000.0,2671,9180.268833
17700.0,2310,9442.170827
21700.0,2701,9741.242702
9800.0,1844,9950.183021
23100.0,2889,10268.881656
14700.0,1984,10492.722927
20300.0,2731,10807.929782
16200.0,2320,11070.800861
21000.0,2506,11359.872891
14100.0,2257,11604.495611
13800.0,1800,11800.038995
18600.0,2696,12096.789448
11500.0,1891,12311.826905
10400.0,1803,12507.9334
15300.0,1990,12737.990351
20400.0,2560,13033.633992
14500.0,1853,13242.991333
9700.0,1870,13452.493079
17400.0,2097,13679.710608
13100.0,1922,13892.736046
12000.0,1871,14106.306725
17400.0,2181,14359.336923
21300.0,2803,14681.188037
16000.0,2273,14923.290762
16500.0,2221,15186.12081
15600.0,2104,15415.012437
19200.0,2379,15680.011805
20400.0,2507,15956.07216
15900.0,2295,16218.779202
26400.0,3109,16563.960083
15700.0,2201,16818.402313
19600.0,2623,17110.691641
18200.0,2631,17405.89426
21900.0,2816,17737.949067
20100.0,2328,18006.325105
18300.0,2285,18264.565508
26500.0,2954,18594.651234
9800.0,1762,18794.012063
20300.0,2687,19092.360023
21500.0,2729,19413.971672
20700.0,2391,19696.050094
18900.0,2432,19981.411651
17200.0,2411,20298.858775
8800.0,1518,20503.707964
17600.0,2523,20843.61161
29600.0,3468,21306.345789
19900.0,2580,21651.85233
28400.0,3172,22083.495995
12900.0,2305,22396.812348
29600.0,3581,22896.791966
23600.0,2863,23288.315622
22900.0,3073,23703.44689
18800.0,2160,23997.194543
17300.0,2518,24327.652124
14500.0,2088,24606.903795
26300.0,2943,25009.532415
20400.0,2205,25312.877702
24600.0,2646,25663.188255
19600.0,2337,25991.907502
23100.0,2727,26356.49713
6900.0,1374,26544.831976
13400.0,2017,26810.985963
18400.0,2649,27172.535348
27200.0,3281,27613.152775
23800.0,2953,28016.283622
15800.0,2289,28337.106259
24800.0,3160,28769.85014
17400.0,2454,29101.95008
12500.0,1816,29350.669971
16200.0,2163,29638.66743
22600.0,2608,29997.359976
19400.0,2586,30346.216173
20100.0,2634,30700.901663
37300.0,3680,31191.37313
27300.0,3265,31641.300719
14200.0,1903,31888.271615
12500.0,2036,32158.124139
29000.0,3304,32613.159617
23700.0,2796,32998.751923
17000.0,2615,33347.544058
22300.0,2847,33733.466402
23400.0,2996,34143.625473
25400.0,3152,34575.672296
24700.0,3106,34987.729419
17500.0,2328,35305.904357
21300.0,2778,35683.744722
21200.0,2807,36068.537657
20400.0,2915,36463.808359
23900.0,3236,36898.796769
12700.0,2028,37175.846328
13700.0,1966,37436.064541
27500.0,3758,37934.45882
16500.0,2456,38265.107358
14800.0,2203,38567.612642
16700.0,2454,38894.287013
16000.0,2369,39205.303204
19900.0,2529,39545.906335
22400.0,2710,39912.318411
13900.0,1842,40155.469629
16300.0,2405,40477.714903
19700.0,2598,40827.7374
16400.0,2368,41152.46717
17700.0,2548,41491.839997
17200.0,2632,41838.893651
14100.0,2347,42168.851617
21800.0,3044,42574.013618
15000.0,2373,42891.799712
21600.0,2888,43284.851665
19500.0,2675,43667.484411
26200.0,3338,44117.076804
27400.0,3546,44591.036373
9300.0,1735,44826.156498
14500.0,2512,45158.604239
13400.0,2568,45507.314131
15800.0,2621,45867.26001
12800.0,2402,46187.264765
16700.0,2660,46545.920485
9600.0,2156,46836.463597
19100.0,3419,47298.559924
17800.0,3068,47706.542563
12300.0,2341,48016.495644
14300.0,2288,48331.125199
21600.0,3283,48766.989806
11300.0,2113,49054.125561
14900.0,2616,49399.059619
7600.0,1597,49619.983627
22300.0,3157,50044.46763
24600.0,2937,50434.763245
25800.0,3542,50916.680211
10700.0,2055,51198.854663
15900.0,2777,51576.768418
15900.0,2729,51938.942152
11100.0,2176,52224.323957
12100.0,2455,52553.683882
23000.0,3646,53051.788462
14600.0,2414,53371.275006
9800.0,2059,53653.373856
26600.0,3882,54187.730607
13100.0,2460,54515.172282
15100.0,3001,54909.070829
11900.0,2235,55213.15198
22500.0,3667,55705.309765
21000.0,3672,56206.638817
20700.0,3355,56673.223221
9200.0,1815,56915.727978
19200.0,3693,57421.570435
8400.0,1911,57680.673348
12500.0,2288,57986.813249
13100.0,2386,58310.673483
17900.0,2776,58684.101332
8100.0,1912,58945.070477
18300.0,3225,59379.112088
8300.0,1767,59632.059763
16800.0,2649,59993.345296
16400.0,2941,60385.757513
15900.0,2780,60765.419293
17300.0,3017,61165.0801
14100.0,2546,61508.225253
15200.0,3226,61943.579269
19900.0,3046,62350.568321
19900.0,3419,62814.088603
13200.0,2411,63125.906953
13100.0,2590,63484.051828
14600.0,2870,63864.490016
16300.0,3179,64291.344013
13200.0,2417,64621.960599
8500.0,1977,64883.884179
13500.0,2567,65241.136346
18100.0,2954,65627.690591
20800.0,3217,66061.572308
15500.0,2851,66453.71145
13000.0,2387,66762.470471
17600.0,2929,67161.812369
13900.0,2457,67500.163612
13500.0,2151,67783.901033
20500.0,3286,68234.87779
18000.0,2899,68619.07011
14800.0,2501,68952.633577
11900.0,2468,69288.75461
12500.0,2350,69602.253699
28100.0,4184,70169.056693
11200.0,2342,70480.99641
17600.0,3060,70893.091562
10200.0,2513,71234.200672
19500.0,3185,71664.283778
13700.0,2554,72000.559614
17400.0,3284,72429.640753
15500.0,2545,72770.219954
21200.0,3291,73223.413358
12100.0,2512,73550.844702
15600.0,3305,73990.444262
16100.0,2845,74391.891852
20400.0,3334,74838.137645
12100.0,2447,75161.587656
9000.0,2128,75452.663019
9700.0,2078,75742.593815
16600.0,3118,76169.418822
20900.0,3395,76619.091778
21000.0,3518,77100.963668
18600.0,3232,77532.786705
17200.0,3184,77947.915531
21500.0,3325,78328.41023
9300.0,2126,78455.684313
14200.0,2454,78605.070676
13600.0,2612,78774.230133
14200.0,2473,78930.321899
17100.0,3050,79124.869026
9400.0,2237,79267.814634
17300.0,2948,79450.463575
4900.0,1700,79556.316761
11200.0,2092,79687.182173
13200.0,2511,79838.615747
15600.0,2793,80013.0756
19400.0,3122,80210.294261
21300.0,3410,80422.273643
25500.0,3816,80671.889887
21300.0,3359,80870.19218
14700.0,2414,81015.349386
15900.0,2888,81191.251244
14400.0,3000,81376.357887
16900.0,2927,81553.833547
10100.0,1941,81670.553555
22200.0,3607,81885.556832
15400.0,2957,82063.539239
18200.0,3157,82265.686583
15100.0,2729,82429.778153
13300.0,2653,82588.933148
16500.0,2564,82741.378921
21100.0,3542,82952.328149
16600.0,2891,83125.124147
12200.0,2415,83274.361703
18500.0,3344,83473.502884
20000.0,3655,83699.626978
11600.0,2714,83860.376317
14300.0,2756,84032.99322
13600.0,2589,84191.116275
9900.0,2209,84328.464397
17700.0,3073,84517.804319
15500.0,2722,84681.737992
11600.0,2367,84824.299328
14700.0,2947,85000.986361
19200.0,4214,85254.979053
15700.0,3062,85439.547453
6300.0,1732,85546.059395
20500.0,3340,85743.34367
13800.0,2681,85901.946349
13500.0,2793,86065.786232
19500.0,3180,86254.491138
17500.0,2894,86428.874596
14800.0,2572,86591.416099
11300.0,2282,86738.969686
18700.0,3069,86940.310327
12100.0,2574,87104.497739
16300.0,2784,87271.141289
19700.0,3386,87472.233114
16700.0,2487,87618.709512
16000.0,3035,87804.543854
16800.0,3004,87984.804607
19700.0,3281,88179.689353
16700.0,2994,88359.098373
23000.0,3540,88571.738075
8000.0,1926,88691.013271
15200.0,3048,88873.672127
14700.0,2901,89048.403901
12200.0,2332,89185.149427
19600.0,3470,89395.74727
24000.0,4215,89648.583885
17600.0,3160,89838.492839
17100.0,3110,90026.024967
11200.0,2049,90156.060248
8700.0,2072,90282.485766
17900.0,3391,90510.064374
17800.0,3380,90731.882481
21100.0,3594,90957.779358
19000.0,3336,91173.381635
24300.0,4082,91426.329449
14500.0,2846,91596.285319
24200.0,4143,91850.192612
9600.0,2120,91976.595767
21700.0,4175,92228.818574
21700.0,3868,92459.758889
20000.0,3436,92666.971358
19000.0,3766,92896.227925
16600.0,3492,93099.441582
20900.0,3757,93325.40503
12700.0,2309,93465.842916
12800.0,2469,93612.420869
10600.0,2650,93772.842488
17200.0,3149,93960.531595
14500.0,2944,94143.98525
10600.0,2366,94283.543486
9700.0,2153,94408.205911
10200.0,2395,94550.132609
18200.0,3322,94754.014247
21800.0,3933,94985.904538
21600.0,3750,95215.643276
24100.0,3841,95442.831006
15000.0,2940,95623.937055
14300.0,2765,95784.089558
30100.0,4837,96076.237338
18900.0,3213,96271.449189
12600.0,2528,96426.379792
9200.0,2182,96558.83964
27500.0,4185,96807.621802
8300.0,1717,96915.98891
26500.0,4208,97164.617079
19100.0,3290,97355.211333
18600.0,3349,97557.487342
19300.0,3383,97755.297512
11200.0,2532,97903.188553
18900.0,3538,98110.221416
13600.0,2549,98256.130216
12100.0,2406,98406.537308
14800.0,2725,98576.148863
12700.0,2455,98716.650632
16400.0,2768,98884.365652
12500.0,2779,99060.495337
15200.0,2879,99222.658683
12000.0,2509,99368.111905
13400.0,2532,99507.02703
20500.0,3433,99686.402422
26500.0,4122,99903.899345
20600.0,3320,100080.947261
22700.0,3885,100289.858387
21600.0,3554,100477.994204
23300.0,3852,100684.029152
19100.0,3603,100876.629849
19800.0,3104,101054.501455
15500.0,2493,101187.17098
25900.0,4031,101414.339266
13400.0,2828,101573.943696
15500.0,2858,101733.396814
11900.0,2127,101856.504636
11700.0,2317,101983.454361
11700.0,2351,102111.440508
16200.0,3003,102275.119709
15700.0,3201,102451.561195
18300.0,3668,102651.250356
22300.0,3613,102844.151477
16200.0,2849,103003.608468
14600.0,2619,103150.359208
19400.0,3176,103326.184438
20700.0,3606,103520.455742
19200.0,3207,103702.879413
10900.0,2145,103819.996145
18200.0,3335,104001.958591
14500.0,2700,104145.086152
21000.0,3289,104322.138149
23600.0,4131,104551.365496
14100.0,2830,104707.384038
9800.0,2331,104841.859684
27900.0,4180,105087.576897
9600.0,2073,105204.412236
18100.0,3149,105392.546407
23900.0,4046,105623.503515
18100.0,3440,105827.325495
16800.0,3174,106009.322906
16000.0,2780,106162.190998
14000.0,2731,106315.618717
22300.0,3424,106503.364356
31200.0,4306,106747.60378
21800.0,3250,106936.797009
21000.0,3150,107118.906388
17800.0,2948,107283.891688
18700.0,3058,107462.772497
16400.0,3040,107634.988318
19900.0,3201,107820.993445
17200.0,3143,107994.955831
29000.0,4406,108250.031404
16100.0,2794,108400.006148
18300.0,2948,108563.828052
18900.0,3211,108738.660148
21500.0,3588,108940.720365
17500.0,2931,109106.563638
21000.0,3388,109310.290496
17500.0,3241,109493.668902
22500.0,3614,109692.121288
26800.0,4158,109919.726244
13600.0,2560,110058.578867
14900.0,2858,110212.679915
11700.0,2611,110352.073986
16100.0,3159,110527.010121
12100.0,2510,110663.743918
22200.0,3450,110850.47595
24900.0,3831,111047.693011
12300.0,2561,111179.530051
16800.0,3041,111329.447125
20600.0,3571,111517.544761
17700.0,3151,111686.998061
21700.0,3590,111885.709385
15500.0,3212,112064.489707
12500.0,2347,112190.308811
19300.0,3150,112361.584205
33500.0,5203,112634.569902
20000.0,3414,112813.801928
22100.0,3642,113036.975787
31200.0,4152,113323.778348
17900.0,3249,113556.946675
30700.0,4826,113913.044695
20500.0,3757,114179.500573
27400.0,4050,114477.558087
23100.0,3880,114754.627215
7600.0,1749,114890.615862
26000.0,4118,115195.869056
22300.0,3755,115473.837696
23200.0,3887,115753.970365
22900.0,3641,116004.77655
15300.0,3003,116194.812983
