# {"t_start": 1547073534.4623158, "env_id": "FreewayNoFrameskip-v4"} 
r,l,t
0.0,2041,24.799967
0.0,2046,46.494963
0.0,2045,68.235574
0.0,2048,90.28692
0.0,2042,113.353159
0.0,2041,136.002863
0.0,2045,159.28832
0.0,2041,182.769329
0.0,2045,207.196285
0.0,2047,231.884501
0.0,2045,257.0638
0.0,2041,282.639814
0.0,2045,308.745439
0.0,2047,334.23937
0.0,2046,360.293839
0.0,2042,385.848672
0.0,2046,411.415115
0.0,2048,437.037607
0.0,2042,463.361794
0.0,2045,489.011798
0.0,2042,514.33661
0.0,2048,540.507576
0.0,2048,566.30633
0.0,2041,591.678885
0.0,2045,618.090335
0.0,2044,643.738628
0.0,2044,669.654165
0.0,2046,695.465484
0.0,2043,721.116243
0.0,2044,746.778746
0.0,2045,773.186962
0.0,2044,798.57595
0.0,2044,824.697354
0.0,2041,850.200797
0.0,2044,875.556425
0.0,2044,901.624471
6.0,2045,927.363456
13.0,2044,953.700454
17.0,2044,979.378952
19.0,2046,1004.732365
21.0,2045,1030.227498
22.0,2046,1056.645818
21.0,2041,1082.331913
27.0,2046,1107.925555
23.0,2044,1134.023196
23.0,2047,1159.772612
22.0,2044,1185.82496
20.0,2046,1211.384428
22.0,2041,1237.34149
23.0,2042,1263.121459
23.0,2047,1289.228655
24.0,2045,1314.841004
21.0,2044,1340.430937
23.0,2043,1365.97536
23.0,2041,1391.583618
22.0,2046,1416.925783
21.0,2042,1442.743916
22.0,2047,1468.503456
22.0,2044,1494.524103
22.0,2042,1520.044029
23.0,2047,1545.970057
20.0,2042,1571.624107
24.0,2044,1597.54077
21.0,2043,1623.074528
22.0,2043,1648.460172
22.0,2048,1674.465272
22.0,2047,1700.165657
24.0,2048,1726.133195
21.0,2044,1751.892523
22.0,2046,1777.427877
20.0,2048,1803.528702
20.0,2045,1829.12691
17.0,2046,1854.716381
18.0,2043,1880.058385
19.0,2041,1905.754817
19.0,2044,1931.484997
21.0,2048,1957.374902
19.0,2043,1983.42258
20.0,2048,2009.003448
17.0,2041,2034.378775
20.0,2041,2059.998317
24.0,2042,2086.175969
23.0,2048,2111.922216
22.0,2043,2137.371743
23.0,2048,2162.906983
24.0,2048,2188.742265
23.0,2043,2214.757985
21.0,2042,2240.496346
22.0,2042,2266.376646
19.0,2044,2292.636015
20.0,2044,2318.025752
20.0,2042,2343.680118
16.0,2044,2370.627962
22.0,2042,2397.628334
22.0,2046,2424.824765
21.0,2047,2454.362319
21.0,2043,2486.272348
23.0,2042,2517.699854
23.0,2047,2549.474733
23.0,2045,2582.596467
24.0,2044,2616.219328
25.0,2046,2650.690206
24.0,2046,2685.71078
23.0,2046,2719.786335
21.0,2047,2754.311106
19.0,2042,2792.197844
23.0,2044,2831.229568
22.0,2048,2871.975482
23.0,2045,2911.595266
26.0,2043,2952.418771
24.0,2045,2995.659095
21.0,2048,3039.571164
24.0,2047,3087.418191
23.0,2045,3137.101716
24.0,2048,3185.557451
23.0,2046,3234.052597
24.0,2048,3281.738257
19.0,2047,3330.71567
22.0,2047,3378.668852
21.0,2046,3427.378188
23.0,2044,3475.43773
22.0,2045,3523.543294
26.0,2045,3573.014066
27.0,2044,3621.543518
27.0,2045,3670.12127
29.0,2043,3717.696291
24.0,2044,3765.940517
25.0,2043,3815.94204
24.0,2048,3867.886076
25.0,2046,3921.954233
24.0,2044,3977.841773
26.0,2041,4034.4292
29.0,2043,4093.059592
28.0,2045,4155.191428
27.0,2047,4220.541074
26.0,2044,4286.451702
29.0,2041,4354.491973
27.0,2045,4424.122301
29.0,2046,4498.603434
27.0,2044,4573.69809
25.0,2041,4650.602342
26.0,2041,4733.455076
30.0,2041,4814.968743
29.0,2048,4896.235105
29.0,2041,4983.461663
28.0,2043,5073.199744
30.0,2041,5161.465213
30.0,2048,5249.023597
28.0,2044,5338.682983
28.0,2043,5425.317787
26.0,2047,5514.237756
30.0,2041,5603.715103
29.0,2048,5691.624643
26.0,2046,5780.248041
27.0,2044,5869.135503
29.0,2045,5958.272516
30.0,2047,6046.267163
29.0,2041,6133.825919
31.0,2042,6221.867419
27.0,2042,6308.736896
29.0,2041,6394.5887
27.0,2041,6484.029392
28.0,2048,6574.574645
27.0,2045,6659.963338
28.0,2044,6748.417265
29.0,2046,6836.860007
29.0,2042,6925.203762
27.0,2045,7012.005157
25.0,2041,7100.949449
28.0,2043,7188.161714
27.0,2043,7276.029354
27.0,2042,7363.072869
28.0,2041,7450.410494
30.0,2042,7539.722502
28.0,2047,7629.213547
30.0,2044,7720.119682
28.0,2045,7809.01439
26.0,2045,7896.820897
27.0,2047,7987.728686
29.0,2047,8077.235589
28.0,2044,8167.027193
29.0,2048,8257.835507
28.0,2042,8344.881714
29.0,2041,8436.308056
28.0,2046,8526.781853
26.0,2045,8613.937306
28.0,2047,8699.957581
26.0,2048,8788.386242
28.0,2043,8877.68489
27.0,2046,8965.630177
26.0,2043,9053.819671
30.0,2047,9143.21659
29.0,2042,9232.417347
28.0,2047,9318.94418
30.0,2042,9407.952409
29.0,2041,9496.483123
29.0,2043,9585.484521
27.0,2042,9674.995358
30.0,2044,9762.705491
27.0,2045,9852.234881
29.0,2041,9942.983691
28.0,2046,10030.42359
28.0,2044,10119.013643
31.0,2041,10207.494067
29.0,2041,10294.647385
31.0,2044,10384.438633
30.0,2043,10473.48726
29.0,2047,10563.54089
31.0,2048,10650.763754
25.0,2046,10740.806636
28.0,2048,10831.11615
29.0,2047,10918.621406
28.0,2041,11008.798629
29.0,2045,11096.967901
27.0,2045,11186.13067
31.0,2042,11274.518077
29.0,2041,11365.159768
30.0,2048,11453.331781
27.0,2045,11541.516528
29.0,2043,11630.807935
30.0,2042,11718.960678
30.0,2042,11807.239632
29.0,2044,11893.646576
28.0,2047,11981.737144
30.0,2041,12070.599881
28.0,2046,12161.193349
28.0,2044,12249.92815
28.0,2045,12339.378336
27.0,2044,12426.248928
28.0,2046,12514.961938
28.0,2044,12603.168171
29.0,2041,12691.040036
31.0,2046,12779.831186
25.0,2047,12868.118746
28.0,2047,12955.892798
26.0,2047,13042.770522
28.0,2046,13132.307733
29.0,2044,13219.84477
29.0,2047,13306.390754
29.0,2041,13398.06489
28.0,2044,13486.509045
28.0,2043,13575.534324
28.0,2045,13662.796035
24.0,2048,13750.789729
29.0,2043,13839.589458
27.0,2045,13928.065822
29.0,2045,14019.92102
26.0,2046,14109.160645
29.0,2045,14198.601795
27.0,2042,14287.011502
30.0,2042,14374.650408
28.0,2047,14462.459626
28.0,2045,14550.058211
28.0,2048,14637.521149
28.0,2046,14728.214
30.0,2046,14814.28501
29.0,2046,14904.441555
30.0,2041,14991.664059
27.0,2043,15081.139175
30.0,2043,15170.108132
29.0,2043,15260.481498
31.0,2047,15349.191062
27.0,2043,15436.996275
26.0,2047,15524.487298
29.0,2043,15613.215827
28.0,2041,15701.924229
28.0,2043,15790.124399
29.0,2047,15877.312506
29.0,2041,15965.299222
31.0,2044,16053.829575
28.0,2047,16140.86308
29.0,2047,16228.847803
30.0,2041,16317.695123
29.0,2047,16407.96876
29.0,2046,16497.910126
30.0,2046,16586.391087
31.0,2047,16675.152837
31.0,2042,16758.759219
29.0,2047,16848.484926
31.0,2041,16937.229335
31.0,2044,17023.774001
31.0,2043,17112.931683
30.0,2046,17200.369679
29.0,2041,17290.155162
30.0,2045,17379.714964
26.0,2046,17468.032536
30.0,2044,17555.084194
28.0,2047,17644.150185
29.0,2048,17732.923966
28.0,2046,17819.947826
28.0,2048,17906.611055
31.0,2044,17995.466976
27.0,2042,18084.79581
30.0,2043,18175.948019
29.0,2045,18263.69665
28.0,2045,18350.879306
30.0,2045,18438.228435
29.0,2045,18525.921377
31.0,2047,18613.919145
29.0,2046,18702.860272
29.0,2044,18793.703783
30.0,2042,18882.619228
30.0,2045,18973.62903
28.0,2046,19065.365164
31.0,2048,19155.255645
29.0,2044,19242.691802
31.0,2046,19330.155403
31.0,2042,19420.658633
29.0,2045,19511.227417
29.0,2048,19598.979031
30.0,2044,19687.04799
28.0,2043,19774.033052
30.0,2043,19860.835373
31.0,2043,19950.632977
26.0,2047,20038.811669
31.0,2043,20128.689654
29.0,2048,20215.683271
29.0,2045,20304.136666
32.0,2044,20393.17539
26.0,2045,20479.239624
31.0,2045,20568.79224
30.0,2048,20657.760524
30.0,2042,20744.82829
32.0,2042,20834.420248
29.0,2041,20924.365444
29.0,2047,21014.64822
32.0,2042,21104.456305
27.0,2048,21195.276017
30.0,2041,21282.852693
30.0,2041,21372.453317
31.0,2044,21464.596061
30.0,2045,21552.747225
29.0,2043,21640.381131
29.0,2047,21728.265799
30.0,2042,21816.626904
30.0,2047,21905.26211
30.0,2043,21995.911963
32.0,2042,22085.46153
32.0,2046,22174.589095
31.0,2047,22265.13256
30.0,2043,22353.994477
31.0,2045,22442.126706
29.0,2043,22530.460134
31.0,2046,22621.838061
28.0,2047,22709.44355
30.0,2046,22797.9736
30.0,2044,22887.23207
31.0,2042,22976.119306
31.0,2046,23063.898556
31.0,2042,23152.787686
32.0,2042,23242.707418
29.0,2047,23332.248037
31.0,2041,23421.176878
32.0,2042,23509.323191
30.0,2045,23598.454948
28.0,2045,23687.470619
32.0,2042,23776.299312
31.0,2048,23864.129428
32.0,2045,23952.789105
28.0,2047,24041.331624
32.0,2047,24128.254232
33.0,2046,24215.663963
30.0,2041,24303.24463
30.0,2048,24392.076652
28.0,2042,24480.486161
30.0,2048,24570.533501
28.0,2046,24659.379279
31.0,2044,24748.810689
31.0,2045,24836.709764
31.0,2046,24923.666209
31.0,2042,25011.432202
30.0,2048,25102.551238
28.0,2044,25191.23849
29.0,2045,25278.361985
30.0,2041,25367.311398
31.0,2042,25454.949085
31.0,2043,25543.499017
30.0,2041,25633.593008
29.0,2047,25721.880552
32.0,2045,25810.41642
30.0,2045,25897.314155
29.0,2047,25986.007604
32.0,2043,26074.969663
30.0,2046,26163.862026
31.0,2043,26252.842136
30.0,2044,26342.342745
30.0,2047,26429.851785
29.0,2048,26518.732238
29.0,2042,26608.470887
31.0,2045,26698.368106
32.0,2046,26787.530166
30.0,2047,26875.884847
30.0,2047,26963.030829
31.0,2046,27050.783329
29.0,2041,27138.054751
32.0,2047,27227.627052
31.0,2045,27316.633404
28.0,2043,27403.691206
30.0,2041,27492.612816
32.0,2046,27582.241593
32.0,2046,27673.046627
32.0,2041,27759.989427
29.0,2043,27848.684207
32.0,2043,27935.755642
32.0,2042,28022.982981
31.0,2042,28113.901213
32.0,2047,28202.40562
29.0,2041,28288.345627
31.0,2046,28375.912194
31.0,2046,28464.921981
32.0,2044,28551.825468
31.0,2043,28639.431668
32.0,2042,28726.875706
31.0,2043,28816.399941
32.0,2042,28903.473726
29.0,2045,28992.924803
31.0,2041,29078.714421
30.0,2046,29165.699643
31.0,2044,29252.054208
29.0,2046,29338.931616
30.0,2047,29426.045342
31.0,2046,29510.203158
29.0,2042,29596.554833
30.0,2046,29683.46036
30.0,2042,29769.943684
32.0,2041,29856.262649
30.0,2048,29940.037266
30.0,2045,30024.496474
31.0,2041,30111.950014
31.0,2047,30198.881967
30.0,2042,30283.043786
30.0,2047,30368.477246
29.0,2048,30456.299188
32.0,2044,30542.021968
30.0,2047,30626.162921
31.0,2046,30710.563921
30.0,2044,30794.00903
28.0,2042,30880.384712
30.0,2041,30967.668374
30.0,2041,31051.295422
31.0,2045,31136.119236
29.0,2047,31223.357055
30.0,2044,31310.637507
30.0,2042,31395.414563
30.0,2046,31481.022108
32.0,2048,31567.846522
29.0,2044,31653.107521
30.0,2046,31736.536166
32.0,2047,31822.942366
30.0,2047,31910.628443
29.0,2048,31996.299214
32.0,2048,32081.864901
32.0,2041,32167.055038
31.0,2047,32252.897997
30.0,2042,32338.815192
32.0,2048,32425.767798
28.0,2044,32513.778655
30.0,2043,32598.256004
30.0,2046,32679.796752
31.0,2044,32763.069304
32.0,2043,32848.281368
29.0,2041,32936.130182
32.0,2046,33021.974607
31.0,2044,33106.474534
31.0,2046,33193.737271
31.0,2041,33276.553569
31.0,2041,33362.742166
32.0,2047,33449.847369
32.0,2041,33535.956238
32.0,2048,33624.511604
31.0,2046,33711.497349
31.0,2048,33798.136004
31.0,2048,33885.626582
32.0,2045,33970.310122
32.0,2044,34054.387903
32.0,2044,34140.010303
31.0,2046,34226.021315
31.0,2045,34312.853775
29.0,2042,34396.479383
32.0,2046,34480.924809
32.0,2043,34567.880405
32.0,2043,34652.659953
31.0,2043,34737.611884
30.0,2045,34823.364813
32.0,2042,34906.270448
31.0,2048,34990.527453
32.0,2046,35077.032736
32.0,2045,35164.121408
32.0,2041,35248.960846
31.0,2045,35334.052205
30.0,2042,35418.418991
32.0,2045,35502.44966
32.0,2041,35586.791311
32.0,2047,35673.524107
32.0,2044,35759.477815
32.0,2048,35846.020218
31.0,2041,35932.704261
32.0,2044,36018.533849
30.0,2047,36105.36423
32.0,2047,36192.736087
32.0,2048,36281.795172
31.0,2044,36367.859164
32.0,2042,36452.421844
30.0,2045,36539.065217
32.0,2047,36625.405665
30.0,2045,36710.579202
31.0,2041,36797.484247
32.0,2048,36887.255432
32.0,2045,36974.397758
31.0,2044,37063.518703
30.0,2041,37152.936857
30.0,2045,37241.711449
32.0,2046,37329.673413
30.0,2043,37419.071537
32.0,2045,37504.907916
32.0,2044,37592.469566
31.0,2047,37683.341786
32.0,2046,37774.861845
31.0,2043,37863.25239
32.0,2045,37952.451708
32.0,2043,38039.332386
31.0,2046,38126.881728
32.0,2042,38213.242346
32.0,2043,38300.753177
31.0,2046,38387.327584
31.0,2045,38477.600368
31.0,2047,38565.38823
29.0,2042,38654.800138
29.0,2047,38743.245067
31.0,2045,38831.513597
31.0,2047,38920.622636
31.0,2044,39008.397278
31.0,2042,39096.356452
31.0,2045,39182.459013
28.0,2048,39271.787117
32.0,2046,39363.937304
32.0,2048,39450.462187
32.0,2047,39538.68016
33.0,2045,39626.173758
32.0,2047,39715.63563
32.0,2047,39803.872052
31.0,2041,39893.827982
32.0,2041,39980.071295
32.0,2044,40068.661906
32.0,2043,40156.093431
31.0,2047,40246.162131
32.0,2043,40335.124989
31.0,2048,40424.612242
32.0,2046,40513.076471
32.0,2042,40599.048661
32.0,2044,40689.578762
32.0,2041,40776.955588
32.0,2045,40863.972701
32.0,2045,40953.983725
32.0,2044,41040.656626
32.0,2042,41126.358019
31.0,2048,41215.817049
32.0,2047,41303.831305
32.0,2047,41392.444241
30.0,2048,41481.022525
31.0,2044,41569.169693
32.0,2042,41656.228347
30.0,2042,41743.800505
30.0,2045,41832.440563
30.0,2045,41921.035666
32.0,2047,42008.948217
31.0,2048,42097.852399
31.0,2044,42186.05558
29.0,2043,42273.77127
32.0,2042,42361.791631
32.0,2047,42449.85651
31.0,2048,42537.852246
28.0,2045,42627.178784
32.0,2046,42714.761405
32.0,2047,42800.387659
31.0,2047,42886.197568
31.0,2041,42971.07829
32.0,2041,43054.0458
28.0,2041,43141.517827
31.0,2045,43227.795596
31.0,2047,43316.253735
31.0,2044,43403.005325
30.0,2046,43487.752703
30.0,2044,43573.852059
31.0,2048,43659.629272
30.0,2046,43741.82904
31.0,2047,43828.15098
31.0,2044,43916.055716
33.0,2043,44002.811259
30.0,2042,44090.382928
32.0,2042,44175.626976
32.0,2044,44261.384508
30.0,2045,44348.704367
30.0,2044,44435.184616
32.0,2048,44519.982368
31.0,2048,44607.493766
31.0,2046,44691.457048
32.0,2048,44775.958719
30.0,2045,44860.961051
32.0,2046,44946.387151
32.0,2045,45033.53371
31.0,2043,45118.810089
31.0,2048,45203.476979
32.0,2042,45289.354882
32.0,2046,45375.213312
31.0,2045,45460.175005
31.0,2041,45546.762536
32.0,2046,45630.833862
32.0,2046,45715.195262
30.0,2042,45800.257003
31.0,2047,45884.072844
32.0,2044,45969.55656
31.0,2047,46054.507299
32.0,2041,46139.368373
31.0,2046,46225.993054
30.0,2044,46310.701413
32.0,2043,46397.301447
29.0,2046,46484.848776
31.0,2047,46569.642056
30.0,2045,46657.76113
30.0,2044,46744.712535
31.0,2042,46832.160188
32.0,2044,46916.508108
31.0,2044,47003.553651
32.0,2041,47089.738835
32.0,2045,47174.989435
32.0,2048,47260.151057
30.0,2041,47347.860016
31.0,2043,47432.799703
32.0,2046,47517.872655
32.0,2047,47603.990913
32.0,2041,47690.603841
31.0,2047,47774.651958
31.0,2041,47858.04356
31.0,2042,47944.728179
32.0,2042,48031.760583
30.0,2048,48118.418695
32.0,2048,48203.755332
32.0,2045,48291.994959
32.0,2048,48379.532372
30.0,2047,48464.32061
31.0,2044,48550.08389
29.0,2042,48636.174195
32.0,2047,48721.240532
29.0,2047,48806.842036
30.0,2046,48894.112192
30.0,2045,48981.523896
30.0,2044,49068.436631
31.0,2045,49153.964634
32.0,2045,49239.064412
32.0,2043,49325.779825
32.0,2041,49411.611836
29.0,2044,49497.55999
30.0,2046,49584.347536
32.0,2042,49671.125326
31.0,2047,49755.891213
30.0,2042,49841.378498
31.0,2043,49926.881313
31.0,2047,50013.248442
31.0,2043,50097.821045
32.0,2045,50184.299196
32.0,2044,50272.102196
30.0,2042,50358.919952
30.0,2041,50447.680112
31.0,2043,50533.161064
32.0,2046,50620.278454
31.0,2048,50707.626283
32.0,2047,50792.357785
32.0,2046,50879.978527
31.0,2045,50967.089321
31.0,2048,51054.935493
31.0,2048,51142.53443
31.0,2044,51228.259016
31.0,2047,51313.613109
30.0,2047,51400.996467
31.0,2043,51486.802732
32.0,2048,51573.761996
31.0,2044,51659.461687
31.0,2046,51745.916592
31.0,2043,51831.442432
32.0,2045,51918.061067
31.0,2045,52004.204507
32.0,2046,52091.644398
32.0,2041,52179.020358
31.0,2046,52265.253052
32.0,2047,52352.247061
31.0,2044,52437.939926
31.0,2043,52525.323248
32.0,2047,52613.894869
31.0,2043,52698.869481
31.0,2045,52785.991188
32.0,2042,52873.399957
33.0,2047,52959.673193
32.0,2048,53046.701268
32.0,2046,53136.063897
32.0,2045,53222.70897
32.0,2047,53309.466827
33.0,2041,53396.886165
31.0,2044,53482.515178
32.0,2046,53569.280468
32.0,2046,53659.214481
33.0,2041,53745.825813
33.0,2045,53835.106526
32.0,2041,53922.460667
33.0,2047,54011.23226
32.0,2047,54098.520823
31.0,2042,54184.514916
33.0,2044,54272.266612
32.0,2048,54359.257465
30.0,2045,54447.403277
32.0,2046,54533.088778
31.0,2046,54621.67734
32.0,2045,54708.077096
32.0,2047,54795.116261
32.0,2042,54883.15032
31.0,2047,54970.679402
33.0,2041,55056.265511
31.0,2043,55141.171813
32.0,2046,55228.470894
32.0,2042,55315.481603
33.0,2044,55403.081697
32.0,2041,55487.821641
32.0,2043,55575.649616
33.0,2043,55662.495616
31.0,2042,55748.441157
30.0,2045,55835.355995
32.0,2045,55922.362308
31.0,2043,56008.931673
31.0,2044,56094.572928
30.0,2046,56176.577333
31.0,2045,56263.534555
31.0,2043,56349.817303
30.0,2044,56435.877024
31.0,2045,56523.588821
31.0,2043,56616.055874
32.0,2042,56703.73259
33.0,2048,56793.186719
31.0,2042,56881.941283
32.0,2046,56970.642406
31.0,2042,57057.226443
32.0,2046,57148.473085
30.0,2043,57236.977559
32.0,2041,57323.358126
32.0,2041,57411.467257
30.0,2046,57498.945151
32.0,2045,57588.084874
32.0,2043,57678.026962
33.0,2044,57765.793277
31.0,2045,57854.361233
31.0,2047,57943.183017
31.0,2042,58033.758783
32.0,2043,58121.83235
32.0,2044,58210.874544
32.0,2042,58299.071282
33.0,2047,58387.886599
32.0,2047,58478.480653
33.0,2045,58566.65606
33.0,2045,58656.379512
33.0,2042,58744.226827
32.0,2044,58835.994377
31.0,2043,58925.45965
31.0,2047,59012.23403
33.0,2044,59101.512473
31.0,2047,59190.084633
32.0,2042,59278.116543
31.0,2043,59366.661658
32.0,2042,59454.700976
32.0,2045,59546.818828
31.0,2046,59636.454719
33.0,2047,59726.538297
31.0,2041,59814.709578
32.0,2042,59903.973152
33.0,2045,59994.127414
32.0,2042,60082.827259
31.0,2041,60171.955757
32.0,2045,60257.543036
33.0,2044,60343.661708
30.0,2042,60430.167773
33.0,2047,60518.523265
31.0,2048,60603.885461
33.0,2046,60687.75211
32.0,2044,60775.509485
32.0,2043,60862.50353
32.0,2046,60951.32759
32.0,2043,61037.297216
32.0,2041,61123.338324
30.0,2048,61209.249725
32.0,2046,61295.375219
32.0,2044,61382.674564
32.0,2041,61468.764827
30.0,2045,61555.710001
31.0,2047,61641.233078
32.0,2047,61727.776233
32.0,2042,61812.116949
32.0,2042,61897.599616
33.0,2044,61984.527498
31.0,2044,62069.563549
32.0,2044,62156.807252
33.0,2045,62244.780831
33.0,2045,62332.747143
33.0,2047,62418.906521
31.0,2047,62504.948109
32.0,2042,62591.993477
32.0,2046,62676.834973
31.0,2043,62762.944021
31.0,2046,62849.804878
31.0,2041,62935.112416
31.0,2043,63020.649196
32.0,2047,63106.480484
32.0,2045,63193.158046
32.0,2044,63277.628554
33.0,2046,63363.576191
33.0,2048,63448.268904
33.0,2044,63532.111116
32.0,2043,63618.668461
32.0,2041,63705.121792
31.0,2041,63788.200849
33.0,2047,63874.065826
32.0,2042,63960.396691
33.0,2045,64046.776606
33.0,2042,64130.595822
32.0,2041,64216.502008
32.0,2044,64303.982057
32.0,2041,64393.033058
33.0,2042,64479.454315
33.0,2048,64566.980815
33.0,2045,64652.876374
32.0,2044,64739.746485
32.0,2042,64824.679313
33.0,2044,64912.273738
32.0,2046,64997.050043
33.0,2046,65080.378149
32.0,2048,65166.577906
31.0,2045,65252.203391
31.0,2044,65340.41968
32.0,2041,65426.508651
33.0,2048,65511.333701
32.0,2048,65598.37717
33.0,2047,65685.228669
32.0,2042,65769.409395
31.0,2046,65859.18329
31.0,2041,65941.746929
33.0,2047,66028.361611
32.0,2048,66114.388665
32.0,2045,66200.864227
31.0,2047,66287.691116
32.0,2043,66373.968346
33.0,2046,66460.970122
32.0,2047,66547.088915
32.0,2043,66633.334999
33.0,2041,66717.683296
33.0,2044,66804.730914
32.0,2043,66890.647947
33.0,2041,66975.626439
32.0,2043,67063.159364
32.0,2042,67151.891108
32.0,2047,67239.97911
32.0,2043,67329.684454
33.0,2041,67414.996916
32.0,2044,67501.199379
32.0,2045,67587.438429
32.0,2046,67673.482223
30.0,2045,67760.235812
33.0,2047,67847.27698
32.0,2047,67934.201335
32.0,2041,68019.549079
32.0,2043,68107.223783
33.0,2047,68192.503794
32.0,2047,68277.481975
31.0,2042,68363.775182
33.0,2041,68450.44012
30.0,2043,68537.501478
31.0,2048,68624.53241
31.0,2046,68711.359894
33.0,2044,68798.262561
32.0,2044,68884.975086
33.0,2045,68970.783867
33.0,2048,69056.468128
33.0,2046,69145.316991
33.0,2043,69230.315614
32.0,2044,69316.303678
32.0,2045,69405.675333
33.0,2047,69492.587804
33.0,2043,69576.698783
32.0,2044,69660.210859
31.0,2043,69746.850208
32.0,2043,69833.157085
32.0,2048,69920.534354
33.0,2046,70007.881809
31.0,2044,70096.58062
32.0,2043,70182.300955
32.0,2045,70266.662094
32.0,2044,70352.124452
32.0,2045,70440.049062
32.0,2047,70525.359848
33.0,2047,70611.294659
30.0,2041,70700.411157
32.0,2048,70790.360243
33.0,2048,70880.255179
32.0,2042,70970.102618
33.0,2046,71058.489687
33.0,2047,71147.525421
33.0,2044,71235.066136
32.0,2046,71324.66352
32.0,2045,71412.400658
32.0,2047,71501.139636
31.0,2046,71588.786422
32.0,2048,71676.128339
32.0,2044,71762.383561
32.0,2047,71851.274667
32.0,2041,71939.371384
33.0,2046,72027.051111
32.0,2042,72114.793768
32.0,2041,72201.936779
31.0,2044,72289.737887
31.0,2044,72376.360399
31.0,2044,72461.541858
33.0,2041,72547.366083
33.0,2041,72633.161355
32.0,2047,72719.974722
33.0,2047,72807.496867
32.0,2041,72891.3553
31.0,2047,72976.543645
33.0,2044,73062.758023
32.0,2045,73148.92337
33.0,2042,73233.677634
31.0,2042,73319.135694
32.0,2043,73403.854192
33.0,2044,73490.40842
32.0,2047,73576.670888
33.0,2046,73663.870728
31.0,2045,73751.557631
31.0,2043,73839.321098
32.0,2047,73922.793971
32.0,2043,74010.484828
32.0,2045,74098.0017
33.0,2046,74184.12128
32.0,2045,74270.029086
31.0,2048,74358.232308
31.0,2047,74444.913871
30.0,2045,74531.389999
33.0,2048,74618.945359
31.0,2044,74709.773926
33.0,2041,74795.565945
32.0,2044,74883.333142
32.0,2046,74970.165846
30.0,2048,75058.415993
33.0,2041,75143.34467
32.0,2048,75231.416927
32.0,2043,75317.563864
32.0,2042,75403.73918
32.0,2042,75490.929147
32.0,2047,75578.185404
33.0,2045,75664.90254
31.0,2043,75749.983192
33.0,2044,75834.93675
32.0,2044,75920.132335
33.0,2045,76008.377811
33.0,2043,76093.650862
32.0,2042,76179.972471
32.0,2042,76263.207078
33.0,2048,76352.269179
32.0,2046,76438.785836
32.0,2045,76524.196213
33.0,2045,76611.121562
32.0,2045,76697.597644
33.0,2045,76782.197731
33.0,2046,76869.88648
33.0,2045,76955.818439
32.0,2043,77042.457461
31.0,2044,77131.36482
32.0,2046,77216.76219
32.0,2047,77303.572618
33.0,2047,77389.72683
32.0,2046,77475.48992
32.0,2042,77562.483428
33.0,2044,77649.763368
32.0,2042,77737.05129
32.0,2042,77826.03757
33.0,2042,77917.35698
33.0,2041,78004.848557
32.0,2047,78093.435567
33.0,2043,78182.529716
33.0,2045,78272.694968
32.0,2044,78362.45972
32.0,2043,78452.358462
33.0,2043,78541.311681
31.0,2042,78631.094528
32.0,2042,78721.573083
33.0,2045,78812.297456
33.0,2048,78905.541026
33.0,2046,78996.747696
32.0,2046,79087.515778
33.0,2045,79180.03126
32.0,2047,79273.111852
32.0,2047,79363.079402
31.0,2047,79455.359889
33.0,2045,79547.867527
31.0,2042,79636.572385
33.0,2046,79728.023544
33.0,2048,79823.831259
32.0,2045,79917.642995
33.0,2042,80010.298724
32.0,2048,80102.856044
33.0,2047,80193.595192
32.0,2041,80285.309445
31.0,2043,80375.427551
32.0,2043,80468.574737
33.0,2043,80558.308187
32.0,2048,80649.367621
32.0,2046,80742.866107
31.0,2045,80831.456652
32.0,2045,80925.3658
32.0,2045,81017.2279
33.0,2044,81105.374961
33.0,2047,81197.504247
33.0,2046,81288.260647
33.0,2048,81380.60594
32.0,2048,81472.668831
33.0,2042,81564.14641
32.0,2043,81655.066665
33.0,2047,81748.565326
33.0,2042,81839.686437
33.0,2041,81930.437061
33.0,2041,82023.515483
33.0,2044,82114.306496
33.0,2041,82204.412103
33.0,2044,82296.204243
33.0,2046,82390.087113
33.0,2048,82482.16666
33.0,2046,82573.626646
33.0,2045,82665.256324
33.0,2041,82758.17919
33.0,2048,82850.518986
32.0,2042,82941.695002
33.0,2048,83031.312761
33.0,2048,83123.924784
33.0,2043,83216.517771
33.0,2042,83306.394864
32.0,2045,83399.605707
33.0,2045,83492.127199
32.0,2041,83588.761586
33.0,2046,83681.011603
33.0,2047,83771.949561
33.0,2043,83865.183466
32.0,2047,83959.232307
33.0,2048,84053.607664
31.0,2047,84147.269503
32.0,2043,84238.671797
33.0,2045,84330.651536
32.0,2046,84422.087212
32.0,2047,84517.536613
33.0,2043,84609.912454
33.0,2048,84707.200713
33.0,2044,84800.440239
33.0,2041,84890.663288
31.0,2047,84984.071223
32.0,2043,85073.075743
33.0,2046,85167.441025
33.0,2045,85260.125021
32.0,2046,85352.640453
32.0,2044,85444.905488
32.0,2044,85536.286292
33.0,2045,85627.442988
32.0,2047,85718.395314
32.0,2041,85810.22853
33.0,2045,85900.874073
32.0,2043,85992.870794
32.0,2041,86085.895122
33.0,2044,86177.399922
33.0,2044,86268.482849
33.0,2048,86361.525306
31.0,2041,86453.025898
32.0,2041,86545.886632
32.0,2041,86636.815134
33.0,2042,86730.48737
33.0,2047,86824.679497
33.0,2045,86918.639107
32.0,2042,87008.163048
33.0,2045,87099.177336
32.0,2044,87191.936837
31.0,2043,87285.21148
33.0,2041,87373.160064
33.0,2043,87463.036225
32.0,2045,87554.172249
33.0,2048,87644.365916
33.0,2044,87738.272998
33.0,2046,87830.299386
33.0,2048,87918.42653
32.0,2043,88005.070826
33.0,2044,88095.645052
31.0,2047,88184.135387
33.0,2044,88273.601199
33.0,2048,88361.228486
33.0,2043,88449.906713
32.0,2045,88539.065044
31.0,2045,88630.694706
30.0,2043,88719.488333
33.0,2042,88808.596514
33.0,2042,88897.964919
33.0,2043,88988.532827
33.0,2044,89076.232348
33.0,2042,89165.012499
33.0,2046,89253.897223
32.0,2046,89343.020787
32.0,2043,89430.68445
33.0,2042,89516.629445
33.0,2043,89604.501051
32.0,2042,89695.201067
33.0,2048,89782.444128
32.0,2045,89868.437431
33.0,2041,89955.016086
33.0,2043,90043.311627
33.0,2047,90134.424929
33.0,2044,90221.736166
33.0,2047,90314.28841
32.0,2043,90405.7009
32.0,2042,90490.644854
33.0,2042,90578.433852
33.0,2043,90663.996419
33.0,2041,90751.435417
33.0,2043,90835.481032
32.0,2045,90919.737314
33.0,2047,91002.603366
33.0,2041,91089.689594
33.0,2045,91178.267438
33.0,2044,91262.055856
32.0,2041,91350.822134
33.0,2046,91437.640709
32.0,2042,91527.14331
32.0,2045,91612.943661
33.0,2048,91701.229084
33.0,2046,91788.020743
32.0,2041,91874.786146
33.0,2047,91962.270368
33.0,2048,92048.932577
32.0,2046,92135.487086
32.0,2045,92224.048007
33.0,2041,92310.054948
32.0,2043,92394.420976
32.0,2042,92478.718097
31.0,2044,92563.135617
32.0,2044,92647.616047
33.0,2042,92733.39743
33.0,2042,92817.60428
33.0,2045,92898.199082
33.0,2044,92983.844617
33.0,2046,93066.49184
33.0,2043,93149.404121
32.0,2047,93232.936212
32.0,2043,93315.246402
32.0,2041,93400.167276
33.0,2042,93485.948739
33.0,2046,93570.755055
33.0,2046,93654.108239
33.0,2044,93736.55813
33.0,2045,93818.655331
33.0,2045,93900.167247
31.0,2045,93980.616123
33.0,2045,94064.670992
33.0,2042,94146.715917
33.0,2045,94229.044946
33.0,2047,94311.067729
33.0,2047,94393.252852
33.0,2043,94474.009116
33.0,2045,94558.00746
33.0,2042,94641.569166
33.0,2041,94725.734259
33.0,2044,94809.600124
33.0,2044,94893.118413
33.0,2046,94973.812174
33.0,2043,95055.843937
31.0,2043,95136.968266
33.0,2042,95217.269404
33.0,2042,95299.805804
33.0,2048,95377.695467
32.0,2042,95455.807211
33.0,2045,95535.778836
32.0,2043,95613.379775
33.0,2048,95693.276176
32.0,2042,95774.231887
33.0,2045,95854.419832
33.0,2044,95928.537352
33.0,2042,96008.005199
33.0,2045,96087.235836
33.0,2047,96166.368636
33.0,2043,96243.831051
33.0,2043,96322.359742
33.0,2043,96399.249754
33.0,2042,96480.748647
33.0,2048,96559.643124
33.0,2045,96636.96335
32.0,2044,96715.445906
33.0,2045,96795.518382
33.0,2047,96870.572403
33.0,2046,96950.856294
32.0,2045,97029.361767
32.0,2043,97108.628248
32.0,2042,97188.714138
33.0,2044,97267.861441
33.0,2047,97344.900537
31.0,2048,97426.875303
33.0,2042,97505.782239
31.0,2043,97582.876072
32.0,2042,97662.812255
33.0,2046,97741.336453
32.0,2042,97820.764402
33.0,2045,97900.435418
33.0,2041,97977.964886
33.0,2041,98055.641742
33.0,2046,98131.777423
32.0,2043,98210.484944
32.0,2041,98288.998155
33.0,2042,98367.970891
33.0,2046,98447.571676
33.0,2046,98526.067009
33.0,2048,98605.314627
33.0,2042,98683.115129
32.0,2041,98761.113225
33.0,2041,98840.473998
33.0,2045,98914.507348
33.0,2047,98991.099209
