# {"t_start": 1547077921.4463387, "env_id": "TutankhamNoFrameskip-v4"} 
r,l,t0.0,691,33.134295
1.0,1348,81.741619
20.0,1675,140.951426
2.0,525,160.103606
12.0,802,190.023326
4.0,745,220.021617
22.0,991,258.746899
7.0,880,295.013376
12.0,782,328.716804
5.0,614,352.517759
20.0,827,384.321487
8.0,534,404.531776
14.0,599,427.944377
75.0,1857,503.42599
63.0,985,544.850744
116.0,2088,638.083389
130.0,3050,771.630153
124.0,2025,859.497307
75.0,959,901.62318
135.0,2043,988.833431
113.0,2083,1079.957016
55.0,1542,1147.204117
116.0,2107,1236.474337
113.0,2083,1326.502449
120.0,2098,1419.729196
136.0,2147,1511.456866
135.0,2104,1600.725213
109.0,1611,1672.365246
143.0,2067,1763.44659
82.0,1231,1816.809261
99.0,1306,1873.505745
107.0,1628,1943.3722
105.0,1357,2001.938905
136.0,2010,2090.313574
43.0,850,2126.943564
112.0,1962,2213.2137
128.0,2087,2305.557359
113.0,2082,2394.663246
122.0,2098,2486.601306
117.0,2108,2575.94364
129.0,2126,2668.0409
117.0,2169,2760.709157
126.0,2212,2857.048009
106.0,3529,3009.978633
129.0,3228,3150.302588
134.0,2106,3241.719367
119.0,2124,3334.492243
69.0,1148,3384.002528
97.0,1192,3433.468178
81.0,1152,3484.004938
117.0,1756,3560.942912
126.0,2021,3646.906632
146.0,2058,3734.111874
102.0,1510,3800.16984
148.0,2293,3899.383994
125.0,2005,3988.021142
124.0,2153,4078.787351
87.0,1974,4162.968087
138.0,2169,4255.620373
138.0,2182,4353.302627
147.0,2139,4448.166138
139.0,2038,4538.265163
150.0,3100,4673.338327
72.0,959,4714.018991
145.0,2009,4799.619043
116.0,2072,4888.114357
41.0,658,4915.776417
68.0,1067,4963.108464
103.0,1465,5028.168929
116.0,1572,5098.300127
140.0,2171,5193.074889
152.0,2962,5321.213844
184.0,3254,5462.790832
139.0,2185,5558.069657
147.0,2199,5652.188424
115.0,2244,5749.51037
118.0,2180,5843.493268
115.0,2186,5937.931525
119.0,2198,6031.273
114.0,2596,6142.095552
150.0,2115,6233.689244
140.0,2174,6328.670562
132.0,2244,6425.498137
130.0,2176,6517.466144
150.0,2109,6606.877707
134.0,2177,6703.247567
155.0,5392,6939.290276
146.0,1964,7023.963472
139.0,2134,7118.634444
158.0,3115,7253.39146
137.0,2263,7350.397526
140.0,2108,7443.109476
135.0,2116,7536.273584
136.0,2084,7629.104711
139.0,2359,7730.520094
145.0,2255,7825.134807
137.0,2049,7914.394855
20.0,2971,8045.184103
130.0,2218,8143.961639
133.0,2181,8235.799943
141.0,2238,8334.402599
138.0,2007,8419.81986
135.0,2224,8516.439823
144.0,2098,8606.386521
145.0,2206,8702.193418
139.0,2148,8794.082301
137.0,2133,8887.000896
141.0,2059,8977.947496
137.0,2203,9073.967055
139.0,2118,9165.381415
142.0,2163,9257.838926
65.0,936,9300.555824
142.0,2190,9398.349314
147.0,2160,9492.873426
144.0,2095,9582.713555
148.0,2142,9674.638003
140.0,2166,9767.619165
154.0,2121,9859.804501
145.0,2155,9951.659531
152.0,2089,10041.700995
147.0,2217,10138.648675
144.0,2139,10231.863969
146.0,2140,10326.641216
144.0,2380,10431.16467
167.0,2816,10553.305161
154.0,2109,10642.115906
148.0,2689,10757.765301
147.0,2165,10850.113735
158.0,2120,10942.618964
145.0,2078,11034.588067
155.0,2113,11123.917967
148.0,2173,11216.001423
137.0,2206,11311.787427
139.0,2432,11417.74515
146.0,2202,11513.780676
140.0,3292,11654.669284
146.0,2405,11756.634036
150.0,2147,11848.429557
147.0,2651,11962.754582
141.0,3114,12100.688177
143.0,2122,12193.243567
148.0,2354,12295.012981
145.0,2157,12387.770593
141.0,2205,12482.173057
144.0,2145,12575.80757
146.0,2168,12670.990695
144.0,2337,12774.740153
140.0,2289,12873.125687
143.0,2184,12970.172029
163.0,2283,13068.129869
147.0,2200,13160.947247
142.0,2140,13252.483277
148.0,2356,13355.689971
145.0,2970,13482.489308
153.0,2144,13574.104156
148.0,2200,13667.556053
168.0,3077,13799.777315
146.0,2299,13900.99644
154.0,2105,13992.556333
141.0,2477,14099.400227
146.0,2270,14193.471435
173.0,2806,14315.397949
0.0,216,14325.112446
149.0,2827,14447.625514
146.0,2810,14571.240083
164.0,3429,14724.018499
146.0,2197,14818.329671
149.0,3382,14960.420107
147.0,2842,15084.917463
147.0,2154,15178.677265
164.0,2167,15272.271278
146.0,2108,15364.623603
144.0,2211,15458.735567
121.0,2082,15550.563202
149.0,2344,15651.598368
148.0,2230,15751.02128
150.0,2174,15843.452593
148.0,2341,15944.454429
143.0,2143,16039.663076
147.0,2196,16135.620746
150.0,2206,16231.926627
142.0,2209,16327.844812
145.0,2667,16445.467857
149.0,2314,16546.046087
148.0,2275,16644.906218
143.0,2559,16758.558169
142.0,2093,16849.040532
154.0,2650,16961.588903
147.0,2272,17063.079644
151.0,2325,17163.48625
151.0,2278,17260.702162
150.0,2679,17378.295937
145.0,2280,17477.454573
146.0,2376,17578.783776
150.0,2481,17685.463169
148.0,2179,17778.100557
146.0,2256,17877.372402
150.0,2248,17975.227613
144.0,2214,18072.622897
149.0,2232,18169.364837
124.0,2150,18263.637328
148.0,2257,18362.621625
146.0,2186,18459.6426
147.0,2190,18553.334976
145.0,3219,18692.31901
144.0,2607,18806.032736
143.0,2247,18904.084702
127.0,2213,19000.113982
141.0,2268,19097.873035
137.0,2307,19198.466445
148.0,2589,19309.7606
123.0,2170,19403.531495
148.0,2171,19498.69237
145.0,2163,19589.628101
148.0,2583,19702.065772
129.0,2181,19797.179372
143.0,2361,19900.201671
147.0,2203,19993.775885
146.0,2214,20089.591369
148.0,2219,20182.957199
143.0,2324,20283.336508
144.0,2057,20372.991088
150.0,2237,20468.075691
147.0,2333,20567.953165
147.0,2533,20677.475649
147.0,2248,20774.403822
144.0,2189,20869.501569
147.0,2319,20971.481239
141.0,2363,21072.851871
151.0,2236,21170.708081
151.0,2287,21274.127469
154.0,2552,21384.375161
144.0,2225,21479.956893
145.0,2195,21574.390846
145.0,2293,21674.47895
144.0,2243,21770.743
148.0,2138,21862.474768
149.0,2271,21960.552011
143.0,2831,22082.290214
148.0,2118,22173.377439
148.0,2698,22290.066091
143.0,2130,22381.703157
146.0,2244,22478.651861
150.0,2225,22573.783579
152.0,2851,22698.448385
144.0,2847,22820.934664
150.0,2490,22929.970997
167.0,3122,23062.846319
145.0,2337,23162.110127
144.0,2270,23260.865671
145.0,2301,23359.273248
141.0,2583,23471.060154
151.0,5506,23713.21349
150.0,2403,23817.241516
150.0,3679,23975.811373
145.0,2163,24068.738024
147.0,3277,24211.281668
147.0,2718,24327.017546
143.0,2878,24450.847436
144.0,2152,24541.589965
154.0,2398,24646.780694
150.0,9692,25055.410488
147.0,2924,25180.600333
148.0,2328,25278.73205
193.0,11397,25766.179893
142.0,2617,25875.692868
147.0,4114,26051.430253
147.0,3285,26187.873908
147.0,2211,26282.480121
142.0,2172,26373.626128
144.0,2785,26490.685667
150.0,2587,26600.447026
151.0,3092,26729.724104
154.0,2473,26835.646954
151.0,2761,26949.818918
147.0,2235,27046.679045
152.0,2145,27134.139493
150.0,2233,27227.704923
148.0,2240,27323.076362
143.0,2389,27424.09377
143.0,2214,27517.051068
145.0,2165,27609.46024
148.0,2323,27707.347998
143.0,2123,27796.341073
147.0,2294,27893.546623
147.0,2133,27981.815614
150.0,2175,28072.817501
143.0,2690,28183.040848
145.0,2594,28295.350074
150.0,2194,28388.890936
151.0,2177,28481.832337
152.0,2329,28580.161072
151.0,2978,28705.645159
147.0,2242,28799.578929
148.0,2234,28895.813304
154.0,2327,28996.087264
147.0,2257,29092.049229
150.0,2317,29191.366172
151.0,2250,29286.288528
146.0,2285,29383.168922
142.0,4424,29573.517067
145.0,3262,29712.270574
144.0,2197,29806.891588
152.0,2449,29911.09972
149.0,2220,30005.341665
146.0,2115,30094.461425
145.0,6929,30389.642956
147.0,3528,30536.389536
136.0,2157,30632.059009
148.0,6983,30923.876829
150.0,2190,31015.496091
146.0,2530,31121.63991
150.0,2443,31228.445086
146.0,3764,31392.153787
149.0,3463,31540.115631
144.0,2221,31632.683267
189.0,4357,31817.641804
154.0,2666,31928.416188
145.0,2273,32022.513633
149.0,2204,32116.326285
144.0,2699,32229.55654
150.0,2415,32328.81942
151.0,2354,32429.632438
147.0,2289,32528.750221
152.0,2439,32633.430025
145.0,2498,32744.314656
151.0,2652,32859.802246
146.0,3167,32998.066323
151.0,2455,33103.32758
149.0,2142,33193.498843
154.0,2726,33309.067452
150.0,2247,33404.395694
147.0,2245,33502.468236
151.0,2464,33611.460128
139.0,2969,33740.417382
151.0,2753,33859.891623
146.0,2275,33959.873775
151.0,4112,34141.354292
147.0,5076,34364.037076
133.0,2980,34493.019003
146.0,3037,34621.322679
191.0,3471,34770.922196
143.0,2607,34882.146263
149.0,2256,34982.009512
147.0,2267,35081.712265
127.0,2225,35176.143755
144.0,2212,35269.634982
145.0,2166,35363.974139
148.0,2487,35472.758025
149.0,2413,35577.126709
189.0,3193,35716.837454
147.0,3351,35862.388041
152.0,2556,35975.518134
150.0,2210,36068.793416
153.0,2658,36183.183754
152.0,2323,36287.141606
151.0,2188,36380.625728
149.0,2202,36476.73348
150.0,2165,36571.901219
148.0,2293,36672.899518
148.0,2248,36769.99747
144.0,2242,36869.819731
148.0,2157,36962.535524
141.0,2687,37076.94066
148.0,4957,37290.333683
152.0,2377,37397.323426
150.0,21446,38327.5989
148.0,5624,38565.079163
152.0,2439,38667.706547
151.0,3904,38831.62033
150.0,2399,38929.745632
152.0,2394,39032.411845
145.0,2558,39141.589843
149.0,2270,39238.158557
145.0,2339,39338.265418
151.0,2319,39434.286802
177.0,3114,39566.848219
114.0,2333,39665.328919
148.0,2217,39759.402669
147.0,2433,39862.727487
192.0,3392,40006.069455
165.0,4263,40184.05307
153.0,2618,40294.713481
152.0,2877,40418.397527
152.0,2247,40515.969727
148.0,2329,40612.429527
147.0,2146,40702.787273
152.0,2494,40806.997583
154.0,2147,40897.900393
150.0,2563,41007.578211
151.0,2277,41102.888023
146.0,2378,41205.028949
151.0,2694,41321.469892
149.0,2180,41413.492012
149.0,2245,41506.195633
146.0,2150,41596.881133
178.0,3148,41725.983273
146.0,2216,41820.053278
146.0,2393,41921.17182
143.0,2247,42016.615332
143.0,2191,42108.588872
150.0,2162,42200.690123
150.0,2377,42302.396839
149.0,2227,42394.99015
148.0,2367,42495.358446
150.0,2306,42593.738403
149.0,2205,42687.070598
148.0,2225,42783.368038
153.0,2472,42886.521677
154.0,2409,42990.677659
160.0,4210,43173.614075
151.0,2227,43269.232272
155.0,2336,43369.174005
151.0,2194,43461.827746
146.0,2411,43563.582012
149.0,2522,43670.233926
145.0,2513,43777.088756
162.0,3498,43925.874565
149.0,2229,44019.500444
150.0,2193,44114.242837
149.0,2154,44204.597853
150.0,2413,44307.874104
153.0,2498,44413.44146
154.0,2397,44515.042732
149.0,2901,44637.623954
152.0,3356,44777.064012
151.0,2383,44876.764579
152.0,2160,44970.073754
157.0,2316,45068.004568
165.0,2580,45177.612429
147.0,2151,45268.826699
187.0,7637,45589.32357
152.0,3193,45722.513213
144.0,2175,45814.875351
153.0,2133,45907.669587
151.0,2306,46006.169804
152.0,2797,46125.31048
130.0,2211,46219.132369
187.0,4763,46421.826189
152.0,4220,46600.2839
152.0,4220,46783.719302
151.0,2198,46876.856613
169.0,7762,47204.298763
166.0,2559,47312.342872
165.0,3701,47469.62949
163.0,2814,47589.139307
150.0,2424,47689.620949
170.0,3558,47842.831359
193.0,3625,47994.135299
153.0,2525,48102.718098
146.0,2150,48191.799256
159.0,2462,48294.914961
187.0,5349,48521.489858
151.0,3078,48650.819763
177.0,3345,48792.024405
187.0,3662,48949.398695
154.0,2762,49065.900125
173.0,5641,49305.668592
167.0,3246,49443.928791
155.0,2511,49549.92785
191.0,4984,49761.964788
145.0,2127,49851.0806
191.0,3253,49992.308315
150.0,2272,50090.628558
150.0,2250,50187.025958
193.0,3543,50334.3451
154.0,2365,50434.580147
155.0,2187,50526.320462
153.0,2120,50617.229875
150.0,4094,50793.74624
150.0,5980,51046.135564
151.0,2135,51137.250051
153.0,2500,51242.632363
148.0,2659,51354.870577
186.0,3832,51522.396191
151.0,2273,51618.956886
170.0,3543,51769.088665
188.0,2924,51892.343056
150.0,2157,51984.001801
164.0,4202,52169.053368
165.0,3010,52299.442089
198.0,4662,52500.295146
190.0,3107,52637.955913
167.0,2921,52765.425881
158.0,2645,52880.116308
196.0,10258,53323.2014
184.0,5638,53568.641607
190.0,7164,53878.047899
150.0,3684,54034.559661
150.0,2182,54127.949381
150.0,2185,54225.357302
190.0,2711,54342.665637
189.0,2835,54467.523429
148.0,3281,54607.206747
193.0,2616,54720.952361
150.0,2435,54828.786327
147.0,4754,55038.923998
166.0,2299,55137.957527
167.0,2385,55242.24362
152.0,2231,55340.827052
164.0,2748,55461.257291
154.0,2117,55553.274369
147.0,2284,55651.836772
196.0,4077,55828.562631
148.0,2193,55920.669036
153.0,7295,56227.289849
155.0,13780,56811.776012
150.0,4036,56981.678093
149.0,99999,61232.204323
154.0,2292,61329.627426
152.0,14185,61934.103781
155.0,2187,62027.242264
152.0,2207,62118.561551
150.0,2157,62209.284699
184.0,7049,62504.683435
147.0,2102,62592.850291
169.0,2269,62686.362206
186.0,9251,63074.315304
167.0,3514,63222.116251
148.0,2325,63320.480408
159.0,37130,64904.382722
142.0,2421,65007.207694
163.0,3437,65151.687708
145.0,2211,65244.798817
147.0,2335,65341.558261
152.0,6292,65613.029274
151.0,2290,65709.377574
153.0,2211,65799.541499
164.0,10785,66263.528749
169.0,9034,66654.623552
153.0,2159,66747.096924
150.0,2309,66847.770058
190.0,10958,67320.177248
166.0,2497,67427.510292
152.0,2195,67521.150148
164.0,5064,67737.508383
156.0,9329,68135.280068
150.0,2136,68224.201803
154.0,2158,68316.576236
147.0,2167,68408.629913
141.0,2113,68498.048896
164.0,3560,68647.329304
190.0,12439,69176.176402
165.0,3959,69344.084712
150.0,2782,69461.916799
132.0,2161,69552.977378
150.0,2230,69648.607067
172.0,2787,69765.856173
169.0,4252,69942.103016
186.0,9741,70362.26455
194.0,3340,70504.618935
190.0,3512,70654.863442
190.0,3106,70788.845163
165.0,2707,70903.859591
192.0,11009,71371.165819
150.0,99998,75733.958095
131.0,48843,77930.841256
172.0,99994,82422.339348
154.0,72970,85639.730148
131.0,29685,86917.727684
145.0,2212,87014.523185
150.0,2312,87113.985525
153.0,3661,87274.992809
149.0,2145,87369.004735
153.0,2742,87488.377726
150.0,2298,87586.243011
144.0,2158,87680.318187
139.0,2109,87769.67399
151.0,2263,87869.721964
142.0,2144,87958.538818
146.0,3196,88095.879379
154.0,2194,88189.754588
147.0,2342,88287.870343
153.0,99996,92393.113826
148.0,99997,96291.738095
135.0,31963,97411.711119
153.0,2140,97483.066713
155.0,2651,97571.64022
155.0,2296,97648.528291
153.0,2306,97721.860446
150.0,9484,98023.001054
150.0,2830,98113.649878
147.0,2539,98194.763814
156.0,2757,98282.6419
152.0,3222,98385.278161
152.0,2242,98455.749634
147.0,2594,98539.227751
146.0,2255,98610.058484
151.0,2178,98679.461027
151.0,2570,98761.729707
151.0,2291,98835.045762
154.0,2146,98899.039395
152.0,2277,98967.797472
153.0,2280,99031.508301
153.0,2234,99092.460739
152.0,2184,99146.393039
149.0,2328,99204.522777
151.0,2398,99264.266426
151.0,2331,99322.234608
146.0,11057,99596.577442
147.0,2392,99652.385759
151.0,2220,99700.403135
155.0,3967,99786.368733
147.0,2187,99833.043423
153.0,2267,99880.787193
152.0,2204,99927.007748
150.0,3272,99995.548066
142.0,2514,100048.903872
151.0,3342,100121.937643
151.0,2411,100171.878198
156.0,2504,100221.511503
145.0,2323,100266.64948
153.0,2249,100309.645427
157.0,2447,100358.206138
151.0,2444,100402.9048
154.0,3068,100457.321951
154.0,2817,100507.924963
147.0,2254,100547.11097
147.0,2176,100585.788975
149.0,2548,100630.700882
147.0,2312,100672.31418
146.0,2328,100714.053987
146.0,11279,100908.707835
147.0,6045,101008.601683
153.0,2577,101050.213833
