# {"t_start": 1552336228.4436357, "env_id": "KungFuMasterNoFrameskip-v0"} 
r,l,t
600.0,1002,296.487247
800.0,1219,694.955236
200.0,912,974.795733
600.0,878,1259.180451
800.0,1079,1591.558068
600.0,845,1872.057464
500.0,934,2165.816829
1400.0,1190,2545.475025
200.0,1055,2882.473526
1300.0,1003,3210.294704
1400.0,853,3491.265048
1800.0,1097,3818.206965
900.0,916,4143.193178
2000.0,1169,4512.953062
3000.0,1042,4840.70128
2000.0,1128,5216.40435
5400.0,1621,5708.176337
4000.0,1167,6082.073734
6400.0,1554,6582.109683
12700.0,2067,7278.424716
3600.0,1176,7650.938856
17100.0,2470,8431.969584
14200.0,2066,9090.573259
23200.0,2597,9909.267787
10800.0,1990,10564.228608
7400.0,2042,11224.543575
6700.0,1428,11685.170179
10500.0,1816,12260.223257
10700.0,2075,12933.36671
14200.0,1886,13540.526567
17100.0,2306,14285.864456
14300.0,2170,14981.289543
14600.0,1807,15563.476076
7500.0,1409,16013.013433
2500.0,1115,16377.590865
12000.0,1968,16994.830258
13500.0,2058,17658.765447
8900.0,1633,18195.278946
9400.0,1499,18683.972628
10200.0,1799,19258.853673
8100.0,1591,19752.450553
7700.0,1588,20252.896221
12100.0,1790,20813.838537
11100.0,1885,21431.44325
13700.0,2002,22089.525049
10300.0,1892,22668.535985
17500.0,2347,23448.670415
16200.0,2358,24184.9889
17200.0,2350,24957.471576
8800.0,1598,25455.126382
9600.0,1855,26030.514667
10400.0,1634,26566.588786
14800.0,2125,27262.908871
11100.0,1836,27842.788724
8400.0,1645,28382.227159
13100.0,1959,28999.684105
15500.0,2366,29792.563239
10300.0,1802,30368.208966
9000.0,1513,30830.678981
14000.0,2234,31564.38081
11800.0,1935,32177.110229
8300.0,1655,32718.91388
9600.0,1880,33338.040033
7800.0,1663,33872.851296
15400.0,2431,34645.713609
15600.0,2269,35350.843661
13400.0,2030,36004.320927
10900.0,1639,36541.471502
5600.0,1589,37038.785273
3300.0,1183,37411.129375
3700.0,1206,37827.149951
8300.0,1388,38280.871727
11500.0,2077,38938.520142
7800.0,1688,39489.454744
9300.0,1601,40025.758975
11700.0,1820,40601.037163
12600.0,1805,41178.423896
7300.0,1641,41708.669004
8200.0,1749,42245.839404
14700.0,2514,43069.509401
12800.0,1823,43646.770892
10400.0,1962,44260.221224
11200.0,1858,44876.290757
10100.0,1697,45425.591005
14900.0,2360,46199.510671
14500.0,2322,46931.103132
11600.0,2011,47553.286093
7000.0,1682,48072.463871
15200.0,3197,49096.379753
9900.0,1713,49663.601805
9600.0,1728,50196.88137
6500.0,1478,50687.164537
8500.0,1711,51223.44248
20900.0,2553,52038.665891
6500.0,1223,52446.924888
14800.0,2565,53280.643469
16100.0,2357,54020.310436
11300.0,2071,54684.392242
14300.0,2331,55439.694638
8600.0,1716,56015.562735
6600.0,1618,56504.502536
15000.0,2461,57310.870995
9500.0,1922,57888.61919
9600.0,1725,58441.9841
15600.0,2459,59005.570841
17900.0,2559,59601.985761
14100.0,2339,60138.770824
11200.0,1803,60557.455186
16300.0,2453,61129.117533
13100.0,1950,61561.336207
9600.0,1945,61992.156207
11400.0,2114,62455.956614
9200.0,1865,62886.793998
10700.0,1729,63262.521679
14000.0,2120,63747.271961
19800.0,2740,64353.298521
19200.0,2467,64923.502684
4000.0,1280,65209.739173
15800.0,2416,65724.712429
17100.0,2614,66314.682612
8900.0,1623,66684.530461
9900.0,1644,67026.243689
13800.0,2089,67506.468326
4400.0,1241,67765.909442
13800.0,2123,68248.588791
3700.0,1018,68479.71863
12500.0,1990,68904.919505
11400.0,1934,69335.93348
9200.0,1911,69765.593992
10700.0,1912,70194.672433
14500.0,2114,70678.484941
11600.0,1852,71075.033509
12900.0,2202,71560.462083
14000.0,2344,72096.571052
8300.0,1586,72439.276671
17200.0,2329,72953.977838
13200.0,2277,73461.465454
12100.0,2050,73916.333717
3200.0,1344,74200.767131
13400.0,2338,74741.068178
12400.0,2240,75227.780831
8900.0,1760,75624.878863
15500.0,2525,76192.521616
7000.0,1422,76504.443425
7400.0,1837,76904.195077
22600.0,3839,77758.940514
13100.0,2248,78247.529976
14800.0,2275,78751.660699
12800.0,2064,79203.389384
9800.0,1672,79561.466529
15700.0,2072,79962.254344
11600.0,1636,80241.270882
15500.0,2360,80677.429439
16600.0,2234,81073.4123
7400.0,1688,81373.089124
14300.0,2234,81787.820014
13500.0,1859,82118.856675
11200.0,1786,82440.364115
7600.0,1420,82696.716217
11200.0,1730,83015.85235
11600.0,2071,83387.535497
10000.0,1720,83688.379139
10600.0,1811,84014.411687
7600.0,1697,84332.8219
10200.0,1645,84616.414695
9600.0,1879,84959.092777
5900.0,1391,85211.459976
8700.0,1698,85509.349306
9200.0,1607,85806.595572
14100.0,1945,86149.477524
9400.0,1638,86447.111741
13300.0,2142,86818.943416
12500.0,1731,87139.130646
7600.0,1591,87415.339183
8300.0,1711,87734.254225
10000.0,1780,88055.068678
7800.0,1641,88316.503971
