# {"t_start": 1552316319.3766825, "env_id": "KungFuMasterNoFrameskip-v0"} 
r,l,t500.0,925,106.960861
1400.0,1192,232.378127
1300.0,999,348.839663
600.0,986,455.091088
1700.0,1197,590.656121
6900.0,1936,812.586344
8300.0,1543,979.876996
11700.0,1923,1194.523398
14400.0,2152,1440.731605
11900.0,1840,1640.358135
7100.0,1443,1794.779218
5400.0,1254,1933.14726
8800.0,1635,2116.121726
11000.0,1821,2314.321573
16600.0,2128,2552.317408
10600.0,1932,2766.53534
9800.0,1918,2977.671531
7300.0,1698,3164.494039
10200.0,1680,3353.5718
6400.0,1645,3539.588048
7900.0,1664,3723.971405
13400.0,2337,3979.992785
8300.0,1809,4180.241878
11100.0,1978,4400.566229
11400.0,2469,4671.684196
11300.0,1859,4872.161618
12700.0,2237,5132.089344
6900.0,1544,5314.731378
10500.0,2034,5542.34033
10600.0,2085,5776.570255
15100.0,2364,6040.513786
20100.0,2999,6382.829125
13200.0,2342,6643.945028
8800.0,1552,6810.680772
18900.0,2537,7094.573951
12200.0,2354,7349.238975
13500.0,2273,7608.996413
12400.0,1974,7822.247617
5900.0,1662,8004.105784
14800.0,2697,8306.722978
18300.0,2792,8612.80865
12400.0,2099,8849.622637
10400.0,2021,9069.245246
10800.0,2240,9326.645815
18000.0,2720,9627.442249
7800.0,1870,9837.57517
10900.0,1991,10057.398907
10100.0,1788,10256.858414
13500.0,2388,10517.252092
13800.0,2274,10784.20376
13200.0,2236,11031.554627
14200.0,2180,11277.260213
14100.0,2391,11546.500068
13000.0,2289,11804.692324
18200.0,2714,12098.036012
14500.0,2309,12347.349257
14800.0,2038,12569.470058
17600.0,2564,12850.105364
16200.0,2129,13088.220597
15900.0,2501,13373.176265
27000.0,3109,13711.664248
21900.0,2831,14024.561084
21500.0,2740,14334.934059
16100.0,2202,14580.951493
18200.0,2344,14836.892104
24900.0,3023,15174.623467
19400.0,2716,15473.927554
22400.0,2727,15770.875032
20900.0,2886,16102.114466
13200.0,1846,16303.120436
24000.0,3042,16645.202017
19400.0,2551,16928.797136
21500.0,2860,17251.439253
21400.0,2562,17550.790313
12400.0,2000,17778.643696
22700.0,2681,18078.628711
17400.0,2904,18401.551324
13500.0,2160,18645.690172
11300.0,2405,18919.351787
19500.0,2667,19215.055404
14100.0,2164,19479.912487
17900.0,2634,19794.749043
14500.0,2118,20058.642727
12600.0,1881,20296.699023
14600.0,2350,20617.983492
11500.0,2016,20878.502178
11800.0,2203,21169.839706
13800.0,2363,21492.333947
12200.0,2134,21792.487796
26300.0,3806,22290.672369
18900.0,3170,22722.614374
11500.0,2284,23047.126305
16800.0,2389,23360.828011
17300.0,2932,23763.637989
10200.0,1776,24002.091408
18800.0,2853,24380.615836
20000.0,3015,24790.045513
7600.0,1543,24999.956066
14300.0,2564,25340.374264
10600.0,2038,25613.036482
14500.0,2305,25915.378796
12800.0,2275,26222.733096
14500.0,2365,26539.731236
14400.0,2396,26873.885517
13800.0,2204,27162.853015
15200.0,2778,27537.162148
21000.0,3014,27933.802856
24600.0,3381,28397.329272
11100.0,1931,28671.050976
18900.0,2900,29064.385306
11500.0,2197,29359.73312
19500.0,3199,29785.270863
17000.0,2727,30167.878071
24100.0,3232,30607.342516
16600.0,2646,30972.644088
15900.0,2507,31305.997706
10000.0,2090,31586.626768
15200.0,2730,31961.527947
18200.0,3464,32428.454381
15800.0,2673,32800.19541
18800.0,2940,33198.989594
14700.0,2751,33563.261112
14000.0,2686,33918.625669
7600.0,2075,34202.747127
12400.0,2449,34542.536099
12000.0,2335,34862.807029
16300.0,2886,35256.422443
18300.0,2992,35656.533277
14700.0,2935,36056.278332
13100.0,2560,36397.085452
14100.0,2650,36755.956752
25500.0,3843,37277.480719
18300.0,3009,37676.358843
14300.0,2471,38022.497638
11600.0,2365,38334.848899
23400.0,3431,38798.796673
6100.0,1673,39026.678991
14100.0,2940,39428.964483
12800.0,2415,39770.459434
9800.0,1984,40043.124846
16400.0,3013,40452.216976
16000.0,2599,40795.250037
12300.0,2015,41067.454664
17500.0,2607,41419.840828
17100.0,2895,41820.301686
8500.0,1911,42083.744616
12800.0,2339,42395.382138
13500.0,2418,42727.204217
19000.0,3106,43137.124121
8600.0,2088,43415.694709
5900.0,1614,43649.301565
18800.0,2867,44030.365366
12300.0,2567,44375.092937
13100.0,2508,44710.413763
13200.0,2389,45021.236397
11200.0,2332,45335.588685
17800.0,2525,45667.734908
12600.0,2297,45977.821558
11200.0,1932,46238.31313
17900.0,2990,46645.194447
8800.0,1876,46896.635701
10900.0,2305,47210.842157
19100.0,3158,47634.327068
13900.0,2867,48006.233113
9600.0,2062,48281.619705
10800.0,2292,48590.080242
11400.0,2440,48907.076937
25300.0,3510,49384.947794
7400.0,1895,49639.94362
18600.0,3322,50087.97925
12400.0,2501,50425.328321
18400.0,3155,50858.06551
15400.0,2665,51212.780672
15300.0,2464,51549.156836
14800.0,2472,51879.180799
17600.0,2846,52260.471696
14900.0,2415,52581.351562
27500.0,4230,53145.191686
10300.0,1953,53402.31589
18900.0,3261,53841.017733
22500.0,3540,54314.204553
11700.0,2154,54600.336181
13800.0,2820,54984.374068
13500.0,2303,55293.155544
16000.0,3109,55701.42245
14100.0,2744,56079.09243
15800.0,2734,56450.550813
11600.0,2496,56799.591684
14100.0,2544,57130.892581
6200.0,1818,57376.47117
12400.0,2450,57706.742172
14900.0,2681,58063.726571
14500.0,2849,58448.413292
17000.0,2937,58842.112635
11200.0,2338,59163.320882
27200.0,4237,59745.750446
18600.0,2841,60118.564322
25300.0,3640,60609.140116
11400.0,2195,60904.065211
11000.0,2495,61226.339257
14100.0,2654,61579.644307
20100.0,3394,62029.268513
10300.0,2073,62310.022758
12800.0,2411,62627.8447
24900.0,3796,63145.882635
14500.0,2510,63487.492833
15400.0,2609,63837.986258
8500.0,1760,64079.413505
11300.0,2293,64385.474033
9500.0,2140,64664.670813
11700.0,2672,65028.195449
10700.0,2255,65347.217525
9500.0,2387,65652.671757
12200.0,2349,65973.913193
19700.0,3160,66394.611292
9800.0,2191,66690.21527
10200.0,2269,66988.917547
13100.0,2458,67315.40807
17800.0,2819,67694.278042
11900.0,2408,68023.001997
23000.0,3713,68525.529637
12300.0,2326,68832.737491
14900.0,2577,69174.253351
37300.0,5130,69880.422482
26400.0,3983,70423.944415
12900.0,2511,70765.55416
6500.0,1688,70984.76104
9300.0,1706,71222.891673
12800.0,2509,71556.445335
13000.0,2442,71887.946233
13000.0,2384,72210.745813
9500.0,2175,72506.596359
7900.0,2072,72784.094815
12100.0,2462,73126.064226
8400.0,1934,73379.247323
4500.0,1428,73568.949562
13300.0,2368,73896.071274
7100.0,1900,74153.463093
9000.0,2093,74429.776656
21100.0,3209,74857.188559
13200.0,2716,75220.254074
13500.0,2507,75563.627599
12900.0,2882,75939.810946
11000.0,2240,76246.753368
14000.0,2634,76595.230715
11500.0,2362,76909.783547
15000.0,3161,77343.531626
18300.0,2827,77720.321933
10000.0,2397,78033.615662
14400.0,2391,78325.570189
10200.0,2092,78452.55554
14400.0,2729,78620.743991
21800.0,3756,78862.017221
16700.0,3003,79050.786366
2300.0,1264,79131.124398
9000.0,2239,79275.760007
9500.0,2281,79414.474727
10700.0,2131,79545.528641
18700.0,3417,79758.114816
12600.0,2317,79901.24299
16500.0,2966,80088.494547
7800.0,2237,80224.814352
15000.0,2958,80408.393765
12800.0,2586,80579.149409
15500.0,2886,80757.696734
12100.0,2550,80907.685824
16700.0,3059,81092.636584
21600.0,3285,81288.132292
15400.0,2978,81474.699656
11300.0,2440,81620.87271
13800.0,2719,81785.546052
14100.0,2790,81954.466338
14100.0,2635,82112.450528
9700.0,2146,82248.636834
16000.0,2960,82426.980796
13500.0,2629,82585.949267
12200.0,2505,82732.419264
12000.0,2285,82867.831619
17500.0,3286,83061.813566
11900.0,2521,83216.115916
12100.0,2563,83371.274656
20800.0,3576,83589.017612
14200.0,2507,83741.710948
10100.0,2217,83873.536879
8100.0,2074,84003.678781
11700.0,2853,84182.463958
7300.0,1804,84286.313881
9000.0,2162,84415.514692
14600.0,2750,84585.398709
14300.0,2688,84745.35653
10900.0,2350,84888.226148
8700.0,2186,85016.300746
11400.0,2331,85158.487123
7900.0,1925,85273.592742
14400.0,2691,85432.420942
13500.0,2800,85602.827549
11900.0,2088,85727.562808
21300.0,3659,85945.944473
16800.0,2802,86113.633719
15300.0,2724,86278.804893
10500.0,2282,86411.237834
11400.0,2509,86570.07864
11500.0,2631,86737.797849
11100.0,2161,86877.936406
9900.0,2154,87023.650083
11900.0,2126,87153.669185
9000.0,2311,87292.753097
5500.0,1600,87384.684165
8600.0,2159,87516.37885
12500.0,2366,87654.027215
13800.0,2558,87807.527616
12500.0,2308,87946.886817
10000.0,2547,88097.317556
12900.0,2733,88264.182609
14700.0,2769,88427.239592
10600.0,2148,88556.108112
14900.0,2615,88716.396647
12000.0,2468,88863.163966
10100.0,2095,88987.10136
20000.0,3552,89200.810244
9300.0,2362,89344.957421
11500.0,2446,89492.420591
6400.0,1981,89611.019198
7100.0,1828,89721.287483
9800.0,2286,89858.667803
25300.0,4083,90105.092418
17200.0,3062,90301.175388
6200.0,1592,90407.779246
21700.0,3323,90623.681396
17800.0,3449,90847.679274
16500.0,2991,91034.237567
8900.0,2355,91188.470205
10400.0,2395,91340.8852
16600.0,3232,91532.542514
11100.0,2331,91674.188081
18100.0,3212,91871.320489
3500.0,1414,91956.533312
13000.0,2707,92119.947005
11000.0,2072,92246.923431
15300.0,2945,92421.201812
24700.0,4577,92699.907939
14600.0,3148,92886.511366
2000.0,1110,92951.306914
5500.0,1603,93047.33481
7200.0,1902,93155.323175
14900.0,3218,93351.149779
12900.0,2721,93518.682307
5700.0,1686,93618.176213
6100.0,2024,93742.316158
7100.0,1910,93855.869204
14100.0,2451,94002.221525
22300.0,4190,94251.545166
17100.0,3159,94436.522432
8900.0,2459,94579.234946
10800.0,2551,94735.630954
17200.0,3374,94938.443591
13500.0,3107,95125.666287
12900.0,2702,95288.823842
15300.0,3027,95465.057888
9700.0,2185,95593.43385
7500.0,2224,95731.415625
7400.0,2092,95853.632009
21400.0,3643,96073.618026
17800.0,3010,96250.803453
9500.0,2418,96399.549657
11200.0,2497,96547.690953
13400.0,2556,96701.169972
18500.0,3317,96907.312621
11800.0,2454,97058.003661
7500.0,2201,97190.106899
20400.0,3320,97380.955372
17900.0,3150,97568.184298
11900.0,2504,97716.791551
17000.0,3306,97909.345516
14100.0,2594,98066.060314
14500.0,2870,98228.74236
12600.0,2513,98385.30805
8500.0,2073,98518.053343
11900.0,2538,98671.683632
13700.0,2560,98820.57482
16000.0,2712,98990.945665
24000.0,3667,99208.259806
12500.0,2380,99345.791511
14300.0,3157,99520.497431
14100.0,2576,99656.827796
23000.0,3294,99829.822003
15200.0,2726,99976.963876
12900.0,2758,100119.902455
32000.0,4837,100383.947396
17200.0,2965,100541.97421
18400.0,3153,100707.902997
12500.0,2566,100845.930457
17900.0,3147,101025.938038
22400.0,3906,101239.392346
12200.0,2557,101383.327561
14400.0,2981,101550.74281
11000.0,2453,101688.506078
16900.0,3209,101872.033071
16200.0,2995,102039.344214
11800.0,2590,102181.272717
12000.0,2753,102329.236808
11200.0,2413,102460.20412
31200.0,4622,102713.028487
14800.0,2779,102864.172378
11100.0,2412,102994.600636
15700.0,2612,103138.227077
22600.0,3889,103352.562363
13500.0,2452,103487.031432
7600.0,1905,103589.953462
13900.0,2583,103739.054296
20900.0,3614,103934.319815
17000.0,3148,104101.736042
14500.0,2928,104260.234915
12700.0,2820,104412.975199
17000.0,3212,104589.601468
15100.0,3047,104762.010608
15000.0,2882,104931.773076
17700.0,3344,105131.709962
12400.0,2455,105267.961411
23200.0,3769,105492.559442
13300.0,2439,105629.837816
15100.0,3236,105824.736002
17200.0,3158,106005.468861
15400.0,2944,106169.494458
15400.0,2715,106323.656974
14000.0,2708,106475.257105
12400.0,2725,106628.461929
16800.0,3333,106814.915451
17500.0,3086,106995.298806
11800.0,2528,107135.400926
11000.0,2360,107266.575266
11500.0,2437,107405.255642
16200.0,3036,107579.655032
6300.0,2021,107690.647185
8100.0,2077,107812.297444
10100.0,2506,107951.455003
14600.0,2994,108123.131556
8800.0,2367,108254.959119
12500.0,2573,108398.37859
9000.0,2270,108525.304981
17500.0,3393,108706.236634
22400.0,3819,108924.549156
17000.0,3449,109120.16977
13200.0,2992,109288.363333
17800.0,3107,109468.377291
10400.0,2297,109598.035222
10000.0,2777,109747.065842
14700.0,2743,109898.17534
20900.0,3544,110083.234324
12500.0,2724,110234.211864
20100.0,3433,110418.997951
17400.0,3253,110599.023067
16700.0,2667,110740.915028
13800.0,2730,110882.018569
22300.0,3580,111073.5668
14100.0,2807,111213.576294
15800.0,3276,111372.949994
9600.0,2092,111485.668644
34600.0,5487,111782.732876
11000.0,2511,111917.095406
13000.0,2625,112067.83798
19600.0,3449,112254.817526
18100.0,3161,112421.4963
14100.0,3101,112586.343775
20300.0,3581,112779.519901
17500.0,3424,112966.426894
19500.0,3711,113231.354899
11600.0,2180,113376.920611
13100.0,2719,113568.648186
14000.0,3022,113788.232136
24000.0,3711,114068.407707
17700.0,2895,114278.303402
22600.0,3744,114556.092535
33600.0,5116,114924.351382
11900.0,2718,115126.464436
12800.0,2684,115323.840743
14000.0,3124,115557.374891
26600.0,4623,115884.327167
18600.0,3362,116106.120088
9300.0,2356,116251.076663
