# {"t_start": 1547320471.7620587, "env_id": "BattleZoneNoFrameskip-v4"} 
r,l,t
1000.0,1249,46.884937
1000.0,1310,95.021636
4000.0,1635,159.617295
0.0,1608,223.6278
3000.0,1241,277.372944
3000.0,1480,344.209601
4000.0,1442,410.633921
2000.0,712,442.784989
10000.0,1933,534.073124
0.0,1976,625.358015
4000.0,3413,783.306065
14000.0,3713,954.196963
19000.0,1952,1044.377346
0.0,1749,1126.53434
3000.0,1269,1185.803766
5000.0,1304,1246.802154
0.0,1385,1312.100083
1000.0,1217,1369.552138
1000.0,1509,1438.303162
2000.0,1262,1498.067023
1000.0,1332,1559.497064
3000.0,1220,1615.802059
0.0,1668,1694.052054
7000.0,1312,1753.500891
8000.0,1241,1809.086586
2000.0,999,1856.127735
1000.0,1162,1912.25254
0.0,1196,1967.289991
2000.0,1133,2020.662046
0.0,1455,2087.317192
1000.0,1059,2136.378613
2000.0,1229,2194.742756
18000.0,2309,2303.254678
9000.0,2144,2397.702989
4000.0,1736,2477.46074
1000.0,1635,2553.812612
3000.0,1245,2611.490655
8000.0,1290,2669.946216
5000.0,1747,2749.315712
1000.0,1486,2819.548875
3000.0,1495,2889.07775
17000.0,1794,2973.921381
9000.0,1162,3025.95146
9000.0,1475,3093.407338
3000.0,965,3138.379146
2000.0,1170,3191.751974
3000.0,1119,3241.766914
0.0,1453,3312.169268
12000.0,2270,3416.489716
2000.0,1636,3492.692733
1000.0,1409,3561.517779
1000.0,1148,3616.4833
1000.0,1391,3681.721522
2000.0,941,3727.474694
0.0,1242,3785.868261
3000.0,945,3827.418269
2000.0,930,3869.74152
8000.0,1363,3938.123836
2000.0,1128,3986.740385
14000.0,1389,4049.877342
0.0,1112,4098.800145
3000.0,754,4133.226121
1000.0,1528,4203.913193
3000.0,1261,4260.938623
0.0,1389,4323.679554
0.0,1029,4372.044566
8000.0,1344,4434.409226
2000.0,1386,4499.979754
1000.0,988,4546.925903
10000.0,1486,4614.813097
2000.0,1193,4669.172848
19000.0,1573,4741.066791
13000.0,2027,4833.138983
1000.0,1203,4887.041697
2000.0,1001,4933.769339
1000.0,1675,5010.538788
4000.0,1133,5063.548942
2000.0,1611,5139.903599
0.0,1557,5214.63412
2000.0,1425,5280.220199
3000.0,1551,5349.942075
2000.0,1285,5408.399489
4000.0,868,5445.392838
3000.0,1034,5492.056148
2000.0,1313,5553.72761
3000.0,1443,5621.063215
2000.0,1683,5694.916109
0.0,1264,5752.997835
2000.0,1057,5800.522569
1000.0,1177,5853.201969
3000.0,1263,5912.553341
6000.0,1353,5973.219975
10000.0,2454,6086.320333
0.0,1452,6155.962445
14000.0,1473,6224.841623
5000.0,2057,6319.142215
2000.0,1450,6388.292651
0.0,1217,6443.760789
3000.0,1723,6523.889371
8000.0,1228,6581.991575
0.0,1259,6637.769921
1000.0,1244,6693.501549
0.0,1212,6750.4255
0.0,1164,6804.471541
0.0,1243,6862.590072
1000.0,1219,6919.629464
0.0,942,6962.619458
2000.0,940,7006.190843
1000.0,1451,7073.84228
8000.0,1235,7130.518932
0.0,1010,7177.155249
0.0,1267,7235.305892
16000.0,1749,7316.739485
1000.0,1229,7373.80156
1000.0,815,7411.720787
3000.0,941,7454.579183
1000.0,1250,7515.305574
0.0,1263,7575.107887
1000.0,1240,7631.996167
1000.0,712,7666.4804
0.0,1435,7734.015135
0.0,1347,7798.08489
10000.0,1545,7867.707344
15000.0,1357,7931.468513
2000.0,1017,7977.640902
7000.0,1723,8057.967586
1000.0,1131,8108.710727
0.0,1273,8168.519679
2000.0,881,8210.83267
1000.0,933,8254.054258
9000.0,1614,8330.744692
0.0,1420,8397.253972
1000.0,1237,8455.004779
1000.0,872,8496.005775
12000.0,1469,8562.551616
0.0,971,8605.386545
0.0,1524,8674.880763
3000.0,1592,8748.332231
2000.0,1228,8806.173997
2000.0,1197,8863.473023
6000.0,2629,8982.070452
7000.0,3209,9132.6284
11000.0,3855,9312.507063
4000.0,998,9359.081293
3000.0,1237,9415.073247
4000.0,1429,9481.141526
6000.0,1520,9549.700469
3000.0,1962,9641.744558
3000.0,2146,9740.563318
14000.0,2393,9850.418113
15000.0,1946,9941.917151
5000.0,1640,10016.005317
1000.0,1599,10087.148057
13000.0,1348,10147.528946
0.0,1158,10201.052976
3000.0,1575,10274.890335
0.0,1217,10332.631224
3000.0,1541,10402.07763
1000.0,1190,10457.470277
2000.0,913,10499.068628
4000.0,1217,10556.397252
0.0,1434,10623.205076
0.0,1070,10672.243259
0.0,1184,10725.751631
0.0,1315,10783.025819
1000.0,1174,10836.180174
3000.0,1017,10881.188786
2000.0,1389,10944.334681
10000.0,1470,11010.24869
3000.0,1189,11067.680638
5000.0,1797,11151.635965
0.0,1410,11217.533808
1000.0,1337,11279.353496
3000.0,1592,11355.942162
5000.0,1722,11435.337648
4000.0,1148,11485.522494
1000.0,1398,11550.499384
5000.0,1673,11631.865329
1000.0,1183,11687.304833
2000.0,1175,11741.873437
1000.0,1527,11813.268805
1000.0,1310,11874.066975
3000.0,1447,11941.955117
9000.0,2090,12039.547256
1000.0,944,12084.141191
1000.0,1251,12140.590751
5000.0,1269,12200.68793
1000.0,1062,12249.241926
1000.0,1178,12304.141685
9000.0,2377,12414.929896
1000.0,1046,12464.119492
0.0,1255,12520.621393
0.0,1241,12578.701481
8000.0,1643,12652.63831
12000.0,1740,12730.664356
10000.0,3097,12869.299233
0.0,1284,12928.254993
2000.0,1197,12983.471285
1000.0,2158,13082.639799
22000.0,6184,13371.063419
3000.0,2062,13464.557834
10000.0,4428,13670.396384
7000.0,4564,13881.091275
10000.0,4310,14078.071823
1000.0,1604,14153.609786
2000.0,1386,14217.566954
13000.0,1930,14307.182736
2000.0,1203,14359.792701
3000.0,1359,14422.944614
0.0,1528,14491.856982
13000.0,2565,14612.995546
1000.0,1370,14674.62145
10000.0,2313,14781.65832
1000.0,2069,14874.052829
9000.0,2429,14982.597041
2000.0,1180,15037.498683
12000.0,1548,15110.735133
2000.0,1413,15177.14052
2000.0,1446,15242.591255
1000.0,1417,15307.136529
2000.0,901,15348.151646
0.0,1531,15419.48472
1000.0,1437,15489.57025
2000.0,937,15531.730278
6000.0,1594,15606.110413
17000.0,2780,15735.92902
6000.0,2821,15869.762819
12000.0,2757,15993.829709
14000.0,3935,16174.516838
16000.0,3215,16323.768393
7000.0,4151,16517.347184
19000.0,4683,16732.534933
3000.0,2854,16870.449998
10000.0,3191,17016.239319
2000.0,2186,17118.973889
2000.0,1493,17186.251013
7000.0,2444,17295.933971
7000.0,4749,17513.838672
17000.0,4296,17710.65327
1000.0,1318,17770.370466
0.0,2062,17863.70038
4000.0,2297,17970.469073
11000.0,2770,18097.774024
3000.0,1470,18166.906261
9000.0,17552,18983.450881
1000.0,5143,19220.036376
8000.0,16802,19999.829933
9000.0,1716,20074.966979
11000.0,3527,20238.506777
0.0,4941,20467.630144
5000.0,3604,20637.231767
0.0,1639,20711.303279
0.0,1068,20760.275892
3000.0,1332,20823.287227
0.0,1404,20887.747741
0.0,1437,20954.238952
15000.0,2062,21051.211392
4000.0,1327,21111.869954
4000.0,1310,21172.510988
2000.0,1125,21223.075383
4000.0,1691,21301.072259
4000.0,1917,21389.437932
1000.0,1054,21438.692343
9000.0,1228,21495.466524
0.0,1358,21559.009244
2000.0,1073,21607.856285
3000.0,1426,21675.261528
7000.0,1270,21733.940794
5000.0,1543,21803.745995
1000.0,1458,21871.414064
4000.0,1482,21941.577469
0.0,1160,21994.90026
0.0,1281,22053.803095
1000.0,1281,22114.529507
6000.0,1085,22164.490484
13000.0,1540,22235.43588
1000.0,1015,22281.84212
12000.0,1234,22338.902395
1000.0,1493,22403.701186
0.0,1210,22459.654359
2000.0,1652,22538.326634
1000.0,943,22579.057938
2000.0,1306,22638.635388
1000.0,1473,22704.705535
2000.0,1092,22756.406642
2000.0,1324,22817.106179
2000.0,1052,22866.007686
6000.0,1531,22936.591862
8000.0,1555,23007.359662
8000.0,1225,23063.804224
4000.0,1636,23140.296001
5000.0,1650,23217.019725
0.0,1562,23290.830679
5000.0,1551,23362.741551
1000.0,1365,23425.501341
2000.0,1563,23497.785725
2000.0,1509,23566.689786
2000.0,1228,23624.54932
2000.0,955,23667.818694
1000.0,1618,23742.459968
1000.0,1375,23805.433118
6000.0,2064,23900.154371
4000.0,1382,23963.866986
1000.0,1457,24028.540908
4000.0,1430,24093.262933
0.0,1240,24148.508339
3000.0,993,24193.719604
5000.0,1490,24261.323197
2000.0,947,24302.964563
8000.0,4792,24516.347934
3000.0,1200,24568.262868
3000.0,1639,24640.831438
13000.0,1927,24726.31292
3000.0,1279,24783.276062
2000.0,1312,24843.333883
6000.0,1434,24906.45365
0.0,1212,24960.472249
1000.0,1162,25011.845658
0.0,1669,25085.181308
1000.0,1104,25133.301064
2000.0,891,25171.521738
3000.0,1526,25237.845942
5000.0,1347,25297.56293
4000.0,991,25339.308065
0.0,1010,25383.779816
0.0,1650,25455.13418
8000.0,1738,25532.3195
2000.0,1930,25615.882499
1000.0,1235,25670.205549
2000.0,1178,25721.231642
5000.0,1345,25780.95661
3000.0,1499,25848.374556
7000.0,1130,25899.135125
1000.0,1188,25952.768375
3000.0,1868,26033.895001
2000.0,1316,26090.764715
4000.0,1427,26154.443707
4000.0,1045,26202.100259
7000.0,1213,26254.131967
12000.0,1493,26319.656116
0.0,1104,26366.904723
1000.0,1314,26423.747013
0.0,1431,26486.70768
0.0,1233,26542.410665
3000.0,1392,26603.129899
6000.0,1956,26686.67653
1000.0,1236,26741.785415
0.0,1481,26806.561895
1000.0,1491,26872.068838
6000.0,1629,26942.756536
0.0,954,26985.617736
7000.0,1720,27062.653836
1000.0,1318,27121.794829
1000.0,1118,27169.728296
1000.0,1009,27213.554325
0.0,1532,27280.465326
1000.0,1828,27363.266775
2000.0,1075,27409.180196
4000.0,1671,27481.536057
3000.0,1606,27550.609505
1000.0,1217,27603.47777
3000.0,2276,27705.276861
3000.0,1135,27755.463235
3000.0,1041,27800.90204
0.0,1523,27867.384768
0.0,1270,27922.133633
4000.0,1356,27983.284125
4000.0,2405,28088.551667
16000.0,2057,28180.194524
0.0,1729,28256.917449
9000.0,1091,28305.09677
21000.0,4283,28494.930731
5000.0,8322,28867.294133
2000.0,955,28909.552443
6000.0,3724,29077.359676
5000.0,3415,29227.567921
1000.0,1081,29274.384971
2000.0,2424,29381.717927
3000.0,1108,29429.704603
3000.0,975,29472.597685
7000.0,1935,29558.910199
7000.0,2264,29656.555122
20000.0,4033,29834.550972
0.0,2032,29922.786382
10000.0,2373,30027.571665
6000.0,4545,30229.106551
2000.0,1561,30295.555108
3000.0,2084,30387.647652
15000.0,3474,30542.103332
3000.0,2360,30645.227764
8000.0,3947,30820.21474
5000.0,2144,30912.736983
3000.0,1620,30982.505002
3000.0,1325,31039.055523
0.0,1167,31089.883542
4000.0,873,31129.257774
1000.0,1470,31195.835662
1000.0,1418,31260.00377
3000.0,1606,31328.143531
10000.0,1127,31376.427342
1000.0,1196,31428.327844
1000.0,946,31468.389779
6000.0,1943,31555.276309
2000.0,984,31598.047045
1000.0,1060,31644.108362
8000.0,1470,31708.853213
10000.0,1957,31794.539487
0.0,1309,31852.238196
2000.0,1452,31914.199595
2000.0,1195,31966.109298
7000.0,1024,32010.467652
0.0,1080,32057.392935
1000.0,1126,32107.541971
2000.0,890,32145.733392
9000.0,1365,32205.951177
3000.0,1412,32269.998267
1000.0,1475,32333.675773
2000.0,919,32373.099629
6000.0,817,32408.082055
1000.0,1209,32463.67137
7000.0,1638,32535.531627
9000.0,1905,32619.982316
1000.0,1157,32669.221927
5000.0,1324,32729.597694
1000.0,1124,32780.146966
0.0,1160,32831.709608
0.0,1269,32889.342141
1000.0,1233,32942.87417
2000.0,916,32983.287854
0.0,1004,33025.866196
0.0,1245,33082.492393
5000.0,1766,33162.409997
1000.0,927,33202.976162
1000.0,739,33237.364495
1000.0,1261,33294.379141
7000.0,1227,33350.669556
0.0,1239,33406.9072
0.0,1236,33463.659298
6000.0,1174,33514.69771
1000.0,1081,33564.234992
2000.0,795,33601.231994
6000.0,1086,33648.979539
1000.0,953,33690.919937
2000.0,731,33722.951133
0.0,1083,33770.323848
1000.0,920,33811.41033
1000.0,1272,33869.896443
1000.0,1222,33923.344368
1000.0,1041,33970.595448
0.0,1189,34023.391541
3000.0,1361,34084.228994
3000.0,1303,34140.070662
5000.0,1613,34215.106832
0.0,1626,34288.687272
0.0,1271,34348.441137
4000.0,1678,34426.605885
0.0,1283,34485.641097
0.0,1124,34536.508029
9000.0,1469,34602.04546
0.0,917,34642.079895
3000.0,2364,34748.061642
5000.0,895,34790.719312
1000.0,2565,34903.066101
4000.0,2327,35004.172109
3000.0,790,35039.364815
2000.0,1776,35121.213079
6000.0,2377,35231.534952
3000.0,1492,35298.387129
7000.0,6923,35606.766076
1000.0,1184,35658.049299
3000.0,2287,35758.61933
8000.0,1844,35840.143287
4000.0,1886,35927.018932
1000.0,1546,35997.444058
1000.0,2144,36095.354847
2000.0,1825,36179.201967
12000.0,2395,36289.118829
10000.0,1754,36367.841745
14000.0,1457,36435.15352
6000.0,1882,36519.786449
6000.0,2586,36634.09025
16000.0,4031,36812.491295
15000.0,2129,36907.162513
3000.0,866,36944.34372
1000.0,884,36982.041822
7000.0,3291,37127.615868
1000.0,1589,37197.525594
0.0,1320,37254.80293
9000.0,1798,37336.66338
5000.0,1073,37384.670543
1000.0,1035,37431.199454
2000.0,769,37466.584317
0.0,1384,37529.513188
1000.0,1149,37580.663623
7000.0,3473,37740.589409
10000.0,3100,37883.626722
1000.0,2577,37997.203486
15000.0,7370,38326.201258
3000.0,1341,38384.521195
3000.0,1358,38443.77999
14000.0,3108,38582.164501
0.0,1271,38637.679973
9000.0,8702,39025.271576
11000.0,2157,39121.026288
4000.0,1043,39166.482498
17000.0,2731,39289.697029
20000.0,3842,39462.358705
7000.0,99993,43924.527279
8000.0,964,43968.457202
1000.0,1449,44033.111146
3000.0,1250,44089.813188
9000.0,2893,44215.02614
1000.0,2607,44327.988138
1000.0,1398,44389.067436
2000.0,1504,44455.406757
3000.0,1325,44513.114673
0.0,1321,44570.949555
4000.0,1819,44651.851062
4000.0,2882,44780.271483
2000.0,1490,44845.127751
10000.0,1061,44893.115068
7000.0,1747,44971.26877
5000.0,3140,45107.586899
4000.0,1330,45167.30362
9000.0,2937,45299.02228
14000.0,2644,45413.905423
5000.0,1672,45488.786315
2000.0,1156,45539.349387
10000.0,7966,45882.134073
0.0,1635,45950.722254
6000.0,2820,46071.817691
10000.0,5831,46319.935635
13000.0,3008,46446.999577
10000.0,4876,46650.177025
1000.0,1538,46712.234976
12000.0,5513,46937.036385
4000.0,2626,47044.557498
4000.0,913,47081.371537
4000.0,2343,47175.209056
3000.0,814,47208.45364
4000.0,1984,47288.437694
1000.0,2246,47378.157485
9000.0,2583,47480.020192
4000.0,3402,47615.782188
3000.0,1566,47676.692698
19000.0,8322,48012.339293
5000.0,1498,48071.493496
14000.0,3829,48222.197408
9000.0,1951,48297.570578
15000.0,8601,48627.380046
24000.0,3053,48746.521887
15000.0,3172,48868.074109
6000.0,4230,49030.460573
1000.0,1605,49089.466973
19000.0,4886,49274.756737
7000.0,2190,49358.543549
6000.0,1518,49417.347704
2000.0,1178,49462.10838
1000.0,1488,49519.549567
0.0,1678,49585.102218
13000.0,4131,49742.843102
0.0,2134,49824.558896
16000.0,3730,49964.966496
16000.0,3290,50091.251944
1000.0,2202,50172.714479
10000.0,2092,50249.94349
1000.0,2314,50337.197385
1000.0,1662,50400.555087
5000.0,1293,50450.091698
17000.0,4333,50614.228742
3000.0,1240,50659.659223
3000.0,5258,50858.379561
4000.0,1886,50928.907264
1000.0,1665,50994.154726
2000.0,873,51027.535988
5000.0,1239,51073.722795
0.0,1621,51137.088357
1000.0,1224,51183.645667
4000.0,1114,51224.62723
1000.0,1865,51290.359175
8000.0,1794,51356.198095
5000.0,2185,51434.213007
11000.0,1872,51500.12254
2000.0,1443,51552.555181
9000.0,1419,51605.057121
0.0,1340,51652.502146
5000.0,1473,51704.626314
1000.0,1044,51742.812367
7000.0,1349,51790.548627
4000.0,1385,51844.279258
4000.0,1582,51899.48256
3000.0,1454,51954.232056
14000.0,3686,52088.680988
14000.0,3524,52214.323528
0.0,2107,52289.739356
6000.0,2023,52361.380386
20000.0,2574,52453.175636
6000.0,1615,52510.171101
3000.0,1245,52554.90688
4000.0,1406,52604.872809
3000.0,1722,52667.579586
2000.0,1041,52704.258449
0.0,1618,52762.899721
14000.0,1931,52832.734067
3000.0,1425,52884.471593
3000.0,1741,52945.394589
0.0,1621,53001.251127
3000.0,1579,53057.452591
3000.0,1768,53122.166699
5000.0,1551,53175.847065
1000.0,1833,53240.687454
7000.0,1809,53306.959103
11000.0,2120,53384.987159
1000.0,2383,53469.249996
1000.0,1922,53537.936925
2000.0,1855,53605.362137
6000.0,2131,53679.156986
0.0,1025,53712.526527
0.0,2088,53784.588527
1000.0,1236,53831.108889
0.0,1489,53886.154134
4000.0,1288,53931.576113
2000.0,1404,53982.636205
11000.0,1318,54028.332448
11000.0,2113,54105.04009
1000.0,1125,54144.405798
5000.0,1578,54200.108637
4000.0,2313,54282.9326
5000.0,2181,54360.852632
1000.0,1797,54423.092435
7000.0,5260,54612.095415
13000.0,2083,54687.409976
4000.0,4607,54851.92137
10000.0,3472,54976.653809
8000.0,2188,55054.729766
21000.0,2503,55148.532767
2000.0,1195,55195.087672
9000.0,1744,55259.146934
8000.0,1711,55319.788457
2000.0,1567,55373.825965
13000.0,3595,55500.879969
1000.0,1631,55559.459845
4000.0,1344,55608.200803
0.0,1902,55674.632996
4000.0,1427,55726.838959
26000.0,6220,55953.138075
0.0,2092,56030.736064
9000.0,3331,56151.770197
6000.0,2365,56238.802923
9000.0,3019,56347.478724
16000.0,2366,56431.458513
4000.0,3586,56565.012027
7000.0,2571,56655.368673
9000.0,1610,56712.038899
4000.0,2402,56799.127279
9000.0,3772,56933.280578
3000.0,2064,57009.493826
4000.0,1369,57057.797843
1000.0,982,57092.363397
1000.0,1067,57129.744218
1000.0,1354,57175.499793
5000.0,1378,57223.357846
5000.0,1404,57271.885152
1000.0,727,57297.711384
7000.0,1414,57348.427234
6000.0,4367,57506.359438
30000.0,8100,57798.269267
9000.0,4445,57955.02883
3000.0,1233,58000.332048
11000.0,4554,58167.999016
7000.0,9507,58506.644516
4000.0,2056,58577.59354
3000.0,2298,58659.415165
14000.0,16988,59266.750827
9000.0,11846,59699.665114
5000.0,3392,59823.314323
25000.0,4453,59984.242571
31000.0,3399,60107.218979
0.0,1284,60153.293558
6000.0,3192,60266.461072
5000.0,1417,60316.68503
1000.0,2449,60405.254531
2000.0,2052,60476.777972
1000.0,1671,60535.93149
7000.0,2547,60630.521279
8000.0,2005,60699.548508
8000.0,1774,60764.423035
5000.0,1302,60809.796294
6000.0,2121,60885.039751
4000.0,2096,60959.395167
2000.0,1711,61021.216668
0.0,2883,61126.239843
3000.0,1260,61172.366499
0.0,1244,61216.517877
5000.0,1111,61255.497678
2000.0,1741,61316.828915
4000.0,1617,61377.359481
0.0,1137,61418.429945
5000.0,2245,61496.805983
5000.0,2576,61592.014092
7000.0,2945,61699.993816
4000.0,3631,61831.276874
6000.0,1936,61899.821366
2000.0,3032,62008.650472
16000.0,1357,62056.711655
4000.0,1711,62118.65004
2000.0,1179,62159.819881
1000.0,1395,62211.124525
10000.0,1420,62262.907656
2000.0,1321,62309.355579
7000.0,1380,62357.847583
4000.0,1214,62403.074204
4000.0,944,62436.279369
7000.0,1434,62487.200489
8000.0,1746,62550.700617
6000.0,969,62585.843769
1000.0,1051,62623.691165
1000.0,1237,62668.40954
1000.0,1291,62715.834751
9000.0,1275,62760.775292
6000.0,1353,62809.139819
8000.0,1878,62881.18686
7000.0,1903,62949.265427
0.0,1258,62994.036756
7000.0,1236,63036.890595
0.0,1206,63079.963333
1000.0,1290,63124.974989
7000.0,1041,63163.726136
1000.0,1072,63203.677194
0.0,1024,63239.477179
4000.0,944,63274.096382
0.0,1159,63315.185794
1000.0,1216,63360.175927
0.0,1055,63395.825318
14000.0,1427,63444.598249
3000.0,823,63473.170284
0.0,1075,63509.044454
0.0,1241,63551.98068
7000.0,1419,63602.148024
1000.0,1174,63646.00305
0.0,1229,63690.014327
2000.0,738,63717.077351
9000.0,1469,63770.924297
1000.0,1514,63825.241495
0.0,888,63856.058462
1000.0,99994,67489.682959
7000.0,1574,67545.275549
13000.0,1418,67598.467736
12000.0,1676,67659.095212
2000.0,875,67689.528631
1000.0,1200,67732.296159
5000.0,1190,67774.836201
2000.0,1331,67821.147985
1000.0,888,67852.95543
2000.0,1069,67890.801536
1000.0,1213,67936.403869
2000.0,1043,67972.337516
2000.0,1067,68012.765486
2000.0,1071,68050.422721
0.0,1453,68102.777903
7000.0,1078,68142.651728
1000.0,1198,68186.289795
0.0,1088,68226.434987
0.0,1169,68268.158634
0.0,859,68299.905664
0.0,1015,68338.075771
0.0,1118,68377.276963
1000.0,1049,68413.294566
0.0,1357,68464.646227
0.0,1002,68500.35013
6000.0,1350,68549.040718
0.0,1276,68596.584531
0.0,1257,68644.631217
0.0,1233,68688.275607
6000.0,1278,68734.661271
2000.0,1278,68779.30936
0.0,1118,68822.163066
0.0,1223,68867.406969
0.0,1175,68910.510228
1000.0,1209,68954.80813
1000.0,1239,68997.995741
8000.0,1557,69055.773484
5000.0,1470,69106.167398
3000.0,2216,69189.72795
6000.0,1399,69238.771908
2000.0,1082,69279.220571
1000.0,1258,69324.690993
2000.0,1445,69375.462868
0.0,1390,69427.586124
1000.0,1260,69473.078806
11000.0,1383,69521.731164
3000.0,1163,69560.973186
5000.0,1340,69610.383079
5000.0,928,69645.249024
1000.0,827,69673.760463
2000.0,1019,69710.428239
4000.0,968,69745.721453
0.0,1207,69789.061347
4000.0,1315,69836.99464
5000.0,1017,69873.671852
1000.0,913,69906.742339
5000.0,1277,69953.797652
1000.0,1250,70001.181978
0.0,1529,70060.705767
2000.0,1187,70104.732943
15000.0,1761,70170.422558
3000.0,1283,70217.553051
4000.0,1371,70265.376141
0.0,996,70302.183853
1000.0,968,70337.666251
10000.0,1594,70394.327132
1000.0,741,70421.815241
5000.0,1393,70473.026032
5000.0,1422,70524.97969
3000.0,1025,70563.233351
4000.0,1184,70605.948719
3000.0,785,70636.283844
2000.0,783,70666.389798
5000.0,1677,70727.04284
1000.0,1396,70777.466403
2000.0,1627,70836.363338
1000.0,1537,70891.614127
5000.0,1313,70940.713619
0.0,1222,70984.684345
0.0,1227,71030.34138
0.0,1280,71075.18964
0.0,1241,71123.03542
0.0,1611,71179.806659
0.0,1206,71224.271621
0.0,1222,71267.639871
0.0,1615,71324.411091
6000.0,1771,71388.929881
0.0,1413,71437.928035
0.0,1609,71495.249398
0.0,917,71526.435382
0.0,1487,71577.701101
0.0,1327,71625.576051
0.0,1292,71672.40103
0.0,1397,71720.884876
1000.0,1146,71762.301726
0.0,1036,71799.269009
0.0,1675,71860.32151
1000.0,1168,71903.044181
1000.0,1086,71940.254432
0.0,1237,71985.506341
0.0,1240,72029.613591
0.0,1693,72089.796005
1000.0,1308,72137.806876
0.0,1755,72201.34351
0.0,1604,72257.448398
0.0,1109,72293.962262
1000.0,1302,72340.404052
0.0,1138,72383.130126
0.0,1260,72426.585299
1000.0,1213,72470.712587
1000.0,1227,72514.541325
0.0,947,72548.424605
0.0,1817,72617.302301
1000.0,1090,72657.953787
1000.0,1307,72704.624792
2000.0,1239,72750.072259
0.0,1235,72792.353445
0.0,1626,72848.521981
0.0,1226,72893.143921
0.0,1218,72940.496248
0.0,1297,72989.015469
1000.0,1046,73027.141247
0.0,1242,73072.417
1000.0,1125,73115.228091
1000.0,1325,73164.942593
1000.0,1041,73203.955462
0.0,1342,73253.389959
0.0,1379,73302.784308
5000.0,1486,73357.492049
3000.0,1174,73399.989303
11000.0,1475,73451.843264
1000.0,1306,73498.474082
0.0,1480,73555.031538
0.0,1535,73611.41478
3000.0,1244,73656.396346
11000.0,1730,73720.097667
1000.0,1261,73765.710225
1000.0,1274,73811.686841
1000.0,1294,73859.337439
1000.0,1303,73907.054847
3000.0,1184,73949.76515
1000.0,1196,73989.785588
0.0,1272,74036.094473
11000.0,1300,74083.824859
12000.0,1692,74146.825634
1000.0,1138,74187.711906
11000.0,1662,74245.405273
10000.0,1357,74292.357615
0.0,1629,74350.31991
2000.0,1527,74405.007809
2000.0,1198,74447.337803
7000.0,1251,74496.316221
6000.0,959,74533.405694
2000.0,1063,74572.690276
1000.0,1253,74617.859057
0.0,1140,74657.993493
8000.0,1889,74727.337963
3000.0,1012,74764.293478
0.0,1263,74810.786068
6000.0,1149,74854.460005
1000.0,1079,74891.922181
14000.0,1872,74958.403874
8000.0,1152,74998.221474
8000.0,1145,75039.974064
3000.0,1415,75090.998331
6000.0,1294,75135.636859
15000.0,1732,75198.242907
1000.0,1251,75244.179569
3000.0,1550,75302.04334
0.0,1269,75350.05011
7000.0,1731,75410.897968
2000.0,916,75445.196476
3000.0,1547,75502.90707
1000.0,1131,75545.559457
2000.0,1053,75585.302278
0.0,1178,75627.018726
1000.0,1032,75664.662325
0.0,1079,75705.054767
5000.0,1485,75760.368469
0.0,1254,75805.804511
10000.0,1980,75879.874241
10000.0,1981,75951.070553
3000.0,1285,75997.595478
3000.0,1287,76045.023661
1000.0,1085,76081.672488
13000.0,1793,76146.778109
4000.0,1283,76192.415502
4000.0,1291,76238.793693
5000.0,1486,76292.438637
13000.0,1673,76351.643645
7000.0,1738,76415.792712
10000.0,1981,76487.69425
4000.0,1311,76533.200501
3000.0,1331,76579.474629
10000.0,1805,76642.997378
10000.0,1803,76709.888439
10000.0,1805,76776.620542
10000.0,1803,76843.447002
3000.0,1471,76896.813944
10000.0,1802,76964.128786
3000.0,1308,77014.293969
0.0,1078,77053.016694
0.0,1120,77090.921328
10000.0,1979,77163.096167
10000.0,1803,77226.132942
0.0,1080,77262.333452
0.0,1152,77302.064475
0.0,1123,77343.057928
3000.0,1463,77394.105628
10000.0,1802,77458.907488
10000.0,1803,77525.441051
3000.0,1464,77579.070959
10000.0,1804,77647.397667
1000.0,1052,77686.037195
12000.0,1619,77747.276925
11000.0,1472,77798.337044
0.0,1253,77846.132057
3000.0,1461,77898.975086
10000.0,1800,77964.883585
1000.0,1020,78001.854081
11000.0,1668,78064.449761
3000.0,1518,78118.959688
6000.0,1734,78182.290227
7000.0,1215,78226.42894
0.0,1221,78272.637962
0.0,1221,78316.974602
0.0,1163,78358.028408
11000.0,1426,78407.202974
0.0,1398,78457.651063
11000.0,1477,78510.286868
11000.0,1476,78562.579491
0.0,1397,78612.036677
3000.0,1278,78658.294775
3000.0,1282,78706.114019
3000.0,1280,78751.887874
3000.0,1280,78796.44252
2000.0,1810,78862.947848
11000.0,1482,78916.544132
11000.0,1480,78969.519661
1000.0,1189,79012.973717
11000.0,1481,79066.407341
1000.0,1193,79110.36758
11000.0,1479,79164.756034
1000.0,1131,79204.321332
1000.0,1289,79249.601652
1000.0,1132,79291.286747
1000.0,1100,79332.518907
1000.0,1337,79381.943188
11000.0,1481,79436.987134
0.0,1193,79479.632587
9000.0,1426,79529.613557
9000.0,1426,79582.852967
9000.0,1426,79631.187053
0.0,1197,79673.742419
9000.0,1422,79725.898465
0.0,1290,79771.634455
1000.0,1157,79812.622418
2000.0,1570,79870.360916
4000.0,1430,79923.215565
2000.0,1562,79980.609569
5000.0,1476,80031.252309
1000.0,1240,80074.99
1000.0,1185,80118.750043
11000.0,1430,80168.599715
1000.0,1260,80213.960692
5000.0,1416,80263.295583
1000.0,1283,80311.119077
1000.0,1252,80355.806254
0.0,1301,80401.2384
1000.0,1210,80445.577464
1000.0,1161,80485.920449
1000.0,1158,80528.076235
1000.0,1177,80571.021484
0.0,1227,80614.745985
8000.0,1747,80678.798667
3000.0,1110,80717.05768
1000.0,1281,80761.617055
1000.0,1290,80806.390635
11000.0,1475,80860.282753
1000.0,1282,80901.964562
1000.0,1302,80949.336745
1000.0,1298,80995.835765
1000.0,1296,81041.889554
1000.0,1193,81083.991881
0.0,1531,81137.805452
1000.0,1286,81184.168207
1000.0,1292,81230.733626
4000.0,1203,81275.82173
1000.0,1299,81322.523979
1000.0,1292,81367.025063
4000.0,1302,81414.311466
1000.0,1130,81455.073354
1000.0,1129,81496.702485
4000.0,1406,81547.535521
1000.0,1125,81589.045841
4000.0,1464,81643.249416
0.0,1158,81684.362853
11000.0,1431,81734.030442
1000.0,1174,81776.9822
2000.0,1208,81819.555351
4000.0,1460,81872.589683
1000.0,1131,81915.195048
4000.0,1188,81955.828585
11000.0,1430,82006.685801
1000.0,1300,82053.27785
3000.0,1606,82112.759967
4000.0,1208,82156.358395
4000.0,1190,82197.850851
11000.0,1483,82251.249966
1000.0,1127,82290.424315
1000.0,1128,82330.356759
3000.0,1115,82369.72234
1000.0,1125,82410.639425
1000.0,1127,82449.903147
3000.0,1113,82491.574073
1000.0,1128,82531.139992
1000.0,1128,82572.362502
5000.0,1358,82619.923712
4000.0,1271,82665.2604
2000.0,1213,82706.654115
2000.0,1209,82749.460837
2000.0,1208,82793.449502
1000.0,1159,82836.907943
2000.0,1214,82881.323843
1000.0,1127,82919.391942
1000.0,1296,82964.973577
1000.0,1156,83005.938667
1000.0,1112,83047.326542
2000.0,1213,83092.195312
1000.0,1158,83134.840317
1000.0,1156,83176.053729
1000.0,1126,83215.076483
0.0,1286,83262.267435
1000.0,1288,83307.361213
2000.0,1209,83349.69583
2000.0,1214,83392.127346
2000.0,1208,83436.527689
1000.0,1157,83477.811759
2000.0,1211,83520.621491
2000.0,1210,83562.592409
2000.0,1210,83607.330717
1000.0,1156,83649.127585
1000.0,1160,83691.550978
2000.0,1209,83734.405188
1000.0,1159,83777.971253
1000.0,1162,83818.689443
2000.0,1213,83863.380762
2000.0,1213,83908.079251
1000.0,1156,83951.423058
1000.0,1156,83991.947793
3000.0,1592,84046.789246
4000.0,1272,84095.53856
0.0,1524,84147.811741
4000.0,1256,84192.715531
1000.0,1161,84237.024018
4000.0,1268,84283.199416
4000.0,1273,84329.093214
0.0,1338,84377.564412
1000.0,1158,84419.112987
1000.0,1104,84457.545776
1000.0,1133,84498.508371
2000.0,1758,84562.217476
1000.0,1261,84608.539621
0.0,1228,84653.960433
0.0,1650,84715.26475
0.0,1198,84757.656757
0.0,1380,84806.802674
0.0,1513,84859.88655
0.0,1264,84904.789254
0.0,1052,84943.665347
1000.0,1256,84990.69451
1000.0,1251,85036.726714
1000.0,1254,85081.117534
1000.0,1248,85124.101892
1000.0,1251,85168.576127
1000.0,1154,85210.876306
5000.0,1416,85262.850935
2000.0,1619,85320.323066
8000.0,1468,85373.696332
3000.0,1027,85410.844613
3000.0,1114,85452.314468
3000.0,1260,85499.276563
2000.0,1203,85539.784658
3000.0,1273,85584.353592
1000.0,1314,85630.350633
0.0,1396,85680.49058
3000.0,1263,85725.384201
1000.0,1298,85771.771604
3000.0,1260,85815.861683
1000.0,1300,85861.800937
1000.0,1316,85908.368033
1000.0,1198,85952.549825
1000.0,1206,85995.696959
1000.0,1202,86037.64342
1000.0,1225,86080.716253
1000.0,1511,86133.820443
7000.0,99995,90095.369927
0.0,100000,94470.032419
0.0,99994,98484.675002
