# {"t_start": 1548219110.0068085, "env_id": "EnduroNoFrameskip-v4"} 
r,l,t0.0,3325,87.047586
0.0,3322,193.751266
0.0,3325,323.311594
0.0,3327,488.514588
0.0,3324,701.981601
0.0,3327,922.289537
0.0,3324,1141.479686
0.0,3328,1361.607845
0.0,3321,1580.777682
0.0,3328,1799.258595
0.0,3322,2020.163219
0.0,3327,2239.246485
0.0,3325,2458.426537
0.0,3323,2682.615031
0.0,3327,2902.251742
0.0,3322,3120.833852
0.0,3321,3340.221275
0.0,3327,3559.378938
0.0,3327,3779.333941
0.0,3326,4001.442831
0.0,3322,4220.985729
0.0,3327,4439.805712
0.0,3323,4659.719853
0.0,3326,4882.348342
0.0,3322,5094.29354
0.0,3327,5316.632331
0.0,3324,5536.994631
0.0,3326,5757.388667
0.0,3328,5976.352903
0.0,3325,6194.994785
0.0,3324,6414.892157
0.0,3322,6638.615993
0.0,3325,6860.640235
0.0,3325,7080.874882
0.0,3321,7300.813773
0.0,3328,7524.821645
0.0,3325,7742.672501
0.0,3326,7962.659624
0.0,3328,8181.87768
0.0,3322,8400.753379
0.0,3321,8620.522971
0.0,3323,8846.719633
0.0,3327,9065.981034
0.0,3325,9285.597998
0.0,3327,9505.441918
0.0,3323,9725.847519
0.0,3326,9948.158418
0.0,3323,10168.793063
0.0,3325,10382.863747
0.0,3326,10603.797161
0.0,3323,10826.046606
0.0,3323,11048.787839
0.0,3323,11269.461818
0.0,3328,11488.895407
0.0,3323,11709.219269
0.0,3328,11929.972144
0.0,3326,12148.296065
0.0,3321,12369.284254
0.0,3324,12589.584476
0.0,3322,12808.708346
0.0,3327,13028.783735
0.0,3325,13246.438349
0.0,3326,13467.786422
0.0,3326,13686.463309
0.0,3328,13911.123299
0.0,3323,14130.954451
0.0,3324,14349.218402
0.0,3327,14569.18707
0.0,3321,14790.179669
0.0,3327,15009.678995
0.0,3321,15228.606776
0.0,3328,15448.421689
0.0,3325,15666.100969
0.0,3326,15879.745187
0.0,3324,16101.16047
0.0,3322,16319.774555
0.0,3328,16539.611254
0.0,3321,16758.23759
0.0,3327,16978.523773
0.0,3325,17196.923856
0.0,3325,17417.409588
0.0,3324,17636.836468
0.0,3325,17856.141435
0.0,3326,18075.53392
0.0,3323,18295.509988
0.0,3325,18515.218773
0.0,3325,18735.055649
0.0,3324,18953.11024
0.0,3321,19170.815207
0.0,3322,19390.86728
0.0,3322,19609.675147
0.0,3322,19831.721095
0.0,3325,20053.26409
0.0,3322,20276.805092
0.0,3322,20491.61814
0.0,3323,20714.411541
0.0,3324,20936.452004
0.0,3328,21157.7878
0.0,3323,21382.084979
0.0,3324,21604.86379
0.0,3326,21826.523304
0.0,3323,22047.110864
0.0,3325,22271.782823
0.0,3321,22498.569161
0.0,3324,22721.078003
0.0,3323,22944.425994
0.0,3325,23166.250803
0.0,3324,23387.723745
0.0,3326,23609.311942
0.0,3323,23830.815532
0.0,3322,24053.169353
0.0,3324,24275.343044
0.0,3321,24498.183827
0.0,3321,24720.725919
0.0,3325,24938.591528
0.0,3324,25164.837598
0.0,3327,25386.889553
0.0,3321,25608.538109
0.0,3322,25830.253747
0.0,3323,26052.912162
0.0,3327,26278.628819
0.0,3326,26500.413825
0.0,3325,26722.715583
0.0,3324,26945.991011
0.0,3323,27168.465112
0.0,3326,27390.138316
0.0,3327,27612.723634
0.0,3327,27837.337348
0.0,3328,28059.816292
0.0,3324,28279.534668
0.0,3327,28501.381923
0.0,3326,28724.690207
0.0,3323,28947.244589
0.0,3326,29170.229062
0.0,3328,29393.843811
0.0,3327,29615.964068
0.0,3322,29842.00733
0.0,3325,30065.299549
0.0,3325,30286.931937
0.0,3325,30507.266048
0.0,3323,30721.543799
0.0,3325,30942.984326
0.0,3321,31164.526225
0.0,3323,31387.371757
0.0,3321,31609.061578
0.0,3324,31832.439873
0.0,3328,32046.508384
0.0,3324,32202.596333
0.0,3323,32355.422437
0.0,3323,32506.194729
0.0,3322,32657.266466
0.0,3327,32811.384282
0.0,3325,32963.591551
0.0,3322,33116.148649
0.0,3327,33268.471186
0.0,3322,33421.389848
0.0,3321,33572.348317
0.0,3325,33724.172252
0.0,3328,33875.960921
0.0,3327,34028.623668
0.0,3326,34181.289428
0.0,3328,34333.595194
0.0,3322,34487.122824
0.0,3325,34636.540483
0.0,3324,34790.717293
0.0,3325,34943.455747
0.0,3324,35100.385992
0.0,3323,35252.498307
0.0,3323,35404.612403
0.0,3324,35556.387936
0.0,3322,35711.823233
0.0,3321,35863.473906
0.0,3324,36017.53799
0.0,3326,36168.628675
0.0,3326,36324.604113
0.0,3326,36476.59393
0.0,3322,36630.242626
0.0,3323,36784.46441
0.0,3326,36937.201841
0.0,3327,37091.065099
0.0,3325,37246.524707
0.0,3323,37400.972579
0.0,3323,37560.675231
0.0,3324,37713.720319
0.0,3327,37870.237797
0.0,3321,38020.399085
0.0,3326,38173.257978
0.0,3326,38328.789915
0.0,3322,38481.804272
0.0,3324,38635.674424
0.0,3327,38788.681521
0.0,3325,38940.387656
0.0,3325,39094.583782
0.0,3321,39247.945787
0.0,3323,39400.210003
0.0,3328,39551.691179
0.0,3325,39702.354403
0.0,3327,39852.161379
0.0,3325,40004.134511
0.0,3321,40154.986431
0.0,3324,40307.04495
0.0,3327,40457.734172
0.0,3324,40613.485735
0.0,3325,40764.212095
0.0,3323,40914.334893
0.0,3322,41067.265069
0.0,3326,41218.0026
0.0,3327,41372.155829
0.0,3328,41522.345929
0.0,3327,41668.198831
0.0,3324,41819.16429
0.0,3322,41975.141188
0.0,3325,42127.034022
0.0,3323,42281.882422
0.0,3327,42432.665174
0.0,3326,42584.707584
0.0,3326,42737.024104
0.0,3326,42889.415798
0.0,3328,43043.964129
0.0,3324,43196.469479
0.0,3324,43350.890639
0.0,3326,43503.144184
0.0,3328,43655.590875
0.0,3326,43808.915433
0.0,3327,43961.345605
0.0,3326,44114.590066
0.0,3325,44266.923015
0.0,3323,44419.607538
0.0,3326,44570.011004
0.0,3327,44721.342375
0.0,3325,44873.811563
0.0,3328,45025.381997
0.0,3328,45179.38292
0.0,3321,45331.050733
0.0,3323,45483.351544
0.0,3327,45639.488004
0.0,3326,45790.561943
0.0,3324,45936.874008
0.0,3327,46089.368179
0.0,3323,46240.049483
0.0,3321,46392.903081
