# {"t_start": 1548219110.4395986, "env_id": "EnduroNoFrameskip-v4"} 
r,l,t
0.0,3321,86.964558
0.0,3326,193.728497
0.0,3325,323.288844
0.0,3328,488.525162
0.0,3322,701.918796
0.0,3321,922.099552
0.0,3325,1141.323146
0.0,3321,1361.320884
0.0,3325,1580.565753
0.0,3327,1799.049946
0.0,3325,2019.990343
0.0,3321,2238.96367
0.0,3325,2458.138743
0.0,3327,2682.437449
0.0,3326,2902.036854
0.0,3322,3120.632548
0.0,3326,3340.089611
0.0,3328,3559.270711
0.0,3322,3779.125385
0.0,3325,4001.210103
0.0,3322,4220.762789
0.0,3328,4439.59279
0.0,3328,4659.586423
0.0,3321,4875.767248
0.0,3325,5094.140818
0.0,3324,5316.444302
0.0,3324,5536.775792
0.0,3326,5757.171707
0.0,3323,5976.077422
0.0,3324,6194.696177
0.0,3325,6414.60553
0.0,3324,6638.370621
0.0,3324,6860.378011
0.0,3321,7080.525573
0.0,3324,7300.517882
0.0,3324,7524.461808
0.0,3325,7742.292546
0.0,3324,7962.278163
0.0,3324,8181.396426
0.0,3327,8400.387473
0.0,3325,8620.220147
0.0,3326,8846.476038
0.0,3321,9065.648172
0.0,3326,9285.250782
0.0,3324,9505.058889
0.0,3327,9719.537793
0.0,3325,9941.922296
0.0,3326,10162.004307
0.0,3321,10382.500606
0.0,3322,10603.399666
0.0,3327,10825.695199
0.0,3325,11048.465391
0.0,3324,11269.143381
0.0,3323,11488.499623
0.0,3321,11708.821077
0.0,3326,11929.521571
0.0,3322,12147.778367
0.0,3327,12368.82509
0.0,3324,12589.15942
0.0,3322,12808.30726
0.0,3327,13028.36776
0.0,3322,13245.968848
0.0,3324,13467.287859
0.0,3323,13685.889794
0.0,3323,13910.478077
0.0,3328,14130.405546
0.0,3327,14348.732703
0.0,3328,14568.715529
0.0,3324,14783.437622
0.0,3326,15002.901215
0.0,3328,15222.082972
0.0,3325,15441.750827
0.0,3326,15659.419689
0.0,3323,15879.336826
0.0,3321,16100.691241
0.0,3324,16319.356414
0.0,3328,16539.198848
0.0,3323,16757.861241
0.0,3328,16978.117513
0.0,3321,17196.420619
0.0,3321,17416.915213
0.0,3322,17636.263366
0.0,3328,17855.609324
0.0,3323,18075.009135
0.0,3328,18295.046056
0.0,3328,18514.776305
0.0,3323,18734.611642
0.0,3322,18952.638577
0.0,3322,19170.340248
0.0,3324,19390.44985
0.0,3324,19609.277791
0.0,3322,19824.818009
0.0,3324,20046.295113
0.0,3322,20270.486768
0.0,3326,20491.232836
0.0,3327,20714.070663
0.0,3323,20936.103809
0.0,3322,21157.358865
0.0,3327,21381.712779
0.0,3325,21604.522259
0.0,3324,21826.165826
0.0,3326,22046.759475
0.0,3326,22271.430887
0.0,3327,22498.343186
0.0,3327,22720.934955
0.0,3322,22944.275745
0.0,3324,23166.087386
0.0,3328,23387.630235
0.0,3325,23609.200882
0.0,3323,23830.70685
0.0,3325,24053.110847
0.0,3328,24275.393267
0.0,3327,24498.353299
0.0,3325,24720.943786
0.0,3328,24944.918663
0.0,3326,25171.525943
0.0,3328,25393.55455
0.0,3327,25615.420907
0.0,3327,25837.118616
0.0,3326,26053.497519
0.0,3324,26279.211563
0.0,3325,26500.965411
0.0,3325,26723.229633
0.0,3324,26946.498831
0.0,3325,27169.031167
0.0,3323,27390.68619
0.0,3324,27613.180695
0.0,3323,27837.695772
0.0,3328,28060.189804
0.0,3326,28279.942337
0.0,3324,28501.744162
0.0,3321,28724.971961
0.0,3323,28947.509167
0.0,3325,29170.470849
0.0,3327,29394.071933
0.0,3324,29616.148958
0.0,3321,29842.150664
0.0,3325,30065.457289
0.0,3326,30287.126083
0.0,3324,30507.432102
0.0,3321,30727.801923
0.0,3321,30943.039485
0.0,3321,31164.597779
0.0,3328,31387.526514
0.0,3321,31609.205305
0.0,3324,31832.590035
0.0,3321,32046.522885
0.0,3328,32202.657601
0.0,3324,32355.493558
0.0,3323,32506.27641
0.0,3327,32657.410275
0.0,3321,32811.452524
0.0,3328,32963.701536
0.0,3326,33116.30336
0.0,3324,33268.585305
0.0,3325,33421.579476
0.0,3327,33572.600863
0.0,3321,33724.355926
0.0,3322,33876.072547
0.0,3322,34028.675851
0.0,3322,34181.234149
0.0,3321,34333.436599
0.0,3328,34482.719613
0.0,3325,34636.463607
0.0,3324,34790.633075
0.0,3326,34943.39756
0.0,3322,35100.301618
0.0,3325,35252.435164
0.0,3321,35404.527888
0.0,3323,35556.269161
0.0,3323,35711.716822
0.0,3322,35863.403496
0.0,3321,36017.428492
0.0,3322,36168.475886
0.0,3327,36324.461334
0.0,3324,36476.427644
0.0,3325,36630.114913
0.0,3325,36784.358531
0.0,3327,36937.114445
0.0,3327,37090.959495
0.0,3324,37246.425427
0.0,3328,37400.950084
0.0,3322,37560.621412
0.0,3321,37713.63252
0.0,3326,37865.831749
0.0,3325,38020.344671
0.0,3327,38173.235596
0.0,3328,38328.812937
0.0,3323,38481.843993
0.0,3326,38635.732927
0.0,3323,38788.692522
0.0,3327,38940.415812
0.0,3322,39094.563699
0.0,3327,39248.022799
0.0,3322,39400.263923
0.0,3321,39551.619079
0.0,3323,39702.257503
0.0,3322,39851.996282
0.0,3325,40003.975885
0.0,3325,40154.874943
0.0,3321,40306.900234
0.0,3326,40457.576119
0.0,3325,40613.335026
0.0,3321,40764.018705
0.0,3321,40914.110344
0.0,3324,41062.798971
0.0,3323,41213.507004
0.0,3327,41367.680958
0.0,3328,41517.945214
0.0,3326,41667.952422
0.0,3328,41818.973278
0.0,3327,41975.004498
0.0,3321,42126.869675
0.0,3325,42281.734864
0.0,3325,42432.48045
0.0,3323,42584.489125
0.0,3321,42736.744815
0.0,3328,42889.185974
0.0,3325,43043.663379
0.0,3323,43196.164147
0.0,3322,43350.547125
0.0,3322,43502.73986
0.0,3324,43655.126305
0.0,3327,43808.469432
0.0,3321,43960.862229
0.0,3326,44114.054252
0.0,3324,44266.400186
0.0,3325,44419.098246
0.0,3324,44569.470563
0.0,3326,44716.769479
0.0,3324,44868.951688
0.0,3321,45020.552278
0.0,3326,45174.399666
0.0,3327,45326.052386
0.0,3327,45478.484399
0.0,3327,45634.691212
0.0,3326,45785.733255
0.0,3324,45936.337397
0.0,3327,46088.819003
0.0,3321,46239.459962
0.0,3324,46392.402442
