# {"t_start": 1548091955.8494651, "env_id": "RoboschoolHumanoidFlagrun-v1"} 
r,l,t
-31.11068,19,1.44236
-36.316949,18,1.596627
-45.571755,22,1.784567
-40.950419,25,2.038273
-41.542253,24,2.2554
-47.243791,20,2.4475
-37.713369,18,2.609538
-21.904533,21,2.811451
-22.365922,21,3.017901
-36.368144,19,3.219304
-31.301001,19,3.405968
-33.879599,26,3.649568
-28.599997,20,3.842123
-30.5063,20,4.017138
-33.171564,24,4.265288
-41.109331,17,4.435001
-42.780114,20,4.621158
-33.009231,18,4.79536
-28.842711,26,5.046618
-61.464266,17,5.200268
-27.179475,18,5.38633
-37.061271,19,5.57226
-45.20846,17,5.730433
-36.644416,20,5.903959
-51.667691,28,1093.394614
-24.384654,19,1093.561222
-29.054467,19,1093.731142
-36.899373,19,1093.901208
-32.275745,18,1094.072088
-23.414819,21,1094.292139
-36.625518,19,1094.499768
-30.924633,19,1094.684209
-37.345189,19,1094.869143
-51.564038,22,1095.080344
-25.903617,19,1095.267668
-27.086311,20,1095.47693
-34.743622,19,1095.672343
-34.355612,22,1095.87913
-27.137368,18,1096.049633
-32.859025,20,1096.241527
-33.152191,18,1096.41537
-44.309696,24,1096.663066
-35.445908,19,1096.852624
-46.392051,19,1097.034109
-35.127504,17,1097.206917
-30.321289,21,1097.43116
-48.387319,25,1097.694081
-46.411979,18,1097.902486
-36.070402,25,1098.16939
-37.26153,18,1098.365882
-33.763081,19,2190.909425
-25.086177,18,2191.109992
-31.851016,21,2191.363165
-41.21427,20,2191.597631
-33.376988,18,2191.823897
-41.971732,19,2192.037203
-41.37638,20,2192.268208
-35.421917,18,2192.450946
-49.395286,17,2192.654753
-23.046508,19,2192.900574
-45.584248,18,2193.078425
-31.869625,18,2193.294651
-33.410115,21,2193.530615
-28.935713,19,2193.759651
-36.015749,19,2194.004575
-32.267692,16,2194.16562
-54.867091,25,2194.452009
-54.888638,19,2194.670493
-36.490764,19,2194.894964
-32.437935,19,2195.120742
-40.014003,19,2195.329602
-33.337556,19,2195.556932
-26.932407,20,2195.786897
-38.30805,18,2195.991579
-40.773981,19,2196.23034
-29.515184,19,2196.444848
-29.969353,19,2196.656208
-44.1056,19,3285.34189
-32.892236,18,3285.484917
-30.030131,19,3285.637484
-52.914267,19,3285.794571
-27.622101,19,3285.945077
-27.008754,19,3286.102971
-27.752687,19,3286.271415
-60.461306,21,3286.443233
-32.811164,17,3286.578622
-33.626979,18,3286.717931
-28.012856,19,3286.874161
-42.38458,21,3287.048598
-36.094504,18,3287.199195
-27.313699,19,3287.360163
-54.077799,18,3287.505767
-34.089857,19,3287.66298
-31.582919,19,3287.817343
-29.797151,19,3287.969739
-25.175626,18,3288.109918
-44.134325,19,3288.260189
-27.001351,19,3288.410093
-19.331557,20,3288.58917
-34.270428,15,3288.708883
-39.27613,19,3288.860124
-28.456703,20,3289.022043
-38.183709,22,3289.213254
-38.563182,19,3289.372696
-32.363673,18,4379.915108
-47.629541,20,4380.099027
-29.567238,20,4380.279053
-30.646881,20,4380.491269
-30.826608,20,4380.702224
-39.107122,19,4380.898738
-41.482964,19,4381.08473
-38.296033,17,4381.249929
-45.906016,28,4381.536403
-32.404865,19,4381.747509
-33.752379,19,4381.942852
-36.917487,19,4382.13101
-28.931009,17,4382.297784
-43.462398,19,4382.658577
-46.64753,18,4382.875486
-36.634693,20,4383.077313
-35.148053,19,4383.267132
-35.480722,19,4383.462791
-39.027993,19,4383.645775
-20.796418,18,4383.829779
-36.408804,21,4384.053237
-41.352062,17,4384.226378
-35.536389,19,4384.420306
-21.963184,19,4384.60353
-39.710258,19,4384.805186
-32.682672,20,4385.022928
-35.478749,20,5474.559579
-47.998341,24,5474.757962
-16.412543,19,5474.926491
-36.390429,21,5475.100107
-39.733124,19,5475.253423
-36.807407,20,5475.419408
-52.359077,28,5475.651759
-25.098721,18,5475.800116
-30.255937,20,5475.964699
-41.92112,20,5476.141527
-33.449373,19,5476.299333
-38.851326,18,5476.451986
-35.652826,18,5476.602868
-46.833875,26,5476.808703
-20.381689,21,5476.978784
-31.704343,19,5477.142347
-45.388346,19,5477.321242
-28.059013,18,5477.470005
-20.936693,20,5477.638204
-25.917316,20,5477.807958
-28.897311,20,5477.976116
-39.880425,19,5478.136975
-34.077466,19,5478.289019
-48.918102,25,5478.512375
-34.503802,19,5478.675279
-31.142078,19,5478.835893
-27.208952,18,6568.371567
-38.221402,21,6568.570551
-23.584499,20,6568.777109
-33.616597,19,6568.976884
-41.030372,27,6569.26258
-28.120195,17,6569.451874
-23.142358,19,6569.646811
-43.608308,29,6569.958881
-29.715646,20,6570.15414
-22.09587,20,6570.357129
-29.250078,19,6570.557261
-26.652142,20,6570.764081
-27.657494,19,6570.97151
-31.620278,21,6571.186062
-36.101451,20,6571.395171
-25.280926,19,6571.594323
-31.901047,20,6571.814726
-38.029908,20,6572.015151
-18.941047,18,6572.205388
-25.700996,19,6572.404542
-28.65894,19,6572.589576
-20.892157,18,6572.771581
-37.097178,19,6572.995212
-26.239957,17,6573.17063
-29.310875,20,6573.383192
-25.22069,20,7664.224998
-38.307121,29,7664.483026
-29.661312,17,7664.63228
-27.512044,20,7664.806672
-34.299264,18,7664.96307
-35.653592,20,7665.132327
-24.427786,19,7665.297424
-25.44817,20,7665.490674
-45.554714,25,7665.737727
-20.37472,17,7665.900607
-28.955786,19,7666.082122
-30.283128,19,7666.267634
-29.105607,19,7666.443317
-20.807417,18,7666.633937
-28.560979,18,7666.80328
-33.304362,20,7667.00592
-29.293376,19,7667.205663
-37.731054,18,7667.390718
-28.196299,20,7667.620477
-31.241769,20,7667.865326
-45.994527,23,7668.125897
-35.497171,23,7668.383029
-31.50086,19,7668.590365
-37.727846,17,7668.779777
-30.885097,18,7668.999583
-33.155479,20,7669.227537
-31.914396,20,8759.129325
-22.847358,19,8759.340881
-27.21667,27,8759.622705
-27.453161,21,8759.846231
-27.081296,19,8760.037925
-44.54218,27,8760.31819
-26.719397,19,8760.523692
-19.055126,18,8760.71011
-23.145756,23,8760.942068
-35.528703,20,8761.146379
-31.248033,19,8761.321328
-46.859306,17,8761.482785
-24.210669,18,8761.678141
-30.337276,20,8761.870644
-31.766494,19,8762.04219
-30.194337,22,8762.245052
-28.366269,19,8762.417492
-29.668551,17,8762.57113
-17.751528,17,8762.744134
-40.095873,20,8762.9415
-21.681635,20,8763.128962
-35.225557,18,8763.301472
-28.341377,17,8763.448229
-37.417652,21,8763.640885
-38.11915,25,8763.89619
-30.738979,18,8764.077212
-24.178241,19,9933.063913
-26.588455,21,9933.32557
-25.18798,19,9933.573174
-49.478456,26,9933.934547
-23.194443,19,9934.181269
-21.322897,19,9934.423525
-21.648514,19,9934.681155
-26.488023,20,9934.944517
-26.307163,18,9935.187309
-30.261418,18,9935.421082
-30.963173,19,9935.678537
-25.113578,19,9935.921001
-25.574149,19,9936.182888
-38.813162,21,9936.43784
-30.316531,18,9936.695801
-21.222774,22,9936.983147
-22.292795,20,9937.267555
-36.214567,19,9937.530291
-25.093731,19,9937.798157
-20.490493,19,9938.062383
-22.030547,24,9938.399141
-24.864008,18,9938.635411
-14.021221,25,9938.97667
-37.057064,27,9939.359401
-22.850942,20,9939.667231
-23.586133,21,11074.168683
-28.406009,19,11074.367585
-16.311906,23,11074.62429
-23.274503,20,11074.833921
-33.425755,18,11075.033858
-25.175503,24,11075.281827
-28.681939,19,11075.486918
-36.723807,29,11075.825484
-38.955859,20,11076.051872
-18.612444,19,11076.260011
-20.567041,19,11076.477032
-23.546019,20,11076.736301
-20.802985,19,11076.956884
-33.278258,18,11077.160573
-33.29182,19,11077.377052
-9.714613,17,11077.581242
-24.183309,20,11077.820953
-21.273303,17,11078.033624
-31.783365,20,11078.270863
-20.109362,18,11078.485812
-13.649136,19,11078.712872
-27.415787,18,11078.931129
-23.589302,18,11079.15961
-17.047174,19,11079.385757
-26.175023,20,11079.624061
-19.179089,18,11079.829627
-17.421275,20,12252.712585
-20.064285,18,12252.898799
-20.456199,19,12253.11614
-21.046209,18,12253.315195
-16.257543,19,12253.535475
-15.746137,18,12253.762508
-16.213435,19,12253.980678
-20.994499,19,12254.20894
-18.342753,18,12254.432244
-19.344621,19,12254.661932
-23.283951,19,12254.899152
-27.473249,19,12255.132431
-25.584487,22,12255.396084
-18.692677,19,12255.604709
-26.529559,19,12255.82106
-28.148212,18,12256.047835
-27.681982,23,12256.310551
-27.504942,24,12256.590964
-21.687405,25,12256.864899
-29.205325,18,12257.083628
-25.736462,18,12257.291038
-14.855046,18,12257.483771
-42.514234,20,12257.700357
-30.531477,18,12257.902519
-26.41096,18,12258.11407
-21.915462,18,12258.333668
-20.444625,19,12258.554157
-16.776269,28,13337.195585
-12.486361,19,13337.3489
-25.860665,19,13337.509443
-28.476325,19,13337.655874
-32.015893,19,13337.810239
-24.773216,19,13337.966754
-25.312884,19,13338.115617
-26.229907,20,13338.273721
-13.117628,18,13338.417389
-11.695389,19,13338.576915
-24.935882,19,13338.731622
-20.741926,20,13338.887675
-31.569211,20,13339.047315
-15.994032,21,13339.215226
-30.64236,20,13339.375618
-22.127401,17,13339.512532
-25.833108,18,13339.659174
-49.358064,26,13339.881376
-15.473004,19,13340.034797
-15.281963,19,13340.181681
-23.483314,25,13340.381822
-26.948962,21,13340.546942
-26.726249,21,13340.715981
-19.951393,19,13340.873571
-20.617105,18,13341.025767
-19.248141,20,14259.021721
-23.914463,20,14259.168363
-20.660478,20,14259.308775
-25.054841,18,14259.438514
-28.182577,21,14259.594615
-19.708048,23,14259.773697
-29.50344,20,14259.922635
-26.301711,20,14260.070043
-17.675184,18,14260.202777
-32.67993,23,14260.370399
-12.426203,20,14260.522575
-23.697959,21,14260.676962
-25.704888,17,14260.806314
-25.239017,18,14260.94095
-19.64244,20,14261.083199
-35.246999,18,14261.21235
-22.245679,20,14261.366069
-12.51662,20,14261.508336
-21.850375,25,14261.690187
-22.411145,19,14261.838029
-17.802676,19,14261.968226
-13.388643,25,14262.137318
-22.930938,19,14262.270104
-13.697982,19,14262.405713
-22.217719,19,14262.543896
-20.675568,19,14262.679669
-21.760051,20,15242.922479
-19.963624,19,15243.070248
-25.76643,18,15243.214466
-32.319692,19,15243.3695
-19.988044,19,15243.532511
-14.742001,17,15243.673367
-23.387008,18,15243.825693
-18.795984,19,15243.977184
-19.685001,23,15244.173082
-11.12966,20,15244.344403
-26.535571,18,15244.486465
-18.719618,20,15244.650327
-21.301403,19,15244.7997
-27.13183,19,15244.967607
-12.522295,21,15245.139391
-18.27442,21,15245.309418
-16.509175,20,15245.481154
-23.161982,20,15245.651466
-24.509933,20,15245.820493
-22.281603,20,15245.981087
-13.820554,18,15246.130298
-21.948455,20,15246.290939
-14.810177,19,15246.449036
-14.309412,20,15246.607757
-16.131723,20,15246.770768
-20.090948,19,15246.939132
-19.620718,19,16168.520911
-17.323531,19,16168.656683
-15.958557,19,16168.786455
-25.58929,19,16168.916981
-20.050335,20,16169.053317
-26.250761,19,16169.173156
-24.715858,23,16169.335292
-21.731796,18,16169.463781
-15.357067,18,16169.579288
-10.927755,19,16169.705595
-11.530662,20,16169.847764
-16.969574,21,16169.992355
-12.253274,19,16170.131645
-17.67035,21,16170.279195
-25.924146,19,16170.413672
-16.875177,18,16170.546276
-25.645512,19,16170.676922
-26.919667,17,16170.786876
-13.284169,19,16170.917494
-12.737027,22,16171.072842
-21.286099,19,16171.197958
-28.561758,22,16171.347018
-20.10064,19,16171.481838
-18.169249,19,16171.610269
-36.872191,16,16171.721489
-13.116282,20,16171.857287
-16.121692,19,18200.67299
-16.456643,20,18200.897997
-16.410048,24,18201.206014
-29.849587,19,18201.539317
-10.389595,19,18201.84373
-19.553155,19,18202.14011
-14.044696,19,18202.443651
-13.149634,20,18202.770355
-14.533505,20,18203.106619
-18.929079,19,18203.440257
-21.105323,20,18203.78687
-28.318867,24,18204.178507
-16.876482,19,18204.506951
-15.26934,19,18204.836443
-12.232763,19,18205.182316
-11.717621,19,18205.318009
-15.04782,19,18205.446116
-18.616806,19,18205.583663
-21.785531,20,18205.721282
-10.693779,18,18205.856203
-16.483387,20,18206.014996
-18.23628,19,18206.171024
-20.352071,21,18206.347693
-19.561342,21,18206.576016
-27.899731,26,18206.92615
-26.30972,24,18207.319329
-19.387646,19,20386.739676
-14.040823,20,20387.093432
-20.504245,19,20387.433059
-26.377359,19,20387.761729
-20.792374,18,20388.058693
-13.116897,19,20388.356613
-8.623708,20,20388.58322
-14.680087,20,20388.713879
-21.883193,21,20388.868165
-17.530425,20,20389.015765
-14.342455,19,20389.156766
-10.695774,21,20389.315536
-11.164584,20,20389.462768
-15.8296,20,20389.619573
-8.110276,20,20389.805229
-12.533754,19,20390.114574
-26.341606,18,20390.314172
-11.934194,21,20390.635156
-23.33623,18,20390.884335
-16.662147,20,20391.134412
-26.071606,19,20391.451669
-40.975327,12,20391.554141
-16.206008,20,20391.885707
-20.348052,20,20392.11814
-24.685543,19,20392.376574
-19.012027,20,20392.722567
-14.226978,18,22559.475002
-16.021399,19,22559.773373
-19.78628,18,22559.972905
-15.385066,18,22560.279604
-20.749822,19,22560.487841
-24.755888,19,22560.758994
-11.35591,19,22561.049484
-19.841377,19,22561.273901
-5.99268,20,22561.592592
-20.33532,19,22561.814046
-17.363519,18,22562.073588
-13.752713,19,22562.373502
-18.176696,19,22562.589861
-16.280548,19,22562.918146
-25.847919,19,22563.238925
-20.919509,19,22563.558588
-16.439383,18,22563.79636
-10.712041,17,22564.056753
-23.909702,18,22564.396353
-21.440007,21,22564.760688
-17.803793,20,22565.118109
-16.981523,19,22565.441213
-16.258522,19,22565.774182
-17.603899,19,22566.084304
-19.162605,19,22566.402823
-19.735213,18,22566.609203
-12.573717,20,22566.742496
-13.854471,19,22566.877599
-17.007413,21,24722.460467
-20.211706,18,24722.697868
-20.331886,19,24722.941526
-13.065257,18,24723.162584
-13.903316,19,24723.47246
-13.043183,19,24723.677303
-14.755114,19,24723.991459
-23.946769,19,24724.225163
-17.60054,20,24724.486814
-14.912374,20,24724.808307
-16.201154,19,24724.984265
-18.181158,19,24725.296312
-15.909074,19,24725.468065
-15.70125,18,24725.755594
-16.335505,19,24725.971315
-9.094282,18,24726.262522
-9.65482,19,24726.600258
-6.932244,20,24726.927494
-19.676331,20,24727.260314
-17.610588,20,24727.618081
-16.885574,23,24727.977814
-15.024736,17,24728.260885
-24.882729,18,24728.536968
-14.65583,19,24728.818977
-7.749425,19,24729.145521
-18.975218,18,24729.465347
-14.072518,19,26875.503508
-12.281892,19,26875.636581
-13.704034,19,26875.77534
-7.227093,19,26875.921047
-19.189019,18,26876.061146
-19.635635,18,26876.199936
-11.627664,20,26876.348207
-13.261263,18,26876.503479
-14.583694,19,26876.82503
-15.59861,19,26876.993004
-17.315074,19,26877.32741
-15.872694,19,26877.515325
-20.752085,19,26877.824124
-16.888422,20,26878.144864
-12.992237,18,26878.349718
-17.16325,20,26878.6603
-14.797447,18,26878.868342
-16.084055,20,26879.123774
-26.124503,19,26879.366446
-11.351538,19,26879.618998
-15.051665,18,26879.924463
-18.141731,17,26880.086367
-8.057338,23,26880.434009
-11.194561,19,26880.713683
-11.610624,20,26880.929633
-10.556225,19,26881.262859
-26.42565,19,26881.439653
-11.132391,20,29017.391537
-22.544622,19,29017.529034
-18.255563,22,29017.694328
-11.954092,20,29017.842323
-12.589916,23,29018.018573
-15.281955,20,29018.188591
-14.048362,20,29018.527009
-8.639347,19,29018.688773
-10.036243,18,29018.948739
-11.152663,18,29019.166439
-19.838656,20,29019.514739
-10.221176,20,29019.716539
-13.51612,20,29020.010038
-13.80163,19,29020.295095
-10.556038,19,29020.503467
-23.885423,18,29020.820868
-24.930545,18,29020.967937
-18.340994,19,29021.295115
-12.335706,19,29021.499504
-10.157041,24,29021.847748
-13.616092,20,29022.167458
-16.50739,19,29022.424911
-17.553142,20,29022.685405
-4.433678,22,29023.031558
-17.565325,19,29023.239921
-14.977578,17,29023.500583
-15.554337,20,31154.290457
-15.708392,21,31154.652014
-8.628583,21,31154.917486
-9.187705,20,31155.152601
-14.254815,19,31155.471051
-17.093778,19,31155.635715
-8.170549,19,31155.973116
-10.758568,19,31156.15072
-6.137445,19,31156.459954
-11.510155,19,31156.749269
-19.837694,19,31157.046534
-18.995524,19,31157.366859
-28.681154,19,31157.638953
-14.406844,16,31157.874179
-11.47817,19,31158.181297
-15.565598,20,31158.52193
-16.601073,19,31158.844039
-21.501755,19,31159.164688
-12.918481,19,31159.461972
-13.89977,19,31159.748805
-4.995126,19,31160.062632
-15.11682,19,31160.36305
-9.701965,33,31160.708992
-13.361317,20,31160.847878
-21.467334,18,31160.972743
-16.457131,19,31161.105085
-16.297817,18,33282.288595
-17.276122,20,33282.542971
-12.141501,20,33282.793001
-14.727175,18,33283.1191
-10.258006,19,33283.266613
-11.802012,19,33283.603309
-22.240869,18,33283.759431
-18.262199,20,33284.081666
-12.05131,18,33284.303568
-18.407863,19,33284.607234
-9.285211,18,33284.90759
-28.130903,19,33285.212271
-12.571819,19,33285.489739
-11.366894,19,33285.798566
-9.547953,21,33286.137972
-20.597705,19,33286.466205
-12.303195,25,33286.93717
-15.294384,24,33287.280698
-20.334729,20,33287.589354
-9.605489,19,33287.925408
-9.055468,19,33288.226903
-13.903669,18,33288.356318
-15.585716,20,33288.495913
-10.33316,20,33288.635338
-17.080764,19,33288.77198
-9.18518,20,33288.916285
-16.354512,18,35387.814627
-10.494311,20,35387.967584
-17.205737,19,35388.120533
-17.232687,19,35388.387146
-12.78519,18,35388.619844
-20.833195,18,35388.856809
-22.19051,18,35389.120623
-14.151966,20,35389.439872
-11.683557,19,35389.638227
-16.095433,19,35389.95998
-18.047068,20,35390.176877
-15.807079,22,35390.481178
-15.951667,19,35390.810927
-14.453196,21,35390.976106
-17.575182,18,35391.294194
-12.015972,19,35391.468304
-10.518795,18,35391.764439
-8.793095,17,35391.977404
-12.267808,17,35392.219077
-13.337179,19,35392.504184
-7.984949,28,35392.834421
-16.660351,19,35393.10886
-11.104106,21,35393.404592
-8.248754,19,35393.639595
-13.175539,19,35393.955831
-16.399649,19,35394.177634
-9.825452,19,35394.493523
-21.101501,19,37512.517612
-11.217125,18,37512.774021
-8.903534,21,37513.02772
-23.694074,18,37513.33146
-17.185466,17,37513.547474
-19.308359,17,37513.797147
-20.581479,18,37514.006796
-4.794945,19,37514.271775
-13.847781,19,37514.515379
-9.931135,19,37514.765073
-12.56353,18,37515.106136
-17.356527,20,37515.453664
-7.144601,20,37515.790945
-9.430217,19,37515.978125
-7.726051,21,37516.320395
-8.260386,19,37516.661172
-12.457548,19,37516.999264
-4.534672,19,37517.340074
-13.345401,20,37517.686392
-12.71404,19,37517.917527
-12.365726,19,37518.23454
-15.168579,19,37518.550495
-11.643028,19,37518.860057
-11.532511,20,37519.003226
-12.954872,18,37519.124997
-2.900603,20,37519.267956
-11.338534,20,37519.412916
-18.794525,18,39634.100133
-16.57253,18,39634.414711
-15.289918,17,39634.672777
-11.451204,18,39634.904941
-17.325049,18,39635.221625
-14.950298,20,39635.564814
-9.739771,22,39635.91477
-32.663638,20,39636.25756
-9.9974,19,39636.561225
-11.66754,18,39636.770481
-10.844071,20,39637.111827
-8.840742,18,39637.433828
-14.626189,18,39637.762015
-8.466303,19,39637.894749
-9.396928,19,39638.027294
-9.795632,20,39638.165263
-6.663235,18,39638.302409
-12.457493,19,39638.442632
-7.418092,18,39638.585631
-16.187866,20,39638.745621
-14.96413,18,39638.887682
-6.493695,19,39639.054403
-5.423002,19,39639.371882
-10.87027,18,39639.527584
-8.128015,19,39639.7925
-5.480626,19,39640.020175
-17.450472,19,39640.349939
-9.571019,19,41750.090269
-8.945272,19,41750.243629
-2.854781,19,41750.554788
-4.856074,20,41750.779572
-8.436356,20,41751.053705
-4.966706,20,41751.407949
-10.960609,20,41751.626392
-12.901613,18,41751.889647
-9.884852,21,41752.194627
-14.364606,20,41752.388766
-8.187027,20,41752.73457
-9.371995,18,41752.904522
-7.510101,21,41753.228866
-7.56411,19,41753.473353
-22.126205,19,41753.781834
-7.506583,19,41754.0827
-9.683279,19,41754.381422
-19.674098,19,41754.68813
-8.043201,19,41754.985142
-15.853258,21,41755.3228
-12.944759,19,41755.622903
-8.27402,19,41755.944191
-14.026147,19,41756.260497
-7.862529,20,41756.599702
-12.910239,18,41756.902889
-12.54033,21,41757.225605
-5.529005,19,43861.066498
-12.784748,20,43861.207292
-9.575199,19,43861.338879
-14.976454,17,43861.467404
-5.778396,20,43861.615035
-9.286961,19,43861.7564
-10.336841,19,43861.889488
-12.300257,21,43862.100896
-10.719751,19,43862.390895
-15.004007,20,43862.572277
-7.984549,22,43862.912899
-9.099964,19,43863.101326
-10.13015,19,43863.390279
-7.400855,19,43863.703617
-11.878487,19,43863.924039
-13.211714,24,43864.259878
-4.302886,20,43864.599369
-9.425384,24,43864.809141
-5.032185,20,43865.133674
-12.415839,19,43865.370843
-5.293583,19,43865.630263
-12.788157,20,43865.963878
-2.130966,20,43866.14568
-13.363462,18,43866.437371
-12.053724,19,43866.636857
-4.78052,21,43866.919708
-8.14097,19,45964.970792
-5.464104,19,45965.303392
-4.161748,19,45965.621429
-14.248149,23,45965.772496
-5.20205,19,45965.906384
-9.621158,20,45966.053457
-13.466951,20,45966.193385
-17.738647,18,45966.330063
-8.984931,20,45966.476341
-14.297149,19,45966.607337
-9.086822,18,45966.738677
-5.428367,19,45966.872335
-8.843328,18,45967.057368
-6.919056,20,45967.360233
-6.376634,20,45967.547909
-13.423407,21,45967.889207
-13.325698,24,45968.211696
-15.660224,20,45968.428963
-13.004229,20,45968.747759
-12.698107,19,45968.965085
-1.965162,19,45969.222639
-2.15088,20,45969.5774
-8.077829,18,45969.707322
-9.533841,23,45970.074126
-3.215546,19,45970.272001
-7.262839,22,45970.573944
-8.045185,21,48057.394246
-16.021745,18,48057.555086
-11.670807,18,48057.8562
-0.238809,20,48058.144327
-5.082983,22,48058.361465
-10.194791,25,48058.750586
-1.358544,19,48058.941301
-5.401064,18,48059.228683
-7.81699,23,48059.597229
-15.361122,18,48059.762026
-12.521388,19,48060.068733
-5.973833,19,48060.336925
-5.962665,19,48060.545993
-8.88886,21,48060.793369
-13.424187,19,48061.028267
-14.820677,18,48061.299912
-11.726921,21,48061.544115
-9.307316,19,48061.877028
-9.888088,19,48062.201973
-9.999386,20,48062.503422
-5.36345,19,48062.71058
-6.852772,19,48063.047162
-13.224835,20,48063.398847
-12.770432,19,48063.722951
-11.269264,31,48064.170925
-8.31464,19,50143.445101
-8.750053,20,50143.781782
-5.94469,20,50144.041634
-4.413044,25,50144.448203
-9.679583,19,50144.777164
-6.80405,20,50145.112317
-8.519451,19,50145.440154
-8.388272,19,50145.780246
-9.306682,20,50145.970136
-13.242988,20,50146.310844
-6.589807,21,50146.671046
-4.805962,19,50146.975711
-9.269658,21,50147.122097
-9.428671,19,50147.258869
-8.907906,20,50147.3998
-11.391769,21,50147.553568
-14.897681,19,50147.698771
-2.611095,19,50147.847827
-6.227151,20,50148.000048
-8.791456,18,50148.131185
-11.065536,18,50148.311794
-8.682303,20,50148.626356
-8.490586,22,50148.855283
-7.191636,21,50149.183229
-4.955336,23,50149.516499
-9.200272,21,50149.737467
-8.256783,19,52215.544708
-16.231832,21,52215.717213
-4.796288,20,52215.868923
-2.372852,20,52216.019992
-20.202533,18,52216.153762
-11.893686,20,52216.403608
-12.353585,20,52216.657692
-18.158811,29,52216.924097
-3.341718,19,52217.227298
-1.727891,19,52217.452653
-5.691496,20,52217.713008
-4.065967,20,52218.050157
-4.534478,20,52218.238955
-9.500806,21,52218.546171
-12.976417,18,52218.814104
-4.068736,19,52219.017644
-7.592989,20,52219.187836
-17.249901,22,52219.516728
-7.625329,20,52219.812339
-9.811017,20,52220.027469
-6.0238,24,52220.380161
-17.895019,18,52220.644451
-14.03293,20,52220.876576
-17.902978,19,52221.19342
-8.932618,19,52221.330281
-9.714259,18,54258.986829
-5.938697,18,54259.259368
-2.973992,20,54259.527088
-9.709497,19,54259.754432
-10.82753,20,54260.085901
-10.806302,21,54260.306021
-4.813584,20,54260.577986
-13.081988,20,54260.755193
-7.731744,21,54261.070068
-8.70219,21,54261.387115
-13.217201,20,54261.598541
-13.426221,19,54261.904162
-5.276429,19,54262.123313
-6.456718,21,54262.404151
-6.200419,18,54262.682019
-6.600492,24,54262.89569
-4.512868,19,54263.196824
-0.490424,19,54263.404192
-5.292758,20,54263.714167
-4.405432,20,54263.990201
-3.995937,19,54264.311429
-6.536657,21,54264.653173
-12.921487,22,54264.954707
-10.128725,19,54265.291301
-12.90448,20,54265.641863
-2.809475,20,54265.988783
-12.999027,24,56327.850078
-1.772873,21,56328.008865
-9.729045,20,56328.17563
-5.168616,20,56328.515054
-13.76367,18,56328.679571
-7.173349,21,56328.969898
-8.033128,21,56329.214135
-12.193478,21,56329.558021
-6.322698,19,56329.738542
0.837036,21,56330.041767
-9.50561,19,56330.319962
-7.332742,21,56330.559465
-2.04149,21,56330.87666
-7.48481,22,56331.064319
-6.95669,20,56331.364785
-0.087564,28,56331.786141
-8.940836,21,56332.083756
-6.931566,19,56332.294819
-7.045673,21,56332.622991
-4.623522,20,56332.82684
-3.75559,19,56333.103576
-1.776381,22,56333.313773
-9.003912,20,56333.598513
-4.685916,27,56334.000616
-8.449465,18,58379.979689
-11.332751,19,58380.146801
-12.950539,18,58380.435149
-5.455013,21,58380.715058
-1.806723,21,58380.970631
-4.530095,20,58381.309717
-7.540955,27,58381.71022
-1.90023,20,58381.948207
-4.558436,21,58382.223943
-10.429692,19,58382.448833
-16.386773,18,58382.693065
-4.542028,21,58383.063835
0.611967,20,58383.238709
-17.97599,20,58383.580207
-8.872651,21,58383.909338
-8.778719,19,58384.233246
-3.105881,19,58384.407932
-11.641329,21,58384.770649
-15.929227,20,58385.124314
-8.326909,20,58385.477733
-8.945666,23,58385.884963
3.365919,20,58386.182311
-8.698408,21,58386.494565
-6.097928,19,58386.806876
-2.514226,19,58387.103505
2.397388,19,58387.350801
-6.923826,19,60441.865844
-7.956059,20,60442.183339
-10.949134,20,60442.407981
-11.26938,20,60442.750679
-7.927881,18,60443.042379
-3.779967,22,60443.434654
-5.479197,21,60443.597541
1.97009,20,60443.737792
-6.121273,20,60443.888028
-3.51044,20,60444.031489
-10.886681,20,60444.18352
-9.91105,20,60444.337631
-13.349654,19,60444.476871
-9.118204,20,60444.627118
-8.197184,20,60444.769151
-8.769551,20,60444.930312
-4.503528,25,60445.291549
-6.200869,22,60445.480953
-7.931381,22,60445.833031
-4.937915,19,60446.016903
-7.731182,24,60446.355757
-5.313153,22,60446.720842
-3.844987,21,60446.936059
-5.43432,19,60447.210939
-6.777741,22,62497.455948
-11.111405,19,62497.642081
-8.671191,20,62497.990433
-2.372458,22,62498.35529
-7.959306,24,62498.69954
-10.640628,21,62499.000634
-8.488831,20,62499.322364
-9.720467,21,62499.660572
-8.052771,19,62499.977673
0.642873,19,62500.299761
-4.502917,22,62500.609869
-2.811531,27,62501.020357
-4.526121,20,62501.370879
-10.418224,23,62501.738684
-7.836098,19,62501.859548
-5.299826,19,62501.987904
-7.654323,20,62502.130364
-8.554968,21,62502.286131
-8.463766,20,62502.436282
-11.587628,19,62502.587268
-12.132643,19,62502.738053
-7.092845,22,62502.895475
-7.513333,23,62503.09762
-11.13981,26,62503.484164
-5.981897,24,62503.775845
-9.247543,20,64546.743819
1.098368,19,64547.044023
-3.526118,23,64547.242033
-8.516341,19,64547.53333
2.413278,23,64547.786268
-17.308495,26,64548.147648
0.287292,20,64548.484708
-4.282999,20,64548.829649
-6.524482,22,64549.19635
-4.580382,19,64549.35897
-3.060771,19,64549.687882
-27.403296,19,64550.016233
-8.125243,20,64550.357103
-7.301259,20,64550.664198
-4.991873,23,64551.077355
-1.849057,22,64551.274685
-4.621007,20,64551.619529
-6.402054,23,64551.997386
-10.692508,20,64552.29699
-2.622958,20,64552.432729
-3.86184,21,64552.578635
-8.410966,21,64552.727341
0.567651,21,64552.880535
-3.442238,21,64553.035046
-6.836339,20,66586.640987
-2.268763,21,66586.78282
-8.884459,21,66586.931671
-8.937307,22,66587.083412
-6.938942,23,66587.274554
-7.291666,24,66587.469842
-5.983476,20,66587.627821
-8.822391,20,66587.783644
-4.418265,23,66588.134816
-9.594742,26,66588.358186
-4.181088,18,66588.632361
-12.892388,19,66588.85072
-3.150195,21,66589.185853
-10.690431,21,66589.460633
-3.851451,22,66589.735038
-2.371533,21,66590.063803
-6.126512,26,66590.449999
-7.42024,22,66590.5961
-9.6208,20,66590.871297
-7.491074,22,66591.119362
-7.132405,21,66591.438583
-4.651667,20,66591.678959
-6.041461,20,66591.923909
-2.695899,20,66592.237495
0.317474,19,68624.268577
-2.484083,19,68624.453408
-10.417421,17,68624.748309
-1.511693,21,68624.939397
-9.976396,21,68625.22547
-6.204896,19,68625.45212
-4.368756,19,68625.77406
-2.26819,21,68626.043797
4.458427,21,68626.299711
-16.437371,18,68626.62352
-0.017143,20,68626.788942
-9.817671,17,68627.088671
-1.582356,24,68627.290468
-0.129285,22,68627.631508
0.547614,25,68628.010605
-3.535842,19,68628.176951
-1.533054,20,68628.486763
-7.537628,20,68628.779267
-1.912958,25,68629.071424
-5.36607,20,68629.365722
-5.942372,20,68629.53439
-2.558474,19,68629.843305
-7.482241,20,68630.051589
-4.319992,19,68630.322138
-0.933415,23,68630.717499
-5.364691,20,70125.389147
-0.792141,19,70125.530729
-2.534636,21,70125.675778
-2.610627,21,70125.817205
0.823877,20,70125.951211
-3.450957,19,70126.080639
-1.809285,19,70126.208792
-2.933402,23,70126.354313
-6.565216,21,70126.498742
-1.047239,23,70126.661171
-8.905471,20,70126.788172
-2.811402,22,70126.929916
-7.821061,18,70127.045378
-8.792768,20,70127.186751
-4.705218,21,70127.325332
-7.640352,21,70127.478086
0.046446,20,70127.610651
-8.889596,21,70127.754629
-2.743007,21,70127.899756
-8.401508,21,70128.033123
-6.477067,20,70128.170055
-7.299989,19,70128.295832
-2.81065,19,70128.420907
-5.708654,20,70128.5536
-10.48056,20,70128.69943
-0.951242,24,70877.961685
-10.197333,20,70878.091015
-0.190349,24,70878.255031
-1.836397,21,70878.40003
-7.003042,21,70878.550594
0.528977,21,70878.688886
-6.780662,21,70878.828608
-9.653418,21,70878.965127
-8.814932,21,70879.103423
-7.169891,19,70879.234748
0.575836,23,70879.383584
0.428877,20,70879.518237
-3.253108,22,70879.671263
-4.132859,20,70879.802907
-8.510206,19,70879.924497
-2.935901,21,70880.059375
-3.530279,20,70880.19884
-6.503342,20,70880.335574
-6.17274,19,70880.469484
-23.119431,19,70880.595923
-0.62304,23,70880.751848
-5.064477,23,70880.907451
-7.908136,20,70881.0489
-0.574861,26,70881.224069
-9.182243,21,70881.368221
2.792417,20,71630.571337
-12.78009,19,71630.709904
0.993698,19,71630.844321
-3.327907,19,71630.983
2.563219,22,71631.132334
-6.743489,19,71631.259122
-4.597495,20,71631.395176
-5.909923,21,71631.539285
-10.19672,19,71631.663949
-1.767173,21,71631.806196
-3.817878,20,71631.946725
-16.088893,24,71632.114483
-4.435055,20,71632.244552
-9.125771,22,71632.406603
4.47558,20,71632.544002
-5.224109,23,71632.70056
-0.916745,24,71632.86779
-2.34244,25,71633.039589
-4.559097,20,71633.181708
-0.12106,20,71633.319152
-2.620516,20,71633.457638
-9.187004,31,71633.664466
1.598469,23,71633.823305
-8.33332,19,71633.942363
-6.227659,22,72384.138408
-2.110386,21,72384.283439
-8.002249,20,72384.419496
-2.372803,20,72384.552439
1.84899,21,72384.695236
0.363234,23,72384.861771
-8.87411,24,72385.025276
-5.140383,20,72385.155849
0.116337,19,72385.289519
-14.130661,18,72385.403424
-6.931999,20,72385.533279
0.361995,19,72385.66497
-3.380524,20,72385.786433
-1.758785,21,72385.930635
-1.182426,20,72386.075331
-0.533813,22,72386.225412
-0.534586,21,72386.360528
0.781813,22,72386.501735
-2.659879,20,72386.633249
-3.8594,21,72386.78176
-5.212341,21,72386.926698
-4.755102,20,72387.055654
-0.676059,28,72387.238091
-8.623347,22,72387.397907
-20.258095,17,73137.790312
-5.611505,20,73137.933139
4.229078,27,73138.11032
-9.393654,19,73138.233571
1.809235,21,73138.381153
-2.324472,20,73138.520219
-12.678442,24,73138.677838
-8.434073,20,73138.805655
-0.869058,22,73138.955528
1.600399,22,73139.102623
4.768781,22,73139.251782
-1.184098,20,73139.393363
-3.941904,21,73139.527395
-4.092162,20,73139.66479
-7.879969,20,73139.802753
-2.468598,24,73139.963164
-4.242792,22,73140.10242
-1.550139,21,73140.240274
-10.276653,19,73140.365704
-12.967907,27,73140.556429
-1.172058,19,73140.69399
-1.597829,21,73140.843973
-7.768654,23,73141.00436
-0.666444,22,73141.151263
-7.689111,22,73889.675552
-3.994563,22,73889.822887
-0.44777,20,73889.955349
-5.832234,21,73890.101517
-0.771341,21,73890.247068
-6.726159,20,73890.381123
3.858992,21,73890.524144
-7.558847,23,73890.687336
-1.738141,21,73890.824663
-1.721025,22,73890.97379
-0.907703,23,73891.13432
-4.317051,20,73891.265196
-6.214465,24,73891.432813
2.968001,27,73891.608768
-3.305135,20,73891.744627
-3.080626,24,73891.901835
-1.067582,20,73892.046815
-10.150431,23,73892.203464
-4.867739,20,73892.342068
-10.907696,19,73892.46968
-1.717885,21,73892.612252
-14.683664,19,73892.743045
1.495701,21,73892.883478
-4.994514,18,73893.005872
-1.490032,21,74641.341116
-4.002991,23,74641.492435
-1.919913,21,74641.640887
-2.535017,20,74641.77438
-9.891593,20,74641.915096
1.90807,21,74642.054692
-2.731033,19,74642.173948
1.712973,22,74642.324176
0.170401,21,74642.464362
-1.346026,19,74642.599936
-2.181374,20,74642.732166
-0.740156,20,74642.863904
-1.10763,21,74643.001587
-7.186479,19,74643.12955
-4.29918,23,74643.289414
-3.208109,20,74643.431089
-5.072962,19,74643.551025
-0.214792,19,74643.677093
-2.802125,20,74643.817669
0.907072,20,74643.947149
1.869046,23,74644.106231
-5.783839,21,74644.247563
-5.529016,19,74644.381038
-10.313953,20,74644.506974
2.635364,24,74644.665873
-4.062377,22,75395.395139
3.840637,27,75395.570742
0.094023,20,75395.708995
-3.718656,20,75395.854147
-6.470045,26,75396.031885
-9.415998,17,75396.144768
-11.339193,20,75396.292398
-2.738797,23,75396.444232
-2.14923,24,75396.601762
-1.897013,23,75396.752905
-4.125093,20,75396.891939
-7.777383,21,75397.037337
-5.046763,24,75397.201241
3.816924,22,75397.357582
-6.793801,19,75397.492145
0.290578,21,75397.637117
-5.049894,20,75397.772219
-0.898363,20,75397.90565
-3.628219,21,75398.04172
-2.407105,21,75398.188527
-4.766232,21,75398.333282
-7.214234,18,75398.449665
-2.583147,20,75398.603234
3.55115,21,75398.743597
-0.90775,20,76148.305063
-5.141392,21,76148.448408
1.611538,25,76148.614787
-8.793671,20,76148.744753
-2.823141,27,76148.913644
-2.42207,20,76149.053484
-1.767354,23,76149.204273
-3.043452,19,76149.339197
4.389182,25,76149.517837
-5.26305,23,76149.668331
5.734906,20,76149.794656
-3.932181,21,76149.926059
-12.32107,23,76150.080861
-6.047979,21,76150.224955
-0.69139,21,76150.367008
-2.782948,25,76150.539955
0.317464,22,76150.692225
-5.129927,21,76150.831949
-4.644777,20,76150.967193
1.436133,24,76151.131434
2.786745,25,76151.296584
1.623547,24,76151.462173
-0.395915,22,76151.614439
3.282639,23,76901.539473
-8.313929,21,76901.676914
-0.45277,20,76901.808397
-2.798903,25,76901.985201
-8.785626,20,76902.122477
-3.933609,23,76902.27339
-1.724712,22,76902.416817
-2.090233,25,76902.583985
-12.862725,19,76902.720587
2.246294,21,76902.855317
-5.066271,23,76903.00911
-11.469814,18,76903.129107
-10.953357,23,76903.276826
-5.031547,22,76903.416925
0.573371,21,76903.562844
-4.634487,22,76903.703429
1.570801,24,76903.867001
8.727977,21,76904.007357
4.385798,26,76904.188846
-6.868357,22,76904.33929
4.87907,22,76904.496942
-2.075732,19,76904.621433
-7.457774,18,76904.745586
-2.611165,22,77654.684525
2.620085,22,77654.82931
1.837541,23,77654.97397
-1.12995,22,77655.114267
-4.104065,26,77655.292076
-4.385201,29,77655.499552
-8.691542,19,77655.635003
-9.654953,24,77655.79909
-10.908325,17,77655.91094
-3.090997,23,77656.064091
-0.651419,24,77656.217926
3.181655,29,77656.418116
-3.564246,21,77656.558486
-0.554087,20,77656.692082
2.024493,24,77656.862448
-13.250167,19,77656.987897
-4.73229,22,77657.137918
-1.904864,27,77657.323913
0.210752,22,77657.474509
-2.307373,21,77657.605628
0.359556,22,77657.753205
-0.575762,21,77657.888462
-10.731278,17,77657.997899
-5.081688,21,78407.66806
-5.351469,25,78407.835427
0.673617,21,78407.979589
0.980518,25,78408.158847
-2.147617,23,78408.322947
4.2577,22,78408.482895
-6.46748,17,78408.59607
1.885123,22,78408.746349
1.451165,21,78408.884253
-9.96113,20,78409.017224
0.720525,25,78409.186471
-4.94085,22,78409.336316
-8.495426,17,78409.458177
-8.551759,31,78409.6666
-1.461694,21,78409.806697
-2.563938,22,78409.962299
-13.477272,17,78410.071618
-4.394193,23,78410.229496
-0.701087,20,78410.361414
-0.905939,24,78410.526023
-2.173025,22,78410.680563
-2.664966,21,78410.826805
-3.067169,21,78410.971619
-4.541207,19,78411.103182
3.991336,23,79160.950489
-7.860926,28,79161.142263
-8.39649,19,79161.264119
-5.82138,26,79161.442533
-3.300895,22,79161.589786
3.731506,22,79161.736439
2.604077,27,79161.916031
-6.370606,29,79162.113119
-5.673365,21,79162.254702
0.548295,20,79162.397661
4.282402,21,79162.532515
-16.645187,18,79162.650792
2.312459,26,79162.836494
0.949788,21,79162.972305
2.972381,24,79163.126494
-5.887836,22,79163.273047
-5.09876,21,79163.411229
-5.92931,20,79163.552747
2.428988,25,79163.717206
-5.224074,23,79163.865324
-2.326097,21,79164.000987
-2.447878,19,79164.128061
-4.329623,20,79913.697994
-10.653774,27,79913.883271
-2.153976,22,79914.039648
-3.663735,23,79914.191068
-1.622938,23,79914.3389
-4.911183,26,79914.520899
5.145019,27,79914.698964
-6.375386,26,79914.886323
-2.915352,26,79915.051998
15.265724,33,79915.279669
-9.139503,21,79915.419405
6.242494,26,79915.587671
-2.768144,22,79915.736332
-6.237576,19,79915.870667
-1.685932,21,79916.019647
-2.979846,21,79916.170572
0.384974,22,79916.31001
-0.348129,22,79916.460059
1.004294,24,79916.618003
3.10567,20,79916.74899
-5.087479,22,79916.893285
1.416806,21,79917.038366
-0.418212,23,80667.138509
-1.471643,22,80667.292162
-7.528009,17,80667.401904
-10.544859,24,80667.564908
-2.393006,26,80667.736379
-3.071164,26,80667.919904
-1.178398,22,80668.072231
4.074923,24,80668.23429
4.093011,25,80668.400748
-3.175088,22,80668.543004
-0.75159,28,80668.736284
-5.039745,22,80668.882384
3.267504,22,80669.036938
-7.100398,20,80669.182288
-2.250056,26,80669.360476
0.144095,28,80669.55745
-13.752662,18,80669.663475
6.33876,25,80669.832222
-0.007738,25,80670.003326
5.215122,23,80670.154345
-5.695306,26,80670.33477
-3.28974,30,80670.538393
10.093428,27,81420.980942
-6.119491,27,81421.165278
-2.15207,23,81421.32747
-0.451665,20,81421.464706
-1.638749,23,81421.616332
3.043488,22,81421.762442
4.140264,24,81421.931385
-4.494569,20,81422.079497
-5.972175,19,81422.206339
2.577629,24,81422.36637
1.554943,23,81422.524411
1.98189,22,81422.663079
-8.847781,22,81422.81005
9.149209,29,81423.006044
-10.800607,23,81423.162789
1.234142,25,81423.325502
-1.818225,22,81423.468041
-8.900149,23,81423.622857
3.645819,24,81423.797777
-0.200071,23,81423.955599
-2.624239,22,81424.102975
1.087463,26,81424.276726
-6.826851,20,82174.198851
-3.324112,28,82174.38687
-9.087054,23,82174.537682
-4.719608,23,82174.6903
0.986686,21,82174.837546
8.861023,31,82175.034805
2.752009,22,82175.178708
0.095484,28,82175.361499
3.228194,23,82175.512206
5.203323,29,82175.707094
3.452256,44,82176.005717
-3.530233,21,82176.150103
-10.066354,26,82176.335171
1.581583,20,82176.45542
-2.434836,24,82176.617375
-2.082652,21,82176.753827
7.892459,27,82176.934323
-6.985898,28,82177.133954
-1.995051,24,82177.291458
-2.183656,19,82177.413605
-2.354904,22,82928.08293
-19.00057,20,82928.228834
9.461033,34,82928.458257
-4.389318,23,82928.624261
-0.670195,29,82928.820512
3.628166,22,82928.976789
-1.887517,21,82929.123888
-2.453587,22,82929.268291
-5.699732,20,82929.407228
-8.232345,20,82929.543866
-7.701849,18,82929.664432
1.237636,27,82929.852764
1.61006,26,82930.033807
0.556892,22,82930.191772
-5.697767,22,82930.342351
6.556022,23,82930.507184
-8.824335,21,82930.661546
0.299859,20,82930.798819
-1.294758,26,82930.970499
-0.799532,21,82931.11558
0.654267,24,82931.287858
-3.689163,25,82931.453009
0.175073,30,83680.915241
1.67716,22,83681.069486
-0.253303,20,83681.206411
4.538939,24,83681.361883
-4.014111,21,83681.503269
-5.080829,25,83681.679042
-3.927602,21,83681.813874
-1.869776,25,83681.979435
4.120293,21,83682.128073
1.335938,31,83682.345165
-0.521228,25,83682.515788
0.87386,23,83682.669312
5.454093,21,83682.816341
-5.19664,23,83682.962289
-0.553543,24,83683.125708
2.833228,21,83683.261429
6.083821,22,83683.414746
5.192629,26,83683.587262
-0.868632,23,83683.7497
-4.28974,32,83683.980953
-4.318652,21,83684.125193
-3.73101,20,83684.264334
-4.354481,24,84435.060321
5.897424,26,84435.240559
-1.223237,32,84435.464195
-2.981525,26,84435.644705
1.839142,20,84435.781803
-7.606708,18,84435.896823
7.002046,23,84436.048017
0.564773,22,84436.194898
-1.125068,23,84436.350468
9.632355,32,84436.553878
1.415094,23,84436.715308
-8.319784,17,84436.835575
0.458873,22,84436.989321
1.350358,20,84437.115628
4.900401,29,84437.31528
-8.073191,20,84437.458174
-0.011643,23,84437.616759
-3.020162,21,84437.767516
-4.345697,20,84437.902486
0.157868,25,84438.068686
-8.909313,24,84438.226367
2.780346,24,84438.390984
1.06378,26,85187.089207
-12.696445,17,85187.205708
0.474245,23,85187.361947
-1.19749,20,85187.501758
2.25915,21,85187.6447
-4.94294,21,85187.791806
3.81886,22,85187.946487
4.047545,26,85188.122251
3.097395,22,85188.271688
-3.81095,19,85188.397175
1.242624,22,85188.55887
-12.427924,18,85188.678443
6.034975,21,85188.820406
2.860475,21,85188.962391
4.529206,22,85189.111503
3.119338,26,85189.281186
11.57457,27,85189.463136
11.170236,31,85189.687483
-0.39692,26,85189.862299
-3.75556,35,85190.106021
1.238162,24,85190.272626
-3.825272,19,85190.400301
-3.021472,22,85940.323011
5.057366,25,85940.494325
0.029058,23,85940.64366
10.26232,21,85940.786631
-0.782252,19,85940.913782
6.987836,24,85941.079851
0.523465,22,85941.234944
3.166678,22,85941.387587
-3.508345,23,85941.541732
1.233741,20,85941.675552
-4.658769,22,85941.824432
-2.541834,23,85941.984708
-1.195692,23,85942.134408
5.485103,21,85942.285113
-3.033214,25,85942.446847
0.131212,20,85942.599062
-2.198422,21,85942.736176
-0.336137,22,85942.890503
-2.372907,22,85943.046111
-4.645778,17,85943.161974
1.302661,20,85943.298256
-3.741558,19,85943.4308
-4.702931,19,85943.554754
1.625053,21,85943.693843
-2.23991,25,86693.798785
-4.125505,20,86693.943452
3.786789,20,86694.083405
-9.04689,17,86694.201765
-6.795059,20,86694.33596
4.392056,29,86694.535502
-4.871182,19,86694.674092
-0.442231,20,86694.821079
-6.220076,18,86694.945282
-4.993253,20,86695.079747
2.587956,20,86695.213456
-0.27396,20,86695.349621
2.045385,20,86695.485101
2.290371,18,86695.609934
2.892771,22,86695.761229
0.469186,21,86695.903568
10.770456,29,86696.10829
0.835034,20,86696.250475
5.883637,23,86696.404465
-3.317622,20,86696.541001
-9.585031,20,86696.683716
0.779118,20,86696.822317
-1.910693,22,86696.976494
-5.774263,22,86697.124561
2.793074,25,87447.899077
3.354615,24,87448.058213
-4.661967,22,87448.212369
4.75381,22,87448.364885
-3.04831,22,87448.514876
1.260187,20,87448.660941
-1.649236,21,87448.813021
-13.549426,18,87448.935176
-0.755959,20,87449.082533
2.82222,21,87449.232656
0.171563,20,87449.362409
0.659043,19,87449.495148
3.317161,29,87449.685251
4.597869,20,87449.818502
-4.807368,21,87449.959574
-1.250752,21,87450.102317
6.515697,23,87450.246819
1.267117,23,87450.39571
-4.711732,18,87450.519634
-0.433163,19,87450.647627
-21.814359,21,87450.789648
-0.902572,20,87450.92728
1.054052,20,87451.063754
-1.468685,22,87451.218094
1.215478,22,88200.6434
10.156268,31,88200.859946
5.670428,20,88201.00138
-7.014617,19,88201.129746
5.021967,27,88201.301941
3.759804,28,88201.500853
4.642364,20,88201.63845
3.118627,27,88201.812334
-2.422238,19,88201.942803
4.773901,21,88202.079854
-0.022718,21,88202.219692
-0.155825,19,88202.346541
4.622286,22,88202.49737
0.316894,25,88202.670817
-2.073506,19,88202.791932
5.793097,33,88203.014021
-4.674065,22,88203.166464
-4.96551,19,88203.287994
0.008365,22,88203.443007
-7.045286,20,88203.572191
-7.121643,19,88203.708058
-0.103824,25,88203.880199
-0.07852,21,88204.022592
-4.03924,18,89009.499292
-10.44261,19,89009.626212
-6.273319,23,89009.793409
-1.762918,22,89009.941584
-3.61404,25,89010.114788
3.231573,21,89010.258113
-1.102965,19,89010.388651
-8.157688,19,89010.51589
4.191688,22,89010.671543
-11.781102,19,89010.802237
-10.053215,24,89010.961001
-5.949711,20,89011.107029
-7.250135,27,89011.303743
-0.268493,21,89011.446421
2.00366,26,89011.613642
2.299227,21,89011.750278
0.157944,21,89011.910717
-5.260767,20,89012.044822
0.368884,21,89012.197619
-1.987825,19,89012.32163
6.357017,20,89012.459258
-6.773068,19,89012.588227
7.248192,21,89012.744189
-5.312624,21,89012.889398
-3.316921,21,89773.296296
0.669119,21,89773.436807
-5.544789,32,89773.648826
-3.024395,21,89773.792403
0.827288,28,89773.973458
-3.602703,19,89774.095999
0.959824,25,89774.28164
1.659127,21,89774.417218
2.092047,22,89774.569969
3.578768,20,89774.705706
2.349871,20,89774.840941
-3.3867,20,89774.979789
-10.444179,17,89775.090052
1.919732,20,89775.226091
-5.861889,20,89775.364681
0.734406,21,89775.509391
2.810996,22,89775.659566
-3.082277,22,89775.805816
0.650739,21,89775.937935
5.24097,21,89776.085101
4.380786,24,89776.258615
-1.916211,22,89776.4055
-1.128896,26,89776.593638
5.238162,26,90534.009434
-0.422856,20,90534.141774
0.040133,24,90534.308669
1.138205,19,90534.436074
1.610832,22,90534.59656
3.448607,23,90534.74959
0.885376,23,90534.906678
2.37564,26,90535.084764
-3.439595,22,90535.233401
0.248989,22,90535.385484
-0.094995,31,90535.599835
6.607517,22,90535.74744
-0.720889,20,90535.889855
4.082205,22,90536.039021
-5.047792,23,90536.197065
3.083891,21,90536.342211
-0.210604,21,90536.483737
8.583155,22,90536.630817
-1.107615,21,90536.77844
3.654162,26,90536.955231
4.073718,26,90537.147743
-1.502581,25,90537.319288
14.208229,29,91429.838629
2.058558,24,91430.02977
2.208683,22,91430.208955
-6.685859,20,91430.374439
-2.524152,21,91430.554788
2.367013,23,91430.739986
-3.024095,18,91430.887888
1.081584,20,91431.050352
-1.050103,23,91431.244408
1.277198,21,91431.419862
-5.950885,20,91431.585512
-0.301626,22,91431.768419
-1.057304,19,91431.918048
-0.179523,21,91432.088251
1.524052,28,91432.325625
-0.553819,21,91432.494165
5.334364,23,91432.6761
2.039565,22,91432.856305
2.755582,22,91433.043637
3.822851,28,91433.277027
1.857915,21,91433.446831
-1.688672,20,91433.609911
-6.950555,20,91433.768651
-2.457289,26,92343.773559
0.615911,20,92343.91942
6.524134,24,92344.084284
6.987971,34,92344.315814
2.850287,25,92344.49718
9.189354,32,92344.706774
9.398011,20,92344.839132
-1.959334,28,92345.019053
-4.514433,21,92345.164515
4.552202,25,92345.341159
1.382843,21,92345.478496
-7.073665,17,92345.59521
-1.816099,24,92345.758215
-0.216334,22,92345.901492
6.012907,23,92346.05496
-2.231126,20,92346.192992
7.684599,23,92346.343435
0.376519,22,92346.490272
8.413144,30,92346.69339
10.43014,30,92346.900561
9.411192,24,92347.065196
0.989585,21,92347.210171
0.980647,21,93097.28098
0.640823,26,93097.449849
3.985212,22,93097.59482
-8.254669,22,93097.740493
5.311146,31,93097.950289
2.806103,21,93098.087602
-0.640648,26,93098.257462
2.494146,20,93098.390875
-20.523247,18,93098.507984
-1.197806,20,93098.635575
-0.800167,22,93098.786244
2.141606,20,93098.924575
0.59136,20,93099.060556
15.264282,29,93099.24827
5.397811,24,93099.411367
3.207571,22,93099.560145
-2.530168,20,93099.698188
2.535875,21,93099.839739
5.335565,22,93099.98529
4.0995,23,93100.136342
-3.150553,20,93100.275214
1.659782,20,93100.40881
-12.38023,20,93100.549874
-11.204744,17,93852.074219
4.974308,31,93852.284211
3.171677,20,93852.413174
3.223854,21,93852.554561
-9.306412,20,93852.69252
-3.218359,23,93852.848151
5.139468,30,93853.056773
-1.339463,19,93853.179504
3.324273,20,93853.319347
1.194401,28,93853.507823
9.022777,26,93853.691878
-17.09951,17,93853.809105
-3.155066,23,93853.968878
4.115989,28,93854.165577
-2.729092,20,93854.306332
-6.898564,19,93854.43006
-0.329971,20,93854.559098
14.641757,35,93854.794987
2.781112,20,93854.930807
-1.971865,18,93855.054324
-8.338157,20,93855.192124
0.647865,23,93855.354472
0.14484,19,93855.480972
5.336529,24,94605.59031
-16.696516,19,94605.722446
2.583429,23,94605.875446
2.366528,24,94606.028575
-0.314561,21,94606.170997
-5.503842,20,94606.30634
0.28292,21,94606.445456
-9.386251,18,94606.572521
1.903249,22,94606.725428
6.200184,23,94606.882683
1.167249,22,94607.036307
0.391604,21,94607.184225
-3.679047,19,94607.31794
3.270803,22,94607.463965
2.070206,21,94607.606395
-0.653331,20,94607.738259
7.226152,26,94607.912502
5.708141,26,94608.094253
10.166719,26,94608.268183
-3.717668,20,94608.405926
-9.162569,18,94608.522865
3.328977,25,94608.700309
3.013138,20,94608.829414
-0.355103,22,95358.312526
5.380879,23,95358.477194
0.56163,20,95358.624374
6.711587,23,95358.784408
-1.398701,20,95358.917315
3.73477,25,95359.090012
6.418899,22,95359.244351
6.030944,22,95359.39913
-1.077216,22,95359.542906
-4.072829,23,95359.701003
7.920962,24,95359.870506
-0.870562,19,95360.003631
2.879199,20,95360.133827
6.602741,21,95360.268799
-3.252177,21,95360.407059
2.408252,20,95360.547024
1.629322,20,95360.688543
2.136387,21,95360.831628
2.137071,20,95360.969618
5.64055,22,95361.128579
0.336805,21,95361.266186
3.012683,22,95361.416858
3.853913,22,95361.570133
-2.431209,22,95361.720065
-11.018714,18,96112.912086
7.531296,21,96113.047665
2.956012,21,96113.190148
-2.264041,20,96113.329251
8.594684,23,96113.486173
7.062404,24,96113.646487
-4.395933,21,96113.789348
1.741081,20,96113.925276
8.505112,25,96114.099961
-3.24114,21,96114.238356
-5.97241,22,96114.386871
1.330162,21,96114.529291
3.372522,22,96114.676225
2.034767,20,96114.80653
4.027506,20,96114.939943
-1.587792,19,96115.067102
4.720956,21,96115.204504
6.665134,22,96115.359443
1.256056,22,96115.502648
1.676582,26,96115.675636
-1.575838,20,96115.80757
-0.25801,26,96115.976329
-8.004632,18,96116.09823
-16.257001,19,96116.226629
11.291728,24,96867.04283
1.091662,23,96867.197994
7.438728,23,96867.35758
7.011251,22,96867.500433
2.528049,27,96867.670938
2.737405,22,96867.81354
6.128663,21,96867.962876
9.292183,21,96868.103406
4.907273,20,96868.248128
3.506084,23,96868.411285
-4.75754,22,96868.56531
-0.600771,21,96868.70706
-3.417831,20,96868.846908
-3.075263,19,96868.970005
1.932156,21,96869.111446
2.435191,21,96869.250944
1.027876,19,96869.376801
4.481892,21,96869.520496
-4.033216,20,96869.654507
-0.493238,20,96869.785707
4.895558,21,96869.925984
0.287839,20,96870.058934
7.380632,21,96870.202149
1.584114,20,96870.33441
-1.28698,20,97622.339254
3.576044,22,97622.485701
5.218101,22,97622.632476
6.231442,20,97622.758149
6.16971,25,97622.933051
-8.148008,19,97623.067714
4.522287,23,97623.224718
2.128407,20,97623.359649
2.526193,22,97623.505378
8.702457,21,97623.655851
2.670782,19,97623.794549
-11.125356,18,97623.913973
5.363216,22,97624.06888
-9.268516,17,97624.181735
-2.954696,19,97624.310331
3.70274,22,97624.457505
1.557061,22,97624.602703
1.800766,21,97624.737909
-0.749979,20,97624.875178
2.420478,24,97625.040241
-2.789317,22,97625.191343
2.622616,20,97625.335438
2.456865,21,97625.477249
-0.996655,20,97625.613874
-2.336588,21,98376.551975
-2.322021,19,98376.664965
1.834897,20,98376.805531
-7.338216,20,98376.942241
3.083606,24,98377.102876
-3.011311,19,98377.235672
7.706399,28,98377.420942
2.766594,21,98377.56541
8.165475,23,98377.714886
3.260303,21,98377.84764
-2.085106,20,98377.982644
8.040053,23,98378.148132
5.987413,26,98378.330063
-0.931445,23,98378.481219
-1.381581,22,98378.636261
5.991294,22,98378.785318
-1.865558,19,98378.917339
0.591439,25,98379.079581
-0.492706,24,98379.242231
-6.429035,20,98379.376461
3.491148,22,98379.526163
-6.238692,22,98379.66382
4.759421,20,98379.797454
3.370737,25,98379.961813
-1.7814,21,99130.724848
1.568009,22,99130.869429
4.151127,23,99131.037428
-1.669262,21,99131.176205
0.323846,20,99131.311988
3.302733,20,99131.453854
0.122987,23,99131.612726
9.393389,29,99131.813569
0.58757,24,99131.982413
-0.40857,21,99132.128555
-2.000915,22,99132.279133
6.171019,22,99132.422265
0.567622,23,99132.576453
5.494679,24,99132.73805
-29.776785,20,99132.87661
2.315362,25,99133.055331
1.356125,20,99133.186393
4.84276,23,99133.342424
5.535234,24,99133.495212
2.933197,21,99133.64976
0.122972,19,99133.786346
0.139167,25,99133.96059
0.612775,21,99884.359691
11.323486,26,99884.537079
6.095044,26,99884.707485
-12.451185,27,99884.888587
3.56513,20,99885.026642
2.883127,25,99885.192908
10.614195,28,99885.379752
3.135634,21,99885.524249
2.326931,21,99885.66705
6.254676,25,99885.84578
2.564476,22,99885.999861
5.224611,24,99886.16136
-1.03763,20,99886.306648
-1.495495,21,99886.438235
1.963021,21,99886.587219
4.692259,22,99886.736429
-4.105952,20,99886.875114
1.421513,23,99887.023219
4.358022,28,99887.217202
17.458794,29,99887.426525
-4.147609,19,99887.541955
2.748635,21,99887.68124
3.332338,20,99887.811147
8.827703,22,100639.262561
4.403127,22,100639.412945
3.963203,23,100639.573161
6.204232,23,100639.724835
2.497402,29,100639.924299
2.817497,21,100640.063738
0.455496,20,100640.199758
13.373073,35,100640.437464
4.701635,23,100640.598278
3.937876,21,100640.739286
1.648234,20,100640.868993
-0.343228,25,100641.036531
-5.274768,27,100641.22225
4.697993,28,100641.408539
-1.479368,20,100641.546673
1.78323,20,100641.685432
2.24255,21,100641.824569
-0.377069,22,100641.973596
14.445185,28,100642.166033
5.733405,21,100642.307412
1.939448,21,100642.443593
0.661955,20,100642.583858
-1.118539,21,101393.408667
-1.533526,21,101393.558395
4.194683,21,101393.709145
3.90062,31,101393.913364
6.086719,23,101394.068632
5.597979,21,101394.215352
-2.651659,20,101394.354264
5.323956,23,101394.511151
-7.746391,20,101394.650991
1.294366,24,101394.824121
9.065075,25,101394.99397
-0.664722,20,101395.129044
4.782129,21,101395.2692
3.649923,21,101395.421195
10.788864,22,101395.57328
-21.050548,19,101395.703357
2.758348,29,101395.898211
0.24317,23,101396.050122
8.358604,25,101396.218346
-2.645673,19,101396.342042
5.915219,20,101396.481375
2.577062,23,101396.63981
3.736734,21,101396.786336
-6.293598,19,102148.532137
-2.506463,23,102148.687879
-2.95382,22,102148.837554
-0.129321,25,102149.001114
5.174442,25,102149.168609
3.203156,19,102149.311858
-5.789127,18,102149.431031
-6.91491,18,102149.552073
-5.580104,23,102149.70691
3.234356,21,102149.848024
-2.398322,20,102149.980475
2.392892,20,102150.11886
4.031068,22,102150.2701
-2.492637,20,102150.408233
-0.278469,20,102150.536438
-8.504758,20,102150.672717
0.69088,22,102150.826048
-1.97526,21,102150.964896
9.584355,25,102151.135375
-7.391783,19,102151.272723
3.553513,24,102151.441043
-1.10344,19,102151.569415
0.09488,19,102151.707407
3.465792,25,102151.875295
1.227583,23,102903.086881
6.7993,23,102903.235624
-2.672082,21,102903.36849
-2.886876,20,102903.512183
-4.47018,18,102903.63532
-19.253307,18,102903.752011
2.405687,23,102903.909787
2.631142,24,102904.075954
2.5498,19,102904.208721
1.054815,19,102904.3417
1.309478,23,102904.496393
2.230711,21,102904.631427
2.777847,22,102904.779316
5.247984,23,102904.942127
5.428841,21,102905.083528
8.164338,23,102905.243889
-4.711355,24,102905.410388
6.506709,20,102905.549444
-6.064577,20,102905.692764
2.365593,25,102905.853344
-1.570056,19,102905.982294
-15.6616,17,102906.096136
6.142566,27,102906.27582
4.358192,31,103657.021673
2.110451,19,103657.14462
-3.338689,21,103657.294796
6.671494,22,103657.441351
6.32243,24,103657.603817
5.071269,22,103657.756915
2.702215,31,103657.962508
3.070621,24,103658.124447
3.32404,20,103658.25625
-0.356516,19,103658.38787
0.217775,22,103658.537004
6.224674,24,103658.684721
-3.933708,18,103658.804666
4.324996,22,103658.952163
7.447509,28,103659.136782
2.322737,24,103659.297556
12.669478,36,103659.540041
1.672229,21,103659.682307
-1.122671,24,103659.848162
1.214445,24,103660.011632
5.311576,22,103660.169223
-2.917065,20,103660.302698
0.479905,21,104419.321414
3.379953,24,104419.498405
2.371088,26,104419.686618
-4.440227,18,104419.820912
12.301877,26,104420.001555
-12.541061,17,104420.117429
0.449273,31,104420.328071
14.970568,26,104420.515027
-10.434625,17,104420.646429
-3.501336,19,104420.776501
6.618218,25,104420.951631
-4.934648,21,104421.096281
-1.586291,21,104421.240474
-4.542833,21,104421.394188
0.692422,21,104421.543892
0.975608,20,104421.686003
3.390201,25,104421.855441
3.07103,22,104422.00902
6.008203,20,104422.150256
0.15263,20,104422.284889
7.630895,25,104422.463711
1.496124,26,104422.645896
-3.434499,18,104422.780271
0.873419,25,105182.110951
1.952096,19,105182.240184
6.245513,22,105182.398578
3.289002,22,105182.551143
9.285279,28,105182.746473
2.622389,21,105182.905429
2.460979,21,105183.049647
3.668587,31,105183.261655
1.089442,23,105183.427238
2.151366,21,105183.576653
3.597855,21,105183.718009
6.121066,23,105183.882466
9.913721,29,105184.088456
-0.192417,23,105184.246045
10.219207,25,105184.427001
2.268064,30,105184.633942
1.638815,21,105184.781336
-11.224933,17,105184.907208
4.20137,21,105185.057443
-0.484765,23,105185.224978
1.273659,23,105185.384929
0.238769,20,105185.527401
1.521777,29,105945.071538
10.206501,28,105945.272573
3.903501,22,105945.431575
7.491789,27,105945.627104
5.034677,22,105945.782002
9.407199,24,105945.949621
7.429959,23,105946.106189
0.450727,22,105946.262277
-0.907467,20,105946.402072
-0.492218,26,105946.59295
-1.498989,21,105946.742162
-3.961275,20,105946.885522
6.05039,20,105947.036786
-1.223351,30,105947.246824
7.49157,27,105947.443483
1.737039,22,105947.598112
22.671659,32,105947.822034
12.949611,38,105948.083611
-2.95496,25,105948.266879
6.119743,23,105948.42545
3.895393,22,105948.579988
4.716945,22,106707.402004
-1.453025,23,106707.570217
-2.209256,23,106707.723091
0.120551,19,106707.848861
4.524082,21,106707.993481
-8.130391,19,106708.130673
-2.515314,22,106708.288217
-0.523806,19,106708.425653
0.317307,21,106708.566335
1.70387,24,106708.748811
0.062277,21,106708.896822
9.164572,30,106709.112742
4.345098,22,106709.26436
-3.126451,22,106709.412843
13.762337,25,106709.577556
9.621444,23,106709.742374
-11.332483,18,106709.880369
-2.582515,29,106710.092188
5.146233,23,106710.248854
4.862757,29,106710.45396
8.985915,27,106710.642217
0.134044,21,106710.782287
-2.86021,20,106710.927134
1.857332,23,107470.091461
-3.675895,18,107470.216308
1.630778,20,107470.358397
-0.309072,21,107470.512362
-1.095413,23,107470.670655
1.265097,31,107470.882831
-0.391329,21,107471.030041
4.889923,30,107471.248619
9.335533,33,107471.478402
2.68851,25,107471.656529
7.112748,20,107471.792691
2.343935,20,107471.933571
4.618433,31,107472.154353
8.638777,28,107472.341194
-34.326506,20,107472.486799
3.411674,30,107472.69826
-0.047797,22,107472.853666
2.749943,34,107473.095313
15.390291,39,107473.364554
-5.825696,23,107473.527996
0.601458,39,108228.923774
11.714167,25,108229.089747
-3.856878,33,108229.314569
6.503933,24,108229.490066
-1.779376,20,108229.629781
8.862961,30,108229.834188
2.078775,21,108229.976466
4.953428,21,108230.115124
1.722258,28,108230.318019
-2.901254,28,108230.507282
1.635746,32,108230.732708
17.307739,41,108231.015006
13.2373,33,108231.237507
2.333613,44,108231.532736
-16.351601,17,108231.652929
12.177752,34,108231.893925
-4.023816,20,108232.030943
1.906001,21,108232.17497
-5.595882,31,108984.457867
8.413956,23,108984.626228
8.359023,36,108984.877216
17.108221,33,108985.108369
4.378284,27,108985.29079
14.054407,29,108985.477959
-8.166878,26,108985.664734
4.158437,21,108985.809925
0.265929,21,108985.954232
-4.188374,20,108986.098676
1.243057,23,108986.250669
3.366492,27,108986.442661
3.118592,25,108986.616985
-3.493683,18,108986.739425
-7.571341,22,108986.89175
4.168598,28,108987.084668
5.555696,28,108987.271662
-1.706315,22,108987.419824
5.513485,22,108987.569524
3.065194,20,108987.705974
16.092549,28,109739.382675
12.574337,35,109739.621878
-3.371394,24,109739.777748
15.904028,30,109739.982077
-3.995934,18,109740.106204
-13.532379,19,109740.231758
6.405567,32,109740.450847
14.474711,29,109740.654078
3.216303,21,109740.787891
5.583801,32,109741.023314
13.303257,38,109741.290376
15.058362,36,109741.54801
6.863995,24,109741.704677
-11.536114,27,109741.886441
16.741768,35,109742.119367
-2.517058,20,109742.26016
7.514945,27,109742.439318
-5.582405,20,109742.579031
18.164834,33,110494.839415
-4.032179,25,110495.016955
-13.205229,18,110495.132872
-4.630344,23,110495.277321
-1.585796,25,110495.448273
2.515745,21,110495.583303
0.08329,24,110495.746294
-7.214667,18,110495.871732
5.267143,36,110496.116763
-4.761538,19,110496.253507
6.11746,31,110496.450647
-0.977867,19,110496.572338
-3.36295,26,110496.747515
4.299706,24,110496.911363
-4.44899,24,110497.076074
-1.380223,21,110497.210855
8.258927,33,110497.440497
4.608721,25,110497.615101
-0.175593,20,110497.745814
-2.809217,23,110497.905413
1.008713,23,110498.052094
0.443416,29,110498.255081
4.325933,30,111249.299034
6.296394,31,111249.500695
6.268022,27,111249.674686
-3.298951,20,111249.801162
-1.09543,32,111250.017115
0.360676,21,111250.161468
1.366584,20,111250.302117
15.158375,43,111250.591381
4.700794,29,111250.790154
6.111196,22,111250.929018
17.915638,33,111251.152853
-5.762548,19,111251.274922
-0.289955,20,111251.409163
-2.582154,20,111251.551233
2.190017,25,111251.716933
1.422654,23,111251.87591
0.420489,25,111252.042628
5.860392,28,111252.232412
2.277311,29,111252.423994
-5.222938,36,112002.864798
-2.078624,25,112003.030797
10.714234,35,112003.258353
-1.642047,25,112003.425391
-12.107661,25,112003.585446
3.556438,31,112003.7908
7.73737,29,112003.976804
13.337374,33,112004.198945
15.437868,29,112004.394526
13.110893,30,112004.597912
-0.17634,20,112004.731509
19.387289,38,112004.989302
4.063606,26,112005.165258
7.053349,27,112005.345808
-6.320182,21,112005.485408
14.507775,24,112005.656961
12.17293,36,112005.896447
1.610698,21,112006.041175
1.470199,24,112757.199269
-1.14666,20,112757.328054
5.151858,24,112757.48728
1.787845,21,112757.624806
3.826906,29,112757.821467
18.253106,35,112758.060085
-4.310416,20,112758.193985
9.814701,28,112758.376161
-0.59867,25,112758.532039
17.535555,39,112758.808417
-6.152417,24,112758.978177
-11.393708,19,112759.105789
-7.327886,21,112759.24155
-3.739801,18,112759.36203
6.202704,26,112759.536117
0.860306,23,112759.69005
-8.527308,22,112759.838983
19.001676,33,112760.063481
-6.143652,19,112760.185427
-4.008493,20,112760.323152
-12.790279,22,112760.472905
-5.056828,21,113510.820343
8.457308,34,113511.037995
0.834409,20,113511.170992
9.999307,28,113511.364205
-3.48554,22,113511.521734
-6.024195,26,113511.701992
11.385348,32,113511.910397
8.235731,29,113512.098207
4.299871,28,113512.288748
5.489728,21,113512.429657
27.131225,45,113512.729418
12.839459,31,113512.926611
-0.970409,21,113513.065611
1.864387,22,113513.20999
3.833131,21,113513.35214
-1.224801,22,113513.501121
2.694098,31,113513.698543
-0.851089,20,113513.836074
3.078882,28,113514.027626
2.827209,20,113514.159556
10.844281,34,114265.617164
-0.421297,23,114265.775846
2.565013,27,114265.95215
8.532464,31,114266.155155
-0.667898,36,114266.400754
6.490907,32,114266.616295
8.580495,30,114266.811396
-1.439038,20,114266.943319
-4.006361,30,114267.141088
7.344927,39,114267.389468
-2.186748,27,114267.569023
8.12697,27,114267.757931
-7.768922,23,114267.912072
-15.004072,40,114268.171186
-4.826515,22,114268.313354
-0.426151,36,114268.554987
1.295697,25,114268.719711
2.070512,20,115019.728961
3.677842,20,115019.85754
16.63185,36,115020.100028
-1.545555,20,115020.230264
-5.836037,21,115020.369528
1.705132,28,115020.554848
7.047366,24,115020.703578
4.92733,26,115020.882529
5.19895,29,115021.092054
-3.878481,23,115021.244812
3.199174,25,115021.407579
-3.77666,23,115021.561227
16.915227,36,115021.798635
10.419138,34,115022.029082
-5.75124,20,115022.165026
10.126648,29,115022.357217
-0.723498,33,115022.574981
3.639854,37,115022.820053
-9.082392,18,115022.938932
0.690481,21,115023.085181
3.992161,24,115774.619424
-5.148774,20,115774.766502
-0.179177,21,115774.917991
9.181476,33,115775.125695
0.272624,30,115775.32132
30.119589,42,115775.596964
11.465558,35,115775.838252
18.032862,36,115776.080703
1.96094,24,115776.238022
1.205772,22,115776.384465
-0.395915,29,115776.578605
-3.707435,25,115776.745395
3.061027,29,115776.939839
5.263046,32,115777.153919
-7.191105,21,115777.295749
-4.421462,19,115777.41206
5.073771,28,115777.59495
8.85884,29,115777.773843
22.714261,38,116527.414932
20.759842,41,116527.685376
-3.020578,22,116527.837032
-7.598256,18,116527.962447
3.42965,26,116528.136834
0.806391,28,116528.320848
4.483221,23,116528.466026
14.877562,38,116528.718224
19.494924,38,116528.977005
12.347617,28,116529.165543
-6.270826,21,116529.3056
-0.580333,26,116529.47726
2.17429,32,116529.704295
4.853621,30,116529.912838
7.770892,41,116530.180434
2.532277,20,116530.31124
7.404798,34,116530.538176
3.517756,25,116530.703837
-10.151467,27,117279.847071
-0.080819,22,117279.994106
0.768544,23,117280.153547
2.750777,27,117280.332206
12.924963,33,117280.552913
-3.526469,22,117280.698962
6.786072,30,117280.901115
-0.858882,30,117281.096839
16.88922,35,117281.333743
-4.158931,20,117281.462486
0.053208,21,117281.600723
6.328147,34,117281.81551
-3.308839,21,117281.95741
12.966166,44,117282.250076
-0.733696,23,117282.4034
15.299868,32,117282.621544
1.292015,44,117282.91209
-3.484566,20,117283.044494
2.600412,30,118033.372397
-3.676582,23,118033.535528
7.639276,27,118033.716812
1.435252,24,118033.864424
-4.094523,27,118034.047382
-2.619077,33,118034.263097
-2.448116,21,118034.405539
9.445979,38,118034.662761
3.216698,32,118034.875806
-1.24621,22,118035.019793
-8.646835,27,118035.199887
0.661013,42,118035.474583
-4.616604,31,118035.684923
7.644796,29,118035.868879
-15.469242,30,118036.069753
-1.040234,24,118036.23363
-5.222501,22,118036.382907
-1.920025,25,118036.553499
-1.651849,23,118787.589286
-13.91068,18,118787.706585
-0.73885,22,118787.850747
-4.195864,24,118788.013594
-3.530967,22,118788.155207
0.831322,22,118788.297243
7.998714,30,118788.496221
12.437609,37,118788.739496
10.959918,30,118788.935819
32.981892,43,118789.213603
11.013986,44,118789.486465
21.40507,41,118789.768665
2.393254,31,118789.974207
9.621586,34,118790.197803
13.5645,36,118790.435582
2.836621,33,118790.64265
16.30772,36,119542.768415
-3.924868,23,119542.915985
17.882647,38,119543.17129
-6.517753,18,119543.288298
-11.48631,19,119543.41731
-1.818308,34,119543.64621
-9.932938,18,119543.766975
10.336455,32,119543.974432
-5.357523,23,119544.127494
-16.482555,18,119544.250134
7.32999,30,119544.444067
0.877162,23,119544.600531
-7.036624,20,119544.730966
-8.830261,26,119544.892199
-9.024082,21,119545.036604
-4.391581,33,119545.263053
-0.320006,22,119545.402282
-6.117766,18,119545.524128
15.276247,34,119545.76512
-7.899583,21,119545.893525
5.875666,35,119546.124247
-9.582129,32,120297.357743
-1.250531,29,120297.550474
-3.287913,19,120297.676544
-1.378914,26,120297.847523
3.741086,26,120298.026802
-0.271376,32,120298.234528
-11.564325,18,120298.367655
9.593916,37,120298.603211
-7.490725,20,120298.731632
21.096657,40,120299.001555
5.665143,30,120299.20451
-10.465611,18,120299.329678
-12.254611,17,120299.442181
5.84195,30,120299.646877
4.319526,26,120299.806981
6.948196,31,120300.019101
-0.960349,20,120300.151927
2.211541,19,120300.276672
-3.377185,19,120300.403152
-11.58782,28,121050.732207
-3.514433,22,121050.876348
-13.596319,18,121050.993708
-4.589404,25,121051.157344
-18.535392,35,121051.389041
12.256328,28,121051.569353
-4.81626,23,121051.718769
1.091263,32,121051.935707
17.543566,40,121052.208513
-0.451156,23,121052.360324
-9.179002,18,121052.473017
0.453925,54,121052.817581
-4.533637,22,121052.963799
13.304594,28,121053.143595
-6.429698,19,121053.267176
-8.335201,20,121053.401513
5.88632,34,121053.623742
9.113654,31,121053.821786
20.691405,44,121805.126637
7.736584,32,121805.33836
15.491198,39,121805.595036
-1.964949,20,121805.72836
13.22493,36,121805.965573
11.661557,44,121806.264834
-9.55368,25,121806.434149
2.369764,21,121806.573126
24.120724,42,121806.853646
-12.211121,31,121807.064218
-20.708391,45,121807.354072
10.197266,31,121807.550941
14.707039,53,121807.898956
11.360878,30,121808.097661
0.724953,35,121808.32399
3.964506,33,122560.774681
-1.555922,26,122560.940776
2.56726,33,122561.168489
15.236933,35,122561.419318
-3.033084,21,122561.556876
-6.63111,25,122561.724371
1.413125,27,122561.906212
11.414359,31,122562.112057
0.286362,37,122562.369021
-2.106002,29,122562.565013
6.230361,35,122562.785302
7.731414,29,122562.966683
9.119733,34,122563.180167
7.707866,30,122563.379138
-3.630136,26,122563.545027
16.843158,38,122563.792223
10.130051,33,122564.007244
6.199328,24,123316.146466
5.827789,30,123316.347268
-8.223047,32,123316.567315
16.077982,41,123316.835925
-7.531087,26,123317.013856
8.92776,31,123317.21322
-13.022705,18,123317.32998
-10.097769,21,123317.467175
-2.143001,21,123317.604732
21.507808,35,123317.834393
7.532736,42,123318.11782
26.120282,40,123318.3765
-0.297964,22,123318.52676
-0.949957,27,123318.697898
-4.620099,21,123318.835714
5.814724,29,123319.03799
-5.579161,29,123319.235353
11.268821,33,123319.453155
-5.794978,18,124069.585054
-17.063882,27,124069.761473
17.858919,37,124070.014793
-1.395312,32,124070.231447
-7.577883,20,124070.358343
15.755256,42,124070.640279
-0.202817,27,124070.814725
11.337598,29,124071.011011
-10.484484,22,124071.15776
9.881,33,124071.370994
12.941419,32,124071.57525
-2.771571,26,124071.732077
0.072744,42,124072.012556
0.25058,28,124072.198612
14.234127,40,124072.464756
14.943583,38,124072.708783
-1.273032,20,124072.842723
1.760497,51,124824.042744
15.085742,31,124824.253404
5.554669,35,124824.485675
-2.62114,36,124824.726481
16.345393,47,124825.032117
-4.27443,20,124825.156909
-3.880984,21,124825.293469
13.449076,40,124825.553837
-3.448995,25,124825.718007
10.408749,36,124825.958756
-6.304978,20,124826.0842
0.076217,21,124826.223685
-19.598221,19,124826.347818
-3.354517,22,124826.48789
6.959198,36,124826.721927
-4.75748,20,124826.860993
17.989916,36,125577.493607
34.115978,53,125577.842476
4.631573,35,125578.08581
-3.052147,23,125578.239247
29.230197,47,125578.555825
29.798217,44,125578.843459
-3.47027,24,125579.00066
10.805281,37,125579.236703
-9.776275,25,125579.397298
21.043744,40,125579.662532
-11.864735,18,125579.779924
3.342592,33,125579.989973
-4.935956,20,125580.116803
-14.074993,17,125580.223688
13.220031,39,125580.473242
0.48179,27,125580.655774
1.450161,27,126332.037028
-2.119639,26,126332.209029
11.088446,39,126332.461422
-1.155178,33,126332.681675
0.663648,22,126332.828596
-13.679195,45,126333.122456
1.538495,25,126333.286264
-0.626414,27,126333.45407
-5.357225,20,126333.584337
-5.583117,25,126333.75227
-11.153071,23,126333.911757
-15.934893,22,126334.060047
-0.271133,20,126334.190658
6.679551,45,126334.476097
-10.727618,19,126334.599258
16.728587,44,126334.892644
11.050926,38,126335.150959
0.57524,21,126335.284117
-5.171207,21,127093.394598
5.028576,31,127093.597153
23.340955,44,127093.910817
15.722058,45,127094.228138
-23.485044,17,127094.348581
12.820924,34,127094.58421
-26.365596,19,127094.720001
32.920126,46,127095.054539
20.167627,37,127095.319845
0.00227,28,127095.520735
-6.707164,23,127095.684051
10.703055,35,127095.932574
-9.965149,21,127096.090412
24.098265,38,127096.345047
4.136573,35,127096.593247
10.642951,33,127096.821437
4.845577,34,129394.854102
-6.129142,20,129395.27256
23.523833,40,129396.028837
13.515046,37,129396.763499
-0.4213,26,129397.247649
7.044768,37,129397.993652
-8.115292,24,129398.451999
-10.586447,39,129399.246257
-1.03527,34,129399.977065
-16.224826,18,129400.303473
22.232951,38,129401.057108
19.461169,38,129401.788662
6.524203,38,129402.503198
-10.844453,28,129403.018279
-4.479581,24,129403.514256
11.56224,36,129404.169876
-8.376145,47,132379.605164
1.586114,36,132380.271245
11.066894,38,132380.952744
14.311968,43,132381.77643
19.131214,41,132382.600352
-2.861909,22,132383.030146
3.587564,47,132383.987852
6.799557,40,132384.751543
11.325323,42,132385.666994
2.909008,27,132386.209253
12.044818,41,132387.014207
3.665355,28,132387.57787
-7.09637,22,132387.955793
-7.296632,22,132388.360544
4.804073,41,135349.511475
-2.682022,34,135350.249413
-5.527659,21,135350.648068
11.579766,39,135351.486505
6.901204,34,135352.116668
7.553831,41,135352.912915
13.608377,38,135353.696645
3.584372,41,135354.522025
-0.004535,27,135355.043415
-1.049064,26,135355.5212
-3.462741,33,135356.173819
-3.957369,37,135356.882577
-20.819763,17,135357.241645
-10.11369,20,135357.634417
7.113112,31,135358.26533
-3.162851,20,135358.683272
9.580202,41,135359.50611
-7.708181,22,138302.444599
-25.251615,42,138303.196268
19.306352,41,138303.94269
5.707514,43,138304.781225
-15.021091,18,138305.113094
18.041785,36,138305.837435
-8.04121,20,138306.234464
20.096191,46,138307.291966
6.040754,29,138307.923038
-16.927017,19,138308.296702
18.849616,36,138309.057285
17.464386,38,138309.763758
4.97583,35,138310.429804
8.202568,37,138311.081048
2.760262,29,138311.632355
8.695733,42,141304.71666
-12.936634,26,141305.249496
-7.193594,20,141305.635785
-14.73589,25,141306.071993
4.970961,35,141306.766352
19.705395,38,141307.462262
5.753204,32,141308.087641
-5.924946,19,141308.437096
-4.876755,20,141308.863613
-2.990281,25,141309.366155
9.082232,35,141310.09347
-10.014728,30,141310.706465
3.107478,42,141311.623747
-0.120146,21,141312.04798
0.706211,33,141312.710911
9.231339,37,141313.433912
-9.546388,25,141313.916129
-10.314612,22,141314.335981
-11.231789,25,144316.715396
-7.404736,21,144317.103904
8.822539,38,144317.794504
-0.376917,38,144318.540938
-20.290374,34,144319.202122
8.814451,40,144319.966274
7.839953,37,144320.781496
-3.29508,20,144321.175432
-0.962592,19,144321.622375
-9.217224,18,144322.001816
4.276842,34,144322.726522
-20.514332,31,144323.345985
16.903954,40,144324.165821
-4.251038,22,144324.573909
-8.168298,18,144324.907128
20.782695,49,144325.825078
14.749709,34,144326.50236
20.375647,44,147314.20582
-2.789457,20,147314.627108
9.982604,40,147315.494094
2.86324,29,147316.070021
8.843337,37,147316.842464
10.095977,31,147317.494004
6.674808,50,147318.504439
0.653081,37,147319.319613
-14.506869,17,147319.684134
3.744555,34,147320.425266
19.030898,35,147321.18281
-5.692208,20,147321.654222
3.219265,36,147322.384621
-11.684489,38,147323.180636
-5.811987,23,147323.716449
7.367272,40,150259.707219
-6.420655,21,150260.167704
-12.786317,22,150260.678935
0.224174,21,150261.127732
-16.305421,26,150261.70715
0.698242,29,150262.377869
-7.573472,19,150262.784452
22.568333,38,150263.605729
9.289243,36,150264.430406
0.029562,20,150264.838176
29.740975,47,150265.889203
19.515694,44,150266.87179
7.133037,42,150267.77792
-13.923223,16,150268.173464
4.110928,33,150268.914144
-9.005031,28,150269.520867
11.583386,41,150270.516451
-12.390554,33,153219.196596
8.397466,32,153219.91416
-8.939868,24,153220.502718
12.151224,39,153221.42434
-3.087097,29,153222.076193
4.123991,35,153222.83411
-2.552792,33,153223.619243
-2.607481,22,153224.09193
4.336172,38,153224.943317
13.053063,39,153225.786
-4.849106,41,153226.697825
13.127493,42,153227.611305
17.824651,43,153228.567064
12.690856,35,153229.38456
-16.256739,20,153229.871938
5.540403,34,156174.456078
0.351699,20,156174.887636
25.136539,41,156175.806617
5.069415,33,156176.488067
2.698876,33,156177.23016
21.319734,37,156178.045877
-3.604653,22,156178.530609
4.559821,29,156179.204544
-3.752874,31,156179.896958
-3.344186,46,156180.976058
-9.164222,22,156181.513405
12.231183,43,156182.465089
15.487013,36,156183.270029
0.079638,30,156183.920892
-12.042085,26,156184.516235
8.836776,40,156185.375961
14.178796,36,159137.224725
-13.417477,30,159137.793028
2.712919,32,159138.44539
-24.61272,18,159138.801031
22.407872,43,159139.657301
6.658311,34,159140.267322
0.889343,32,159140.861676
-8.815665,30,159141.391634
-2.316994,25,159141.829798
-4.164502,32,159142.404751
0.088192,32,159143.002046
11.272725,37,159143.665059
6.165703,33,159144.301683
-9.900564,23,159144.722898
-15.360741,26,159145.240057
18.204731,35,159145.938071
-6.256359,19,159146.341912
17.211417,45,161192.554894
-4.970072,28,161192.870812
4.758957,40,161193.35198
-13.095991,57,161194.01909
-8.58931,36,161194.485584
5.491284,37,161194.948901
-1.685924,24,161195.234958
17.438896,44,161195.757484
9.409938,47,161196.288219
9.586262,36,161196.744553
-9.794174,37,161197.195561
-21.564374,21,161197.442664
-17.473428,28,161197.783165
-1.58911,37,161198.244215
-4.240881,24,163213.082204
5.513843,32,163213.482934
8.11755,35,163213.956367
17.875033,36,163214.384939
-8.226937,51,163215.021139
3.991324,34,163215.419523
6.169092,42,163215.904263
-6.210207,41,163216.401148
-1.676961,21,163216.651153
12.588097,40,163217.132732
11.004962,33,163217.532837
-8.005679,26,163217.828243
-15.083116,19,163218.056495
14.042668,43,163218.60321
-4.885913,22,163218.859132
-17.749732,43,165217.355608
-0.276812,37,165217.823565
-10.004713,19,165218.042818
-16.610208,23,165218.30751
34.975424,53,165218.936851
11.822777,35,165219.353823
-2.200948,29,165219.679025
0.7627,32,165220.073026
7.617229,31,165220.457081
-32.030705,47,165221.06586
6.081583,43,165221.643689
-0.837204,41,165222.164891
2.11709,34,165222.60447
-3.571696,22,165222.868182
-3.256084,30,165223.219635
-8.62926,23,167231.124986
9.799588,35,167231.502059
-17.671234,18,167231.704295
-16.093426,27,167231.998998
-7.091439,22,167232.23398
-13.543885,20,167232.433976
22.027418,46,167232.933035
-8.060978,19,167233.139194
38.9379,54,167233.741627
8.011644,37,167234.160115
-7.701849,22,167234.414912
0.584603,34,167234.80894
15.550894,42,167235.271344
-20.655062,41,167235.732301
-6.416354,21,167235.964878
-4.420968,27,167236.245479
1.905357,37,169249.93924
-11.063587,21,169250.174252
13.208923,35,169250.558108
-4.074742,22,169250.793858
-16.899959,20,169251.040012
-8.689992,22,169251.273908
-5.736564,32,169251.625587
-7.224837,25,169251.901185
-5.076892,36,169252.305778
7.141042,38,169252.725655
-11.839101,20,169252.945239
-1.899527,46,169253.472909
-2.665552,26,169253.759904
-25.16362,23,169254.019985
11.614339,40,169254.487369
20.318468,40,169254.921957
10.182781,34,169255.28978
-2.585364,32,171262.277919
11.946827,35,171262.67106
11.422682,34,171263.045438
-15.678321,25,171263.328894
13.368831,37,171263.727996
20.874584,38,171264.136312
-3.23393,37,171264.548688
9.264937,41,171264.995186
2.583251,52,171265.589182
10.920158,40,171266.048325
15.558162,45,171266.549742
-9.856662,20,171266.772827
-7.553655,22,171267.017923
3.158394,40,171267.46056
2.856931,27,171267.791397
17.746378,51,173275.956221
3.358337,44,173276.436235
-15.415896,21,173276.673645
-4.885137,31,173277.009672
-7.006138,20,173277.242512
0.057988,49,173277.820122
-0.292304,30,173278.161214
-6.090597,22,173278.398531
9.562157,38,173278.840303
7.580214,43,173279.307711
-7.604304,21,173279.531482
1.225806,37,173279.939254
-7.473669,24,173280.21094
-10.560979,21,173280.441037
5.038215,34,173280.810791
21.140833,39,173281.256107
