# {"t_start": 1548091955.8478816, "env_id": "RoboschoolHumanoidFlagrun-v1"} 
r,l,t
-37.805878,19,1.496173
-33.884417,17,1.642295
-37.664405,18,1.795753
-32.814291,19,1.986786
-44.254076,21,2.191023
-23.569742,19,2.358994
-39.813914,19,2.541302
-33.4016,20,2.723669
-46.568761,19,2.901236
-45.799725,19,3.0916
-36.766201,23,3.336396
-37.987643,20,3.528868
-30.023523,18,3.694396
-43.775374,17,3.858852
-27.559209,20,4.030282
-32.136363,18,4.21294
-62.02559,21,4.428878
-27.944265,19,4.60822
-29.187051,18,4.776982
-37.74812,20,4.982658
-45.055701,19,5.161266
-44.655976,19,5.333513
-35.573685,17,5.516331
-43.136952,20,5.704274
-36.337143,19,5.866089
-44.421235,20,6.06069
-34.388817,19,1093.458145
-32.902483,19,1093.625202
-36.319469,19,1093.796051
-47.487998,19,1093.965314
-64.87294,23,1094.182459
-40.39803,19,1094.390392
-40.851755,19,1094.593098
-55.293334,20,1094.78388
-28.32109,19,1094.968859
-50.107819,21,1095.169806
-28.544599,19,1095.359404
-29.365088,22,1095.595774
-28.717198,19,1095.786248
-30.069526,19,1095.963337
-35.118376,18,1096.134281
-30.464364,19,1096.316138
-35.738834,22,1096.531
-33.466196,20,1096.742388
-28.458229,19,1096.925965
-30.988478,19,1097.107742
-43.46819,19,1097.301025
-36.13352,20,1097.522074
-34.021676,19,1097.714872
-31.562247,18,1097.922242
-34.279843,19,1098.127086
-41.5599,17,1098.309921
-45.981514,18,1098.502529
-30.896737,18,2191.039875
-24.276089,19,2191.257431
-51.118993,18,2191.472733
-29.045092,20,2191.719412
-41.702856,19,2191.943715
-24.856259,19,2192.154218
-35.870543,18,2192.36181
-29.463694,20,2192.575556
-39.180794,13,2192.738204
-35.334239,20,2192.984175
-29.377743,17,2193.153543
-31.964228,20,2193.388684
-35.249272,18,2193.596515
-28.432491,20,2193.839304
-32.213669,17,2194.055818
-20.006918,18,2194.24269
-35.302717,18,2194.45305
-31.027714,18,2194.656581
-26.193838,19,2194.873963
-33.492184,19,2195.105014
-30.180032,20,2195.328737
-35.372322,19,2195.546636
-44.128916,22,2195.804476
-31.832923,19,2196.022238
-38.229083,30,2196.386519
-27.789175,18,2196.583958
-30.52175,19,2196.793639
-34.260103,22,3285.485057
-38.520432,19,3285.640063
-41.871283,19,3285.793141
-36.821115,19,3285.942344
-25.557684,18,3286.092289
-31.454098,20,3286.26176
-31.169081,18,3286.41795
-46.274583,20,3286.576676
-27.863882,20,3286.733102
-39.075129,18,3286.874864
-32.379354,20,3287.048547
-30.926852,18,3287.195951
-50.99896,18,3287.344226
-30.738625,18,3287.495301
-37.557254,21,3287.663206
-34.719316,18,3287.81296
-23.627985,17,3287.945084
-20.19937,19,3288.100046
-36.495989,20,3288.255591
-38.772315,18,3288.395849
-25.442816,20,3288.569826
-33.419061,19,3288.726717
-30.924165,17,3288.864153
-32.217717,20,3289.029253
-34.722195,19,3289.188861
-26.125638,18,3289.342865
-32.494178,19,3289.504027
-29.955908,18,4380.052573
-38.779251,19,4380.222365
-34.738285,22,4380.425281
-31.498705,20,4380.648996
-34.169455,22,4380.875998
-22.347201,17,4381.051004
-27.097441,19,4381.235034
-27.23953,17,4381.400885
-32.955239,23,4381.647949
-31.772257,22,4381.88533
-45.842582,22,4382.098289
-30.965463,21,4382.316009
-47.501717,19,4382.674725
-36.115549,18,4382.88928
-37.482333,19,4383.078021
-43.435862,32,4383.405196
-38.702869,21,4383.610463
-42.905259,20,4383.812362
-29.480952,19,4384.015977
-28.388411,19,4384.210868
-47.52707,19,4384.402808
-33.808079,19,4384.589086
-31.866827,18,4384.774104
-37.716607,18,4384.964457
-41.751158,19,4385.180546
-32.18948,19,5474.683273
-36.435293,18,5474.829
-28.934066,19,5474.999454
-28.201839,19,5475.153141
-34.226597,25,5475.360713
-28.111259,19,5475.520042
-37.006249,22,5475.697012
-27.025158,19,5475.854118
-22.765243,18,5475.998582
-44.852737,17,5476.156879
-38.631131,18,5476.304752
-38.803207,21,5476.480573
-20.705013,18,5476.630882
-37.782544,19,5476.781438
-24.914773,20,5476.943662
-20.01476,25,5477.149573
-27.938434,20,5477.339023
-33.322202,16,5477.472787
-19.143027,19,5477.634754
-34.104867,25,5477.844123
-31.643677,20,5478.012997
-22.640158,20,5478.181278
-37.258667,20,5478.342701
-22.411969,20,5478.525101
-32.807783,19,5478.685119
-18.949376,19,5478.838857
-32.750797,19,6568.376517
-28.168259,19,6568.570004
-24.905076,19,6568.756078
-22.91113,20,6568.969936
-31.390073,18,6569.144006
-17.391938,19,6569.360377
-31.17739,18,6569.556979
-29.684263,19,6569.76116
-32.766731,19,6569.952642
-27.059785,18,6570.141141
-22.150332,20,6570.341897
-27.302689,18,6570.523217
-32.021869,23,6570.766678
-28.219365,20,6570.987063
-30.074939,19,6571.179092
-29.298036,23,6571.415729
-31.471594,25,6571.679379
-42.641884,20,6571.898003
-21.16038,18,6572.078763
-26.669833,20,6572.289623
-26.951348,19,6572.484418
-30.880209,19,6572.670622
-39.315179,19,6572.869575
-30.489421,18,6573.081435
-31.100956,18,6573.272151
-37.221059,18,6573.458364
-35.522781,19,7664.289931
-30.915825,19,7664.459358
-28.234464,18,7664.611857
-26.9674,18,7664.7711
-40.95865,17,7664.920167
-32.792451,17,7665.064462
-33.283198,22,7665.251926
-25.387626,18,7665.419432
-28.558737,21,7665.625671
-20.337915,19,7665.808596
-26.70606,20,7666.00275
-33.398824,19,7666.186585
-40.185949,18,7666.360611
-24.341947,17,7666.522195
-25.766409,19,7666.716521
-25.400343,18,7666.886944
-39.114391,19,7667.08148
-31.036571,19,7667.282501
-24.06808,20,7667.489943
-33.72828,20,7667.723487
-17.700586,19,7667.951877
-27.596722,18,7668.162685
-19.695804,19,7668.36642
-25.913827,18,7668.568303
-30.373605,20,7668.788101
-28.133715,19,7669.005456
-24.289682,19,7669.229123
-34.258201,19,8759.119119
-24.222273,18,8759.320297
-40.90652,24,8759.573798
-37.897012,20,8759.78528
-22.322686,18,8759.978352
-25.06441,19,8760.168404
-20.836879,19,8760.370281
-27.731746,19,8760.578284
-23.123187,20,8760.783784
-47.615573,21,8760.996965
-54.712495,34,8761.326619
-22.844466,19,8761.507449
-23.945702,20,8761.721003
-26.387558,19,8761.903322
-21.665886,19,8762.076704
-32.100389,23,8762.289766
-28.786754,19,8762.462227
-26.904233,18,8762.624553
-21.406482,18,8762.810694
-36.647301,19,8762.995591
-30.852811,19,8763.173666
-29.241201,25,8763.407455
-40.962591,22,8763.60472
-12.265688,18,8763.773132
-21.523898,20,8763.985871
-27.712967,19,8764.168718
-24.998004,19,9933.159305
-15.012925,20,9933.416535
-52.141818,30,9933.822556
-26.3701,20,9934.101903
-31.480461,18,9934.330535
-22.916751,19,9934.559556
-28.702863,17,9934.791506
-30.214394,20,9935.072651
-35.912345,18,9935.305352
-29.95952,19,9935.553449
-33.760319,20,9935.824921
-30.002914,19,9936.07582
-19.021583,19,9936.321455
-15.147323,20,9936.573257
-28.303345,18,9936.838524
-23.313367,18,9937.063539
-33.787497,22,9937.366094
-22.981166,18,9937.639558
-24.737387,19,9937.907225
-31.578533,26,9938.256414
-30.740611,18,9938.518566
-20.751262,21,9938.786916
-31.894377,18,9939.030806
-25.83199,20,9939.31319
-26.319172,18,9939.574602
-26.937664,22,11074.133748
-29.770771,18,11074.32849
-31.227113,20,11074.540586
-21.010032,18,11074.738432
-34.000777,19,11074.947117
-34.344812,21,11075.165909
-19.355032,19,11075.369112
-25.720759,25,11075.651632
-36.825265,19,11075.868686
-25.70911,19,11076.084255
-23.405175,20,11076.304471
-26.796,19,11076.515135
-25.851537,18,11076.75066
-22.10234,19,11076.972248
-40.31028,27,11077.281792
-21.664481,20,11077.51382
-32.364913,20,11077.74721
-22.461165,17,11077.952649
-19.020873,17,11078.170826
-15.314682,21,11078.417177
-19.262706,19,11078.661323
-27.127954,19,11078.866556
-25.303952,26,11079.203182
-23.944424,18,11079.410769
-29.827696,19,11079.644969
-22.63375,19,11079.856676
-21.716375,19,12252.734921
-15.799564,20,12252.943322
-16.104937,19,12253.158907
-24.408058,18,12253.359766
-32.32836,23,12253.627364
-19.737257,18,12253.85574
-21.029184,18,12254.058137
-27.166146,19,12254.289109
-14.999969,19,12254.518407
-26.362641,20,12254.758913
-21.90032,18,12254.990167
-37.670693,19,12255.218888
-36.715643,18,12255.431303
-48.713919,20,12255.657657
-20.176138,19,12255.8712
-30.64689,24,12256.169223
-20.945451,19,12256.386716
-26.252418,18,12256.592204
-16.86715,19,12256.807116
-31.572809,20,12257.031132
-33.436011,17,12257.242494
-13.609834,18,12257.439875
-21.071374,18,12257.63421
-28.181822,26,12257.921071
-17.478564,19,12258.142512
-10.176702,18,12258.362917
-23.4595,19,12258.585674
-24.803584,18,13337.157113
-24.299835,20,13337.307994
-23.306556,18,13337.464857
-23.975946,17,13337.600333
-22.674033,20,13337.759188
-24.132043,20,13337.92084
-12.925634,20,13338.081282
-21.869899,20,13338.234856
-24.69071,19,13338.389354
-20.103861,19,13338.543441
-19.127613,18,13338.697725
-19.960228,20,13338.852689
-29.801264,19,13339.006406
-15.297506,20,13339.159436
-18.953603,19,13339.316279
-21.764457,18,13339.458175
-24.707919,18,13339.607065
-20.735444,19,13339.766866
-19.468966,20,13339.934879
-7.736351,21,13340.104014
-17.216421,18,13340.242803
-10.91161,20,13340.40124
-24.024156,22,13340.576982
-26.0739,19,13340.722127
-16.733764,20,13340.897203
-22.796864,18,13341.044793
-23.130265,19,14259.042442
-18.626953,20,14259.186727
-17.780783,19,14259.319981
-17.041468,19,14259.456128
-21.167442,18,14259.587837
-19.501432,19,14259.733776
-17.304479,19,14259.88101
-20.251947,20,14260.031347
-19.312988,19,14260.171203
-25.985789,17,14260.293685
-11.835509,20,14260.438874
-20.922777,19,14260.584339
-22.764897,20,14260.730074
-30.873291,19,14260.875371
-18.754922,19,14261.015233
-16.670115,19,14261.151671
-13.669114,18,14261.282162
-28.297804,17,14261.412237
-21.164372,18,14261.54187
-20.05113,19,14261.678847
-26.673796,18,14261.815745
-24.031698,20,14261.963025
-20.40125,19,14262.091535
-13.942797,18,14262.213928
-23.609305,20,14262.35509
-24.640588,19,14262.488009
-17.821635,20,14262.637787
-26.618657,22,15242.881198
-22.293841,18,15243.021104
-24.317252,25,15243.216735
-21.801161,20,15243.381406
-23.125371,19,15243.540165
-21.297379,19,15243.700266
-18.867707,20,15243.870636
-19.636419,19,15244.021203
-20.283564,18,15244.172352
-23.25844,19,15244.340523
-14.886123,21,15244.504074
-18.196125,20,15244.668965
-29.094644,20,15244.828175
-19.700513,26,15245.055643
-13.996279,20,15245.217279
-13.832385,20,15245.383461
-23.825078,19,15245.543683
-21.327798,20,15245.71278
-17.039543,20,15245.88184
-14.101784,19,15246.034799
-24.356885,19,15246.191733
-10.069852,20,15246.354792
-15.987822,21,15246.524351
-15.286665,17,15246.660757
-15.576741,19,15246.817153
-21.521465,22,15247.009159
-23.109423,19,16168.587139
-14.744598,18,16168.718746
-13.720509,20,16168.855309
-19.404006,19,16168.983056
-18.491615,18,16169.105654
-21.393978,20,16169.236334
-19.278288,19,16169.36726
-15.250635,19,16169.502614
-17.801929,18,16169.620038
-26.342027,18,16169.740906
-21.705472,19,16169.873842
-18.97406,19,16170.003067
-16.150386,19,16170.137169
-15.865943,19,16170.27884
-14.503157,20,16170.416061
-24.5064,20,16170.563959
-27.378486,19,16170.690677
-12.745774,19,16170.820722
-21.27734,21,16170.962723
-18.302772,20,16171.104146
-21.481791,24,16171.266912
-25.231723,23,16171.427606
-13.676917,22,16171.579374
-17.39898,20,16171.714203
-17.033223,21,16171.863139
-16.209321,21,16172.005837
-24.955591,19,18200.846028
-23.346142,31,18201.258334
-27.026093,22,18201.627913
-18.825878,19,18201.957323
-19.42072,20,18202.288125
-22.221255,17,18202.540884
-22.238298,20,18202.856745
-26.809677,18,18203.160214
-20.309019,18,18203.480377
-26.075146,18,18203.806734
-13.503948,19,18204.13829
-6.992451,20,18204.444743
-21.346353,18,18204.742496
-19.889584,19,18205.062335
-21.48855,19,18205.311959
-15.084524,19,18205.446807
-21.683145,19,18205.582108
-12.675768,20,18205.722891
-12.121749,19,18205.863366
-9.036493,20,18206.013702
-18.906186,24,18206.206909
-18.772196,22,18206.392292
-30.07861,18,18206.56584
-21.432035,19,18206.880096
-16.390764,19,18207.079732
-29.222649,19,18207.396266
-21.804507,19,20386.834124
-20.866504,18,20387.159136
-18.942648,18,20387.485548
-14.653095,21,20387.840264
-14.905795,19,20388.179765
-11.845743,19,20388.474414
-13.045638,19,20388.648871
-21.908414,19,20388.776273
-10.999005,20,20388.921967
-16.959867,18,20389.05418
-16.443291,19,20389.193745
-18.627795,22,20389.361217
-19.526964,20,20389.509292
-15.778513,19,20389.656117
-20.334321,19,20389.828014
-22.412679,19,20390.140365
-27.505068,19,20390.341233
-20.48671,19,20390.652642
-14.793298,22,20390.938454
-13.65729,20,20391.187457
-22.142573,22,20391.525622
-24.832623,18,20391.739599
-12.580249,22,20392.033923
-13.683087,19,20392.372535
-22.512665,19,20392.555244
-14.066841,19,20392.861362
-21.57111,20,22559.673758
-15.881392,19,22559.951274
-11.243282,20,22560.261137
-15.083568,20,22560.469422
-23.525233,19,22560.784135
-20.751619,27,22561.185954
-6.318382,19,22561.379509
-15.559434,20,22561.676985
-17.991149,19,22561.955495
-20.248686,20,22562.195153
-18.684048,20,22562.516752
-16.548986,19,22562.772658
-20.75045,18,22563.046803
-17.577558,18,22563.346308
-23.088746,20,22563.680119
-13.607802,21,22564.021458
-24.149062,19,22564.350492
-12.442834,18,22564.663218
-24.638769,18,22564.9647
-8.170194,19,22565.266876
-15.225961,18,22565.562522
-20.823177,20,22565.924985
-22.685536,20,22566.276767
-11.15304,19,22566.598753
-19.931668,17,22566.710617
-17.85753,19,22566.840618
-22.694198,20,24722.319071
-21.196645,19,24722.623125
-16.708093,18,24722.797419
-11.113631,19,24723.092191
-19.442094,20,24723.303059
-10.202004,19,24723.618026
-13.231907,19,24723.846456
-11.494538,19,24724.106618
-17.368358,19,24724.439449
-15.172176,18,24724.600613
-12.397326,24,24724.939542
-12.603435,19,24725.168283
-13.281968,19,24725.410162
-20.079867,20,24725.700392
-12.542247,20,24725.920254
-16.533493,18,24726.238173
-20.273918,19,24726.569999
-12.297601,19,24726.857447
-28.022289,29,24727.325747
-21.312513,19,24727.671885
-9.88866,19,24727.949841
-30.173563,17,24728.230378
-15.506036,19,24728.542379
-20.160615,18,24728.825695
-16.133992,19,24729.154567
-21.321122,18,24729.447415
-3.416045,22,26875.548245
-15.793118,20,26875.68975
-17.187572,18,26875.817548
-17.905406,20,26875.973137
-12.006393,20,26876.134063
-13.723584,20,26876.284956
-19.747526,19,26876.423025
-14.104462,19,26876.60069
-12.482372,19,26876.910125
-15.719086,19,26877.097516
-16.120313,21,26877.42279
-11.857634,20,26877.71821
-15.146662,20,26877.968256
-17.014821,19,26878.288989
-11.672271,19,26878.528209
-32.610935,23,26878.816377
-16.433051,18,26879.117302
-19.207973,19,26879.273112
-21.60376,20,26879.595917
-21.307637,23,26879.901142
-8.193217,19,26880.128549
-22.647757,19,26880.447116
-18.151929,18,26880.638219
-14.780628,19,26880.918304
-17.366197,19,26881.194305
-14.804927,20,26881.425408
-13.316213,19,26881.749034
-10.735415,20,29017.537334
-15.507591,20,29017.688007
-13.543403,19,29017.829411
-11.465074,20,29017.985172
-20.504639,20,29018.137565
-18.248478,19,29018.318403
-18.740592,19,29018.633097
-5.261106,19,29018.809591
-11.699001,18,29019.128191
-16.556034,21,29019.352017
-18.65321,20,29019.635474
-12.985994,19,29019.943306
-13.690005,20,29020.150401
-11.104363,20,29020.464582
-23.70252,18,29020.674911
-14.226585,19,29020.937954
-19.673189,19,29021.202243
-16.75501,19,29021.434067
-14.684994,19,29021.769584
-20.36348,19,29021.963596
-14.006549,20,29022.258722
-17.959858,20,29022.617648
-14.393831,18,29022.782632
-15.716428,20,29023.100093
-17.370429,18,29023.312137
-27.813471,16,29023.553445
-16.149623,17,31154.311356
-8.157441,19,31154.652482
-12.858676,18,31154.833743
-7.743264,20,31155.139553
-15.287728,18,31155.324992
-11.921768,18,31155.606951
-22.189615,18,31155.791438
-17.73118,20,31156.088834
-10.463863,21,31156.452546
-13.897961,19,31156.63025
-17.58938,18,31156.952093
-15.112418,19,31157.293483
-14.194638,19,31157.616896
0.026918,24,31157.906576
-8.102128,19,31158.214984
-14.146489,20,31158.552797
-11.4213,21,31158.91818
-11.475921,19,31159.237029
-10.076171,18,31159.515831
-21.293594,19,31159.802548
-15.074157,19,31160.116791
-22.468993,20,31160.439021
-13.882409,19,31160.671586
-10.950825,19,31160.800182
-16.655087,20,31160.941817
-14.761616,21,31161.087462
-9.213562,19,31161.221423
-15.343141,18,33282.414734
-13.593215,18,33282.737514
-11.515971,19,33282.914682
-13.32213,19,33283.215979
-10.92666,19,33283.397796
-13.457525,18,33283.690231
-12.252063,18,33283.906606
-19.554319,20,33284.188585
-13.130353,19,33284.516486
-12.652316,19,33284.80016
-18.273793,18,33285.059094
-16.697574,18,33285.328118
-10.041153,19,33285.659574
-13.264455,18,33285.954044
-21.178253,18,33286.236791
-19.002381,19,33286.561842
-15.184719,20,33286.924568
-11.695983,19,33287.216913
-15.011318,20,33287.545311
-9.996784,18,33287.871063
-35.276535,17,33288.135843
-1.742867,20,33288.341657
-13.589847,19,33288.477075
-11.05712,20,33288.617807
-21.317751,19,33288.755709
-20.408666,19,33288.892765
-14.717312,18,33289.024353
-10.633957,19,35387.92915
-13.004428,19,35388.077812
-8.345631,19,35388.247356
-7.104877,19,35388.571494
-8.8796,21,35388.80204
-15.200552,19,35389.1208
-10.899483,21,35389.364499
-8.727336,22,35389.656943
-16.260265,18,35389.98121
-9.361014,19,35390.14799
-10.728676,19,35390.464052
-12.053157,18,35390.669267
-16.044082,19,35390.930868
-6.990628,20,35391.156334
-18.460813,18,35391.412409
-15.296695,21,35391.752901
-18.831352,17,35391.913894
-13.005893,18,35392.228028
-13.4639,18,35392.407731
-12.614221,19,35392.699401
-14.622381,19,35392.943835
-11.925301,19,35393.183148
-17.89249,20,35393.502106
-7.933029,19,35393.715014
-11.240068,19,35394.023893
-8.785005,19,35394.273346
-10.316058,20,35394.608799
-19.523276,17,37512.582863
-7.087785,22,37512.933013
-12.078967,19,37513.134568
-18.129608,19,37513.41407
-11.699375,19,37513.731901
-23.910197,24,37513.969105
-7.350035,21,37514.307073
-11.081182,18,37514.484478
-14.233521,19,37514.771867
-11.685887,19,37515.089468
-9.74279,20,37515.431226
-5.726637,20,37515.771993
-8.710226,19,37515.998469
-14.221051,18,37516.306391
-15.104864,19,37516.642792
-15.849281,19,37516.948915
-11.619199,20,37517.287318
-15.799934,22,37517.696082
-6.032545,18,37517.901082
-9.635152,19,37518.225832
-5.357472,20,37518.568433
-13.117443,20,37518.90019
-14.106147,19,37519.034405
-11.307287,19,37519.166639
-11.763189,19,37519.303602
-12.852123,20,37519.444462
-5.60907,19,39634.132595
-5.739157,20,39634.467921
-9.83599,18,39634.748228
-12.096302,19,39634.979179
-17.433136,23,39635.362752
-9.296861,19,39635.683164
-9.33465,22,39636.035004
-10.387467,19,39636.371423
-14.240426,19,39636.692012
-10.408031,19,39636.939542
-10.97675,20,39637.263918
-3.599047,20,39637.601353
-21.040675,18,39637.869919
-7.366979,19,39638.003604
-3.288513,20,39638.142436
-13.15837,20,39638.288047
-10.770864,19,39638.426015
-12.293342,19,39638.575193
-2.026501,19,39638.725358
-14.104342,19,39638.874794
-13.311957,17,39639.006932
-14.813035,19,39639.229458
-10.061552,19,39639.498653
-11.865679,19,39639.686684
-13.390355,19,39639.993896
-13.63507,18,39640.188234
-17.172646,19,39640.466686
-14.087192,19,41750.203238
-10.830142,19,41750.442194
-3.653035,19,41750.682981
-7.602269,19,41751.019865
-17.584161,20,41751.205999
-9.28186,19,41751.512423
-4.722617,20,41751.815617
-11.250306,20,41752.026901
-5.31123,19,41752.352641
-9.129807,20,41752.52907
-8.496008,19,41752.8362
-17.466452,19,41753.073462
-15.379724,21,41753.34954
-12.354913,18,41753.66164
-12.858172,20,41753.977467
-11.238877,19,41754.264257
-10.544861,19,41754.520155
-14.303735,18,41754.836945
-5.044965,20,41755.174603
-7.873409,19,41755.472473
-0.785867,20,41755.808289
-11.704923,19,41756.124207
-8.947869,21,41756.420997
-5.340939,21,41756.766871
-11.219447,18,41757.083191
-17.50539,18,41757.393354
-5.873182,20,43861.170312
-8.407632,19,43861.303273
-12.740209,19,43861.437094
-6.914465,19,43861.574904
-2.799612,19,43861.718641
-9.081303,18,43861.847687
-10.337373,19,43861.986665
-8.162766,20,43862.253331
-13.548294,19,43862.486584
-8.206531,20,43862.679775
-17.224349,19,43862.981465
-1.998737,20,43863.218235
-14.099785,20,43863.489627
-12.973905,20,43863.836321
-15.339205,20,43864.082225
-7.816157,19,43864.320228
-9.716424,19,43864.653036
-7.162859,20,43864.812491
-6.023815,19,43865.154577
-15.70437,18,43865.32021
-11.071558,20,43865.638685
-21.451047,19,43865.876601
-5.701913,20,43866.131398
-9.222014,19,43866.45653
-9.993301,20,43866.626489
-9.289701,19,43866.935843
0.502871,21,45964.97684
-10.068273,19,45965.313906
-7.120387,18,45965.636099
-6.189546,19,45965.767652
-12.836059,20,45965.902971
-10.022527,19,45966.042657
-15.724568,19,45966.178068
-10.804443,19,45966.318096
-13.467898,19,45966.460626
-11.354298,17,45966.579064
-13.706161,20,45966.721908
-12.268479,19,45966.853952
-24.650585,20,45967.008477
-14.378768,26,45967.393922
-14.139116,19,45967.560251
-6.407767,18,45967.90177
-10.53729,21,45968.099238
-8.493547,19,45968.388251
-9.551416,21,45968.676124
-10.290644,19,45968.893103
-3.763342,22,45969.238381
-5.627852,20,45969.490964
-6.837062,18,45969.716124
-11.380002,19,45969.930434
-6.355544,19,45970.201326
-8.280805,19,45970.509301
-11.706172,21,45970.718526
-3.864502,24,48057.531315
-16.93801,24,48057.90088
-5.091941,19,48058.154222
-8.439911,19,48058.386084
-32.592401,18,48058.560693
-17.279584,20,48058.859164
-1.160574,19,48059.170048
-7.206995,19,48059.375032
-10.73557,20,48059.691418
-6.488469,19,48059.940965
-10.485535,20,48060.207274
-20.778262,15,48060.48949
-8.556332,20,48060.634051
-6.973813,20,48060.932532
-9.411743,22,48061.163018
-0.169719,19,48061.478348
-4.504853,23,48061.771477
-6.642442,20,48062.0898
-8.800994,20,48062.405881
-17.11846,17,48062.66169
-7.361549,20,48062.952525
-4.687118,20,48063.29093
-3.207854,20,48063.628451
-10.428932,20,48063.94544
-4.135023,19,48064.224469
-8.235157,20,50143.52028
-22.024163,20,50143.857925
-7.911148,19,50144.096351
-9.47585,20,50144.436875
-11.829164,19,50144.776428
-5.063006,19,50145.091981
-6.402787,24,50145.481313
-7.557021,22,50145.850445
-6.525668,19,50146.046238
-10.457576,20,50146.384272
-21.261594,18,50146.695221
-10.259142,19,50147.016495
-14.285894,20,50147.155253
-3.729498,19,50147.29109
-7.171465,20,50147.431267
-13.807474,20,50147.574728
-13.654284,26,50147.779615
-12.09496,21,50147.940095
0.15737,20,50148.089951
-18.221715,21,50148.242356
-6.846126,19,50148.532449
-11.31552,21,50148.770667
-8.979974,19,50149.023819
-8.710533,21,50149.304963
-5.150473,20,50149.641885
-8.2853,20,50149.830499
-4.324993,20,52215.627714
-14.119001,19,52215.785264
-8.590248,21,52215.945525
-2.756179,19,52216.092773
-11.051516,19,52216.227707
-3.959041,19,52216.499084
-5.449062,19,52216.719764
-12.002609,20,52216.887697
0.593438,21,52217.241349
-7.669708,19,52217.405434
-6.636662,23,52217.733139
-11.214378,21,52218.074436
-8.279572,21,52218.278833
-10.578619,19,52218.580122
-5.289809,21,52218.867298
-8.176837,20,52219.079206
-12.909337,20,52219.252231
-5.926303,20,52219.562884
-13.694822,24,52219.941801
-14.403281,19,52220.101662
-5.784989,27,52220.488648
-5.432656,22,52220.829289
-6.865208,19,52221.044576
-4.988713,21,52221.313545
-7.842381,20,52221.503901
-10.462872,18,54259.242486
-1.575783,25,54259.535832
-4.954326,21,54259.80729
1.986909,22,54260.155815
-4.912556,21,54260.403638
-7.906057,19,54260.638346
-15.729299,20,54260.81801
-6.385735,20,54261.123607
-9.445518,21,54261.442018
-10.71308,20,54261.650864
-7.173994,23,54261.988146
-14.599804,21,54262.308329
-3.714807,21,54262.523088
-4.620793,20,54262.831462
-8.973729,20,54262.993451
-12.905423,20,54263.319556
-8.94851,20,54263.562891
-2.577682,20,54263.819626
-8.804985,20,54264.179741
-3.705493,21,54264.537194
-4.926638,28,54264.939992
-12.478156,20,54265.23967
-9.874273,21,54265.581933
-3.494203,19,54265.902552
-7.959038,26,56327.872668
-9.134813,20,56328.024584
-8.625124,19,56328.163903
-4.724915,22,56328.499671
-0.716284,23,56328.742198
-2.687452,20,56329.023329
-6.868243,19,56329.245434
-5.103963,21,56329.599012
-8.602183,19,56329.762046
-9.678769,18,56330.060603
-6.765622,21,56330.311973
-11.375368,17,56330.533597
-16.484535,18,56330.821157
-6.255495,20,56330.997901
-7.203793,21,56331.290573
-6.193771,20,56331.525201
0.223923,20,56331.847764
-7.018021,21,56332.153887
-13.797307,19,56332.359096
-16.327012,19,56332.668846
-6.991811,19,56332.843191
-13.130372,19,56333.141198
-7.410294,20,56333.315214
-20.676066,19,56333.617444
-14.335665,22,56333.90807
-7.923992,22,56334.16063
-10.632696,21,58380.156774
-3.46214,20,58380.472897
-4.653379,20,58380.705685
-5.575873,23,58381.012692
-6.320673,21,58381.363904
-1.631842,21,58381.65402
0.072961,20,58381.896299
-9.794959,20,58382.226594
0.351424,20,58382.408508
-8.356196,25,58382.754405
1.375395,25,58383.151604
-4.022487,20,58383.387747
-8.25887,22,58383.730635
-8.690028,25,58384.13246
-14.172512,18,58384.356419
-14.736946,20,58384.706359
-2.048544,20,58385.022269
-7.545128,19,58385.362784
-3.984237,19,58385.683735
-12.962268,20,58386.046968
0.199229,23,58386.325854
-2.298569,19,58386.652551
-3.134418,20,58386.987535
-15.107476,20,58387.330478
-8.075117,20,60441.716589
-4.491025,18,60442.035092
-12.424718,20,60442.360798
-4.293338,20,60442.559175
-6.978209,22,60442.924009
-20.634067,19,60443.255028
-7.133359,20,60443.566865
-10.22502,20,60443.704942
-6.330588,19,60443.842033
0.994567,21,60443.997073
-0.190097,19,60444.136292
-0.161746,25,60444.335782
-18.037632,18,60444.462473
-6.789335,25,60444.654033
-9.468107,19,60444.787819
-8.430444,20,60444.930739
-4.683675,19,60445.20206
-5.316735,21,60445.432554
-5.062546,20,60445.618907
-0.605666,20,60445.945938
-8.524566,18,60446.151579
1.607428,21,60446.4326
-12.513419,19,60446.765332
-0.862834,20,60446.948497
-16.096038,19,60447.251038
-2.953913,21,60447.546488
-6.394209,19,62497.652673
-1.145645,24,62498.055164
-1.349877,23,62498.430265
-3.937417,19,62498.731174
-7.105294,20,62498.969579
-10.290154,20,62499.290616
-5.68742,20,62499.611278
-2.200599,25,62500.052708
-7.034921,20,62500.396797
-9.016152,18,62500.647273
-8.403645,20,62500.914015
-7.54665,21,62501.256158
-4.42813,23,62501.64346
-4.6552,20,62501.868644
-10.453165,20,62501.999639
0.358502,20,62502.141821
-11.77521,21,62502.294774
0.978936,21,62502.450135
-4.039619,22,62502.625959
-4.304263,20,62502.783743
-9.28174,19,62502.920073
-11.628243,18,62503.049369
-8.478568,21,62503.407709
-30.146169,20,62503.596303
-8.646945,19,64546.555201
-2.289233,20,64546.809078
-5.680248,19,64547.122706
-9.610314,20,64547.280679
-9.30444,18,64547.519798
-16.854755,18,64547.749539
-10.731357,20,64548.07072
-2.33513,19,64548.255011
0.231242,22,64548.614642
-5.149881,25,64549.035181
-6.325517,20,64549.315485
-3.91039,20,64549.614221
-9.037132,19,64549.912452
-2.471699,23,64550.294907
-5.217242,20,64550.631521
0.741108,21,64550.968758
-8.3261,19,64551.217965
-9.782385,19,64551.518869
-5.733135,23,64551.932522
-3.003889,21,64552.240447
-0.203871,22,64552.430698
-24.859605,18,64552.557108
-5.839509,20,64552.69612
-9.92272,21,64552.845004
-4.611662,19,64552.981931
-4.280421,20,64553.13272
-3.967882,20,66586.730915
0.608105,23,66586.893141
3.323266,21,66587.039397
-8.199046,20,66587.188349
-0.249441,19,66587.346084
-1.959313,21,66587.513677
-19.154144,19,66587.666033
2.420676,20,66587.814226
-7.981193,20,66588.135541
-4.87304,20,66588.326239
2.731197,20,66588.514567
-8.77811,22,66588.837839
-5.32704,24,66589.220386
-6.207674,21,66589.449571
-1.27939,24,66589.777129
-5.572513,20,66590.104363
-4.668373,21,66590.343045
-2.544904,20,66590.592054
-8.898434,19,66590.754356
-0.791168,21,66591.065749
-6.225085,20,66591.330722
-2.219586,20,66591.563303
6.780899,25,66591.927795
0.758707,22,66592.204176
-8.384175,20,68624.297712
-3.762105,20,68624.472349
-3.882503,20,68624.800048
-2.87477,20,68624.984436
0.985921,24,68625.322639
-0.858531,21,68625.549361
-3.395742,21,68625.87497
-7.885219,20,68626.184598
-2.291063,20,68626.398045
-24.110236,19,68626.712938
-1.91091,19,68626.903871
-0.460583,19,68627.185937
-1.625199,20,68627.376482
-6.012625,20,68627.685186
-0.488104,23,68628.009551
-4.362823,19,68628.208055
-2.428003,21,68628.533309
2.45234,25,68628.931322
-14.228054,21,68629.123606
-6.407982,21,68629.426297
-1.344396,25,68629.671734
-8.662316,20,68629.944805
2.019938,23,68630.310072
-2.756038,19,68630.492784
-1.821069,22,68630.868643
-8.890542,23,70125.527029
-7.527636,20,70125.673482
-6.540795,21,70125.815161
-2.058745,20,70125.950697
-6.888821,20,70126.080143
-2.821517,21,70126.22639
-2.671947,24,70126.382555
-2.962087,20,70126.515193
-8.885251,19,70126.652572
-5.05892,24,70126.802022
-12.263115,19,70126.927676
-3.95235,24,70127.083074
-1.149014,20,70127.222587
-2.294397,19,70127.350248
-11.380623,18,70127.478158
-19.818377,17,70127.599612
5.569401,27,70127.779507
-1.748329,19,70127.907431
-1.24233,20,70128.037248
-3.540965,21,70128.179434
-14.421435,18,70128.302159
-0.35562,27,70128.483025
-10.822834,23,70128.636756
-10.373586,22,70128.796357
-8.722545,21,70878.036458
0.692402,26,70878.21178
-9.378964,20,70878.343336
-18.458603,18,70878.467453
-2.05055,21,70878.617849
-6.620739,20,70878.749758
1.657028,22,70878.894403
-5.560365,19,70879.019618
-2.288684,20,70879.149551
-7.249131,20,70879.288623
-4.595007,21,70879.425196
-5.416815,20,70879.558392
-2.315962,19,70879.690596
-5.458685,20,70879.82582
-20.542051,20,70879.951989
-4.733964,23,70880.100597
2.196459,20,70880.239168
-3.390185,20,70880.375188
-3.218607,20,70880.516924
-9.648762,17,70880.632074
6.909451,21,70880.769709
0.494454,21,70880.918273
-12.152305,24,70881.083564
-7.636077,19,70881.212494
-8.512403,20,70881.340672
-8.230792,23,71630.568584
-4.851763,20,71630.712212
-3.98315,22,71630.868948
-6.21168,20,71631.013254
-1.611316,31,71631.229538
0.313594,19,71631.355557
-2.611712,20,71631.485496
-4.162006,20,71631.628447
-5.478963,20,71631.757458
-5.079232,26,71631.939974
-2.314591,21,71632.085983
-4.153453,21,71632.227584
-5.330946,20,71632.372103
-3.330223,19,71632.509576
-0.077108,20,71632.639786
-3.849864,20,71632.7774
-8.275096,23,71632.936871
-3.224603,20,71633.07263
-3.392062,20,71633.211663
-6.327948,31,71633.427319
-0.053442,26,71633.605223
-0.228638,21,71633.744489
-8.112001,22,71633.899105
-0.326734,24,72384.103769
-1.574424,22,72384.244896
-2.232815,20,72384.383893
-2.357,20,72384.523242
-3.784799,23,72384.675653
1.332828,20,72384.819156
-0.684371,20,72384.959657
-4.164017,20,72385.092757
-5.817119,22,72385.238518
-11.356881,17,72385.359589
-9.874026,22,72385.501524
-0.945706,22,72385.644815
-5.359159,19,72385.769899
-3.974792,21,72385.90095
-2.606088,18,72386.03224
-11.570171,21,72386.180457
-10.818209,17,72386.292784
-10.682749,20,72386.422313
-2.368737,24,72386.577446
-15.311601,18,72386.697533
-4.564801,20,72386.835359
-9.141206,19,72386.964211
-5.397914,23,72387.117923
0.173519,23,72387.264289
-5.115902,18,72387.40073
0.392233,20,73137.805039
-7.421811,20,73137.947221
-6.094198,19,73138.074132
4.783905,22,73138.218071
-6.331309,18,73138.343075
-5.472085,22,73138.49908
-10.523582,18,73138.620712
-2.371983,23,73138.771484
1.795629,23,73138.922957
-2.108659,21,73139.058561
-1.372442,24,73139.230607
-2.953143,20,73139.36323
-3.011279,19,73139.488455
-1.67652,22,73139.634706
-1.03693,21,73139.783627
0.22468,20,73139.918583
-3.201682,21,73140.05802
-3.276169,22,73140.19995
-1.190147,19,73140.32354
-5.611892,27,73140.508291
-2.040465,22,73140.661947
-8.496803,20,73140.805301
2.696939,21,73140.956151
-1.873819,20,73141.092327
-6.604522,19,73141.219138
-9.683522,17,73889.711014
-1.715357,22,73889.857765
-15.572861,27,73890.040854
-13.959119,20,73890.18056
-2.197176,19,73890.308655
-1.219344,25,73890.478225
-4.051679,20,73890.614061
0.287968,21,73890.761994
-9.739189,20,73890.891561
3.298772,24,73891.056414
-6.760893,21,73891.199329
-4.036883,20,73891.333843
-4.544869,20,73891.471254
-5.56495,20,73891.600034
-1.443258,20,73891.735273
-6.87675,21,73891.876372
-2.671263,21,73892.018897
-5.819587,19,73892.152332
-17.704244,17,73892.270715
-3.702281,28,73892.460954
-5.359498,23,73892.616407
-0.466373,20,73892.752202
-0.706076,22,73892.905618
-0.907419,21,73893.044774
-6.042473,21,74641.380671
1.577833,23,74641.534832
-8.277333,21,74641.680727
-2.96035,20,74641.812131
-11.200342,25,74641.989495
-13.038937,19,74642.117069
0.477952,21,74642.2485
-0.509889,22,74642.400937
-3.508718,21,74642.54249
-3.766917,20,74642.681684
-4.795861,20,74642.812634
3.582398,22,74642.96209
2.579793,21,74643.099015
-4.088028,20,74643.232509
0.355588,21,74643.380078
-5.213408,19,74643.511117
-9.368456,21,74643.643759
-2.676608,26,74643.821998
-7.454229,19,74643.947514
1.002566,19,74644.080907
-3.113735,21,74644.223133
-0.299701,20,74644.356875
1.251642,20,74644.488901
-8.578051,21,74644.621319
-1.832166,22,75395.352746
4.272569,22,75395.498751
-3.027214,21,75395.640788
-4.751016,23,75395.800856
-10.272969,20,75395.941657
-4.240103,21,75396.085751
1.551465,23,75396.247079
-5.629757,21,75396.394838
-2.362462,22,75396.533399
0.218084,23,75396.686884
-17.445514,18,75396.806802
2.191939,23,75396.967599
-0.401882,20,75397.104289
2.309811,23,75397.26187
4.019286,25,75397.435678
-0.976347,21,75397.586904
-9.648439,18,75397.713896
-1.911727,21,75397.852854
-4.719982,18,75397.974072
-2.00675,24,75398.131738
-0.185262,20,75398.271466
-5.182427,22,75398.420232
-0.271688,22,75398.569837
-10.234056,20,75398.717979
-3.493075,21,76148.281718
0.277464,21,76148.424874
-0.721813,24,76148.586414
1.456411,20,76148.715101
-3.685213,22,76148.855376
-1.400436,20,76148.990037
-3.987684,21,76149.131996
-4.787901,21,76149.271405
-5.526057,21,76149.422431
-9.574309,21,76149.571053
-2.65791,19,76149.698087
0.013185,27,76149.869457
-5.927755,23,76150.015579
-3.709306,20,76150.151294
-2.500527,28,76150.339608
-10.815645,17,76150.45245
1.538737,23,76150.614554
-3.491729,21,76150.758827
4.755151,22,76150.903723
-4.506728,22,76151.056997
-3.515727,21,76151.200151
-0.601433,21,76151.33499
1.422094,23,76151.489703
0.77385,21,76151.633878
-5.706802,21,76901.551112
1.465959,26,76901.723137
-6.324977,29,76901.91508
-1.713407,28,76902.111397
2.986678,24,76902.270979
0.59636,20,76902.400223
-0.434698,26,76902.579425
1.011657,23,76902.73628
-4.33461,22,76902.882012
-2.593319,21,76903.017337
-2.188021,29,76903.211795
-4.081655,23,76903.360214
0.446217,24,76903.521012
4.537793,28,76903.704147
8.375002,24,76903.86148
-4.297273,22,76904.013485
-1.178245,21,76904.165281
1.968935,23,76904.321555
-0.376926,21,76904.464941
4.917986,29,76904.661515
-1.950457,21,76904.807595
4.187079,23,77654.752644
-11.145219,20,77654.883901
-6.537725,24,77655.035291
-8.364365,21,77655.168543
1.377308,24,77655.332607
-9.169095,22,77655.484451
-10.759249,16,77655.60663
-3.473779,26,77655.784106
-1.929389,23,77655.93805
-11.468449,22,77656.083083
-3.993957,26,77656.251825
-5.666804,25,77656.417872
-5.937599,22,77656.570636
-2.902884,28,77656.761853
3.479273,22,77656.915098
-5.90347,22,77657.065161
-0.055488,23,77657.218477
7.403567,23,77657.377245
0.599343,23,77657.535746
-2.59612,25,77657.69157
0.775991,20,77657.827535
-9.22462,27,77658.000405
-1.147637,22,77658.145161
-8.153601,22,78407.822946
5.203827,20,78407.958956
3.933841,24,78408.126923
-9.272347,28,78408.328541
4.941551,29,78408.535757
-2.013616,22,78408.690187
-6.297815,21,78408.827679
-2.928749,23,78408.976914
-4.4081,20,78409.112709
-6.958867,21,78409.253173
2.570654,21,78409.397468
-5.127595,21,78409.542491
-3.44719,26,78409.720739
4.799002,27,78409.903239
2.665726,23,78410.065894
6.274398,29,78410.249917
-10.89689,20,78410.389273
2.349242,25,78410.556221
-5.990708,21,78410.704515
-1.41198,23,78410.868073
-1.486326,21,78411.010141
-4.006983,24,78411.175257
-5.643726,21,79161.012886
-7.532833,20,79161.151547
-1.747117,20,79161.281157
5.590677,28,79161.469526
-0.090562,19,79161.589946
-0.983684,30,79161.800117
-1.667885,25,79161.960446
-9.186472,26,79162.135814
-9.015722,18,79162.26117
1.224791,20,79162.40407
-5.215874,22,79162.553904
-1.966386,26,79162.722013
-0.252065,24,79162.890742
2.158563,20,79163.01711
4.916746,26,79163.188311
-0.217181,26,79163.36043
8.605777,24,79163.524302
-6.195521,31,79163.731827
-3.783689,24,79163.886337
-5.995915,19,79164.010606
8.257771,28,79164.195939
4.776628,23,79913.787671
-0.663046,23,79913.945094
-7.146732,22,79914.101471
-0.135697,26,79914.273391
-3.684844,22,79914.412927
6.201277,32,79914.637865
-0.182312,23,79914.788763
-0.351771,22,79914.947042
4.307234,34,79915.170435
5.339761,26,79915.346226
-6.145539,31,79915.557611
4.603127,23,79915.706526
1.162407,22,79915.853501
-13.224288,22,79916.009731
-8.336145,20,79916.145633
11.93313,37,79916.4028
3.099996,30,79916.60215
-12.484289,29,79916.788828
13.07775,27,79916.969475
-2.559759,23,79917.122709
10.88536,31,80667.279673
-5.403136,21,80667.421097
-8.263958,21,80667.563481
3.520939,25,80667.731119
4.592761,22,80667.878546
-1.742525,31,80668.099339
8.630481,35,80668.335098
-3.59432,22,80668.481129
-0.773586,27,80668.661105
2.690745,22,80668.810775
-3.559739,22,80668.955362
-2.376135,21,80669.106306
-1.356893,21,80669.260428
-3.371158,24,80669.42251
7.452007,22,80669.571408
-11.127905,17,80669.679271
1.181433,28,80669.865775
-2.703968,24,80670.033007
-3.309898,24,80670.187763
-5.514749,25,80670.361883
0.166639,25,80670.530465
-15.0622,19,81420.917571
-6.122611,30,81421.11863
4.117968,27,81421.311413
-9.117933,19,81421.437303
-10.739289,27,81421.61817
-7.946014,17,81421.734923
9.318473,31,81421.949388
-4.251513,21,81422.102863
-3.43876,20,81422.235925
-3.81744,22,81422.383927
0.188825,27,81422.569315
-7.914703,21,81422.702844
-6.745163,23,81422.855554
1.316824,22,81423.006807
-2.748193,26,81423.182393
-1.144758,22,81423.326054
4.330846,26,81423.496992
-5.878711,22,81423.640254
-0.480191,20,81423.787396
-0.567982,22,81423.940324
10.812594,32,81424.157662
-0.859168,21,81424.299789
-1.904823,21,82174.226543
-8.527555,19,82174.347942
6.021453,24,82174.511347
-6.69231,22,82174.651218
-12.40936,18,82174.77976
-6.223898,27,82174.964086
-1.751866,26,82175.128662
4.356538,26,82175.29805
8.133347,30,82175.488139
-0.779614,23,82175.649561
-0.427248,26,82175.820476
-1.613755,20,82175.955442
-6.540456,27,82176.146319
-13.261048,28,82176.33499
-0.384919,21,82176.470881
2.697069,21,82176.60958
-8.6706,30,82176.807356
0.187218,25,82176.969467
-8.294207,21,82177.120196
7.963326,34,82177.354172
1.531976,23,82177.504862
-1.028091,24,82928.18713
-3.635177,24,82928.357044
-1.410933,20,82928.489544
0.917859,26,82928.677958
0.5649,22,82928.82701
-3.336622,21,82928.974646
3.963694,22,82929.130375
-1.615221,26,82929.300108
-2.833533,22,82929.455035
3.626233,28,82929.641648
8.98562,28,82929.833753
1.362353,27,82930.021776
-2.553476,23,82930.189676
-5.510185,21,82930.335402
-2.552486,20,82930.474402
-2.709182,23,82930.639467
-3.417399,27,82930.833919
-6.134716,33,82931.051031
-7.509778,23,82931.212723
-3.494543,22,82931.368702
-4.442241,24,82931.527838
0.516452,21,83680.927562
-3.869683,19,83681.05587
-2.928839,24,83681.223563
-3.638883,24,83681.386905
1.716032,21,83681.527269
-0.354413,22,83681.67557
-2.046541,21,83681.818892
0.305568,23,83681.97161
-6.544261,21,83682.114574
-0.136338,21,83682.261067
-6.418234,20,83682.399568
-2.509082,22,83682.546981
-3.000251,20,83682.682787
-4.332673,32,83682.899761
-1.490768,21,83683.035817
-0.43571,21,83683.179226
5.4811,23,83683.330183
0.277059,26,83683.508649
-3.494409,21,83683.648863
-4.917454,21,83683.79711
5.675945,26,83683.983332
5.275491,28,83684.17861
-5.871171,20,83684.317879
-11.443187,18,84435.070761
-0.174015,22,84435.231985
-7.7483,21,84435.373675
1.277669,23,84435.53387
-3.529852,20,84435.669812
-30.047873,19,84435.801002
6.122283,29,84435.997495
1.845128,21,84436.131202
-2.352055,20,84436.262609
-2.775699,21,84436.403803
-2.49456,20,84436.522078
-0.041095,21,84436.668764
-3.599636,21,84436.819216
-7.052296,28,84437.011069
-3.183064,20,84437.144705
1.175914,20,84437.280245
-6.06414,24,84437.441837
0.967728,23,84437.609489
-0.324668,24,84437.778289
-0.132024,21,84437.917716
0.497659,22,84438.068933
-11.624074,21,84438.206857
0.254635,22,84438.361006
1.329927,19,84438.481312
1.827721,21,85187.150714
0.956309,23,85187.30469
4.348718,24,85187.47485
-3.790245,23,85187.633634
-1.115663,20,85187.770792
2.143965,21,85187.915328
-2.966271,21,85188.064025
1.198863,20,85188.196851
1.003471,20,85188.332535
5.961222,21,85188.474009
-2.422155,22,85188.632485
-4.140624,21,85188.774218
6.767846,26,85188.95387
4.808376,22,85189.100682
-4.345097,21,85189.240762
3.436911,36,85189.473992
1.146802,22,85189.62634
-7.806582,22,85189.787144
-3.290448,21,85189.928971
-1.871613,20,85190.066359
-3.957392,22,85190.21906
-2.754639,22,85190.377034
7.260916,22,85940.289588
-4.333644,21,85940.436329
-0.150802,23,85940.588714
1.066454,21,85940.732375
-4.876411,18,85940.852777
-2.818352,19,85940.98137
-3.083949,19,85941.114099
-2.838676,21,85941.263443
-2.201396,22,85941.416206
3.737736,24,85941.575913
-4.702669,21,85941.715249
-9.028496,17,85941.835641
4.907995,22,85941.982404
-1.290447,23,85942.140902
-0.091571,20,85942.275651
-4.110909,22,85942.423338
-9.761044,19,85942.552186
-0.065962,21,85942.706419
3.153084,20,85942.836636
-3.528333,20,85942.981582
0.484392,22,85943.134942
7.404214,26,85943.312845
5.150303,23,85943.471737
1.520989,27,85943.649081
2.644399,20,85943.786651
-9.415983,17,86693.835376
-2.998769,23,86693.996338
-1.033129,19,86694.130353
7.465909,23,86694.288708
5.339253,25,86694.456333
0.375769,21,86694.605463
5.727644,24,86694.77877
-5.401214,23,86694.937698
3.86673,25,86695.113644
5.040223,20,86695.245102
1.440659,26,86695.425058
0.851192,29,86695.619924
0.917063,20,86695.756826
-6.499719,25,86695.930473
-4.712185,20,86696.072336
2.398056,21,86696.216832
-3.158039,21,86696.358249
4.483124,21,86696.50342
-2.55056,22,86696.655421
-7.745863,18,86696.786846
-0.42112,20,86696.926258
1.770593,23,86697.087927
0.684888,20,86697.224121
1.894655,19,87447.952345
2.174206,21,87448.087048
-1.600834,23,87448.249063
1.392111,23,87448.41079
-2.569928,22,87448.559169
-1.763406,21,87448.715604
0.301642,20,87448.859512
6.226346,32,87449.081758
0.152115,21,87449.235323
2.15318,21,87449.379938
-2.078784,20,87449.513595
5.39694,22,87449.657402
-17.323845,18,87449.7826
-13.33556,17,87449.893372
1.743423,21,87450.039286
0.511957,20,87450.17143
6.104252,22,87450.308904
2.93838,22,87450.449886
-0.020878,19,87450.581532
-2.192458,22,87450.72881
-24.097288,19,87450.856674
-1.314512,20,87450.994151
1.57943,25,87451.168871
-3.119973,20,87451.307419
-2.361729,21,88200.726423
-1.862619,20,88200.860577
-3.533903,21,88201.011679
-4.401618,20,88201.147661
-4.951449,24,88201.304908
-3.164683,20,88201.444173
-0.11951,19,88201.575651
1.46755,21,88201.72027
-4.722844,23,88201.86607
2.365492,22,88202.019786
-2.412189,24,88202.174066
-12.066734,18,88202.29533
-2.876809,22,88202.443568
-1.956611,21,88202.59196
-1.035304,20,88202.724698
2.062131,20,88202.853212
4.021816,20,88202.982935
1.334926,20,88203.122184
2.354814,22,88203.268739
-14.175428,19,88203.4045
-10.701904,18,88203.524463
-11.445352,18,88203.643382
-18.722938,17,88203.7621
0.511384,21,88203.906822
-1.610183,30,89009.467769
5.175793,23,89009.617571
-6.460175,20,89009.766329
1.597465,22,89009.920376
-9.964913,19,89010.046185
-2.413372,22,89010.200396
1.148118,21,89010.342294
-6.534699,20,89010.475707
0.42238,22,89010.623056
-2.625093,20,89010.766316
-2.840985,19,89010.894735
4.464792,21,89011.043282
-4.382486,21,89011.195615
3.901446,21,89011.342529
-1.917734,19,89011.468513
5.837829,26,89011.642705
-4.149577,21,89011.778377
-9.511779,18,89011.909376
6.256763,20,89012.0478
-5.284434,21,89012.201237
-0.254632,20,89012.332996
7.437862,28,89012.527584
-2.073993,24,89012.691009
2.120156,23,89012.858349
-2.708515,21,89773.260497
-3.227773,20,89773.40478
4.022212,25,89773.567146
-3.607474,21,89773.71093
4.525904,23,89773.864925
-0.510316,22,89774.007439
-7.509299,24,89774.167931
-6.418672,30,89774.385588
0.56119,26,89774.558137
-4.025996,21,89774.702997
-11.090063,27,89774.881586
17.500194,33,89775.107445
-1.620235,20,89775.242308
8.658789,26,89775.41736
-0.789373,20,89775.555051
-0.833329,21,89775.697391
1.221803,22,89775.843452
4.676164,26,89776.013166
5.263658,26,89776.194681
2.050365,21,89776.341393
-3.069119,20,89776.485387
-6.343796,20,89776.627902
2.724532,22,90534.021062
-20.865239,19,90534.144935
-8.135709,24,90534.310318
3.044308,24,90534.471267
-1.180804,22,90534.630529
0.019321,20,90534.768414
0.25213,21,90534.908198
0.147012,21,90535.055078
0.297191,22,90535.202631
-0.517756,22,90535.349865
-2.131831,19,90535.478248
0.84149,24,90535.644586
-0.328635,24,90535.808488
0.7732,24,90535.974953
-9.839124,21,90536.122036
-1.781684,20,90536.259057
-4.604082,22,90536.410946
0.222512,20,90536.544504
3.799486,22,90536.691849
-0.02773,20,90536.832108
3.352868,22,90536.985463
-5.438478,23,90537.146989
-1.125811,23,90537.310987
-1.448084,19,90537.439848
0.364348,21,91429.907639
8.78354,24,91430.101338
-0.765815,23,91430.288572
4.655946,20,91430.454941
5.019848,26,91430.670141
-2.942933,25,91430.87298
4.382025,31,91431.130425
-4.020734,21,91431.305182
-0.084523,22,91431.489993
2.281502,21,91431.663378
9.147472,29,91431.902733
9.294115,30,91432.142098
4.215098,22,91432.328238
2.948167,20,91432.491934
-8.465428,17,91432.630211
1.318988,28,91432.851979
7.899762,27,91433.079787
-5.534204,23,91433.270088
1.797309,20,91433.438942
-2.611665,21,91433.60769
1.767486,30,91433.845933
4.944762,24,92343.834368
2.157839,21,92343.988842
4.210676,30,92344.193175
-0.539456,19,92344.321793
-4.642789,22,92344.473594
-4.959958,23,92344.635373
3.330118,21,92344.774077
2.421509,23,92344.922255
5.517109,21,92345.055289
4.050088,22,92345.209192
-2.755786,20,92345.351018
1.362269,22,92345.497835
-0.150409,23,92345.657223
-4.781195,20,92345.787447
4.921084,21,92345.925345
0.362196,23,92346.080124
-3.257893,30,92346.289305
-3.926607,20,92346.419737
5.982328,22,92346.562902
-29.441548,17,92346.676257
-5.195497,21,92346.826745
0.941429,22,92346.975867
4.26838,21,92347.119053
-9.270267,31,93097.265504
3.82758,21,93097.394652
-19.040789,20,93097.528037
-4.007852,21,93097.670727
-0.227024,21,93097.808732
3.110023,20,93097.944731
-2.751603,29,93098.132666
13.12391,30,93098.331102
3.021237,23,93098.484828
3.753923,22,93098.625684
-0.701769,25,93098.796719
-4.539328,24,93098.956885
0.826366,21,93099.099932
0.244979,19,93099.221214
-3.200449,21,93099.363163
8.203598,26,93099.544172
1.009905,29,93099.737035
-0.94408,19,93099.867193
0.394381,23,93100.01747
0.697031,21,93100.154244
3.732021,20,93100.294446
0.837423,22,93100.440582
7.098663,22,93100.595806
1.125355,23,93852.161905
2.979618,20,93852.295993
-2.253779,22,93852.440761
4.155415,25,93852.609231
-19.81824,18,93852.731813
2.881518,25,93852.901984
6.119833,24,93853.071631
-18.814433,19,93853.198503
-22.465752,18,93853.316676
7.179399,24,93853.484729
-1.055541,22,93853.633946
-3.583143,21,93853.783744
2.458655,21,93853.924845
1.080176,25,93854.103658
9.517518,27,93854.289239
5.048092,26,93854.45918
-8.557263,19,93854.586514
-0.454878,23,93854.739619
0.574883,21,93854.881011
0.157484,24,93855.04011
-0.162756,21,93855.193646
-1.183174,20,93855.331985
1.454483,20,93855.464104
1.712918,21,94605.551379
1.122456,24,94605.719014
1.842198,25,94605.894086
-19.271832,19,94606.015491
-5.135655,19,94606.14363
5.292397,24,94606.301316
3.092474,21,94606.437892
1.822919,21,94606.582052
0.60187,21,94606.727215
0.161062,20,94606.868562
-2.865938,20,94607.004127
1.529484,22,94607.159564
-3.538089,19,94607.293065
-8.859051,18,94607.420441
2.686425,21,94607.552833
4.344128,22,94607.703487
2.98933,20,94607.836107
5.492743,23,94607.991608
0.03923,22,94608.148861
-1.658077,24,94608.308116
0.926349,21,94608.45192
3.624516,22,94608.598371
-4.127066,19,94608.733038
-5.976804,19,94608.857876
-0.775567,22,95358.33906
-0.931251,20,95358.477549
8.125674,25,95358.663386
-1.063819,20,95358.805919
-6.870316,18,95358.91634
1.0117,21,95359.065942
0.762021,20,95359.205878
-2.763367,21,95359.362908
3.739622,22,95359.509455
-5.191641,21,95359.646728
-0.70214,23,95359.80341
5.68549,21,95359.951374
-0.045833,20,95360.088661
4.294104,21,95360.225137
0.394069,23,95360.375391
8.780323,21,95360.517682
0.957639,21,95360.664224
-0.141133,20,95360.801508
-2.944873,26,95360.981647
-0.625857,21,95361.132862
7.713375,25,95361.300045
3.70681,23,95361.456735
4.805208,25,95361.632544
6.552678,24,95361.79105
2.66669,23,96113.020695
-0.27225,20,96113.150637
11.082053,24,96113.31473
1.438008,21,96113.456306
3.837474,19,96113.590266
-12.46136,19,96113.713796
0.955482,20,96113.853782
-2.68546,20,96113.986378
-6.256204,19,96114.11742
7.88424,24,96114.277064
3.452616,29,96114.478541
-1.907364,20,96114.611894
-7.369822,19,96114.739688
-0.695099,19,96114.860395
1.769951,20,96114.994679
-8.732422,18,96115.114475
1.930377,22,96115.258799
5.443215,21,96115.406016
-1.492689,27,96115.582907
1.176412,20,96115.715191
0.814694,22,96115.861478
7.149969,22,96116.005769
3.184389,20,96116.135083
-0.186522,22,96116.288316
2.410054,20,96867.076322
-1.95015,20,96867.205755
6.37338,27,96867.398063
8.179476,21,96867.536202
-0.676398,20,96867.664878
0.452992,20,96867.785988
-2.070269,21,96867.927751
4.541418,22,96868.080961
-5.343307,20,96868.224332
0.463658,21,96868.370476
1.994345,21,96868.518021
3.354701,21,96868.672214
-3.538389,21,96868.808459
9.28812,25,96868.975463
-0.219482,20,96869.106994
-2.680209,20,96869.244248
-0.235323,22,96869.389839
-0.498048,23,96869.546178
4.880465,22,96869.691321
3.398667,23,96869.848105
0.309506,25,96870.017038
-1.399618,20,96870.148692
4.865461,21,96870.287458
0.763525,20,96870.43011
-0.829434,21,97622.435116
4.834874,24,97622.593898
6.374493,20,97622.726842
5.752401,22,97622.873412
-3.413714,20,97623.007966
4.321969,27,97623.189512
5.506057,21,97623.334067
4.627951,22,97623.483836
0.754253,18,97623.608153
2.01088,21,97623.755801
5.66383,21,97623.902261
-11.938272,18,97624.026899
-4.938325,18,97624.1591
-3.862116,23,97624.310841
-3.050695,22,97624.459487
3.115284,21,97624.599244
1.25038,21,97624.735887
-10.573487,19,97624.865823
3.289068,23,97625.021231
3.311023,25,97625.190491
1.92191,21,97625.343069
14.442906,37,97625.595623
-1.336084,20,97625.729862
-3.45326,19,98376.648148
-1.580574,19,98376.76399
0.997838,24,98376.93715
0.881035,21,98377.074159
8.942801,23,98377.22874
3.290246,23,98377.387942
4.37234,21,98377.533204
-1.105781,18,98377.653704
-6.495419,18,98377.768879
-2.996924,22,98377.909731
1.644682,22,98378.057413
4.98786,21,98378.209869
-3.262848,24,98378.376291
3.192245,23,98378.528913
5.251911,20,98378.663503
-1.406021,20,98378.802642
1.978032,19,98378.938226
7.430338,21,98379.073476
3.178396,22,98379.226719
4.216613,21,98379.364696
5.452908,22,98379.515785
3.765877,22,98379.654001
3.591775,33,98379.872047
-0.299312,19,98379.993123
-13.604979,17,99130.732711
3.864298,23,99130.880253
-18.743369,19,99131.012246
10.5955,24,99131.183583
-4.534478,20,99131.318346
3.059165,21,99131.468109
8.072261,24,99131.630969
-2.792588,20,99131.775422
-2.487273,21,99131.90996
1.539403,22,99132.07274
-7.25034,20,99132.210289
5.16638,24,99132.371206
1.026063,21,99132.503312
3.960276,27,99132.692887
2.828533,24,99132.853798
4.48291,21,99132.998049
-3.813978,18,99133.128081
-13.437563,17,99133.240479
-1.503401,22,99133.389825
9.765019,27,99133.568351
1.609615,20,99133.712453
2.881999,23,99133.875246
1.969716,21,99134.022156
4.190793,23,99884.434938
2.720382,20,99884.57216
-14.533381,18,99884.693418
1.692569,22,99884.839473
6.516177,22,99884.984445
-10.790307,18,99885.108175
1.119378,28,99885.293841
-0.197366,21,99885.434403
-2.333134,22,99885.585419
1.304772,22,99885.735653
7.600774,20,99885.876368
-10.604742,21,99886.025241
5.180139,21,99886.166468
5.25083,22,99886.324728
11.682136,24,99886.477404
-0.277502,24,99886.649196
4.061858,21,99886.790175
7.632607,24,99886.958622
6.02087,21,99887.089608
-1.613146,21,99887.23763
4.678629,21,99887.381254
12.948394,27,99887.559712
0.187022,21,99887.699814
3.850756,20,99887.83251
-2.265274,19,100639.257687
2.897702,24,100639.424242
2.737935,20,100639.565443
-6.697141,19,100639.697598
-2.248581,23,100639.845776
-14.406056,18,100639.968817
-2.910773,20,100640.099704
-3.79168,21,100640.245049
4.649392,21,100640.382741
4.644478,22,100640.537149
7.172016,33,100640.765216
-0.372589,20,100640.897061
-1.096843,19,100641.022722
-2.616506,20,100641.160709
7.630008,22,100641.310462
5.860993,25,100641.476433
5.687994,23,100641.632109
3.170276,20,100641.773763
4.727879,21,100641.911168
4.720698,23,100642.068331
0.539744,20,100642.206255
-10.779224,20,100642.342893
-6.333932,20,100642.474169
-3.026686,20,100642.608034
0.526046,23,101393.447479
-1.309773,21,101393.600143
1.638908,21,101393.748019
9.83815,20,101393.877926
7.32522,25,101394.047316
-1.520767,22,101394.197787
5.904946,22,101394.348077
3.6928,25,101394.529036
0.968266,21,101394.672657
-6.134916,19,101394.804507
6.025561,21,101394.948649
5.530324,20,101395.089379
15.241827,31,101395.295681
3.638194,22,101395.455589
7.382024,29,101395.654808
-9.151321,16,101395.765045
2.049023,20,101395.900362
10.215152,29,101396.090354
4.818946,25,101396.256909
5.236452,22,101396.404031
-1.256839,20,101396.542727
-2.517264,20,101396.677892
5.210342,21,101396.826266
5.443954,22,102148.594613
-2.080029,19,102148.715674
4.561661,21,102148.859411
7.039184,23,102149.015761
3.607761,20,102149.149827
-3.571576,20,102149.290285
2.409697,23,102149.452558
-7.307938,18,102149.570278
5.030487,21,102149.713279
5.082789,21,102149.85686
-4.364837,22,102149.99857
-3.891762,20,102150.137611
-0.375948,21,102150.28222
-3.701457,22,102150.435121
13.915815,26,102150.602874
6.882722,21,102150.747895
-3.08861,26,102150.931409
-3.676206,20,102151.060795
-11.318395,19,102151.188676
-0.765418,23,102151.359368
3.897112,23,102151.51598
5.259161,21,102151.658543
6.298053,30,102151.858395
1.668333,21,102903.065943
1.635987,23,102903.213184
-0.777098,19,102903.339616
-1.87625,19,102903.469929
-1.295955,20,102903.609699
-5.531443,19,102903.732443
8.651294,21,102903.872561
-1.270294,21,102904.017708
4.023524,21,102904.169244
0.209147,24,102904.334374
6.51474,22,102904.479649
8.230807,22,102904.628906
-8.643759,22,102904.769202
3.116998,25,102904.942531
5.845122,22,102905.09239
4.781658,20,102905.228583
-1.019908,22,102905.382142
4.63359,21,102905.529359
-10.027703,25,102905.709375
3.608339,22,102905.854521
-6.595463,18,102905.975547
3.362958,21,102906.1151
0.683232,20,102906.248915
-5.95073,19,102906.375182
-2.44881,21,103657.053819
8.959032,23,103657.206986
3.283811,21,103657.356297
5.839816,21,103657.495631
1.646435,22,103657.644054
-1.268199,22,103657.795417
3.382425,21,103657.936379
2.245119,22,103658.080889
-1.439511,21,103658.222607
-1.093162,26,103658.399994
1.044275,25,103658.570302
-8.538912,20,103658.697682
2.511874,20,103658.8244
2.117069,23,103658.982633
5.074798,29,103659.168515
8.847423,21,103659.312296
1.718927,22,103659.454165
-0.69087,24,103659.622245
6.477875,29,103659.811911
1.686742,20,103659.956286
3.633526,23,103660.117048
-3.509877,19,103660.249674
3.700424,20,103660.383141
-5.636409,20,104419.395275
7.902473,25,104419.581053
2.135916,22,104419.739345
-1.646202,19,104419.882745
7.214164,25,104420.054341
-3.812185,22,104420.205158
7.460037,29,104420.402914
8.796933,29,104420.612233
7.418203,26,104420.80217
8.209675,24,104420.969427
-22.687793,19,104421.102784
4.202989,25,104421.271049
-14.648842,16,104421.389068
-4.3363,30,104421.607105
11.021424,26,104421.78576
3.680381,21,104421.92883
3.379694,23,104422.092599
-5.203685,20,104422.232224
-0.287574,21,104422.372145
9.990583,24,104422.542565
2.767779,21,104422.690521
-2.221729,23,104422.863001
-5.550501,25,105182.190322
-1.484971,23,105182.350274
6.179765,20,105182.493898
10.202766,24,105182.661068
1.03294,21,105182.807209
12.467085,24,105182.985273
6.139603,23,105183.145621
-4.10731,19,105183.274902
12.425661,24,105183.444822
3.980948,24,105183.614349
-1.314438,24,105183.778638
2.122942,21,105183.925981
-2.529742,19,105184.064139
7.563047,20,105184.202589
-21.240781,20,105184.341091
-11.920741,18,105184.473505
1.373449,21,105184.622827
-4.910309,19,105184.753448
-0.81655,20,105184.895793
6.811115,20,105185.036211
1.39574,22,105185.199005
14.353187,25,105185.377331
2.253882,22,105185.531701
-6.07713,18,105185.663788
-0.364039,22,105945.152016
9.38358,24,105945.32653
5.368135,26,105945.516292
-1.93911,19,105945.650205
1.003489,22,105945.808545
8.314221,27,105945.995562
1.557292,31,105946.20748
0.47453,21,105946.357142
0.970683,20,105946.498559
-0.764828,21,105946.654651
-5.384191,22,105946.811432
-1.526563,21,105946.96292
-0.756852,21,105947.121208
10.607821,22,105947.271989
8.303211,26,105947.462058
9.637397,24,105947.630221
-1.261178,21,105947.779788
13.301899,28,105947.972018
7.771083,25,105948.145966
5.835788,24,105948.320655
5.474985,21,105948.461008
3.026505,21,105948.609319
1.618296,21,106707.424329
1.899789,19,106707.563204
4.766306,24,106707.728943
2.613019,23,106707.878962
11.043772,33,106708.11089
14.137983,28,106708.31445
6.877763,25,106708.493728
7.25751,25,106708.668031
3.012994,22,106708.833791
5.581863,28,106709.030124
-6.421251,27,106709.22195
15.664572,30,106709.422368
4.268616,22,106709.568882
4.581334,22,106709.722977
-0.995745,23,106709.894732
-1.248938,20,106710.040806
-4.173758,19,106710.179486
-5.625391,20,106710.316593
-24.227391,19,106710.447716
-18.540158,17,106710.572164
2.721638,27,106710.758305
-3.554686,21,106710.902861
4.177291,24,107470.07551
1.972008,20,107470.213304
-3.902355,18,107470.339375
4.218044,22,107470.496116
10.325717,39,107470.771501
3.862085,28,107470.962846
-4.179233,21,107471.114812
20.735403,39,107471.39144
7.269941,28,107471.586109
12.298818,25,107471.771227
0.157622,20,107471.904998
-0.246959,23,107472.069281
-4.221655,22,107472.219667
15.46309,29,107472.415413
5.386929,21,107472.569437
-0.80333,23,107472.729966
4.198831,23,107472.892862
8.744068,24,107473.069654
6.202886,22,107473.221087
-2.69192,22,107473.370821
7.271962,21,107473.51761
0.843027,21,108228.797927
-3.96851,29,108228.991866
-1.385146,25,108229.156585
-4.785699,17,108229.272902
1.295472,20,108229.41157
4.79872,21,108229.56315
-1.234045,20,108229.702066
13.923379,35,108229.941586
-17.185392,19,108230.069071
7.185588,27,108230.253244
-5.616419,20,108230.399201
4.073538,21,108230.537155
-1.025036,20,108230.685099
-7.356494,18,108230.806526
2.134623,23,108230.965846
8.744417,28,108231.148244
-0.49785,22,108231.303008
-0.778135,20,108231.43611
2.560049,28,108231.627851
3.673407,24,108231.798321
8.122255,21,108231.946749
10.204859,30,108232.153812
-3.873922,21,108984.369429
-4.68397,19,108984.493745
24.688097,37,108984.76447
5.389965,21,108984.908823
4.404553,20,108985.054933
-5.228612,21,108985.201833
17.423297,33,108985.415759
-1.613824,20,108985.54456
1.866333,20,108985.690612
2.294549,30,108985.894802
-0.695683,32,108986.124752
16.942233,35,108986.361489
4.11566,22,108986.518211
1.314553,29,108986.716958
-1.940023,21,108986.858619
-3.633159,18,108986.992053
15.592385,38,108987.245751
-3.583128,19,108987.374985
3.884824,27,108987.554614
1.715552,20,108987.690684
20.98772,36,109739.424384
-0.723938,28,109739.608385
1.091543,21,109739.751905
6.234157,40,109740.021873
7.53875,32,109740.2399
-5.924147,26,109740.417009
-5.247191,19,109740.549594
-10.801121,20,109740.684032
-16.941655,20,109740.813025
1.820579,27,109741.006727
3.070247,29,109741.215212
1.622543,20,109741.358744
2.868309,25,109741.531491
6.413991,29,109741.729665
-0.600281,26,109741.901621
-3.683837,25,109742.070358
-3.44565,27,109742.25878
14.158662,32,109742.472676
-4.237005,21,109742.618752
2.926967,20,109742.752072
3.977971,27,110494.980289
-5.435514,19,110495.107344
-7.606708,27,110495.278074
-8.578786,18,110495.3979
4.292094,24,110495.560406
5.05207,25,110495.726673
-3.476774,21,110495.869681
1.528199,22,110496.020527
-0.442025,21,110496.161914
-7.015051,21,110496.313994
6.218762,29,110496.496794
9.078737,29,110496.685681
-2.980423,21,110496.830448
-2.562571,31,110497.038688
4.462434,26,110497.213821
5.231699,30,110497.42327
-0.736115,29,110497.615387
-4.647944,30,110497.823816
-0.971094,22,110497.974876
1.804082,24,110498.126097
4.679003,20,110498.267845
-4.747524,22,111249.261927
9.245611,24,111249.419352
25.090123,36,111249.652875
-0.741121,23,111249.799742
14.408428,33,111250.021143
3.816785,22,111250.170382
9.628179,30,111250.377017
0.908061,19,111250.502907
4.412449,25,111250.67508
13.807626,30,111250.87578
3.482076,25,111251.037014
0.884986,20,111251.175416
-2.279236,24,111251.328859
0.377987,21,111251.471556
-2.493832,30,111251.679884
7.342022,24,111251.832582
-1.882646,22,111251.990146
2.564734,24,111252.147047
7.907045,27,111252.330842
1.614339,22,111252.478649
-0.365438,21,112002.814825
17.738834,39,112003.076443
6.932845,29,112003.264332
0.429491,20,112003.398778
9.608413,39,112003.653405
8.481294,32,112003.861893
-4.32115,22,112004.00093
9.708823,31,112004.21014
21.602224,35,112004.44779
2.059677,21,112004.587074
3.825465,21,112004.726985
-0.979399,23,112004.887544
11.70638,32,112005.101139
3.42784,29,112005.299783
2.616329,37,112005.546983
18.976341,41,112005.833845
-4.736609,23,112005.98254
-1.259917,20,112006.12369
12.943492,40,112757.381737
-5.841105,23,112757.533808
-2.934556,21,112757.670351
17.124256,33,112757.893669
15.577882,29,112758.094757
2.659823,21,112758.23393
-7.135553,22,112758.375516
-17.184809,21,112758.509874
-2.06588,34,112758.736524
-10.856413,19,112758.87569
12.852485,31,112759.091885
-7.215651,18,112759.208481
4.366315,24,112759.365314
-6.541918,22,112759.514796
19.659622,34,112759.744678
16.671611,37,112760.000158
6.757919,27,112760.173868
6.013134,21,112760.312877
1.271194,20,112760.446734
11.450416,33,113510.881906
-6.344065,20,113511.007538
-6.252631,20,113511.140095
1.78751,29,113511.337015
1.924652,20,113511.477009
4.215326,29,113511.679872
4.069412,31,113511.890851
-4.857818,20,113512.020144
-6.353794,19,113512.139979
5.589048,26,113512.313037
0.425492,20,113512.443813
1.94856,20,113512.577137
-1.729895,21,113512.716556
1.421479,34,113512.94222
-10.866108,21,113513.075428
-0.226458,26,113513.247113
-1.607477,27,113513.434244
8.305815,31,113513.635138
-5.465842,17,113513.743855
-3.377205,22,113513.896991
1.518095,21,113514.039108
-2.824423,21,113514.181312
-3.44767,20,114265.542985
-0.714458,26,114265.723878
6.013021,25,114265.884622
13.582699,31,114266.093398
3.048996,25,114266.259546
5.506114,27,114266.438703
10.835004,32,114266.65109
-4.615669,19,114266.775555
0.708638,30,114266.975726
33.754065,39,114267.23207
-6.145642,21,114267.362943
-1.740625,20,114267.493901
4.004458,21,114267.639989
8.642297,31,114267.84955
-2.692406,24,114268.008305
16.921543,36,114268.244766
-7.571102,19,114268.367055
-2.201996,20,114268.504075
14.497129,37,114268.743068
1.554886,21,115019.758155
-3.919161,27,115019.93825
-4.429265,31,115020.143786
5.015901,22,115020.291791
-3.295499,27,115020.468411
5.215089,28,115020.64922
-0.309115,23,115020.798683
1.696808,28,115020.993294
4.034428,27,115021.187923
0.755785,34,115021.403785
-7.513325,21,115021.544487
-4.319853,26,115021.718978
-1.421097,26,115021.900833
7.293145,28,115022.082693
-7.751512,18,115022.204518
10.334387,43,115022.488294
17.596497,30,115022.692325
-1.675783,21,115022.827147
1.869018,20,115022.955176
6.482613,25,115023.130494
9.121632,32,115774.72954
3.985122,29,115774.931104
-14.675894,17,115775.042002
17.740869,40,115775.304119
9.19501,43,115775.583212
17.416139,34,115775.812243
14.251923,32,115776.034046
5.823103,28,115776.21762
26.121431,35,115776.452363
2.884615,25,115776.618879
-1.041857,21,115776.763813
-6.119103,20,115776.887637
6.298697,36,115777.132029
-1.642652,20,115777.26598
10.963939,31,115777.466159
-7.582791,18,115777.582271
4.656887,25,115777.745038
-14.946832,19,115777.868281
-7.655165,26,116527.423503
-4.942134,26,116527.588407
4.541469,21,116527.731425
2.783261,28,116527.921158
1.764302,20,116528.059556
-4.196406,23,116528.217442
1.737137,33,116528.43006
9.788751,31,116528.628893
13.241798,34,116528.863594
1.370691,20,116528.98917
0.084896,21,116529.136983
-4.318502,35,116529.375932
-0.492765,21,116529.511129
1.294935,25,116529.687896
3.125169,25,116529.868106
4.591787,27,116530.045645
19.978974,36,116530.279886
18.220971,39,116530.534423
15.834998,44,117279.800538
-0.813735,22,117279.941235
-2.895998,23,117280.089142
2.266422,35,117280.326249
7.605869,36,117280.569831
-6.024489,28,117280.75958
-5.320351,21,117280.904665
-4.749285,38,117281.149672
-3.114965,31,117281.362391
-4.384463,23,117281.509616
4.14786,35,117281.729645
12.622845,30,117281.926933
1.586096,25,117282.097937
15.59689,30,117282.296158
-3.597061,36,117282.532753
18.426623,37,117282.782559
23.34183,38,117283.038501
2.875811,22,118033.312918
14.109761,32,118033.53717
6.081899,31,118033.739337
-2.439951,31,118033.946089
-15.982276,19,118034.067184
0.674793,31,118034.270237
-13.886754,18,118034.393496
8.871312,29,118034.588871
17.524153,37,118034.836014
-13.257547,17,118034.948995
-4.63918,21,118035.085865
10.222465,37,118035.326998
8.523537,33,118035.549522
-0.419603,21,118035.69274
-1.250452,35,118035.915137
10.731419,36,118036.160628
20.931702,37,118036.409322
-1.796384,20,118036.53673
-4.042301,25,118787.598993
2.690432,24,118787.753273
-2.050654,20,118787.885199
14.097088,33,118788.105808
-7.27128,22,118788.246299
-7.124932,20,118788.379695
-6.689805,19,118788.503156
24.781282,39,118788.76462
-6.342944,23,118788.904969
-0.137863,20,118789.034154
4.379614,33,118789.250046
-13.055591,19,118789.368714
13.326573,40,118789.622613
-5.068761,30,118789.835002
-14.120609,18,118789.95861
-8.499811,20,118790.092751
-7.459163,20,118790.22051
12.571893,35,118790.44764
-3.466435,24,118790.605339
-4.451094,25,118790.760864
-1.086658,23,119542.801079
13.465437,29,119542.989051
-0.688286,22,119543.132189
4.724621,30,119543.334407
6.810724,36,119543.577321
2.353685,29,119543.775538
-0.818237,38,119544.01931
-0.662337,33,119544.246404
14.036791,37,119544.484872
-2.923048,20,119544.620198
-3.980701,26,119544.792064
0.442495,34,119545.010549
11.701079,35,119545.238843
7.049662,37,119545.487524
12.097327,29,119545.686528
6.49002,32,119545.896278
-0.703944,21,119546.050097
22.720768,40,120297.327502
10.744901,39,120297.577538
-4.712157,40,120297.843363
14.037063,34,120298.081376
15.067942,36,120298.319529
-6.243025,19,120298.453851
10.875545,33,120298.66527
-2.672074,25,120298.824199
-18.74141,17,120298.939217
-1.258052,22,120299.090362
-1.029976,21,120299.227324
-0.573322,20,120299.370791
3.039334,20,120299.503675
19.388363,36,120299.745174
13.063378,34,120299.958702
15.221208,31,120300.170187
-18.454779,39,120300.426458
-6.968846,20,120300.551699
-9.196551,18,121050.822232
10.805721,34,121051.047502
-7.662965,20,121051.173517
1.71499,26,121051.351406
2.161255,30,121051.546252
-0.413036,21,121051.684625
20.612629,39,121051.942354
15.777055,36,121052.1918
13.024768,39,121052.447152
-3.294399,23,121052.591826
9.345762,27,121052.768482
4.890498,22,121052.906152
-6.086076,27,121053.078079
-6.577136,20,121053.212436
-0.4462,43,121053.491998
-6.352914,20,121053.626047
-2.981379,22,121053.768208
-3.438472,21,121053.904642
-9.58756,21,121054.049457
-0.735004,32,121805.262985
-8.923013,20,121805.401007
4.831927,34,121805.620047
-15.027702,28,121805.812209
11.966643,37,121806.051113
-3.470629,20,121806.187827
5.478557,30,121806.390512
-1.856756,20,121806.525036
-6.314471,32,121806.745389
-1.750535,32,121806.955499
13.98695,38,121807.213101
-6.506285,26,121807.37589
-2.474216,26,121807.543537
1.446095,36,121807.77061
4.002708,46,121808.075787
0.618249,30,121808.271043
-7.986881,20,121808.405372
-10.781178,18,122560.751888
-8.867248,21,122560.889383
5.958113,44,122561.190984
-7.772411,20,122561.33544
0.321029,32,122561.552136
0.395403,21,122561.69079
0.648385,29,122561.884572
-2.922019,25,122562.051806
-4.90624,21,122562.198454
-15.139495,18,122562.320602
-23.272907,46,122562.63336
-6.332523,21,122562.763097
-4.113628,30,122562.951605
-5.598498,21,122563.081112
10.179673,41,122563.348297
14.325843,31,122563.554355
-5.232821,19,122563.672107
0.476708,20,122563.79849
13.208987,28,122563.979712
2.89225,35,123316.192435
13.9827,32,123316.409106
12.258567,32,123316.630013
13.255608,30,123316.824882
-0.696749,31,123317.03303
11.222201,29,123317.221905
-1.524445,27,123317.400809
9.500026,26,123317.570781
1.641201,20,123317.702631
19.891335,37,123317.943029
-0.341979,32,123318.156424
-5.039119,19,123318.28236
-3.148083,32,123318.49425
-1.943092,21,123318.630574
-3.990777,20,123318.75834
-2.669554,23,123318.911741
17.551924,35,123319.149289
-3.548487,19,123319.281219
4.459873,34,123319.506954
-11.871562,20,124069.652737
-3.346261,20,124069.78124
1.452454,22,124069.930034
-3.066107,26,124070.107694
2.469241,21,124070.249183
-1.719521,21,124070.385217
2.834167,20,124070.512524
28.286391,55,124070.885983
29.822144,40,124071.146716
-0.31381,19,124071.27536
8.314748,30,124071.467301
11.999462,28,124071.647458
9.671763,31,124071.841986
25.133332,41,124072.110377
-18.324907,26,124072.285933
-1.146645,19,124072.403396
-4.589077,19,124072.538735
-4.106501,26,124072.702951
-6.040455,19,124072.833037
9.969044,31,124823.894492
-12.25679,19,124824.023766
15.354324,42,124824.307241
0.488777,35,124824.539166
-0.228369,21,124824.679727
1.607894,40,124824.946388
10.25066,37,124825.183276
-0.146594,28,124825.360611
-10.722876,49,124825.67875
3.329659,38,124825.93203
11.238418,42,124826.209523
-7.401353,25,124826.369915
32.645853,41,124826.630725
-17.140123,18,124826.748664
-7.66499,19,124826.885518
12.590592,36,124827.120529
16.228601,45,125577.811072
9.18553,41,125578.092299
-3.881494,19,125578.219205
-17.886554,19,125578.342723
-3.356903,34,125578.572594
16.441784,42,125578.854053
-5.603756,28,125579.033301
-8.585249,22,125579.174302
12.233411,38,125579.419836
6.345111,31,125579.62704
-7.854644,21,125579.762912
14.703438,37,125579.998819
-1.039364,36,125580.226147
-5.33921,23,125580.370219
14.500727,41,125580.64004
-1.430102,21,125580.78463
-10.729342,20,126332.11756
23.345215,36,126332.350647
-0.104811,26,126332.521836
-5.54599,20,126332.664242
-10.475718,20,126332.789674
8.407549,33,126333.013232
-1.256523,20,126333.137748
17.18596,43,126333.414344
-19.549536,18,126333.526254
-14.422749,45,126333.829409
-0.93602,21,126333.974275
7.834859,32,126334.181282
-6.022668,23,126334.330567
-1.904811,25,126334.490809
-5.638719,20,126334.619759
-15.30659,17,126334.737845
-4.362751,37,126334.981782
1.724111,38,126335.234635
-6.277352,21,126335.373515
3.037655,33,127093.562493
-5.344792,20,127093.694947
-9.497154,20,127093.839464
-12.549245,43,127094.144484
7.217564,33,127094.373029
-12.424094,20,127094.513748
-1.489447,21,127094.663914
8.966089,37,127094.928503
-10.563115,17,127095.048988
1.360056,31,127095.266932
-3.913513,36,127095.531883
-7.514834,24,127095.700794
-0.960917,39,127095.977815
-11.33177,20,127096.128539
-8.232138,21,127096.271688
13.530367,45,127096.58243
-1.172262,32,127096.802884
19.036488,44,129394.904324
-13.562705,28,129395.480273
23.614624,53,129396.51855
20.034045,43,129397.318716
-16.010342,23,129397.818207
-2.739882,25,129398.269545
-5.59715,21,129398.715149
11.250981,46,129399.620261
15.03356,39,129400.421267
0.605592,37,129401.148799
1.284794,33,129401.780861
3.600536,26,129402.276878
17.847786,32,129402.870338
26.193243,42,129403.695935
-21.47553,17,129403.996144
-11.330532,22,129404.397154
-5.125301,21,132379.353969
-7.660999,24,132379.802861
-6.851186,22,132380.216026
-1.02073,22,132380.61489
-11.792292,21,132380.985991
4.695568,38,132381.714303
-15.906632,21,132382.114944
13.440311,41,132382.944656
-6.489417,19,132383.341004
3.121705,47,132384.265053
1.79372,41,132385.093047
11.150783,36,132385.846997
15.043383,36,132386.58844
17.465208,41,132387.414279
-15.492698,18,132387.735269
-14.087844,47,132388.606403
6.272665,42,135349.777678
10.277614,39,135350.58149
-21.771451,18,135350.951139
-18.015048,40,135351.787335
15.720006,33,135352.412694
12.050669,47,135353.330958
-9.771653,34,135354.033885
-1.38672,28,135354.624393
-9.286063,20,135354.988873
1.173184,27,135355.483415
6.911644,36,135356.193242
15.780579,33,135356.804747
-5.646107,21,135357.251185
-4.530165,24,135357.71949
-4.417858,46,135358.666967
-0.002268,20,135359.046664
18.940974,43,138302.44922
-1.114589,37,138303.086859
1.547121,20,138303.478507
13.918893,42,138304.21982
24.362673,40,138305.023685
18.755309,37,138305.758182
4.172437,43,138306.595583
-11.827282,20,138307.084866
-4.64536,32,138307.804369
1.916205,26,138308.358387
-15.600861,34,138309.054693
-4.365612,21,138309.472128
-21.158149,21,138309.852277
7.385841,34,138310.497925
15.158326,42,138311.250369
13.348292,37,138311.945488
-0.639386,28,141304.770243
2.393592,31,141305.400504
-12.233937,22,141305.803689
5.605207,38,141306.525905
-15.828616,21,141306.926666
5.882335,39,141307.686514
14.256608,36,141308.329243
-12.672135,20,141308.739532
-10.118323,34,141309.446154
15.741703,43,141310.328195
15.231147,37,141311.128112
3.236924,41,141311.977137
14.041894,41,141312.794806
11.313705,35,141313.479004
-3.857927,28,141314.035213
6.972491,38,144316.631136
-4.949707,28,144317.179703
19.698347,47,144318.084321
-8.321156,29,144318.608166
12.738484,32,144319.243072
3.02905,21,144319.622397
27.599994,45,144320.588267
13.092778,36,144321.322128
27.892591,50,144322.407945
1.080812,30,144323.030951
2.53883,34,144323.723965
0.636633,50,144324.709373
6.92245,43,144325.523664
10.659248,30,144326.06235
21.300576,40,147313.652194
7.972355,36,147314.426908
6.351661,33,147315.192217
-6.139217,22,147315.605085
-9.147578,22,147316.046435
7.214245,34,147316.728688
20.353487,37,147317.515338
-5.360747,32,147318.181014
0.131407,27,147318.717899
18.910872,36,147319.508634
0.394002,31,147320.198721
-9.118833,25,147320.72266
-0.896592,23,147321.232212
-17.312041,27,147321.865312
0.485931,37,147322.592727
-4.959228,31,147323.259343
20.49291,47,147324.237227
5.15205,31,150260.117501
-13.47788,35,150260.920203
-1.600063,41,150261.802234
-6.804725,23,150262.345067
-1.98622,20,150262.775096
-14.050724,28,150263.374864
15.411242,51,150264.518817
13.492603,36,150265.275992
-33.440938,19,150265.703739
13.008934,34,150266.435205
4.293649,35,150267.243986
20.826497,39,150268.145132
12.621848,47,150269.189357
0.001487,21,150269.64408
10.610325,35,150270.504963
-6.36489,33,153219.172991
18.195711,44,153220.193507
-3.49259,20,153220.655325
7.758058,46,153221.721414
20.402087,50,153222.844223
15.065075,32,153223.605306
-6.937634,22,153224.081481
-2.81126,23,153224.590081
1.712119,20,153225.028781
-5.420887,19,153225.452719
1.487063,25,153226.004426
17.74308,39,153226.850935
18.540837,42,153227.763906
-1.734822,34,153228.51768
7.914762,29,153229.194794
-21.837565,18,153229.625018
0.157565,27,153230.251084
-18.25541,18,156174.481128
-20.725019,46,156175.4986
-2.573247,33,156176.218431
19.993303,39,156177.067699
-7.215907,41,156177.972322
-4.94358,19,156178.37967
-9.701191,25,156178.960749
17.454582,45,156179.978888
-11.440968,19,156180.453964
11.377414,35,156181.253083
12.54067,39,156182.131828
-2.544877,19,156182.551654
-11.104467,20,156183.023274
6.581952,37,156183.806925
7.805003,36,156184.635777
6.583115,35,156185.379903
-16.301527,18,156185.786026
-6.385043,21,159137.303425
-8.130093,20,159137.670676
5.882731,36,159138.389026
2.329822,35,159139.10301
-2.181699,36,159139.799292
-18.040912,37,159140.498954
11.531646,37,159141.157151
8.505126,39,159141.835716
23.172147,37,159142.492151
16.076023,35,159143.15268
4.133798,42,159143.930561
-6.64956,23,159144.352114
-24.205802,27,159144.844964
-8.699149,28,159145.411018
-9.486704,23,159145.876171
-0.836106,30,159146.512882
-21.941597,28,161192.471844
1.864155,37,161192.889657
-153.898734,45,161193.428087
-1.918945,35,161193.837727
0.903467,20,161194.075061
32.133314,57,161194.805931
10.630229,36,161195.242151
7.736361,31,161195.613386
10.854751,46,161196.133304
-13.351069,24,161196.412304
12.325309,33,161196.836057
0.380141,43,161197.356534
17.041749,37,161197.798684
3.003907,34,161198.228533
16.218679,37,163213.223277
15.612772,36,163213.687016
16.771377,36,163214.153253
-1.061519,29,163214.501566
11.967554,36,163214.94303
4.902041,28,163215.284239
6.089223,39,163215.737742
17.008026,42,163216.247143
6.23031,35,163216.657769
-0.761279,34,163217.061664
-16.024666,20,163217.326664
3.434428,31,163217.675294
-6.935079,22,163217.929185
6.856879,43,163218.474973
23.187069,39,163218.934283
6.187489,42,165217.42335
-13.51706,20,165217.661809
-9.18282,24,165217.971067
0.657314,33,165218.347218
7.59801,42,165218.832928
-5.34652,27,165219.168014
-6.702973,34,165219.556538
-6.89471,31,165219.916487
-5.061981,36,165220.365329
3.662596,35,165220.831217
6.960067,36,165221.305619
-15.25749,35,165221.761091
13.290322,59,165222.533257
-13.1729,18,165222.745992
-3.85997,33,165223.135022
6.534319,33,167231.15554
-10.205006,18,167231.350271
13.702193,39,167231.783108
-4.710686,20,167231.997161
-6.313489,21,167232.225667
-2.710811,22,167232.448782
3.515099,29,167232.748317
5.051901,54,167233.357909
17.186088,42,167233.815482
7.957062,43,167234.300399
19.52669,42,167234.79224
5.765455,33,167235.152287
-7.539837,19,167235.369009
-2.710668,51,167235.943881
-5.192325,19,167236.140505
7.231801,40,167236.580359
6.817251,39,169250.291962
14.196253,38,169250.70888
-4.228102,23,169250.96528
-4.656642,20,169251.197011
-3.846339,31,169251.533955
-0.17775,45,169252.034693
3.110159,38,169252.459002
2.310612,32,169252.814792
21.480202,39,169253.233176
3.368237,35,169253.648719
9.601852,45,169254.154541
21.343786,42,169254.644016
-10.015903,22,169254.880468
-5.869444,20,169255.092419
-2.792901,35,169255.471225
-6.288045,20,171262.330338
-5.38206,33,171262.700681
21.927276,42,171263.174874
-5.038952,20,171263.394121
1.612965,32,171263.738277
-0.659353,25,171264.00341
0.804529,34,171264.38807
19.150109,43,171264.846593
8.911759,42,171265.313877
-0.861605,40,171265.778332
4.767846,48,171266.322398
30.966955,48,171266.860892
-5.936994,19,171267.068502
12.99756,47,171267.595311
5.995585,38,171268.04691
-11.844528,25,173275.926794
-16.926863,30,173276.251117
-11.593569,19,173276.45384
-15.007335,33,173276.825546
-6.170164,40,173277.272705
17.628827,42,173277.769221
-10.447464,47,173278.301418
10.510483,42,173278.770243
22.941491,44,173279.266585
7.38615,35,173279.643105
-9.477121,29,173279.961246
-9.53377,21,173280.19876
2.680068,42,173280.655067
-13.226785,19,173280.862516
-4.413585,20,173281.090212
