# {"t_start": 1546996382.8025322, "env_id": "CrazyClimberNoFrameskip-v4"} 
r,l,t
7500.0,2521,56.793621
11000.0,2317,107.408367
27700.0,3590,184.459439
26600.0,2703,246.429077
22700.0,2948,318.24674
30100.0,2894,394.268878
81700.0,4890,520.721093
24600.0,3158,602.021706
74900.0,4707,723.651996
37500.0,3002,802.079767
40500.0,2501,866.460736
25700.0,2430,929.100953
42300.0,3267,1015.673119
76400.0,4318,1126.550403
30300.0,2848,1199.816854
70100.0,5019,1329.855788
66500.0,4499,1445.230303
34300.0,2426,1506.613698
25700.0,2497,1568.576879
24700.0,2469,1632.342969
72500.0,4949,1761.495103
38200.0,2478,1826.077357
75200.0,3375,1913.441639
39000.0,2393,1975.053712
86100.0,5220,2107.999782
25100.0,2412,2171.93592
66100.0,3697,2266.451903
26800.0,2759,2336.763627
66100.0,3699,2431.266036
80700.0,4679,2551.467406
38700.0,2822,2625.916855
33100.0,2591,2692.42624
11000.0,2229,2751.605157
95900.0,3651,2848.309633
94400.0,4647,2968.533816
29100.0,2393,3030.371015
96000.0,3770,3126.941313
85900.0,4109,3232.589115
100200.0,4661,3353.247088
35000.0,2177,3411.579675
95400.0,3953,3515.296837
51100.0,3006,3593.039672
34500.0,2437,3654.869077
33900.0,2879,3730.384713
97600.0,4083,3837.285416
88600.0,4108,3943.803291
32300.0,2527,4010.315907
89200.0,4975,4137.463863
94500.0,4314,4248.711985
112200.0,4117,4355.513476
61000.0,3341,4440.090201
66300.0,3573,4531.984306
86600.0,3705,4627.387064
49400.0,2741,4700.199469
26100.0,2591,4767.468634
29100.0,2260,4827.415024
30500.0,2463,4890.477487
89800.0,4619,5008.457851
91400.0,3982,5112.939309
31700.0,2839,5185.645318
115400.0,4066,5288.973685
38700.0,3019,5369.148221
77700.0,4213,5479.968157
29300.0,2729,5549.891825
32700.0,2593,5615.325834
67400.0,4055,5719.57041
87700.0,4407,5833.4156
50100.0,3064,5911.789351
102600.0,4872,6040.121498
86700.0,4137,6146.200505
68900.0,4389,6261.502621
118300.0,4428,6377.707664
96700.0,3974,6481.793949
38400.0,2135,6537.18815
29000.0,2230,6595.257313
94000.0,4282,6706.72247
29500.0,2265,6765.437626
107800.0,3924,6868.02838
72500.0,4196,6977.165497
86800.0,3955,7078.932901
108500.0,3768,7177.539704
103400.0,3939,7279.92236
33700.0,2444,7343.262132
92300.0,4125,7450.169986
77000.0,3841,7548.941509
105200.0,4090,7655.322923
39600.0,2288,7715.050253
108500.0,4010,7817.853463
32500.0,2587,7884.829284
39400.0,2138,7939.80988
77100.0,3717,8034.840795
96000.0,3750,8131.367383
74300.0,4190,8237.987757
75100.0,3601,8330.590077
57500.0,3882,8431.595009
34100.0,2596,8498.525412
100800.0,3930,8601.305255
120800.0,4339,8714.496104
28500.0,2052,8768.923766
112700.0,3978,8871.465377
41000.0,2172,8925.818868
38000.0,2703,8996.201202
39700.0,2598,9064.193133
48600.0,2972,9143.740233
109400.0,3927,9248.469134
111400.0,3815,9347.019988
95300.0,3409,9439.777573
95700.0,3588,9535.933083
98800.0,3487,9628.902617
64800.0,3000,9709.800983
40000.0,2129,9768.466087
116900.0,4217,9880.084724
98300.0,3945,9983.102977
100900.0,3609,10076.217681
117900.0,4060,10179.957252
110800.0,4181,10288.929375
95600.0,3775,10388.939367
78700.0,3911,10490.73455
102400.0,3930,10593.23524
108400.0,3745,10689.001766
37900.0,2713,10758.300584
96300.0,3759,10856.992861
39300.0,2083,10911.889521
108800.0,3987,11016.145129
95600.0,3498,11106.448012
112400.0,4057,11212.128344
115600.0,4165,11318.030748
53200.0,3032,11396.11092
60100.0,2741,11467.607259
97500.0,3763,11563.901005
94300.0,4080,11668.01263
109000.0,3782,11766.54227
129000.0,4205,11876.800588
49200.0,2699,11948.969638
114300.0,4850,12076.93481
121100.0,4345,12193.397851
103300.0,3597,12287.232193
121300.0,4027,12391.665341
113600.0,3956,12493.921447
100800.0,4161,12601.066261
101400.0,4032,12707.411834
137800.0,4678,12828.030191
95600.0,3364,12915.251314
99400.0,3489,13006.107574
99400.0,3890,13108.711349
101700.0,4173,13215.554737
42400.0,2395,13278.182903
43000.0,2320,13338.717774
110900.0,4242,13446.673126
96100.0,3421,13535.394358
69500.0,3306,13621.450937
116000.0,3933,13727.393113
123600.0,4236,13838.963448
109700.0,4255,13949.08284
107500.0,3684,14043.313748
112900.0,3821,14141.51105
115800.0,4334,14254.122569
95500.0,3402,14344.004171
109900.0,3861,14443.890176
111100.0,4142,14551.703897
113600.0,3786,14650.342062
41600.0,2223,14709.337617
87800.0,3723,14805.778141
75400.0,3059,14886.073131
95800.0,3891,14987.922141
97300.0,3457,15076.978992
36700.0,2170,15133.653907
95200.0,3517,15224.297938
117100.0,4047,15328.984945
93900.0,4546,15445.671105
28800.0,1942,15496.334295
95600.0,3735,15591.556888
107400.0,3598,15685.203602
116600.0,4510,15802.267354
36800.0,2142,15857.677535
94800.0,3385,15945.893153
87000.0,3910,16047.307764
81100.0,4003,16152.579952
94000.0,4302,16264.295818
81600.0,3929,16366.382108
98400.0,3532,16458.887541
109800.0,3761,16555.20822
86900.0,4007,16659.601301
116300.0,4102,16764.256005
95000.0,4406,16878.623355
108600.0,4047,16982.358667
95500.0,3745,17079.973579
112700.0,3808,17177.26596
112500.0,3912,17276.921472
107600.0,3790,17373.549879
113600.0,4354,17485.53752
109400.0,3975,17589.27594
102600.0,3807,17685.512454
109500.0,4128,17792.493399
135100.0,4468,17908.668929
98000.0,4002,18014.458428
38600.0,2021,18066.834356
90200.0,4426,18182.096891
37800.0,2275,18242.161858
109500.0,3905,18343.158785
92000.0,4154,18450.17692
96900.0,3487,18541.087978
122500.0,4573,18659.342902
94400.0,3829,18758.92878
106800.0,4430,18875.748949
39700.0,2104,18930.749574
118000.0,4672,19050.204245
103700.0,3542,19142.700713
99800.0,3595,19235.416296
114700.0,4664,19356.168749
69400.0,3297,19440.728262
116100.0,4194,19549.454109
112300.0,4114,19655.497006
97300.0,3904,19756.81725
116500.0,3881,19858.746675
96400.0,3486,19948.128837
111200.0,4019,20054.500785
109900.0,3781,20152.522917
94700.0,3921,20255.013514
43800.0,2207,20312.789381
116000.0,4051,20416.701595
103700.0,3771,20515.651455
97700.0,4027,20620.21362
39600.0,2005,20671.744156
42600.0,2244,20729.060782
108500.0,3984,20833.246425
102800.0,3810,20933.02671
37900.0,2120,20988.446584
75600.0,3175,21071.537119
108200.0,3902,21172.222581
107200.0,3919,21274.66025
80800.0,3821,21373.628443
103900.0,3661,21470.965324
108600.0,3698,21568.888543
96800.0,3591,21663.985343
95800.0,3367,21752.175957
110100.0,4024,21857.09229
119200.0,3959,21959.15063
50500.0,2536,22023.661451
118300.0,4378,22137.526516
96100.0,3656,22232.542479
108700.0,3765,22331.863196
115600.0,3972,22434.11242
114800.0,3770,22533.333087
47800.0,2329,22593.455124
119400.0,4557,22712.014431
106800.0,3551,22805.707256
113500.0,3871,22907.1508
112100.0,3852,23008.097393
109800.0,3756,23104.960114
95700.0,3459,23196.673101
95500.0,3458,23285.838235
95600.0,3422,23373.025523
105900.0,3678,23468.455964
115000.0,4062,23574.369648
39400.0,2000,23625.971802
116500.0,4127,23736.096909
103100.0,3911,23837.333254
110600.0,3717,23934.67942
111900.0,4053,24039.057744
111900.0,4040,24144.214702
96400.0,3446,24234.479442
107900.0,3674,24328.025215
107200.0,3841,24427.565829
115600.0,4380,24542.433141
102600.0,3572,24636.662924
110700.0,3692,24732.489418
105400.0,4409,24847.93671
101300.0,3480,24938.268755
111900.0,4179,25048.739698
108400.0,3769,25145.878771
108500.0,3842,25245.841111
51300.0,2653,25315.582742
95600.0,3736,25413.358501
75400.0,3195,25494.540873
95400.0,3544,25587.306339
112500.0,3825,25686.980902
107800.0,4009,25792.987383
106100.0,3949,25897.308546
108300.0,3875,25998.361636
97800.0,3735,26097.834174
112900.0,3864,26198.605558
119400.0,3888,26299.956132
108300.0,4053,26405.078843
57300.0,2509,26470.302285
106200.0,3759,26568.950467
111600.0,4080,26675.474467
92000.0,3924,26776.63541
110800.0,4852,26903.115799
110000.0,3861,27004.65429
107500.0,4164,27113.381364
109400.0,3742,27211.096204
91300.0,4287,27323.829818
73500.0,3162,27406.596534
95400.0,3425,27495.676541
108200.0,3832,27594.489016
102200.0,3775,27694.38939
111100.0,3937,27796.627212
103300.0,3856,27898.34546
103400.0,3803,27997.83359
94000.0,5035,28130.680799
114000.0,4057,28235.53937
94500.0,3554,28326.912408
42400.0,2174,28384.038067
95000.0,3496,28474.116981
97100.0,3711,28575.501691
108100.0,3616,28669.580616
119000.0,4444,28786.548089
124600.0,4577,28906.227249
124900.0,4685,29029.136448
94600.0,3347,29114.75717
66300.0,3694,29212.001646
64600.0,2846,29284.769048
106700.0,3980,29386.671305
75100.0,3257,29471.546946
135500.0,4664,29593.173352
94800.0,4006,29699.561455
94700.0,3471,29792.107043
112900.0,3809,29891.232787
111800.0,3906,29993.775226
103000.0,4225,30105.361333
95200.0,3418,30198.227336
107900.0,4097,30309.096937
122200.0,4381,30424.672985
123700.0,4266,30540.244455
107500.0,3936,30644.377819
95000.0,3313,30731.448912
94700.0,3377,30819.497881
94100.0,4518,30940.750423
138600.0,4369,31057.218526
112900.0,4084,31167.087217
99600.0,3538,31259.613289
94000.0,4322,31372.977651
121900.0,4585,31489.29785
77800.0,3575,31581.856447
76900.0,3852,31683.908438
94800.0,3653,31781.142643
98700.0,3496,31874.839962
112300.0,3768,31971.269697
136100.0,4835,32095.880002
123800.0,4098,32202.518175
95600.0,3420,32293.767043
108500.0,3816,32393.094544
43900.0,2126,32447.304887
100800.0,4214,32556.244386
126500.0,4521,32675.796813
103900.0,3655,32776.979158
108100.0,3752,32873.602306
109500.0,3767,32972.819621
143500.0,4431,33088.4958
108100.0,4108,33198.853245
74100.0,4089,33311.246809
95600.0,3554,33406.964325
90400.0,3914,33510.822997
69000.0,2914,33590.207028
116500.0,4477,33713.229898
112500.0,4077,33822.412346
122700.0,4181,33932.555439
94500.0,3884,34037.316433
101400.0,3669,34135.649977
101800.0,3671,34234.529719
95600.0,3971,34343.71344
108700.0,3899,34445.466577
123200.0,4345,34557.929772
95000.0,3413,34647.521734
115600.0,4281,34758.241986
52500.0,2423,34821.163788
95700.0,3640,34916.661193
122000.0,3977,35022.157949
48200.0,2251,35078.998949
103800.0,3592,35171.882477
119100.0,3846,35274.451651
120100.0,4240,35383.219451
121500.0,4282,35492.424637
109400.0,3686,35586.630288
95500.0,3644,35675.790999
96200.0,3781,35773.994303
38100.0,2194,35831.017474
97800.0,3457,35921.380979
109700.0,3680,36016.637453
119700.0,4063,36120.72683
96300.0,3348,36206.39392
140900.0,5215,36340.658675
41400.0,2115,36396.251915
129800.0,4281,36507.425587
98900.0,4066,36615.782456
112200.0,3751,36713.245499
95900.0,3736,36809.66584
99300.0,3984,36911.949785
110400.0,3674,37006.075659
125500.0,4277,37117.602641
110100.0,3993,37221.841466
126000.0,4385,37333.092536
108800.0,4266,37444.314746
103900.0,3822,37543.976758
128300.0,4527,37661.809786
112400.0,3786,37761.3583
109700.0,3653,37855.654182
107200.0,3842,37956.858413
101500.0,3807,38053.618621
106300.0,4080,38157.922377
116300.0,4607,38274.522698
110600.0,4052,38377.491715
109000.0,4152,38484.523043
96200.0,3401,38571.267944
97400.0,3517,38663.277156
108400.0,3784,38762.413145
107200.0,3709,38857.958534
104400.0,3621,38950.182877
103100.0,3706,39046.580581
118200.0,4195,39154.605556
96900.0,4099,39259.88012
115300.0,3924,39364.447064
120900.0,4112,39471.881774
124700.0,3929,39573.988078
122300.0,4199,39679.18834
103600.0,3761,39776.549567
74200.0,3201,39859.758317
108700.0,3807,39959.582765
104800.0,3933,40060.929964
107100.0,3655,40153.787138
121300.0,4186,40261.61222
112200.0,3945,40363.959284
98400.0,3483,40456.184758
78300.0,3734,40551.861651
97400.0,3774,40649.311368
95100.0,3645,40742.688926
95400.0,3512,40833.048139
95100.0,3477,40923.528165
124000.0,4223,41035.06863
108600.0,4058,41138.42351
118600.0,3869,41241.627329
143000.0,4706,41361.982872
106200.0,4443,41476.998536
112200.0,3814,41576.38916
95700.0,3619,41669.42233
115600.0,3964,41770.994018
110400.0,3789,41870.140223
94300.0,3811,41968.207303
44400.0,2147,42023.335068
113400.0,3922,42124.820848
111700.0,4004,42229.70334
113900.0,3847,42330.257677
122500.0,3927,42432.553327
108300.0,3650,42526.518717
108800.0,3689,42622.000633
109300.0,3687,42715.781595
111400.0,3691,42811.511104
73600.0,3093,42892.44075
113800.0,3940,42996.285761
109700.0,3937,43096.588076
127100.0,4224,43206.309807
107800.0,3691,43301.47403
114600.0,4321,43414.167878
120500.0,3914,43514.727094
105500.0,3818,43613.321384
93000.0,4058,43719.194845
121100.0,4107,43823.511436
84100.0,3718,43919.852068
90100.0,3865,44020.194449
94000.0,3783,44118.719446
95400.0,3552,44210.516647
119800.0,3959,44317.244042
98400.0,3631,44420.345441
110000.0,3804,44524.975794
100800.0,3519,44619.778702
118400.0,4183,44735.509416
118300.0,4207,44852.15947
95100.0,3300,44944.611261
111900.0,3644,45045.967482
121000.0,4389,45166.669558
116700.0,4005,45277.811279
108100.0,3759,45381.129232
110600.0,3928,45489.230314
121800.0,3918,45599.333354
122400.0,4017,45711.104982
103700.0,3922,45822.006238
96600.0,3379,45917.740103
106300.0,3939,46030.670854
95200.0,3639,46137.471843
134200.0,5434,46293.074962
122200.0,3939,46407.83538
114700.0,3774,46517.192885
61900.0,3284,46613.587909
103500.0,3759,46720.664926
119600.0,3823,46831.14571
116700.0,4231,46953.739092
119300.0,3785,47061.099132
137400.0,4383,47189.757477
108500.0,3595,47291.428518
45400.0,2215,47353.622361
143000.0,4564,47480.173669
105500.0,3692,47583.315624
116600.0,4379,47705.45014
94700.0,3651,47807.815803
100100.0,3499,47905.745756
118800.0,4147,48019.14064
108000.0,3663,48116.867573
122200.0,4080,48231.948219
119900.0,4022,48346.288279
105300.0,4201,48463.60567
95200.0,3431,48560.387515
112500.0,3978,48668.529814
51000.0,2339,48734.136388
117500.0,4080,48847.728523
104200.0,3957,48959.250537
162100.0,5747,49118.602103
107900.0,3662,49220.368275
112000.0,4005,49333.139435
120800.0,3933,49443.648827
94200.0,3856,49551.055996
99100.0,3461,49646.621144
116100.0,3938,49755.589028
94700.0,3571,49853.055168
102000.0,3692,49954.327308
104700.0,3481,50050.990791
39100.0,2025,50109.528675
112000.0,3761,50212.659426
137100.0,4412,50337.099732
110200.0,3751,50440.915759
137500.0,4774,50572.436825
105900.0,3569,50673.426528
109100.0,4030,50785.160716
96300.0,3361,50876.767856
106700.0,3635,50978.249179
95400.0,3282,51070.836873
127600.0,4371,51194.730806
109600.0,3832,51300.011896
98900.0,3473,51395.575303
95500.0,3312,51486.007717
38400.0,2042,51543.262435
110000.0,3594,51641.682287
90300.0,3858,51749.044675
104800.0,3570,51846.732716
95900.0,3417,51943.587699
108500.0,3670,52046.23105
122100.0,4304,52172.3105
113000.0,3700,52277.531406
94900.0,3688,52379.148389
111500.0,3726,52489.473075
145400.0,4910,52633.20109
104200.0,3922,52748.33379
115900.0,4128,52868.143676
110900.0,3916,52979.016785
111900.0,4073,53097.080348
109600.0,3715,53204.143512
113800.0,3812,53314.59188
120600.0,4101,53431.813704
97500.0,3463,53528.17928
136100.0,4851,53667.46949
135300.0,4217,53793.86349
137400.0,4563,53927.890433
109200.0,3831,54039.930624
103400.0,3633,54145.616829
116100.0,3885,54262.257122
139000.0,4332,54389.963173
105300.0,3545,54494.684599
95100.0,3357,54591.326986
95500.0,3639,54699.351551
95900.0,4179,54824.73439
131500.0,4262,54950.461334
111000.0,3664,55060.012608
115800.0,3770,55172.115214
97100.0,3411,55270.366749
95500.0,3475,55371.012098
103600.0,3561,55475.089852
139800.0,4942,55619.707217
119800.0,4247,55741.922568
105800.0,3913,55858.896063
95400.0,3351,55957.853531
95300.0,3504,56061.256288
131300.0,4180,56184.896056
108300.0,3563,56292.510163
119000.0,3877,56406.446244
115100.0,4029,56525.862799
116100.0,3941,56642.930211
117400.0,4386,56770.010956
112200.0,3786,56879.293619
86600.0,3745,56990.64997
110100.0,3681,57100.8951
123900.0,4248,57224.167758
122200.0,3947,57335.466224
135400.0,4274,57456.794795
119900.0,4089,57568.973808
109800.0,3901,57677.027873
108900.0,3574,57775.67559
101000.0,3621,57875.149966
135300.0,4363,57996.912925
137100.0,4809,58130.718518
114100.0,3839,58236.459978
138200.0,4668,58368.687324
132300.0,4204,58487.391707
90100.0,3891,58594.795859
135300.0,4211,58711.451769
95900.0,3557,58813.27102
94000.0,3922,58923.712432
95300.0,3285,59015.62407
133100.0,4263,59133.278197
116600.0,3952,59244.154031
110000.0,3698,59346.314263
108400.0,3602,59447.771526
137900.0,4801,59581.173216
115400.0,3794,59686.567241
107300.0,3761,59792.847723
125400.0,4180,59909.626298
100400.0,4285,60027.655723
124100.0,4317,60148.350549
95800.0,3322,60240.01252
136800.0,4658,60372.941979
146800.0,4747,60508.364204
102900.0,3649,60610.633296
89900.0,3829,60718.057025
126000.0,4365,60837.908273
114200.0,3732,60940.801069
95400.0,3294,61034.656405
133500.0,4570,61163.334062
118300.0,4410,61288.604612
136600.0,4359,61412.739725
108400.0,3702,61516.376853
128100.0,4120,61633.515125
108600.0,3590,61734.458769
123400.0,3968,61845.298142
141200.0,4936,61980.81894
108700.0,3627,62080.822742
114400.0,3802,62186.925411
115200.0,4016,62300.056304
115700.0,4402,62419.767802
112500.0,3727,62525.515233
101800.0,3459,62623.816183
120800.0,4248,62743.185668
105300.0,3928,62854.021096
97800.0,3323,62946.818033
119900.0,4097,63064.07196
135600.0,4507,63191.218678
129700.0,4365,63315.563081
142800.0,4978,63448.706818
118800.0,3956,63554.574488
112600.0,3868,63658.150212
112900.0,3802,63761.219031
122700.0,4073,63875.039937
122200.0,4532,64000.061951
116100.0,4131,64113.942568
146200.0,4823,64245.490915
115300.0,4015,64354.194549
129300.0,4104,64468.394088
134400.0,4258,64585.862961
140300.0,4400,64708.411441
140800.0,4392,64827.621663
116800.0,4102,64937.733946
108500.0,3844,65043.999556
118400.0,3762,65147.703491
134300.0,4520,65269.999879
105400.0,3637,65368.423464
102000.0,3498,65465.770798
103700.0,3490,65561.784308
112700.0,4542,65684.105426
107100.0,3524,65778.364959
94700.0,3296,65867.230877
99000.0,3360,65955.398547
118800.0,4013,66062.041623
141500.0,4653,66187.624115
149500.0,5105,66329.2359
137600.0,4322,66448.843322
112900.0,3641,66549.529692
95700.0,3478,66647.772194
127900.0,4441,66772.212214
