# {"t_start": 1547077986.5363843, "env_id": "UpNDownNoFrameskip-v4"} 
r,l,t90.0,412,25.610558
650.0,497,45.58892
1760.0,689,74.386478
660.0,529,97.909686
610.0,451,117.085087
1880.0,568,141.2871
1060.0,527,163.833895
2630.0,639,192.760267
1520.0,633,221.451198
2410.0,617,247.963401
1400.0,444,268.668023
2710.0,1075,316.561725
1740.0,498,337.954144
1830.0,481,360.85378
470.0,397,378.226048
1470.0,554,403.43959
1330.0,481,426.694035
150.0,513,451.173881
2640.0,507,475.757797
2160.0,687,508.832302
6280.0,1201,567.983131
1540.0,658,598.803819
3900.0,923,642.96394
1720.0,633,673.528633
2340.0,665,704.07436
370.0,714,738.903979
490.0,412,758.381256
3270.0,861,799.718213
930.0,488,823.295265
2040.0,824,863.020256
3190.0,747,899.573166
1350.0,518,925.452158
2190.0,577,952.701205
1890.0,588,982.800023
1190.0,576,1010.460724
500.0,430,1032.046771
2560.0,533,1058.064776
3350.0,515,1082.564041
3190.0,576,1109.837166
1770.0,540,1136.230824
5580.0,721,1171.742543
1030.0,483,1194.114891
1420.0,471,1216.996114
3770.0,708,1250.690476
2120.0,468,1274.686123
2430.0,651,1307.761495
1090.0,591,1335.45317
100.0,431,1356.043115
2590.0,578,1384.431883
3380.0,561,1411.512084
3230.0,649,1444.468056
790.0,581,1473.355875
1230.0,802,1511.286178
420.0,793,1547.944593
1780.0,729,1584.807973
650.0,672,1616.983235
2980.0,1205,1673.096329
1470.0,549,1698.570682
3050.0,838,1739.498103
2750.0,840,1778.726665
1110.0,1095,1832.427142
1650.0,845,1873.348687
2760.0,1008,1922.057603
3890.0,1218,1982.123101
2860.0,1164,2036.944169
270.0,706,2069.311464
3090.0,1059,2120.18875
2240.0,986,2167.532021
1450.0,842,2207.867603
830.0,806,2247.299579
950.0,998,2295.182668
2630.0,1126,2351.068047
4140.0,977,2397.39345
4920.0,947,2443.048315
1790.0,747,2480.87999
2580.0,721,2515.732847
1610.0,936,2559.292361
3500.0,1228,2620.312377
3420.0,1105,2673.647142
2950.0,1310,2737.275824
2130.0,1124,2790.206315
5370.0,1186,2847.611325
3340.0,1139,2904.206448
2220.0,1107,2959.630082
3170.0,1031,3009.763892
1920.0,1107,3062.271198
1250.0,994,3110.922425
1510.0,1100,3162.998966
2450.0,1318,3228.261834
2710.0,1413,3295.129439
4100.0,1566,3371.572517
1620.0,1269,3431.725639
2580.0,1676,3515.092531
670.0,1184,3572.41014
3380.0,1687,3655.917444
2700.0,1405,3724.80553
1560.0,1173,3781.173292
1770.0,1192,3838.568603
2020.0,1114,3891.296149
1020.0,949,3937.820961
890.0,1043,3986.923242
2160.0,1175,4043.894409
2140.0,1137,4099.290444
5110.0,1418,4166.810509
2040.0,1453,4236.792267
3550.0,1468,4307.286653
3210.0,1420,4378.101628
2890.0,1218,4435.954547
3570.0,1353,4500.965693
5480.0,2000,4600.785538
1600.0,1235,4661.288493
1130.0,1121,4714.419629
2700.0,1557,4790.26803
2630.0,1601,4869.461341
3820.0,1273,4931.342696
3950.0,1795,5017.6375
6340.0,1779,5103.725483
2490.0,1384,5170.448307
2190.0,1218,5229.574263
2120.0,946,5276.199371
3090.0,1377,5341.882143
1460.0,1168,5398.641819
640.0,976,5443.562307
3360.0,1501,5517.630287
4610.0,1731,5601.258478
2610.0,1247,5660.992063
3430.0,1288,5723.146717
5870.0,1347,5786.682308
2110.0,1244,5846.753789
2290.0,1062,5897.030534
4130.0,1599,5973.395919
6500.0,1558,6049.208307
5140.0,1456,6121.3636
3060.0,1175,6177.985312
4550.0,1646,6258.864122
4840.0,1461,6327.541853
2110.0,1246,6388.745106
1510.0,1093,6441.157669
1900.0,1070,6493.294171
3300.0,1714,6577.038962
4240.0,1464,6647.024255
4030.0,1773,6734.28502
1850.0,1326,6796.16825
1230.0,1295,6859.61362
1150.0,1149,6914.617113
1480.0,1358,6981.305601
2470.0,1508,7054.755665
2690.0,1855,7142.666094
2290.0,1057,7194.534316
6430.0,1610,7275.316053
2350.0,1636,7354.366944
3600.0,1233,7414.921318
4680.0,1209,7473.067928
3050.0,1320,7537.320271
3430.0,1284,7596.814575
6350.0,1316,7662.46343
5230.0,1129,7716.445764
5450.0,1162,7773.784656
6830.0,1288,7836.723263
7360.0,1340,7899.78371
2320.0,945,7943.988224
4680.0,1360,8007.482692
2600.0,921,8053.145512
6080.0,1359,8115.420676
6560.0,1326,8180.01761
3700.0,1069,8230.275943
4140.0,1147,8284.64601
5250.0,1634,8363.589487
4040.0,1612,8440.312735
3980.0,1361,8507.578189
3350.0,1150,8562.149424
4650.0,1791,8650.278838
4690.0,1217,8707.582459
1630.0,959,8755.892063
1410.0,1090,8807.178911
3300.0,1069,8859.344038
3500.0,1395,8926.707288
6160.0,1968,9024.460835
6000.0,2509,9146.28041
3660.0,1019,9196.996689
2410.0,939,9242.593602
4860.0,1812,9330.024086
7110.0,2056,9429.364191
5170.0,2314,9539.656526
1130.0,1289,9601.408147
8350.0,2439,9717.668096
6900.0,2992,9862.687208
6550.0,2282,9973.386949
6910.0,2219,10080.293528
4860.0,1650,10161.326512
17930.0,5021,10411.932124
5840.0,2089,10511.971024
6850.0,2432,10631.507897
3890.0,1544,10706.561209
4030.0,1769,10793.852984
17280.0,4625,11019.760253
6790.0,2029,11117.89733
3870.0,1992,11213.336488
7310.0,2534,11338.896036
4950.0,2746,11470.370656
7780.0,3126,11620.06355
4080.0,1204,11676.379262
11500.0,4484,11894.981138
5920.0,1748,11980.401875
4960.0,1813,12068.372499
5080.0,1361,12133.44581
4330.0,2721,12267.244816
9650.0,2919,12407.523569
13580.0,5274,12661.883543
9280.0,3764,12846.323689
9110.0,3166,12996.633849
5570.0,1677,13077.907236
2070.0,1511,13150.797448
3880.0,1842,13239.996038
5540.0,3229,13396.426378
7190.0,2185,13503.546829
7480.0,1687,13585.406082
17980.0,5904,13869.554202
8170.0,2953,14012.455363
17830.0,4379,14226.526877
6940.0,2426,14344.685383
7760.0,4214,14550.22637
4170.0,2314,14663.246529
4140.0,1296,14725.262123
7030.0,3206,14881.728084
7660.0,2288,14990.543771
4230.0,1753,15073.799801
6860.0,1976,15171.16084
27580.0,6703,15493.793279
15920.0,4684,15722.495139
12690.0,4484,15943.151682
18830.0,6305,16248.134333
9930.0,1603,16324.83347
9170.0,2310,16439.130574
29100.0,8505,16847.133164
18620.0,4529,17067.122152
5430.0,2560,17189.21205
20670.0,6525,17506.961418
20130.0,5667,17782.861709
35830.0,10216,18281.144954
17000.0,6414,18594.133346
36880.0,11423,19149.552967
7030.0,3211,19304.932733
38130.0,12774,19929.151352
19850.0,5216,20184.147992
23250.0,6179,20487.367259
74480.0,19794,21452.274957
36250.0,12327,22053.591225
17550.0,4736,22280.06962
20250.0,5222,22532.329594
15420.0,4537,22751.744041
9060.0,3248,22910.230601
7510.0,2529,23033.496057
7350.0,2276,23145.127209
20420.0,4380,23359.138532
16430.0,4235,23561.280518
23220.0,7403,23922.52099
15580.0,4632,24144.674412
5260.0,1021,24191.910513
25330.0,8701,24612.811634
2190.0,1055,24662.464046
10670.0,3332,24820.116201
7660.0,2297,24929.85659
12320.0,3248,25085.856669
18190.0,6411,25389.029054
14930.0,5038,25627.833061
9190.0,3468,25792.24919
37030.0,9734,26254.639895
22760.0,6666,26570.809883
9220.0,2704,26700.003613
9550.0,2113,26798.941757
22440.0,6805,27121.184368
7210.0,2205,27226.132508
23000.0,5141,27468.479093
7950.0,2117,27570.083102
22170.0,6367,27866.508945
3390.0,1217,27921.76656
21330.0,6944,28245.869999
23940.0,6007,28530.49655
18590.0,3855,28710.447848
29390.0,5770,28981.749257
33420.0,7151,29324.897893
6860.0,1660,29402.791774
7370.0,1825,29491.06118
4450.0,2271,29599.919152
3220.0,1585,29673.392665
4280.0,1346,29737.079391
80.0,398,29755.961083
24560.0,6999,30086.098276
5470.0,1348,30150.641357
17890.0,3359,30311.277839
7010.0,1892,30399.872122
5390.0,1862,30487.313309
9610.0,2217,30589.299707
19910.0,5302,30837.257642
6710.0,2047,30932.710804
6180.0,1842,31019.796193
19770.0,5086,31264.527365
16900.0,4974,31503.885537
18850.0,6018,31791.479475
25000.0,5782,32065.810425
28900.0,6252,32361.468083
25000.0,5772,32639.712046
17700.0,3699,32816.927953
3720.0,1589,32893.714091
6910.0,1737,32978.317556
2260.0,694,33011.992021
17920.0,4691,33240.980861
23570.0,6055,33531.681078
41390.0,9026,33969.388418
33860.0,28336,35349.190142
12090.0,4326,35560.154651
15260.0,4283,35767.972096
29140.0,7930,36157.520645
35240.0,8154,36556.05559
33520.0,6036,36849.369383
9920.0,2716,36981.115866
8350.0,2113,37082.418595
16760.0,4281,37293.453783
29070.0,5892,37582.644931
5800.0,1723,37667.383994
22170.0,6381,37982.715345
8860.0,2286,38096.197495
8740.0,2092,38196.732992
6660.0,2609,38320.40644
45100.0,9840,38788.671591
19430.0,5182,39033.699294
34340.0,10383,39522.365597
18950.0,6347,39827.003412
20150.0,5703,40093.082022
16740.0,6014,40373.043293
6670.0,1985,40466.128216
21050.0,5222,40712.687024
5520.0,1434,40781.01452
23520.0,6617,41091.078088
22250.0,6980,41422.240121
16450.0,3623,41592.782651
19300.0,4974,41825.263381
20160.0,5077,42064.117375
11000.0,3223,42214.360691
8650.0,2603,42338.211961
21730.0,5664,42604.757302
16360.0,5235,42852.260433
7690.0,2334,42963.102458
8510.0,3493,43127.674102
27190.0,6727,43448.679875
24500.0,6265,43743.505971
41620.0,11319,44283.827443
26820.0,9328,44730.494519
17770.0,5575,44994.386882
24010.0,6762,45310.209224
40010.0,8583,45717.174396
29530.0,8542,46119.819315
43610.0,9384,46562.861665
54390.0,11337,47103.963633
40870.0,8837,47518.592643
21450.0,4581,47736.854386
21740.0,4411,47948.882411
48100.0,12728,48560.164568
6350.0,1960,48652.270095
9290.0,2351,48762.442182
21080.0,5268,49013.732492
9170.0,2781,49145.826948
24700.0,5296,49397.68418
9700.0,2356,49508.427092
24140.0,6324,49810.608357
84640.0,16204,50580.928556
63070.0,13063,51204.140874
42890.0,9513,51656.829032
6150.0,1161,51713.10718
164480.0,33295,53327.268014
68720.0,13627,53993.375181
76840.0,17011,54819.337352
81780.0,23792,55969.754686
71100.0,18875,56868.029192
22300.0,7215,57213.683812
15850.0,6498,57520.55559
22830.0,7427,57872.955846
3580.0,1519,57945.570013
23950.0,7301,58285.237231
28320.0,9168,58722.351021
17350.0,5695,58993.493334
29260.0,8734,59406.935757
116450.0,26061,60642.584734
35430.0,7819,61013.925975
38910.0,9537,61468.378553
106530.0,27462,62766.892339
40330.0,8609,63176.070774
140820.0,30006,64604.066694
29890.0,7693,64967.733918
42400.0,9027,65400.366149
68570.0,18026,66260.302637
66110.0,19207,67200.21419
33980.0,8052,67582.977288
47150.0,9923,68048.522232
21820.0,5811,68324.87247
7150.0,1466,68395.547341
33230.0,10049,68870.096088
60690.0,15656,69614.210927
54330.0,11239,70150.631248
27530.0,5344,70407.410808
15720.0,5017,70640.655286
41310.0,9548,71091.542829
16990.0,4484,71303.085733
16260.0,3951,71488.30212
12930.0,3101,71638.388611
4700.0,1397,71705.06633
23820.0,5175,71952.572961
9390.0,2505,72072.09699
3160.0,848,72113.517016
23180.0,5420,72370.700692
16130.0,3116,72519.619677
32110.0,6984,72853.322921
21490.0,5916,73135.527526
39680.0,9492,73599.845863
16910.0,5003,73843.055354
15100.0,2737,73982.72636
15630.0,4226,74193.60493
25490.0,4642,74424.031614
27910.0,5957,74720.614542
25780.0,5751,75011.188061
22860.0,4277,75221.188198
16170.0,3180,75379.619073
81680.0,18520,76312.756534
28390.0,6083,76617.468117
93500.0,19499,77596.638396
24260.0,5236,77854.97326
23410.0,4521,78084.473292
11450.0,3302,78248.109858
7630.0,1603,78326.499552
12360.0,2840,78467.878657
8590.0,2503,78593.037335
18410.0,4841,78836.933692
9420.0,1905,78930.249464
22270.0,5886,79225.925598
38200.0,7759,79613.093433
18420.0,4217,79821.813565
13430.0,3914,80021.592399
8560.0,1807,80112.275977
7610.0,1571,80188.654476
13950.0,4096,80399.592502
22040.0,6812,80741.088289
13850.0,3297,80906.164343
8590.0,1861,80998.470249
14310.0,4040,81201.279985
15810.0,3238,81365.495274
7730.0,1606,81445.653904
17960.0,3479,81620.278758
25710.0,6748,81958.971434
20300.0,5782,82248.17214
9690.0,2336,82363.217621
22790.0,5293,82626.496072
8430.0,2253,82740.208944
41340.0,12947,83386.734191
9120.0,2714,83521.503546
8450.0,2274,83632.837689
16510.0,3709,83813.312433
8010.0,2210,83919.295011
13070.0,3335,84082.123695
23410.0,5793,84367.596208
28180.0,7668,84742.79756
32750.0,7369,85099.671972
40420.0,9403,85558.310963
29250.0,5547,85831.05705
26220.0,5165,86080.536053
42350.0,8013,86465.028895
8320.0,2074,86561.963644
18660.0,3319,86720.147254
42090.0,8212,87116.596587
26040.0,4892,87354.864048
12720.0,2771,87490.560309
29400.0,5134,87740.167993
11260.0,2823,87877.720395
17890.0,5122,88122.268859
8660.0,2609,88245.309857
19990.0,4152,88441.827426
40770.0,7877,88810.112067
22910.0,6124,89102.212244
7570.0,2784,89231.673327
9360.0,2296,89335.395511
73730.0,14577,90013.537603
22050.0,4267,90211.079164
36820.0,6197,90497.730536
21200.0,4166,90686.953455
23640.0,5517,90934.582776
35990.0,5506,91183.690502
39490.0,9180,91594.839762
37460.0,7373,91930.992411
14940.0,4248,92121.720517
7690.0,2824,92247.522038
22480.0,4309,92441.414739
14770.0,2215,92539.80331
5740.0,1619,92613.058058
31160.0,6097,92884.100095
14250.0,2654,93004.031293
8170.0,2313,93107.398704
15240.0,4571,93314.728555
16390.0,5277,93552.724759
15940.0,3442,93710.330263
58010.0,9915,94158.719026
24620.0,4515,94358.703565
43500.0,8561,94727.616601
37620.0,9392,95121.966936
72570.0,13387,95672.962867
9060.0,1980,95759.406529
4230.0,1281,95809.219804
6620.0,1279,95859.817002
28150.0,6343,96110.292589
23710.0,4204,96277.362737
27310.0,5636,96501.684747
27300.0,5460,96719.930997
9970.0,2150,96798.927356
18110.0,3873,96943.283596
26380.0,5429,97137.652972
24070.0,4933,97316.88735
39850.0,8328,97617.835714
17900.0,3381,97735.901368
34830.0,5550,97924.12098
11540.0,2162,97997.383465
18910.0,3068,98100.059867
16160.0,3633,98225.208463
37740.0,8474,98516.145844
16940.0,3766,98645.906917
17610.0,3555,98768.962172
20490.0,3680,98887.994732
14740.0,3282,98988.053729
9100.0,2514,99058.063588
41620.0,11157,99357.724634
63260.0,14333,99716.250152
13690.0,3691,99801.059855
5900.0,1403,99832.434794
12770.0,2378,99885.248899
19230.0,4701,99993.141248
2260.0,687,100008.347338
34600.0,6969,100161.735178
49000.0,10014,100364.55877
5110.0,1262,100388.014086
49120.0,9401,100563.535986
27580.0,4797,100653.680408
33090.0,5343,100755.824532
19360.0,2993,100805.635187
9290.0,2345,100846.220897
21250.0,4257,100921.505679
27230.0,4237,100994.768732
65490.0,12134,101193.999983
41070.0,7236,101305.438495
17680.0,3660,101360.600013
71440.0,14927,101588.907045
25750.0,5059,101659.994467
28270.0,5247,101735.55479
18110.0,3073,101778.854529
14070.0,3011,101820.766329
20070.0,3006,101864.476052
14020.0,2299,101896.899425
18470.0,3015,101939.12344
28980.0,4473,102002.911685
16670.0,3339,102046.800292
25580.0,4144,102100.947469
9320.0,1743,102124.259881
8750.0,1473,102143.771732
15640.0,2965,102182.29254
20000.0,2904,102220.355559
6920.0,1106,102235.301234
9170.0,1668,102257.328877
16250.0,3452,102302.515081
6280.0,1374,102321.000712
5080.0,1208,102336.70735
30300.0,5359,102406.929069
20540.0,2968,102446.443695
15440.0,3761,102495.444238
32730.0,5409,102567.437421
17050.0,3299,102610.517767
20690.0,2725,102646.693181
8460.0,1659,102668.448267
18760.0,2840,102704.961209
24450.0,3611,102750.171025
19230.0,2944,102784.988349
21920.0,3414,102825.468512
24800.0,3855,102871.276764
23990.0,3521,102912.838395
26410.0,4190,102962.658206
38010.0,6182,103036.029061
28850.0,4260,103086.477266
25510.0,3392,103126.876254
24370.0,4762,103183.53103
34500.0,5051,103243.110944
48270.0,8515,103344.415509
23110.0,3401,103384.488283
18470.0,3013,103420.403686
44230.0,8449,103521.525352
87750.0,13354,103680.627659
81540.0,12530,103829.938478
21830.0,3278,103869.038806
38270.0,5965,103939.469336
90570.0,14009,104105.225537
33990.0,5504,104171.037868
40960.0,6253,104244.752311
31810.0,5219,104306.210009
101430.0,16744,104498.368054
45580.0,7404,104581.461265
5350.0,1159,104594.57547
28930.0,5025,104651.168562
70840.0,11408,104780.794795
19350.0,3146,104816.382735
14110.0,2428,104843.453943
61700.0,9596,104951.599967
71530.0,9941,105064.289337
