# {"t_start": 1546991440.0918705, "env_id": "AtlantisNoFrameskip-v4"} 
r,l,t
11900.0,908,17.787089
19100.0,1093,34.823998
11000.0,757,46.167149
22200.0,1435,67.986314
21300.0,1471,89.805398
23800.0,1438,112.227152
15800.0,1377,134.893777
27500.0,1810,165.24527
22000.0,1372,187.604773
26900.0,1950,221.596002
25700.0,1738,252.429662
36400.0,2262,293.405149
26500.0,1918,328.102181
23800.0,1641,357.417684
37000.0,1986,393.017505
8400.0,829,407.713959
33500.0,1939,442.975004
48300.0,2565,489.677149
27200.0,1690,520.322208
25500.0,1840,554.334749
36400.0,2381,597.478123
45700.0,2786,647.185696
18200.0,979,664.785847
42700.0,2108,702.208348
50100.0,2864,755.382603
56600.0,2813,807.249812
54300.0,2589,855.268189
57800.0,3067,912.08026
20900.0,1128,932.628097
50600.0,2589,981.357278
59400.0,2912,1035.336086
54100.0,2929,1088.124063
37500.0,2071,1125.654056
80700.0,3874,1196.639822
49700.0,3073,1252.223346
17300.0,1255,1274.877126
69500.0,3414,1336.135043
47400.0,2487,1381.706236
56300.0,3055,1437.31004
74800.0,3415,1500.324274
35400.0,2224,1540.852467
88200.0,4022,1614.120439
86900.0,4058,1689.065068
93600.0,4549,1770.001557
31500.0,2127,1809.264534
119400.0,4958,1905.755033
77300.0,3689,1979.258496
77400.0,3614,2049.95673
26300.0,1890,2086.098571
79900.0,3451,2153.286507
65300.0,2793,2207.984407
88300.0,4222,2291.130108
98000.0,4269,2373.74193
120300.0,5354,2480.16994
109900.0,4596,2569.300156
208700.0,7833,2724.567148
59500.0,2939,2781.146316
41000.0,2228,2824.675792
82200.0,3677,2898.39796
171900.0,6762,3034.214168
2988500.0,99999,5644.58861
23100.0,1668,5696.712717
24800.0,1711,5749.514443
20000.0,1360,5792.625025
23100.0,1647,5845.703775
9300.0,1123,5880.494416
20300.0,1286,5919.107641
29100.0,1915,5980.028616
66900.0,3607,6094.291659
32800.0,1993,6156.631088
19300.0,1823,6215.20845
116500.0,5538,6390.928665
3018300.0,99998,9590.995251
70800.0,3524,9701.328566
81100.0,4134,9833.20052
3100200.0,99996,13019.67953
56500.0,2777,13106.790192
26200.0,2078,13172.463703
3129800.0,100000,16387.234871
3197000.0,99993,19589.850439
47400.0,2818,19680.378818
28500.0,1849,19739.150521
3212100.0,100000,22927.518469
19700.0,1712,22983.485954
49600.0,2705,23069.310255
3203000.0,100000,26261.937084
19200.0,1374,26304.66984
3287400.0,99994,29509.069979
16900.0,1427,29553.352234
29400.0,2002,29617.306026
3334300.0,99996,32821.218792
24700.0,1789,32878.205462
71900.0,3649,32992.378679
45500.0,2789,33080.146389
23300.0,1753,33134.082612
3289600.0,99999,36344.324171
27400.0,1878,36403.34211
3210000.0,99994,39644.036847
14000.0,1154,39679.137367
30400.0,1890,39738.787773
17600.0,1851,39798.207912
78200.0,3671,39917.459687
37900.0,2367,39990.951925
3364800.0,99999,43186.715229
21100.0,1306,43227.908441
50100.0,2639,43311.06842
28600.0,1943,43371.904323
37600.0,2055,43437.593161
3370200.0,99997,46627.970604
3397500.0,99995,49836.03784
3217300.0,99997,53151.155198
36800.0,2283,53223.955325
3109700.0,99999,56505.916359
26900.0,1688,56561.056083
3075100.0,100000,59919.534351
3048400.0,99998,63324.638435
3076800.0,100000,66681.434673
3086900.0,99999,70010.418123
3403400.0,99999,73261.887497
3211800.0,99998,76407.29273
