# {"t_start": 1547076001.9432678, "env_id": "KangarooNoFrameskip-v4"} 
r,l,t
0.0,546,12.281008
0.0,418,18.425511
0.0,343,23.402461
0.0,609,32.287356
0.0,413,38.580134
0.0,447,45.607975
0.0,483,52.976081
0.0,483,59.784797
0.0,525,67.236005
200.0,514,74.518508
0.0,375,80.034237
0.0,601,89.605529
400.0,678,99.941377
0.0,533,108.338208
0.0,532,116.680356
0.0,728,128.227734
0.0,407,134.736447
0.0,364,140.618845
400.0,664,151.312467
0.0,426,158.139336
0.0,356,164.591352
0.0,318,169.900405
0.0,477,178.323828
0.0,371,184.670145
0.0,560,193.941792
0.0,433,200.761969
0.0,550,210.23819
0.0,543,219.079094
0.0,549,227.615849
0.0,424,234.198016
400.0,478,241.732511
200.0,596,251.430468
0.0,629,262.219571
0.0,406,268.925098
0.0,511,277.690791
0.0,689,290.107963
200.0,405,297.612243
400.0,496,306.860744
0.0,297,311.922071
0.0,579,321.664456
200.0,538,330.850527
0.0,589,341.34562
0.0,529,350.23882
200.0,344,356.427409
200.0,358,362.536133
0.0,279,368.0541
0.0,277,372.973209
0.0,361,379.273297
0.0,431,387.338145
0.0,413,395.019189
0.0,284,400.020383
0.0,345,406.373277
0.0,338,412.20326
200.0,348,418.975825
0.0,348,425.801678
0.0,464,434.5813
200.0,342,441.438694
200.0,401,448.819915
0.0,404,456.44934
0.0,405,464.156508
200.0,601,475.554684
0.0,404,482.911056
0.0,464,491.276987
0.0,344,497.808552
200.0,359,504.392794
0.0,412,512.438352
0.0,396,519.964827
0.0,347,526.685603
0.0,404,534.449985
0.0,409,542.468717
0.0,489,551.904764
200.0,426,560.360111
200.0,673,574.480091
0.0,283,580.453484
0.0,485,590.513375
0.0,422,599.636768
400.0,673,613.989633
200.0,464,624.29658
400.0,524,635.858896
0.0,276,641.760935
0.0,360,649.349244
0.0,539,661.300391
0.0,422,670.671978
200.0,472,681.961344
0.0,482,692.445614
0.0,348,700.120981
200.0,411,709.435639
200.0,416,718.213829
0.0,352,726.033163
200.0,418,735.124544
0.0,534,747.14631
200.0,475,758.492016
200.0,399,767.335078
200.0,469,777.797739
0.0,340,784.676507
0.0,466,794.769981
0.0,343,802.268679
0.0,474,812.750175
0.0,286,819.536736
200.0,463,830.787948
0.0,465,840.783849
200.0,524,852.187897
200.0,408,861.760764
0.0,350,869.007058
0.0,340,876.875332
0.0,342,884.210752
0.0,404,893.375611
0.0,548,905.179673
0.0,277,911.117589
0.0,340,918.855187
0.0,397,927.267506
0.0,287,933.341625
0.0,471,943.383356
0.0,284,949.70066
0.0,466,960.311093
0.0,361,968.490405
0.0,469,978.739537
0.0,599,991.725784
200.0,405,1000.31352
0.0,343,1008.208896
200.0,667,1022.721501
0.0,335,1029.725136
0.0,607,1043.473818
0.0,283,1049.625079
0.0,416,1058.457221
0.0,345,1066.311684
0.0,473,1076.147256
0.0,411,1084.767923
0.0,538,1096.872161
0.0,338,1104.124527
0.0,478,1114.21248
0.0,414,1122.968584
200.0,402,1131.770253
0.0,604,1144.77869
0.0,339,1152.67649
0.0,399,1162.094999
0.0,724,1178.311146
0.0,529,1189.580555
200.0,405,1198.635905
0.0,420,1207.601044
0.0,473,1217.777662
0.0,599,1231.190211
200.0,403,1240.167672
0.0,535,1251.945765
0.0,289,1258.008337
0.0,406,1266.86432
200.0,412,1275.500528
200.0,537,1286.834214
0.0,364,1294.711662
0.0,538,1306.955212
0.0,405,1315.623252
0.0,286,1321.797106
0.0,343,1329.30367
0.0,336,1336.714735
0.0,527,1348.873158
0.0,413,1357.949953
0.0,349,1365.73168
200.0,460,1376.138471
200.0,660,1391.263358
0.0,549,1404.427531
0.0,412,1414.067838
0.0,354,1422.75267
0.0,544,1435.577316
200.0,405,1444.981006
0.0,358,1454.212997
0.0,539,1467.85277
0.0,402,1477.413884
0.0,278,1484.741582
0.0,407,1495.304526
200.0,486,1507.458839
0.0,407,1518.057712
0.0,405,1528.42009
200.0,692,1545.687312
0.0,441,1557.131313
0.0,346,1566.537232
200.0,535,1581.101086
0.0,480,1593.060463
0.0,469,1605.994448
0.0,524,1620.273553
0.0,284,1628.01054
0.0,551,1644.309973
0.0,421,1656.661636
0.0,545,1671.321372
0.0,421,1683.249269
0.0,346,1693.041675
0.0,488,1707.80749
400.0,669,1726.613698
0.0,735,1748.783937
0.0,410,1761.23287
0.0,654,1781.911631
200.0,356,1792.713069
0.0,597,1810.777055
200.0,350,1820.788297
0.0,491,1836.495707
0.0,449,1850.967374
0.0,487,1866.236216
0.0,299,1875.534604
0.0,358,1885.958014
0.0,351,1896.360656
0.0,476,1911.072109
200.0,399,1923.926516
0.0,475,1938.705914
200.0,540,1955.209562
200.0,424,1969.776294
0.0,547,1988.361005
0.0,413,2002.365505
0.0,411,2015.503063
0.0,273,2025.447501
0.0,408,2038.952131
0.0,281,2047.258165
0.0,408,2060.372378
0.0,483,2077.13877
600.0,798,2105.246946
200.0,610,2125.60003
0.0,479,2141.017282
0.0,414,2154.875446
0.0,485,2172.847348
0.0,421,2187.288666
200.0,399,2201.474341
0.0,347,2215.188478
0.0,285,2225.205309
0.0,666,2250.024238
0.0,548,2270.871056
0.0,282,2281.216118
200.0,545,2301.020364
200.0,538,2321.273012
0.0,473,2338.435383
0.0,610,2359.712748
0.0,418,2375.042796
200.0,543,2395.599644
0.0,551,2415.967188
0.0,347,2429.497224
0.0,460,2447.346176
0.0,417,2463.886566
0.0,356,2477.327787
0.0,599,2499.554726
0.0,479,2517.496369
0.0,416,2534.19089
0.0,292,2544.882591
0.0,612,2569.787131
0.0,349,2583.363471
0.0,412,2599.713227
0.0,472,2618.003592
0.0,408,2634.284239
0.0,292,2645.301562
0.0,404,2661.961142
0.0,288,2673.366756
0.0,400,2690.09633
0.0,346,2702.778441
0.0,539,2723.761126
200.0,402,2738.604321
0.0,475,2757.028777
200.0,473,2775.307379
0.0,398,2790.534404
200.0,340,2804.698324
0.0,343,2818.371508
0.0,477,2836.782961
0.0,288,2848.246896
0.0,407,2863.583499
0.0,276,2874.146793
0.0,479,2892.699507
200.0,406,2907.900688
0.0,404,2923.484854
200.0,404,2939.038993
0.0,399,2954.326892
0.0,420,2970.893332
0.0,401,2986.217101
200.0,476,3004.923182
0.0,350,3018.774947
0.0,341,3031.786691
0.0,535,3052.146312
0.0,351,3065.23882
200.0,405,3080.948372
0.0,343,3095.021328
200.0,346,3106.403789
0.0,345,3119.921345
0.0,408,3135.267446
0.0,486,3153.97256
0.0,290,3164.540286
0.0,465,3183.184587
200.0,464,3201.561919
200.0,402,3216.734715
200.0,589,3240.995514
0.0,275,3250.967777
0.0,528,3272.524336
0.0,339,3285.691122
0.0,408,3301.097707
0.0,282,3312.437558
0.0,407,3327.556213
0.0,463,3345.747547
0.0,403,3360.8313
0.0,397,3376.217381
0.0,404,3391.709816
0.0,342,3404.116137
0.0,340,3416.843561
0.0,348,3430.209763
0.0,348,3442.955093
0.0,344,3456.251625
0.0,285,3467.932363
0.0,281,3478.614367
200.0,537,3499.853967
0.0,278,3510.34642
0.0,470,3529.320277
200.0,404,3544.381096
0.0,277,3554.982833
200.0,352,3569.551188
0.0,278,3580.508768
400.0,466,3599.122879
0.0,482,3616.827405
0.0,285,3627.797114
0.0,543,3650.082715
0.0,275,3660.963553
0.0,425,3677.829132
0.0,343,3691.78148
200.0,403,3708.137262
0.0,282,3718.982546
200.0,469,3737.611497
0.0,339,3751.555413
0.0,280,3762.374975
200.0,601,3785.598052
200.0,407,3801.069066
0.0,282,3811.863261
200.0,474,3831.169999
0.0,466,3848.604366
0.0,465,3867.318891
200.0,473,3885.592434
0.0,533,3905.927597
200.0,424,3921.723436
0.0,282,3933.214222
0.0,345,3946.86705
0.0,349,3959.984021
200.0,466,3978.632834
200.0,345,3991.789771
200.0,540,4012.976874
200.0,345,4026.128651
0.0,350,4039.637662
0.0,284,4050.377215
0.0,412,4066.122651
0.0,339,4079.86585
0.0,341,4092.66224
0.0,280,4103.617722
0.0,273,4113.555737
0.0,466,4131.497663
0.0,277,4142.344831
200.0,410,4158.046594
200.0,344,4171.384745
200.0,472,4189.815588
0.0,400,4205.240102
200.0,334,4217.50742
0.0,350,4230.692067
0.0,349,4244.368233
0.0,460,4262.436941
200.0,467,4280.979103
0.0,410,4296.910427
200.0,532,4316.943057
600.0,475,4335.581217
0.0,277,4346.558591
0.0,398,4362.412189
0.0,340,4375.210539
0.0,286,4386.506468
0.0,283,4397.042566
0.0,280,4408.380589
0.0,526,4428.742821
200.0,342,4442.393738
0.0,605,4465.015671
0.0,473,4484.065724
0.0,344,4496.607322
0.0,287,4508.28815
200.0,475,4526.544302
200.0,333,4539.536117
200.0,339,4551.607914
400.0,592,4575.691236
200.0,469,4594.297306
200.0,398,4609.394834
0.0,400,4625.716346
0.0,344,4638.695644
0.0,408,4654.362422
0.0,289,4665.36055
0.0,408,4681.240794
0.0,528,4700.983751
200.0,470,4719.703409
200.0,470,4738.451689
0.0,416,4754.800863
0.0,477,4772.779502
0.0,283,4783.294094
200.0,408,4799.480593
400.0,403,4814.909148
200.0,341,4827.061849
200.0,499,4847.229891
0.0,411,4863.122915
0.0,338,4875.815261
0.0,410,4891.476329
0.0,415,4907.197662
0.0,403,4922.615312
200.0,335,4934.857865
200.0,405,4951.430238
200.0,409,4967.769222
400.0,533,4988.982912
400.0,593,5011.527503
400.0,409,5027.567929
0.0,483,5046.59817
200.0,472,5066.508872
200.0,341,5079.626125
0.0,472,5097.784919
600.0,525,5118.045055
0.0,280,5129.184922
200.0,473,5147.329702
200.0,542,5167.92028
0.0,339,5181.658466
0.0,402,5196.997807
0.0,403,5212.576073
0.0,416,5228.754823
400.0,534,5248.575148
0.0,480,5266.862596
400.0,526,5288.355091
0.0,342,5302.545816
200.0,423,5319.705002
0.0,336,5332.565432
400.0,482,5350.603015
0.0,335,5363.463275
0.0,339,5375.932747
400.0,410,5391.811484
200.0,356,5405.560485
400.0,539,5427.473615
0.0,403,5442.651165
0.0,541,5463.707532
400.0,408,5479.69098
0.0,407,5495.925656
200.0,481,5515.704801
0.0,278,5527.253025
200.0,460,5545.462882
200.0,610,5569.076158
200.0,336,5582.137912
400.0,466,5601.890924
200.0,350,5615.183091
200.0,417,5631.376126
200.0,465,5649.53775
200.0,407,5664.950019
200.0,332,5678.30158
200.0,400,5693.734997
200.0,468,5711.326177
400.0,465,5729.331229
200.0,473,5747.326538
200.0,535,5769.242549
200.0,554,5790.248492
200.0,410,5806.396545
400.0,527,5827.738904
400.0,409,5843.731969
200.0,405,5859.557884
200.0,345,5872.987454
200.0,341,5886.425989
200.0,343,5899.220275
200.0,346,5912.597035
200.0,347,5926.400435
200.0,413,5942.606534
600.0,545,5964.272389
200.0,403,5980.763847
0.0,397,5995.616694
200.0,435,6012.292287
400.0,461,6030.444196
200.0,406,6046.2168
200.0,474,6064.295312
200.0,483,6082.418916
400.0,540,6104.210239
400.0,603,6128.090937
200.0,405,6143.73982
600.0,481,6162.910478
400.0,542,6184.636478
0.0,468,6203.119234
400.0,463,6220.918573
200.0,470,6238.988452
200.0,357,6252.774786
400.0,531,6274.092887
400.0,422,6290.380713
400.0,405,6306.164224
400.0,539,6326.797704
200.0,475,6345.309626
200.0,342,6358.118821
400.0,483,6376.818266
200.0,416,6393.224633
200.0,405,6408.690215
600.0,477,6427.728483
400.0,401,6444.640339
400.0,599,6467.662995
200.0,411,6483.958682
200.0,349,6497.375048
400.0,462,6514.988587
200.0,401,6530.3737
200.0,409,6546.16592
400.0,526,6566.787564
200.0,476,6585.249048
200.0,465,6604.958286
200.0,530,6625.255832
600.0,589,6648.116016
400.0,536,6669.477661
400.0,602,6692.857157
200.0,344,6706.394461
400.0,408,6721.976713
200.0,465,6739.892762
400.0,466,6758.366091
400.0,596,6782.484504
400.0,469,6800.25527
200.0,471,6818.208145
200.0,405,6834.155993
200.0,474,6851.61609
200.0,332,6864.120152
400.0,403,6879.599566
200.0,469,6896.674152
400.0,411,6913.02214
400.0,465,6931.600891
400.0,539,6952.433419
200.0,475,6970.929524
400.0,536,6992.058897
200.0,473,7010.972072
200.0,543,7030.798564
200.0,485,7049.367225
400.0,540,7070.659202
600.0,599,7093.526558
200.0,339,7107.24438
200.0,480,7125.272092
200.0,421,7141.581342
200.0,404,7156.518205
200.0,540,7176.67294
600.0,543,7198.53142
200.0,347,7211.51824
200.0,401,7227.790431
400.0,420,7244.811866
0.0,283,7255.361727
400.0,415,7271.827154
400.0,469,7289.771588
200.0,604,7314.269039
0.0,548,7334.758438
0.0,352,7348.034288
400.0,416,7363.767494
400.0,466,7382.541418
400.0,601,7403.757545
200.0,595,7427.458011
400.0,535,7448.387444
600.0,458,7466.018632
400.0,486,7485.089128
200.0,472,7503.990125
200.0,413,7519.781764
200.0,492,7538.908222
200.0,344,7552.311474
200.0,621,7576.942258
200.0,533,7597.376924
200.0,604,7621.79517
200.0,472,7639.814408
200.0,422,7656.517612
600.0,544,7676.910328
200.0,486,7695.945411
200.0,411,7712.525439
200.0,560,7735.662165
600.0,485,7755.397259
400.0,540,7777.116982
200.0,349,7790.851599
400.0,530,7812.056209
200.0,426,7828.448756
200.0,532,7849.273807
200.0,472,7868.693367
200.0,397,7885.269678
200.0,342,7898.277866
0.0,469,7916.442264
200.0,480,7935.799476
200.0,473,7954.852519
400.0,415,7970.959165
200.0,528,7991.340107
400.0,396,8006.895989
200.0,411,8022.639042
400.0,475,8041.066828
200.0,396,8056.714054
400.0,470,8074.957886
200.0,336,8088.01233
200.0,464,8105.439158
400.0,411,8122.437387
200.0,349,8135.559202
200.0,402,8150.755676
400.0,530,8170.525358
600.0,473,8188.818975
200.0,399,8203.246978
200.0,408,8217.968379
200.0,396,8233.057588
400.0,589,8255.104364
200.0,472,8274.153618
400.0,736,8303.331504
200.0,595,8327.205791
200.0,411,8344.097283
200.0,345,8356.983446
400.0,407,8374.026432
400.0,418,8389.649177
200.0,411,8404.90398
400.0,476,8424.688146
400.0,537,8445.259036
400.0,530,8465.576542
200.0,414,8481.825427
200.0,346,8494.751893
600.0,464,8512.232177
400.0,461,8530.278007
200.0,342,8542.82655
600.0,536,8563.910628
400.0,537,8585.163463
400.0,466,8602.521622
0.0,343,8615.680691
200.0,343,8628.87596
400.0,605,8652.322026
600.0,600,8675.138518
600.0,475,8693.860784
600.0,533,8714.663021
200.0,534,8735.921098
400.0,469,8754.105089
400.0,464,8772.729007
200.0,464,8790.854043
400.0,540,8811.149931
200.0,620,8835.741755
400.0,594,8859.098325
400.0,479,8877.152083
600.0,471,8895.06306
400.0,463,8913.125579
400.0,525,8934.21015
600.0,474,8952.477918
200.0,346,8966.563242
200.0,399,8982.868813
400.0,465,9001.31293
200.0,458,9019.95519
400.0,467,9038.856218
200.0,399,9054.213026
200.0,337,9066.612825
400.0,398,9082.349858
200.0,399,9097.508999
200.0,401,9113.224652
400.0,467,9130.945314
200.0,400,9145.69798
400.0,404,9162.048115
400.0,463,9180.215713
400.0,397,9195.540744
400.0,472,9212.819211
400.0,662,9238.919183
200.0,417,9254.930666
400.0,470,9273.187839
600.0,523,9294.905535
200.0,395,9310.56398
200.0,339,9324.010859
400.0,401,9338.918905
200.0,480,9358.385901
400.0,542,9379.135834
400.0,404,9395.107382
400.0,599,9418.593486
400.0,463,9436.472719
400.0,616,9460.871409
200.0,524,9479.949663
200.0,402,9495.176012
400.0,529,9515.373713
200.0,475,9535.552345
400.0,484,9553.649779
400.0,473,9572.449597
400.0,525,9592.474442
600.0,526,9613.406286
400.0,407,9629.417224
600.0,598,9653.280705
200.0,467,9670.913721
400.0,538,9692.253128
400.0,472,9710.374295
400.0,402,9727.302273
400.0,394,9742.434638
400.0,395,9757.785821
400.0,469,9775.028298
600.0,474,9793.345552
400.0,465,9811.390083
600.0,467,9831.002809
400.0,399,9846.912032
400.0,400,9862.236575
600.0,544,9883.971948
400.0,403,9900.173662
600.0,533,9921.222225
400.0,471,9939.378925
600.0,464,9957.654018
400.0,467,9975.778257
400.0,462,9994.842223
400.0,465,10012.731622
400.0,473,10031.800778
400.0,405,10047.218625
200.0,340,10059.392915
400.0,476,10077.054595
400.0,465,10094.788656
600.0,464,10111.73404
400.0,467,10129.990754
400.0,549,10151.867926
400.0,397,10167.039225
400.0,404,10182.224229
600.0,596,10205.569888
400.0,399,10220.893538
400.0,465,10238.095726
400.0,415,10254.893634
400.0,403,10271.345833
400.0,406,10286.502881
400.0,530,10307.55442
400.0,401,10323.900885
200.0,339,10336.654173
800.0,474,10355.147261
400.0,467,10373.206352
400.0,398,10388.809377
400.0,404,10404.652143
400.0,403,10420.115574
400.0,460,10437.539523
400.0,539,10459.954914
400.0,532,10480.563468
200.0,335,10493.498194
800.0,594,10517.254063
400.0,472,10535.88358
200.0,540,10557.233387
400.0,399,10573.029029
400.0,468,10590.041773
600.0,472,10608.862793
200.0,401,10623.436728
200.0,396,10638.544019
400.0,401,10654.523291
200.0,337,10668.089547
200.0,406,10683.127467
400.0,463,10700.423824
400.0,543,10722.049402
200.0,461,10741.137636
400.0,400,10757.188967
600.0,464,10775.442385
400.0,590,10798.480885
200.0,404,10813.882665
600.0,538,10834.521905
400.0,464,10852.804783
400.0,399,10867.827483
400.0,466,10885.591025
400.0,397,10901.062613
400.0,405,10916.52498
400.0,464,10933.847843
400.0,403,10950.031757
400.0,397,10965.628791
600.0,464,10983.647305
400.0,465,11001.378884
600.0,614,11023.968158
400.0,464,11042.038677
400.0,403,11056.959659
400.0,462,11075.947322
600.0,533,11096.693986
600.0,474,11115.125982
400.0,464,11133.332203
400.0,668,11157.631633
400.0,535,11178.771504
400.0,463,11197.032255
400.0,465,11214.027038
400.0,523,11233.921194
400.0,405,11249.985926
400.0,407,11266.358263
400.0,541,11287.767755
600.0,537,11308.432991
600.0,538,11329.453018
400.0,657,11355.135287
400.0,541,11375.428583
400.0,399,11390.527218
800.0,539,11410.908306
400.0,469,11428.712992
400.0,540,11450.050841
600.0,671,11475.046827
600.0,723,11503.301979
200.0,415,11518.599683
400.0,493,11538.286899
400.0,655,11562.418565
400.0,539,11583.825101
600.0,672,11610.468117
200.0,541,11630.877678
200.0,530,11650.520658
600.0,543,11672.744622
200.0,403,11689.071605
400.0,602,11711.735514
400.0,532,11732.337322
400.0,538,11753.398698
400.0,480,11771.790832
400.0,473,11791.316988
400.0,548,11813.242626
600.0,654,11836.658535
400.0,471,11855.073058
800.0,558,11876.578688
600.0,675,11903.382565
400.0,416,11919.725096
600.0,487,11938.131214
400.0,405,11954.138455
400.0,728,11983.773994
400.0,631,12008.304123
200.0,348,12022.605004
400.0,568,12045.183445
400.0,724,12072.687263
400.0,542,12093.986514
600.0,606,12116.941058
400.0,604,12141.613087
400.0,534,12161.091178
400.0,619,12185.905621
600.0,539,12206.353461
200.0,347,12219.774143
800.0,527,12240.575572
400.0,421,12257.268115
400.0,470,12275.123419
600.0,595,12298.269022
600.0,536,12318.449356
200.0,339,12331.713855
600.0,467,12349.078652
400.0,405,12365.144755
400.0,603,12387.55668
400.0,601,12410.995397
600.0,595,12435.171676
200.0,339,12448.457535
400.0,592,12471.078879
400.0,415,12487.630594
400.0,461,12505.861724
400.0,730,12534.981408
200.0,469,12552.852547
200.0,408,12567.861651
600.0,538,12587.675239
200.0,342,12600.223293
400.0,472,12619.83277
800.0,537,12640.136621
600.0,469,12658.121823
400.0,411,12673.123813
400.0,402,12689.217855
400.0,470,12707.179692
600.0,469,12725.046301
400.0,471,12743.161437
400.0,403,12758.022529
400.0,415,12773.613537
600.0,552,12794.733064
400.0,531,12814.308358
600.0,615,12838.147048
600.0,477,12857.308521
600.0,413,12873.775406
600.0,470,12891.732548
1000.0,542,12912.813069
600.0,555,12934.099943
200.0,472,12952.921283
600.0,537,12975.142952
600.0,467,12992.729225
600.0,598,13016.55536
800.0,603,13040.378619
200.0,434,13057.563944
800.0,602,13081.662665
400.0,469,13100.078232
600.0,596,13124.319139
600.0,496,13144.249582
600.0,609,13168.199949
1000.0,606,13190.882061
600.0,529,13210.486589
400.0,464,13228.239691
400.0,401,13243.74185
400.0,471,13262.386358
600.0,535,13283.668227
400.0,474,13302.22348
200.0,525,13323.016135
400.0,468,13341.226785
400.0,467,13360.05385
600.0,603,13385.10814
800.0,595,13408.480681
400.0,406,13424.801742
400.0,532,13445.859307
600.0,477,13464.722139
400.0,403,13479.973637
600.0,656,13506.954178
400.0,526,13528.774465
1200.0,667,13555.586553
400.0,474,13574.172196
400.0,398,13590.513244
600.0,595,13614.825803
200.0,404,13630.285064
800.0,599,13653.353685
600.0,476,13672.493328
400.0,563,13694.878629
400.0,603,13717.778491
400.0,474,13736.147266
600.0,608,13760.77403
600.0,670,13786.933828
600.0,538,13808.561674
600.0,474,13826.748956
400.0,408,13841.761894
400.0,541,13863.11693
600.0,601,13886.237677
200.0,488,13904.676112
800.0,592,13928.018762
1000.0,550,13949.486629
400.0,548,13969.346364
400.0,543,13990.23496
800.0,476,14008.690653
600.0,608,14032.798712
400.0,479,14051.704953
800.0,548,14073.232001
600.0,596,14095.983449
400.0,535,14116.453533
600.0,546,14138.585271
400.0,471,14157.594669
600.0,414,14175.144644
400.0,397,14190.179398
800.0,606,14215.188761
400.0,460,14233.00591
800.0,599,14255.584635
600.0,467,14274.34293
400.0,415,14289.603175
800.0,537,14310.126989
600.0,608,14333.365109
400.0,469,14351.348537
400.0,543,14373.3075
600.0,478,14391.548503
400.0,402,14406.702737
200.0,410,14422.620217
1000.0,601,14445.969961
800.0,542,14466.849694
400.0,462,14484.367037
400.0,465,14501.802108
400.0,470,14519.662051
800.0,612,14544.963949
800.0,477,14563.164518
400.0,407,14579.731234
400.0,531,14600.568532
800.0,539,14621.655759
400.0,459,14639.707468
400.0,464,14657.878344
600.0,472,14675.533556
400.0,399,14690.734713
400.0,537,14711.346179
200.0,340,14724.364506
400.0,461,14742.325418
800.0,533,14762.603667
400.0,471,14782.290532
600.0,532,14802.950334
200.0,340,14815.704391
400.0,402,14831.819842
1000.0,614,14854.62317
800.0,541,14875.259854
400.0,402,14890.729579
1000.0,543,14912.770697
400.0,479,14931.546989
400.0,403,14947.212448
400.0,403,14962.617775
200.0,470,14981.308897
400.0,598,15004.94903
400.0,478,15022.833444
600.0,682,15050.793008
600.0,546,15072.042469
200.0,471,15090.709808
600.0,541,15111.271147
400.0,537,15132.066027
400.0,619,15155.433565
400.0,660,15181.715037
400.0,529,15202.324443
400.0,600,15225.53419
600.0,663,15251.555955
200.0,466,15269.314974
600.0,603,15292.843777
400.0,665,15318.682949
800.0,477,15337.502588
600.0,606,15360.343324
600.0,537,15381.233859
400.0,461,15400.160272
400.0,411,15415.377428
400.0,537,15436.155875
800.0,536,15455.795129
600.0,546,15476.725773
400.0,477,15495.719659
400.0,468,15514.685646
400.0,671,15540.113446
600.0,546,15561.049479
600.0,604,15585.138254
400.0,610,15609.530979
400.0,610,15633.822714
600.0,598,15657.854908
600.0,480,15676.990472
400.0,597,15700.565361
600.0,603,15723.601967
400.0,603,15747.882105
400.0,610,15772.209049
400.0,464,15789.183612
200.0,416,15806.17432
200.0,405,15821.402303
800.0,604,15844.676136
200.0,401,15860.118611
800.0,597,15883.380658
400.0,472,15902.321241
200.0,475,15921.173429
400.0,600,15944.890712
400.0,529,15964.984267
200.0,341,15978.28662
200.0,336,15991.116073
400.0,478,16009.309361
200.0,422,16025.389916
600.0,594,16048.777936
400.0,557,16071.486453
600.0,606,16096.008236
400.0,476,16113.977602
400.0,473,16133.218991
0.0,401,16147.39261
200.0,470,16166.487117
600.0,601,16189.83698
400.0,720,16219.004587
400.0,403,16234.812931
400.0,405,16251.076876
600.0,626,16275.407527
400.0,464,16292.961769
400.0,469,16311.192174
400.0,599,16335.1344
400.0,594,16358.554636
600.0,538,16378.891566
400.0,538,16399.681451
800.0,665,16426.440482
600.0,596,16449.509022
200.0,468,16467.62564
400.0,603,16490.688192
600.0,470,16510.038343
200.0,338,16523.555528
600.0,671,16550.274963
600.0,545,16571.934471
200.0,410,16587.188273
400.0,659,16613.160229
200.0,412,16628.003336
800.0,591,16650.634671
800.0,533,16671.615002
800.0,541,16692.339502
600.0,536,16712.505465
200.0,468,16730.778293
800.0,595,16752.921377
800.0,606,16776.202619
200.0,472,16794.510759
200.0,466,16813.129833
400.0,481,16832.095602
600.0,612,16855.73479
400.0,593,16879.22199
400.0,607,16903.311347
400.0,466,16921.684389
400.0,535,16942.611177
600.0,537,16964.16297
400.0,536,16983.973994
800.0,667,17009.603177
600.0,536,17030.586838
800.0,727,17060.460324
800.0,661,17086.51891
600.0,609,17111.345304
800.0,604,17134.605334
400.0,402,17149.564746
600.0,590,17173.341021
600.0,466,17192.069605
400.0,526,17211.965913
600.0,472,17230.071189
600.0,669,17254.913791
200.0,333,17267.49954
400.0,522,17287.69657
400.0,542,17309.198009
800.0,544,17330.485372
600.0,544,17351.580186
400.0,539,17373.581232
800.0,528,17394.254291
600.0,534,17414.606539
400.0,468,17433.366677
800.0,473,17451.261033
200.0,398,17467.158635
400.0,471,17486.399502
600.0,539,17506.894587
800.0,667,17532.601553
600.0,525,17553.250226
800.0,604,17577.036931
600.0,544,17596.413063
200.0,469,17614.914642
200.0,338,17628.255268
200.0,338,17641.75287
200.0,403,17658.623056
400.0,395,17674.833804
400.0,598,17697.493304
600.0,672,17724.405642
1000.0,680,17750.365342
800.0,602,17772.89945
800.0,603,17796.749596
400.0,465,17814.974144
0.0,279,17825.957546
600.0,475,17845.51448
800.0,535,17866.88318
800.0,590,17890.005539
400.0,660,17916.699898
400.0,465,17934.882397
200.0,463,17953.235759
600.0,471,17972.590828
800.0,544,17993.848811
600.0,470,18013.351441
600.0,539,18034.09797
400.0,599,18058.670385
800.0,599,18081.99388
600.0,467,18100.460329
800.0,532,18121.061467
800.0,540,18141.548204
600.0,593,18162.813611
1000.0,671,18188.902539
600.0,675,18214.779459
1000.0,546,18235.394531
400.0,534,18256.516262
400.0,597,18278.656822
400.0,465,18296.274893
400.0,616,18321.076665
1000.0,613,18345.128989
200.0,341,18358.257623
400.0,482,18377.194863
600.0,471,18395.287092
800.0,530,18416.040412
600.0,543,18437.302712
600.0,409,18453.565663
400.0,408,18469.030745
600.0,538,18489.744985
200.0,340,18503.80218
800.0,536,18525.516521
600.0,540,18546.297745
1200.0,603,18569.519483
400.0,468,18588.20345
800.0,675,18614.560462
800.0,599,18638.532508
200.0,405,18654.238435
600.0,467,18673.252593
1000.0,608,18696.933456
600.0,666,18723.542861
600.0,539,18743.95005
800.0,540,18765.164535
600.0,475,18783.941974
800.0,596,18806.895882
800.0,528,18826.687241
1200.0,601,18850.165582
600.0,408,18865.287683
800.0,602,18888.290188
600.0,543,18908.311613
800.0,668,18934.994437
800.0,666,18961.82119
1000.0,665,18988.185565
800.0,538,19009.611109
800.0,668,19035.655355
600.0,663,19061.081645
600.0,538,19082.425916
400.0,407,19098.943968
600.0,539,19120.593657
400.0,537,19141.262258
400.0,473,19160.351292
600.0,594,19185.28251
800.0,621,19209.843804
600.0,539,19231.227622
800.0,598,19255.880412
400.0,398,19271.31679
1000.0,598,19294.691523
1000.0,599,19317.209675
1000.0,537,19337.587018
800.0,606,19360.66254
800.0,537,19382.054547
800.0,534,19403.034907
600.0,463,19420.515391
600.0,544,19442.396204
600.0,466,19460.660473
600.0,523,19480.660502
200.0,408,19496.564125
800.0,675,19522.786114
600.0,605,19546.870619
600.0,540,19567.699158
600.0,464,19586.009234
800.0,599,19609.283551
400.0,473,19628.789268
600.0,471,19646.84016
600.0,524,19668.348473
400.0,463,19685.924302
800.0,534,19707.132771
800.0,672,19733.9394
1400.0,664,19759.946159
800.0,607,19783.145407
1200.0,665,19809.385696
800.0,535,19830.505116
1600.0,677,19857.080306
600.0,466,19874.784063
400.0,463,19893.487855
400.0,599,19916.66572
1000.0,592,19940.183927
400.0,400,19956.202887
1000.0,544,19978.054853
400.0,394,19994.089721
400.0,400,20008.977565
600.0,523,20029.608387
800.0,540,20050.031164
800.0,539,20071.351987
1000.0,673,20097.790421
1400.0,672,20124.637824
800.0,593,20147.60846
800.0,681,20173.165972
600.0,460,20190.373272
800.0,527,20210.06102
800.0,533,20231.972312
600.0,588,20256.114926
800.0,521,20276.275348
1000.0,599,20300.101308
800.0,539,20321.804471
600.0,406,20337.892671
600.0,534,20358.535117
1200.0,609,20382.970535
400.0,402,20398.887322
1000.0,599,20422.892923
0.0,267,20433.037979
800.0,539,20454.941863
1000.0,677,20481.994206
1000.0,660,20507.730614
1200.0,608,20530.879117
400.0,473,20548.154576
600.0,463,20567.340075
400.0,469,20585.220538
1200.0,609,20608.97935
600.0,406,20625.200099
1200.0,677,20651.182842
600.0,473,20669.979517
800.0,534,20689.822621
1000.0,590,20713.524476
1000.0,540,20735.474274
1200.0,669,20762.060459
1400.0,605,20785.392886
800.0,530,20807.030589
800.0,591,20829.689162
1800.0,678,20857.617673
1000.0,602,20880.34075
400.0,468,20898.544453
800.0,529,20919.650816
1400.0,670,20946.71277
1000.0,608,20971.61521
1200.0,675,20998.54933
1400.0,676,21025.87517
1000.0,535,21046.743428
1400.0,666,21074.196339
1400.0,674,21101.633271
1600.0,677,21128.589954
1400.0,672,21154.691509
400.0,463,21173.964849
400.0,465,21192.531227
1000.0,538,21213.122992
1000.0,597,21236.656826
1000.0,543,21258.383735
1000.0,546,21279.394749
1000.0,539,21300.320103
800.0,533,21319.995056
1200.0,546,21342.609188
800.0,546,21363.257712
1000.0,665,21388.482943
1000.0,608,21411.516597
600.0,410,21426.942989
200.0,346,21440.609172
800.0,527,21460.785557
600.0,416,21476.700072
600.0,541,21498.896213
600.0,461,21516.832663
600.0,533,21538.177016
1400.0,743,21567.126287
1200.0,663,21592.991973
1200.0,667,21618.478474
800.0,471,21636.925702
1000.0,603,21660.471243
400.0,463,21678.251953
1200.0,674,21704.904344
800.0,482,21723.053038
1800.0,676,21749.462857
800.0,599,21773.094946
800.0,593,21795.461329
800.0,467,21813.754081
400.0,475,21832.561121
1600.0,726,21863.070955
1000.0,537,21884.482621
800.0,590,21907.164238
400.0,543,21928.605607
600.0,473,21946.020388
1200.0,602,21968.952346
1000.0,532,21989.795683
1200.0,731,22017.94289
1000.0,609,22042.476943
1200.0,717,22072.04379
1400.0,675,22098.794686
1000.0,663,22124.451526
800.0,527,22144.869602
1000.0,613,22168.44687
1400.0,677,22193.266513
1400.0,665,22219.564974
1000.0,607,22244.044744
800.0,474,22261.528249
1000.0,543,22282.39097
1000.0,611,22306.220928
800.0,545,22328.57712
1000.0,539,22349.38062
400.0,528,22369.871561
400.0,404,22384.976305
600.0,542,22406.560493
1600.0,679,22433.948583
1200.0,607,22459.986324
1000.0,673,22485.947973
1000.0,597,22509.58036
1200.0,605,22534.203341
1400.0,674,22560.362587
1600.0,675,22587.315831
1600.0,680,22613.502758
1600.0,676,22640.459336
800.0,533,22660.954458
1400.0,604,22684.629054
1200.0,678,22710.666465
400.0,414,22727.197645
800.0,473,22746.292367
800.0,550,22767.228828
1600.0,681,22792.935505
800.0,526,22812.676599
600.0,537,22832.392445
1000.0,659,22858.602641
1400.0,674,22885.065474
800.0,607,22908.910619
1000.0,678,22934.268551
1400.0,668,22961.705501
1200.0,609,22985.909729
1200.0,608,23010.587322
1200.0,600,23035.639681
800.0,604,23060.74731
800.0,545,23081.517873
1200.0,604,23105.604682
1200.0,603,23128.237431
1200.0,674,23155.743617
1800.0,675,23182.518811
1400.0,668,23210.805017
1200.0,598,23233.324866
1200.0,674,23259.91982
1800.0,746,23288.971804
1200.0,668,23314.159014
1400.0,670,23339.574574
1200.0,671,23365.257121
1600.0,682,23391.317198
1800.0,674,23416.643447
1400.0,609,23440.992905
1400.0,679,23467.004396
1800.0,677,23493.445589
1400.0,609,23517.177725
1200.0,597,23540.348795
1400.0,607,23565.116367
400.0,402,23581.410993
800.0,546,23603.057167
1400.0,678,23629.677791
1200.0,605,23653.450262
600.0,534,23674.054394
1600.0,671,23699.761647
1200.0,677,23726.04294
400.0,529,23746.388031
1400.0,740,23774.616068
1800.0,677,23801.784908
800.0,596,23825.759251
1000.0,537,23847.961501
1400.0,681,23874.816538
1000.0,543,23895.850066
1400.0,680,23921.945441
800.0,548,23942.25082
1000.0,676,23969.078926
1800.0,678,23997.112772
800.0,541,24018.683261
1200.0,607,24042.607285
1200.0,545,24063.777334
1400.0,667,24090.640732
1000.0,544,24111.023072
1000.0,548,24131.702372
1400.0,682,24159.198218
600.0,407,24174.85561
1600.0,677,24201.448127
1200.0,611,24225.739332
1200.0,609,24249.284424
1000.0,542,24270.644896
800.0,545,24292.53017
1200.0,543,24313.517229
800.0,475,24331.349644
1400.0,607,24355.692049
1600.0,680,24381.534588
1400.0,679,24407.758846
1200.0,604,24431.826063
1000.0,680,24459.170607
1200.0,546,24481.309412
1600.0,666,24506.882186
1800.0,676,24533.204762
1600.0,682,24560.06725
1800.0,679,24585.829561
1000.0,539,24606.8365
1000.0,536,24628.190548
1800.0,681,24654.702147
1600.0,673,24680.162961
1600.0,744,24709.750046
1600.0,677,24735.493322
1000.0,539,24756.423521
1200.0,544,24776.662754
1800.0,675,24803.016963
800.0,470,24822.563363
1600.0,679,24850.142011
800.0,664,24876.719457
800.0,466,24894.928192
1800.0,679,24921.795612
600.0,412,24938.926306
1600.0,675,24964.490553
600.0,409,24980.479989
1600.0,737,25008.326601
1600.0,675,25033.784283
1000.0,541,25054.822362
1600.0,676,25080.188629
1800.0,741,25109.420864
1200.0,544,25130.55663
1600.0,680,25157.17871
1400.0,667,25183.555799
1000.0,530,25204.545663
1200.0,672,25232.435239
1200.0,543,25253.483228
600.0,537,25273.860336
1200.0,540,25294.294339
600.0,403,25309.653145
1200.0,676,25336.217385
1000.0,545,25358.373673
800.0,536,25378.605796
1400.0,606,25402.470063
1800.0,680,25429.196331
400.0,400,25444.072596
1000.0,541,25466.293132
1400.0,611,25489.971426
1600.0,682,25516.464766
1200.0,542,25537.274778
1600.0,670,25563.414421
1000.0,543,25584.858227
1000.0,542,25606.88696
1000.0,530,25627.676957
1000.0,662,25651.999409
1800.0,678,25678.368028
1400.0,681,25704.154806
1200.0,602,25728.779924
1600.0,677,25755.598132
600.0,471,25773.62104
1600.0,675,25800.056489
1800.0,679,25826.377178
1000.0,546,25847.203212
1600.0,676,25874.455322
1600.0,676,25901.720618
1400.0,673,25927.705041
1600.0,675,25955.003222
1400.0,605,25978.289416
1400.0,673,26003.985395
1600.0,674,26030.631639
1200.0,543,26051.985544
1400.0,679,26077.667451
1600.0,676,26104.204474
1200.0,602,26127.682554
600.0,409,26143.700598
1000.0,601,26168.114268
1200.0,541,26189.568332
1200.0,676,26215.850387
1200.0,543,26236.909982
1200.0,607,26260.74039
1000.0,610,26284.17494
1400.0,671,26310.82706
800.0,542,26332.524041
600.0,407,26348.624915
1200.0,542,26369.726669
1200.0,667,26396.412468
1200.0,546,26418.727966
1800.0,678,26445.953567
1200.0,542,26467.110963
1400.0,670,26494.761412
1200.0,604,26520.075199
1400.0,676,26545.597312
1800.0,679,26571.346853
1800.0,680,26597.637072
1800.0,677,26623.438898
1200.0,540,26644.1945
600.0,534,26664.133076
400.0,403,26680.236838
1400.0,664,26705.365672
1800.0,677,26731.508547
1200.0,540,26751.952654
1600.0,668,26777.974115
1200.0,539,26798.795712
1400.0,672,26824.352605
1400.0,670,26850.354787
1600.0,677,26875.134576
1200.0,606,26898.255836
1600.0,668,26923.842581
1600.0,674,26947.59367
1000.0,542,26967.862586
1600.0,668,26994.706072
1600.0,669,27019.80777
1200.0,541,27039.985073
1400.0,673,27065.972041
1200.0,543,27086.364288
1400.0,607,27108.962123
1200.0,544,27129.031956
1000.0,600,27151.827263
1200.0,541,27172.311742
1200.0,608,27196.469584
1800.0,680,27220.52215
1600.0,667,27245.984465
1200.0,543,27266.138136
1600.0,678,27293.307875
1000.0,549,27314.617973
1400.0,671,27340.102619
1400.0,668,27364.319917
1200.0,546,27385.503356
1400.0,667,27410.559503
1200.0,547,27431.628773
800.0,546,27452.743931
1200.0,667,27478.294896
1200.0,541,27499.100325
1800.0,678,27525.469663
1800.0,804,27557.713111
1200.0,543,27577.839932
1200.0,541,27598.573191
800.0,542,27618.872045
1200.0,539,27638.288355
1400.0,612,27660.033943
800.0,537,27680.530958
1400.0,680,27707.116232
1200.0,540,27727.30717
1600.0,674,27753.631061
1000.0,540,27774.450552
1000.0,539,27794.293829
1800.0,680,27820.408831
1200.0,673,27845.434096
600.0,404,27860.709373
600.0,409,27875.907097
1000.0,531,27896.042303
1600.0,672,27921.315052
1000.0,533,27941.661033
1200.0,542,27962.875608
1800.0,677,27989.743171
1200.0,546,28011.587314
1200.0,544,28032.571506
1200.0,543,28052.731953
1600.0,678,28077.745522
600.0,476,28095.623625
1200.0,538,28116.401977
1800.0,678,28141.622622
1200.0,612,28165.876719
1400.0,604,28189.220584
1000.0,547,28210.64498
1200.0,539,28231.059629
1600.0,674,28256.333804
1600.0,673,28283.028103
400.0,413,28300.07706
600.0,403,28316.085154
1400.0,674,28342.198744
1200.0,544,28362.63165
1400.0,610,28386.700263
1800.0,681,28412.52641
1600.0,675,28438.273904
1400.0,611,28461.135247
1800.0,675,28485.708664
1600.0,668,28509.289617
600.0,404,28523.66535
1200.0,543,28544.926766
1600.0,682,28570.542471
800.0,473,28587.012551
1000.0,610,28610.93769
1800.0,679,28636.327377
1200.0,603,28658.581479
1000.0,541,28677.906096
1200.0,540,28697.761274
1000.0,608,28720.830903
1000.0,545,28741.39133
1200.0,545,28762.487776
1400.0,674,28788.742694
1200.0,543,28809.166252
1400.0,673,28834.895237
1200.0,610,28858.108408
1600.0,676,28884.267956
1000.0,600,28907.560468
1000.0,545,28928.008564
1400.0,674,28953.159233
1600.0,677,28978.841251
1600.0,679,29004.438935
1000.0,538,29024.599119
800.0,475,29042.436785
1000.0,547,29063.324111
400.0,413,29080.053295
1800.0,675,29104.547211
200.0,333,29116.355426
1400.0,671,29142.408356
600.0,415,29158.791935
1200.0,542,29178.907395
800.0,536,29200.2611
1800.0,676,29226.193874
1400.0,607,29248.264827
1400.0,664,29272.704931
1800.0,677,29298.14051
1400.0,605,29322.601319
400.0,406,29337.911164
1800.0,677,29363.86499
1200.0,541,29383.763943
600.0,476,29402.375656
1800.0,678,29427.437287
400.0,407,29442.436783
1200.0,540,29463.779682
1800.0,679,29489.309652
800.0,469,29506.807052
1600.0,673,29532.996027
1400.0,673,29558.107898
1000.0,593,29580.492022
1800.0,679,29606.028778
1400.0,679,29630.168362
1200.0,547,29650.687058
1000.0,546,29670.153799
1000.0,667,29695.047325
1200.0,605,29719.526055
1200.0,545,29740.211251
1000.0,542,29760.380265
1600.0,680,29787.745653
600.0,466,29805.538748
1400.0,668,29830.368345
1400.0,609,29852.894178
1600.0,676,29876.863236
1600.0,676,29902.747241
1800.0,681,29928.220321
1400.0,667,29952.462001
1800.0,742,29980.393677
1000.0,665,30005.745059
1400.0,609,30027.880649
1200.0,541,30047.701561
1600.0,672,30073.545044
1000.0,545,30094.610219
1000.0,541,30115.627959
1800.0,742,30144.190151
600.0,410,30159.802669
1800.0,681,30185.818603
1200.0,541,30206.279383
1600.0,672,30232.189927
1600.0,678,30258.074457
1400.0,659,30283.638046
1400.0,608,30306.896642
1200.0,596,30329.260845
1000.0,545,30349.258052
1400.0,606,30372.858043
1800.0,676,30398.811552
1200.0,607,30421.886809
1400.0,671,30447.981506
1800.0,677,30474.188389
1200.0,546,30493.709446
1200.0,663,30519.209507
1400.0,672,30544.326927
1400.0,673,30570.648574
1200.0,545,30592.334587
1600.0,671,30617.34844
1800.0,733,30645.035174
1800.0,674,30671.316071
200.0,332,30683.989404
800.0,466,30703.250463
1600.0,681,30729.882236
1800.0,680,30755.126985
1800.0,678,30780.296537
1400.0,607,30803.691317
1000.0,546,30823.090229
600.0,408,30838.87378
1200.0,542,30858.901144
1200.0,543,30878.960736
1800.0,680,30904.123439
1800.0,747,30932.607115
1400.0,603,30955.496126
1600.0,673,30981.67212
2000.0,741,31010.758188
1000.0,545,31031.762389
1000.0,544,31053.901592
1400.0,678,31080.330962
1200.0,541,31100.82265
1200.0,542,31122.768387
1200.0,541,31143.224684
1600.0,681,31169.267221
1000.0,542,31189.431455
2000.0,742,31217.334499
2000.0,748,31245.523588
1400.0,605,31268.673002
1200.0,542,31288.754952
1200.0,609,31311.780506
1800.0,674,31338.323986
2000.0,745,31366.234861
1600.0,676,31391.066288
1600.0,680,31416.091202
600.0,412,31432.523692
1600.0,677,31458.57526
1800.0,681,31484.082245
1000.0,610,31508.098672
2000.0,743,31535.273711
1800.0,682,31561.401651
2000.0,744,31588.466911
600.0,408,31604.763368
1000.0,609,31628.508906
1000.0,538,31649.369708
1200.0,541,31671.138716
1800.0,747,31698.967819
800.0,475,31716.388552
1200.0,598,31739.074109
1800.0,677,31764.694646
1200.0,545,31784.427204
2000.0,741,31811.738107
600.0,406,31827.568974
1800.0,681,31852.719497
1200.0,613,31875.638564
1600.0,681,31901.174946
1800.0,681,31927.520211
1200.0,546,31947.344476
1200.0,546,31968.416156
1400.0,608,31991.459948
1400.0,606,32014.592175
1600.0,680,32040.287256
1400.0,660,32065.396568
1400.0,608,32088.493424
1400.0,604,32111.774345
1400.0,603,32133.746912
1800.0,675,32159.9307
1000.0,537,32179.578738
1000.0,533,32199.78182
1200.0,606,32224.042458
800.0,478,32242.324932
1400.0,603,32264.091678
1600.0,672,32288.988773
1800.0,738,32316.790236
1200.0,542,32337.091612
1600.0,745,32365.498813
1400.0,672,32391.183512
1400.0,669,32417.920229
1800.0,730,32444.920519
2000.0,740,32473.614721
1400.0,604,32496.166677
1200.0,543,32516.710609
1200.0,600,32538.198477
1800.0,680,32565.581635
1400.0,607,32588.776689
1800.0,743,32617.692712
1800.0,678,32643.308395
1600.0,681,32667.902423
1200.0,679,32692.610152
1600.0,680,32718.184845
1400.0,606,32742.594777
1400.0,608,32766.63811
1600.0,677,32793.020741
1400.0,740,32821.843163
1600.0,677,32847.331952
800.0,546,32868.083208
1200.0,540,32888.548555
1400.0,675,32915.638072
1400.0,675,32941.934654
1000.0,544,32961.677991
1200.0,603,32984.839559
800.0,477,33003.067602
1200.0,548,33023.314052
1600.0,678,33048.982602
1200.0,547,33069.574545
1600.0,742,33097.846246
1600.0,679,33123.535545
1000.0,606,33147.958871
2000.0,746,33177.313684
1400.0,672,33203.618807
1600.0,678,33229.792433
1600.0,678,33255.92127
1800.0,678,33280.391539
1200.0,667,33305.72281
1000.0,540,33327.809045
1200.0,606,33350.035566
1400.0,681,33376.856747
1400.0,606,33399.329001
1800.0,742,33428.051417
1800.0,681,33454.028446
2000.0,745,33481.685444
1800.0,678,33506.907156
1800.0,733,33534.742636
1400.0,674,33559.65561
1800.0,675,33585.276604
2000.0,741,33614.342604
2000.0,801,33644.913798
1800.0,678,33670.068321
2000.0,805,33701.445887
1400.0,609,33724.795833
1600.0,677,33749.5057
1800.0,679,33774.42502
1600.0,675,33799.976715
1400.0,673,33825.43857
1400.0,661,33850.622737
1200.0,597,33873.575197
1200.0,668,33898.09646
1800.0,681,33923.07432
1200.0,550,33944.845278
1400.0,613,33968.024243
1600.0,679,33994.663476
1000.0,599,34017.658731
1000.0,600,34039.81719
1200.0,543,34061.023404
600.0,405,34076.641356
1400.0,744,34105.21743
2000.0,746,34134.385267
1800.0,677,34159.69248
1800.0,677,34185.310627
1800.0,675,34210.570416
1800.0,678,34236.315384
1000.0,542,34257.281985
1200.0,547,34278.071471
1800.0,680,34304.768219
1600.0,676,34330.988256
1600.0,683,34358.048203
2000.0,739,34386.334934
1600.0,671,34413.067129
1400.0,683,34439.457496
1200.0,547,34460.830955
1200.0,553,34483.448846
1400.0,609,34508.22087
1800.0,680,34534.524394
800.0,539,34554.345561
1800.0,675,34579.755565
1000.0,542,34599.943648
1400.0,610,34623.233935
1800.0,733,34652.63969
1600.0,676,34678.417041
1800.0,675,34704.630924
1800.0,743,34735.237139
2000.0,743,34764.342477
1800.0,682,34790.030634
1800.0,676,34817.273353
1800.0,734,34846.239569
1800.0,677,34873.685314
2000.0,745,34903.641258
1400.0,608,34928.015513
1200.0,549,34949.287108
2200.0,806,34981.322586
2000.0,744,35010.843197
1800.0,680,35037.695946
1600.0,676,35064.215511
1600.0,676,35092.756853
1800.0,681,35118.851064
1600.0,676,35144.677388
1800.0,743,35172.695015
2000.0,740,35202.034081
1800.0,736,35228.913552
2000.0,743,35259.975359
2000.0,742,35289.948078
1600.0,672,35316.866377
1600.0,681,35342.618247
1800.0,679,35368.820956
1600.0,682,35395.120245
1200.0,659,35420.797073
2400.0,869,35455.2868
600.0,408,35471.35147
1600.0,676,35497.872801
1800.0,734,35526.13065
1800.0,677,35551.928879
2000.0,742,35580.956743
1600.0,743,35610.250779
1600.0,739,35639.052708
1800.0,676,35665.116914
1200.0,546,35686.6467
2000.0,748,35715.968638
1000.0,537,35737.017787
2000.0,742,35767.127042
1200.0,605,35791.373382
1800.0,744,35821.956109
1600.0,744,35849.956953
1200.0,545,35871.339603
1200.0,543,35894.109729
2000.0,805,35926.636048
1800.0,676,35952.954101
1800.0,735,35982.39189
1200.0,547,36003.888776
1200.0,607,36028.546391
2000.0,740,36058.617035
1400.0,610,36082.414253
2000.0,744,36113.023142
1800.0,680,36140.174623
1600.0,675,36167.42718
1800.0,678,36194.319423
2000.0,746,36225.472454
1600.0,667,36251.373554
1600.0,670,36278.490554
1600.0,676,36304.594549
1800.0,682,36330.356502
1000.0,536,36350.58331
2000.0,746,36379.913084
2000.0,746,36411.628771
1600.0,802,36441.384517
1200.0,542,36460.909581
2200.0,804,36492.692656
1000.0,534,36513.246433
1600.0,667,36539.048226
2000.0,741,36568.760958
1800.0,675,36595.668328
400.0,411,36611.292536
2000.0,810,36643.34313
1400.0,606,36667.33778
1600.0,680,36694.679514
1800.0,680,36722.165489
1800.0,741,36751.346924
1600.0,677,36777.4524
1200.0,543,36799.258776
1200.0,544,36820.511662
2000.0,741,36849.168524
1400.0,604,36872.223005
600.0,413,36887.887579
1800.0,677,36913.637978
1800.0,677,36939.654485
2000.0,744,36968.378953
1200.0,547,36989.79497
1800.0,742,37018.760652
2000.0,746,37047.205949
1600.0,678,37073.129747
2000.0,745,37101.631987
1800.0,680,37127.958624
1800.0,678,37154.082879
1800.0,679,37181.163717
1000.0,536,37202.496493
2000.0,746,37230.531816
1600.0,676,37258.142263
1200.0,539,37280.056743
1600.0,679,37307.253683
1800.0,741,37336.557126
1800.0,747,37365.270054
2200.0,874,37398.662296
1600.0,671,37425.816374
2000.0,743,37455.483318
1800.0,743,37484.566849
2000.0,745,37514.200827
1800.0,745,37542.975692
2000.0,745,37571.974588
1800.0,678,37598.814113
1600.0,743,37628.627615
1800.0,731,37656.728317
2200.0,806,37689.19441
2000.0,747,37719.143039
2000.0,741,37748.968554
1600.0,673,37776.746679
1800.0,676,37803.104688
2000.0,747,37832.772845
1800.0,744,37861.54285
1400.0,607,37885.313747
2400.0,875,37919.566751
2000.0,741,37948.346294
2000.0,743,37978.470423
1400.0,609,38001.609184
2200.0,809,38032.564987
1800.0,679,38059.53301
1800.0,737,38088.463502
1800.0,681,38116.075507
1800.0,677,38142.239831
2000.0,743,38172.356074
1800.0,679,38197.631417
1800.0,680,38222.728467
1800.0,677,38249.142225
1600.0,744,38278.815498
1400.0,609,38303.301667
1800.0,676,38328.881675
1800.0,681,38355.821685
1800.0,684,38383.585072
2000.0,740,38411.456093
1800.0,682,38438.319503
1000.0,552,38458.520424
2000.0,746,38487.521807
2000.0,742,38517.514522
1800.0,745,38546.489852
1800.0,678,38571.217441
2200.0,870,38605.236483
800.0,472,38624.188303
2000.0,747,38653.953836
2000.0,874,38689.328957
1800.0,680,38716.325242
1800.0,746,38745.807761
1200.0,668,38773.126097
1600.0,669,38799.07108
2000.0,746,38827.21089
1600.0,738,38858.17868
2000.0,746,38887.434727
600.0,484,38905.648792
2200.0,807,38936.609519
1600.0,679,38964.225876
1800.0,734,38992.544049
1000.0,540,39013.410009
1600.0,679,39038.773138
2000.0,742,39068.013285
1600.0,746,39097.593359
2200.0,803,39128.192082
2400.0,874,39162.28981
2000.0,746,39192.132236
2000.0,741,39222.522513
2400.0,874,39256.785072
2000.0,808,39288.091336
2000.0,745,39318.923179
1800.0,680,39346.063666
2200.0,808,39377.149886
2200.0,868,39410.622696
1400.0,737,39440.789356
2000.0,747,39469.1909
2000.0,868,39502.587935
2000.0,745,39530.820019
2000.0,747,39559.837899
1800.0,677,39586.983187
2400.0,871,39622.010496
2000.0,741,39651.318651
2400.0,873,39685.800079
1600.0,671,39712.015707
1800.0,737,39739.761284
2400.0,875,39775.39792
1200.0,543,39796.517695
2400.0,870,39831.166575
2000.0,742,39860.585407
2000.0,743,39890.494615
1600.0,674,39917.157203
2000.0,747,39946.037066
1600.0,676,39972.406287
1600.0,672,39998.948216
2000.0,743,40027.949593
2000.0,744,40057.121059
2000.0,743,40085.693675
2000.0,746,40114.598808
2000.0,746,40142.961698
2400.0,873,40176.465759
2000.0,746,40204.821681
2000.0,746,40233.596303
1800.0,684,40259.899484
2000.0,864,40293.890234
2400.0,868,40327.068816
2000.0,747,40356.031736
2400.0,873,40390.871202
2000.0,742,40418.719769
2400.0,873,40452.572172
2000.0,745,40481.093803
2000.0,743,40508.724173
2200.0,807,40540.13711
2400.0,869,40574.556451
2000.0,742,40604.04388
2000.0,743,40631.040059
1400.0,609,40654.752312
2200.0,809,40685.339912
2000.0,740,40713.258598
2200.0,873,40745.998633
1800.0,746,40773.833961
2400.0,876,40807.334386
2400.0,869,40840.113135
2200.0,812,40872.043714
2200.0,804,40902.597699
2000.0,746,40931.277301
2000.0,743,40959.137446
2400.0,875,40991.886621
2000.0,745,41020.571016
2400.0,870,41053.600623
2200.0,809,41082.954949
1600.0,669,41108.431336
1200.0,676,41134.397529
1600.0,671,41160.88182
2000.0,740,41189.537818
1800.0,678,41216.081578
1800.0,733,41244.013813
1600.0,678,41269.412441
2400.0,874,41302.642491
1800.0,736,41329.947839
2200.0,808,41360.639306
2000.0,748,41388.54232
2400.0,875,41419.98701
1600.0,669,41445.949776
1200.0,540,41467.329033
2000.0,745,41495.808105
1200.0,544,41516.072765
1600.0,677,41541.734117
1800.0,734,41568.121964
2400.0,875,41602.236845
2200.0,807,41633.161355
1800.0,735,41661.568994
2200.0,810,41690.956318
1800.0,743,41719.029884
2000.0,746,41747.028178
2000.0,746,41775.165835
2400.0,871,41807.187392
2400.0,873,41838.880474
2200.0,808,41869.031791
2000.0,750,41898.010266
2400.0,875,41931.54265
1600.0,674,41957.01684
2400.0,871,41990.080002
1600.0,669,42015.437834
2400.0,870,42048.276419
2400.0,875,42082.510135
1400.0,806,42113.567539
2200.0,805,42144.123024
1600.0,677,42168.560671
2400.0,875,42202.296034
2200.0,869,42235.032978
2000.0,743,42263.726658
2400.0,878,42296.76909
1600.0,671,42321.703654
2000.0,750,42349.843756
2200.0,806,42379.463014
2200.0,803,42411.209776
2000.0,742,42440.416613
1600.0,671,42465.614072
2200.0,809,42496.709851
2400.0,877,42529.865913
2000.0,796,42560.208663
2000.0,745,42588.133681
1400.0,665,42612.684787
1600.0,668,42637.868686
2400.0,872,42672.062964
2000.0,742,42699.280546
1400.0,676,42725.848794
2400.0,867,42758.834373
1200.0,544,42779.507898
2400.0,873,42813.360088
2000.0,741,42842.857368
2000.0,745,42871.740783
1800.0,747,42899.953171
2000.0,747,42928.968342
1200.0,550,42950.195349
1800.0,681,42976.287937
2400.0,872,43008.111944
1400.0,676,43033.733315
2000.0,748,43061.767351
2000.0,745,43090.387553
1600.0,675,43116.278843
2000.0,744,43145.328702
2400.0,872,43178.962706
2200.0,875,43213.382895
2000.0,743,43242.31842
2000.0,741,43270.910109
2000.0,745,43300.331529
1600.0,672,43325.998814
1800.0,740,43354.892514
2000.0,809,43385.197542
2000.0,747,43413.323415
2000.0,742,43441.099156
2200.0,807,43472.095786
2000.0,804,43501.381833
1800.0,679,43526.560926
1600.0,742,43555.281306
1800.0,740,43583.794223
1800.0,680,43609.110984
2400.0,873,43641.79425
2000.0,745,43670.538073
2200.0,811,43701.575548
2400.0,869,43735.043993
1600.0,672,43761.993463
1600.0,667,43787.468857
2000.0,746,43816.585416
1400.0,610,43839.122347
1800.0,745,43869.306643
2000.0,746,43897.010594
2000.0,746,43925.39088
1600.0,669,43949.807876
2200.0,805,43980.534838
2200.0,805,44011.190364
2000.0,746,44041.133093
1800.0,678,44066.683859
2000.0,810,44097.746344
1800.0,681,44123.727695
2400.0,868,44156.294918
2200.0,870,44189.324445
2200.0,866,44223.109381
2200.0,867,44254.160608
2400.0,873,44287.452379
2000.0,747,44315.492891
2200.0,808,44346.01779
2400.0,875,44379.244261
2200.0,809,44410.34289
2400.0,869,44444.28321
1400.0,611,44466.40664
2400.0,873,44499.296372
2000.0,813,44530.119295
2000.0,744,44558.594636
2000.0,747,44586.033316
2000.0,743,44614.727153
1800.0,807,44645.963521
2400.0,872,44679.596236
2200.0,862,44713.118357
2400.0,872,44746.336174
2400.0,874,44778.953178
2000.0,745,44808.138862
2200.0,807,44839.219185
2200.0,878,44872.054384
1400.0,661,44897.618874
1800.0,733,44925.179914
1800.0,748,44954.733554
2200.0,806,44985.170592
2000.0,749,45013.842873
2000.0,745,45043.301222
2000.0,741,45071.401207
2400.0,871,45104.862659
2400.0,869,45139.296461
1600.0,674,45164.736002
2200.0,867,45197.684253
2400.0,870,45229.996205
2400.0,878,45264.639395
1800.0,678,45291.03302
2000.0,745,45319.794509
2200.0,809,45349.260189
2200.0,813,45380.401959
1400.0,609,45402.793316
2200.0,811,45433.501663
2400.0,876,45466.383012
2400.0,878,45499.763149
1800.0,740,45527.153123
2200.0,812,45558.209006
1600.0,673,45585.194629
2000.0,814,45616.506674
2000.0,863,45649.959142
1600.0,726,45677.780302
1600.0,734,45704.999152
2400.0,872,45738.215871
2000.0,744,45767.680852
2000.0,745,45797.130126
1600.0,675,45822.851984
2000.0,802,45853.142639
2000.0,742,45882.255599
2000.0,744,45912.081265
2400.0,876,45946.496783
1800.0,730,45974.912255
2400.0,876,46009.138978
1800.0,853,46042.535064
2400.0,875,46076.041208
2000.0,747,46104.343763
2400.0,872,46138.661016
1600.0,674,46164.93491
1800.0,741,46194.116971
1600.0,667,46221.268657
2400.0,875,46256.139966
1600.0,738,46282.985156
2000.0,806,46314.866225
2000.0,744,46344.645894
2400.0,878,46377.770563
2000.0,804,46408.003204
2000.0,748,46437.195523
2000.0,747,46466.174449
2400.0,871,46498.979116
1600.0,679,46524.920273
2400.0,874,46559.465629
2000.0,746,46587.51081
2200.0,806,46618.151628
1600.0,747,46647.126646
2400.0,873,46679.074703
2000.0,740,46708.161312
1800.0,742,46737.54953
2200.0,871,46770.299561
1800.0,741,46799.497636
2000.0,742,46827.527597
2200.0,811,46857.366083
1800.0,738,46884.770039
2400.0,877,46919.864762
2200.0,868,46953.362418
2000.0,798,46984.675357
2000.0,741,47012.363926
2000.0,746,47041.612146
2000.0,865,47075.939386
2600.0,939,47110.541922
2000.0,744,47138.789661
2400.0,872,47172.882146
2000.0,744,47200.319628
2000.0,873,47233.734644
2000.0,744,47262.076952
1800.0,738,47288.4162
2000.0,742,47317.388351
1800.0,682,47344.119551
1200.0,548,47364.760297
1800.0,732,47392.343205
2200.0,867,47426.401806
800.0,471,47445.127659
2200.0,808,47474.396683
1400.0,609,47497.125205
2400.0,874,47529.84581
1200.0,601,47552.125095
2000.0,744,47581.641457
1800.0,682,47608.11955
2000.0,742,47637.073174
1800.0,679,47662.665053
2400.0,875,47696.234424
2400.0,875,47729.898822
2400.0,876,47762.6903
2600.0,1007,47801.282589
2000.0,748,47829.650077
1400.0,673,47855.219835
2000.0,743,47884.213695
2400.0,876,47917.441383
2400.0,875,47950.107678
2000.0,743,47978.365958
2400.0,873,48012.003944
2400.0,872,48046.784196
2000.0,745,48076.545426
1600.0,671,48103.295268
2400.0,867,48136.312828
2000.0,744,48164.539964
1600.0,676,48190.147619
2400.0,875,48224.270241
1600.0,677,48249.805632
2400.0,875,48284.50011
2400.0,878,48317.900873
2400.0,879,48351.411267
1800.0,736,48379.443831
2200.0,876,48412.593149
2400.0,876,48446.781069
2200.0,875,48481.318739
1600.0,674,48505.408088
2400.0,878,48539.985465
1800.0,732,48568.639431
2200.0,872,48601.609395
1800.0,738,48630.718479
2400.0,875,48664.813998
1600.0,735,48692.328196
2000.0,872,48726.84193
2000.0,744,48755.90113
2000.0,798,48786.434375
1400.0,609,48809.752232
2000.0,804,48841.945704
2000.0,746,48871.360792
1400.0,606,48894.601874
2200.0,863,48927.777382
1800.0,677,48953.423175
2400.0,872,48986.275464
2800.0,1000,49025.257019
2000.0,748,49054.156602
1800.0,734,49082.364855
2200.0,863,49115.186264
1600.0,672,49140.102773
2200.0,863,49171.292402
2000.0,805,49201.930961
1600.0,673,49226.332651
1600.0,673,49252.872985
2400.0,876,49285.960089
2200.0,874,49318.715005
2400.0,873,49351.651207
2400.0,877,49385.727494
2400.0,877,49420.427241
1800.0,743,49449.915027
2400.0,871,49483.21489
2400.0,870,49516.560701
2400.0,876,49550.571649
2200.0,803,49581.78659
1600.0,668,49607.057886
1600.0,673,49632.941398
1600.0,672,49658.146728
2400.0,878,49693.278011
2200.0,873,49726.822558
2000.0,741,49754.106071
1600.0,674,49780.588831
2000.0,796,49810.983795
2400.0,872,49843.837932
2000.0,799,49875.31608
2200.0,866,49907.986138
2000.0,741,49935.747559
1800.0,735,49965.180773
2000.0,747,49993.173747
2000.0,747,50021.610413
2200.0,810,50053.478886
2000.0,746,50080.638314
3000.0,1062,50122.303461
1600.0,673,50147.559514
1800.0,738,50175.299607
1400.0,658,50201.047536
2200.0,811,50232.17582
2400.0,875,50265.43247
2400.0,872,50298.969709
1600.0,673,50323.998526
2400.0,878,50358.554949
2000.0,803,50388.417327
2400.0,871,50421.790853
1600.0,672,50446.953393
2000.0,745,50476.115703
2400.0,877,50509.813009
1600.0,675,50535.80746
2000.0,744,50565.279484
2200.0,812,50595.427016
2400.0,877,50628.26185
1600.0,674,50653.822907
2200.0,807,50685.368488
2400.0,873,50718.697322
2400.0,871,50753.640444
2400.0,875,50787.335361
2200.0,811,50819.398305
2400.0,877,50853.86525
1600.0,670,50878.253079
1800.0,741,50907.680318
2200.0,874,50940.088966
2200.0,877,50973.620394
2000.0,748,51002.849188
2400.0,869,51036.441199
1800.0,744,51063.947463
2000.0,745,51092.03738
2400.0,874,51125.660214
1600.0,671,51151.179419
2000.0,743,51179.194658
600.0,413,51195.271822
2400.0,871,51227.307196
2200.0,876,51262.040697
2000.0,744,51290.392456
1200.0,548,51311.860399
1800.0,677,51337.347096
1600.0,672,51363.195477
1000.0,539,51383.093078
2000.0,745,51410.79915
2000.0,743,51439.425459
2000.0,745,51467.518495
2200.0,804,51499.326511
2000.0,745,51527.723822
2400.0,874,51560.642774
2000.0,741,51589.369435
1600.0,729,51616.534859
2000.0,738,51644.223198
2000.0,743,51673.044614
2000.0,742,51700.976439
1600.0,672,51727.457079
1800.0,731,51756.458567
2200.0,812,51786.633434
1800.0,735,51814.074531
2200.0,811,51845.149053
2400.0,874,51879.004331
1800.0,679,51903.696194
1600.0,668,51929.109693
2000.0,743,51956.881449
2400.0,872,51989.419713
2200.0,809,52020.710603
2400.0,872,52054.233561
2200.0,805,52086.120501
2200.0,861,52119.154813
1800.0,679,52146.051267
2400.0,873,52177.735632
2400.0,870,52210.866456
2200.0,812,52242.13632
2400.0,869,52276.331661
1400.0,607,52299.829571
2200.0,807,52330.875258
1600.0,672,52356.341687
2000.0,746,52384.047013
2600.0,1002,52422.384365
2200.0,807,52452.647779
1800.0,744,52482.292776
2400.0,872,52515.643671
2400.0,874,52550.757991
2200.0,871,52585.10443
1400.0,612,52609.64747
1800.0,741,52637.047586
2000.0,744,52665.430034
2200.0,810,52695.015448
2200.0,807,52726.886698
2200.0,873,52760.472416
2400.0,874,52793.4795
2400.0,871,52828.116277
2400.0,877,52860.483398
2200.0,809,52890.821292
2000.0,741,52919.925286
1800.0,733,52948.702446
2200.0,807,52980.219202
2000.0,868,53012.87673
2200.0,803,53043.901342
2400.0,870,53077.127704
2000.0,795,53107.813133
2000.0,749,53135.745669
1800.0,738,53164.357434
1600.0,671,53190.767054
2200.0,808,53222.915678
2000.0,742,53251.250985
2400.0,874,53284.508159
2000.0,741,53312.573092
2400.0,875,53345.372502
2400.0,875,53379.82358
2400.0,872,53414.071221
2400.0,877,53449.016647
2400.0,875,53482.402412
2000.0,746,53510.30972
2400.0,873,53543.630787
2400.0,871,53578.067648
1600.0,673,53603.195107
1800.0,735,53631.822025
2400.0,874,53664.830557
1800.0,737,53693.37369
2200.0,810,53722.023328
1600.0,670,53747.117163
2400.0,875,53781.568188
2000.0,807,53813.195791
2000.0,744,53841.814751
1800.0,748,53869.144545
2000.0,743,53896.647074
2400.0,876,53930.443244
1600.0,735,53959.720049
1400.0,662,53985.592118
2200.0,874,54020.597426
2400.0,872,54054.298989
1600.0,737,54083.178848
2400.0,870,54117.05628
2200.0,804,54148.042615
2400.0,868,54182.745132
2400.0,867,54216.277343
1400.0,668,54242.388324
2400.0,873,54276.628296
1600.0,673,54303.600391
2200.0,869,54337.84064
2400.0,873,54371.061468
2400.0,873,54404.515452
1600.0,675,54432.950364
2400.0,873,54466.276635
2400.0,872,54499.593864
2000.0,744,54528.606993
1200.0,543,54551.229708
2000.0,744,54580.271823
2400.0,875,54614.331259
2400.0,873,54647.957053
1800.0,746,54678.145532
2800.0,997,54717.985107
2000.0,797,54749.205274
1600.0,668,54775.53043
2400.0,867,54810.153025
2400.0,876,54844.191891
2000.0,742,54873.015177
2400.0,871,54907.214256
2400.0,872,54941.09641
1600.0,673,54967.863193
1600.0,672,54994.561348
2200.0,868,55029.411196
2800.0,997,55067.91921
2000.0,869,55101.411458
2200.0,869,55135.52315
2400.0,871,55169.220533
2400.0,873,55203.794954
2000.0,795,55233.998718
3200.0,1130,55279.007502
2800.0,1002,55318.406855
1600.0,674,55345.108126
1200.0,545,55366.378935
2600.0,991,55405.587437
2600.0,1003,55445.832791
3200.0,1180,55491.977317
2000.0,743,55523.255447
2400.0,866,55557.277669
1600.0,729,55585.359309
2800.0,1062,55628.798139
1800.0,743,55657.821909
2200.0,810,55689.841816
2600.0,935,55727.497595
1400.0,670,55754.422622
2200.0,874,55788.530005
2400.0,867,55824.035663
1600.0,669,55850.606905
2200.0,865,55884.998119
2800.0,1052,55926.737679
1400.0,675,55954.778819
2400.0,870,55987.66389
2800.0,996,56026.192838
1200.0,546,56048.307943
3000.0,1057,56089.430152
3600.0,1307,56141.138997
3200.0,1129,56185.469327
2000.0,746,56215.65406
2600.0,938,56252.494208
2200.0,865,56286.547184
3800.0,1382,56341.223991
1800.0,678,56367.626973
1600.0,672,56394.100253
2400.0,872,56430.263107
4000.0,1502,56490.438969
3000.0,1061,56534.286115
3000.0,1129,56578.462558
2200.0,926,56614.442029
3600.0,1274,56664.604863
3400.0,1187,56711.8241
2600.0,934,56748.964715
2400.0,929,56787.355952
2000.0,747,56815.984367
3400.0,1324,56867.271343
2800.0,999,56905.703202
3400.0,1250,56955.338118
3200.0,1183,57002.137076
2200.0,870,57036.088736
3200.0,1131,57082.054375
3400.0,1193,57129.789658
2600.0,1049,57171.064881
3000.0,1062,57214.226135
2800.0,1118,57259.053558
3400.0,1191,57305.982411
3000.0,1126,57349.214725
3000.0,1128,57393.122614
3200.0,1182,57441.697178
1200.0,602,57465.287582
2400.0,929,57502.861362
3800.0,1316,57554.5954
1800.0,803,57585.928462
3200.0,1182,57632.441803
3600.0,1259,57681.514194
4000.0,1443,57738.628025
1200.0,545,57759.518672
2000.0,870,57790.503942
3800.0,1318,57841.184275
2600.0,989,57880.22174
1200.0,600,57903.444823
2400.0,870,57935.901577
2400.0,989,57974.025707
4600.0,1577,58033.31224
2600.0,1190,58079.5162
2000.0,800,58109.324484
1600.0,669,58133.549318
3400.0,1191,58178.78697
1800.0,801,58209.478275
1200.0,603,58233.099769
1800.0,801,58263.432773
3600.0,1275,58312.160125
2800.0,999,58349.617893
2600.0,998,58388.037798
3600.0,1255,58437.01638
3400.0,1192,58484.825207
3400.0,1211,58532.253426
3200.0,1145,58577.261591
3600.0,1254,58626.162423
2200.0,918,58660.175084
3400.0,1255,58708.056583
3000.0,1065,58749.200282
2800.0,997,58785.538775
4000.0,1379,58840.634446
3400.0,1191,58886.832457
3200.0,1189,58932.47305
2800.0,1001,58968.98691
1600.0,737,58996.672555
3200.0,1145,59041.270378
2000.0,855,59074.832985
3200.0,1252,59123.444224
3200.0,1130,59168.036222
3400.0,1277,59218.601422
3000.0,1056,59258.989555
3200.0,1132,59303.21783
3800.0,1408,59357.238953
3800.0,1395,59412.683486
3600.0,1319,59462.03646
3600.0,1275,59509.778654
3200.0,1150,59553.924435
3400.0,1278,59602.350635
3000.0,1132,59646.300591
2200.0,871,59679.653842
2800.0,1055,59720.153774
4200.0,1601,59780.571915
4600.0,1692,59847.132868
4400.0,1509,59905.064692
3400.0,1191,59950.680973
3200.0,1122,59994.630858
3200.0,1150,60037.59073
3400.0,1191,60085.512074
2600.0,1061,60127.29435
2400.0,928,60162.169331
3400.0,1249,60211.540452
3400.0,1274,60260.924126
3600.0,1281,60311.616227
2600.0,931,60348.164641
1600.0,674,60372.551382
3000.0,1065,60414.034118
4000.0,1382,60468.273556
4400.0,1515,60527.476484
3400.0,1188,60571.924996
2800.0,1000,60611.168889
3600.0,1276,60659.979495
3400.0,1193,60704.063935
4400.0,1507,60762.495032
3000.0,1130,60807.060426
3200.0,1128,60849.899749
4800.0,1636,60911.617386
3600.0,1256,60959.557713
4000.0,1405,61013.950916
5000.0,1700,61079.950552
3600.0,1256,61128.313012
2200.0,870,61162.500056
3200.0,1180,61208.492779
3800.0,1383,61260.919914
3000.0,1182,61306.611676
3600.0,1281,61354.585163
3000.0,1128,61398.139145
3600.0,1308,61448.333579
4000.0,1385,61502.164273
3600.0,1281,61551.458892
3400.0,1248,61599.974499
4000.0,1441,61655.01497
4000.0,1401,61708.563294
3400.0,1278,61755.040783
3400.0,1253,61804.345026
3600.0,1281,61854.267506
3000.0,1066,61896.402791
3800.0,1317,61946.486785
4700.0,1669,62007.256331
3200.0,1213,62054.799181
3400.0,1212,62102.002538
3600.0,1257,62150.408251
3200.0,1245,62200.195312
2800.0,1054,62239.558797
1600.0,801,62270.782034
3000.0,1060,62312.114687
5600.0,2011,62388.210518
2200.0,861,62421.10021
2800.0,1060,62461.759922
3200.0,1132,62505.091345
3200.0,1194,62551.3685
5400.0,1900,62623.221006
3000.0,1125,62668.653753
5600.0,1898,62742.225743
3400.0,1191,62787.204906
3400.0,1299,62837.611696
3500.0,1211,62883.500393
3600.0,1278,62932.458839
3000.0,1121,62976.18842
3600.0,1273,63026.348673
3600.0,1282,63075.044862
3600.0,1300,63125.026488
3600.0,1283,63174.648221
4600.0,1574,63235.188297
3400.0,1246,63283.17882
2800.0,1057,63324.333914
3000.0,1144,63367.879165
2400.0,873,63401.43244
2800.0,1124,63445.087677
4000.0,1491,63502.942546
3400.0,1258,63552.040688
3800.0,1386,63606.205777
3600.0,1297,63656.486654
4000.0,1404,63709.949028
3000.0,1120,63754.14606
3400.0,1275,63804.540258
3400.0,1213,63851.345378
3400.0,1186,63896.351405
3400.0,1308,63946.446578
4800.0,1698,64012.134911
3700.0,1312,64063.282024
3600.0,1280,64114.707673
3600.0,1260,64161.220132
4700.0,1577,64223.399056
3000.0,1118,64265.612567
4000.0,1385,64319.245837
3800.0,1346,64371.148422
4600.0,1594,64431.929165
3400.0,1266,64478.35033
3200.0,1205,64524.671954
3600.0,1275,64573.024389
3800.0,1342,64625.160536
3800.0,1343,64675.520352
3800.0,1345,64727.820159
3600.0,1300,64777.427632
3600.0,1339,64828.484618
3800.0,1321,64880.28503
3200.0,1211,64927.896958
3400.0,1276,64976.636442
3000.0,1124,65018.910302
3600.0,1299,65068.083611
3400.0,1295,65119.454483
3700.0,1359,65172.299135
3400.0,1299,65223.30012
2800.0,1058,65263.573722
5000.0,1700,65331.272158
3600.0,1294,65380.585021
4000.0,1382,65434.373344
3400.0,1302,65485.792336
3400.0,1245,65533.821374
3000.0,1139,65578.971273
5000.0,1706,65644.233807
3400.0,1209,65691.126835
3400.0,1274,65739.717026
4400.0,1621,65803.871734
3800.0,1338,65853.907005
3600.0,1304,65904.429103
4000.0,1385,65955.620621
4000.0,1404,66010.229663
3400.0,1197,66056.34574
4200.0,1506,66114.485807
4600.0,1572,66175.950774
4000.0,1385,66228.836964
2400.0,981,66267.418834
2600.0,997,66306.058635
3600.0,1405,66360.130595
4600.0,1591,66420.698217
4400.0,1597,66482.504294
3800.0,1401,66534.664254
4200.0,1499,66593.758953
5400.0,1887,66666.38262
3000.0,1120,66707.786856
3800.0,1344,66759.340816
3800.0,1392,66812.663627
3700.0,1340,66864.215451
3800.0,1342,66917.023396
5400.0,1894,66992.635432
3600.0,1344,67044.833583
3400.0,1278,67095.244693
3600.0,1294,67144.082872
3600.0,1275,67194.211582
2400.0,928,67230.852804
3800.0,1343,67282.978851
3400.0,1339,67334.861581
3600.0,1294,67385.314904
4000.0,1411,67440.127231
3200.0,1184,67485.325318
3800.0,1341,67534.959553
3400.0,1211,67581.852821
4800.0,1705,67649.656193
3400.0,1211,67695.80463
5400.0,1895,67768.308918
3400.0,1190,67814.740765
2400.0,982,67853.034631
3600.0,1294,67903.01734
3400.0,1273,67953.038204
2600.0,996,67991.099701
3200.0,1181,68036.14474
5600.0,1895,68108.42129
3000.0,1176,68154.222366
2600.0,987,68193.449596
2600.0,1002,68234.234642
4000.0,1380,68289.26302
3600.0,1300,68340.008454
4000.0,1406,68395.702337
3400.0,1298,68448.54071
3600.0,1307,68498.762432
3600.0,1331,68550.298777
4000.0,1401,68605.45259
3800.0,1320,68656.504766
3400.0,1315,68706.954161
3400.0,1246,68756.844717
3000.0,1140,68801.950264
3200.0,1191,68849.093573
3400.0,1268,68899.961295
3400.0,1194,68947.590977
4000.0,1385,69002.038975
3900.0,1345,69054.927878
5200.0,1888,69131.313884
5000.0,1707,69199.051965
3800.0,1376,69252.159188
4400.0,1587,69312.260705
3600.0,1342,69366.455328
3400.0,1406,69422.706499
2800.0,1268,69472.824307
4200.0,1515,69531.817378
3800.0,1318,69584.096097
3600.0,1274,69633.112068
4400.0,1595,69694.411809
3600.0,1297,69743.056687
3800.0,1338,69796.127043
4600.0,1594,69856.98298
3800.0,1342,69906.965472
4200.0,1511,69965.278929
3800.0,1338,70017.098816
3600.0,1298,70068.571644
4000.0,1405,70121.830641
3600.0,1300,70171.651225
3800.0,1322,70220.976057
4000.0,1472,70277.424759
4100.0,1425,70332.093486
4000.0,1405,70386.780291
5200.0,1885,70460.483996
3900.0,1320,70510.846645
3600.0,1277,70559.531072
3600.0,1278,70609.813049
3800.0,1316,70659.157138
3400.0,1244,70706.072181
3600.0,1299,70755.300275
3600.0,1257,70804.353708
3600.0,1315,70854.515362
2400.0,939,70889.56488
3800.0,1341,70940.429672
4400.0,1587,71002.240613
3800.0,1335,71052.056707
3800.0,1337,71104.707957
3800.0,1339,71158.092976
3800.0,1342,71209.047804
3800.0,1335,71259.064776
3800.0,1336,71309.68971
4600.0,1594,71371.053885
4600.0,1599,71432.897734
3800.0,1314,71484.461992
3200.0,1210,71529.456925
3800.0,1340,71582.363635
3900.0,1363,71635.076428
3600.0,1260,71684.558791
4200.0,1557,71745.007838
3200.0,1267,71793.78304
3800.0,1315,71844.586949
3000.0,1120,71888.444736
4800.0,1697,71953.959223
3000.0,1122,71996.442937
3400.0,1299,72047.372653
2200.0,866,72081.354596
3800.0,1322,72130.82195
3300.0,1205,72178.253887
2400.0,984,72218.765383
3000.0,1129,72261.520862
2600.0,1054,72301.591615
3600.0,1275,72350.772893
3600.0,1279,72400.349763
4100.0,1421,72454.904859
3800.0,1343,72507.46137
3600.0,1274,72556.536854
1200.0,606,72578.861581
3600.0,1301,72630.422743
3900.0,1341,72682.109696
3200.0,1259,72730.792846
3800.0,1317,72780.572813
3800.0,1339,72833.076943
3600.0,1278,72883.069052
3400.0,1215,72928.894171
4200.0,1427,72984.20736
3900.0,1342,73036.919318
3900.0,1318,73088.040811
3700.0,1300,73139.47693
3600.0,1251,73188.439315
4600.0,1578,73248.880183
5400.0,1891,73322.710653
3600.0,1272,73371.443699
4200.0,1502,73427.80291
2200.0,919,73463.276721
3700.0,1313,73512.420117
3800.0,1336,73563.880978
3600.0,1274,73611.175454
4600.0,1592,73672.431792
3900.0,1343,73722.801252
3400.0,1250,73771.680055
4800.0,1705,73838.412333
3800.0,1401,73891.924643
3800.0,1404,73947.166183
3800.0,1387,74001.355215
4000.0,1386,74053.82677
4800.0,1705,74120.102614
3700.0,1272,74168.998461
4000.0,1381,74221.696851
3600.0,1257,74270.251329
4000.0,1381,74323.795498
5100.0,1766,74393.600737
3600.0,1298,74443.311613
3800.0,1344,74494.919687
3400.0,1244,74543.019982
3800.0,1318,74594.951083
3600.0,1277,74645.3507
4900.0,1752,74711.58246
3800.0,1400,74764.808515
3200.0,1186,74811.005239
4100.0,1462,74868.018485
4600.0,1577,74928.65381
3200.0,1148,74972.719872
3600.0,1334,75024.149383
4000.0,1385,75080.221082
3900.0,1360,75133.646389
3400.0,1214,75183.452136
4000.0,1400,75237.854861
4100.0,1381,75293.743515
4400.0,1509,75353.848304
3900.0,1341,75407.595208
4200.0,1399,75463.740437
5400.0,1895,75536.803451
3400.0,1258,75585.950974
4000.0,1384,75639.554615
3800.0,1405,75696.580203
2800.0,1063,75740.736316
3200.0,1135,75785.540851
3600.0,1280,75838.149731
4000.0,1409,75895.797699
4000.0,1403,75952.476603
3700.0,1342,76008.802019
3300.0,1212,76055.628505
3600.0,1297,76107.413533
3800.0,1401,76162.677124
3200.0,1200,76211.327315
3700.0,1340,76266.811397
4100.0,1466,76327.662689
4200.0,1402,76387.182598
4600.0,1576,76451.739558
4200.0,1386,76508.102448
3200.0,1208,76556.595599
4000.0,1404,76612.504624
4300.0,1492,76674.291709
4300.0,1471,76732.541917
4700.0,1616,76798.400142
3800.0,1340,76852.852337
4000.0,1383,76910.21651
4400.0,1491,76971.081996
5100.0,1833,77042.985247
4400.0,1492,77102.70201
4200.0,1440,77161.038194
4400.0,1490,77219.863001
3600.0,1300,77273.071522
3800.0,1419,77330.877187
3700.0,1374,77385.296614
3900.0,1425,77445.382946
3200.0,1203,77493.860494
4400.0,1493,77555.22836
4200.0,1493,77615.222981
3300.0,1207,77666.301884
4000.0,1380,77723.927028
4200.0,1423,77783.56485
3200.0,1195,77831.648571
4400.0,1465,77890.53744
4000.0,1398,77948.154726
4300.0,1501,78008.954657
4200.0,1514,78069.242625
3900.0,1360,78123.793169
4100.0,1484,78185.258635
4200.0,1502,78248.082564
3200.0,1133,78295.177243
3900.0,1318,78351.207542
3900.0,1372,78407.716379
5100.0,1659,78475.109284
4400.0,1445,78532.709994
4300.0,1484,78592.848656
4200.0,1407,78649.334583
4200.0,1468,78709.16163
4700.0,1594,78773.081205
4400.0,1509,78833.224507
4400.0,1567,78898.686934
3000.0,1121,78943.939563
3500.0,1299,78996.765174
4400.0,1484,79055.317404
6000.0,2085,79141.827075
4400.0,1469,79202.402955
3800.0,1318,79256.27479
4400.0,1514,79319.288238
3300.0,1241,79369.695586
4900.0,1706,79438.133302
3900.0,1361,79497.475017
3200.0,1201,79545.961708
4400.0,1466,79605.97989
2600.0,1051,79647.630389
2600.0,993,79687.385207
4400.0,1595,79752.838516
3800.0,1315,79807.386922
4100.0,1405,79864.657185
4300.0,1467,79923.409742
4300.0,1465,79983.655154
3800.0,1337,80037.343498
4100.0,1404,80092.696157
4900.0,1614,80158.72699
4400.0,1530,80220.324635
4500.0,1528,80282.342841
4000.0,1402,80340.074871
5100.0,1680,80408.263912
4300.0,1448,80467.158086
4000.0,1403,80524.273372
4900.0,1631,80592.501191
4000.0,1427,80648.407941
4200.0,1431,80707.28261
4200.0,1445,80767.660042
4400.0,1512,80829.896783
4200.0,1427,80886.863322
4300.0,1487,80946.661046
5100.0,1663,81017.838121
3900.0,1320,81071.363884
3900.0,1337,81125.023118
2400.0,1055,81170.751821
4300.0,1469,81230.021553
4400.0,1532,81296.658613
4400.0,1465,81354.872546
4900.0,1590,81421.382158
4900.0,1637,81487.849959
4400.0,1511,81549.441384
4700.0,1679,81618.314796
4900.0,1623,81685.618119
4900.0,1652,81752.368437
4900.0,1677,81819.969092
4500.0,1586,81888.935651
3200.0,1204,81940.622863
4600.0,1533,82004.590533
5100.0,1679,82074.014398
4000.0,1453,82133.803807
3900.0,1363,82191.201281
4100.0,1468,82249.62308
4900.0,1678,82320.326523
4700.0,1612,82385.417026
4600.0,1549,82449.038836
5100.0,1662,82519.185652
4000.0,1384,82575.428831
3000.0,1126,82622.092946
4600.0,1532,82684.650408
5100.0,1684,82753.302888
4400.0,1486,82815.303209
3000.0,1141,82861.466544
4600.0,1530,82924.914965
4900.0,1685,82993.336712
5100.0,1682,83062.561518
4600.0,1528,83125.044146
4600.0,1554,83186.741653
4600.0,1595,83253.859526
3500.0,1274,83303.85943
5100.0,1706,83374.035587
4200.0,1452,83432.906174
4900.0,1653,83500.077697
5100.0,1700,83570.2905
4400.0,1486,83629.618546
4100.0,1438,83687.390609
4100.0,1462,83748.258756
4400.0,1489,83810.161288
4700.0,1671,83880.281492
4400.0,1506,83940.854709
4900.0,1683,84010.941104
4900.0,1639,84078.046026
4400.0,1489,84137.756546
4100.0,1489,84199.738893
4400.0,1510,84260.132105
4400.0,1511,84323.291759
4400.0,1471,84383.19349
4900.0,1655,84450.142122
3800.0,1402,84509.849094
4200.0,1458,84569.776603
4400.0,1520,84633.486398
4200.0,1445,84695.226058
4700.0,1625,84761.481925
4900.0,1631,84825.896989
4300.0,1471,84887.727573
3900.0,1333,84943.78918
4200.0,1490,85005.703151
4100.0,1425,85064.223727
3600.0,1273,85116.452276
4900.0,1678,85184.049341
5100.0,1663,85251.883083
4700.0,1659,85322.268127
4600.0,1510,85384.455387
4400.0,1494,85445.866556
4900.0,1677,85510.854683
5000.0,1657,85574.267736
4600.0,1571,85638.534928
4400.0,1470,85693.243821
4000.0,1416,85749.129683
4400.0,1514,85809.594092
4400.0,1493,85868.57636
5000.0,1659,85935.759817
4400.0,1489,85996.081147
5100.0,1685,86061.667911
4400.0,1513,86122.535546
4400.0,1488,86181.934855
4400.0,1489,86241.663603
4300.0,1489,86299.287172
4900.0,1623,86363.538311
4000.0,1386,86417.530721
4300.0,1488,86476.183976
4100.0,1491,86536.708804
4900.0,1673,86603.454081
4600.0,1601,86665.51135
4400.0,1514,86726.087125
4500.0,1627,86789.844418
3900.0,1341,86842.732961
4200.0,1480,86900.892915
5100.0,1678,86966.530293
5100.0,1701,87034.02792
4400.0,1490,87092.173127
5100.0,1705,87161.056288
4400.0,1468,87220.25948
5100.0,1683,87286.966406
4300.0,1471,87343.11413
4400.0,1514,87405.080024
4400.0,1508,87462.699122
5100.0,1657,87528.02901
5100.0,1703,87594.799437
4900.0,1663,87662.522257
4900.0,1656,87727.860574
4100.0,1462,87788.056422
5100.0,1656,87853.19118
4700.0,1654,87921.763193
5100.0,1682,87985.089624
3200.0,1202,88028.80232
4400.0,1507,88086.686396
4400.0,1490,88141.5448
3400.0,1193,88185.877218
5100.0,1700,88251.724757
4400.0,1514,88312.544235
4700.0,1555,88373.134805
5100.0,1657,88435.894989
5100.0,1703,88499.099479
4000.0,1405,88553.069173
5100.0,1703,88619.525066
4000.0,1413,88674.736774
4400.0,1511,88734.159507
4400.0,1515,88792.055558
5100.0,1681,88856.767919
4400.0,1467,88912.428151
5100.0,1679,88978.256372
4400.0,1511,89039.064512
4400.0,1508,89098.182398
4400.0,1508,89156.553949
5100.0,1662,89221.652594
5100.0,1678,89288.327976
4200.0,1429,89344.471613
6000.0,1936,89418.700717
4400.0,1510,89476.535305
5600.0,1875,89548.829234
5800.0,1931,89625.37489
4200.0,1446,89681.973679
4000.0,1404,89738.070606
4900.0,1684,89801.990944
5100.0,1659,89865.397352
4700.0,1574,89927.175569
4300.0,1485,89982.882629
3900.0,1337,90032.527619
3400.0,1211,90077.710863
3800.0,1423,90132.303514
4400.0,1507,90188.12932
3200.0,1214,90234.2782
3600.0,1299,90283.598196
4300.0,1493,90339.691795
4100.0,1386,90389.629242
4400.0,1491,90446.269173
5100.0,1703,90510.115047
4900.0,1678,90572.53108
4400.0,1468,90627.955022
4400.0,1513,90685.763687
4400.0,1494,90742.595104
5100.0,1635,90803.475441
4300.0,1491,90860.167801
5100.0,1679,90920.940972
5100.0,1678,90982.937557
4600.0,1551,91040.478195
5100.0,1663,91103.643626
5100.0,1704,91166.817705
5100.0,1699,91229.943247
5100.0,1707,91291.518781
5100.0,1704,91354.758387
4700.0,1672,91416.67606
5100.0,1705,91481.01957
5100.0,1706,91543.306064
4400.0,1489,91598.392646
4100.0,1485,91650.146459
4200.0,1482,91706.331876
4600.0,1549,91765.323339
3600.0,1287,91814.293693
5100.0,1703,91877.845576
5100.0,1706,91938.576528
4900.0,1635,91997.976587
4400.0,1530,92053.651153
4400.0,1511,92108.510428
3300.0,1226,92153.843262
5100.0,1659,92214.30005
4600.0,1510,92269.383173
5400.0,1869,92337.76419
4900.0,1654,92398.021973
4000.0,1392,92448.064783
4500.0,1570,92505.364027
4400.0,1512,92557.892972
4300.0,1442,92608.681834
4200.0,1478,92661.030833
4600.0,1597,92717.362828
4300.0,1444,92767.897724
4400.0,1513,92820.745254
5100.0,1699,92881.565515
5100.0,1682,92941.199724
4400.0,1511,92995.248262
3300.0,1223,93038.111028
4900.0,1636,93096.984411
3300.0,1227,93138.562871
4200.0,1486,93191.126795
5100.0,1707,93251.648727
5100.0,1680,93313.564108
5100.0,1706,93371.687879
3600.0,1296,93417.138857
5100.0,1700,93477.323809
4000.0,1421,93527.817469
5100.0,1658,93587.00066
4400.0,1524,93641.350763
4000.0,1416,93691.453096
4900.0,1630,93748.552139
5100.0,1680,93809.241944
4400.0,1487,93861.226553
4000.0,1412,93912.752854
5100.0,1706,93971.141942
4900.0,1677,94030.858807
5100.0,1659,94090.478903
5100.0,1684,94148.575984
4400.0,1510,94201.484969
5100.0,1685,94257.99771
3800.0,1417,94306.956992
5100.0,1679,94366.022502
4400.0,1511,94419.512765
5100.0,1682,94479.752872
5100.0,1706,94538.51901
5100.0,1682,94597.22397
4300.0,1493,94649.220292
5100.0,1704,94709.229398
3800.0,1354,94756.825718
4900.0,1700,94817.766581
4000.0,1414,94869.470921
4100.0,1428,94921.285038
4400.0,1514,94977.314418
4900.0,1658,95036.680383
5100.0,1682,95094.659941
5100.0,1705,95154.638553
4300.0,1489,95208.193993
5100.0,1680,95267.887422
5100.0,1662,95324.323415
4900.0,1701,95382.890388
5100.0,1705,95445.544415
4000.0,1422,95496.375544
5100.0,1703,95556.196382
4900.0,1657,95614.198624
3700.0,1319,95659.881126
5100.0,1706,95721.275231
4900.0,1621,95780.107493
5100.0,1706,95843.06156
4900.0,1636,95901.34689
4700.0,1700,95960.275544
4900.0,1650,96019.042732
4900.0,1704,96079.806641
5100.0,1702,96139.67227
4900.0,1657,96199.059215
4300.0,1483,96251.856771
5100.0,1705,96311.196004
