# {"t_start": 1552336183.3848226, "env_id": "KungFuMasterNoFrameskip-v0"} 
r,l,t
0.0,830,620.543441
300.0,740,1213.810488
1000.0,1225,2101.934353
600.0,1143,2983.220138
400.0,870,3679.364378
100.0,789,4284.442651
600.0,657,4780.493479
700.0,830,5461.505038
600.0,920,6153.559659
1100.0,1254,7141.12462
200.0,870,7744.265356
1000.0,919,8528.204391
1800.0,1158,9410.320278
800.0,737,9908.252811
200.0,947,10697.28583
900.0,1072,11494.433979
700.0,1019,12277.916157
500.0,942,12970.292105
1700.0,1286,13963.625736
3200.0,1527,15148.082685
400.0,860,15837.956748
1100.0,777,16424.518404
400.0,977,17211.642726
900.0,1234,18112.70304
900.0,992,18904.608921
600.0,969,19599.012126
1000.0,1081,20467.341481
1200.0,1186,21358.73914
800.0,1110,22242.632538
600.0,1115,23037.798662
800.0,1163,24016.931015
1500.0,1260,24905.082293
1900.0,1198,25885.559272
2200.0,1587,27077.534609
200.0,959,27864.974845
2500.0,1134,28659.915567
1100.0,1190,29651.725297
900.0,1172,30542.624711
400.0,756,31133.102682
1400.0,1180,32024.452237
3300.0,1640,33313.76892
1600.0,1185,34197.116757
800.0,938,34890.014337
1100.0,993,35670.797754
2100.0,1139,36566.075172
1400.0,1283,37558.396578
1500.0,1189,38444.088922
3000.0,1431,39528.078911
2600.0,1207,40513.386708
2500.0,1324,41507.597488
1200.0,1213,42390.989894
2000.0,1088,43274.259191
1600.0,989,44070.288768
2100.0,1214,44971.179988
1700.0,1185,45851.664423
1900.0,1026,46631.439479
4000.0,1409,47703.530369
1800.0,1040,48485.873757
2000.0,1408,49560.622724
2900.0,1521,50745.830068
2100.0,998,51534.777035
2100.0,1091,52328.683843
1300.0,1149,53222.851634
2200.0,1408,54292.97874
2600.0,1290,55293.600833
2300.0,1349,56382.982345
3200.0,1364,57476.414979
2000.0,1101,58274.537774
2700.0,1384,58761.448783
4500.0,1808,59250.164192
2300.0,1297,59604.921954
5500.0,1746,60100.933754
3800.0,1616,60526.044993
5500.0,1537,60935.021972
3400.0,1912,61444.978518
2900.0,1538,61843.700075
2700.0,1425,62215.991055
3800.0,1629,62650.710713
2700.0,1460,63030.447194
2900.0,1441,63428.463094
4800.0,2012,63934.944542
2800.0,1030,64203.130765
4100.0,1676,64636.128428
3600.0,1625,65063.511833
2900.0,1349,65425.132375
4300.0,1722,65854.145378
3700.0,1607,66278.304503
4900.0,1629,66679.674401
2700.0,1367,67036.706638
3400.0,1423,67403.175114
3200.0,1617,67840.421247
3100.0,1661,68268.878529
1800.0,1375,68603.033896
2300.0,1113,68897.877113
4300.0,1691,69340.377084
2500.0,1187,69639.066379
3400.0,1594,70073.963303
1500.0,988,70338.981817
2600.0,1433,70701.429833
4100.0,1591,71092.690172
3600.0,1572,71490.886856
3400.0,1434,71885.448605
3000.0,1424,72251.65412
600.0,855,72455.335277
3500.0,1410,72821.120855
2500.0,1337,73186.243959
5300.0,1954,73696.146245
5600.0,2000,74220.751994
3600.0,1516,74596.934938
3000.0,1497,74994.931798
2600.0,1298,75328.121006
3100.0,1528,75725.544937
4800.0,1887,76218.415665
2900.0,1439,76585.36535
4900.0,1648,77011.929433
4500.0,1915,77519.568563
3800.0,1612,77930.480134
2400.0,1355,78298.024537
3300.0,1701,78728.958524
3300.0,1788,79185.514729
3300.0,1574,79590.444575
5300.0,1801,80102.06197
2800.0,1579,80514.055508
700.0,974,80757.470778
3300.0,1425,81159.292524
1200.0,1140,81432.705645
3700.0,1470,81832.265771
3700.0,1584,82235.663173
3900.0,1698,82677.554667
6300.0,1954,83217.934083
4900.0,1808,83693.16882
2800.0,1397,84062.733639
2900.0,1249,84375.791125
4000.0,1517,84779.734263
2100.0,1291,85102.015074
5300.0,1653,85510.562691
5100.0,1931,85992.907296
3600.0,1275,86318.031265
3800.0,1495,86713.041693
3400.0,1675,87130.741143
4200.0,1629,87557.367812
4700.0,1929,88041.005124
3100.0,1596,88435.47909
1500.0,1239,88767.233289
3700.0,1687,89188.090749
4500.0,1467,89538.538343
3400.0,1553,89961.74634
3400.0,1498,90331.547126
3000.0,1692,90763.625386
5700.0,2001,91307.438402
3600.0,1624,91760.814354
2000.0,1251,92054.592345
3100.0,1540,92444.344589
4000.0,1661,92887.413873
3300.0,1784,93467.386099
4800.0,1646,94042.007862
6500.0,2341,94837.795243
2700.0,1587,95395.738393
2500.0,1484,95881.547459
2500.0,1266,96289.830967
4600.0,1870,96698.508405
2800.0,1477,96955.590697
3000.0,1630,97255.517694
5300.0,2339,97674.114109
3500.0,1685,97974.992437
4100.0,1906,98317.575171
4300.0,1706,98648.849312
5100.0,2029,99001.288397
3200.0,1515,99281.668782
2500.0,1338,99535.432063
2900.0,1668,99848.122109
4600.0,2004,100209.385952
3300.0,1490,100493.679956
3500.0,1736,100803.445186
4300.0,1928,101158.778259
4600.0,1753,101493.02353
2900.0,1546,101781.770483
4200.0,1925,102137.850079
5000.0,1769,102473.29302
4500.0,1688,102786.056696
2500.0,1289,103026.494162
5500.0,1969,103431.949135
5600.0,2164,103886.333299
2000.0,1474,104222.553458
3100.0,2015,104656.277316
2200.0,1630,104966.011042
6200.0,2029,105375.203187
3000.0,1816,105733.79808
3800.0,1816,106116.207772
4100.0,1596,106424.697015
4200.0,1973,106808.868326
3000.0,1753,107163.843178
4200.0,1811,107521.10206
1800.0,1154,107748.905335
9300.0,3606,108463.393544
4100.0,2046,108873.023018
2600.0,1301,109132.204508
3700.0,1583,109464.012031
3100.0,1399,109742.808878
3200.0,1803,110098.375276
6200.0,2791,110656.815468
4500.0,2504,111140.663215
4400.0,2145,111566.808981
5400.0,2325,112028.085438
5600.0,2069,112434.288723
5600.0,2018,112838.898468
3100.0,1715,113175.147435
6000.0,2389,113660.275827
6900.0,2225,114096.143463
4700.0,2000,114502.658625
3000.0,1481,114786.448408
2500.0,1478,115088.492765
5100.0,2164,115524.307931
7400.0,2085,115936.001113
3500.0,1567,116241.390282
1400.0,1118,116469.510826
3800.0,1698,116802.324976
2100.0,1250,117057.812057
4900.0,2170,117492.08674
6200.0,2192,117928.10025
6800.0,2575,118437.054019
3100.0,1853,118794.748579
4400.0,1831,119173.894675
4900.0,2144,119608.135957
3800.0,1576,119915.030447
4500.0,1801,120266.424346
7300.0,3119,120880.194041
4500.0,1787,121234.664457
4100.0,1890,121618.133765
4300.0,1820,121978.300889
3900.0,1969,122362.957614
3400.0,1712,122720.222498
3000.0,1463,123002.434796
3500.0,1877,123381.207291
5900.0,2137,123794.430438
5200.0,1779,124148.304064
4800.0,1860,124534.646515
4700.0,1772,124886.300121
2400.0,1510,125170.466195
5300.0,1567,125495.437288
5800.0,2624,126010.521804
6200.0,2236,126465.288043
3900.0,1824,126824.069613
5600.0,1884,127204.413075
6200.0,2734,127742.448456
3000.0,1347,128001.11984
4700.0,1969,128404.783313
8400.0,2724,128945.247808
8200.0,2771,129503.670654
5300.0,1697,129835.672574
6900.0,2524,130342.791395
10300.0,2732,130881.755563
4900.0,1582,131192.59613
3000.0,1733,131550.735923
6200.0,2030,131956.486352
2400.0,1484,132238.597584
2800.0,1733,132594.272031
9000.0,3217,133227.178163
8800.0,3547,133922.141238
3100.0,1673,134254.270213
9500.0,2950,134842.382086
1900.0,934,135040.826201
6400.0,2110,135455.144851
5700.0,1708,135807.104575
4400.0,1692,136139.278984
6600.0,2279,136595.665434
3700.0,2016,136982.632688
6700.0,2073,137392.858574
4700.0,1916,137772.38597
6000.0,1926,138154.817557
3800.0,1504,138458.647688
7800.0,2611,138970.042244
4200.0,2072,139399.418946
2900.0,1200,139631.440237
5500.0,1940,140013.029849
3700.0,1809,140366.350189
1700.0,1271,140610.193597
5500.0,1984,141007.024939
5200.0,2149,141403.694903
5900.0,1973,141792.290408
11000.0,3030,142365.795449
2000.0,1657,142688.181218
3400.0,1595,143005.148762
4000.0,2020,143398.886858
4100.0,2169,143798.571448
8400.0,2624,144310.362742
4100.0,1548,144609.387371
5100.0,1748,144958.145328
6900.0,2085,145357.858559
3100.0,1766,145706.41086
4300.0,1644,146028.121707
5600.0,1677,146351.906658
4100.0,1777,146676.953118
3700.0,1751,147025.615201
3200.0,1481,147321.582315
4700.0,1919,147678.141392
3600.0,1643,147964.915492
4500.0,2028,148343.753165
8000.0,2409,148795.44108
4800.0,1757,149301.464164
6000.0,2149,149971.321787
3900.0,1344,150362.233289
3400.0,1370,150801.358109
3700.0,1746,151304.58361
1200.0,1167,151659.130532
4700.0,1634,152175.877508
6400.0,2001,152792.088219
5200.0,1796,153328.948103
5100.0,1920,153909.701757
5200.0,1618,154372.687824
3300.0,1499,154834.330061
7400.0,2085,155444.467342
7500.0,2581,156217.776953
4900.0,1551,156717.225283
4900.0,1665,157220.781654
2600.0,1687,157722.034028
3900.0,1883,158273.331211
5300.0,1609,158775.620552
3600.0,1432,159204.331601
3100.0,1468,159669.543193
3000.0,1590,160139.429264
5700.0,2392,160881.181268
6500.0,2159,161512.277739
8300.0,2595,162326.556017
4700.0,1756,162843.854041
7600.0,2606,163657.883998
8000.0,3169,164602.17957
1700.0,1309,164988.480567
6000.0,2006,165513.23601
6700.0,2056,166079.858352
5600.0,1968,166633.050524
5200.0,1652,167087.440262
4900.0,1547,167510.991382
5900.0,1891,167988.909747
5200.0,1734,168460.722702
6100.0,2282,169066.100942
5400.0,2166,169637.799241
9400.0,2790,170352.954635
7800.0,2610,171060.555037
4200.0,1731,171517.101198
6300.0,2132,172106.67741
6700.0,2634,172803.402127
2600.0,1528,173207.426383
5200.0,1484,173615.860899
4000.0,1721,174065.571175
3800.0,1517,174452.995842
4200.0,1713,174896.813742
5500.0,2219,175440.001336
7000.0,3408,176273.32749
6600.0,2133,176820.765363
2400.0,1503,177206.843286
3500.0,1673,177628.364021
2600.0,1377,177982.324424
5000.0,2020,178469.787027
5600.0,2224,179047.585137
5000.0,1904,179510.228483
6000.0,1940,179971.575182
1600.0,1292,180284.276048
9000.0,2850,180973.01
5200.0,2324,181529.721794
7400.0,1919,181988.762997
5300.0,1701,182394.617631
3500.0,1698,182823.264776
4800.0,1583,183193.092217
6400.0,2084,183715.944155
1800.0,1125,184024.076753
4200.0,1879,184553.720559
5000.0,1892,185049.227224
6300.0,1779,185545.984623
3100.0,1612,185991.87055
5100.0,1943,186521.215182
6000.0,1945,187046.590841
3700.0,1529,187462.326677
2100.0,1337,187812.740437
1600.0,1302,188188.628245
800.0,793,188396.823272
2300.0,1337,188745.289316
2400.0,1361,189128.298871
5400.0,2270,189763.882359
4500.0,1871,190261.750047
3300.0,1232,190606.02552
4600.0,1920,191129.553682
5300.0,2008,191651.517209
3000.0,1167,191963.820182
6000.0,2291,192593.483701
4400.0,1742,193087.87794
5800.0,1810,193580.5666
3200.0,1429,193973.926578
1800.0,1039,194259.353781
5500.0,2046,194820.849972
2200.0,1154,195140.186855
6900.0,2011,195695.515936
4900.0,2002,196241.730344
3200.0,1379,196592.07469
1800.0,870,196831.458238
4800.0,1918,197356.682529
4800.0,2203,197947.612166
5400.0,2052,198509.926835
8000.0,2256,199128.437668
2800.0,1248,199475.564446
5200.0,1965,200002.427104
4100.0,1884,200531.374829
5300.0,1893,201023.601665
3300.0,1337,201406.015691
2800.0,1397,201785.658113
4100.0,1547,202201.557446
5900.0,1866,202694.8078
1200.0,1057,203007.168801
2800.0,1375,203361.12494
4500.0,1695,203822.176788
3800.0,1390,204203.603591
2800.0,1332,204588.186516
3900.0,1699,205047.812989
5900.0,2330,205691.998254
3300.0,1373,206078.184512
2000.0,1237,206400.861153
3300.0,1650,206851.829152
5000.0,1234,207207.406714
4100.0,1675,207673.76275
6300.0,2236,208274.915726
3100.0,1498,208701.984888
3200.0,1203,209025.946747
2900.0,1376,209405.562209
4900.0,1731,209898.158551
4400.0,1828,210389.850353
4800.0,1799,210879.144401
3900.0,1550,211307.69349
2400.0,979,211582.388161
2900.0,1805,212080.896357
4200.0,1874,212564.687863
2200.0,1330,212942.306582
1700.0,993,213219.685393
500.0,924,213469.831277
2000.0,1257,213835.571399
1200.0,1251,214164.38484
3600.0,1470,214582.619135
3400.0,1453,214973.769381
2300.0,1342,215357.119528
1600.0,866,215571.939785
2500.0,1295,215924.207611
1200.0,915,216179.127231
1400.0,912,216462.838276
2400.0,1221,216792.787888
4600.0,2121,217401.12771
2600.0,1112,217702.792713
3000.0,1366,218098.276027
2800.0,1263,218457.995453
3600.0,1632,218908.697898
2400.0,1310,219252.646249
5700.0,1813,219736.844372
5900.0,2294,220374.945589
3100.0,1207,220693.281613
6100.0,1692,221140.123991
1000.0,742,221341.762747
2800.0,1395,221711.041255
2400.0,1362,222083.044799
3400.0,1147,222387.38858
3000.0,1863,222861.437518
3200.0,1754,223328.762963
4600.0,1966,223839.310451
2800.0,1659,224278.716344
2800.0,1595,224686.743105
3400.0,1288,225049.064561
3300.0,1696,225491.304632
1800.0,844,225702.734861
2700.0,1161,226005.169657
4400.0,1643,226446.734814
1800.0,790,226651.354297
2200.0,1182,226979.85991
4100.0,1664,227416.248775
2400.0,1175,227718.598739
1600.0,1048,227989.502376
2100.0,1184,228293.927213
3400.0,2155,228865.587039
5400.0,2097,229398.536706
2200.0,1171,229703.795441
2000.0,1015,229974.369866
2000.0,1163,230278.156028
3200.0,1138,230585.7951
2700.0,1140,230891.444716
2000.0,1051,231161.711594
2800.0,1603,231595.937557
2400.0,1152,231900.165221
3800.0,2620,232582.591239
1200.0,910,232816.020537
2900.0,1315,233181.957621
4600.0,1701,233611.42319
2800.0,1725,234056.416662
3600.0,1504,234457.00575
2800.0,1489,234857.020978
3500.0,1408,235222.913326
1600.0,1266,235521.530967
3100.0,1446,235925.919115
2000.0,1120,236197.056609
900.0,1243,236532.355851
600.0,989,236799.663628
2000.0,1137,237101.39426
3100.0,1392,237468.892504
1600.0,1274,237713.14935
1400.0,893,237868.547198
800.0,1048,238045.662167
2500.0,1393,238244.674546
2000.0,1150,238422.102847
3900.0,1409,238636.31079
3400.0,1570,238889.110655
2400.0,1355,239085.383471
2600.0,1084,239259.188427
3400.0,1919,239552.184233
3100.0,1642,239791.081829
2200.0,1184,239982.134281
2000.0,1125,240141.287196
1200.0,1344,240345.059141
600.0,885,240477.204289
2400.0,1675,240720.652968
1200.0,1182,240888.206804
2000.0,1751,241151.194793
2800.0,1052,241300.714351
3400.0,1648,241543.508914
900.0,851,241658.952801
1600.0,1435,241881.380424
1400.0,1045,242031.463292
2300.0,1371,242220.157072
800.0,822,242350.017528
800.0,1079,242503.470399
1200.0,1106,242669.703568
3000.0,1504,242896.925412
3000.0,1484,243105.854144
1400.0,1088,243272.109514
1800.0,1068,243424.122649
1000.0,1516,243653.11589
1900.0,1413,243908.155396
2000.0,1443,244166.094431
200.0,801,244307.42326
1600.0,1097,244513.050848
800.0,959,244678.619848
600.0,964,244864.199113
800.0,836,245007.354914
400.0,988,245190.502146
2500.0,1656,245492.701017
800.0,940,245657.38111
1200.0,1022,245841.959821
1000.0,1361,246096.983489
700.0,929,246259.551523
1500.0,1092,246448.325004
1000.0,1099,246653.936169
800.0,835,246816.647995
800.0,1005,246985.764041
1000.0,861,247153.98335
2000.0,1124,247363.095534
2600.0,1324,247596.704655
800.0,1006,247783.800719
2800.0,1531,248063.676748
600.0,746,248203.275834
800.0,778,248343.102369
2200.0,1180,248552.448028
800.0,981,248739.954224
400.0,849,248882.617741
1200.0,1246,249114.279306
1200.0,1086,249304.289767
1000.0,1171,249535.77472
1000.0,987,249702.566514
2600.0,1378,249910.472484
1200.0,1213,250078.236786
1600.0,1085,250246.508856
600.0,836,250361.241043
600.0,807,250490.939264
600.0,1047,250640.678583
800.0,1113,250794.455379
1000.0,1365,251008.54372
400.0,1025,251165.252549
800.0,1047,251317.100022
600.0,1002,251473.341033
800.0,799,251591.509427
400.0,842,251738.061675
0.0,737,251876.985767
200.0,882,252021.763293
600.0,1136,252230.170033
600.0,874,252394.990199
1200.0,1029,252583.087493
200.0,766,252723.056986
400.0,1020,252907.886337
1800.0,1060,253097.996598
1200.0,938,253281.753066
1000.0,898,253444.728906
600.0,730,253562.228331
600.0,788,253703.834347
1000.0,1036,253891.532812
200.0,932,254076.258703
200.0,851,254221.988784
600.0,942,254413.107306
200.0,839,254559.386448
2000.0,1040,254752.894583
400.0,883,254921.691459
200.0,905,255091.217374
400.0,743,255232.117988
600.0,844,255399.894292
400.0,735,255523.307022
200.0,693,255664.012745
800.0,873,255831.126463
800.0,952,256002.180791
800.0,785,256122.179563
1000.0,921,256254.915819
600.0,841,256384.398454
600.0,996,256532.325557
800.0,755,256629.497652
1200.0,986,256777.537575
600.0,735,256913.000149
400.0,1192,257084.147329
800.0,1145,257253.686217
0.0,850,257392.075484
600.0,761,257510.14472
300.0,970,257649.8457
1600.0,868,257786.109643
100.0,875,257922.901274
600.0,970,258063.979089
400.0,798,258183.120506
400.0,805,258315.152574
300.0,792,258428.447945
800.0,934,258561.660389
1000.0,1224,258755.209919
400.0,889,258875.357726
200.0,738,258960.412761
400.0,1032,259089.655131
200.0,724,259183.048314
600.0,753,259276.996888
1200.0,1159,259415.918167
1400.0,958,259525.691586
400.0,878,259635.553007
1000.0,885,259745.460063
1200.0,1499,259930.911428
0.0,1155,260035.397717
1600.0,1063,260132.505776
1400.0,778,260200.537097
200.0,638,260257.280916
800.0,919,260347.772251
600.0,790,260429.239462
0.0,936,260537.186284
800.0,940,260637.130342
200.0,766,260721.139812
1400.0,1109,260842.630676
600.0,1125,260952.712136
800.0,906,261046.882801
200.0,652,261114.843661
600.0,1041,261233.146929
200.0,930,261328.551707
600.0,923,261423.015285
800.0,815,261504.987791
200.0,785,261585.463455
400.0,885,261679.638803
600.0,1209,261812.756614
1200.0,856,261895.066675
400.0,783,261986.667034
1400.0,763,262056.945779
1000.0,1273,262191.076848
0.0,936,262296.465109
400.0,740,262366.105319
400.0,1073,262485.289838
800.0,1090,262595.06367
800.0,956,262701.28166
0.0,693,262769.748405
200.0,687,262838.079695
200.0,929,262943.779744
200.0,793,263025.440848
400.0,826,263107.471969
0.0,787,263189.443531
600.0,927,263294.321795
0.0,565,263349.404692
400.0,839,263441.774477
600.0,1009,263538.506182
600.0,848,263631.282876
2400.0,1292,263765.578422
1200.0,982,263873.35345
600.0,717,263942.23119
800.0,866,264036.061984
800.0,876,264129.885263
200.0,878,264223.780909
800.0,846,264306.188993
400.0,1013,264414.444281
400.0,954,264520.997058
400.0,901,264616.854692
200.0,957,264712.19405
800.0,1021,264820.039166
400.0,719,264900.134931
200.0,803,264982.818814
600.0,984,265089.560764
600.0,1080,265199.890386
200.0,585,265265.894605
400.0,748,265336.113691
400.0,731,265416.390028
400.0,741,265497.800921
600.0,1010,265605.393116
400.0,938,265700.942283
0.0,902,265795.421228
600.0,1186,265918.619875
800.0,943,266024.478964
400.0,753,266095.332993
200.0,776,266177.399195
1000.0,1010,266287.708734
0.0,902,266382.478833
0.0,738,266463.877983
1200.0,1171,266585.682174
800.0,955,266691.971449
200.0,994,266781.006671
1200.0,1192,266894.658043
200.0,926,266975.024241
600.0,1514,267110.415456
600.0,895,267189.599833
400.0,861,267259.672394
400.0,892,267339.19379
600.0,988,267430.134782
800.0,1107,267532.393699
1400.0,1034,267623.345086
1000.0,1114,267717.535408
800.0,668,267783.999286
600.0,834,267853.863191
200.0,703,267921.187557
800.0,1233,268024.555417
600.0,783,268093.088592
0.0,929,268173.443156
600.0,1067,268273.969106
800.0,978,268353.921109
200.0,917,268442.47534
600.0,713,268500.919428
200.0,982,268590.966548
400.0,776,268658.044611
200.0,802,268726.473927
400.0,756,268794.340592
600.0,925,268873.800706
200.0,826,268951.685244
1200.0,1065,269042.97276
1200.0,1100,269135.576684
400.0,765,269204.016008
400.0,704,269271.449532
0.0,778,269340.003173
800.0,935,269420.52624
400.0,884,269500.001485
800.0,934,269580.53161
1000.0,976,269670.800352
0.0,731,269738.668929
600.0,1214,269842.467364
200.0,880,269921.502741
0.0,702,269979.789754
800.0,988,270070.399692
200.0,953,270159.080741
0.0,786,270226.144604
400.0,884,270304.467549
600.0,767,270362.998752
200.0,734,270429.886581
0.0,965,270518.498466
400.0,930,270597.808549
600.0,1032,270687.633874
200.0,1068,270776.86751
600.0,981,270864.251682
200.0,959,270943.485765
0.0,816,271020.760232
800.0,917,271099.831694
600.0,1224,271201.431055
400.0,837,271278.633235
200.0,829,271346.771476
800.0,1072,271445.257616
400.0,940,271523.116306
800.0,820,271590.56151
0.0,726,271656.627503
200.0,792,271723.461472
600.0,1099,271823.025118
200.0,686,271879.380021
600.0,1113,271980.057848
0.0,560,272026.219198
400.0,785,272094.439462
0.0,1047,272185.756635
200.0,667,272251.707873
0.0,538,272296.984069
200.0,838,272365.594363
200.0,785,272432.649838
400.0,699,272498.377
400.0,815,272566.378097
200.0,982,272655.300043
800.0,983,272744.61066
400.0,833,272813.151018
200.0,537,272858.79211
0.0,657,272915.782616
1000.0,1029,273005.513708
0.0,842,273083.387014
200.0,808,273151.929994
200.0,819,273229.121827
0.0,874,273299.376989
400.0,852,273377.006727
200.0,920,273456.431654
0.0,704,273522.883858
600.0,935,273602.445408
200.0,893,273681.155597
200.0,978,273761.389563
0.0,1070,273860.384492
400.0,1158,273964.628203
600.0,884,274045.068543
600.0,1195,274145.716091
200.0,773,274213.052372
600.0,737,274280.257798
600.0,836,274348.877375
0.0,787,274417.291849
0.0,698,274483.695564
400.0,881,274561.828303
200.0,984,274641.579149
200.0,834,274719.261395
400.0,733,274785.592668
200.0,843,274854.913613
400.0,668,274911.303768
200.0,538,274965.52426
800.0,1982,275135.943613
800.0,870,275215.007129
0.0,738,275273.164726
0.0,785,275350.936175
600.0,823,275419.455888
600.0,918,275499.273165
1000.0,794,275567.105018
0.0,843,275645.128654
1000.0,1241,275755.96753
0.0,653,275812.673128
0.0,826,275880.292662
400.0,869,275958.25355
800.0,1067,276048.927681
400.0,675,276106.549412
400.0,790,276183.983161
400.0,1159,276286.02124
400.0,893,276364.422913
400.0,848,276433.685952
200.0,579,276488.896627
0.0,686,276545.333493
800.0,908,276624.275543
200.0,685,276681.089044
400.0,692,276747.418709
600.0,1004,276837.283119
200.0,628,276884.372225
0.0,674,276951.265003
200.0,864,277020.78656
0.0,868,277099.81555
0.0,731,277166.602816
0.0,624,277222.673178
200.0,861,277294.557213
200.0,765,277363.874571
0.0,789,277442.432023
600.0,796,277512.113936
0.0,720,277570.664813
0.0,790,277640.093011
600.0,1001,277732.479339
200.0,938,277822.462407
600.0,778,277891.281921
0.0,571,277938.347666
0.0,769,278006.603941
200.0,592,278062.97743
0.0,569,278110.357842
400.0,701,278177.345491
0.0,707,278236.418257
200.0,837,278315.597119
1400.0,865,278386.733248
200.0,619,278444.096598
400.0,673,278502.590325
200.0,810,278581.625185
600.0,849,278652.241747
400.0,948,278743.054467
0.0,626,278791.624923
200.0,881,278872.297138
400.0,1021,278962.399584
600.0,873,279041.347869
1200.0,863,279118.881157
400.0,852,279187.645725
200.0,837,279265.674194
0.0,808,279333.908814
600.0,842,279412.545335
200.0,674,279469.946256
200.0,773,279538.609655
0.0,576,279594.226627
0.0,834,279663.686617
200.0,681,279720.907361
1000.0,958,279810.323466
200.0,721,279867.935597
400.0,753,279935.01056
400.0,975,280023.334137
400.0,980,280104.4019
800.0,1088,280205.149227
800.0,1046,280296.393975
200.0,966,280385.273826
0.0,770,280453.46089
200.0,736,280511.80585
0.0,858,280590.156768
0.0,793,280658.703687
200.0,871,280737.973101
0.0,685,280795.593926
0.0,685,280862.263512
200.0,768,280930.865022
800.0,942,281011.357756
200.0,713,281068.648837
0.0,690,281135.146086
200.0,890,281214.033379
200.0,724,281271.570879
200.0,913,281359.392204
400.0,845,281428.235687
400.0,762,281496.079541
200.0,872,281575.865489
800.0,882,281655.904806
200.0,1152,281758.999251
0.0,909,281839.582468
600.0,1059,281930.984348
600.0,730,281999.296575
400.0,861,282070.712772
800.0,771,282139.226199
200.0,932,282229.407902
200.0,739,282287.89177
400.0,1009,282378.18483
400.0,803,282455.727515
200.0,716,282514.251269
0.0,819,282583.419669
0.0,644,282640.691887
1000.0,1069,282742.551584
200.0,791,282810.850286
600.0,798,282879.155652
0.0,943,282959.356211
400.0,856,283038.50425
0.0,644,283094.746243
200.0,916,283174.805953
200.0,770,283243.283701
0.0,899,283321.906754
400.0,828,283399.709464
200.0,743,283466.644982
0.0,649,283523.752426
200.0,952,283608.445699
200.0,920,283687.479131
0.0,795,283757.780918
0.0,720,283824.63386
0.0,686,283886.976174
0.0,736,283956.002415
0.0,613,284012.315578
200.0,708,284070.303355
0.0,678,284136.531382
400.0,856,284205.873894
0.0,821,284283.131375
0.0,729,284340.527834
0.0,693,284406.734278
200.0,993,284487.804882
200.0,825,284565.116227
200.0,665,284621.199046
0.0,863,284700.375596
0.0,529,284747.144189
0.0,691,284804.329004
400.0,1135,284906.232098
200.0,887,284985.461125
400.0,877,285065.30584
200.0,771,285133.993729
200.0,1003,285224.240822
0.0,698,285283.243991
0.0,695,285340.381611
600.0,908,285419.588078
0.0,851,285498.831325
400.0,754,285567.094575
0.0,499,285612.643485
200.0,858,285691.099278
200.0,748,285750.190663
400.0,745,285818.890179
200.0,762,285885.800674
0.0,791,285970.943524
0.0,834,286089.083935
600.0,753,286192.272341
0.0,903,286298.959772
0.0,845,286367.931231
200.0,890,286448.675809
0.0,568,286505.459903
400.0,926,286586.896502
200.0,714,286645.581897
200.0,702,286714.088187
0.0,855,286785.21287
200.0,987,286877.702529
0.0,782,286947.039361
0.0,780,287016.779697
200.0,737,287085.466245
0.0,689,287144.115872
0.0,774,287211.950639
0.0,623,287267.898241
400.0,810,287345.060244
600.0,758,287402.745728
0.0,788,287479.144044
400.0,746,287536.965475
200.0,838,287613.437117
200.0,830,287680.571167
200.0,712,287746.359592
0.0,641,287802.281509
400.0,717,287859.234282
