# {"t_start": 1552336191.194255, "env_id": "KungFuMasterNoFrameskip-v0"} 
r,l,t
400.0,848,620.776975
100.0,898,1315.771211
400.0,759,1901.12655
800.0,1139,2784.885336
300.0,870,3470.908702
1300.0,1032,4279.997085
500.0,850,4883.120816
500.0,929,5657.789365
900.0,984,6353.252638
900.0,916,7052.606334
700.0,1188,8031.411675
700.0,1022,8816.831918
1400.0,1109,9613.823998
400.0,983,10402.378017
1000.0,998,11191.530793
1400.0,1223,12083.261436
1600.0,1102,12964.990072
1300.0,1382,14053.38273
1700.0,1321,15045.832647
1900.0,1309,16033.813249
300.0,677,16527.046344
300.0,998,17309.390204
200.0,898,18008.381793
1000.0,940,18707.53786
1400.0,1160,19598.004033
1900.0,1440,20762.819411
800.0,984,21456.804134
1700.0,1166,22339.874362
800.0,893,23035.896324
1900.0,1332,24118.323137
1500.0,1312,25096.985784
1000.0,1119,25983.018902
500.0,1112,26783.356357
1700.0,1136,27670.969414
2300.0,1528,28854.715213
900.0,991,29652.624743
800.0,851,30244.629102
1000.0,1043,31131.686856
1000.0,1060,31928.462281
1900.0,1215,32819.672578
1800.0,1031,33608.960473
1200.0,1134,34495.046107
2500.0,1485,35668.491288
1000.0,957,36362.1566
1100.0,1143,37260.068648
1300.0,1117,38147.337264
1400.0,1051,38939.365764
400.0,831,39529.892076
3100.0,1583,40808.427855
2900.0,1425,41902.987418
1600.0,1040,42681.417952
2500.0,1688,43977.275848
1400.0,1065,44772.615721
1200.0,932,45553.012887
1800.0,1515,46724.477851
3200.0,1625,47898.457373
1100.0,1364,48973.941226
2000.0,1180,49856.552421
1500.0,1186,50745.919622
1100.0,1085,51629.875449
1700.0,1306,52613.757835
2700.0,1694,53904.179102
1100.0,1197,54790.216939
1500.0,920,55580.1176
3100.0,1374,56588.826521
2200.0,1592,57868.737681
1900.0,1294,58581.288137
1500.0,1153,58899.331066
2500.0,1031,59178.060562
1900.0,1082,59464.457295
2000.0,1246,59816.331766
2200.0,1356,60204.183247
4100.0,1607,60626.974757
900.0,1202,60934.753813
3900.0,1570,61373.893509
2800.0,1402,61740.523983
3100.0,1380,62078.665849
4200.0,1713,62546.475708
900.0,1077,62821.326567
1700.0,1062,63097.793801
5800.0,1983,63632.402753
4100.0,1611,64035.715005
2000.0,1316,64399.593696
3400.0,1495,64767.026438
3000.0,1690,65227.096094
1200.0,924,65458.195326
4200.0,1737,65887.369428
4700.0,1895,66378.81615
3100.0,1379,66742.318821
3700.0,1570,67134.684398
5500.0,1732,67603.394593
2800.0,1186,67905.782291
3100.0,1527,68302.008594
3600.0,1355,68634.89694
2200.0,1313,68967.002704
5600.0,1644,69406.826564
2600.0,1385,69767.413521
1800.0,997,70039.461632
4500.0,1922,70537.154672
2400.0,1647,70957.875271
3600.0,1718,71387.747894
2300.0,1547,71789.80102
2500.0,1575,72190.10876
2500.0,1228,72520.053838
3800.0,1720,72954.369301
1300.0,1210,73287.664338
2900.0,1577,73696.146734
2400.0,1232,74023.6545
2400.0,1130,74320.172124
2100.0,1303,74660.544859
3700.0,1745,75096.171916
1900.0,1287,75427.604924
2200.0,1439,75819.975243
4600.0,1869,76285.913279
5700.0,1936,76782.541877
4400.0,1730,77246.347115
4800.0,1992,77758.700571
3000.0,1361,78128.311253
1900.0,1220,78433.493913
4800.0,1661,78862.308692
3400.0,1572,79283.194704
4200.0,1578,79689.734989
3800.0,1765,80171.225433
6700.0,2209,80754.873276
7600.0,2331,81363.76968
4200.0,1857,81863.72278
3900.0,1590,82268.39346
4300.0,2001,82808.012215
1900.0,1792,83283.503966
5200.0,1742,83727.833604
4800.0,1664,84167.437155
3300.0,1409,84543.689277
1900.0,1385,84907.431604
5500.0,2065,85416.378978
2600.0,1517,85799.314159
3000.0,1524,86182.890028
3700.0,1627,86580.968966
4200.0,1511,86973.869826
4200.0,1398,87328.578052
5600.0,1942,87813.884047
3200.0,1727,88268.645954
2800.0,1856,88734.025051
6300.0,1855,89219.432039
4800.0,1752,89633.038169
3400.0,1801,90097.755218
2300.0,1321,90462.228167
5100.0,1633,90865.720731
3100.0,1480,91270.919978
1400.0,1374,91658.37649
2700.0,1292,91988.866193
5200.0,1690,92408.598752
7400.0,2432,93067.964166
5400.0,2094,93780.440369
4000.0,1530,94303.423153
4100.0,1721,94919.112836
2900.0,1444,95395.557126
3000.0,1757,96012.043178
2800.0,1695,96476.407839
5100.0,1923,96837.681858
4000.0,1789,97161.779881
2800.0,1534,97440.473707
4100.0,1919,97788.777658
3000.0,1533,98061.75499
3500.0,1695,98363.750772
3200.0,1521,98648.59179
2300.0,1816,98973.943691
5400.0,2058,99348.961393
2300.0,1433,99608.634809
3800.0,1673,99920.4203
5800.0,2302,100349.469406
7400.0,2570,100824.366215
4800.0,1910,101179.749831
4000.0,1928,101540.376109
2900.0,1637,101849.516451
3400.0,2041,102233.299546
2300.0,1374,102474.431844
5600.0,1942,102856.502646
2800.0,1490,103121.769818
3600.0,1754,103487.484526
5400.0,1681,103853.443576
3600.0,1935,104281.397344
4600.0,2056,104709.064691
5600.0,1837,105069.696931
2300.0,1211,105321.795659
4800.0,1863,105683.825684
4000.0,1913,106066.99176
2900.0,1538,106371.842114
3000.0,1527,106678.689598
2500.0,1629,107009.951945
4300.0,1794,107364.413656
4100.0,2142,107796.591675
4900.0,2294,108256.972036
6300.0,2589,108766.660692
7500.0,2345,109232.007998
3500.0,1678,109565.079314
4000.0,1871,109946.15401
2600.0,1466,110229.080127
4600.0,2075,110634.169889
4200.0,2283,111090.996521
2500.0,1495,111390.252985
4600.0,2186,111820.426911
3500.0,1632,112152.323503
4900.0,1826,112506.715601
5400.0,2025,112916.726786
2800.0,1505,113201.48225
3200.0,1780,113560.890686
4900.0,1909,113942.553531
3500.0,1786,114302.971332
5500.0,1876,114679.792631
6600.0,2651,115196.037322
5400.0,2396,115680.190604
6800.0,2474,116164.598615
2300.0,1266,116420.196522
4700.0,1550,116728.153369
7900.0,3680,117467.43779
6500.0,1978,117872.427253
3300.0,1813,118231.023413
4900.0,2077,118638.979767
4300.0,1849,118995.868341
4100.0,1905,119379.430865
3900.0,1635,119710.139708
5600.0,1755,120063.614948
3300.0,1757,120397.30916
3700.0,1829,120774.488396
4800.0,1751,121108.030578
3700.0,1658,121438.026137
7000.0,2324,121899.810829
2900.0,1544,122206.467032
7500.0,2543,122721.394287
4300.0,1484,123024.854424
4700.0,2143,123434.537469
3200.0,1539,123742.268161
5400.0,2139,124172.93549
4800.0,1738,124533.107928
2900.0,1481,124813.975557
6200.0,2335,125270.640323
3900.0,1559,125597.932892
3400.0,1357,125858.036273
5400.0,1818,126213.488946
7500.0,2595,126742.968633
2400.0,1486,127029.237103
5200.0,1919,127410.532804
3200.0,1405,127692.552999
3600.0,1431,127973.852271
7900.0,3324,128641.526531
5000.0,2103,129071.19765
5000.0,1447,129350.258839
2900.0,1406,129632.266497
4900.0,2020,130040.378546
6400.0,2226,130472.242476
4500.0,1868,130852.56749
4600.0,1366,131115.77204
2100.0,1124,131342.998432
3800.0,1846,131704.69908
5700.0,2071,132135.812184
5100.0,1901,132494.405256
2900.0,1453,132794.401265
7300.0,2012,133179.921078
5700.0,1921,133563.014995
6200.0,2339,134045.6076
2100.0,1543,134349.921668
1800.0,1300,134606.699179
4600.0,1714,134939.369023
5300.0,1975,135348.255132
6600.0,2290,135786.577331
2600.0,1252,136038.583874
6700.0,1995,136446.523649
5100.0,2529,136930.689056
5200.0,2068,137361.960305
6800.0,2292,137820.94345
4000.0,1582,138126.980566
5400.0,1887,138504.337446
4600.0,1865,138864.662452
3600.0,1694,139199.80491
4800.0,2379,139679.846209
3900.0,2017,140086.412367
6300.0,2452,140557.855312
3800.0,1513,140856.622605
8200.0,2841,141399.621678
4800.0,1884,141746.422094
4800.0,2144,142165.610593
6500.0,2556,142662.93214
6000.0,2019,143054.263907
4000.0,2149,143473.211131
8600.0,2433,143940.903132
3200.0,1444,144212.942562
4700.0,1961,144583.712984
4300.0,2021,144982.831235
4800.0,1884,145355.529779
3800.0,1658,145679.681061
6800.0,2751,146201.255733
3400.0,1747,146548.400033
2500.0,1816,146898.050456
5800.0,1630,147202.448995
4500.0,1751,147536.929735
3400.0,1738,147866.201788
6200.0,2535,148319.278048
7900.0,2721,148844.596256
7300.0,2653,149620.612224
5100.0,1756,150168.744853
4400.0,2037,150802.404653
5700.0,1451,151227.818281
6900.0,2083,151891.299524
4900.0,2145,152525.699468
4900.0,1664,153029.465851
4100.0,1918,153602.035898
8100.0,2736,154442.536833
4600.0,1591,154905.749179
3800.0,1907,155480.626326
6800.0,2249,156139.400646
5700.0,2059,156761.305552
5200.0,1680,157298.005088
7300.0,1740,157799.456292
3400.0,1713,158345.311643
2500.0,1419,158773.138522
6300.0,1741,159277.947165
4400.0,1634,159780.000186
3000.0,1393,160217.92116
2700.0,1365,160612.445996
3600.0,1418,161039.355381
4400.0,1626,161551.252722
3700.0,1426,161983.27317
9000.0,2790,162841.335374
3300.0,1907,163422.714161
7700.0,2222,164090.664433
6400.0,2060,164707.198151
5900.0,2382,165372.433691
1700.0,1299,165718.16468
4100.0,1933,166255.20504
4100.0,1776,166740.294581
5400.0,1730,167201.266703
6300.0,2298,167823.129256
3600.0,1698,168289.207773
4700.0,1896,168761.721556
3700.0,1553,169199.870527
6500.0,1930,169706.176966
5800.0,2203,170279.380181
8700.0,2809,171026.585968
2800.0,1372,171380.528055
4400.0,1849,171896.373038
3500.0,1525,172313.981875
4200.0,1544,172732.855712
4300.0,1913,173238.114909
5100.0,1907,173751.523311
4500.0,1585,174159.267904
5400.0,1905,174642.093383
6000.0,1707,175056.052493
8900.0,2811,175758.810133
3200.0,1671,176174.342019
6100.0,2335,176756.815571
1600.0,1381,177109.13441
3400.0,1883,177594.969094
4700.0,1935,178077.727857
4200.0,1429,178433.132343
2100.0,1208,178729.801407
2200.0,1517,179110.637193
5400.0,1876,179570.418747
3000.0,1388,179909.917719
6800.0,2514,180502.446036
6500.0,1698,180911.482082
2700.0,1637,181312.194415
3100.0,1567,181685.76287
5900.0,2516,182296.13828
7100.0,2192,182825.095052
2800.0,1375,183162.481422
4900.0,1990,183646.621025
5000.0,1885,184163.323684
4600.0,1564,184592.354639
3600.0,1396,184979.07874
5000.0,1455,185395.847825
4000.0,2123,185957.4412
3000.0,1421,186351.173895
6300.0,1860,186863.227586
4400.0,1715,187328.024306
2800.0,1477,187736.609058
4400.0,1385,188087.111781
5900.0,2009,188638.509849
6700.0,3035,189479.343928
6400.0,2342,190121.630834
3500.0,1429,190503.462116
4800.0,2216,191098.004419
7100.0,2434,191756.245391
4700.0,1867,192272.183101
7300.0,2595,192983.657966
3200.0,1839,193509.62546
2800.0,1593,193936.929817
3800.0,1747,194435.626274
2800.0,1426,194817.431632
4300.0,2133,195385.655967
4700.0,1775,195866.777584
2100.0,1119,196173.102734
5700.0,2179,196760.480834
2600.0,1366,197142.922739
3200.0,1253,197461.236189
2000.0,1499,197874.850861
6700.0,2390,198541.201209
2000.0,1368,198888.600133
4000.0,1418,199271.488834
6500.0,2408,199930.970375
5800.0,2401,200600.979444
2600.0,1240,200949.53939
5300.0,1711,201406.395196
5500.0,1801,201888.869383
5400.0,1917,202410.699133
4500.0,1557,202835.350153
5600.0,1643,203289.894774
2400.0,1172,203604.266409
5800.0,1658,204061.663089
5800.0,2362,204697.437691
5500.0,1981,205259.646167
3300.0,1250,205618.981753
5800.0,2129,206184.87851
3400.0,1687,206643.761229
1600.0,968,206917.810944
4200.0,1610,207353.803504
4600.0,1554,207810.537253
1400.0,1047,208093.724747
4700.0,1642,208557.911534
3100.0,1791,209054.126005
6800.0,2243,209648.804082
3400.0,1111,209969.043928
2400.0,983,210218.946601
5200.0,2337,210876.291837
5700.0,2176,211475.765369
7100.0,2740,212214.137146
1800.0,1155,212526.847758
3000.0,1428,212907.948586
4500.0,1718,213366.974146
4200.0,1632,213838.594928
8700.0,3247,214760.447897
3600.0,1638,215183.85264
3200.0,1367,215569.712841
2400.0,953,215820.16708
1300.0,975,216099.937153
1400.0,1211,216431.459582
2800.0,1296,216825.293431
3700.0,1654,217261.680466
6200.0,2251,217919.155849
2800.0,1371,218308.136313
2400.0,1189,218631.026833
4600.0,1874,219146.475664
3900.0,1613,219563.797769
1200.0,908,219812.419986
4600.0,1753,220305.293445
2400.0,1366,220689.161864
5200.0,2025,221204.250215
4500.0,1644,221641.340631
2200.0,1058,221915.114339
5900.0,1925,222425.666527
4800.0,1560,222857.850646
2000.0,1140,223130.92688
2800.0,1107,223434.516513
4600.0,2285,224041.969786
2800.0,1370,224414.565616
1000.0,997,224653.604592
1800.0,1038,224917.308656
2600.0,1201,225251.300111
3000.0,1471,225633.543859
2100.0,1466,226032.534456
1600.0,1160,226342.275646
1800.0,1134,226646.538007
4000.0,1819,227113.952095
4600.0,1631,227523.541613
3000.0,1207,227859.002873
2800.0,1243,228186.680667
3600.0,1416,228557.554471
3400.0,1360,228897.907888
1400.0,1004,229161.502201
2100.0,1484,229564.224009
2600.0,1446,229935.935746
4200.0,1703,230380.83028
3800.0,1373,230754.812153
4200.0,1470,231126.212651
3100.0,1147,231430.11632
1400.0,1238,231768.517432
3600.0,1884,232275.181546
3800.0,1769,232719.27064
1900.0,1227,233049.013499
2200.0,1121,233345.413613
3500.0,1912,233846.036946
2800.0,1425,234219.733009
6300.0,2080,234759.278451
4100.0,1843,235226.320883
4800.0,1527,235623.765324
2000.0,1284,235961.843272
800.0,1063,236257.105628
4200.0,1634,236668.5953
2200.0,1389,237035.533446
2000.0,1402,237406.36346
2400.0,1363,237708.835055
1500.0,1173,237908.751489
1900.0,1381,238123.634766
3000.0,1901,238400.200933
2600.0,1399,238615.230139
2000.0,1108,238791.02678
1800.0,1226,238968.054131
3600.0,1471,239200.514309
3200.0,1689,239455.9045
1200.0,939,239594.75434
600.0,1266,239789.840698
2800.0,1727,240061.819473
4000.0,1593,240289.719449
3400.0,1244,240476.836012
1000.0,798,240589.948698
2500.0,1285,240775.159279
2100.0,1130,240945.407959
400.0,917,241076.130435
600.0,1235,241262.554075
2000.0,1000,241397.049692
800.0,1064,241560.942158
1600.0,1228,241734.364532
2600.0,1122,241900.541094
2600.0,1442,242107.278896
1400.0,1152,242277.22344
3800.0,1494,242501.764632
2400.0,1199,242670.494816
1800.0,1111,242842.778876
3300.0,1431,243048.604432
1600.0,918,243181.102181
1000.0,778,243293.387851
1200.0,1259,243480.660902
1600.0,1326,243675.728446
1400.0,1147,243886.989209
1800.0,1082,244093.483234
2800.0,1444,244352.620927
1400.0,1097,244559.086148
2400.0,1443,244816.121463
2200.0,1200,245029.007356
1200.0,1391,245285.349286
1900.0,1431,245540.298293
2000.0,1004,245724.743351
600.0,875,245887.869964
800.0,832,246030.149428
600.0,834,246189.42043
1000.0,1085,246375.23975
1800.0,1499,246652.614336
400.0,673,246770.829741
1000.0,1212,247005.90718
1200.0,1025,247196.404052
1800.0,1081,247387.245595
1000.0,900,247549.934404
400.0,928,247713.376744
1200.0,933,247897.661417
2600.0,1539,248177.869599
800.0,1006,248345.118625
1400.0,1120,248552.191379
400.0,734,248691.677601
900.0,885,248855.923237
600.0,906,249020.29824
600.0,839,249162.695855
1000.0,802,249322.530949
1400.0,1390,249562.815773
1600.0,1185,249775.466451
200.0,1053,249928.066868
800.0,830,250040.907111
1000.0,1101,250206.009363
400.0,735,250318.53053
1200.0,1144,250473.863267
500.0,784,250602.991682
600.0,1012,250737.419384
400.0,1176,250928.792853
700.0,1130,251087.729102
1400.0,943,251237.867607
800.0,799,251354.633099
600.0,991,251510.418959
1200.0,983,251648.918534
400.0,1139,251856.56416
800.0,1128,252064.657035
200.0,625,252180.621396
1200.0,1283,252416.98087
200.0,876,252580.298751
800.0,1025,252766.240891
1400.0,1040,252954.747227
1200.0,1134,253162.68438
600.0,859,253307.981941
600.0,776,253447.528273
200.0,992,253632.600294
600.0,816,253774.139397
600.0,661,253908.634208
1000.0,913,254075.229913
600.0,910,254242.666802
400.0,773,254388.466412
400.0,790,254533.398838
200.0,720,254676.918865
800.0,981,254848.244015
200.0,743,254991.248594
900.0,1034,255183.810153
400.0,868,255352.609972
400.0,728,255476.18594
400.0,784,255638.74848
1200.0,1139,255834.626997
800.0,926,256025.293003
1200.0,1083,256178.037408
0.0,816,256291.917
400.0,824,256419.582951
200.0,620,256514.041122
400.0,850,256628.33616
400.0,721,256739.319497
400.0,1076,256914.031929
600.0,879,257046.187108
1600.0,974,257194.028394
800.0,1098,257352.659151
1400.0,749,257470.089603
600.0,884,257609.125542
400.0,812,257728.539228
600.0,1116,257903.87161
400.0,878,258040.983045
200.0,998,258199.247041
3000.0,1221,258369.760741
400.0,704,258480.842328
400.0,939,258618.332602
600.0,884,258754.770693
800.0,774,258858.408086
800.0,1103,258991.574408
800.0,867,259103.600005
1400.0,966,259227.004395
200.0,778,259320.723286
400.0,692,259400.755933
400.0,804,259495.267563
0.0,1070,259633.501174
1200.0,988,259745.446288
800.0,948,259870.00391
600.0,789,259953.52229
200.0,834,260024.784157
1200.0,1073,260131.058985
1800.0,1016,260221.404793
600.0,777,260291.631999
1600.0,1820,260480.899679
1700.0,1157,260607.885882
400.0,1028,260720.363379
400.0,1024,260829.674711
400.0,732,260909.41095
600.0,704,260978.129913
200.0,939,261073.433752
400.0,756,261154.183746
200.0,785,261234.592698
800.0,937,261340.707131
600.0,961,261436.378295
1000.0,928,261531.395191
400.0,825,261623.490791
2200.0,1206,261745.701423
0.0,658,261813.652942
400.0,988,261920.258901
200.0,894,262014.341475
400.0,993,262121.042173
1000.0,1072,262229.771478
600.0,942,262324.812637
400.0,727,262404.841327
800.0,1160,262525.918143
0.0,726,262606.378882
1400.0,987,262702.468056
400.0,730,262782.504944
200.0,1012,262889.588046
400.0,1166,263011.952157
600.0,995,263119.017188
200.0,663,263187.42215
0.0,828,263268.671403
1000.0,829,263361.753176
800.0,978,263467.706939
800.0,824,263549.898942
200.0,614,263616.258917
0.0,753,263696.593791
200.0,652,263763.502196
400.0,665,263831.689029
1200.0,977,263928.706149
800.0,1096,264048.476347
0.0,704,264117.343193
1000.0,811,264209.585741
200.0,937,264304.681196
600.0,778,264386.142719
200.0,775,264467.574884
0.0,689,264536.419064
200.0,770,264618.286532
1000.0,992,264725.2468
0.0,787,264806.493471
400.0,646,264873.994204
400.0,1025,264983.210739
1400.0,1332,265130.256371
400.0,949,265225.900733
0.0,741,265306.753303
200.0,771,265388.279953
800.0,973,265485.193062
1400.0,1111,265605.871898
600.0,1144,265727.50572
200.0,743,265807.613818
900.0,929,265903.722021
200.0,789,265984.577307
400.0,746,266066.310452
600.0,954,266162.846246
600.0,992,266272.399264
600.0,1122,266394.099024
800.0,1218,266517.479096
400.0,607,266584.583612
800.0,961,266690.944358
200.0,918,266778.633356
400.0,896,266859.207039
600.0,1189,266962.864509
1200.0,1121,267064.423264
600.0,725,267122.711082
1200.0,1118,267223.701464
400.0,615,267280.412817
600.0,859,267359.438655
800.0,936,267440.402893
400.0,781,267509.637432
1400.0,1245,267622.294665
800.0,920,267703.612517
2000.0,1545,267840.855334
200.0,964,267922.127774
800.0,1008,268012.192176
200.0,970,268102.422027
400.0,1235,268206.626949
600.0,995,268296.289764
600.0,806,268364.18699
400.0,764,268432.400444
200.0,750,268500.289736
0.0,945,268580.681662
600.0,796,268657.074895
200.0,848,268726.401296
0.0,819,268804.279324
600.0,970,268884.834363
400.0,771,268952.539807
400.0,982,269042.345664
800.0,1296,269156.891309
400.0,701,269214.802948
200.0,856,269294.008671
1600.0,1418,269419.686986
600.0,846,269498.524126
0.0,793,269567.432161
600.0,688,269625.166824
400.0,775,269693.760209
800.0,938,269784.024561
800.0,1224,269887.278252
400.0,787,269956.171072
0.0,762,270024.161559
400.0,948,270113.115164
400.0,793,270180.999018
200.0,815,270249.296877
800.0,1126,270350.017656
200.0,791,270417.543353
800.0,1114,270517.700938
400.0,973,270597.823183
400.0,755,270665.063157
0.0,548,270709.614892
0.0,687,270774.770324
600.0,1040,270863.280118
200.0,907,270941.597478
400.0,1080,271032.544882
800.0,750,271099.678315
0.0,807,271166.972808
600.0,1071,271266.515191
200.0,839,271334.38254
200.0,1072,271433.243126
1000.0,780,271499.40336
200.0,899,271576.964646
0.0,867,271645.317956
200.0,943,271733.283966
600.0,731,271799.09344
0.0,826,271866.595987
400.0,780,271934.660726
1800.0,1100,272035.51411
1200.0,1021,272126.286595
200.0,755,272184.855896
200.0,730,272252.032511
200.0,877,272329.890681
0.0,735,272396.435052
400.0,673,272452.917672
400.0,931,272531.841265
0.0,1068,272621.771669
1000.0,856,272700.200799
200.0,839,272777.895513
700.0,968,272857.957266
1000.0,862,272936.448844
400.0,694,272993.418256
200.0,726,273060.160893
0.0,592,273115.875277
400.0,703,273173.713492
200.0,817,273241.72853
0.0,861,273320.424534
0.0,757,273387.336215
200.0,688,273444.592108
400.0,947,273533.292499
600.0,713,273590.852403
200.0,668,273648.200002
200.0,946,273736.588646
400.0,755,273803.079797
200.0,860,273872.61597
800.0,997,273964.568347
200.0,1034,274057.002753
200.0,668,274113.097602
0.0,984,274201.32836
400.0,764,274268.529083
600.0,730,274335.455697
400.0,717,274393.67164
200.0,794,274462.126614
1000.0,885,274540.029763
0.0,1185,274650.501385
400.0,866,274719.517482
400.0,934,274807.625565
0.0,971,274887.520461
200.0,873,274965.803157
600.0,1044,275056.394889
600.0,1008,275146.550206
0.0,812,275215.416044
0.0,781,275283.329313
0.0,648,275340.600469
0.0,882,275419.209042
800.0,1086,275520.211089
200.0,842,275588.836692
600.0,964,275677.832432
400.0,736,275735.479054
200.0,874,275813.405119
800.0,787,275880.310558
400.0,931,275968.193119
1000.0,938,276047.705838
200.0,784,276116.498808
400.0,820,276185.311042
600.0,894,276264.379394
400.0,827,276342.186792
1000.0,1121,276442.991947
800.0,897,276521.45785
400.0,805,276589.017011
800.0,1151,276690.386259
0.0,746,276757.640893
400.0,828,276826.167891
800.0,994,276916.353132
400.0,866,276995.194663
600.0,1142,277088.222544
400.0,679,277154.246889
0.0,647,277210.553649
0.0,714,277269.989282
400.0,921,277351.527543
400.0,783,277430.015856
400.0,726,277489.696072
0.0,840,277568.534661
400.0,901,277649.586027
400.0,976,277731.975624
400.0,955,277822.296191
600.0,834,277892.090935
0.0,638,277949.227343
200.0,979,278040.085633
400.0,987,278131.212013
200.0,708,278189.582706
200.0,691,278248.326758
0.0,771,278317.036344
1000.0,1026,278409.846852
200.0,676,278477.272861
0.0,800,278547.033638
200.0,657,278604.765299
400.0,795,278674.360632
400.0,881,278754.781488
200.0,832,278835.549308
200.0,764,278903.499599
400.0,959,278983.39553
200.0,1028,279073.815917
0.0,736,279139.925844
400.0,771,279208.026758
800.0,996,279288.751983
200.0,819,279366.402029
600.0,934,279446.513699
0.0,782,279515.402402
400.0,853,279594.197684
1600.0,2030,279775.015291
0.0,771,279842.977159
800.0,611,279889.991831
400.0,907,279968.264841
200.0,889,280046.904999
0.0,841,280125.10533
200.0,913,280204.684726
0.0,879,280283.893349
0.0,852,280361.992755
200.0,793,280430.101536
0.0,595,280477.092974
0.0,907,280556.290479
200.0,816,280634.245066
400.0,973,280714.970491
200.0,932,280804.741034
400.0,668,280861.885689
0.0,704,280920.03441
200.0,823,280998.444897
200.0,871,281067.772126
0.0,916,281156.455994
0.0,862,281225.498264
1200.0,918,281304.543305
0.0,739,281371.427342
600.0,800,281439.837346
200.0,659,281505.864606
200.0,1064,281598.127201
0.0,869,281677.989854
0.0,809,281747.814757
0.0,763,281816.279948
400.0,793,281884.969305
200.0,772,281953.13464
600.0,865,282033.61281
0.0,746,282102.104508
0.0,901,282182.384453
0.0,764,282251.049041
200.0,775,282319.13238
200.0,747,282377.675277
200.0,905,282457.080841
0.0,732,282524.903311
600.0,870,282604.367961
200.0,763,282672.722233
600.0,1115,282766.15847
0.0,765,282834.069337
200.0,719,282900.838653
0.0,855,282979.449054
600.0,787,283048.351066
0.0,675,283105.449963
0.0,646,283162.289935
200.0,1030,283253.416809
200.0,541,283298.80479
0.0,799,283376.043337
200.0,951,283455.673287
200.0,756,283523.785307
200.0,814,283596.78833
400.0,555,283642.338079
200.0,726,283709.188708
400.0,757,283778.899617
0.0,828,283848.678074
400.0,862,283932.383835
400.0,657,283990.344934
200.0,646,284046.947981
200.0,777,284115.208503
0.0,775,284182.950048
400.0,746,284249.870706
0.0,675,284306.865872
400.0,883,284385.051617
200.0,947,284473.978248
0.0,661,284530.341653
400.0,873,284608.851314
200.0,752,284667.52531
0.0,687,284734.08023
0.0,916,284814.657366
200.0,979,284904.46071
400.0,853,284974.267057
200.0,828,285052.866326
200.0,721,285111.527232
0.0,621,285168.127446
400.0,759,285235.875401
200.0,620,285293.363653
800.0,800,285361.417063
400.0,654,285418.033726
200.0,664,285475.267778
0.0,849,285554.8045
200.0,574,285601.319201
0.0,852,285680.02926
0.0,837,285759.067254
0.0,748,285818.622334
0.0,563,285873.384951
0.0,711,285936.363373
200.0,735,286037.198626
400.0,670,286124.199833
0.0,1057,286262.039427
0.0,754,286333.805039
200.0,713,286401.262065
400.0,995,286492.923352
0.0,820,286563.169731
0.0,601,286620.243138
0.0,846,286691.030616
200.0,777,286760.746914
200.0,722,286829.857624
200.0,692,286888.952247
0.0,873,286969.30866
0.0,570,287016.608848
0.0,678,287084.130913
400.0,868,287164.110902
0.0,960,287244.24916
200.0,724,287310.788308
600.0,826,287378.827083
200.0,972,287467.582594
0.0,773,287534.576818
600.0,759,287600.794016
200.0,778,287667.113462
0.0,830,287735.077569
200.0,713,287800.941543
