# {"t_start": 1547545160.4104025, "env_id": "SeaquestNoFrameskip-v4"} 
r,l,t
340.0,1124,37.35914
80.0,497,53.075777
240.0,788,78.00784
440.0,1379,119.395554
520.0,1610,168.281848
380.0,1302,209.946986
100.0,489,225.246561
260.0,884,256.351615
540.0,1573,308.027429
280.0,969,340.147874
520.0,1618,394.797512
200.0,756,419.957662
240.0,892,447.255088
400.0,1292,489.744391
560.0,1633,541.451849
540.0,1496,590.026328
440.0,1473,636.341532
600.0,1647,688.794354
240.0,755,714.506972
400.0,1190,751.706374
440.0,1553,800.809339
400.0,1227,840.006978
600.0,1824,896.738908
640.0,1888,954.382191
460.0,1397,998.762552
400.0,1283,1039.962592
340.0,1050,1074.167111
260.0,837,1101.650037
300.0,1083,1135.082013
440.0,1341,1176.145817
720.0,1996,1242.593151
420.0,1315,1284.436797
400.0,1230,1324.295595
480.0,1505,1372.493268
680.0,1971,1435.784168
740.0,2043,1502.297406
740.0,2172,1572.63202
540.0,1561,1623.806146
640.0,1764,1683.634405
720.0,2078,1750.616913
380.0,1204,1788.818588
760.0,2235,1859.94425
540.0,1527,1909.534402
460.0,1483,1956.762817
680.0,1991,2020.471721
600.0,1722,2075.502698
700.0,2121,2143.691866
700.0,2029,2211.742811
500.0,1466,2258.884686
540.0,1601,2312.717694
680.0,2060,2380.807203
560.0,1726,2436.277824
300.0,993,2469.292756
340.0,1135,2506.50147
720.0,2009,2570.872725
680.0,1958,2633.867907
660.0,1994,2697.539598
580.0,1674,2749.22123
420.0,1258,2788.583325
480.0,1433,2832.703749
620.0,1926,2890.217289
580.0,1683,2943.389773
620.0,1820,3000.180011
760.0,2044,3063.932578
720.0,2002,3125.313399
820.0,2264,3194.083117
800.0,2079,3258.041137
640.0,1855,3315.472128
640.0,1916,3374.509561
780.0,2270,3445.329048
780.0,2272,3519.497756
820.0,2068,3586.337919
740.0,1961,3649.48089
580.0,1524,3693.71358
580.0,1569,3743.119416
700.0,1923,3801.287449
660.0,1946,3860.910219
660.0,1816,3916.433755
820.0,2215,3987.60177
660.0,1817,4044.803017
540.0,1465,4090.098426
640.0,1874,4147.193816
780.0,2271,4219.991393
600.0,1746,4272.516883
800.0,2168,4340.396973
740.0,2047,4406.966923
700.0,1875,4467.333988
560.0,1529,4518.080936
820.0,2266,4591.5823
800.0,2267,4665.265139
580.0,1670,4716.613185
800.0,2266,4788.3858
560.0,1527,4833.787476
840.0,2234,4901.03366
640.0,1782,4956.298818
720.0,1982,5018.923932
820.0,2267,5086.730932
700.0,1993,5148.993922
840.0,2271,5219.483792
920.0,2269,5288.348601
620.0,1675,5340.148212
760.0,1997,5400.694875
720.0,2006,5464.704694
680.0,1798,5518.944351
600.0,1583,5567.507616
740.0,2061,5632.171192
720.0,2027,5696.195538
880.0,2271,5767.941378
860.0,2268,5837.107192
700.0,1970,5897.880067
840.0,2268,5968.328738
700.0,1856,6028.277765
860.0,2270,6097.735765
840.0,2180,6166.637523
680.0,1799,6221.544573
780.0,2133,6285.932562
620.0,1703,6340.756185
860.0,2270,6410.355395
780.0,2015,6473.510543
700.0,1861,6533.646388
640.0,1750,6595.245645
620.0,1618,6650.131793
680.0,1853,6713.42277
760.0,1971,6780.015719
640.0,1675,6835.910066
820.0,2126,6908.365742
680.0,1819,6968.140084
700.0,1931,7033.226919
640.0,1731,7094.920596
800.0,2182,7168.045429
580.0,1571,7220.34977
560.0,1652,7276.132189
500.0,1413,7325.490887
520.0,1546,7377.748498
480.0,1329,7419.568523
780.0,2052,7487.321823
760.0,2013,7556.324054
720.0,2013,7625.606465
760.0,2038,7695.666747
740.0,1988,7762.683612
780.0,2001,7831.222866
780.0,2032,7901.647981
780.0,2041,7970.893299
900.0,2272,8045.093129
740.0,2009,8112.54156
700.0,1851,8176.982924
660.0,1731,8235.479489
580.0,1559,8287.275742
720.0,1968,8353.859558
600.0,1643,8410.028338
840.0,2215,8484.411069
880.0,2265,8561.11573
840.0,2272,8637.650632
880.0,2270,8712.727293
920.0,2251,8788.514657
900.0,2269,8864.531228
700.0,1902,8928.294152
720.0,1985,8995.756293
860.0,2265,9074.43426
560.0,1593,9125.790486
740.0,1993,9192.614929
880.0,2265,9268.502285
820.0,2215,9345.274874
820.0,2141,9416.515766
780.0,2140,9488.757365
740.0,1998,9555.153055
720.0,1916,9618.001497
620.0,1628,9672.614796
860.0,2265,9748.259663
880.0,2267,9823.969768
640.0,1786,9882.319306
880.0,2251,9957.448037
800.0,2056,10029.325248
860.0,2265,10105.568118
760.0,1982,10171.583987
840.0,2268,10248.777068
840.0,2164,10321.851345
880.0,2268,10394.655847
880.0,2263,10473.142889
880.0,2183,10548.442374
800.0,2185,10621.572623
700.0,1767,10679.749419
780.0,2025,10747.082391
780.0,2001,10817.80426
760.0,2038,10888.618371
720.0,1781,10947.002761
780.0,2046,11016.623812
680.0,1809,11078.393239
520.0,1442,11126.178343
800.0,2015,11195.338967
500.0,1310,11237.637723
580.0,1678,11295.766367
760.0,2042,11362.657454
820.0,1930,11428.657635
720.0,1857,11490.109429
500.0,1289,11532.155192
760.0,2010,11598.840136
700.0,1985,11666.971175
880.0,2268,11744.966295
880.0,2268,11822.064019
940.0,2265,11897.656983
900.0,2270,11972.520693
860.0,2186,12047.047052
460.0,1313,12090.541594
920.0,2193,12166.868656
900.0,2268,12244.170815
880.0,2074,12315.288615
620.0,1552,12370.141509
540.0,1337,12413.61471
640.0,1693,12470.435604
880.0,2272,12551.026899
900.0,2271,12626.895095
700.0,1905,12693.469225
800.0,1989,12761.329379
900.0,2276,12838.152698
660.0,1751,12898.537677
620.0,1579,12950.816437
960.0,2271,13031.62181
940.0,2204,13108.545497
900.0,2177,13181.798424
980.0,2194,13259.144021
420.0,1220,13301.982397
900.0,2268,13377.525007
900.0,2198,13452.926921
820.0,2057,13521.462162
920.0,2269,13598.665048
780.0,1812,13658.682791
920.0,2212,13734.055315
940.0,2051,13802.655942
880.0,2083,13875.95498
920.0,1934,13940.074692
840.0,1782,14002.189695
1020.0,2269,14079.959006
840.0,1975,14144.088141
940.0,1884,14207.898813
800.0,1755,14267.259693
1040.0,2213,14343.097601
660.0,1485,14392.317946
600.0,1298,14436.284654
1080.0,2097,14508.245977
800.0,1810,14569.135826
1120.0,2266,14645.819054
1020.0,1992,14710.620252
1140.0,2263,14786.615384
1120.0,2187,14862.514323
840.0,1612,14918.574465
920.0,2005,14984.93233
780.0,1485,15034.702735
1100.0,2061,15102.569334
1000.0,1861,15165.5218
1000.0,1829,15228.602603
1020.0,2079,15299.500351
940.0,1893,15361.984995
880.0,1775,15423.481603
1140.0,2166,15499.425184
1100.0,2269,15577.552597
1140.0,2270,15657.06776
1140.0,2265,15731.014409
980.0,1819,15792.130509
1100.0,2002,15859.78262
1220.0,2173,15934.521944
1040.0,1907,15999.861115
760.0,1475,16051.237133
1120.0,2174,16125.740565
1220.0,2266,16202.911943
1060.0,1957,16270.75029
1080.0,2110,16339.852992
840.0,1758,16402.540075
1240.0,2264,16479.773053
1160.0,2268,16552.723019
1240.0,2270,16627.934533
1080.0,2175,16701.032866
700.0,1432,16749.313852
1080.0,1884,16813.89931
700.0,1429,16860.798435
720.0,1536,16913.991562
640.0,1282,16957.639751
800.0,1858,17019.50811
1160.0,2270,17095.166064
1140.0,2001,17163.127018
980.0,1876,17225.666874
1200.0,2034,17295.408616
1180.0,1990,17363.720018
640.0,1265,17405.997523
1160.0,2268,17481.442824
1140.0,2270,17558.225742
920.0,2044,17627.861711
1160.0,2159,17702.045434
1180.0,2272,17779.394686
980.0,1789,17841.003005
1160.0,2272,17916.95002
1180.0,2228,17992.801423
1240.0,1726,18051.316852
1220.0,2227,18127.068846
1020.0,1855,18186.651956
1180.0,2033,18254.610026
1060.0,1941,18320.102393
1000.0,1823,18382.930259
1280.0,2270,18461.971191
1220.0,2182,18536.951279
1240.0,2189,18609.391989
620.0,1394,18654.621279
740.0,1853,18718.403917
860.0,1784,18778.027439
780.0,1507,18828.842539
720.0,1570,18883.517581
1120.0,2198,18956.98502
560.0,1376,19003.42819
440.0,1206,19042.623636
660.0,1575,19094.904573
680.0,1623,19149.151782
640.0,1424,19197.258222
500.0,1219,19236.01675
960.0,1858,19297.911489
900.0,1998,19368.291868
1080.0,2064,19438.954222
300.0,775,19465.836307
960.0,2004,19533.731694
1280.0,2267,19611.662206
1140.0,2225,19689.774913
1220.0,2269,19765.952043
1080.0,2047,19835.597923
1140.0,2182,19907.991653
700.0,1418,19957.307628
820.0,1816,20015.116557
1100.0,2015,20084.447254
1220.0,2265,20160.984924
1200.0,2271,20236.736819
900.0,1802,20299.277961
1020.0,1948,20365.110932
1240.0,2212,20439.282355
800.0,1601,20494.103508
1020.0,1995,20564.075366
1180.0,2270,20641.68246
1100.0,2033,20714.305108
1240.0,2270,20790.808004
1140.0,1989,20859.727767
1040.0,1809,20921.329703
1200.0,2254,21000.434199
1360.0,2271,21078.583715
1240.0,2146,21152.917955
1080.0,1984,21220.092199
1120.0,2130,21293.729778
740.0,1446,21340.891051
1300.0,2271,21417.983944
920.0,1801,21477.151904
1020.0,1939,21543.092811
980.0,1841,21605.101907
920.0,1757,21663.042057
1080.0,2033,21732.184211
820.0,1578,21787.379316
1100.0,2159,21862.367962
1060.0,2000,21932.152695
1060.0,2098,22002.465377
1140.0,1995,22069.353145
1300.0,2268,22146.268362
1100.0,2074,22216.158916
1240.0,2271,22294.30573
720.0,1457,22344.25116
900.0,1670,22400.975143
720.0,1482,22451.518077
720.0,1446,22499.12251
880.0,1745,22558.99006
860.0,1785,22619.457838
1060.0,1964,22684.432794
1000.0,1807,22744.502275
680.0,1473,22793.282577
860.0,1678,22850.409683
960.0,1765,22909.854965
1080.0,2029,22978.275791
620.0,1192,23017.718276
1280.0,2271,23094.495586
460.0,1150,23132.537742
320.0,1037,23166.281994
960.0,1873,23230.987925
620.0,1298,23274.258258
1060.0,2234,23349.690137
1080.0,2217,23422.035233
1020.0,2098,23496.130937
1120.0,2220,23569.379809
880.0,2069,23641.172109
860.0,2111,23714.322621
600.0,1564,23767.837309
880.0,1781,23830.043325
1020.0,1890,23894.347878
260.0,760,23921.052974
1200.0,2327,23998.055044
1080.0,2080,24068.275927
820.0,1651,24124.121121
340.0,905,24155.1461
240.0,798,24181.836874
260.0,869,24211.773001
340.0,958,24245.410107
60.0,546,24264.140507
40.0,683,24286.900458
60.0,663,24309.520134
120.0,946,24341.117999
140.0,788,24367.480417
340.0,1556,24421.114204
240.0,799,24448.968195
580.0,1405,24495.703537
1100.0,2265,24573.670304
980.0,2034,24642.251033
1080.0,2211,24718.054041
1140.0,1998,24787.307402
1240.0,2225,24862.358258
740.0,1504,24915.817953
880.0,1713,24973.503026
1280.0,2270,25050.533313
980.0,1877,25113.790474
1260.0,2171,25190.125409
1160.0,2267,25267.795565
1140.0,2138,25340.565942
920.0,1828,25403.104854
1000.0,2266,25481.958261
880.0,1924,25548.448565
760.0,1512,25602.172361
1060.0,1949,25666.71946
1240.0,2268,25746.209091
800.0,1554,25799.966085
1120.0,2030,25865.330256
980.0,1818,25925.174189
980.0,1846,25987.069515
1220.0,2269,26063.769351
1160.0,2258,26143.282022
580.0,1213,26183.697619
920.0,1792,26247.168185
1200.0,2269,26324.091542
1240.0,2248,26402.92394
960.0,1797,26464.26347
820.0,1555,26517.12413
1260.0,2270,26597.029998
780.0,1688,26654.704031
440.0,1005,26688.507817
740.0,1527,26741.966607
1260.0,2270,26817.820158
1160.0,2195,26894.14792
920.0,1762,26955.383316
940.0,1885,27019.846663
900.0,1719,27077.359215
1080.0,1989,27143.002877
1100.0,2023,27212.091459
1280.0,2267,27291.180954
940.0,1689,27348.29559
760.0,1490,27399.694651
700.0,1354,27444.643172
800.0,1484,27496.813002
660.0,1348,27544.181188
1280.0,2270,27619.988836
1220.0,2287,27695.946131
880.0,1707,27755.93839
1220.0,2272,27833.269877
800.0,1652,27888.536895
960.0,2039,27957.227332
1220.0,2233,28032.718309
780.0,1490,28083.352086
1000.0,1912,28146.684139
980.0,1866,28212.300425
840.0,1615,28266.787548
500.0,1135,28306.02921
880.0,1568,28357.578892
840.0,1824,28417.667692
1080.0,1925,28483.45479
1320.0,2268,28561.344237
1260.0,2270,28639.791046
1300.0,2264,28715.250888
1200.0,2216,28788.871508
960.0,1920,28852.890802
1060.0,2134,28926.594161
920.0,1707,28984.124222
920.0,1983,29052.512677
1220.0,2159,29123.561722
1280.0,2271,29199.332124
800.0,1567,29252.29366
980.0,1847,29316.349056
840.0,1619,29370.355484
640.0,1328,29415.22036
820.0,1732,29473.888913
1180.0,2153,29547.587462
1040.0,1997,29614.277949
1040.0,1875,29677.495621
1060.0,1901,29744.252498
500.0,1136,29782.162241
1040.0,1957,29848.655054
640.0,1441,29896.752962
680.0,1498,29947.305752
720.0,1494,29999.211875
880.0,1740,30059.973265
340.0,884,30091.676463
400.0,1010,30126.410457
420.0,1035,30159.65793
540.0,1197,30200.628202
860.0,1859,30264.575106
1160.0,2150,30338.399563
640.0,1480,30389.365865
480.0,1167,30425.965739
860.0,1672,30479.664629
400.0,998,30513.969446
420.0,986,30546.971353
500.0,1170,30585.797246
120.0,600,30605.74471
300.0,813,30633.53748
280.0,848,30661.673699
400.0,1066,30694.707734
260.0,828,30722.255259
720.0,1565,30775.244479
580.0,1302,30819.26136
440.0,1047,30855.485189
1060.0,2014,30923.601771
840.0,1682,30982.037133
720.0,1445,31032.100304
80.0,672,31054.407666
500.0,1195,31095.587938
340.0,976,31127.771907
320.0,942,31161.31075
80.0,519,31179.855584
740.0,1507,31230.196384
780.0,1406,31278.787691
640.0,1347,31324.989259
780.0,1632,31380.90795
1080.0,2018,31448.603921
1160.0,2150,31524.377564
600.0,1254,31566.105604
860.0,1667,31622.347577
740.0,1455,31673.284683
1040.0,1902,31737.575969
1200.0,2270,31812.829733
1180.0,2033,31883.960828
1040.0,1990,31952.824212
1220.0,1987,32018.609321
1100.0,2030,32087.526248
1200.0,2204,32158.20824
1140.0,2058,32226.435452
1280.0,2268,32304.836221
1280.0,2256,32385.041886
1380.0,2269,32460.414156
1280.0,2271,32537.256221
700.0,1511,32589.324669
520.0,1175,32628.383126
1040.0,1946,32695.663315
1220.0,2089,32768.562562
1020.0,1800,32829.29991
1300.0,2265,32905.663146
1340.0,2267,32981.840677
1300.0,2267,33060.275874
980.0,1711,33117.112046
1360.0,2266,33192.493683
1200.0,2054,33262.863474
940.0,1623,33317.816992
920.0,1666,33375.459538
560.0,1189,33415.717625
1120.0,2047,33487.363591
440.0,1179,33527.425292
1080.0,1939,33593.327648
980.0,1731,33650.841841
760.0,1515,33700.794952
820.0,1560,33754.855908
1280.0,2159,33827.192375
360.0,935,33860.668174
40.0,516,33877.952439
40.0,518,33896.772873
380.0,1045,33930.902287
40.0,408,33944.94765
220.0,744,33968.853932
140.0,676,33992.628193
160.0,892,34021.918727
120.0,655,34044.582796
120.0,732,34068.438529
140.0,787,34095.191235
80.0,758,34120.851032
120.0,590,34141.976032
340.0,1046,34177.086966
160.0,615,34197.859822
160.0,938,34229.035784
220.0,745,34254.092544
420.0,1174,34293.872189
160.0,879,34323.588881
100.0,769,34350.508449
120.0,556,34369.600963
300.0,1093,34407.293721
200.0,813,34434.593255
260.0,727,34460.358685
340.0,835,34488.922247
700.0,1419,34536.952285
640.0,1344,34582.28447
580.0,1333,34627.460354
820.0,1542,34680.394732
1360.0,2268,34757.422061
1120.0,2003,34823.85179
840.0,1597,34876.92088
720.0,1310,34924.271516
1140.0,2057,34992.936505
1140.0,2047,35063.012298
820.0,1569,35116.663868
1220.0,2207,35191.648053
840.0,1544,35241.816009
1320.0,2269,35315.888896
960.0,1858,35379.637527
1220.0,2173,35453.435648
1160.0,2037,35522.674636
1260.0,2268,35599.988615
1100.0,2155,35674.530015
1140.0,2143,35747.035529
1080.0,1994,35811.987442
1280.0,2205,35888.031517
640.0,1396,35934.662443
1140.0,2050,36003.811559
1280.0,2270,36082.364199
1180.0,2173,36158.74573
1160.0,2049,36230.423136
840.0,1750,36290.169797
1180.0,2268,36366.336779
1280.0,2271,36443.199687
1180.0,2264,36520.243552
1080.0,2161,36595.216846
1140.0,2084,36668.65674
1200.0,2267,36746.121464
1180.0,2258,36823.116043
1120.0,2191,36897.203567
1300.0,2268,36973.647048
1140.0,2060,37041.484426
940.0,1827,37102.248024
580.0,1255,37145.07289
1320.0,2123,37212.425168
1020.0,1728,37269.999631
1000.0,1741,37329.118445
920.0,1702,37387.298322
1220.0,2052,37458.383686
760.0,1424,37507.885759
1040.0,1893,37570.491652
600.0,1125,37609.321009
900.0,1697,37668.101166
200.0,721,37692.687958
860.0,1937,37759.823959
1180.0,2078,37832.294522
1380.0,2265,37911.187105
1380.0,2271,37990.549564
1220.0,2255,38066.566862
1080.0,1885,38131.017461
760.0,1502,38180.460847
800.0,1532,38232.665976
960.0,1859,38293.084475
1180.0,2105,38363.096511
1080.0,1879,38422.928096
1300.0,2271,38499.33772
1340.0,2270,38578.326022
1300.0,2157,38652.166062
1160.0,2004,38720.917476
1300.0,2269,38799.898341
1200.0,2260,38877.184341
900.0,1867,38943.030894
1200.0,2265,39020.652457
1300.0,2268,39096.043028
980.0,1831,39160.970645
620.0,1322,39205.554607
800.0,1385,39251.090902
860.0,1651,39307.614506
900.0,1722,39366.740461
620.0,1302,39408.782397
1300.0,2267,39484.672815
720.0,1541,39536.790407
1040.0,2003,39604.262756
1040.0,1874,39670.812903
1040.0,2073,39744.542392
940.0,1859,39807.44502
1260.0,2269,39884.131916
1180.0,2112,39955.638443
1240.0,2270,40033.304763
1000.0,2046,40102.90818
1100.0,2268,40179.90812
560.0,1355,40224.282543
760.0,1640,40280.578519
1240.0,2268,40358.252932
1120.0,2047,40427.850062
1100.0,1903,40490.800422
1300.0,2267,40565.136292
1280.0,2271,40639.466419
920.0,1798,40701.096817
980.0,1789,40761.09562
1220.0,2267,40838.199294
1220.0,2260,40914.261773
920.0,1772,40976.454097
1060.0,2023,41044.141862
1240.0,2265,41122.652462
1180.0,2269,41203.39866
940.0,1774,41263.149356
1240.0,2267,41337.086471
660.0,1540,41390.285005
1100.0,2271,41469.992272
900.0,1907,41534.306697
880.0,2021,41604.457074
920.0,1857,41667.11407
1180.0,2270,41742.532334
980.0,2051,41811.401101
1300.0,2269,41889.095851
1180.0,2164,41961.692173
300.0,908,41991.908962
1180.0,2264,42068.202691
1240.0,2268,42145.266657
860.0,1672,42201.717938
1320.0,2269,42280.367499
1240.0,2136,42351.467632
620.0,1478,42401.222275
920.0,1808,42463.373027
900.0,1871,42529.059634
920.0,1830,42589.10868
580.0,1220,42627.286713
1200.0,2139,42698.754755
1060.0,1904,42760.135204
880.0,1803,42818.342945
1220.0,2229,42890.17699
660.0,1326,42933.402958
1060.0,1996,42997.945256
1100.0,2270,43068.82512
880.0,1841,43124.859815
1240.0,2270,43199.360698
1240.0,2265,43275.70164
1080.0,2019,43341.436297
1220.0,2270,43412.517891
1080.0,2173,43481.674888
1200.0,2268,43553.989191
1140.0,2073,43621.842863
1100.0,2034,43684.677696
1260.0,2267,43756.886836
440.0,1004,43788.907176
1100.0,1884,43847.904897
840.0,1772,43903.356033
640.0,1345,43943.281515
780.0,1691,43995.172401
480.0,1117,44031.294242
980.0,1829,44088.155561
1040.0,2051,44155.69715
420.0,958,44184.714386
1100.0,1973,44245.846528
800.0,1518,44294.198229
920.0,1718,44349.642375
540.0,1065,44384.102225
860.0,1582,44433.666299
920.0,1681,44490.229226
960.0,1762,44547.720606
920.0,1832,44608.019287
720.0,1575,44660.237444
640.0,1372,44706.989203
300.0,1094,44743.273175
840.0,1741,44799.049669
1160.0,2110,44868.113031
860.0,1730,44924.318073
1140.0,2132,44992.799374
1260.0,2269,45066.65819
1240.0,2271,45138.290278
920.0,1938,45200.977996
1340.0,2267,45273.159551
1060.0,1903,45334.517992
1260.0,2265,45408.085624
1240.0,2270,45481.941568
840.0,1631,45532.688816
880.0,1728,45585.371496
1240.0,2268,45657.481596
1260.0,1897,45717.814738
1200.0,2147,45785.11594
680.0,1376,45828.214923
1120.0,2007,45891.394792
1060.0,1948,45953.078135
1340.0,2270,46031.40981
1300.0,2265,46104.59552
1280.0,2267,46177.689888
720.0,1432,46221.472787
1300.0,2196,46293.966319
1040.0,1925,46352.221186
1220.0,2270,46423.744939
1120.0,2201,46492.24754
1220.0,2210,46562.423096
1120.0,2268,46633.513961
1140.0,2265,46707.998487
1260.0,2264,46780.672127
1100.0,2020,46845.286796
1180.0,2074,46909.536416
960.0,1783,46966.907618
740.0,1430,47006.776992
900.0,1679,47055.634805
1240.0,2125,47117.783823
1200.0,2028,47177.800391
920.0,1743,47228.689637
1220.0,2118,47289.324693
1220.0,2217,47352.744538
900.0,1732,47398.844584
1200.0,2216,47459.050636
1040.0,1905,47508.831195
760.0,1523,47547.737847
860.0,1646,47591.31684
700.0,1327,47625.983016
900.0,1654,47670.895151
1200.0,2183,47729.269236
1080.0,1910,47780.083248
1200.0,2185,47834.973731
1260.0,2267,47895.215519
1280.0,2259,47957.102501
1200.0,2268,48018.345814
860.0,1437,48056.644636
640.0,1213,48088.104216
920.0,1695,48133.207103
860.0,1638,48174.1274
960.0,1873,48223.380059
540.0,1335,48259.70402
1000.0,1811,48306.296443
1040.0,2013,48359.441872
1220.0,2125,48416.841904
1060.0,1875,48467.29252
840.0,1622,48509.926419
780.0,1705,48551.862435
940.0,2044,48604.978591
1260.0,2270,48663.371626
960.0,1745,48706.664963
1180.0,1987,48755.803116
1260.0,2180,48809.333224
1180.0,2057,48858.985341
1140.0,2073,48909.804476
1260.0,2110,48963.302231
1140.0,2122,49017.215844
1020.0,2268,49073.453335
960.0,2266,49131.225597
880.0,1842,49176.049788
540.0,1320,49208.583105
1060.0,2249,49265.905073
1220.0,2256,49322.601423
1200.0,2271,49380.668936
1240.0,2269,49436.007742
1260.0,2267,49490.812335
1260.0,2241,49546.530628
1260.0,2268,49603.090117
1320.0,2269,49660.323471
1020.0,1957,49710.617291
1200.0,2023,49762.030069
1360.0,2268,49817.787258
1060.0,2268,49875.479854
1060.0,2265,49933.387894
1200.0,2271,49991.19369
1200.0,2271,50047.625251
1180.0,2142,50101.835347
1240.0,2265,50156.629094
720.0,1657,50199.157334
600.0,1262,50231.593795
960.0,1740,50275.504782
1120.0,2272,50332.6464
1040.0,1942,50381.271175
940.0,1830,50427.040511
920.0,1682,50468.293486
700.0,1451,50504.604325
440.0,1049,50530.081395
740.0,1450,50567.309769
820.0,1473,50603.74063
960.0,1972,50652.367563
1020.0,1931,50703.570382
860.0,1616,50743.921152
560.0,1218,50773.743387
720.0,1409,50808.634364
960.0,1902,50855.978197
1060.0,1962,50905.175603
1320.0,2265,50962.367747
1280.0,2276,51019.790951
1240.0,2269,51074.095297
1320.0,2270,51130.268949
1000.0,1913,51177.452534
1240.0,2191,51232.627743
1340.0,2270,51287.414002
1100.0,1928,51335.994511
1340.0,2266,51392.576963
1180.0,2055,51445.671639
1340.0,2271,51503.047828
1380.0,2266,51558.424516
1040.0,1913,51605.58645
1080.0,1971,51653.723705
1280.0,2271,51711.085493
1220.0,2269,51766.764465
1120.0,1923,51813.003789
1060.0,1955,51862.589389
1240.0,2268,51919.005992
1340.0,2271,51973.707124
1320.0,2269,52030.830415
1300.0,2266,52089.121474
1140.0,2099,52142.188683
740.0,1460,52178.850245
1200.0,2176,52232.682902
660.0,1363,52266.949919
1080.0,1906,52314.855868
1300.0,2266,52372.475125
1000.0,1840,52416.930786
1220.0,2167,52472.245051
1240.0,2230,52527.461162
1380.0,2267,52582.935817
1120.0,2058,52634.607353
860.0,1581,52674.581362
1160.0,2175,52727.876668
920.0,1953,52778.971161
1080.0,1957,52833.030511
1080.0,1994,52885.313033
980.0,1905,52934.341649
1080.0,1983,52983.168288
1040.0,1831,53030.351696
1260.0,2234,53088.939915
1300.0,2270,53147.877229
1200.0,2271,53205.00565
1100.0,1935,53256.448005
1360.0,2269,53319.629049
1300.0,2269,53379.657826
1340.0,2270,53441.292578
1020.0,1887,53492.539817
1320.0,2272,53555.119606
1300.0,2267,53621.838119
1300.0,2270,53690.516716
1220.0,2264,53759.408483
1060.0,1928,53820.019234
1040.0,2034,53887.36989
1300.0,2265,53961.185493
1120.0,1983,54022.65732
940.0,1828,54085.059005
1220.0,2267,54165.453162
720.0,1505,54216.93872
1220.0,2264,54293.176326
1280.0,2271,54375.168326
1240.0,2214,54454.301346
1260.0,2264,54536.581804
1240.0,2271,54616.837627
1180.0,2195,54700.329759
940.0,1829,54765.577799
1140.0,2266,54844.843649
1180.0,2026,54915.129258
840.0,1603,54969.884597
1100.0,2036,55042.380987
1320.0,2270,55125.457733
660.0,1204,55167.815817
440.0,989,55203.524763
880.0,1453,55252.783553
460.0,882,55281.797312
660.0,1179,55323.217685
560.0,1212,55367.510571
820.0,1486,55419.373256
1200.0,1985,55491.440259
740.0,1426,55543.274112
340.0,854,55572.834894
740.0,1405,55624.296258
520.0,1101,55665.137876
480.0,1073,55706.427675
1000.0,1737,55768.419511
760.0,1362,55818.204202
940.0,1726,55879.313742
920.0,1601,55938.808077
1000.0,1677,56000.235673
1200.0,2071,56073.646467
1020.0,2019,56144.257076
1160.0,2241,56224.606369
1220.0,2233,56308.543638
1260.0,2270,56391.787092
1180.0,2173,56472.896983
1100.0,1979,56547.678054
1320.0,2258,56625.960544
1200.0,2268,56709.17362
1040.0,2180,56787.202566
760.0,1666,56848.249979
1360.0,2266,56932.694916
1180.0,2265,57018.103075
1140.0,2159,57093.544128
1180.0,2181,57169.45514
720.0,1373,57219.574726
800.0,1549,57276.356578
1040.0,1869,57342.977934
1120.0,1928,57414.468535
1040.0,1838,57478.221297
880.0,1614,57533.161468
1080.0,1850,57602.52513
1140.0,1996,57676.042582
860.0,1470,57729.614834
420.0,1113,57769.579361
1180.0,1982,57835.446797
1080.0,1998,57905.38181
800.0,1454,57957.982637
380.0,849,57988.981021
1260.0,2249,58070.359843
1160.0,1994,58141.41939
820.0,1561,58198.671562
1280.0,2168,58276.989355
720.0,1428,58328.044947
1260.0,2267,58412.334955
1240.0,2188,58492.873854
900.0,1828,58560.547221
1280.0,2266,58642.398087
1360.0,2266,58721.30703
1000.0,1840,58785.715849
840.0,1605,58844.776233
760.0,1597,58902.269496
1060.0,1863,58970.585013
1300.0,2269,59048.402775
1140.0,2062,59119.271581
1160.0,2101,59191.320745
1140.0,2152,59270.690295
1060.0,2068,59345.700909
1300.0,2175,59419.920325
1120.0,2158,59497.159478
1060.0,2054,59570.342051
1020.0,1886,59637.537478
1180.0,2199,59719.154002
1180.0,2020,59792.218355
540.0,1226,59836.86504
980.0,1947,59908.459448
1220.0,2190,59986.457934
880.0,1757,60048.699818
1220.0,2083,60120.982865
1140.0,2211,60200.483673
1140.0,1842,60264.445099
1100.0,1900,60335.075039
1340.0,2269,60415.592653
1120.0,1901,60484.008672
960.0,1599,60542.647052
680.0,1299,60589.891529
1040.0,1703,60651.795825
860.0,1597,60708.095014
380.0,821,60737.014782
820.0,1479,60790.278771
980.0,1641,60849.677733
940.0,1629,60909.307023
1200.0,2122,60986.635761
1320.0,2271,61068.439367
1120.0,1914,61137.14512
1360.0,2249,61217.038634
800.0,1545,61274.645966
1180.0,1845,61341.0502
1260.0,2048,61415.817835
1440.0,2258,61497.188326
1340.0,2221,61574.506551
920.0,1646,61635.32519
1360.0,2198,61711.372095
940.0,1636,61769.25183
1520.0,2264,61847.646547
1120.0,1840,61914.129329
1320.0,2193,61990.426284
1360.0,2131,62065.759954
1400.0,2167,62142.955772
1280.0,1987,62214.864667
840.0,1668,62272.669537
1400.0,2269,62352.635451
1220.0,1852,62420.120712
1180.0,1840,62481.951356
1520.0,2270,62563.238095
1140.0,1999,62634.009974
940.0,1650,62688.90973
1120.0,1775,62750.163986
1520.0,2271,62833.265366
1240.0,2135,62909.40878
1140.0,1899,62978.543395
1120.0,1966,63050.180286
1360.0,2269,63130.577201
1420.0,2271,63210.238024
1440.0,2266,63288.857555
1460.0,2271,63367.337701
1300.0,2268,63444.72966
1040.0,1877,63510.409535
1320.0,2271,63589.192997
900.0,1898,63657.710316
1220.0,2269,63739.591709
1240.0,2269,63822.176689
1320.0,2269,63905.09293
620.0,1257,63948.397848
1260.0,2267,64031.971912
960.0,1876,64098.65582
1240.0,2270,64182.574209
1300.0,2265,64265.640667
1320.0,2268,64349.637055
1320.0,2267,64430.874101
1300.0,2265,64511.39805
1360.0,2267,64591.747973
1200.0,2189,64669.773913
1420.0,2271,64752.027793
1320.0,2264,64831.073319
1280.0,2169,64911.496363
1320.0,2265,64993.895545
1120.0,1916,65063.796764
1440.0,2270,65146.992177
1320.0,2253,65230.952703
1040.0,1738,65289.95263
1240.0,2052,65365.409358
880.0,1470,65418.578744
1280.0,2011,65490.638893
1500.0,2265,65573.965181
1180.0,1902,65644.166244
1020.0,1662,65702.606941
880.0,1575,65757.226989
1520.0,2268,65839.431628
1480.0,2269,65925.705378
1160.0,1984,65998.88356
1480.0,2186,66080.991634
1600.0,2267,66164.09059
960.0,1644,66223.063408
980.0,1605,66281.115674
1360.0,2183,66356.715431
1280.0,1908,66425.877836
1120.0,1901,66493.490139
1260.0,1907,66562.224032
1020.0,1898,66628.336822
1440.0,2145,66708.36988
1220.0,1903,66779.39765
1560.0,2267,66860.382028
1200.0,1812,66925.593795
1800.0,2658,67019.927984
1160.0,1878,67083.479471
840.0,1577,67139.799617
1160.0,1915,67209.668368
1200.0,1887,67277.148439
1060.0,1852,67345.627718
820.0,1681,67408.268228
1200.0,1906,67478.449171
1100.0,1716,67541.5211
1040.0,1922,67609.935295
1380.0,2098,67685.036466
1420.0,2270,67768.248844
1100.0,1692,67829.34069
1040.0,1799,67891.677341
1280.0,1931,67960.039995
1100.0,1651,68018.358835
1200.0,1897,68088.007581
1140.0,1731,68149.055317
1480.0,2184,68227.004885
1480.0,2179,68304.042693
1380.0,2053,68374.126292
1500.0,2270,68459.31168
1180.0,1988,68533.162673
920.0,1489,68583.343667
1000.0,1632,68642.734745
1460.0,2265,68723.556805
1380.0,2157,68803.941017
1300.0,2082,68878.649729
1160.0,1860,68945.359143
900.0,1624,69004.959596
620.0,1205,69050.378021
940.0,1483,69103.729994
1520.0,2270,69183.308681
940.0,1506,69237.697263
1540.0,2269,69317.694435
1000.0,1685,69378.080342
860.0,1503,69434.080616
960.0,1651,69492.411012
1160.0,1856,69559.038584
1200.0,1792,69622.503747
1360.0,2124,69702.379708
920.0,1785,69768.130247
1000.0,1745,69832.848886
1340.0,2133,69909.043985
900.0,1597,69967.206034
1080.0,1964,70038.415133
1000.0,1771,70102.38842
1180.0,2054,70172.073126
1340.0,2138,70251.054284
1020.0,2001,70320.629899
1200.0,2093,70397.019003
1360.0,2061,70472.861845
1560.0,2269,70553.763258
1280.0,1899,70624.334395
1520.0,2269,70706.355305
1420.0,2157,70786.821708
1540.0,2268,70869.150423
1460.0,2269,70948.454024
1560.0,2266,71026.491726
1560.0,2268,71108.964936
1480.0,2270,71187.643795
1000.0,1694,71250.148391
1020.0,1595,71309.838363
1340.0,2052,71383.200446
1360.0,1994,71453.711421
1280.0,2020,71527.092835
940.0,1436,71577.233503
1620.0,2268,71658.736601
1640.0,2269,71740.12837
1280.0,1842,71805.35041
1480.0,2123,71880.88778
880.0,1437,71930.805336
1620.0,2266,72013.413032
1340.0,1906,72081.052047
1640.0,2265,72161.853551
1420.0,2061,72234.367136
1640.0,2266,72315.448845
1640.0,2271,72397.539149
1620.0,2266,72478.727995
1260.0,1853,72547.252814
1640.0,2268,72630.257918
1680.0,2265,72711.615489
1600.0,2269,72791.650273
1520.0,2230,72868.878139
1580.0,2266,72947.414547
1580.0,2266,73026.947996
1620.0,2226,73108.292566
1580.0,2266,73188.089754
1640.0,2272,73268.360354
1640.0,2268,73346.342906
1340.0,1900,73413.471743
1660.0,2268,73499.388892
1620.0,2271,73580.109045
1600.0,2270,73663.545727
1660.0,2268,73746.777847
1660.0,2266,73828.882628
1660.0,2266,73912.815458
1680.0,2268,73995.15466
1640.0,2270,74078.359333
720.0,1227,74124.362267
1280.0,1906,74193.729059
1460.0,2042,74269.398156
1640.0,2265,74355.147806
1600.0,2269,74436.938837
1660.0,2266,74518.869233
1660.0,2269,74597.498593
1580.0,2265,74680.915691
1480.0,2040,74750.016196
1300.0,1904,74814.556715
1560.0,2266,74891.475588
1380.0,1905,74957.748902
1640.0,2265,75036.030317
1640.0,2269,75116.74253
1640.0,2269,75198.719912
1120.0,1671,75257.066375
1560.0,2265,75337.059114
1580.0,2264,75415.674282
1540.0,2265,75493.133508
1660.0,2269,75571.280333
1620.0,2270,75650.856015
1700.0,2270,75730.202451
1580.0,2230,75808.372037
1480.0,2204,75888.058446
1380.0,2023,75956.806774
1460.0,2053,76024.914792
1060.0,1597,76077.223989
1560.0,2185,76156.090923
1640.0,2267,76237.085511
1080.0,1688,76295.116235
1580.0,2269,76373.196497
1120.0,1717,76429.650197
1600.0,2269,76505.345667
1680.0,2269,76585.666197
1000.0,1531,76638.088072
1660.0,2271,76715.248295
1680.0,2270,76793.866957
1620.0,2266,76873.91473
1400.0,1903,76942.915977
1340.0,1892,77009.35942
1680.0,2269,77086.092246
1660.0,2269,77167.280845
1580.0,2265,77247.603581
1640.0,2270,77329.671089
1300.0,1847,77391.169044
1700.0,2266,77469.974109
1700.0,2265,77547.098975
1660.0,2267,77625.896119
1300.0,1847,77692.950425
1660.0,2267,77770.914959
1600.0,2266,77846.732763
1380.0,1938,77915.682182
1620.0,2269,77993.915306
1720.0,2266,78076.360811
1640.0,2246,78151.885801
1140.0,1601,78207.407498
1580.0,2271,78290.080864
1340.0,1911,78355.077338
1640.0,2236,78432.077388
1500.0,2141,78507.940227
1640.0,2269,78587.368182
1680.0,2270,78664.347479
1360.0,1845,78729.491449
1720.0,2269,78811.526304
1660.0,2267,78893.519934
1620.0,2270,78973.086216
1340.0,1846,79035.784256
1520.0,2267,79113.071311
1380.0,1909,79178.850027
1700.0,2266,79256.513409
1320.0,1863,79322.028584
1620.0,2268,79395.741766
1660.0,2269,79473.295881
1720.0,2266,79548.715579
1340.0,1863,79609.554194
1300.0,1900,79672.871951
780.0,1231,79714.089811
1720.0,2264,79789.796451
1720.0,2271,79863.541796
1620.0,2268,79940.874554
1640.0,2269,80018.510114
1660.0,2266,80092.142253
1640.0,2265,80169.74636
1620.0,2272,80246.714654
1680.0,2266,80325.843424
980.0,1436,80373.512357
1680.0,2271,80451.055236
1300.0,1841,80511.893613
1720.0,2271,80587.365261
1260.0,1837,80648.695701
1660.0,2269,80725.879829
1720.0,2267,80797.841521
1380.0,1853,80859.774972
1640.0,2216,80932.342754
1300.0,1838,80994.741194
1760.0,2264,81075.248098
1560.0,2078,81144.767455
1740.0,2269,81218.626616
1280.0,1834,81280.917227
1300.0,1827,81344.644236
1680.0,2261,81417.887846
1760.0,2267,81493.590798
1620.0,2265,81566.567261
1320.0,1862,81626.400831
1680.0,2266,81700.50089
1700.0,2265,81770.55168
1700.0,2267,81844.35943
1680.0,2268,81919.359419
1680.0,2266,81988.60383
1620.0,2267,82063.808406
1680.0,2265,82132.81837
1740.0,2270,82205.350132
1300.0,1846,82264.472188
1720.0,2271,82341.143218
1720.0,2265,82415.500012
1740.0,2271,82486.737023
1700.0,2265,82561.358111
1660.0,2268,82636.508953
1660.0,2270,82712.145332
1720.0,2269,82777.168738
1600.0,2178,82847.075356
1700.0,2269,82914.346133
1680.0,2271,82983.461123
1700.0,2270,83050.866266
1380.0,1859,83106.738168
1660.0,2266,83173.869786
1720.0,2272,83237.828978
1700.0,2270,83301.630646
1660.0,2268,83366.350387
1720.0,2270,83433.80194
