# {"t_start": 1546750295.4412181, "env_id": "AtlantisNoFrameskip-v4"} 
r,l,t
16700.0,1224,34.691025
13800.0,1067,58.76472
6700.0,777,75.954605
5900.0,673,91.038998
15300.0,1411,123.826828
18300.0,1606,160.197489
26600.0,2025,205.408038
16500.0,1406,236.473929
14600.0,1384,266.983127
25300.0,1812,308.591631
36000.0,2366,360.677439
53400.0,2678,421.217221
32900.0,2350,473.592077
43000.0,2435,527.194226
39800.0,2250,576.51379
38400.0,1959,621.613553
44900.0,2767,683.9781
47500.0,2523,741.630324
49500.0,2814,804.698918
40400.0,2050,850.423926
48500.0,2489,906.790063
65100.0,3288,980.966068
48800.0,2243,1030.143379
87200.0,4090,1120.693407
24300.0,1500,1153.742277
76400.0,3605,1233.826925
64200.0,3157,1306.203921
119900.0,5195,1423.564178
67800.0,3284,1497.787865
64100.0,3415,1575.174286
125400.0,5218,1692.159672
150900.0,6941,1846.734131
142900.0,6121,1986.409051
72700.0,3610,2066.06839
238000.0,9817,2287.160897
3177100.0,99996,4539.908208
51000.0,2610,4598.880745
3314100.0,99996,6854.050545
3385800.0,99996,9114.782715
3244200.0,99999,11376.316173
3369100.0,99997,13638.245168
57800.0,3334,13715.407825
25400.0,2042,13761.397507
45400.0,2651,13820.860512
3265100.0,99996,16082.372599
3183300.0,99999,18340.100897
28900.0,2171,18388.456121
14400.0,1322,18418.266055
3352100.0,99993,20690.611697
3583700.0,99994,22951.874889
3359100.0,99999,25215.543696
3384400.0,99997,27471.84967
