# {"t_start": 1548219179.4660866, "env_id": "AlienNoFrameskip-v4"} 
r,l,t
240.0,622,19.618648
180.0,617,38.162761
320.0,796,61.257549
210.0,671,82.286777
300.0,671,107.721406
290.0,835,137.629471
220.0,703,162.573552
290.0,567,186.384401
260.0,503,207.652419
280.0,575,229.811676
240.0,641,258.083849
310.0,577,286.999305
280.0,485,306.340529
360.0,616,338.671323
120.0,497,364.837592
270.0,720,400.29641
260.0,449,428.262387
1910.0,999,487.891989
370.0,897,546.231073
290.0,743,591.155349
320.0,795,643.257831
270.0,760,694.738853
310.0,617,737.234013
510.0,854,794.512066
370.0,611,828.904857
200.0,511,862.074196
370.0,700,912.097279
350.0,806,964.485459
470.0,975,1026.233934
290.0,569,1067.039562
310.0,674,1109.306436
280.0,507,1142.449653
360.0,532,1176.195377
810.0,857,1234.577161
400.0,838,1287.211738
320.0,629,1330.068966
440.0,547,1365.237278
340.0,703,1416.223946
350.0,692,1460.259149
380.0,568,1495.448565
400.0,614,1536.377389
380.0,676,1578.016282
350.0,700,1627.064646
270.0,449,1653.88551
320.0,596,1696.185046
350.0,642,1739.506451
420.0,810,1792.486532
310.0,503,1826.982339
390.0,675,1870.880198
390.0,662,1914.138391
580.0,674,1956.368387
440.0,772,2005.699048
310.0,401,2030.966277
270.0,524,2065.435561
260.0,432,2098.521309
390.0,606,2134.961744
360.0,458,2168.66619
380.0,738,2220.064473
430.0,526,2255.120034
340.0,574,2291.055948
360.0,804,2343.714965
360.0,393,2369.568303
470.0,587,2410.088673
380.0,482,2441.861927
970.0,605,2476.444309
350.0,756,2528.146645
330.0,443,2555.258688
420.0,574,2597.638809
330.0,670,2641.731823
420.0,673,2685.723489
440.0,856,2745.23152
330.0,451,2772.107154
300.0,548,2813.386919
350.0,473,2839.760808
360.0,682,2880.888483
230.0,380,2905.384467
320.0,752,2956.017902
340.0,635,2998.979603
390.0,1017,3068.294173
280.0,522,3103.201362
420.0,542,3138.596282
340.0,637,3181.308048
230.0,533,3214.697798
480.0,917,3272.147185
340.0,508,3306.332308
370.0,546,3341.538503
380.0,719,3392.663019
420.0,590,3428.942863
390.0,748,3480.757931
260.0,521,3515.421263
220.0,411,3541.784516
380.0,805,3600.215167
320.0,462,3626.180877
330.0,862,3682.713003
440.0,601,3724.4526
280.0,642,3761.310418
320.0,567,3803.440848
290.0,418,3829.884967
290.0,574,3865.620207
320.0,573,3907.579172
310.0,484,3941.617421
340.0,745,3986.111775
260.0,383,4011.014601
450.0,733,4059.763811
490.0,647,4101.474634
300.0,613,4143.707266
550.0,680,4187.458277
410.0,723,4231.979679
340.0,567,4273.746227
290.0,485,4307.733084
340.0,461,4334.842365
400.0,757,4385.466131
450.0,1067,4451.865553
270.0,447,4483.93893
280.0,610,4519.898581
360.0,864,4579.40993
390.0,577,4621.038418
410.0,796,4672.744972
370.0,903,4731.352717
360.0,596,4766.044132
410.0,759,4815.764128
420.0,1019,4884.29378
470.0,642,4927.507628
2170.0,1150,5004.928051
300.0,469,5038.860193
460.0,741,5083.87578
370.0,528,5118.634869
630.0,996,5184.843958
290.0,644,5225.862084
480.0,751,5276.272022
2150.0,966,5338.238524
410.0,711,5389.229321
340.0,680,5433.253124
490.0,1066,5503.35873
440.0,827,5562.588169
470.0,862,5614.861968
400.0,567,5654.483302
610.0,886,5712.453915
390.0,716,5756.910728
360.0,631,5800.087011
410.0,617,5843.104606
280.0,515,5877.773848
340.0,632,5920.731835
350.0,731,5965.186799
420.0,626,6006.74609
300.0,476,6038.504512
350.0,622,6073.151083
270.0,398,6105.19989
230.0,536,6140.17581
300.0,518,6175.080957
310.0,585,6211.021247
410.0,566,6253.37814
290.0,653,6297.206285
160.0,404,6323.872992
280.0,653,6367.872655
320.0,669,6412.24809
330.0,672,6456.71049
360.0,763,6509.222748
340.0,856,6570.014952
390.0,619,6607.037472
440.0,607,6650.38981
380.0,758,6702.919883
320.0,537,6738.181896
340.0,606,6781.091903
200.0,533,6816.252964
440.0,867,6869.757561
380.0,795,6925.724643
240.0,562,6958.786732
380.0,675,7002.178437
410.0,871,7062.252484
400.0,746,7113.804062
220.0,540,7149.07007
440.0,699,7193.636222
310.0,685,7244.461359
390.0,525,7279.087982
410.0,593,7313.590234
470.0,610,7353.851542
360.0,941,7413.691255
440.0,963,7482.139582
400.0,771,7534.234161
380.0,627,7570.845004
940.0,751,7622.356014
370.0,880,7682.871167
400.0,765,7734.867904
430.0,980,7803.785872
530.0,718,7848.457858
1040.0,940,7908.868793
380.0,503,7941.066684
410.0,526,7973.870086
350.0,465,8006.903813
310.0,698,8051.001344
430.0,576,8093.222797
320.0,795,8145.327782
380.0,517,8180.331264
430.0,495,8215.000771
430.0,553,8251.013009
500.0,829,8304.995482
410.0,775,8357.351851
490.0,756,8409.523626
260.0,561,8445.453082
320.0,568,8487.896811
460.0,633,8531.236011
260.0,459,8558.544538
480.0,666,8602.410794
400.0,614,8645.540222
290.0,425,8672.374719
380.0,634,8715.972677
470.0,545,8751.48035
330.0,664,8800.797436
450.0,549,8833.39905
400.0,651,8874.545612
380.0,457,8901.592931
340.0,501,8936.106168
410.0,516,8970.808489
390.0,614,9013.796871
390.0,381,9039.897336
430.0,661,9084.079138
390.0,649,9127.927669
470.0,559,9163.483836
510.0,732,9215.220071
430.0,526,9250.095251
370.0,826,9302.082308
490.0,789,9351.026297
540.0,616,9392.257855
950.0,459,9425.64864
340.0,613,9462.194938
370.0,430,9495.416297
450.0,908,9556.379266
450.0,691,9600.956239
410.0,430,9627.85801
480.0,680,9678.384531
530.0,613,9714.615199
490.0,545,9755.195829
490.0,696,9797.176708
530.0,640,9838.559215
390.0,422,9864.718938
540.0,628,9907.743341
580.0,772,9959.672625
440.0,456,9986.746639
570.0,682,10037.218421
470.0,446,10064.345381
460.0,672,10108.752379
490.0,540,10144.36817
430.0,514,10179.505356
550.0,754,10231.933993
420.0,435,10265.472443
360.0,440,10292.916441
570.0,675,10337.510861
360.0,679,10382.089872
560.0,659,10426.444231
370.0,441,10460.614047
510.0,657,10504.976161
430.0,483,10539.532266
550.0,593,10575.883353
920.0,629,10619.383989
500.0,714,10670.675356
470.0,553,10706.460808
460.0,629,10749.844574
490.0,572,10785.738942
470.0,534,10821.08796
500.0,654,10864.962338
540.0,529,10900.205333
470.0,548,10935.793971
960.0,496,10970.392662
430.0,511,11005.29838
370.0,658,11049.172899
390.0,492,11082.99198
550.0,728,11129.629112
540.0,484,11156.4564
550.0,635,11199.480856
410.0,548,11241.411959
220.0,513,11276.161317
570.0,585,11312.514033
540.0,637,11356.324715
610.0,764,11408.439467
510.0,625,11451.503581
360.0,555,11486.554718
520.0,530,11521.05878
590.0,666,11563.81641
550.0,680,11606.549186
530.0,590,11647.791607
440.0,657,11690.236037
450.0,1036,11757.618324
530.0,971,11824.677694
510.0,626,11860.807237
400.0,607,11903.141385
400.0,517,11937.609048
430.0,467,11971.044024
470.0,605,12006.838653
550.0,661,12049.429448
410.0,756,12098.891245
440.0,570,12139.651652
390.0,481,12166.6661
540.0,588,12208.454073
470.0,526,12242.635037
430.0,527,12276.892729
460.0,649,12319.328105
370.0,559,12354.031725
460.0,487,12387.251137
390.0,508,12420.626364
430.0,784,12470.578958
370.0,641,12512.168298
940.0,489,12545.419062
460.0,626,12587.335375
370.0,514,12614.860332
480.0,643,12657.384322
670.0,1046,12731.982643
520.0,814,12783.542958
330.0,663,12826.304916
390.0,517,12860.213901
440.0,683,12903.23659
400.0,491,12936.700282
530.0,1023,13003.873221
380.0,549,13038.266327
430.0,722,13088.043673
550.0,702,13131.491614
450.0,585,13172.547646
400.0,506,13205.77564
450.0,544,13239.405367
570.0,666,13281.558649
460.0,741,13331.387288
350.0,374,13350.098783
620.0,688,13399.256696
440.0,533,13433.697764
910.0,531,13468.3447
400.0,599,13510.575891
450.0,473,13537.86029
540.0,732,13588.737903
430.0,677,13632.240802
430.0,619,13674.187815
550.0,662,13715.743532
470.0,654,13757.199566
490.0,578,13792.284029
360.0,409,13824.880934
580.0,576,13860.569916
440.0,494,13894.908745
490.0,532,13930.192281
430.0,549,13965.831226
420.0,781,14018.184191
410.0,389,14044.231548
340.0,579,14086.273155
410.0,758,14131.068731
570.0,678,14179.64197
430.0,459,14205.708287
420.0,745,14255.253396
410.0,426,14281.201576
550.0,513,14315.537895
450.0,511,14349.801332
390.0,678,14393.610909
400.0,527,14428.166367
430.0,515,14462.413936
490.0,496,14496.264791
520.0,644,14539.003186
490.0,524,14573.001911
370.0,351,14597.682075
580.0,647,14639.723914
490.0,537,14673.591838
320.0,378,14698.608757
450.0,526,14732.523769
320.0,619,14774.439998
390.0,489,14801.762776
340.0,381,14827.158408
520.0,532,14861.374454
460.0,597,14902.384654
460.0,501,14935.370736
320.0,365,14959.660662
480.0,636,15001.116392
370.0,489,15027.91712
560.0,663,15076.776086
470.0,470,15103.561044
580.0,591,15145.310352
460.0,515,15179.358703
410.0,402,15205.096901
550.0,467,15231.8158
380.0,313,15255.966086
440.0,519,15289.920249
480.0,561,15324.485806
900.0,450,15351.057343
470.0,642,15393.24017
490.0,464,15426.244025
570.0,744,15476.690193
450.0,480,15503.685658
460.0,595,15545.22032
390.0,495,15578.903064
420.0,691,15622.249362
480.0,407,15648.324983
370.0,517,15682.853583
430.0,706,15733.882291
490.0,648,15777.292597
1020.0,692,15821.138273
440.0,501,15854.796123
440.0,441,15880.701587
340.0,491,15913.239221
520.0,654,15954.734755
510.0,581,15995.601562
420.0,666,16038.942718
460.0,784,16090.797777
370.0,701,16134.413828
370.0,456,16167.261668
530.0,728,16210.48773
520.0,633,16251.748883
500.0,462,16284.383093
450.0,728,16328.083079
340.0,411,16354.070031
560.0,596,16396.309416
380.0,510,16430.672355
560.0,742,16481.750987
450.0,726,16525.511899
350.0,554,16565.774301
240.0,427,16591.726303
490.0,668,16633.944539
500.0,499,16667.198311
530.0,692,16710.22574
590.0,657,16752.878188
570.0,520,16787.034606
330.0,396,16812.845153
570.0,1269,16898.101495
460.0,438,16930.208904
530.0,709,16973.149243
610.0,593,17014.101437
540.0,700,17056.940107
520.0,506,17090.501253
450.0,816,17142.661296
450.0,443,17175.873375
450.0,411,17202.195265
530.0,512,17236.908939
520.0,692,17281.091136
540.0,777,17332.747875
420.0,537,17366.537567
590.0,527,17399.745173
420.0,671,17442.029252
540.0,560,17483.02689
520.0,734,17527.220654
450.0,611,17569.527425
450.0,472,17603.026497
660.0,791,17654.350584
530.0,611,17696.439285
500.0,741,17740.825639
460.0,657,17783.678558
440.0,491,17817.043139
390.0,574,17857.773541
400.0,513,17884.955553
500.0,719,17934.522224
610.0,879,17993.513335
590.0,506,18027.351771
550.0,798,18078.872508
470.0,460,18105.470951
560.0,592,18146.550547
410.0,622,18187.765326
300.0,502,18220.877714
570.0,704,18263.853308
450.0,454,18296.547245
600.0,614,18332.000158
530.0,738,18382.219461
520.0,601,18423.882699
520.0,667,18466.926786
540.0,686,18510.534646
550.0,728,18561.336368
580.0,666,18604.723144
550.0,610,18646.866712
530.0,548,18681.174333
590.0,731,18724.415696
620.0,721,18773.366969
580.0,637,18815.065336
500.0,771,18865.829813
400.0,672,18908.780988
690.0,1139,18985.132311
560.0,724,19028.146993
560.0,738,19077.763976
540.0,553,19111.752141
520.0,659,19160.857432
540.0,824,19213.365073
570.0,612,19255.658685
510.0,566,19290.823961
480.0,552,19325.817476
520.0,521,19360.248197
560.0,631,19402.647786
580.0,580,19443.618684
600.0,1051,19510.264283
630.0,970,19570.528657
540.0,709,19621.166068
530.0,528,19656.098623
590.0,832,19709.934201
580.0,494,19744.611406
610.0,993,19814.615586
1010.0,745,19860.539865
470.0,507,19895.325559
510.0,619,19937.183984
460.0,704,19984.476107
510.0,664,20027.800928
490.0,585,20064.169984
530.0,503,20098.924729
630.0,589,20141.646045
560.0,516,20176.543025
570.0,674,20220.82101
390.0,353,20240.2339
590.0,627,20283.703118
600.0,453,20317.331918
420.0,375,20343.147957
560.0,504,20377.507935
600.0,627,20413.548389
550.0,617,20454.732364
550.0,685,20497.597587
450.0,520,20532.001677
560.0,688,20582.721352
640.0,696,20627.30836
470.0,490,20661.532938
560.0,633,20704.626683
600.0,652,20746.98703
530.0,643,20788.380508
530.0,662,20831.098246
610.0,559,20866.499326
560.0,596,20909.171356
520.0,602,20945.601528
480.0,567,20987.467942
600.0,669,21031.353976
630.0,708,21075.376782
670.0,880,21134.243337
550.0,623,21176.064414
560.0,661,21218.871331
570.0,542,21253.708252
570.0,658,21297.243689
590.0,656,21340.676664
460.0,352,21365.904345
490.0,545,21401.388609
620.0,631,21445.046314
520.0,625,21488.605745
580.0,579,21524.817799
590.0,656,21574.317918
560.0,575,21608.859422
560.0,696,21651.288783
650.0,711,21701.872219
590.0,624,21744.955905
700.0,695,21789.323749
560.0,614,21831.412233
570.0,813,21882.305752
510.0,588,21923.335294
390.0,576,21959.196206
620.0,1000,22028.61352
570.0,682,22073.351514
600.0,593,22116.733013
560.0,718,22162.182241
590.0,706,22213.458353
560.0,589,22249.475717
570.0,595,22290.969542
570.0,544,22326.058239
540.0,478,22359.907206
680.0,708,22404.846457
610.0,525,22439.996638
540.0,458,22473.967664
520.0,569,22510.150136
610.0,719,22560.51283
590.0,732,22606.484628
580.0,690,22656.744503
580.0,457,22684.63025
520.0,821,22737.839135
460.0,666,22787.107605
660.0,635,22823.884304
600.0,714,22873.765852
600.0,600,22915.748623
390.0,529,22950.284386
1170.0,817,23002.368062
510.0,819,23054.619692
550.0,626,23097.475596
480.0,687,23141.311707
420.0,548,23182.837875
540.0,626,23219.090507
610.0,470,23252.258362
540.0,618,23294.191507
550.0,671,23337.247507
610.0,530,23371.648498
590.0,686,23415.296757
730.0,999,23483.720786
440.0,404,23509.417241
610.0,691,23558.200816
620.0,682,23600.975001
580.0,688,23644.410033
450.0,473,23677.846994
550.0,577,23713.490465
600.0,619,23756.42834
600.0,407,23782.750248
600.0,561,23818.074813
330.0,487,23851.474797
390.0,382,23876.720679
470.0,420,23902.599374
530.0,988,23969.157499
500.0,540,24004.176319
1120.0,676,24048.506544
660.0,657,24092.614896
440.0,602,24135.635109
590.0,611,24178.887717
590.0,509,24214.025027
520.0,829,24267.317349
550.0,554,24301.393523
520.0,482,24333.053992
580.0,432,24359.314122
590.0,667,24410.175669
570.0,577,24446.735578
620.0,766,24499.374558
530.0,699,24544.667425
560.0,756,24596.960454
540.0,655,24640.379441
580.0,483,24672.693709
650.0,822,24723.820549
570.0,599,24766.719584
570.0,569,24803.130154
600.0,671,24847.663179
980.0,789,24907.127309
620.0,766,24952.555021
570.0,717,25002.549894
570.0,646,25043.94329
630.0,741,25094.339783
630.0,778,25146.876997
480.0,573,25183.343118
590.0,594,25226.332831
580.0,632,25270.147105
580.0,583,25306.320627
570.0,481,25340.013341
620.0,536,25373.621845
610.0,740,25422.727135
590.0,481,25450.59024
590.0,617,25493.932246
520.0,700,25538.565569
440.0,501,25573.418694
1000.0,567,25615.815746
590.0,683,25659.978139
520.0,752,25710.22333
590.0,599,25744.842534
550.0,475,25777.724305
570.0,708,25828.894997
540.0,606,25865.847419
570.0,810,25918.922221
590.0,985,25988.441854
600.0,892,26048.707811
550.0,607,26089.65931
590.0,593,26124.103848
440.0,554,26164.926187
590.0,534,26199.671251
620.0,804,26253.031208
640.0,665,26297.27476
600.0,483,26331.422805
630.0,630,26374.710698
630.0,797,26425.641102
430.0,682,26468.063593
420.0,509,26501.656742
600.0,777,26553.940518
620.0,608,26597.414374
640.0,552,26633.447594
640.0,563,26669.431968
620.0,553,26705.327745
620.0,609,26748.552416
590.0,595,26791.104387
480.0,541,26825.638501
630.0,619,26867.253202
530.0,477,26894.27306
470.0,462,26927.278771
540.0,536,26961.840218
710.0,811,27014.33026
590.0,478,27048.281785
640.0,675,27092.16689
580.0,411,27118.575136
630.0,744,27170.067376
610.0,730,27221.164816
660.0,726,27265.701355
990.0,638,27308.524884
610.0,632,27350.670207
570.0,620,27391.790816
630.0,664,27435.133091
650.0,869,27495.525874
570.0,527,27531.059285
450.0,410,27557.644181
550.0,534,27592.872149
570.0,736,27643.749406
580.0,507,27676.623859
650.0,640,27718.11393
640.0,575,27753.816862
580.0,537,27789.249773
490.0,705,27840.052967
580.0,751,27885.098021
470.0,661,27927.390414
530.0,656,27974.995369
560.0,759,28020.020561
630.0,850,28080.13587
600.0,814,28132.932301
580.0,610,28175.333104
560.0,744,28225.948683
570.0,838,28277.504963
500.0,734,28327.879464
620.0,969,28390.285198
560.0,686,28441.425993
650.0,622,28478.374022
600.0,579,28521.059241
630.0,662,28564.962615
610.0,604,28605.67282
600.0,447,28630.926343
650.0,763,28682.8088
620.0,568,28719.446721
560.0,501,28754.546682
750.0,926,28816.854741
610.0,722,28869.081599
660.0,704,28914.184764
550.0,586,28955.227254
570.0,466,28985.9539
570.0,613,29021.94667
570.0,647,29066.349335
540.0,807,29126.632451
620.0,593,29163.492222
1100.0,723,29215.76663
580.0,428,29243.121683
610.0,460,29271.201071
630.0,525,29313.234284
660.0,657,29357.494913
590.0,534,29393.12823
610.0,692,29438.127604
630.0,740,29490.18167
450.0,478,29517.334423
550.0,545,29556.180029
470.0,638,29598.275662
470.0,570,29634.570183
700.0,982,29704.645533
390.0,427,29731.844916
610.0,563,29767.912454
630.0,502,29802.7452
580.0,625,29846.229801
590.0,627,29889.24038
640.0,526,29923.702514
610.0,550,29958.048507
590.0,511,29991.494593
450.0,791,30042.485839
640.0,571,30077.955943
600.0,457,30111.440797
610.0,499,30145.74699
590.0,513,30180.569589
480.0,566,30215.934103
450.0,754,30267.01564
610.0,544,30301.005509
550.0,502,30333.980799
480.0,679,30377.025656
590.0,510,30411.100886
1010.0,589,30452.888919
600.0,472,30480.257262
480.0,508,30514.535233
520.0,764,30565.882806
500.0,683,30609.522053
610.0,640,30652.300384
640.0,542,30686.979084
560.0,768,30738.35481
1000.0,583,30780.000477
530.0,682,30823.239738
670.0,657,30866.224378
610.0,522,30900.572746
620.0,490,30934.59871
640.0,750,30985.185075
620.0,565,31019.916929
480.0,646,31062.711399
540.0,546,31097.49858
600.0,609,31139.668279
440.0,587,31181.582832
1010.0,826,31233.6396
590.0,903,31293.361256
480.0,573,31328.354746
440.0,568,31369.741207
440.0,716,31414.388424
600.0,446,31447.447781
610.0,560,31482.922132
480.0,530,31517.965519
650.0,822,31570.348509
520.0,542,31611.088738
550.0,608,31646.700534
560.0,535,31681.524001
570.0,554,31722.598813
420.0,534,31756.806481
580.0,618,31797.320693
480.0,482,31823.776062
380.0,532,31857.893145
540.0,683,31907.234205
580.0,558,31939.325379
670.0,664,31976.115888
990.0,745,32016.823763
610.0,588,32041.406238
630.0,694,32075.739956
640.0,632,32105.006801
650.0,521,32128.600208
430.0,551,32152.539087
680.0,573,32177.010281
640.0,778,32212.684424
560.0,477,32235.789474
660.0,606,32264.424327
550.0,545,32288.050576
600.0,553,32311.70404
600.0,510,32334.861038
580.0,772,32370.054011
600.0,506,32393.502278
340.0,498,32417.072457
600.0,458,32435.993363
610.0,432,32454.397466
650.0,854,32495.492793
590.0,484,32519.055143
580.0,424,32537.391025
630.0,631,32566.895934
570.0,555,32590.820333
590.0,488,32613.364352
820.0,1178,32665.615636
560.0,715,32700.610112
590.0,643,32730.37121
510.0,505,32749.787736
660.0,569,32778.403967
590.0,589,32802.756632
610.0,593,32830.874114
640.0,499,32853.649261
630.0,583,32877.666265
610.0,535,32901.281071
620.0,510,32924.681847
450.0,625,32953.860579
610.0,715,32988.430645
630.0,609,33013.264843
640.0,545,33041.234679
580.0,484,33059.944289
670.0,700,33093.64295
620.0,538,33117.06547
480.0,645,33146.331626
450.0,588,33170.790982
630.0,583,33199.354055
560.0,431,33217.529656
630.0,552,33241.281342
610.0,553,33269.417016
600.0,432,33287.549263
470.0,758,33322.390964
490.0,710,33352.515569
640.0,656,33382.139421
440.0,675,33416.209044
590.0,585,33440.529682
630.0,667,33469.933652
580.0,640,33499.138276
440.0,556,33523.065295
500.0,505,33546.436454
650.0,577,33574.854639
720.0,748,33609.316493
580.0,629,33633.701895
420.0,587,33661.434769
530.0,732,33696.090514
450.0,436,33714.522377
430.0,511,33738.157856
410.0,446,33756.786253
470.0,643,33786.508753
590.0,469,33809.585266
650.0,685,33839.592751
620.0,555,33863.443833
610.0,625,33892.250958
630.0,522,33915.651681
600.0,652,33944.973236
590.0,506,33968.289758
560.0,737,34003.142198
610.0,477,34022.233269
680.0,864,34063.288953
600.0,587,34091.84342
700.0,698,34121.434658
600.0,436,34139.210706
680.0,578,34167.185799
680.0,740,34202.070458
630.0,405,34220.016245
610.0,744,34250.801981
610.0,566,34279.198836
620.0,652,34308.954234
670.0,709,34339.678391
560.0,516,34363.588941
610.0,743,34399.236698
390.0,511,34423.306918
650.0,677,34453.903929
480.0,748,34489.325772
640.0,666,34518.120896
660.0,557,34541.253613
570.0,728,34575.822453
670.0,776,34611.634704
580.0,741,34647.300508
590.0,424,34665.908373
610.0,463,34689.388663
590.0,689,34720.391049
600.0,777,34757.057507
660.0,739,34792.911801
1100.0,671,34823.238057
620.0,561,34848.029187
660.0,555,34872.619578
580.0,535,34897.050673
630.0,510,34920.797158
610.0,697,34953.873411
620.0,560,34977.264916
650.0,706,35011.766227
540.0,573,35036.435073
630.0,747,35072.329521
700.0,677,35102.977623
630.0,652,35133.193719
600.0,615,35162.774811
650.0,758,35198.291893
520.0,833,35233.017703
660.0,611,35261.252307
620.0,627,35290.78294
680.0,635,35316.480056
650.0,517,35340.627178
670.0,655,35375.047547
610.0,599,35400.162697
630.0,587,35429.305769
560.0,542,35453.256358
460.0,586,35477.149896
610.0,639,35505.758607
500.0,660,35535.150373
620.0,607,35564.352911
590.0,437,35582.952571
660.0,820,35624.01989
480.0,704,35654.892115
540.0,710,35689.891586
570.0,596,35714.729352
630.0,590,35743.629733
520.0,952,35785.882856
670.0,849,35826.278653
590.0,654,35855.757441
670.0,659,35885.1825
660.0,633,35913.897962
660.0,647,35943.078086
640.0,593,35967.602625
660.0,735,36002.582873
600.0,523,36026.454257
580.0,701,36056.762771
640.0,684,36091.30935
710.0,951,36133.296137
530.0,664,36162.210392
510.0,500,36184.58216
640.0,577,36212.670994
580.0,502,36232.024402
670.0,556,36260.794968
500.0,447,36279.443079
520.0,447,36302.560954
570.0,446,36321.332726
510.0,634,36351.05562
540.0,547,36375.452321
660.0,654,36405.618115
510.0,672,36435.637028
570.0,786,36470.591958
520.0,641,36499.246781
640.0,547,36526.969468
710.0,1102,36575.576334
610.0,762,36611.562165
460.0,643,36641.891019
460.0,618,36671.878135
650.0,637,36702.025033
1050.0,661,36732.560043
720.0,897,36775.217544
460.0,595,36800.478954
590.0,656,36830.964862
560.0,665,36861.683438
550.0,606,36891.541713
640.0,683,36922.183964
650.0,560,36949.458829
590.0,502,36971.782643
580.0,580,36996.145576
630.0,512,37020.000561
650.0,727,37055.482073
590.0,428,37074.085764
620.0,636,37104.403647
620.0,676,37135.384657
580.0,639,37165.850761
640.0,618,37195.831191
590.0,443,37214.718747
520.0,774,37251.360327
570.0,655,37282.20045
570.0,538,37307.014668
670.0,607,37337.505547
590.0,580,37362.968005
590.0,641,37393.732393
640.0,541,37418.729033
570.0,465,37442.414423
640.0,599,37472.292263
710.0,833,37509.955142
700.0,470,37533.779731
650.0,585,37559.011468
610.0,532,37583.38337
570.0,812,37624.395378
600.0,558,37648.877003
600.0,464,37667.976026
590.0,479,37691.807439
630.0,447,37715.121604
640.0,491,37734.755503
670.0,688,37770.201351
640.0,539,37795.088063
670.0,569,37820.338753
660.0,627,37850.683831
630.0,577,37876.08063
550.0,617,37906.658742
450.0,531,37931.586572
660.0,726,37967.577205
680.0,610,37997.481727
610.0,601,38022.993024
560.0,753,38059.04169
580.0,461,38082.598967
570.0,560,38107.424779
670.0,573,38132.386784
670.0,885,38173.984895
570.0,503,38197.000248
670.0,828,38231.265037
670.0,690,38265.542056
710.0,764,38301.370948
650.0,694,38332.146175
550.0,631,38362.227444
670.0,590,38387.436323
590.0,444,38410.657346
530.0,624,38441.028224
630.0,577,38466.316222
640.0,751,38502.775813
600.0,493,38527.26823
630.0,447,38546.596233
590.0,402,38565.278199
640.0,579,38595.014606
590.0,435,38613.788166
700.0,696,38644.935482
650.0,534,38674.02479
600.0,474,38693.239411
1080.0,829,38734.302455
600.0,405,38752.34618
560.0,540,38776.507388
570.0,462,38795.393942
570.0,642,38825.225544
1170.0,1062,38877.762945
660.0,576,38901.967722
690.0,780,38935.338934
600.0,762,38970.098172
670.0,641,39000.022781
580.0,465,39019.159398
590.0,459,39042.56259
670.0,612,39072.145901
700.0,665,39102.468241
670.0,611,39132.05341
640.0,510,39151.500519
690.0,592,39180.46088
600.0,461,39203.433859
490.0,462,39222.192466
600.0,501,39245.641644
660.0,566,39270.019119
610.0,607,39298.872489
600.0,546,39322.825676
590.0,733,39356.864967
580.0,640,39385.418161
720.0,673,39414.610716
610.0,387,39432.008117
610.0,613,39460.942516
670.0,653,39490.615783
690.0,629,39520.109846
680.0,616,39545.117294
630.0,680,39579.225819
600.0,629,39604.125383
520.0,605,39632.672776
590.0,549,39656.401752
530.0,797,39691.705017
560.0,551,39719.455863
580.0,617,39744.137498
590.0,627,39773.2887
410.0,583,39801.901443
650.0,654,39831.493467
440.0,387,39848.933773
630.0,687,39878.159907
610.0,821,39913.483289
660.0,685,39947.232949
650.0,784,39982.401188
610.0,672,40012.015491
600.0,576,40036.517385
590.0,554,40064.957835
580.0,665,40094.775417
660.0,538,40118.609627
520.0,408,40136.596414
560.0,722,40171.210732
600.0,591,40195.813805
640.0,574,40224.611147
610.0,744,40255.753314
550.0,684,40290.584461
530.0,564,40314.907148
590.0,744,40350.283996
450.0,523,40374.096639
590.0,584,40398.074678
630.0,681,40430.768924
520.0,601,40454.837404
610.0,617,40484.040355
580.0,601,40513.457229
590.0,639,40543.571413
620.0,668,40573.99065
540.0,661,40604.237146
560.0,552,40628.667024
690.0,1032,40676.474027
560.0,613,40705.644007
520.0,729,40736.459237
420.0,698,40770.846026
600.0,478,40789.471312
740.0,825,40828.9477
640.0,829,40864.408952
590.0,580,40892.814656
610.0,673,40922.311291
510.0,636,40951.509823
610.0,725,40981.913275
680.0,739,41016.943623
720.0,779,41052.636558
550.0,588,41081.412454
530.0,779,41117.050315
600.0,502,41140.697853
670.0,663,41170.619734
660.0,599,41195.239985
590.0,834,41235.375493
720.0,579,41258.985518
620.0,618,41287.01992
630.0,570,41310.883507
500.0,599,41339.592433
570.0,737,41374.867089
610.0,517,41398.72135
620.0,577,41423.369045
590.0,631,41452.750161
610.0,526,41476.415679
460.0,655,41505.699414
740.0,762,41540.57515
1150.0,634,41569.601323
630.0,569,41593.47578
620.0,452,41615.975908
620.0,614,41640.665116
620.0,551,41669.087821
680.0,784,41705.069346
650.0,616,41734.63435
720.0,727,41765.383065
620.0,638,41794.97678
590.0,435,41812.848978
560.0,835,41851.289312
620.0,544,41874.898757
630.0,671,41905.029775
600.0,490,41928.787725
640.0,522,41952.929606
630.0,480,41976.473146
750.0,767,42012.443926
750.0,704,42042.911392
630.0,486,42066.383638
700.0,770,42102.24993
650.0,737,42133.40881
580.0,686,42168.071509
640.0,631,42197.81303
810.0,912,42238.535039
620.0,733,42268.030257
740.0,851,42308.033089
640.0,533,42332.010161
630.0,545,42356.188778
730.0,653,42386.247609
700.0,696,42420.999105
650.0,581,42445.542665
560.0,497,42468.806966
770.0,791,42504.34481
570.0,485,42527.390829
610.0,593,42551.648799
810.0,996,42597.707192
690.0,801,42632.30647
670.0,601,42660.923077
670.0,636,42690.629109
660.0,723,42721.577367
310.0,640,42751.571478
540.0,484,42774.99082
670.0,639,42804.762972
680.0,680,42835.034207
670.0,704,42869.812833
640.0,561,42894.190288
570.0,589,42922.162723
600.0,440,42940.002507
700.0,551,42963.28369
680.0,706,42997.676657
640.0,683,43027.981118
510.0,528,43052.281135
510.0,544,43076.556775
710.0,590,43105.887391
640.0,740,43137.10104
550.0,466,43160.411292
690.0,611,43190.119388
630.0,550,43214.602959
640.0,500,43238.543403
720.0,637,43268.538383
630.0,663,43298.878016
640.0,587,43323.811904
660.0,878,43365.68209
630.0,654,43396.247966
700.0,610,43426.280991
1110.0,752,43462.153083
670.0,1017,43509.579642
680.0,602,43534.407434
610.0,750,43569.647664
630.0,542,43593.283379
600.0,496,43615.949666
820.0,1087,43662.134824
640.0,752,43697.339239
600.0,855,43738.605917
590.0,585,43763.284232
570.0,645,43793.148958
550.0,600,43822.755271
1020.0,695,43853.507323
640.0,571,43882.310731
720.0,662,43912.348457
670.0,571,43936.799969
590.0,621,43966.181629
690.0,765,44001.75503
630.0,482,44024.64942
640.0,636,44052.314684
620.0,431,44069.653168
630.0,646,44099.082098
650.0,534,44123.101588
650.0,791,44158.997331
610.0,955,44201.224
600.0,465,44224.317106
1010.0,769,44259.929397
670.0,601,44288.950811
580.0,637,44313.856192
900.0,986,44359.60121
680.0,637,44388.358933
640.0,608,44416.803845
750.0,849,44452.690673
650.0,534,44476.126019
620.0,544,44504.171252
470.0,500,44523.467047
530.0,566,44552.060144
660.0,565,44576.347545
700.0,906,44618.002075
730.0,778,44653.709964
520.0,590,44682.647733
640.0,680,44712.482791
600.0,769,44746.472068
630.0,678,44775.25783
600.0,558,44799.245553
680.0,680,44833.681218
560.0,733,44864.78488
570.0,727,44900.159535
710.0,737,44935.640521
750.0,741,44966.489219
690.0,756,45001.708543
780.0,993,45047.606587
720.0,694,45076.337804
540.0,671,45105.693981
720.0,791,45146.119998
670.0,599,45171.227015
740.0,632,45201.114959
670.0,731,45236.674943
680.0,766,45272.82444
540.0,471,45292.102732
710.0,774,45328.48949
690.0,896,45370.663248
650.0,546,45395.352447
640.0,811,45437.179875
1100.0,731,45468.679018
1050.0,705,45503.933764
550.0,715,45534.981755
1100.0,627,45565.029612
560.0,680,45595.731661
680.0,548,45624.549588
630.0,788,45660.742255
680.0,724,45691.723584
780.0,755,45727.041689
620.0,568,45755.490852
450.0,748,45785.894986
700.0,739,45820.454154
680.0,680,45849.970734
660.0,548,45873.694854
720.0,622,45902.48077
650.0,608,45930.759892
550.0,840,45966.458843
700.0,793,46006.447311
680.0,805,46042.711302
700.0,772,46078.352809
1110.0,844,46114.633484
600.0,604,46143.500414
610.0,702,46173.431742
580.0,580,46201.503555
610.0,624,46230.146648
590.0,813,46265.452999
620.0,801,46300.282671
630.0,868,46340.409217
