# {"t_start": 1546995228.9388888, "env_id": "BreakoutNoFrameskip-v4"} 
r,l,t
0.0,125,7.940187
2.0,202,13.367569
0.0,127,16.573768
2.0,202,21.259357
0.0,127,24.22839
1.0,155,27.694693
0.0,127,30.634545
0.0,129,33.719951
3.0,269,40.28731
0.0,125,43.342833
4.0,322,51.154572
3.0,248,57.374973
0.0,129,60.410979
5.0,329,68.138343
0.0,127,71.11323
0.0,127,74.176332
0.0,125,77.158384
0.0,129,80.24467
0.0,129,83.386196
0.0,129,86.477602
9.0,425,97.055218
0.0,125,100.033048
0.0,127,103.008115
0.0,129,106.220092
0.0,127,108.53529
0.0,127,111.543156
5.0,350,120.348716
0.0,127,123.049669
0.0,129,125.781551
2.0,202,130.121191
0.0,127,132.959357
0.0,127,135.803784
0.0,129,138.831374
0.0,125,141.80664
5.0,350,150.113945
0.0,127,153.157003
0.0,129,156.27923
5.0,350,165.273947
0.0,129,168.343989
0.0,129,171.512639
0.0,129,174.185423
0.0,127,177.479632
0.0,125,180.604071
0.0,127,183.920181
5.0,350,193.411241
0.0,127,196.497802
4.0,299,204.035678
0.0,125,207.162772
5.0,347,215.752154
0.0,127,219.075953
0.0,127,222.28631
0.0,129,225.53509
0.0,127,228.88887
0.0,127,232.158664
10.0,451,244.337413
0.0,129,247.783792
2.0,202,253.197887
5.0,350,262.025766
0.0,127,265.043118
0.0,129,268.599321
2.0,202,273.99295
5.0,372,284.849624
0.0,127,288.47875
0.0,127,292.080017
5.0,347,302.704147
5.0,350,312.259397
5.0,350,322.592978
4.0,283,330.33784
10.0,433,341.66346
0.0,127,344.95056
0.0,127,348.555214
0.0,129,351.931311
0.0,129,355.079084
2.0,202,360.312863
1.0,155,364.394245
3.0,248,371.735934
0.0,129,375.447953
11.0,498,390.088548
0.0,127,393.344838
0.0,129,396.669734
3.0,246,402.831238
5.0,352,412.786038
2.0,200,418.37519
0.0,129,421.12524
0.0,127,424.743048
2.0,200,431.052821
2.0,202,436.040698
1.0,173,440.58313
0.0,127,443.802887
1.0,157,447.73443
2.0,200,453.51816
9.0,404,465.493864
5.0,350,476.287053
0.0,127,479.029421
2.0,188,485.091186
13.0,459,498.533415
1.0,177,503.663541
0.0,125,506.351319
4.0,298,514.785899
2.0,202,519.931589
10.0,433,532.010513
9.0,404,543.196311
0.0,125,546.352632
5.0,328,555.422421
4.0,260,562.894618
0.0,129,566.505814
3.0,248,572.868786
0.0,125,576.490882
1.0,171,582.031129
5.0,330,591.271201
2.0,217,597.772338
4.0,296,606.067853
3.0,230,611.568052
11.0,461,624.29109
2.0,199,629.377228
0.0,123,632.59348
1.0,178,638.156793
13.0,527,654.214206
1.0,174,658.921799
1.0,175,663.613757
2.0,202,669.737783
1.0,155,673.952266
1.0,155,678.047253
1.0,173,682.507816
2.0,204,687.360838
2.0,204,692.831831
2.0,184,697.648822
9.0,403,708.879255
0.0,127,712.439632
0.0,125,715.871164
4.0,277,724.233268
3.0,250,731.503433
1.0,153,735.440611
1.0,175,739.901501
2.0,183,744.975776
2.0,182,749.689461
3.0,230,756.133349
0.0,125,758.853205
3.0,225,765.228411
0.0,129,768.580346
3.0,251,775.773367
13.0,530,791.471127
5.0,309,799.917172
1.0,153,804.02727
4.0,275,811.705828
6.0,353,821.161092
2.0,209,827.256025
3.0,214,832.808043
14.0,507,848.390836
5.0,319,857.291477
2.0,206,863.723552
8.0,425,875.727121
6.0,346,884.925375
6.0,329,893.336837
1.0,155,897.54832
1.0,155,901.914916
1.0,178,908.121925
1.0,178,912.897791
1.0,155,917.414162
5.0,347,928.135441
11.0,428,940.862915
3.0,232,946.650475
1.0,154,951.740216
4.0,319,960.497337
9.0,328,968.951642
14.0,586,985.672475
8.0,437,998.349591
6.0,379,1009.099326
2.0,206,1014.904242
5.0,326,1023.497875
9.0,497,1037.729828
3.0,255,1045.366583
1.0,155,1049.366053
8.0,447,1061.133349
4.0,248,1067.659196
1.0,155,1071.53038
14.0,555,1087.50281
0.0,125,1090.902894
1.0,157,1094.969017
3.0,234,1101.423036
14.0,617,1118.574767
0.0,129,1122.084608
5.0,295,1130.173442
6.0,372,1141.004676
8.0,412,1151.985742
2.0,221,1157.668522
6.0,368,1167.695324
4.0,247,1174.78456
12.0,498,1188.834033
2.0,204,1194.036193
6.0,357,1203.931308
3.0,215,1209.449867
4.0,325,1219.911281
17.0,623,1239.869963
9.0,329,1249.221848
3.0,269,1256.805235
11.0,472,1270.539203
2.0,201,1276.215807
0.0,129,1279.570221
12.0,479,1293.820956
3.0,269,1301.435388
12.0,452,1313.876267
2.0,206,1320.033223
1.0,176,1324.990244
4.0,280,1333.016279
3.0,252,1340.259314
13.0,500,1355.697701
9.0,331,1365.199925
4.0,302,1374.183467
12.0,600,1392.819262
7.0,410,1404.861626
2.0,204,1410.642415
7.0,405,1422.973757
5.0,331,1432.987658
5.0,325,1442.741483
4.0,285,1451.498949
5.0,332,1461.140147
5.0,326,1471.649367
14.0,500,1487.158324
2.0,185,1493.22686
2.0,198,1499.092459
9.0,345,1510.606998
5.0,312,1519.901913
4.0,277,1528.852083
3.0,251,1536.635738
4.0,284,1545.366166
9.0,352,1556.642806
7.0,422,1569.808365
8.0,417,1582.405324
8.0,300,1591.521413
12.0,497,1606.535507
5.0,331,1617.113573
4.0,302,1626.822548
12.0,485,1642.338188
17.0,491,1658.165643
4.0,303,1667.514044
5.0,331,1678.040618
19.0,684,1699.368065
3.0,270,1707.753842
5.0,296,1716.456845
9.0,471,1731.895722
12.0,503,1748.853621
6.0,356,1760.225428
4.0,303,1770.394918
8.0,447,1784.066173
3.0,250,1792.172186
14.0,552,1808.166631
9.0,346,1819.388347
11.0,596,1838.308321
12.0,520,1855.123381
13.0,581,1873.747218
8.0,422,1887.561528
19.0,657,1908.5567
5.0,353,1919.583558
15.0,420,1933.074476
16.0,601,1951.552297
18.0,611,1971.097148
4.0,303,1980.504696
18.0,653,2001.270821
11.0,509,2017.028548
11.0,412,2029.1843
13.0,567,2046.870726
11.0,390,2058.765434
3.0,214,2065.662705
18.0,647,2087.122749
14.0,406,2100.439232
9.0,477,2115.178846
18.0,577,2134.184305
10.0,540,2152.141343
9.0,462,2166.098999
10.0,524,2182.535262
13.0,546,2200.946531
6.0,397,2213.895375
21.0,624,2232.728429
17.0,359,2243.454758
3.0,232,2250.64396
3.0,233,2257.871783
4.0,270,2265.556394
7.0,399,2277.563942
4.0,295,2287.027564
4.0,305,2296.817896
4.0,264,2304.695789
2.0,188,2309.99808
8.0,475,2324.303447
5.0,314,2333.886025
18.0,642,2353.794473
7.0,379,2365.592368
5.0,350,2376.645942
4.0,263,2384.783139
9.0,461,2399.830658
4.0,263,2407.804347
11.0,544,2424.929645
15.0,590,2444.65562
8.0,397,2456.559744
10.0,493,2471.99846
4.0,279,2481.101117
9.0,492,2496.81353
3.0,212,2503.281745
8.0,414,2516.571738
6.0,340,2526.629215
12.0,496,2542.295471
8.0,420,2556.024556
14.0,536,2572.788172
17.0,504,2589.306991
17.0,578,2608.119585
4.0,258,2616.001272
8.0,404,2629.275597
11.0,527,2646.697275
9.0,460,2659.819833
8.0,405,2672.231662
21.0,758,2697.026791
6.0,382,2708.686786
25.0,628,2728.038085
5.0,303,2737.759733
20.0,684,2758.519635
6.0,331,2768.762176
6.0,327,2778.123575
25.0,657,2798.227759
18.0,608,2816.520838
7.0,390,2828.152583
8.0,388,2840.104256
11.0,592,2857.826907
12.0,572,2876.462542
0.0,127,2880.367308
16.0,624,2900.943572
12.0,321,2910.296917
18.0,517,2926.488791
16.0,552,2943.338561
23.0,711,2967.628775
21.0,699,2989.823241
10.0,556,3007.924902
4.0,269,3015.863812
6.0,397,3027.706465
8.0,447,3041.240925
8.0,479,3056.979202
23.0,612,3076.83939
20.0,682,3099.518617
23.0,503,3115.088002
12.0,321,3125.57024
9.0,532,3142.843249
17.0,443,3156.94992
15.0,717,3180.594577
16.0,633,3200.52048
9.0,496,3216.279021
25.0,733,3239.370412
11.0,515,3255.616012
36.0,851,3281.906922
14.0,548,3298.277239
12.0,321,3309.082234
13.0,350,3319.593475
10.0,513,3335.693944
14.0,552,3353.176628
16.0,608,3371.448234
6.0,342,3382.865446
15.0,414,3396.70663
19.0,600,3415.960202
13.0,352,3426.999563
7.0,381,3438.889631
10.0,395,3451.934793
7.0,407,3464.869517
11.0,569,3483.420518
29.0,843,3510.567818
14.0,654,3530.881341
17.0,579,3549.232783
22.0,822,3576.378036
12.0,530,3592.899796
12.0,304,3601.792081
22.0,688,3624.507237
10.0,451,3638.218302
8.0,410,3651.031398
15.0,574,3669.190341
12.0,635,3689.153697
18.0,702,3711.422898
9.0,499,3726.656512
21.0,730,3750.023125
8.0,456,3764.003377
16.0,512,3780.840221
9.0,488,3796.230697
18.0,409,3809.015547
23.0,792,3834.575072
18.0,698,3855.471422
8.0,446,3869.81138
9.0,467,3883.99533
13.0,477,3899.5441
19.0,749,3922.397205
18.0,598,3940.968196
13.0,578,3959.983921
15.0,422,3974.44309
26.0,795,4000.748071
15.0,562,4019.894395
15.0,648,4041.447261
26.0,537,4058.411789
16.0,698,4080.891399
14.0,585,4098.988481
16.0,682,4120.686177
17.0,484,4136.694095
16.0,604,4155.134065
20.0,612,4175.215744
17.0,353,4186.103763
10.0,531,4203.105314
7.0,374,4215.344841
10.0,541,4231.905375
12.0,571,4250.381429
15.0,604,4269.962121
9.0,437,4282.880178
17.0,704,4305.117512
22.0,724,4328.056228
18.0,595,4347.068874
13.0,499,4363.118885
20.0,777,4387.99592
21.0,711,4411.125834
24.0,695,4433.445132
9.0,482,4449.619228
8.0,403,4462.128347
12.0,585,4481.069453
15.0,577,4499.278495
19.0,577,4517.914336
6.0,356,4529.077125
25.0,722,4550.905257
19.0,572,4568.858207
11.0,588,4586.839747
12.0,597,4605.023709
12.0,479,4620.014975
23.0,800,4645.843113
14.0,543,4663.03469
18.0,558,4681.663418
21.0,727,4704.295125
14.0,399,4717.312068
13.0,626,4736.950373
11.0,567,4755.416705
22.0,713,4778.20164
18.0,699,4800.554606
7.0,405,4813.397058
13.0,499,4829.158987
11.0,502,4843.873173
6.0,375,4855.869819
14.0,383,4867.738672
15.0,592,4887.083236
10.0,487,4902.5283
8.0,406,4915.891243
16.0,478,4930.837015
17.0,602,4950.512319
10.0,517,4966.688141
12.0,421,4980.534981
18.0,634,5001.343462
9.0,516,5018.219423
19.0,632,5038.761142
11.0,565,5056.428556
15.0,587,5075.055716
24.0,662,5095.678341
11.0,582,5114.120542
7.0,407,5126.540894
7.0,386,5138.131504
13.0,659,5159.100364
17.0,527,5175.121485
10.0,516,5192.003472
23.0,684,5213.359746
12.0,321,5224.080166
17.0,721,5246.122833
23.0,546,5263.040733
17.0,659,5284.949244
15.0,664,5306.644799
5.0,274,5315.101351
13.0,491,5330.222364
11.0,532,5347.845676
23.0,651,5369.138143
22.0,515,5384.201423
15.0,585,5402.03378
20.0,703,5425.350258
17.0,546,5442.897818
13.0,607,5462.784973
12.0,584,5480.875341
10.0,499,5496.424255
16.0,590,5514.997206
22.0,537,5532.011886
16.0,723,5554.961458
9.0,380,5567.317687
21.0,801,5592.044641
17.0,696,5613.318877
12.0,472,5628.2532
9.0,431,5641.199979
8.0,433,5654.232594
12.0,567,5672.40311
17.0,502,5687.968193
13.0,530,5703.654086
17.0,579,5722.03583
19.0,658,5743.67767
26.0,560,5760.345794
21.0,490,5775.830903
15.0,615,5796.15523
14.0,401,5808.760032
8.0,424,5822.074296
16.0,645,5842.067991
22.0,726,5865.356881
12.0,576,5883.150095
16.0,552,5900.690305
17.0,673,5922.999608
16.0,551,5940.472507
13.0,602,5960.036697
12.0,550,5977.193905
21.0,657,5997.685052
11.0,535,6015.216658
11.0,479,6030.53424
9.0,431,6043.9496
10.0,511,6060.73522
13.0,568,6078.765369
17.0,730,6101.377096
12.0,423,6114.009168
19.0,397,6126.181971
9.0,477,6141.991425
20.0,704,6165.013846
9.0,484,6181.512681
23.0,680,6203.99453
19.0,700,6226.657542
12.0,323,6237.539212
21.0,620,6257.258904
21.0,623,6276.205995
16.0,747,6299.836809
18.0,653,6320.696275
12.0,488,6336.293567
9.0,470,6351.204668
20.0,582,6369.616322
15.0,689,6391.367959
8.0,443,6405.266287
15.0,604,6424.669239
28.0,860,6452.151598
15.0,422,6464.844686
16.0,452,6478.070633
8.0,433,6491.225245
9.0,437,6505.625107
27.0,797,6530.322157
14.0,472,6545.415229
11.0,513,6562.350156
15.0,612,6583.154828
18.0,663,6605.043621
18.0,680,6627.114465
28.0,853,6656.158496
14.0,558,6673.876786
13.0,511,6689.848213
27.0,746,6713.612874
30.0,785,6738.713382
26.0,823,6765.741504
16.0,648,6788.075972
17.0,501,6804.729517
17.0,677,6826.566379
31.0,837,6853.112312
11.0,541,6871.546035
20.0,804,6897.044558
15.0,704,6919.08398
22.0,428,6932.077235
15.0,600,6950.96182
21.0,619,6970.855056
7.0,405,6983.228136
8.0,394,6995.808314
14.0,574,7013.4485
17.0,361,7025.054886
20.0,767,7051.171703
14.0,529,7068.863088
25.0,699,7091.396507
15.0,437,7104.81159
25.0,678,7126.15555
12.0,545,7144.204411
19.0,680,7166.823097
15.0,692,7188.125082
17.0,647,7208.501794
17.0,513,7225.525539
28.0,664,7246.500902
23.0,470,7261.559806
13.0,488,7276.498896
26.0,549,7293.587539
21.0,690,7317.486285
12.0,609,7336.328051
18.0,664,7357.893945
19.0,413,7370.594689
19.0,661,7392.187187
21.0,604,7410.583781
9.0,476,7425.604116
19.0,655,7447.337372
23.0,703,7470.3759
20.0,672,7491.314148
18.0,608,7510.07267
16.0,604,7527.955111
25.0,815,7554.115802
15.0,513,7570.775816
15.0,620,7590.240214
23.0,740,7613.393986
21.0,521,7630.461652
15.0,613,7650.34867
19.0,723,7673.371814
16.0,598,7692.810118
20.0,599,7710.820096
24.0,678,7732.910519
19.0,579,7751.123955
13.0,502,7767.319241
13.0,601,7785.974749
20.0,760,7809.852279
12.0,596,7829.372799
17.0,673,7850.973579
18.0,563,7868.598114
24.0,576,7886.63609
24.0,635,7906.492882
38.0,868,7932.332425
15.0,642,7952.508031
23.0,582,7970.495494
14.0,688,7991.684133
28.0,418,8004.979154
27.0,850,8032.271974
19.0,578,8049.906311
27.0,600,8070.079177
21.0,555,8088.77196
26.0,778,8114.725753
28.0,755,8138.17963
22.0,761,8161.912372
24.0,765,8187.864162
24.0,669,8210.167992
33.0,910,8239.731373
19.0,576,8258.175361
24.0,885,8287.955935
27.0,509,8303.358584
16.0,631,8322.511137
20.0,594,8342.935939
27.0,798,8368.042055
15.0,521,8384.308875
13.0,568,8401.747353
29.0,838,8429.449271
15.0,592,8447.907855
7.0,378,8459.821523
20.0,798,8485.078283
18.0,684,8505.377446
27.0,783,8530.229479
23.0,533,8547.636317
27.0,736,8571.318941
12.0,563,8588.079467
20.0,674,8609.869843
16.0,588,8629.751416
30.0,823,8657.972293
23.0,774,8683.253095
19.0,629,8704.05999
16.0,601,8723.383686
31.0,872,8750.191825
38.0,956,8779.897436
6.0,348,8789.722759
35.0,1017,8822.054764
23.0,579,8840.472245
16.0,636,8859.765364
21.0,678,8881.549926
34.0,642,8902.274348
35.0,796,8926.189879
16.0,648,8946.381238
34.0,944,8976.428262
32.0,922,9005.784794
22.0,623,9025.577655
25.0,794,9050.892512
23.0,544,9069.165487
26.0,770,9094.610182
28.0,806,9120.396642
10.0,527,9136.290582
25.0,798,9161.990736
12.0,543,9179.226701
10.0,458,9194.280077
20.0,686,9216.11116
14.0,672,9237.725363
31.0,633,9258.399606
42.0,1062,9292.273888
13.0,547,9308.956347
26.0,840,9336.725743
27.0,831,9363.245273
50.0,944,9392.123836
17.0,731,9415.471942
19.0,787,9440.911214
20.0,709,9463.899171
36.0,1011,9496.49154
29.0,1021,9530.622867
20.0,812,9555.964812
21.0,751,9579.409751
41.0,972,9611.184667
39.0,908,9639.497046
14.0,565,9657.581109
33.0,850,9684.863281
22.0,708,9706.355674
16.0,722,9728.809689
20.0,664,9748.56431
21.0,807,9774.435154
29.0,642,9795.178866
26.0,722,9817.54265
32.0,740,9841.657562
20.0,747,9866.571982
21.0,810,9891.938194
18.0,646,9912.595683
19.0,809,9939.25141
35.0,823,9965.243832
37.0,696,9987.728771
11.0,394,9999.718944
14.0,639,10019.29844
24.0,763,10043.941766
18.0,753,10068.7549
6.0,336,10079.237774
23.0,839,10105.742254
16.0,493,10120.502764
24.0,789,10144.55488
22.0,803,10169.440008
21.0,687,10191.322082
40.0,1220,10231.502892
27.0,755,10255.40571
17.0,779,10281.348559
41.0,988,10312.716196
13.0,541,10330.283669
35.0,808,10357.204465
30.0,759,10381.547972
23.0,563,10398.330986
29.0,845,10424.687396
37.0,1019,10457.711905
21.0,791,10482.763292
16.0,688,10505.242435
24.0,832,10531.571313
16.0,623,10552.370762
18.0,631,10572.842254
27.0,824,10599.861108
26.0,924,10629.534295
24.0,616,10650.426177
62.0,1110,10689.015126
25.0,908,10719.317252
19.0,678,10742.472311
47.0,927,10773.903711
19.0,700,10796.699121
18.0,530,10813.662088
24.0,937,10846.074263
20.0,633,10867.245119
15.0,692,10889.456899
43.0,1161,10928.215785
28.0,653,10948.583252
26.0,1005,10979.890857
27.0,794,11005.550905
24.0,780,11030.370732
27.0,763,11053.045886
14.0,576,11071.561727
23.0,575,11089.236032
17.0,698,11111.486496
39.0,723,11133.618523
20.0,700,11155.836882
35.0,844,11183.592008
14.0,527,11200.719618
51.0,1221,11239.697649
17.0,483,11254.671287
33.0,564,11272.205871
25.0,630,11292.450094
46.0,1070,11328.600439
52.0,1034,11361.761881
22.0,877,11390.006031
28.0,883,11418.840587
19.0,621,11439.126736
25.0,437,11452.668437
22.0,742,11476.787491
20.0,839,11503.845004
38.0,992,11535.089227
26.0,789,11560.655024
40.0,558,11578.594428
33.0,980,11609.679835
33.0,1092,11643.899425
20.0,547,11660.463851
31.0,863,11688.334546
67.0,1195,11725.667622
26.0,683,11746.511175
28.0,823,11773.148557
32.0,663,11793.003921
50.0,1261,11833.23941
54.0,1253,11873.703976
16.0,701,11895.942216
31.0,814,11922.334412
17.0,500,11937.890666
28.0,874,11966.4702
28.0,897,11994.746848
48.0,1051,12027.355298
35.0,681,12048.677996
30.0,592,12067.923595
38.0,919,12097.578424
33.0,1024,12132.26845
48.0,1068,12166.189313
27.0,860,12194.086083
50.0,1238,12232.645831
22.0,881,12260.795882
31.0,719,12283.593672
48.0,1142,12318.541957
23.0,828,12345.065991
31.0,775,12369.778069
12.0,594,12387.381027
19.0,762,12411.423908
44.0,694,12432.894012
12.0,557,12450.344992
50.0,1006,12482.353118
22.0,690,12505.655585
28.0,879,12533.079193
51.0,858,12560.013416
27.0,743,12584.104468
39.0,888,12612.216044
19.0,579,12630.716513
26.0,746,12655.820637
62.0,971,12687.878633
35.0,1082,12722.753195
72.0,1529,12771.556178
24.0,840,12798.664946
33.0,1029,12833.500601
17.0,577,12851.70175
42.0,1142,12887.155891
41.0,1047,12920.422664
45.0,1049,12954.509516
18.0,719,12978.1499
47.0,1146,13013.559636
49.0,725,13036.553156
48.0,971,13067.10085
84.0,1496,13117.672087
27.0,857,13145.845249
24.0,594,13164.00931
37.0,1092,13200.035486
16.0,656,13221.345259
29.0,817,13247.516946
27.0,788,13273.482506
25.0,920,13303.746747
45.0,905,13334.086147
22.0,791,13359.35082
50.0,1134,13395.57883
23.0,819,13421.793469
23.0,731,13445.859461
44.0,1046,13480.189656
29.0,1033,13512.771489
36.0,1076,13548.06706
60.0,1225,13586.136173
50.0,1328,13629.35526
47.0,1089,13663.962489
63.0,1415,13708.421216
21.0,716,13731.441717
57.0,741,13754.783999
64.0,1363,13798.599436
72.0,1177,13836.441862
30.0,668,13857.47416
37.0,1069,13890.784102
25.0,684,13912.157005
34.0,947,13941.46579
37.0,1047,13975.688558
47.0,1101,14010.705466
48.0,999,14042.29633
12.0,528,14058.364409
81.0,1444,14104.356281
34.0,936,14133.594976
34.0,894,14163.044015
54.0,1223,14202.371573
58.0,1407,14247.068743
30.0,852,14272.996633
58.0,1133,14309.742086
50.0,1153,14346.95847
72.0,1296,14389.281358
18.0,726,14412.732388
53.0,1263,14454.223693
46.0,1001,14487.043259
17.0,729,14509.829895
30.0,1056,14542.866433
42.0,954,14573.572464
57.0,1393,14619.792442
34.0,562,14636.672484
81.0,1575,14687.060806
29.0,1035,14720.328732
65.0,1341,14763.901477
38.0,812,14790.885448
63.0,1198,14829.533958
70.0,1328,14871.36475
56.0,1349,14914.706219
34.0,819,14940.176313
211.0,1421,14984.582727
63.0,1465,15032.786875
250.0,1078,15067.375369
61.0,986,15097.882583
51.0,1162,15135.138371
32.0,931,15165.877464
53.0,1338,15208.396059
33.0,820,15235.206892
67.0,1548,15285.16314
23.0,902,15315.361483
19.0,790,15341.256696
63.0,1343,15382.989601
74.0,1487,15430.075318
50.0,987,15461.958303
69.0,1242,15502.552557
62.0,1399,15547.537091
81.0,1481,15594.369744
46.0,1154,15631.162067
39.0,1024,15663.582132
48.0,841,15689.625359
21.0,716,15712.159316
42.0,1069,15747.323686
30.0,848,15775.507676
43.0,957,15804.539964
55.0,1138,15841.168374
31.0,813,15867.377133
94.0,1735,15922.228079
30.0,950,15952.495602
43.0,969,15983.51444
41.0,1002,16014.491379
49.0,792,16039.206279
41.0,1007,16071.535432
52.0,854,16098.078143
47.0,1255,16137.630348
24.0,613,16157.615028
33.0,889,16185.366213
38.0,964,16215.472495
40.0,1095,16249.685251
37.0,1010,16281.90643
38.0,1036,16314.525927
47.0,1152,16350.665595
81.0,1165,16388.43065
19.0,549,16405.77829
39.0,986,16437.386463
256.0,1507,16486.368675
141.0,1225,16524.562074
94.0,1349,16567.743788
37.0,1152,16603.786862
57.0,1317,16646.147008
27.0,653,16667.482894
37.0,1019,16698.506185
32.0,840,16723.336392
97.0,1404,16767.362473
25.0,805,16792.326678
26.0,888,16821.255404
37.0,975,16850.992284
80.0,1242,16890.970293
39.0,818,16916.684733
87.0,1252,16956.009024
218.0,1300,16997.212922
341.0,1015,17029.125727
59.0,1353,17072.3866
57.0,1069,17105.744545
5.0,327,17116.630633
26.0,873,17144.618921
52.0,1260,17183.378992
40.0,960,17214.223815
353.0,958,17245.926748
28.0,867,17273.366338
24.0,724,17295.288843
57.0,1114,17332.927464
53.0,1147,17369.572991
33.0,813,17395.888259
70.0,1104,17430.354391
86.0,1105,17465.112429
41.0,1034,17499.08178
39.0,972,17530.116732
26.0,648,17551.263263
53.0,1122,17587.837739
40.0,888,17615.959939
46.0,637,17636.650762
54.0,654,17656.951037
43.0,923,17687.226579
41.0,832,17714.156221
53.0,1174,17751.503281
42.0,822,17778.919419
51.0,1115,17815.016696
56.0,1103,17850.353764
45.0,1069,17883.745843
24.0,860,17911.805345
42.0,937,17941.531144
44.0,1109,17975.102301
38.0,933,18004.830636
72.0,1331,18048.082867
71.0,1238,18088.137444
58.0,1022,18119.596874
35.0,938,18149.809037
35.0,691,18171.8257
43.0,879,18199.974447
45.0,824,18225.865956
63.0,724,18247.71349
11.0,502,18264.10606
54.0,1229,18303.131785
61.0,1503,18351.13776
72.0,1376,18393.761586
62.0,1275,18434.584446
104.0,1558,18485.170927
268.0,1477,18533.866554
76.0,1499,18582.289696
69.0,1403,18626.719468
67.0,966,18657.984597
41.0,1077,18692.720367
19.0,724,18715.5541
47.0,1217,18754.019031
94.0,1594,18805.444471
213.0,1090,18839.834258
89.0,1419,18883.68183
74.0,810,18909.197321
34.0,947,18940.40908
49.0,955,18971.511675
19.0,775,18996.797508
57.0,943,19025.750002
40.0,1237,19064.664346
67.0,1312,19107.313319
93.0,1111,19145.299416
90.0,1559,19195.270192
334.0,1022,19226.856861
117.0,1479,19273.547795
69.0,1356,19316.130952
68.0,1343,19358.772337
96.0,1432,19405.721158
35.0,707,19428.065117
41.0,1033,19460.472284
55.0,1002,19492.623129
59.0,1252,19532.78213
19.0,652,19554.197978
21.0,676,19575.24184
26.0,786,19601.62307
37.0,931,19631.414809
20.0,795,19656.408377
45.0,962,19686.922778
77.0,1656,19741.273199
60.0,1350,19785.307005
30.0,648,19806.372362
37.0,938,19835.445576
28.0,933,19866.127202
38.0,766,19890.988029
57.0,1124,19927.286189
60.0,1100,19962.944205
209.0,969,19993.351588
54.0,1110,20029.588793
70.0,1298,20071.639324
62.0,1358,20114.157567
46.0,1003,20145.487592
28.0,592,20164.371941
9.0,423,20177.365668
50.0,1109,20213.140823
42.0,1123,20248.929461
54.0,1127,20284.607707
87.0,1413,20330.369475
68.0,905,20359.431667
77.0,1521,20407.713358
60.0,1233,20447.906175
250.0,1398,20492.112677
74.0,994,20523.776619
83.0,1608,20576.054124
300.0,1667,20629.499219
62.0,1195,20667.008885
67.0,1067,20702.173291
37.0,1016,20733.13016
289.0,1258,20774.312997
132.0,1634,20829.425473
60.0,1189,20867.377477
272.0,1673,20922.27609
107.0,1480,20970.08052
63.0,1127,21006.40723
79.0,1309,21048.062775
284.0,1762,21102.905049
76.0,1526,21152.357194
261.0,1457,21198.460481
49.0,1078,21232.141266
77.0,1413,21277.150314
80.0,1352,21320.892941
69.0,1350,21362.910081
72.0,1369,21408.174609
96.0,1434,21455.006333
99.0,1317,21497.510725
98.0,1236,21535.908589
255.0,1647,21588.845435
30.0,792,21612.821748
88.0,1519,21661.473534
55.0,1146,21698.208337
37.0,1069,21733.168778
71.0,1169,21768.663368
343.0,1269,21810.61559
74.0,970,21841.605698
106.0,1669,21897.062165
74.0,1197,21934.568186
83.0,696,21957.221269
263.0,1300,21998.140254
69.0,1173,22036.840096
41.0,852,22063.275945
230.0,1091,22097.530957
57.0,1207,22135.497748
295.0,1763,22191.735609
55.0,1008,22223.988033
300.0,1016,22256.803391
45.0,875,22284.49263
45.0,1104,22320.109498
82.0,1418,22366.00529
225.0,1409,22411.499889
206.0,969,22442.931617
63.0,1418,22488.26963
92.0,1428,22534.429231
86.0,1378,22580.78504
32.0,676,22602.609793
16.0,677,22625.256322
60.0,1237,22665.289275
310.0,1505,22711.715014
81.0,1268,22751.910606
45.0,976,22781.987307
42.0,884,22809.796204
117.0,1550,22859.063784
109.0,1784,22914.6185
61.0,672,22936.681619
77.0,1072,22971.77631
166.0,1616,23023.824522
230.0,934,23053.419759
90.0,1422,23099.040992
68.0,1274,23139.476868
134.0,1609,23192.453327
116.0,1490,23239.469628
42.0,702,23262.225358
143.0,1666,23315.129585
134.0,1630,23367.557694
141.0,1778,23427.278645
59.0,1143,23462.884394
112.0,1416,23508.339879
46.0,1076,23542.000227
25.0,749,23565.462422
223.0,968,23595.889631
252.0,1467,23643.07861
277.0,1448,23689.873767
38.0,994,23720.927417
66.0,1053,23754.374076
184.0,752,23777.819242
149.0,1394,23823.303124
178.0,1464,23868.741953
82.0,1068,23903.03067
126.0,1459,23949.699034
286.0,1602,24000.597475
75.0,1263,24041.074051
48.0,1099,24077.322618
43.0,965,24107.796731
69.0,1132,24145.100957
61.0,1165,24181.144689
98.0,1489,24227.733698
37.0,1006,24260.464052
39.0,821,24285.810277
81.0,1506,24333.282925
197.0,2036,24399.439515
78.0,1260,24439.256644
80.0,1262,24481.311074
302.0,1323,24523.382856
129.0,1562,24575.045371
63.0,1399,24618.280964
216.0,1381,24662.390587
129.0,1613,24712.286223
191.0,1897,24774.862545
111.0,1329,24817.194399
124.0,1487,24864.249459
88.0,1375,24908.20596
107.0,1514,24955.716741
112.0,1656,25006.45531
232.0,1730,25062.631896
46.0,1120,25099.099529
109.0,1404,25143.520034
26.0,866,25170.771147
60.0,1014,25202.990881
351.0,1894,25263.326305
207.0,746,25286.810172
111.0,1687,25341.03444
201.0,1568,25389.903024
50.0,1247,25429.740119
93.0,1429,25475.298553
59.0,1253,25515.263162
42.0,978,25544.21497
90.0,1442,25591.914562
115.0,1426,25639.230491
279.0,1326,25680.504281
151.0,1479,25726.381905
80.0,1315,25769.554239
69.0,1581,25818.405102
69.0,1071,25853.377301
273.0,1453,25898.289948
269.0,1734,25954.453063
92.0,1241,25993.631699
56.0,1108,26030.4334
47.0,988,26061.867995
75.0,1272,26103.493068
206.0,1811,26159.202616
236.0,1718,26214.345615
76.0,1341,26257.095619
294.0,1709,26311.110896
42.0,923,26340.722291
83.0,1088,26376.260223
100.0,1381,26420.351313
224.0,1320,26461.772316
187.0,1784,26517.442418
78.0,1390,26561.160958
309.0,1329,26603.086467
74.0,1524,26651.502542
60.0,1293,26692.786786
76.0,1446,26738.668302
65.0,1216,26777.269385
59.0,1128,26814.465398
243.0,1422,26861.687655
150.0,1558,26911.720983
100.0,1477,26959.064906
117.0,1540,27008.9924
84.0,1161,27045.842915
66.0,1185,27084.522471
60.0,1187,27122.557242
245.0,1481,27169.983694
50.0,896,27198.84471
191.0,1146,27236.752982
66.0,1181,27274.793406
166.0,1325,27315.793782
299.0,1774,27371.976553
32.0,906,27400.860361
97.0,1315,27440.724176
52.0,1270,27480.256582
384.0,1217,27519.763497
101.0,1445,27566.046135
92.0,1283,27606.161026
79.0,1464,27652.448948
118.0,1519,27702.258394
159.0,1385,27747.273835
52.0,939,27777.481361
290.0,1291,27818.725622
211.0,1896,27878.342708
75.0,1311,27921.175279
235.0,1939,27982.983309
87.0,1175,28021.337892
274.0,1300,28064.054323
82.0,1265,28103.748676
87.0,1339,28146.874915
261.0,1687,28199.822334
335.0,1879,28258.373768
103.0,1440,28304.795709
125.0,1616,28355.999458
115.0,1246,28395.365796
298.0,1882,28454.508409
139.0,1459,28500.769291
55.0,1143,28538.321003
182.0,1371,28585.669021
90.0,1353,28627.992514
276.0,1264,28667.78663
96.0,1495,28717.145446
64.0,1503,28765.851326
35.0,545,28783.38348
105.0,1780,28837.674451
108.0,1538,28888.482224
55.0,1080,28922.147359
320.0,1880,28980.924464
242.0,1520,29029.209503
83.0,1499,29077.030328
301.0,1749,29134.482259
56.0,1016,29167.241961
88.0,1287,29208.252167
143.0,1898,29267.555474
165.0,1722,29321.661435
86.0,1320,29363.233843
97.0,1456,29407.90443
188.0,881,29436.467173
50.0,1220,29476.098139
294.0,1838,29535.125565
170.0,1623,29586.960448
126.0,1551,29636.747779
225.0,1795,29694.42189
334.0,1552,29746.796783
172.0,1460,29795.581045
87.0,1246,29835.261034
70.0,1304,29875.391327
144.0,1774,29936.562754
303.0,1767,29992.561677
286.0,1270,30032.960983
128.0,1778,30089.834224
264.0,1135,30126.597475
318.0,1696,30180.697086
257.0,1522,30229.787008
350.0,1552,30278.989295
96.0,1349,30322.305903
84.0,1260,30364.319767
225.0,1701,30418.770137
130.0,1673,30473.288886
232.0,1516,30521.841824
234.0,1227,30560.402065
251.0,1599,30610.084936
270.0,1412,30654.409849
44.0,1147,30691.354741
82.0,1000,30722.009099
92.0,1469,30770.116926
55.0,1359,30812.173214
114.0,1278,30853.81764
73.0,1321,30895.251061
74.0,1459,30941.914661
73.0,1011,30972.308088
110.0,1641,31024.960942
63.0,1383,31069.895871
25.0,704,31092.050231
67.0,1261,31133.567027
319.0,1317,31176.458426
196.0,1910,31236.991028
319.0,1384,31280.972288
143.0,1659,31334.893932
96.0,1203,31376.479234
54.0,1293,31420.439827
117.0,1388,31466.511571
88.0,1318,31510.725426
108.0,1426,31558.061035
149.0,1491,31608.685688
116.0,1322,31650.755299
351.0,1545,31701.712556
95.0,1341,31744.504333
342.0,1440,31790.593219
114.0,1504,31839.541302
53.0,1190,31877.122919
300.0,1715,31932.711857
42.0,1174,31970.077208
93.0,1529,32022.546621
98.0,1468,32073.24972
271.0,1649,32128.729812
133.0,1417,32178.050353
96.0,1578,32231.152812
162.0,1576,32282.128158
247.0,1491,32330.646573
89.0,1415,32375.053177
114.0,1586,32427.616616
88.0,1346,32470.214362
87.0,1473,32517.280324
112.0,1666,32572.578673
160.0,1745,32628.663373
309.0,1245,32670.882041
28.0,813,32697.377759
46.0,812,32723.900812
34.0,1002,32756.60353
136.0,1390,32801.288232
101.0,1311,32843.438053
61.0,959,32874.152042
249.0,1490,32923.389984
135.0,1699,32977.366308
175.0,1801,33034.073233
246.0,1741,33090.04491
275.0,1656,33144.091491
217.0,1087,33179.252954
60.0,1192,33218.274865
255.0,1706,33272.667578
271.0,1652,33328.008179
245.0,1780,33385.193377
58.0,818,33410.776304
67.0,1488,33459.875675
234.0,1798,33518.3177
74.0,1232,33556.801419
115.0,1525,33604.805508
221.0,1265,33643.946978
78.0,1355,33687.349569
95.0,1499,33734.806068
281.0,1681,33788.99122
26.0,707,33811.008354
156.0,1564,33861.48253
65.0,1369,33905.331487
47.0,1127,33942.228941
371.0,1895,34004.707237
360.0,1677,34059.238075
294.0,1301,34102.668551
321.0,1738,34163.635121
344.0,1733,34218.081605
296.0,2024,34284.996331
121.0,1470,34333.903016
316.0,1771,34393.77095
101.0,1580,34447.960048
97.0,1310,34492.519589
90.0,1213,34534.642615
182.0,1905,34598.869221
47.0,1059,34635.042091
110.0,1698,34693.246168
351.0,2078,34762.234174
143.0,1624,34814.276867
107.0,1339,34859.455615
169.0,1828,34918.709776
288.0,1314,34962.471366
46.0,1075,34998.788153
49.0,923,35029.40115
63.0,1260,35070.399754
90.0,1437,35121.242768
98.0,1339,35165.717155
133.0,1326,35207.60411
86.0,1265,35250.770165
239.0,1668,35305.191463
45.0,882,35334.216092
63.0,1149,35371.651394
380.0,1673,35428.155409
123.0,1186,35467.151912
381.0,1805,35524.255143
227.0,1626,35575.906664
275.0,2092,35644.051596
143.0,1789,35703.271718
315.0,1724,35758.6598
243.0,1677,35810.531914
156.0,1729,35865.607895
339.0,1458,35911.580011
88.0,1468,35958.968803
97.0,1255,35998.552873
309.0,1868,36058.797713
118.0,1795,36116.998694
319.0,1456,36162.350852
129.0,1352,36206.929642
358.0,1076,36239.923897
95.0,1297,36284.22318
62.0,966,36316.72495
96.0,1360,36359.313277
59.0,1233,36398.741234
81.0,1477,36446.492615
53.0,1020,36480.398348
242.0,1430,36527.677666
348.0,1816,36587.054291
90.0,1389,36629.975729
286.0,1781,36687.498055
56.0,1003,36718.754791
350.0,1779,36775.341173
307.0,1936,36839.866483
316.0,1848,36899.813635
304.0,1859,36955.948642
368.0,1989,37017.885771
302.0,1709,37070.853928
247.0,2039,37135.854636
69.0,710,37157.792953
254.0,1807,37215.405992
75.0,1595,37268.024705
92.0,1397,37312.083124
75.0,1280,37351.773712
22.0,769,37374.349488
125.0,1452,37421.003854
196.0,1355,37465.284914
22.0,483,37480.586613
94.0,1343,37524.423737
166.0,1635,37578.71791
126.0,1669,37633.808068
330.0,2017,37698.931587
378.0,1246,37737.979824
125.0,1021,37770.086668
279.0,1207,37809.563997
336.0,1726,37864.96578
87.0,1235,37904.245567
243.0,1406,37947.445199
389.0,2076,38012.469742
98.0,1312,38053.426724
299.0,1453,38102.685299
118.0,1303,38144.583086
241.0,1741,38200.700908
295.0,1535,38250.387385
218.0,1484,38298.143337
312.0,1656,38351.602221
221.0,2052,38417.071347
307.0,1697,38471.224329
20.0,517,38486.988195
393.0,1990,38552.831601
262.0,1795,38611.324517
384.0,1613,38661.241751
82.0,1431,38706.889606
291.0,987,38739.515449
35.0,928,38768.287656
57.0,1050,38800.974688
68.0,1191,38839.588092
357.0,1925,38899.693655
59.0,999,38931.820121
87.0,1037,38964.490179
120.0,1537,39012.524743
36.0,1044,39044.878626
394.0,1338,39088.44549
114.0,1397,39132.977449
385.0,2086,39198.701635
79.0,856,39226.852634
284.0,1480,39272.59524
54.0,1068,39306.069175
84.0,1323,39350.037389
85.0,1346,39393.859089
367.0,1982,39458.881254
372.0,1823,39517.782296
352.0,1443,39564.684123
133.0,1660,39617.894701
312.0,1823,39675.658107
292.0,1630,39729.746173
120.0,1564,39779.533469
78.0,1396,39823.872677
70.0,1244,39862.364442
305.0,1777,39920.252861
351.0,1662,39973.642061
107.0,1323,40014.866683
179.0,1529,40062.470967
354.0,1887,40123.628238
243.0,1616,40177.158874
312.0,1318,40217.990589
267.0,1225,40255.949599
316.0,1618,40308.454266
265.0,1286,40349.935721
98.0,1406,40396.365644
327.0,2100,40464.602679
66.0,1312,40505.777706
52.0,975,40537.009177
18.0,690,40557.783726
61.0,891,40585.698912
123.0,1375,40628.869195
354.0,2150,40697.476516
63.0,1186,40734.035128
79.0,1282,40776.027895
81.0,1473,40823.834302
62.0,1065,40856.358913
258.0,1744,40912.446114
40.0,999,40944.745228
316.0,1907,41008.751933
142.0,1584,41061.091777
122.0,1404,41105.556545
332.0,1469,41153.062145
31.0,936,41183.421664
122.0,1385,41228.053777
46.0,773,41253.750275
94.0,1289,41296.198262
80.0,1288,41335.922193
84.0,1236,41375.282965
211.0,1702,41432.451347
140.0,1503,41480.245136
24.0,811,41506.548373
328.0,1927,41566.251952
365.0,2191,41636.397812
298.0,1320,41678.523851
207.0,1173,41715.860457
145.0,1346,41757.964352
135.0,1511,41807.813127
93.0,1508,41855.521303
231.0,2053,41922.999494
258.0,1503,41970.154654
72.0,1428,42015.728046
160.0,1890,42075.772207
207.0,2048,42141.91731
208.0,1892,42201.063892
108.0,1556,42252.257454
87.0,1302,42294.318644
292.0,1863,42352.133988
320.0,1900,42412.827425
309.0,1706,42467.371971
286.0,1933,42529.073046
102.0,1291,42572.616327
200.0,1776,42630.79174
211.0,1493,42679.523126
60.0,737,42703.256116
289.0,1532,42753.129285
39.0,1028,42786.574146
385.0,1810,42844.317669
201.0,1337,42886.360904
172.0,791,42910.656689
316.0,1930,42972.351231
110.0,1393,43016.735747
55.0,1178,43054.066029
104.0,1438,43099.386453
84.0,1218,43137.721656
295.0,1176,43175.997216
312.0,1727,43230.911164
151.0,1571,43280.019398
119.0,1611,43332.560787
334.0,1974,43395.231053
111.0,1485,43443.282834
247.0,1274,43484.858551
21.0,868,43511.79777
170.0,1852,43571.013383
67.0,1312,43613.534658
58.0,1190,43653.532587
21.0,813,43679.07284
20.0,675,43700.86678
78.0,1356,43744.035616
121.0,1544,43794.707615
225.0,1875,43855.348546
317.0,1427,43900.905702
84.0,1299,43941.542625
324.0,1645,43994.321351
358.0,1474,44041.850727
43.0,860,44069.17133
321.0,1742,44124.623449
54.0,1053,44158.603789
105.0,1498,44206.091819
101.0,1591,44257.718776
311.0,1943,44321.642906
40.0,944,44351.968625
108.0,1256,44393.581038
75.0,1109,44428.92029
56.0,1249,44467.808012
398.0,2144,44536.238639
56.0,1130,44572.664659
78.0,1373,44615.872462
349.0,1693,44669.553249
343.0,1695,44723.881948
221.0,1722,44778.236589
51.0,1226,44818.355386
228.0,1410,44863.474315
102.0,1280,44904.229647
249.0,1247,44943.63527
84.0,1121,44980.233443
79.0,881,45008.002671
104.0,1452,45054.026171
48.0,729,45077.275709
71.0,1103,45112.835058
325.0,1481,45160.892082
74.0,1309,45202.815699
333.0,1395,45247.69822
415.0,2278,45322.718991
76.0,1380,45366.555976
299.0,1123,45401.999733
57.0,673,45425.256948
100.0,1453,45472.819546
300.0,1840,45532.280673
301.0,1200,45572.996912
221.0,1521,45621.501937
286.0,1850,45678.705351
69.0,1174,45716.206982
206.0,1940,45780.819868
387.0,1795,45840.5031
194.0,904,45870.175631
309.0,1593,45920.388062
413.0,2328,45995.185342
76.0,1080,46030.401892
331.0,1427,46076.755781
61.0,931,46107.160069
337.0,2226,46181.892489
87.0,1224,46221.748712
358.0,1575,46272.176983
194.0,2010,46338.216414
327.0,1845,46397.386643
369.0,2218,46468.55451
80.0,1391,46513.06368
126.0,1574,46563.18343
97.0,1094,46598.352337
292.0,2058,46666.132065
412.0,2187,46740.029079
80.0,974,46772.211752
204.0,1502,46822.106241
41.0,813,46847.97075
183.0,1810,46908.213982
104.0,1658,46962.613498
334.0,1484,47010.634973
148.0,1378,47056.933248
313.0,1512,47110.4076
32.0,728,47134.285304
311.0,1133,47169.785919
78.0,1254,47213.605849
76.0,1296,47259.3438
270.0,1320,47303.468811
268.0,1780,47361.905415
74.0,1412,47409.127289
178.0,1505,47458.596579
357.0,1582,47509.920243
326.0,1439,47559.68632
46.0,827,47587.106627
378.0,1675,47643.801044
56.0,1284,47687.300894
90.0,1620,47742.245372
23.0,567,47761.932267
92.0,1313,47804.962553
140.0,1738,47864.183852
288.0,1387,47908.063397
231.0,1458,47959.259921
84.0,1547,48010.680364
78.0,1228,48052.660251
82.0,846,48079.954827
78.0,1155,48116.076378
85.0,1208,48155.183803
347.0,1499,48204.050377
354.0,1793,48263.733722
364.0,1777,48324.935619
328.0,1833,48387.176873
366.0,1697,48444.684669
104.0,1421,48491.728565
155.0,1441,48539.89848
82.0,1303,48583.676413
91.0,1354,48626.986292
381.0,1223,48666.512495
85.0,1182,48707.025319
204.0,1047,48741.111835
375.0,1916,48804.607887
76.0,1195,48843.487112
356.0,2019,48909.434973
300.0,1904,48971.77314
338.0,1995,49035.946662
364.0,1741,49093.551266
108.0,1113,49130.066626
356.0,1079,49163.845335
355.0,1960,49227.641435
332.0,1764,49283.42609
64.0,1231,49323.965174
53.0,875,49354.701812
40.0,1000,49385.124255
62.0,811,49410.814052
332.0,1776,49468.677622
295.0,1777,49526.697975
370.0,1904,49588.299079
375.0,1608,49640.075076
381.0,1483,49685.03776
44.0,1154,49721.549745
78.0,1214,49760.635139
121.0,1360,49805.472086
304.0,2053,49871.875556
324.0,1699,49926.75961
371.0,2149,49999.763541
400.0,2215,50070.493086
340.0,1837,50129.757908
75.0,1351,50173.642575
364.0,2251,50246.788098
119.0,1479,50294.392587
319.0,1652,50346.852074
53.0,1225,50388.31336
48.0,959,50419.299706
270.0,1592,50469.869435
68.0,929,50501.98395
307.0,1861,50561.592548
62.0,1198,50598.821669
144.0,1515,50648.38241
386.0,1564,50698.886739
293.0,1532,50748.006455
111.0,1544,50797.918557
35.0,729,50820.831136
170.0,1463,50869.042851
269.0,2038,50936.509871
310.0,1856,50996.838316
120.0,1620,51050.11169
329.0,1733,51107.643007
367.0,1874,51171.074335
294.0,2235,51244.33126
385.0,2227,51318.353424
318.0,2309,51392.363133
28.0,778,51418.034695
362.0,1428,51465.113587
253.0,1750,51522.880489
405.0,2382,51600.363696
400.0,2099,51668.611461
298.0,1703,51727.774736
352.0,1784,51785.742238
245.0,1874,51845.803357
338.0,1821,51905.551978
78.0,1187,51944.204209
407.0,2547,52026.427359
404.0,2234,52099.24961
283.0,1274,52141.770756
308.0,1500,52190.575483
141.0,1519,52239.567805
352.0,1844,52298.56541
65.0,1319,52340.553857
106.0,1618,52395.442236
372.0,1853,52455.454044
393.0,2214,52529.355591
372.0,1950,52593.007688
126.0,1426,52639.306056
39.0,1067,52675.011435
301.0,1537,52724.30503
40.0,1004,52757.597962
48.0,1290,52803.137043
390.0,1876,52863.755914
81.0,1159,52901.580006
336.0,1923,52964.456847
260.0,1958,53027.457574
387.0,1910,53093.153262
139.0,1624,53147.452389
81.0,1147,53184.709184
85.0,1311,53229.542139
334.0,1478,53279.499508
352.0,1770,53338.549275
417.0,2005,53403.891139
276.0,1920,53465.12791
363.0,2111,53535.758022
359.0,1635,53589.453247
408.0,1801,53648.98269
367.0,1306,53693.1176
231.0,813,53720.444825
389.0,1875,53786.040438
382.0,1923,53854.636842
253.0,1640,53909.918149
132.0,1219,53952.382553
310.0,1397,53999.892696
127.0,1507,54052.878774
278.0,1524,54102.970919
70.0,1338,54147.280273
258.0,2008,54215.543829
106.0,1189,54255.140162
18.0,719,54280.045053
34.0,811,54307.835928
135.0,1773,54368.717284
354.0,1585,54419.775672
44.0,829,54446.629346
181.0,1602,54504.274052
379.0,2140,54575.182187
167.0,1380,54620.411968
141.0,1606,54673.31127
324.0,1945,54737.329074
168.0,1616,54791.339697
177.0,1523,54844.207451
243.0,1593,54898.959898
362.0,2105,54972.327134
382.0,1767,55033.860198
150.0,1731,55092.847521
426.0,2206,55166.045756
359.0,1912,55234.425153
229.0,1487,55286.071275
59.0,790,55314.081127
70.0,976,55345.047426
387.0,1977,55413.684743
93.0,1416,55462.199592
404.0,1873,55526.056953
271.0,1655,55582.924368
139.0,1553,55636.761907
67.0,1255,55679.983099
336.0,1952,55747.356359
90.0,1217,55787.391862
269.0,1992,55856.738148
49.0,1060,55892.195987
35.0,958,55926.231395
84.0,1248,55968.841602
169.0,1555,56021.603332
271.0,1995,56088.244554
387.0,2001,56156.80295
109.0,1528,56209.262602
215.0,1821,56270.853738
297.0,1576,56324.550518
403.0,3865,56456.527807
332.0,2448,56539.582872
81.0,1498,56591.933971
325.0,1732,56650.596245
142.0,1738,56713.206905
313.0,1474,56763.303828
337.0,1866,56828.484945
401.0,1982,56895.82494
392.0,1975,56963.19877
240.0,1341,57008.77966
235.0,1442,57056.988449
257.0,1375,57104.656596
400.0,2027,57175.953295
362.0,1847,57237.914284
272.0,1274,57281.081321
181.0,1546,57334.515339
119.0,1360,57381.325608
406.0,1965,57447.297499
23.0,801,57473.837652
35.0,979,57507.192046
406.0,2214,57581.569592
307.0,1449,57630.111648
358.0,1535,57683.968707
324.0,1887,57748.944288
360.0,2291,57830.517484
382.0,1882,57896.044022
341.0,1922,57962.099916
356.0,2297,58041.494583
92.0,1477,58091.646897
339.0,2430,58176.6564
300.0,1580,58231.322397
377.0,1568,58288.060487
148.0,1602,58342.009602
305.0,1888,58407.532239
405.0,2292,58485.173642
112.0,1456,58533.818773
371.0,1965,58600.712244
377.0,2215,58671.696453
116.0,1494,58724.060594
369.0,2261,58799.569185
389.0,2179,58872.013533
258.0,1735,58929.594684
368.0,1335,58973.691517
288.0,1579,59025.269596
418.0,2315,59104.783392
391.0,2005,59173.901958
94.0,1399,59222.762128
98.0,1457,59270.728899
95.0,1567,59322.347294
28.0,852,59351.393223
240.0,1119,59387.510327
110.0,1140,59424.911712
269.0,883,59453.51913
68.0,1138,59490.084355
365.0,2124,59561.11926
334.0,1901,59622.371249
205.0,756,59646.377232
354.0,1963,59713.201291
380.0,2421,59794.352046
92.0,1420,59840.385893
375.0,1594,59893.103732
365.0,1823,59953.905208
278.0,1554,60006.551873
350.0,1546,60058.447021
135.0,1385,60103.391104
346.0,1719,60161.200076
406.0,2325,60239.945767
414.0,2162,60313.829557
338.0,2109,60383.954303
104.0,1386,60431.741325
363.0,2143,60500.980185
333.0,1703,60557.868227
359.0,1272,60598.747709
325.0,1541,60650.941469
336.0,2072,60719.338905
404.0,2813,60811.685251
223.0,1674,60866.502131
321.0,1679,60922.376338
355.0,1849,60981.961658
112.0,1231,61022.469075
317.0,2112,61093.039391
348.0,2064,61162.445772
370.0,1682,61220.263733
379.0,1914,61285.139065
280.0,1937,61351.40628
285.0,1420,61399.927584
326.0,1563,61452.789951
54.0,1186,61491.879302
68.0,1307,61536.396287
252.0,1581,61586.345059
137.0,1618,61642.100936
401.0,2100,61712.354364
412.0,2263,61790.393812
317.0,1107,61827.099879
354.0,1689,61886.76924
105.0,1464,61936.75965
373.0,2496,62019.94043
415.0,2457,62103.875955
73.0,936,62136.428663
347.0,2254,62211.104246
349.0,1424,62259.815917
398.0,2102,62330.711052
409.0,2133,62401.952099
261.0,1831,62463.094714
345.0,1696,62518.490058
101.0,1284,62563.350538
389.0,2052,62632.684781
338.0,1317,62676.149968
93.0,1372,62721.345323
116.0,1655,62777.196046
384.0,1868,62841.005596
394.0,1608,62894.81022
358.0,1038,62930.459009
365.0,1758,62990.293076
70.0,1033,63024.06469
188.0,1949,63090.524219
73.0,1313,63134.23248
332.0,1551,63184.196854
390.0,2180,63258.163235
373.0,1489,63309.267218
146.0,1808,63372.02808
71.0,1189,63411.152681
366.0,1688,63467.366261
322.0,1625,63521.572318
375.0,1798,63581.189336
275.0,1356,63627.286452
246.0,1266,63672.356385
405.0,2663,63759.855716
405.0,1641,63814.69763
198.0,1706,63871.178151
318.0,2137,63944.842427
380.0,2004,64012.366884
337.0,2236,64086.854122
290.0,1650,64140.904907
388.0,1912,64204.695761
169.0,1616,64260.300146
342.0,1852,64322.42908
367.0,1208,64363.993103
377.0,1842,64424.473602
192.0,1771,64482.302718
395.0,2219,64555.588575
390.0,1821,64614.296469
362.0,2025,64680.423913
112.0,1451,64728.075456
363.0,1779,64785.761154
407.0,1939,64848.30564
380.0,1904,64910.139419
371.0,1739,64967.689192
373.0,2167,65041.525827
419.0,2209,65114.514399
330.0,1911,65178.590975
408.0,2622,65263.733156
404.0,2134,65335.315911
290.0,1962,65398.850043
364.0,1791,65456.660465
390.0,2778,65548.576046
414.0,2167,65619.917415
385.0,2608,65705.408418
386.0,2137,65775.732948
340.0,2064,65844.285922
293.0,1257,65885.722948
93.0,1052,65919.297436
379.0,2043,65986.054893
390.0,1901,66049.643514
410.0,2001,66117.772785
321.0,2065,66185.966505
396.0,1812,66245.759524
388.0,2542,66330.299584
377.0,1415,66377.734447
393.0,2061,66447.178435
354.0,1952,66511.990991
427.0,2796,66606.601241
421.0,5747,66793.937593
239.0,1497,66843.412566
208.0,1667,66898.675977
373.0,1711,66954.147374
315.0,1087,66989.826589
391.0,1950,67054.583436
107.0,1424,67100.784227
64.0,1139,67139.40923
342.0,2001,67203.530753
339.0,1863,67263.53675
357.0,1661,67316.246835
364.0,1916,67382.191555
350.0,2083,67449.843409
275.0,1635,67503.161946
359.0,1815,67562.818726
320.0,1756,67623.922907
393.0,2053,67697.205346
342.0,1557,67751.040184
380.0,1807,67812.135996
237.0,1262,67853.021369
369.0,1573,67906.184263
45.0,615,67926.289499
162.0,1605,67977.419566
323.0,1316,68020.498319
289.0,1893,68083.588503
339.0,1831,68142.544543
102.0,1617,68196.289539
364.0,1378,68239.567824
394.0,2318,68315.381602
377.0,1880,68376.156364
400.0,2462,68452.579406
59.0,1271,68492.441654
258.0,1439,68539.622485
119.0,1536,68589.549072
397.0,2299,68665.748992
371.0,1869,68726.071987
107.0,1462,68772.88595
392.0,2358,68847.913671
339.0,1380,68891.699881
112.0,1063,68925.616207
389.0,2032,68990.659077
305.0,1812,69050.440882
402.0,2078,69117.030582
408.0,2488,69199.327339
399.0,2116,69267.16719
355.0,1652,69318.78659
391.0,1743,69374.055486
215.0,1873,69433.79339
331.0,1486,69482.808574
383.0,2116,69552.464457
423.0,3300,69656.498599
307.0,2361,69733.535303
421.0,3908,69860.745686
63.0,686,69882.066655
395.0,2323,69953.822378
413.0,2921,70046.302777
379.0,1954,70105.745371
418.0,2408,70181.262346
408.0,2004,70243.369749
377.0,1932,70302.552737
417.0,3062,70404.255393
158.0,1480,70450.276891
411.0,2463,70527.059747
380.0,1975,70590.300386
449.0,2534,70669.186756
398.0,1788,70723.906402
370.0,3264,70825.116957
420.0,2669,70907.701667
441.0,3218,71008.159647
385.0,1969,71070.261621
397.0,2267,71139.485168
405.0,1999,71202.632129
423.0,1853,71263.45163
370.0,1972,71326.883351
377.0,1937,71390.024516
29.0,902,71417.338019
285.0,2026,71482.616078
188.0,1572,71531.721167
348.0,1979,71595.391668
241.0,1759,71652.421654
418.0,2078,71718.418673
92.0,1539,71768.074626
394.0,2373,71845.166348
419.0,2056,71910.912042
378.0,2298,71984.425918
389.0,1997,72049.254394
360.0,1778,72103.668921
369.0,1644,72153.330729
419.0,2059,72215.273216
425.0,2735,72300.625137
390.0,2017,72362.593806
425.0,1694,72413.855648
367.0,1941,72473.417211
380.0,2084,72535.687988
341.0,1971,72596.56171
399.0,2203,72662.949538
402.0,2320,72725.301689
391.0,2072,72778.718581
386.0,1909,72829.781336
410.0,2160,72887.561638
362.0,1585,72929.203472
342.0,1574,72971.834543
344.0,2068,73027.17946
397.0,2561,73096.824698
365.0,1703,73142.232124
396.0,2262,73201.950624
328.0,2099,73253.237108
392.0,2101,73303.716359
322.0,1894,73350.705256
421.0,2542,73411.85512
214.0,1845,73456.309304
388.0,1991,73504.679398
421.0,2682,73571.947608
342.0,1532,73609.08373
377.0,2151,73661.005801
399.0,2783,73725.917285
76.0,1130,73752.370476
413.0,2405,73806.022581
362.0,2076,73852.3439
388.0,2253,73902.471556
405.0,1923,73945.99733
367.0,3004,74013.804978
289.0,1868,74054.905413
422.0,3606,74129.692802
384.0,3059,74192.755212
422.0,2199,74237.861808
285.0,1987,74279.079633
384.0,1551,74310.592388
354.0,2445,74361.503249
265.0,1349,74389.171442
337.0,1700,74423.325602
405.0,2122,74465.691278
298.0,1772,74500.424083
154.0,1802,74536.572818
380.0,1898,74575.333239
373.0,1605,74608.312351
400.0,2070,74650.832551
405.0,3727,74726.857442
412.0,2825,74784.75574
282.0,1467,74815.237424
381.0,1849,74851.199176
355.0,2240,74893.78042
412.0,2423,74938.853443
98.0,1541,74967.871893
406.0,2024,75004.057728
423.0,2638,75048.552079
361.0,2118,75085.624626
307.0,1746,75116.384333
380.0,1913,75149.575724
399.0,2159,75186.658957
179.0,1676,75214.89124
400.0,2136,75251.931036
392.0,1839,75283.551702
433.0,2810,75329.749361
329.0,2029,75360.663595
321.0,1651,75385.980135
210.0,1092,75402.61336
363.0,1741,75429.045376
397.0,2572,75465.129245
422.0,2307,75497.557791
408.0,2526,75533.539947
383.0,2462,75568.852125
478.0,4187,75629.13634
385.0,1662,75652.924128
305.0,1543,75674.632825
225.0,1374,75694.243886
356.0,2067,75722.94398
434.0,3643,75774.178674
443.0,3022,75816.313552
215.0,1655,75840.568296
391.0,2543,75876.825262
45.0,857,75888.522113
348.0,2038,75917.787187
360.0,2086,75947.023051
380.0,2394,75978.557542
411.0,2063,76003.915905
416.0,2531,76034.182844
399.0,2267,76062.346428
352.0,1600,76081.684521
416.0,2868,76117.108303
352.0,2087,76142.286174
363.0,1369,76158.997102
340.0,1820,76181.019536
319.0,1430,76198.764509
374.0,1790,76220.685696
391.0,1885,76244.194421
372.0,2128,76270.012285
431.0,4960,76330.539309
363.0,1748,76351.961804
295.0,2020,76376.073637
392.0,1908,76399.485921
411.0,11427,76538.907732
428.0,2926,76574.482948
409.0,1615,76593.938493
378.0,2262,76621.105652
431.0,2474,76651.110472
367.0,2038,76676.740393
356.0,1864,76699.267839
406.0,2313,76727.275797
423.0,2452,76757.296192
375.0,2158,76783.481318
249.0,1598,76802.743556
401.0,1976,76826.652496
418.0,3103,76864.296946
382.0,2204,76891.37042
391.0,1901,76914.240444
405.0,2318,76942.28319
395.0,3229,76981.535026
416.0,2216,77008.148075
416.0,2106,77033.889026
383.0,2434,77063.413878
411.0,2158,77089.596203
385.0,2146,77115.547159
423.0,2232,77142.819493
361.0,2049,77167.739742
344.0,2409,77196.901623
698.0,3756,77243.146474
436.0,2658,77275.489492
410.0,2497,77305.747765
410.0,2964,77341.605676
