# {"t_start": 1547446649.0974445, "env_id": "KungFuMasterNoFrameskip-v4"} 
r,l,t
1000.0,1135,40.256135
2700.0,1146,80.531542
1500.0,1225,124.728694
2200.0,1388,174.133362
3300.0,1176,215.310163
3500.0,1489,267.430722
2000.0,1018,303.927542
4200.0,1388,352.84206
3500.0,1368,401.035242
5200.0,1377,450.03744
6900.0,1943,518.534583
4000.0,1485,570.769133
1800.0,1143,610.416293
3500.0,1500,663.872758
4600.0,1467,719.304686
3100.0,1554,774.203522
2400.0,1448,825.901264
3500.0,1412,876.126292
3900.0,1366,926.779347
2900.0,1112,967.560628
4500.0,1561,1023.459591
6400.0,1284,1069.39958
6700.0,1410,1121.956198
6200.0,1714,1185.343296
8200.0,1697,1247.132014
10200.0,1789,1310.984528
10000.0,1653,1369.431993
20200.0,2576,1460.508694
14500.0,2128,1536.422828
24400.0,2919,1644.325638
11600.0,1885,1717.423397
17500.0,2491,1809.521188
27200.0,3257,1929.163406
18900.0,2523,2023.102499
15000.0,1957,2095.606673
14200.0,1685,2156.941952
20300.0,2501,2249.355388
12000.0,1924,2321.830464
19000.0,2315,2407.003752
8800.0,1716,2468.244429
10200.0,1870,2534.651782
9300.0,1807,2604.302834
12000.0,1822,2672.3289
15500.0,2451,2758.788515
10700.0,2078,2831.479731
16000.0,2537,2923.259532
12000.0,1940,2993.781326
17600.0,2416,3079.525993
12400.0,2090,3155.08985
11600.0,2011,3228.036865
14100.0,2021,3302.124399
16900.0,2316,3385.48364
16000.0,2331,3473.11833
10000.0,1697,3533.439553
24300.0,3119,3645.477137
17700.0,2934,3753.78172
6900.0,1470,3809.443734
13800.0,1978,3882.774873
11000.0,2051,3958.315732
16000.0,2845,4063.17646
23500.0,3104,4176.321656
17700.0,2745,4277.072671
15000.0,2442,4367.32451
18400.0,2550,4460.709023
9400.0,1653,4522.357814
18000.0,2503,4615.128064
18900.0,2314,4700.500742
15800.0,2174,4778.67694
14800.0,2063,4855.318774
18500.0,2508,4945.972848
17900.0,2428,5035.926986
17300.0,2527,5133.953562
21000.0,2670,5233.507776
21300.0,2342,5321.311786
37700.0,4119,5470.819513
22000.0,2497,5566.97623
13800.0,1979,5639.466854
11300.0,1872,5712.615756
16400.0,2290,5799.62245
11400.0,2069,5876.879214
8000.0,1467,5932.073088
8100.0,1738,5994.919693
18600.0,2348,6080.860485
21200.0,2641,6177.262583
14400.0,1965,6252.095908
11000.0,1748,6318.01172
22200.0,2891,6430.08307
12600.0,1952,6501.193831
22700.0,2677,6599.085118
18400.0,2456,6689.358726
7800.0,1372,6739.48019
26000.0,2997,6847.284682
15100.0,2253,6932.651959
19000.0,2338,7019.549059
19900.0,2506,7111.779417
16000.0,2129,7191.472993
30800.0,4133,7345.445098
25400.0,2828,7447.464076
26300.0,3367,7573.618895
17200.0,2076,7651.13236
12700.0,1763,7715.230487
20400.0,2611,7812.758324
20700.0,2715,7914.613521
12600.0,1902,7985.995947
19800.0,2685,8088.137797
17900.0,2100,8168.357596
19800.0,2599,8265.72109
22200.0,2741,8366.227765
15600.0,2335,8452.484797
19200.0,2457,8544.4994
22100.0,2511,8637.285171
27600.0,2937,8747.980712
21200.0,2658,8847.250713
13800.0,1789,8912.124339
25200.0,2925,9020.086116
16100.0,2075,9100.490477
15600.0,2240,9181.671188
16800.0,2199,9262.748526
26000.0,2932,9373.687176
20600.0,2695,9473.629317
20400.0,2717,9571.671199
17100.0,2514,9664.302029
14200.0,1989,9740.008334
21000.0,2533,9834.105062
12800.0,1849,9905.992361
20800.0,2651,10005.536725
20600.0,2461,10095.741459
24900.0,3007,10208.992855
19500.0,2628,10305.996642
22600.0,2673,10405.785475
12000.0,1904,10477.818981
18700.0,2550,10572.343865
25400.0,2849,10677.276706
12400.0,1875,10746.419844
21600.0,2570,10844.801771
23200.0,2667,10944.108836
15400.0,2003,11020.39611
19300.0,2284,11104.160614
17100.0,2129,11182.858567
16900.0,2345,11267.985816
19800.0,2457,11356.189885
24000.0,2978,11465.298273
22000.0,2995,11576.383129
21200.0,2529,11668.967384
13600.0,2148,11748.097401
22000.0,2442,11836.861943
29800.0,3720,11973.542098
11400.0,1700,12035.862942
29400.0,3483,12163.953426
28300.0,3286,12287.904362
18600.0,2525,12384.439766
26000.0,3028,12498.225875
22400.0,2584,12594.426555
31600.0,3552,12724.839068
21900.0,2670,12824.098439
17100.0,2319,12910.588985
36400.0,4102,13062.352072
14900.0,1866,13130.550807
30100.0,3426,13255.089717
22000.0,2699,13358.621641
13400.0,1768,13423.114361
14400.0,2152,13501.984958
11400.0,1777,13566.431484
16000.0,2233,13649.298483
20300.0,2502,13741.797989
12200.0,1930,13812.421857
7000.0,1601,13870.029587
14100.0,2378,13960.016066
19800.0,2393,14050.120366
16500.0,2196,14132.128298
28600.0,3009,14245.379848
23000.0,2849,14352.698901
20600.0,2494,14444.811717
35200.0,3857,14583.365826
20400.0,2526,14677.901929
26100.0,3203,14795.585977
19800.0,2717,14894.842875
15600.0,2348,14982.900326
16700.0,2170,15060.754353
17200.0,2327,15148.821468
16200.0,2037,15224.366065
16200.0,2338,15312.255634
20300.0,2512,15404.01223
21900.0,2585,15501.252369
20300.0,2249,15586.404285
14400.0,2005,15662.796266
30700.0,3336,15790.154514
25300.0,2992,15902.855768
29100.0,3252,16022.462717
20400.0,2458,16114.714907
18400.0,2250,16196.752762
16900.0,2124,16277.453829
25800.0,2713,16375.656412
16400.0,2181,16455.647728
16800.0,2040,16531.844663
18700.0,2505,16624.499798
28600.0,3251,16749.298473
18400.0,2356,16837.18888
13900.0,1806,16901.836682
33900.0,3733,17043.523269
20500.0,2674,17140.043926
26700.0,3224,17256.297691
16400.0,2123,17336.147318
38200.0,4097,17486.514914
24500.0,3023,17597.675898
20800.0,2487,17690.372326
13500.0,2495,17781.675551
14300.0,2203,17861.644695
18000.0,2510,17955.613459
14800.0,2157,18036.401074
12700.0,2009,18109.528655
27400.0,3404,18233.411949
13200.0,2336,18318.08847
16200.0,2708,18416.321817
13300.0,2372,18502.832253
17300.0,2453,18591.793116
23400.0,3274,18712.207774
22700.0,2905,18818.633057
20600.0,2788,18920.453409
26000.0,3007,19030.792713
16900.0,2842,19134.924745
17000.0,2821,19234.620181
23700.0,3212,19353.922502
19100.0,2779,19456.159449
18200.0,2768,19557.567176
13300.0,2061,19631.416357
14000.0,2002,19707.829997
13200.0,2461,19800.047274
33000.0,4131,19950.907102
18600.0,2276,20035.679668
33000.0,3369,20159.40396
27500.0,3029,20269.533523
29900.0,3419,20395.525439
32000.0,3605,20529.461777
21200.0,2662,20628.412915
22700.0,2715,20732.705014
24800.0,3020,20841.55592
32400.0,3365,20964.325081
28500.0,3325,21084.583732
7300.0,1506,21137.856145
18700.0,2679,21238.882741
19000.0,2594,21334.008549
17500.0,2473,21426.699312
16500.0,2501,21518.692303
15300.0,2117,21599.11556
12100.0,1858,21666.986353
15600.0,2329,21751.79437
21700.0,2636,21848.965569
11100.0,2118,21927.65621
16500.0,2170,22008.023673
33400.0,3913,22156.103472
12200.0,2019,22228.573559
15900.0,2889,22337.015818
9300.0,2115,22415.094901
10900.0,2148,22497.453464
8300.0,2039,22574.708378
21600.0,3358,22696.497783
12600.0,2953,22806.883841
16800.0,3235,22932.048262
20700.0,3645,23068.42573
12500.0,2389,23155.23217
6300.0,1824,23224.710702
17300.0,3150,23338.071801
20900.0,3753,23477.243018
12000.0,2565,23571.000736
8600.0,1959,23642.560055
20500.0,3436,23767.877903
18300.0,3292,23888.920122
10100.0,2265,23971.788754
8300.0,2071,24046.850643
9900.0,2229,24130.006913
13200.0,2845,24235.849646
31100.0,4729,24413.500518
8600.0,1689,24476.2398
7600.0,1800,24542.858799
20200.0,2943,24650.709053
17800.0,2968,24759.30708
14200.0,2721,24858.482065
20000.0,3352,24986.407721
13700.0,2459,25076.725347
18500.0,3286,25200.540161
17100.0,3305,25320.648373
10700.0,2114,25400.196965
13700.0,2722,25501.208681
13800.0,2512,25596.546971
14400.0,2439,25685.91978
14400.0,2191,25766.596333
10800.0,2038,25843.655255
16800.0,2851,25948.545133
18400.0,3285,26070.735718
13400.0,2713,26173.087911
24200.0,4029,26321.950788
9100.0,1863,26391.50688
15100.0,2653,26490.267654
17700.0,2888,26602.411819
17800.0,2890,26714.486215
18200.0,2796,26822.974514
16200.0,2953,26935.410946
17100.0,2722,27043.20146
14700.0,2852,27152.248351
12700.0,2379,27241.553298
20800.0,3692,27385.18833
16600.0,2933,27499.176391
16900.0,2911,27606.791242
9600.0,2166,27688.709667
16200.0,2532,27783.920362
17800.0,2581,27881.445487
32700.0,4010,28032.578689
13600.0,2117,28112.570333
18900.0,2612,28213.798195
16300.0,2499,28311.684164
13000.0,2292,28400.507581
13000.0,2395,28490.616879
18100.0,2686,28592.480022
20600.0,2990,28708.29011
19000.0,2509,28802.858015
19300.0,2741,28909.371316
15500.0,2328,28996.324037
16300.0,2394,29088.107625
14200.0,2076,29170.210926
28000.0,3878,29319.500753
16600.0,2372,29406.977124
18200.0,2874,29514.128851
13200.0,2414,29607.327056
19100.0,2901,29719.183271
17500.0,2984,29834.839177
19800.0,2868,29947.929615
21300.0,3336,30078.387566
15000.0,2452,30171.837391
25600.0,3613,30308.159852
10900.0,2039,30386.900385
10200.0,1801,30456.650353
21900.0,2991,30574.328812
32300.0,4423,30739.939687
13400.0,2694,30839.457468
21400.0,3589,30972.169262
21800.0,3137,31085.804069
19000.0,3158,31197.885531
17600.0,2846,31304.533487
17600.0,2977,31411.803754
19400.0,3181,31526.87181
14200.0,2496,31618.00611
26500.0,3385,31747.33653
28100.0,3975,31901.18477
18300.0,2830,32010.151313
17900.0,2572,32108.141269
23400.0,3363,32234.444667
17200.0,2687,32334.143143
20400.0,2726,32434.689409
13300.0,2318,32519.943269
26200.0,3451,32644.627525
20100.0,2787,32745.92837
29000.0,3966,32895.460732
22200.0,3122,33016.726342
15000.0,2724,33123.811579
17000.0,2785,33229.171343
18800.0,3376,33352.948936
12900.0,2473,33442.225787
15300.0,2933,33552.256675
18700.0,2944,33663.735054
18700.0,3049,33779.700134
17800.0,3194,33900.542774
25000.0,3686,34034.747296
5700.0,1638,34095.820255
9600.0,2314,34184.434371
14400.0,2978,34298.151971
10300.0,2331,34381.392596
14500.0,2561,34473.407393
17700.0,2376,34559.97331
28100.0,3545,34693.251843
18300.0,2230,34777.373972
28400.0,3392,34901.585627
24200.0,3074,35014.467549
29000.0,3311,35139.338582
41100.0,4919,35320.629928
15500.0,2729,35419.839948
27400.0,3345,35543.163705
21300.0,3165,35658.768836
20000.0,2990,35768.161683
22800.0,2997,35879.769151
24100.0,3101,35994.260349
20600.0,3422,36120.910099
13400.0,2585,36216.345192
13300.0,2801,36318.062908
16800.0,3238,36437.573134
17900.0,3092,36554.699825
13300.0,3015,36667.314433
8400.0,2354,36751.240647
21400.0,3814,36893.370637
21400.0,3487,37022.556097
34700.0,4618,37195.071164
19200.0,3078,37309.619213
21400.0,3149,37428.482001
17200.0,2890,37533.000493
17700.0,2739,37634.802014
24300.0,3374,37760.428716
15100.0,2844,37864.55507
25100.0,3863,38006.868992
10000.0,2545,38103.504092
9600.0,2443,38192.409638
17400.0,2940,38302.383267
16000.0,3312,38423.407947
12100.0,2780,38526.68956
9800.0,2254,38611.947089
20900.0,3388,38738.772716
28600.0,4698,38909.679627
11000.0,2652,39009.37962
21100.0,3373,39136.556224
10100.0,2455,39225.292712
17900.0,3159,39341.351014
10500.0,2423,39435.532376
19500.0,3375,39560.525481
11500.0,2525,39654.732005
20600.0,3215,39776.363223
14800.0,2671,39872.398164
24300.0,3662,40009.393445
19100.0,3422,40135.036058
24300.0,3442,40262.030017
11500.0,1881,40329.555177
10800.0,1979,40402.041868
19200.0,3211,40523.05199
27300.0,3570,40657.592865
32200.0,4456,40822.420048
28400.0,4063,40971.695339
33900.0,4487,41137.938202
34800.0,4506,41305.446646
17900.0,2770,41407.840647
18300.0,2940,41517.95266
24800.0,3077,41632.124871
28500.0,3638,41766.111782
16000.0,2472,41857.578936
21300.0,2910,41962.673236
42500.0,5036,42149.20838
20600.0,2958,42260.630837
26500.0,3919,42408.482864
17500.0,3217,42527.652387
13000.0,2343,42610.87717
15400.0,2933,42720.267022
17900.0,2773,42825.588857
17100.0,2519,42922.354097
19400.0,3049,43031.69157
23700.0,2939,43143.190622
28100.0,3610,43275.948202
16200.0,2249,43359.173764
33600.0,4564,43527.89375
24200.0,3164,43639.141584
20900.0,3138,43756.244421
26100.0,3435,43887.039216
36700.0,4422,44049.929691
18200.0,2725,44151.069429
20700.0,3302,44273.848994
24900.0,3672,44411.192496
26700.0,4140,44565.673931
23000.0,3828,44705.396174
20200.0,3730,44840.828068
18500.0,3216,44957.568982
21600.0,3608,45093.937503
18900.0,3172,45214.298141
27700.0,3830,45356.169416
32100.0,3618,45492.44117
23200.0,3371,45614.085589
34300.0,4225,45770.017348
20900.0,2726,45869.148744
45600.0,4898,46046.596581
23200.0,2711,46150.732005
34400.0,4127,46305.749153
52000.0,5541,46508.77645
41100.0,4234,46664.316933
47600.0,5022,46854.87405
28200.0,3673,46987.326097
37100.0,4550,47154.909888
33700.0,4323,47315.303743
45800.0,5969,47539.912374
19500.0,3149,47654.918179
21500.0,3160,47773.018787
28100.0,4097,47923.937027
37300.0,4952,48103.897636
23900.0,3614,48229.478355
18100.0,2804,48335.959172
45900.0,5719,48547.310856
29300.0,4051,48698.747571
18100.0,2798,48797.130426
21800.0,3430,48919.437095
24200.0,3424,49041.625529
29100.0,4153,49193.979868
32900.0,4371,49345.145917
25400.0,4193,49482.938459
19300.0,2996,49578.898032
31500.0,4568,49726.524886
22000.0,3393,49839.031019
22600.0,3320,49946.7812
12000.0,2078,50009.243527
20800.0,3451,50115.182379
5700.0,1424,50155.834731
12300.0,2435,50229.336806
25200.0,3717,50341.687387
38200.0,5279,50499.703252
36100.0,4744,50634.492078
39000.0,4898,50774.02918
24500.0,3499,50872.799064
33300.0,4562,51018.020225
35000.0,3718,51146.588174
23800.0,3499,51268.697107
18800.0,2652,51361.498253
18300.0,2720,51456.436723
25900.0,3186,51567.575186
35600.0,4243,51715.621311
20800.0,2900,51816.33005
33300.0,4081,51957.66002
26500.0,3466,52076.197122
32900.0,4455,52222.433669
17800.0,2672,52310.995581
19400.0,2719,52389.166951
16500.0,2649,52463.737708
20700.0,3175,52550.379889
21200.0,3230,52635.790073
15200.0,2562,52703.243613
28800.0,4545,52818.224877
26300.0,3660,52907.912433
16200.0,2738,52975.628837
26200.0,4190,53079.168469
15100.0,2927,53151.324375
15000.0,2982,53226.27334
11200.0,2144,53281.344249
23900.0,3517,53367.329656
28200.0,4826,53489.059159
35200.0,4296,53597.727471
38800.0,4823,53718.66476
36300.0,4191,53820.015421
18700.0,2785,53887.982635
16300.0,2601,53950.486753
26600.0,3320,54032.796587
19700.0,3155,54110.864299
21300.0,3202,54190.56221
21200.0,3180,54272.147787
17400.0,2744,54340.247874
26500.0,3809,54435.873182
21700.0,3540,54523.802259
26400.0,3671,54611.356603
30400.0,4323,54720.473644
26600.0,3726,54814.091528
15300.0,2776,54881.662638
23900.0,3162,54959.528458
37100.0,4540,55072.23965
41300.0,4606,55187.468036
18600.0,2505,55250.892535
20100.0,3294,55332.416432
15000.0,2442,55392.201465
32500.0,4638,55506.010057
22000.0,3393,55590.0017
25300.0,3972,55689.428134
16100.0,2709,55755.877532
23800.0,3537,55840.487426
25900.0,3599,55930.649091
37500.0,4884,56052.067375
30200.0,3978,56152.075742
20200.0,3109,56230.322607
38200.0,4841,56349.174417
17200.0,2896,56419.913482
22400.0,3556,56507.267471
34500.0,4677,56624.469904
35600.0,3747,56717.457793
32000.0,3878,56811.527675
21800.0,2847,56882.127268
20800.0,2776,56952.262428
33500.0,4121,57051.130618
23800.0,3427,57135.699518
28900.0,3592,57224.036117
17900.0,2777,57291.557551
36700.0,4556,57404.46467
25300.0,3126,57480.377281
21200.0,2671,57545.08715
19800.0,2576,57608.121546
30800.0,4083,57710.069981
23000.0,3158,57788.572683
30700.0,3804,57882.877509
35500.0,4456,57991.580486
19300.0,3288,58076.200761
16200.0,2713,58147.687879
16200.0,2733,58220.332778
30500.0,4454,58344.739009
16000.0,2612,58420.772657
15800.0,2778,58504.505454
20900.0,3333,58606.546717
28200.0,4481,58755.64141
28800.0,3339,58870.136766
31300.0,3598,58991.763798
40100.0,4657,59144.885159
36500.0,5233,59318.656473
27900.0,3971,59456.320116
25700.0,3424,59575.381569
16600.0,3015,59681.542172
18900.0,2784,59778.132303
25000.0,3479,59897.736626
24700.0,3286,60010.184119
25500.0,3515,60132.681566
18700.0,2774,60226.69336
25000.0,3462,60347.865223
32900.0,4383,60499.046109
16400.0,2506,60584.065826
29700.0,4126,60727.474373
26000.0,3572,60849.056865
25600.0,3607,60973.209297
13900.0,2198,61051.971415
21900.0,3558,61174.086439
15500.0,2432,61255.84766
24800.0,3843,61390.152029
21200.0,3235,61502.949422
18900.0,3140,61609.032324
11500.0,1942,61674.674609
34900.0,4171,61821.588247
27900.0,3809,61949.915964
26100.0,3677,62075.753719
19100.0,2459,62162.012453
26500.0,3180,62271.638865
24900.0,3846,62402.882515
19600.0,3431,62518.075859
33700.0,4557,62670.609026
17600.0,3074,62773.520379
15800.0,2640,62866.479377
23200.0,3303,62982.945948
22300.0,3104,63089.118222
40000.0,4774,63256.011684
26900.0,3559,63375.351737
13600.0,2343,63455.933124
21400.0,3538,63573.512292
32900.0,4317,63720.825029
19400.0,2636,63810.725689
43000.0,4893,63973.96418
26700.0,3555,64090.473831
17800.0,2621,64183.234146
27500.0,3235,64292.961683
19700.0,3213,64405.365916
22100.0,2677,64498.526664
32800.0,4302,64644.247713
28200.0,3653,64769.761767
22200.0,3151,64874.862773
24300.0,3591,64999.127141
18300.0,2773,65095.419032
21000.0,3153,65203.982956
22600.0,3667,65331.168186
21100.0,3023,65432.06915
15200.0,2400,65514.397823
28600.0,3802,65649.005489
24000.0,3614,65776.481685
34900.0,3972,65913.734429
18300.0,2611,66002.528947
25200.0,3159,66103.770997
36100.0,4773,66268.353076
22200.0,2773,66361.415842
22600.0,3207,66472.87008
22600.0,3073,66581.441123
20200.0,2575,66672.315748
32700.0,3849,66804.427568
39100.0,4132,66946.134793
28100.0,3586,67065.142619
13800.0,2538,67150.464466
14200.0,2527,67237.005448
31300.0,4194,67379.964631
10000.0,2094,67452.182643
17100.0,2569,67541.761485
19600.0,3336,67654.496597
34500.0,4441,67806.322796
28800.0,4052,67946.360813
32200.0,4124,68089.044595
35400.0,4510,68246.150531
27100.0,3789,68370.947039
13200.0,2705,68463.040285
41100.0,5162,68641.954958
21700.0,3015,68742.178734
37700.0,4641,68902.382724
27200.0,3810,69036.267444
31800.0,3580,69159.297877
34100.0,4411,69313.458719
42900.0,4406,69464.786568
26000.0,3065,69571.327559
35600.0,4188,69717.1732
41700.0,4641,69877.814548
36700.0,4264,70026.872438
30000.0,3758,70156.152187
29000.0,3104,70262.396948
26200.0,3144,70370.358635
28600.0,3228,70482.436073
37800.0,3837,70615.606653
15400.0,2073,70688.642712
42200.0,4419,70839.601301
33200.0,3488,70959.777219
20100.0,2738,71055.460092
24900.0,2562,71142.192326
26800.0,3239,71249.236811
33100.0,4263,71393.184143
22600.0,2939,71494.664856
34800.0,3803,71624.68277
22600.0,3289,71740.739673
32000.0,3592,71860.740152
28000.0,3645,71986.126538
29700.0,3372,72101.445364
24900.0,2932,72198.578838
25800.0,3453,72315.425081
28800.0,3756,72440.673974
13900.0,2528,72525.855588
36800.0,4830,72687.276601
26500.0,3972,72825.559521
34200.0,4709,72995.137539
13900.0,2440,73086.94433
11800.0,2019,73158.804641
23000.0,3490,73284.818877
29500.0,4834,73460.523081
19300.0,3435,73581.405159
37100.0,4853,73748.616111
17100.0,2835,73848.082586
13400.0,2606,73940.678966
47300.0,5781,74137.457386
28600.0,4259,74285.30084
28000.0,3939,74419.202276
20800.0,3157,74526.373109
22200.0,3537,74642.339042
28700.0,4461,74793.193954
26100.0,3542,74914.618309
31500.0,4103,75053.617123
30700.0,4205,75194.578429
28500.0,3859,75327.589279
27700.0,3755,75453.709865
41300.0,4728,75617.718006
17900.0,2831,75715.624698
26000.0,3546,75839.003343
31900.0,4329,75981.88449
31700.0,4408,76137.006747
20500.0,2960,76235.960741
14800.0,2625,76324.350766
41400.0,4950,76492.446528
28700.0,3588,76616.681787
24600.0,3320,76729.847869
29500.0,4238,76875.997887
20800.0,3163,76988.282541
30000.0,4080,77126.338315
12100.0,2129,77195.345022
33800.0,4342,77343.541312
18000.0,2772,77433.743907
27400.0,3486,77549.598359
20100.0,3216,77656.056301
25400.0,3245,77764.548349
32100.0,4407,77921.843417
24900.0,3765,78051.842994
31700.0,4559,78211.47677
17100.0,3014,78314.99729
26000.0,3929,78451.677902
13600.0,2641,78540.605
24800.0,3723,78666.333654
20900.0,3562,78790.679057
20000.0,3596,78917.380335
22300.0,3411,79035.219244
15100.0,3162,79143.360147
28000.0,4631,79303.110096
29200.0,4729,79463.594647
25200.0,3720,79590.714311
23300.0,3424,79712.550273
25200.0,3560,79835.877781
22900.0,3435,79951.70536
18400.0,2563,80043.943238
17400.0,2850,80144.627794
17400.0,2724,80238.439028
37800.0,4618,80395.443572
27000.0,3590,80521.012448
26200.0,4193,80662.704705
29700.0,4477,80816.46668
19500.0,3292,80929.334911
24900.0,3538,81052.405691
27800.0,3647,81183.147493
36200.0,4879,81348.471943
27800.0,4115,81488.328596
24800.0,3858,81622.439768
20600.0,3181,81730.837052
32100.0,4559,81888.309819
36000.0,5016,82060.389547
29100.0,3799,82186.549173
29900.0,4043,82327.629011
32700.0,4746,82493.709115
13700.0,1847,82555.507926
17900.0,2834,82652.473615
36900.0,4272,82805.122283
37700.0,4316,82954.456376
19700.0,2932,83056.695723
41100.0,5035,83231.786607
32900.0,4191,83375.50973
42400.0,5074,83551.054826
31400.0,3647,83670.713104
11300.0,1797,83733.847055
42100.0,5001,83910.175921
49200.0,5511,84092.574237
27700.0,3404,84203.686121
27400.0,3537,84315.455726
41700.0,4629,84455.142864
44700.0,5333,84617.273485
31800.0,3924,84734.223184
40500.0,5751,84907.458461
47600.0,5271,85065.989237
37900.0,4830,85214.520697
20600.0,2943,85302.345708
37700.0,4299,85434.576845
33400.0,4237,85561.863508
36700.0,4677,85699.175014
23900.0,3201,85790.335116
28400.0,3589,85891.713879
41400.0,4845,86024.909505
34400.0,4182,86139.762901
22500.0,3181,86230.675229
31000.0,3863,86338.955905
33200.0,4082,86454.560108
26600.0,3213,86544.439961
31300.0,4185,86660.06512
