# {"t_start": 1547446649.9142406, "env_id": "KungFuMasterNoFrameskip-v4"} 
r,l,t
400.0,674,25.312088
900.0,970,57.048028
2400.0,1263,102.606977
1500.0,1327,149.355175
3200.0,1280,194.986697
2600.0,1078,233.746241
4400.0,1756,295.893236
3700.0,1348,343.417759
5100.0,1519,396.640246
9000.0,2042,468.713497
4900.0,1693,528.662332
5000.0,1586,584.219941
6300.0,2006,655.195442
1700.0,1004,691.949785
6800.0,1915,761.726973
1000.0,1024,799.012031
3000.0,1468,850.98728
5400.0,1611,909.645312
6400.0,1541,966.007002
4400.0,1208,1009.081343
11700.0,2131,1086.596285
5200.0,1582,1145.189474
5300.0,1366,1194.874646
6700.0,1414,1247.03642
12700.0,2090,1321.552706
7400.0,1634,1379.275529
11700.0,1991,1449.965653
12000.0,1855,1515.898134
14500.0,2275,1601.611546
10400.0,1980,1673.408988
13400.0,2031,1751.038126
15600.0,2367,1837.577653
14000.0,2305,1922.38904
21500.0,2868,2029.828007
13100.0,2023,2103.966951
15800.0,2508,2195.769785
16000.0,2208,2278.193593
19500.0,2647,2377.15251
22200.0,2767,2476.468577
12100.0,2008,2548.899731
20600.0,2560,2646.503206
10200.0,2009,2718.435582
15200.0,2527,2807.251174
12500.0,1939,2877.789578
17200.0,2501,2966.983416
15600.0,2395,3052.71903
21800.0,2548,3144.852798
10700.0,1873,3212.273352
10900.0,1657,3271.909286
13100.0,2167,3350.674838
11000.0,1802,3416.886237
19000.0,2385,3505.854799
14200.0,2125,3580.510933
16300.0,2630,3677.348687
9700.0,1903,3746.78535
11400.0,2153,3828.063684
22300.0,3163,3945.588078
10800.0,2124,4023.849525
15000.0,2004,4096.750006
17600.0,2601,4191.17328
11200.0,2313,4276.23171
12500.0,1892,4346.584867
11500.0,1700,4410.815758
14400.0,2413,4497.175333
32800.0,3804,4637.775417
20100.0,2582,4733.568925
25700.0,3158,4848.618177
11100.0,1611,4907.86205
13600.0,1876,4976.174911
20300.0,2411,5067.323039
14100.0,2025,5143.509822
16200.0,2179,5225.498525
25900.0,3054,5338.320207
12600.0,1796,5403.506468
16600.0,2195,5485.980486
25400.0,2897,5596.908368
16000.0,2244,5680.449168
16100.0,2252,5767.248894
12900.0,1896,5837.63555
17500.0,2295,5923.703811
11100.0,1663,5983.776102
21800.0,2363,6070.545076
10000.0,1494,6126.399325
21400.0,2578,6221.012434
16200.0,2074,6300.535522
27400.0,2955,6414.179616
32600.0,3064,6527.522917
21000.0,2589,6622.026334
16900.0,2157,6701.226894
15400.0,1933,6770.980197
19000.0,2211,6850.773292
16800.0,2015,6927.163601
23400.0,2849,7031.67826
22600.0,2632,7129.984963
8100.0,1412,7182.762101
18000.0,2526,7276.898172
21400.0,2308,7360.495359
13400.0,1730,7424.327631
18300.0,2490,7515.781152
19600.0,2377,7605.519683
16600.0,2088,7683.044332
25600.0,2885,7790.431209
18000.0,2256,7875.497161
18800.0,2522,7969.686348
16200.0,2128,8051.722701
24600.0,2816,8157.688367
12100.0,1848,8227.475612
12600.0,2010,8302.702875
18600.0,2392,8389.811629
14400.0,2016,8463.247725
21400.0,2675,8562.7458
10200.0,1642,8623.990815
23600.0,2885,8732.338426
19800.0,2555,8828.026015
17800.0,2286,8911.913635
22800.0,2669,9011.001166
7400.0,1435,9065.705739
18800.0,2458,9157.361161
18100.0,2416,9245.503505
27600.0,3005,9358.17968
14800.0,1951,9430.970369
15200.0,2124,9508.786372
10200.0,1621,9567.260802
14200.0,2093,9644.823884
25300.0,2951,9755.659848
16400.0,2309,9841.871241
19400.0,2476,9935.804625
7400.0,1688,10000.04224
17800.0,2390,10087.563351
26400.0,2933,10199.025599
16600.0,2390,10286.919605
19800.0,2436,10379.140816
14100.0,2227,10461.779184
18000.0,2429,10553.616762
22000.0,2726,10652.490584
11200.0,1676,10713.353554
31600.0,3888,10860.555869
11800.0,1894,10931.969174
11400.0,1695,10996.129589
27300.0,3339,11119.671139
18000.0,2321,11207.126994
12800.0,2078,11279.98524
16800.0,2126,11356.605297
15200.0,2058,11429.712042
25200.0,2651,11529.390494
23600.0,2529,11622.637897
21000.0,2522,11716.264597
25800.0,3191,11832.055824
17800.0,2295,11917.0039
22000.0,2709,12015.599558
27000.0,3138,12129.839033
22600.0,2897,12241.251352
22200.0,2646,12340.772957
20200.0,2292,12425.202947
14200.0,2137,12507.310276
24000.0,2635,12604.358656
30200.0,3289,12726.242365
24200.0,3260,12846.893264
15200.0,2235,12930.387957
18000.0,2235,13012.998168
29800.0,3254,13132.119053
17200.0,2465,13223.686818
15900.0,2197,13305.182895
12800.0,1857,13373.926229
18500.0,2380,13462.271619
16400.0,2272,13543.539097
22800.0,2712,13645.225849
11400.0,1943,13715.765215
9600.0,1677,13778.969685
13800.0,2138,13857.021534
9800.0,1777,13922.224222
21100.0,2876,14031.295704
26800.0,3403,14158.543939
16500.0,2337,14246.73267
22500.0,2681,14346.776835
11300.0,2014,14422.674455
15200.0,2331,14505.637597
21900.0,2716,14606.777129
21000.0,2457,14697.048679
10000.0,1618,14756.530097
19600.0,2417,14843.776661
20300.0,2413,14932.871882
15800.0,1976,15006.059818
20200.0,2518,15098.607594
16800.0,2204,15180.986539
18400.0,2349,15269.773052
29400.0,3266,15388.4344
19300.0,2590,15485.453244
20100.0,2511,15581.962819
36000.0,4004,15735.36783
18300.0,2126,15815.433726
26500.0,3050,15929.651228
24200.0,2882,16035.193584
11700.0,1899,16107.412221
33500.0,3917,16252.572338
12000.0,1912,16320.947981
17800.0,2281,16404.983979
16300.0,2257,16489.965064
25800.0,3111,16604.315348
13700.0,1944,16677.880617
27100.0,2840,16785.907231
15800.0,2010,16860.781434
17800.0,2366,16947.661867
29700.0,3161,17066.07921
23400.0,2676,17162.520844
16900.0,2326,17247.063179
31900.0,3212,17367.755342
20200.0,2564,17459.993178
10600.0,1812,17526.573321
17100.0,2340,17613.713037
21400.0,2742,17715.085336
11400.0,2084,17790.572918
21400.0,2631,17887.800624
19100.0,2739,17989.43583
19300.0,2637,18087.161097
15000.0,2378,18172.419552
35500.0,4625,18343.18014
16500.0,2758,18442.673762
17600.0,2708,18539.669144
16000.0,2540,18633.351752
19800.0,2733,18733.593764
27100.0,3559,18863.484898
14500.0,2056,18938.817047
22400.0,3160,19055.79078
31900.0,4249,19207.416573
29300.0,3725,19344.809538
19700.0,2936,19452.642265
25200.0,2928,19560.864172
34400.0,3691,19696.839754
9600.0,1800,19763.811471
12000.0,1957,19838.086111
30200.0,3461,19964.982383
27400.0,2937,20073.244742
20400.0,2559,20166.660517
27400.0,3094,20279.695764
26100.0,2776,20379.823338
28600.0,3452,20510.262192
25700.0,2907,20616.700485
22000.0,2927,20729.2985
14000.0,2059,20801.737502
27400.0,3261,20921.292949
14800.0,1762,20986.852477
16900.0,2351,21070.781835
19800.0,2564,21163.469679
12500.0,2122,21243.831942
28100.0,3594,21376.178967
19600.0,2554,21472.322927
11300.0,1762,21535.646451
18700.0,2528,21631.033173
19700.0,2960,21740.452177
11100.0,1893,21809.216295
12700.0,2291,21894.416485
24400.0,3354,22019.346984
34300.0,4065,22171.016623
17500.0,2730,22272.030369
13700.0,2402,22360.583071
10200.0,1966,22433.65284
13400.0,2221,22519.839178
19400.0,3414,22644.380193
11200.0,2577,22740.153989
7100.0,1819,22808.226506
7200.0,1984,22885.760422
17400.0,3259,23010.026965
18300.0,2946,23116.155149
14300.0,3104,23232.659617
13100.0,2604,23327.258475
7800.0,1951,23400.333843
22500.0,4127,23551.162248
8200.0,1851,23617.43346
9400.0,2150,23696.354678
13400.0,2715,23796.490044
9600.0,2298,23880.187038
14900.0,3122,23993.643701
12800.0,2687,24092.316781
9300.0,2132,24174.474135
10800.0,2353,24259.885777
13700.0,2384,24350.098472
14800.0,2372,24438.790853
6200.0,1820,24506.50796
21300.0,3381,24631.671197
17700.0,2743,24729.60953
17100.0,2960,24838.93455
17000.0,3214,24961.586819
15500.0,2672,25060.677481
18000.0,3100,25177.337109
15900.0,2753,25277.240086
7300.0,2021,25351.002956
16400.0,2781,25456.405133
15100.0,2458,25547.599923
16700.0,2505,25642.43838
18100.0,3000,25751.615457
18400.0,2941,25862.529198
19600.0,3395,25988.17834
16700.0,3177,26106.171045
11800.0,2370,26195.428557
21800.0,3912,26339.686871
6800.0,1479,26394.483588
23700.0,3173,26513.75156
10300.0,2032,26592.867421
30600.0,4420,26763.711158
15400.0,2474,26859.87568
12100.0,2199,26943.101182
9500.0,2078,27026.095384
11800.0,2251,27112.175052
18300.0,3338,27238.467252
16000.0,3164,27361.111872
20200.0,3428,27494.43946
20600.0,3422,27621.24406
12200.0,2285,27708.091053
15900.0,2719,27811.735651
20400.0,2889,27920.088183
19300.0,2499,28014.881586
24800.0,3087,28131.426623
19100.0,2538,28229.599751
17900.0,2611,28332.344129
17100.0,2565,28431.029727
16600.0,2566,28528.375137
28300.0,3801,28672.406319
19200.0,2934,28784.541677
18300.0,2521,28882.028215
27400.0,3102,28998.109431
18800.0,2560,29096.963923
19400.0,2638,29199.920316
23400.0,3272,29326.363322
42800.0,4952,29510.197343
16200.0,2762,29617.425864
24100.0,3427,29748.607412
17500.0,2652,29852.056285
15500.0,2501,29950.254104
29100.0,3721,30096.415661
26000.0,3701,30237.707488
20300.0,2857,30344.975877
20000.0,3120,30465.4292
17800.0,2728,30572.692031
30800.0,3789,30715.224409
7700.0,1695,30778.439912
22800.0,3505,30907.621184
20300.0,3147,31022.954757
29500.0,4111,31169.133396
30400.0,3860,31312.124851
21700.0,4077,31459.55669
21900.0,3308,31579.737606
24600.0,3642,31717.548209
19100.0,2802,31826.514508
10900.0,2530,31922.387036
13100.0,2279,32010.646009
28400.0,3598,32147.194011
21600.0,2778,32252.242503
18800.0,2741,32352.845461
19600.0,3113,32467.126376
14000.0,2345,32555.344601
15200.0,2293,32636.12098
25700.0,3662,32770.856052
17100.0,2608,32868.538263
28800.0,4516,33042.525419
12800.0,2507,33140.920401
18600.0,3390,33267.534431
14400.0,2773,33369.769003
18000.0,3219,33486.811099
12100.0,2078,33566.193905
20300.0,2963,33678.659821
19800.0,3540,33812.989084
16700.0,2562,33909.044725
21300.0,3231,34026.167932
13200.0,2392,34115.463498
18900.0,3473,34249.709109
11900.0,2342,34336.538718
13300.0,2446,34423.785537
12000.0,2077,34497.317283
18400.0,2373,34585.88209
33000.0,3745,34725.758581
31900.0,3537,34856.121452
36400.0,3947,35001.200489
29500.0,3530,35135.171182
20800.0,2828,35239.475437
22100.0,3259,35359.20384
30800.0,4026,35507.703461
28700.0,4171,35659.343879
24500.0,3159,35775.344039
14400.0,2454,35866.591608
17200.0,2532,35961.03189
12100.0,2370,36048.625038
21400.0,3624,36182.205511
14000.0,2421,36271.331399
23300.0,3604,36401.526174
16900.0,3017,36513.918681
19900.0,3626,36651.793687
15400.0,3038,36761.496023
13500.0,2674,36860.651281
18100.0,3036,36975.145417
28000.0,3659,37109.987767
16000.0,2511,37204.79171
18100.0,2587,37299.451676
22000.0,2499,37394.771429
19900.0,2978,37503.44441
19400.0,2849,37608.092308
18600.0,2906,37717.739821
10800.0,2201,37798.030024
12900.0,2076,37873.847817
20700.0,3214,37992.178289
11700.0,2177,38074.215348
21900.0,3468,38201.430064
22300.0,3586,38335.073348
22100.0,3224,38453.276337
13600.0,2322,38540.804586
17500.0,3175,38658.182167
13300.0,2633,38759.036835
13600.0,2792,38859.995845
21200.0,3588,38992.033089
21000.0,3430,39121.153619
25100.0,4408,39283.699955
11800.0,2554,39378.865737
10100.0,2093,39458.892801
14700.0,2906,39566.243512
19500.0,3386,39692.26906
18100.0,2937,39802.616868
21600.0,3431,39928.413136
16700.0,2769,40031.149824
17800.0,2690,40130.573972
15500.0,2774,40232.911008
19400.0,3158,40346.453039
17600.0,2820,40453.336583
14200.0,2335,40540.731899
20400.0,3108,40657.121494
23900.0,3427,40783.64489
18800.0,3165,40899.988005
39900.0,4963,41082.235402
20300.0,2933,41191.608464
25700.0,3461,41320.829578
13300.0,2524,41414.280588
30600.0,4128,41567.758223
38100.0,4950,41751.051147
19800.0,3154,41866.998022
19600.0,3223,41984.328565
18800.0,2896,42091.099566
22500.0,3008,42204.413276
22300.0,3150,42324.413385
29500.0,4260,42483.631803
18100.0,2990,42591.276904
37800.0,4696,42766.201331
20400.0,3478,42897.77194
18200.0,2718,42996.917892
19300.0,2641,43094.949019
25900.0,2939,43204.729192
39900.0,4432,43368.256303
19800.0,3163,43485.111836
27300.0,3552,43612.823073
19100.0,2621,43708.772654
22100.0,3215,43830.269606
14800.0,2255,43916.531019
18600.0,2602,44012.745622
14400.0,2416,44100.141604
13200.0,2567,44196.019109
28000.0,3939,44340.958377
26600.0,4128,44496.113629
25500.0,4542,44664.851738
10100.0,2346,44749.627781
17100.0,3258,44868.71484
19800.0,3322,44990.162662
15500.0,2715,45091.930374
18200.0,3445,45222.534332
22700.0,3535,45353.811329
22100.0,3175,45473.211115
28800.0,3981,45617.788919
40900.0,5057,45802.440958
33900.0,4262,45959.085439
31800.0,3551,46091.133116
27300.0,3612,46226.351147
28000.0,3859,46370.070038
35700.0,4150,46522.117645
29100.0,3428,46648.135766
23700.0,3211,46770.007031
32600.0,3879,46915.644143
25600.0,3661,47045.779633
27200.0,4046,47195.785248
36600.0,4751,47371.864923
25100.0,3988,47523.201072
34200.0,4679,47695.960511
32800.0,4459,47860.561176
36500.0,4586,48026.263219
26800.0,3750,48161.22943
17400.0,2670,48255.986521
15900.0,2732,48359.247671
26100.0,3539,48490.910269
19800.0,2997,48602.38502
27100.0,3831,48739.826924
23000.0,3430,48863.937844
30300.0,4322,49018.968774
29000.0,4080,49167.778649
31500.0,4575,49328.377344
20100.0,3214,49433.622444
20700.0,3102,49533.970814
25100.0,4028,49663.985772
24500.0,3854,49788.920757
34100.0,4810,49947.291201
24500.0,4043,50072.702092
9600.0,2151,50134.431665
19100.0,3187,50229.740215
27100.0,4023,50351.469575
30900.0,4058,50473.709116
29300.0,3830,50582.543712
21300.0,3429,50680.516072
25300.0,4425,50806.944191
23100.0,3831,50918.927678
39400.0,5128,51087.500848
21300.0,3156,51197.286064
26000.0,2944,51300.874537
24500.0,3272,51413.969799
22000.0,2720,51508.976026
24800.0,3227,51622.117518
21400.0,2669,51715.765227
13800.0,2131,51790.081919
24400.0,3325,51905.963977
24200.0,3014,52008.215013
27500.0,3374,52120.721425
25500.0,3614,52241.937015
12200.0,2122,52311.152242
27700.0,4262,52433.433407
15900.0,2876,52513.163805
21800.0,3168,52596.88182
15600.0,2935,52675.766718
17700.0,3019,52751.335643
12900.0,2531,52815.872389
18200.0,2926,52887.553638
18600.0,2608,52952.511448
27500.0,3972,53050.013751
20100.0,3231,53129.758287
26600.0,4078,53231.949248
13100.0,2643,53298.668174
20100.0,3412,53383.070602
37300.0,5406,53519.755805
35600.0,3814,53615.592212
20600.0,2784,53686.751898
28400.0,3589,53773.655277
40300.0,4816,53890.680873
38900.0,5458,54024.371455
16000.0,2463,54085.86099
31000.0,4244,54190.631823
15600.0,2227,54248.498338
20800.0,3434,54333.551832
29300.0,3958,54432.764695
16000.0,2714,54499.936308
19700.0,3589,54586.405114
14000.0,2453,54648.272563
21700.0,3147,54727.032597
21200.0,3213,54808.325822
15700.0,2516,54868.842334
26100.0,3589,54956.793927
35200.0,4095,55059.569284
31000.0,3798,55153.212859
23700.0,3176,55234.000178
21100.0,3263,55314.364374
25000.0,3535,55401.520368
36600.0,5427,55535.248633
22100.0,3916,55631.687976
10200.0,2032,55683.773007
25100.0,3889,55777.96859
15400.0,2800,55846.169495
28900.0,3585,55935.339071
18100.0,2958,56009.29263
32800.0,4421,56120.053288
27400.0,3757,56214.786205
39900.0,4790,56331.198491
30900.0,4812,56450.43429
37700.0,4676,56565.031765
33900.0,4472,56678.394637
24500.0,2889,56747.975148
35100.0,4402,56856.897303
32300.0,4172,56960.3826
22900.0,2886,57030.030078
30900.0,3930,57126.301612
21800.0,2806,57195.538217
20800.0,3105,57271.153705
42600.0,4856,57390.753294
28700.0,4244,57494.32504
11000.0,1993,57542.867023
25300.0,3499,57629.2147
22700.0,2801,57699.189882
36000.0,4098,57800.906939
22900.0,3044,57875.727401
19800.0,3377,57958.752717
25700.0,3723,58052.095085
20500.0,2989,58130.136852
35400.0,5340,58274.60303
20100.0,3476,58373.611579
26900.0,4023,58494.835558
29200.0,3647,58604.401985
29600.0,3885,58732.591845
18800.0,2899,58832.263389
33800.0,4137,58972.390742
31500.0,4108,59107.99595
13800.0,2456,59188.652053
24000.0,3614,59308.939067
28000.0,3759,59440.449723
23100.0,3326,59555.071623
13100.0,2417,59639.916904
19600.0,3334,59757.051822
20200.0,3235,59865.789779
23400.0,3127,59973.496135
24800.0,3154,60084.388736
35500.0,4502,60237.269995
18500.0,2778,60335.847052
27000.0,3444,60454.791069
28700.0,3978,60589.67188
22200.0,3402,60707.434261
24900.0,3855,60839.623753
24700.0,3377,60958.042894
31700.0,4482,61112.206642
13500.0,2442,61197.063852
19800.0,3097,61302.523629
34100.0,4547,61461.943456
18800.0,3068,61566.11599
15900.0,2645,61656.186106
19800.0,3108,61764.127865
8400.0,1880,61830.46278
25200.0,3544,61949.815614
29500.0,3701,62076.771843
22900.0,3099,62183.994785
21300.0,3253,62297.911479
30600.0,4299,62442.471056
33100.0,4639,62598.675091
25900.0,3482,62713.919241
29800.0,3430,62834.393196
11600.0,2126,62908.133983
35200.0,4798,63073.902438
25900.0,3377,63191.23979
23100.0,3373,63308.128457
20800.0,2973,63407.259355
13500.0,2454,63489.668357
24100.0,3386,63604.553814
28900.0,3659,63729.458611
34800.0,4250,63873.810669
41600.0,5111,64042.850052
38400.0,4497,64197.331398
19400.0,2509,64282.706219
32700.0,4798,64449.61591
31900.0,4076,64589.945528
16900.0,2382,64669.386239
15200.0,2401,64752.823302
22700.0,3477,64869.110036
15800.0,2760,64963.429513
36100.0,4630,65123.232135
30900.0,4296,65271.562757
29400.0,3883,65403.939259
26100.0,3600,65527.924647
27300.0,3411,65648.599592
19100.0,2934,65751.664359
21100.0,2959,65855.112571
35500.0,4423,66005.289533
25300.0,3333,66113.340826
14200.0,2486,66197.574388
30400.0,4330,66346.570853
36300.0,4914,66518.293075
14900.0,2608,66608.604688
17600.0,2743,66705.887633
36100.0,4282,66853.237052
19600.0,2776,66947.213324
38100.0,4836,67108.786516
30200.0,3663,67233.190035
15600.0,2393,67314.147126
30800.0,4080,67454.247797
23400.0,2996,67558.686922
17600.0,2907,67656.700105
24500.0,3374,67773.116743
32500.0,3859,67905.222773
22300.0,3126,68013.323833
28400.0,3646,68139.328034
41500.0,5184,68316.460357
13100.0,2365,68394.820607
27100.0,3542,68516.437447
32800.0,4167,68660.256324
35500.0,4513,68812.626118
30500.0,3860,68946.990917
29200.0,3598,69072.827834
13800.0,1967,69140.073218
50600.0,5185,69319.473106
25900.0,2992,69423.538883
43400.0,4519,69580.529879
28400.0,3368,69695.875092
30000.0,3216,69808.690008
38600.0,4080,69950.290264
29500.0,3542,70073.726149
31500.0,3542,70195.503357
28400.0,3135,70301.700259
39500.0,4183,70447.561929
23900.0,2447,70531.626235
24900.0,2832,70630.044855
25800.0,2841,70729.851576
35800.0,3644,70853.233493
19700.0,2306,70934.517643
49900.0,5167,71110.906074
25400.0,3127,71216.845767
32000.0,3578,71336.562768
26400.0,3214,71445.4406
35600.0,3891,71580.449128
26600.0,3215,71691.726692
25200.0,3449,71808.62227
27400.0,3728,71934.63104
26900.0,3295,72047.438175
17100.0,2564,72136.825849
26900.0,3601,72256.253511
35400.0,4415,72403.864092
35800.0,4786,72566.351562
13800.0,2328,72643.10581
18000.0,2595,72732.360825
29400.0,4123,72875.936645
37400.0,4821,73052.5928
26600.0,3639,73185.270783
15700.0,2523,73275.742933
21200.0,3595,73405.8324
28300.0,4239,73555.661461
23800.0,3610,73683.610037
25300.0,3254,73796.263545
27500.0,3718,73925.485815
28500.0,3968,74060.436158
31500.0,4479,74215.005666
37900.0,4712,74376.625132
27300.0,4532,74530.920392
22400.0,3858,74658.658574
30700.0,4098,74796.471691
35900.0,4836,74960.873821
25500.0,3904,75094.421111
30200.0,4304,75239.167438
19900.0,2938,75341.519381
39900.0,5150,75515.161399
27200.0,3920,75651.638527
20100.0,3211,75760.301842
28700.0,4297,75906.973945
30300.0,4018,76046.611919
26400.0,3541,76166.320963
32000.0,4242,76310.14273
36300.0,4409,76459.79962
26700.0,3661,76585.853793
32000.0,4022,76723.221212
35300.0,4486,76878.042405
26900.0,3561,77003.469039
24000.0,3512,77122.266882
15800.0,2745,77212.534776
24300.0,3613,77334.768248
21900.0,3429,77447.638273
30300.0,3903,77577.690096
24600.0,3860,77706.345702
19300.0,3307,77818.21079
33100.0,4567,77979.778608
33200.0,4191,78127.518012
15000.0,3214,78238.298058
19100.0,3425,78357.742459
31200.0,4293,78505.477077
30100.0,4300,78649.015835
18500.0,3151,78757.872092
24400.0,4027,78899.60563
23300.0,3716,79029.582347
30800.0,4843,79195.952988
20800.0,3762,79325.267767
22700.0,3897,79456.717929
28000.0,4238,79601.836223
39900.0,5232,79786.927884
23600.0,3587,79907.432894
31100.0,4201,80056.567208
20200.0,3305,80172.986299
36100.0,4515,80325.891166
25000.0,4085,80468.754678
21000.0,3159,80577.564972
32700.0,4294,80723.189983
35800.0,5057,80897.865712
26500.0,4236,81044.114958
25900.0,3804,81180.011855
19700.0,3209,81291.036616
31300.0,3976,81424.952298
28600.0,4190,81565.270159
37400.0,4727,81729.564134
29800.0,3663,81856.367728
29200.0,4248,82003.846618
17000.0,2891,82100.658304
19900.0,3141,82204.229343
24000.0,3471,82325.847146
21800.0,3427,82446.70064
20700.0,2778,82541.185301
28500.0,4109,82683.173034
48400.0,5761,82885.750997
28200.0,3594,83010.527908
26500.0,3407,83129.365431
35800.0,4453,83284.012691
22200.0,3545,83404.453842
35400.0,4378,83556.325414
35000.0,4043,83691.69601
46200.0,5164,83871.751742
44200.0,4952,84038.565747
37000.0,4733,84193.939179
32900.0,3598,84309.841056
40600.0,4566,84445.053948
41300.0,5021,84600.318692
36900.0,4667,84737.660127
31700.0,4299,84868.705951
27200.0,3811,84982.80277
32500.0,4164,85108.471673
27000.0,3611,85219.92172
44200.0,5272,85377.926502
25700.0,3576,85488.12186
39900.0,4993,85637.63953
46200.0,5054,85781.637632
36300.0,4900,85920.300754
28700.0,3810,86024.009967
33900.0,4136,86137.999528
30300.0,3807,86245.891822
41900.0,4990,86385.930847
26000.0,3451,86484.212346
37400.0,4479,86609.448885
