# {"t_start": 1547545176.5281434, "env_id": "TennisNoFrameskip-v4"} 
r,l,t-24.0,1671,63.464293
-24.0,1790,125.104598
-24.0,1793,186.778496
-23.0,1731,249.149467
-24.0,1667,305.666808
-24.0,1540,360.411977
-24.0,1558,414.698663
-24.0,1682,475.128223
-2.0,99995,3909.879516
-24.0,1641,3963.539749
-24.0,76549,6521.630759
-24.0,1575,6579.474217
-24.0,1641,6640.171635
-24.0,1696,6704.5704
-24.0,1633,6763.683585
-24.0,34082,7999.022151
-23.0,1666,8058.483547
-19.0,99994,11700.955835
-24.0,27182,12694.095033
-24.0,1573,12748.800774
-24.0,1569,12805.963027
-24.0,1606,12865.844913
-24.0,3139,12980.032947
-24.0,1629,13040.933311
-24.0,1697,13104.591109
-24.0,1728,13168.683001
-24.0,1600,13227.753097
-24.0,1600,13283.071877
-23.0,1667,13345.59363
-24.0,1584,13404.462777
-22.0,1776,13466.407065
-23.0,1729,13529.695761
-24.0,14855,14076.21931
-24.0,1616,14136.772884
-24.0,8896,14468.493211
-24.0,1607,14526.406186
-24.0,1587,14586.312887
-24.0,91795,17931.052403
-24.0,1702,17994.817622
-24.0,1671,18056.184855
-24.0,1636,18119.774393
-24.0,1777,18183.477077
-23.0,27266,19186.523091
-24.0,1637,19245.011689
-24.0,7380,19511.014248
-24.0,1589,19570.915758
-24.0,1571,19628.877569
-24.0,1697,19694.312324
-24.0,1604,19752.746217
-19.0,99993,23400.99339
-23.0,1671,23460.118185
-24.0,1541,23517.909243
-24.0,1535,23572.295808
-24.0,1523,23626.948085
-24.0,1511,23683.062882
-24.0,1542,23736.718073
-24.0,49054,25526.820479
-24.0,1663,25587.732623
-23.0,1686,25651.054786
-24.0,1794,25715.804809
-24.0,5667,25917.793918
-24.0,3906,26062.273808
-24.0,1650,26124.123796
-24.0,1685,26188.230155
-23.0,1815,26253.320737
-23.0,54588,28233.859738
-2.0,99994,31887.21684
-24.0,61696,34136.424704
-8.0,99998,37790.731546
-24.0,1509,37845.475343
-24.0,5383,38040.396411
-24.0,1703,38103.09376
-24.0,1638,38162.93902
-24.0,1694,38224.080849
-24.0,1568,38282.24241
-24.0,1632,38341.847996
-24.0,1578,38399.211762
-24.0,1683,38459.68323
-24.0,1634,38519.242267
-24.0,1632,38578.720207
-23.0,1639,38639.576312
-23.0,1624,38699.507038
-23.0,1844,38767.341088
-24.0,1570,38826.264787
-24.0,1684,38888.021246
-24.0,90567,42211.722992
-24.0,1600,42271.36352
-24.0,1655,42333.966632
-24.0,1730,42396.375137
-24.0,1543,42450.56545
-22.0,1792,42516.285301
-24.0,1774,42580.613277
-23.0,1749,42639.186443
-24.0,7409,42899.374128
-24.0,1651,42957.155446
-23.0,1656,43015.646688
-24.0,1596,43072.433495
-24.0,1571,43124.854322
-23.0,1780,43187.754926
-24.0,1708,43245.763652
-24.0,1576,43300.276112
-23.0,1808,43360.062984
-24.0,1624,43414.460071
-24.0,1608,43466.396548
-24.0,1725,43525.875331
-24.0,1634,43586.670716
-24.0,1633,43645.181329
-24.0,1579,43699.941548
-24.0,1634,43756.73707
-24.0,1699,43812.902096
-23.0,1720,43868.433902
-24.0,1637,43923.285953
-24.0,1666,43981.327767
-23.0,1714,44040.941527
-24.0,9285,44360.83352
-24.0,29444,45396.161811
-24.0,1734,45456.778221
-22.0,1814,45520.398315
-24.0,86771,48250.005591
-24.0,1635,48296.36549
-11.0,99996,50961.132585
-18.0,99994,53671.465184
-2.0,99996,57502.581832
-2.0,99999,61371.97211
-3.0,99997,65254.292876
-1.0,99995,69147.29239
-19.0,100000,73024.345866
-23.0,1641,73085.657336
-24.0,1558,73148.445932
-24.0,1567,73212.413655
-24.0,1661,73277.037197
-16.0,99998,77054.408981
-11.0,99995,80732.28453
-24.0,1540,80785.003178
-19.0,99998,84050.406963
-1.0,99997,87396.136244
-24.0,1518,87453.873521
-24.0,1560,87515.56901
-24.0,1584,87578.058567
-24.0,1542,87636.895041
-24.0,1519,87695.193755
