# {"t_start": 1546995097.4658017, "env_id": "BoxingNoFrameskip-v4"} 
r,l,t
5.0,1778,47.725723
3.0,1781,91.487103
1.0,1784,135.104888
0.0,1783,181.860099
-7.0,1781,228.607394
-4.0,1780,275.475117
3.0,1779,324.455134
1.0,1782,374.1131
-1.0,1781,426.673374
-6.0,1780,478.8699
-1.0,1782,530.977283
0.0,1782,583.855083
10.0,1782,636.85739
0.0,1782,689.961814
-4.0,1782,742.214236
6.0,1780,796.072167
-1.0,1781,849.165909
2.0,1782,901.193191
-6.0,1781,954.435639
-3.0,1782,1009.080611
6.0,1780,1061.514283
1.0,1785,1116.371832
-4.0,1782,1169.466047
-9.0,1781,1221.038321
0.0,1780,1273.454688
1.0,1784,1326.338332
-4.0,1785,1383.332417
-7.0,1781,1439.376893
3.0,1779,1493.924493
-7.0,1779,1549.654883
-27.0,1783,1606.461557
0.0,1778,1664.56882
-9.0,1785,1723.75391
1.0,1782,1784.88625
1.0,1781,1844.15895
3.0,1782,1902.892378
-14.0,1784,1962.534448
1.0,1779,2022.409344
7.0,1782,2083.158067
2.0,1779,2142.531739
4.0,1780,2199.730547
1.0,1780,2258.159512
23.0,1781,2318.338155
2.0,1779,2374.868437
-5.0,1779,2435.462695
-1.0,1784,2496.48364
1.0,1785,2556.097028
3.0,1783,2614.02386
3.0,1779,2674.122918
1.0,1780,2732.043626
1.0,1781,2790.187633
-3.0,1783,2849.148432
-12.0,1784,2908.426806
3.0,1784,2967.257541
10.0,1780,3026.612305
-8.0,1779,3088.301183
-3.0,1779,3147.784799
-5.0,1781,3207.763404
4.0,1782,3266.254417
0.0,1780,3324.562198
-2.0,1783,3381.787671
3.0,1784,3442.555184
-4.0,1784,3499.542088
7.0,1785,3557.232363
4.0,1780,3616.80198
-2.0,1781,3674.475097
7.0,1785,3731.92941
14.0,1785,3792.551541
0.0,1780,3852.473407
10.0,1785,3912.061876
21.0,1783,3971.159885
11.0,1785,4030.459075
6.0,1778,4089.886449
5.0,1781,4151.052851
17.0,1783,4209.769923
11.0,1781,4269.401783
12.0,1778,4328.593394
3.0,1780,4387.13376
4.0,1781,4445.461752
-3.0,1779,4505.379438
19.0,1780,4567.240474
10.0,1780,4625.150265
23.0,1784,4684.03538
-3.0,1784,4743.744238
-2.0,1779,4805.115879
2.0,1783,4864.113731
12.0,1783,4925.188055
7.0,1782,4985.132801
6.0,1785,5044.715085
-5.0,1782,5106.044684
4.0,1784,5163.772228
10.0,1781,5223.354989
11.0,1781,5280.286887
11.0,1783,5341.29578
-4.0,1781,5400.067125
6.0,1783,5459.330577
6.0,1781,5517.658868
14.0,1782,5574.873727
14.0,1785,5633.042943
20.0,1780,5693.556026
13.0,1781,5751.721264
11.0,1779,5810.977293
0.0,1785,5872.209707
3.0,1784,5930.137538
24.0,1780,5988.629346
16.0,1779,6048.48988
14.0,1783,6109.279065
7.0,1780,6168.449029
9.0,1780,6227.833795
2.0,1783,6285.51596
13.0,1784,6346.932507
6.0,1783,6407.310902
10.0,1781,6465.512894
0.0,1780,6525.739027
-1.0,1784,6586.176827
-3.0,1781,6645.466457
4.0,1779,6705.118764
10.0,1783,6766.135774
13.0,1779,6826.298181
6.0,1778,6886.616147
20.0,1778,6946.723845
-1.0,1784,7006.477239
20.0,1781,7064.423037
2.0,1785,7123.565262
13.0,1783,7184.040463
8.0,1779,7243.802765
16.0,1784,7304.769119
13.0,1784,7362.151757
7.0,1780,7423.446387
9.0,1783,7482.156666
5.0,1781,7543.115872
17.0,1785,7603.566051
1.0,1779,7662.664403
14.0,1781,7722.46119
11.0,1785,7780.562971
8.0,1778,7840.886934
1.0,1780,7898.523086
12.0,1779,7959.00454
12.0,1781,8019.261273
9.0,1783,8077.406335
7.0,1783,8138.654706
12.0,1785,8198.362493
2.0,1784,8257.62468
2.0,1785,8315.873546
9.0,1779,8373.716378
20.0,1783,8434.331874
14.0,1785,8496.126993
5.0,1782,8555.402617
3.0,1782,8613.109087
13.0,1785,8672.16372
13.0,1784,8732.956012
12.0,1780,8795.43934
6.0,1780,8855.41204
11.0,1779,8912.027476
6.0,1785,8970.779011
9.0,1782,9029.962123
8.0,1779,9088.408789
21.0,1785,9146.784092
1.0,1785,9204.825305
9.0,1782,9264.772129
10.0,1785,9324.134415
6.0,1781,9384.370027
1.0,1782,9442.86215
20.0,1779,9500.055736
9.0,1781,9560.554344
13.0,1781,9618.121435
24.0,1782,9676.079857
31.0,1780,9735.957041
4.0,1779,9795.398047
10.0,1783,9854.429547
10.0,1780,9913.80415
8.0,1783,9972.913581
16.0,1779,10033.397041
20.0,1783,10092.700003
14.0,1785,10153.98269
1.0,1782,10214.629741
13.0,1778,10273.727403
26.0,1784,10334.687248
30.0,1780,10395.732423
10.0,1782,10456.605288
15.0,1784,10517.433355
4.0,1782,10577.815408
-6.0,1783,10636.931576
2.0,1782,10698.611641
3.0,1781,10759.76188
10.0,1781,10823.602497
8.0,1780,10885.163202
31.0,1781,10945.478128
26.0,1785,11005.177487
19.0,1785,11066.177927
11.0,1781,11125.7626
11.0,1780,11186.930881
15.0,1783,11245.263692
8.0,1785,11304.552058
18.0,1784,11364.159146
1.0,1781,11423.121926
14.0,1785,11481.947335
7.0,1783,11542.049067
16.0,1784,11600.326691
13.0,1779,11659.727464
16.0,1781,11720.295623
16.0,1780,11780.139182
10.0,1780,11841.569768
39.0,1780,11901.04718
35.0,1778,11962.263283
7.0,1781,12022.45505
10.0,1784,12082.854322
12.0,1785,12144.642756
38.0,1783,12203.632882
23.0,1783,12263.556726
18.0,1780,12324.470186
11.0,1783,12383.939329
1.0,1784,12441.750494
4.0,1782,12500.630173
9.0,1783,12560.196404
23.0,1780,12620.813948
27.0,1783,12680.732272
11.0,1785,12741.362434
27.0,1785,12803.326548
17.0,1778,12863.221142
16.0,1782,12921.188592
17.0,1778,12979.938691
32.0,1783,13040.558281
37.0,1781,13102.090894
15.0,1779,13163.096232
26.0,1778,13223.134774
15.0,1785,13284.512774
13.0,1784,13344.942519
14.0,1779,13403.236087
21.0,1780,13466.338484
26.0,1778,13527.31652
9.0,1784,13587.765051
19.0,1780,13647.753716
15.0,1780,13708.764889
19.0,1785,13767.510698
26.0,1785,13826.073744
38.0,1785,13885.575953
28.0,1782,13944.84909
24.0,1779,14005.091877
6.0,1785,14063.459085
24.0,1778,14120.630388
27.0,1785,14179.533058
28.0,1782,14238.295362
30.0,1779,14297.420806
50.0,1784,14358.535672
18.0,1780,14417.161653
6.0,1780,14478.078735
48.0,1784,14540.024766
35.0,1781,14598.528729
17.0,1783,14659.039658
15.0,1782,14718.070536
23.0,1778,14776.096829
10.0,1780,14835.865171
12.0,1784,14897.393745
18.0,1785,14958.805774
37.0,1783,15017.016805
34.0,1779,15078.562137
30.0,1778,15138.813279
29.0,1784,15199.887362
13.0,1778,15260.75393
22.0,1778,15318.177158
43.0,1785,15376.055371
40.0,1782,15434.712501
43.0,1783,15495.554509
17.0,1782,15555.019834
40.0,1785,15613.842845
33.0,1784,15672.135916
40.0,1782,15730.810468
39.0,1778,15789.191022
33.0,1781,15848.991426
57.0,1785,15907.748241
49.0,1780,15966.268627
35.0,1778,16024.497317
43.0,1782,16083.574229
17.0,1781,16144.948024
19.0,1784,16205.131029
38.0,1781,16264.373305
48.0,1781,16324.04723
41.0,1783,16382.417036
28.0,1785,16441.266527
17.0,1782,16500.899086
40.0,1780,16559.119093
39.0,1785,16617.095319
21.0,1782,16677.041585
35.0,1779,16736.286582
58.0,1782,16795.798579
48.0,1778,16856.797294
50.0,1783,16915.044816
41.0,1784,16974.570301
66.0,1784,17033.823192
17.0,1781,17093.055783
41.0,1783,17152.682667
13.0,1784,17213.145004
40.0,1782,17273.188074
37.0,1781,17332.75855
47.0,1784,17393.089062
33.0,1783,17450.838651
42.0,1783,17511.217928
45.0,1781,17571.9683
40.0,1785,17633.47822
71.0,1781,17694.256622
29.0,1780,17753.155964
41.0,1781,17814.431446
50.0,1785,17873.04496
37.0,1781,17930.819346
50.0,1783,17991.29338
47.0,1779,18050.51229
56.0,1785,18108.897923
45.0,1781,18170.304903
55.0,1783,18230.872589
56.0,1784,18289.270579
54.0,1780,18349.905683
48.0,1783,18407.591394
49.0,1781,18467.101496
39.0,1785,18526.812893
36.0,1780,18587.023418
56.0,1785,18645.753127
40.0,1778,18706.596097
45.0,1785,18766.856754
49.0,1785,18827.387527
61.0,1783,18888.692132
46.0,1783,18947.236284
54.0,1783,19007.509207
53.0,1780,19067.19037
67.0,1780,19126.720363
58.0,1782,19185.445976
49.0,1779,19243.965973
53.0,1781,19302.931422
41.0,1782,19363.241233
41.0,1779,19422.902475
31.0,1784,19482.907791
54.0,1779,19541.099295
49.0,1780,19599.907945
70.0,1784,19658.356889
45.0,1781,19716.545835
57.0,1782,19776.969139
58.0,1782,19836.47918
66.0,1781,19895.439323
49.0,1778,19955.97302
74.0,1779,20016.2861
49.0,1784,20077.09869
50.0,1780,20135.930331
63.0,1784,20195.96572
71.0,1783,20255.136589
61.0,1781,20316.285236
50.0,1782,20375.913441
51.0,1780,20434.702096
49.0,1781,20496.307679
46.0,1779,20555.531236
60.0,1781,20615.373396
27.0,1783,20672.321625
54.0,1778,20731.254924
32.0,1780,20790.197697
63.0,1780,20849.492265
42.0,1780,20909.940867
62.0,1779,20969.134135
66.0,1784,21027.425726
80.0,1785,21086.163831
66.0,1780,21147.498013
51.0,1779,21208.059025
73.0,1785,21267.579533
69.0,1785,21327.287205
73.0,1779,21385.515152
75.0,1779,21448.020085
70.0,1781,21506.929229
60.0,1780,21565.722121
77.0,1780,21625.072523
68.0,1784,21684.490515
38.0,1780,21745.254621
63.0,1780,21802.702589
43.0,1779,21861.029688
53.0,1783,21918.302129
62.0,1783,21976.695383
88.0,1784,22038.674062
79.0,1782,22099.477804
70.0,1783,22159.450908
80.0,1771,22218.982106
64.0,1783,22277.754083
68.0,1779,22339.450834
75.0,1781,22399.005418
82.0,1716,22455.655601
48.0,1783,22514.68159
84.0,1607,22567.860013
80.0,1765,22627.339223
85.0,1785,22687.959662
82.0,1785,22747.814173
65.0,1784,22809.331307
66.0,1781,22867.700597
64.0,1778,22927.910423
73.0,1784,22987.368657
62.0,1780,23045.353804
67.0,1781,23104.81239
86.0,1747,23164.738345
75.0,1785,23222.324605
64.0,1780,23281.849868
69.0,1779,23341.75837
80.0,1689,23398.962426
61.0,1783,23460.192358
92.0,1502,23511.453424
81.0,1782,23570.990675
61.0,1783,23629.212737
76.0,1779,23689.4641
60.0,1785,23748.783745
74.0,1784,23811.083292
75.0,1778,23870.715003
83.0,1676,23928.17083
69.0,1779,23986.585868
58.0,1781,24048.642804
66.0,1780,24108.806641
82.0,1785,24168.463553
80.0,1779,24228.634028
91.0,1614,24281.395566
86.0,1741,24340.570199
85.0,1782,24401.323521
59.0,1780,24461.173638
86.0,1778,24520.574604
87.0,1763,24577.675549
60.0,1782,24636.977255
81.0,1778,24695.352835
54.0,1784,24753.057602
93.0,1570,24806.169048
61.0,1785,24868.716756
74.0,1784,24928.152621
66.0,1785,24989.640901
61.0,1781,25047.780307
81.0,1779,25106.092279
83.0,1784,25167.096981
90.0,1702,25225.227674
50.0,1784,25285.800977
70.0,1779,25344.375348
86.0,1784,25405.346642
87.0,1741,25463.617357
68.0,1782,25521.74414
86.0,1721,25578.409335
79.0,1782,25639.624987
85.0,1751,25696.818248
83.0,1780,25757.960243
84.0,1780,25816.74667
87.0,1722,25871.651015
88.0,1541,25923.839179
56.0,1780,25983.775538
67.0,1782,26044.438384
83.0,1609,26098.402468
80.0,1779,26159.191617
56.0,1783,26219.219929
58.0,1779,26277.748924
60.0,1781,26337.200036
85.0,1694,26394.883743
90.0,1579,26447.158164
77.0,1679,26502.908779
80.0,1629,26556.928751
71.0,1783,26616.834261
83.0,1783,26677.381361
84.0,1742,26735.119066
84.0,1655,26789.219727
85.0,1681,26848.498343
78.0,1748,26907.4218
81.0,1736,26965.357143
92.0,1576,27018.168335
90.0,1676,27075.430425
83.0,1779,27134.836519
79.0,1784,27195.385884
86.0,1781,27256.807857
71.0,1783,27316.827768
86.0,1754,27374.467698
74.0,1784,27434.155802
92.0,1621,27488.082403
85.0,1779,27546.034851
63.0,1785,27605.891495
81.0,1785,27665.525045
84.0,1731,27721.815525
85.0,1676,27777.47264
89.0,1768,27838.370722
82.0,1420,27885.667272
74.0,1781,27945.203284
89.0,1536,27997.518764
80.0,1759,28058.13261
89.0,1493,28106.26755
86.0,1599,28161.139693
87.0,1603,28215.510879
84.0,1749,28273.549865
87.0,1718,28330.511003
94.0,1493,28382.469939
81.0,1778,28441.97704
81.0,1781,28501.358752
81.0,1784,28560.960981
80.0,1652,28614.325038
65.0,1780,28674.883339
77.0,1784,28736.630004
84.0,1782,28793.908883
94.0,1526,28843.160666
90.0,1617,28896.806836
95.0,1536,28948.286365
86.0,1486,28998.921122
84.0,1714,29058.201926
84.0,1608,29110.726806
89.0,1709,29169.62614
77.0,1542,29222.278991
85.0,1778,29282.608993
81.0,1670,29338.395698
90.0,1541,29388.73222
93.0,1484,29435.814752
89.0,1375,29480.651946
72.0,1646,29534.555958
82.0,1679,29590.127227
90.0,1516,29639.6318
83.0,1540,29690.390857
90.0,1502,29741.903621
88.0,1625,29796.893603
75.0,1679,29853.947888
91.0,1448,29907.342805
82.0,1642,29963.507398
91.0,1663,30018.747964
91.0,1643,30077.502358
88.0,1600,30133.146247
92.0,1518,30185.178275
75.0,1780,30243.002759
91.0,1536,30296.248191
90.0,1652,30351.198524
84.0,1654,30406.65689
89.0,1547,30455.852632
86.0,1622,30512.426014
83.0,1538,30563.608669
85.0,1779,30623.15327
85.0,1646,30679.672953
78.0,1782,30741.534577
88.0,1579,30794.404701
90.0,1532,30846.35184
83.0,1757,30903.117996
77.0,1763,30962.042859
79.0,1603,31015.793096
86.0,1692,31071.791464
90.0,1547,31123.033792
84.0,1613,31176.054353
78.0,1785,31235.148408
79.0,1608,31286.882881
85.0,1697,31342.931537
88.0,1540,31394.629703
88.0,1603,31448.500601
73.0,1782,31510.996947
85.0,1717,31572.13078
87.0,1645,31626.868489
52.0,1783,31691.136276
80.0,1616,31749.157085
90.0,1653,31807.442166
90.0,1574,31859.98921
89.0,1457,31910.609408
86.0,1477,31959.079014
77.0,1606,32012.142338
86.0,1612,32067.164593
77.0,1783,32128.68285
83.0,1650,32189.450997
78.0,1708,32249.548296
86.0,1478,32302.456101
83.0,1713,32363.805275
81.0,1493,32414.653009
82.0,1684,32472.66406
92.0,1650,32525.685872
73.0,1779,32585.771408
85.0,1733,32644.83727
78.0,1644,32699.732599
78.0,1665,32754.086787
87.0,1364,32801.198064
86.0,1628,32856.871611
76.0,1780,32918.314936
86.0,1628,32975.766111
91.0,1596,33030.223814
80.0,1545,33083.001121
91.0,1440,33131.144798
83.0,1633,33185.904172
91.0,1393,33231.938048
85.0,1615,33286.435366
84.0,1648,33341.068115
81.0,1642,33395.914245
92.0,1489,33446.093218
83.0,1534,33497.568609
77.0,1537,33548.663913
93.0,1501,33598.6605
91.0,1349,33644.810868
92.0,1539,33696.66246
91.0,1401,33744.809385
88.0,1758,33804.253824
84.0,1641,33859.566978
94.0,1530,33911.834091
78.0,1652,33968.93876
82.0,1725,34030.823
91.0,1534,34084.400682
91.0,1296,34130.558159
84.0,1526,34183.234085
81.0,1495,34234.777687
94.0,1455,34284.033912
88.0,1649,34341.54692
89.0,1408,34388.983268
90.0,1363,34435.964312
78.0,1645,34492.452858
87.0,1546,34547.04094
86.0,1598,34602.893357
79.0,1627,34657.814377
90.0,1442,34707.898504
88.0,1719,34768.248015
80.0,1638,34824.312818
79.0,1453,34873.429046
86.0,1538,34926.241891
95.0,1572,34981.30794
84.0,1680,35039.804203
86.0,1605,35093.449161
87.0,1593,35147.741545
86.0,1704,35205.225263
86.0,1743,35264.805658
91.0,1426,35313.999452
96.0,1382,35360.049133
75.0,1705,35417.928883
97.0,1245,35462.708662
87.0,1396,35510.227696
92.0,1296,35553.511317
90.0,1474,35605.309969
87.0,1444,35655.354508
95.0,1363,35700.69805
95.0,1384,35745.693184
92.0,1459,35793.921988
89.0,1577,35845.419414
91.0,1313,35888.043127
91.0,1457,35937.762762
92.0,1461,35987.474406
92.0,1536,36039.70357
86.0,1705,36097.475139
98.0,1240,36139.99252
88.0,1578,36190.944881
93.0,1470,36240.303145
93.0,1507,36289.846175
83.0,1652,36347.164681
93.0,1459,36396.186659
88.0,1521,36446.877756
83.0,1455,36494.354039
87.0,1670,36550.73118
90.0,1538,36603.432471
89.0,1517,36656.390083
77.0,1597,36708.792621
94.0,1609,36762.907759
90.0,1530,36814.240284
87.0,1770,36874.444866
94.0,1519,36925.72354
81.0,1562,36978.536583
84.0,1442,37025.818608
92.0,1538,37077.341553
83.0,1533,37128.009398
90.0,1364,37173.948164
88.0,1397,37220.667744
82.0,1606,37272.972171
94.0,1505,37323.271155
72.0,1779,37380.940627
71.0,1632,37435.671148
95.0,1346,37480.320103
93.0,1507,37532.435984
83.0,1586,37585.027332
92.0,1460,37631.590288
89.0,1472,37680.285498
94.0,1561,37732.666361
84.0,1409,37778.375908
85.0,1726,37836.373725
94.0,1504,37885.143027
87.0,1440,37934.149431
86.0,1494,37983.669401
82.0,1472,38033.016898
91.0,1511,38083.718643
83.0,1778,38143.37511
83.0,1609,38198.319729
90.0,1414,38244.422854
73.0,1666,38298.842245
82.0,1479,38348.604768
94.0,1417,38396.154341
76.0,1623,38451.278917
89.0,1535,38503.948447
84.0,1532,38554.685068
93.0,1402,38602.607646
90.0,1531,38653.079671
85.0,1590,38704.550463
98.0,1234,38743.887014
81.0,1636,38798.114607
89.0,1396,38844.241242
94.0,1316,38888.243152
85.0,1693,38944.922359
83.0,1666,39001.671165
89.0,1704,39060.890219
92.0,1523,39112.105852
86.0,1541,39163.900452
75.0,1745,39223.130617
86.0,1584,39277.322401
97.0,1497,39327.308838
85.0,1496,39378.069554
92.0,1484,39427.628052
90.0,1480,39476.102352
82.0,1565,39530.491166
90.0,1445,39579.668531
84.0,1570,39630.591425
92.0,1598,39683.930211
87.0,1602,39738.771253
77.0,1639,39794.199206
85.0,1618,39848.582803
92.0,1348,39891.709356
93.0,1294,39935.098405
90.0,1371,39979.25904
86.0,1453,40027.613943
91.0,1532,40080.865469
88.0,1601,40134.195512
92.0,1502,40184.137148
90.0,1459,40231.973133
86.0,1594,40283.334918
83.0,1523,40334.537971
93.0,1329,40379.177299
81.0,1540,40431.961966
95.0,1402,40478.735969
75.0,1529,40531.155101
66.0,1574,40584.030504
80.0,1603,40639.375415
84.0,1713,40696.217382
90.0,1491,40746.856876
87.0,1511,40797.45305
82.0,1504,40846.820855
95.0,1307,40889.275578
80.0,1718,40948.166873
80.0,1404,40997.962206
93.0,1423,41047.246289
96.0,1387,41093.050295
84.0,1490,41142.834555
93.0,1391,41189.645286
92.0,1392,41234.887511
83.0,1571,41283.808154
92.0,1392,41330.161746
87.0,1357,41374.73316
86.0,1452,41425.483574
88.0,1361,41471.256217
90.0,1483,41518.72046
94.0,1417,41568.10779
85.0,1433,41616.904721
86.0,1522,41667.111143
89.0,1445,41713.538402
84.0,1458,41761.287251
97.0,1453,41809.262626
76.0,1568,41862.938374
90.0,1535,41913.228234
78.0,1709,41971.494348
94.0,1488,42020.740271
74.0,1490,42071.184509
65.0,1737,42130.399383
94.0,1258,42173.121129
77.0,1620,42228.528904
84.0,1451,42276.448162
86.0,1399,42323.710038
81.0,1581,42375.434722
80.0,1517,42425.711079
82.0,1562,42477.41034
84.0,1678,42531.5305
93.0,1362,42576.212602
80.0,1571,42630.520462
92.0,1349,42675.050695
68.0,1399,42720.829461
90.0,1466,42769.339869
93.0,1199,42809.233488
92.0,1418,42858.008874
75.0,1648,42913.522196
91.0,1509,42966.382933
89.0,1578,43019.073214
87.0,1538,43072.710429
95.0,1312,43116.212313
85.0,1486,43164.309964
86.0,1455,43212.354577
95.0,1412,43258.870337
84.0,1552,43311.079269
92.0,1451,43359.199143
89.0,1475,43406.90716
90.0,1474,43456.399404
85.0,1440,43505.363655
88.0,1367,43549.961347
89.0,1531,43602.05201
92.0,1510,43651.177906
88.0,1436,43698.863739
84.0,1669,43756.153213
85.0,1321,43800.306494
96.0,1355,43844.631131
90.0,1612,43897.806851
77.0,1458,43946.079394
78.0,1398,43992.342786
83.0,1483,44041.650061
84.0,1487,44090.527204
93.0,1427,44137.444213
96.0,1270,44179.937032
81.0,1359,44226.040789
84.0,1547,44277.512637
81.0,1544,44331.418438
90.0,1325,44376.562021
87.0,1499,44428.554552
81.0,1612,44483.653588
88.0,1461,44531.626366
90.0,1442,44579.491696
93.0,1401,44625.647062
94.0,1335,44672.498273
79.0,1616,44728.55847
91.0,1393,44775.767435
82.0,1574,44826.337023
92.0,1576,44879.449342
88.0,1668,44937.20219
86.0,1302,44981.080212
75.0,1605,45034.37059
92.0,1492,45086.220547
91.0,1362,45133.162041
90.0,1438,45180.175086
90.0,1354,45225.418644
96.0,1321,45270.20371
91.0,1476,45316.846591
75.0,1520,45366.993361
90.0,1312,45410.522465
84.0,1528,45461.279543
88.0,1432,45507.521908
93.0,1392,45553.223382
91.0,1506,45605.952451
96.0,1352,45653.459827
98.0,1201,45694.132557
90.0,1476,45744.961891
88.0,1322,45790.53293
90.0,1337,45835.432607
90.0,1457,45885.478642
88.0,1408,45935.100022
74.0,1617,45992.380487
85.0,1577,46048.253477
88.0,1472,46097.723414
97.0,1409,46147.375307
86.0,1399,46195.464697
91.0,1549,46247.926189
87.0,1343,46295.074922
95.0,1365,46342.530603
82.0,1633,46396.531997
79.0,1508,46448.372201
82.0,1508,46501.326165
88.0,1366,46548.376573
98.0,1393,46597.25219
87.0,1454,46648.610385
95.0,1451,46697.947227
93.0,1441,46746.825587
93.0,1338,46793.510652
87.0,1395,46842.204396
90.0,1480,46893.457353
90.0,1430,46941.631124
94.0,1540,46994.627769
92.0,1447,47045.399054
98.0,1184,47086.091988
89.0,1422,47133.176486
77.0,1783,47197.15258
95.0,1267,47242.539624
94.0,1286,47288.616693
86.0,1643,47345.705865
90.0,1493,47400.357067
89.0,1318,47448.679862
96.0,1282,47493.538894
71.0,1666,47552.469255
89.0,1433,47603.460975
94.0,1391,47653.862824
91.0,1299,47700.146388
90.0,1303,47746.134949
97.0,1161,47788.130025
86.0,1351,47835.802848
73.0,1707,47895.073224
91.0,1457,47948.007783
92.0,1365,47997.206288
92.0,1330,48043.472147
90.0,1424,48092.944396
93.0,1316,48140.337909
79.0,1765,48204.275106
92.0,1523,48256.153477
90.0,1437,48308.162676
96.0,1219,48351.956646
86.0,1540,48409.975091
96.0,1209,48452.358729
88.0,1418,48502.538518
95.0,1501,48558.164772
91.0,1280,48603.970666
82.0,1569,48658.165808
93.0,1528,48711.942745
80.0,1719,48772.45041
86.0,1546,48826.644086
85.0,1505,48879.703051
85.0,1405,48929.241949
92.0,1385,48977.71349
92.0,1276,49023.059387
66.0,1394,49071.294071
85.0,1483,49121.535514
79.0,1780,49183.495432
91.0,1316,49228.108795
80.0,1599,49283.925879
84.0,1723,49342.344077
88.0,1490,49393.832447
84.0,1477,49444.423284
91.0,1369,49491.338625
79.0,1505,49541.875809
93.0,1460,49593.748785
88.0,1418,49640.026282
72.0,1623,49697.64793
92.0,1322,49741.212965
95.0,1350,49791.561876
86.0,1495,49843.254524
83.0,1522,49895.310808
97.0,1294,49938.833406
90.0,1438,49988.485925
88.0,1524,50039.712477
94.0,1506,50091.95956
86.0,1489,50142.815094
80.0,1618,50196.599224
89.0,1401,50243.952493
93.0,1579,50297.09855
81.0,1536,50349.53493
84.0,1488,50400.249805
79.0,1316,50447.137962
87.0,1497,50497.507042
95.0,1378,50544.162537
91.0,1538,50597.559289
86.0,1436,50645.996198
94.0,1324,50692.625926
84.0,1407,50740.049506
88.0,1584,50794.255811
93.0,1370,50841.712853
88.0,1396,50889.74026
94.0,1270,50931.727936
91.0,1424,50981.408881
89.0,1489,51030.977387
90.0,1376,51077.842621
82.0,1503,51130.015205
95.0,1404,51179.168249
94.0,1278,51223.995931
83.0,1438,51273.496131
90.0,1617,51329.311443
83.0,1364,51374.568905
96.0,1253,51416.977787
93.0,1305,51461.313931
88.0,1674,51518.736125
82.0,1454,51567.792094
93.0,1362,51616.63613
88.0,1432,51665.015475
88.0,1403,51711.563985
90.0,1611,51767.735267
96.0,1391,51815.770183
74.0,1566,51869.548263
79.0,1505,51924.093695
91.0,1243,51966.292691
93.0,1394,52014.713278
93.0,1363,52062.356284
90.0,1516,52115.296499
92.0,1276,52159.900111
92.0,1408,52209.582001
94.0,1327,52256.147784
89.0,1390,52304.451941
97.0,1459,52355.147324
84.0,1600,52410.128271
85.0,1439,52458.301159
77.0,1649,52513.779707
92.0,1535,52566.302476
94.0,1495,52616.044917
97.0,1263,52659.140087
91.0,1428,52708.526575
93.0,1427,52758.10541
78.0,1586,52812.822552
90.0,1397,52862.779124
90.0,1447,52912.514291
89.0,1277,52957.487185
80.0,1376,53004.957676
91.0,1344,53050.794494
94.0,1124,53090.263778
93.0,1498,53142.413546
84.0,1400,53192.334038
92.0,1433,53244.939959
92.0,1374,53293.18226
90.0,1377,53342.423822
99.0,1215,53386.035826
95.0,1316,53430.413627
91.0,1305,53478.081086
91.0,1281,53521.982538
84.0,1399,53568.603931
89.0,1488,53617.896162
88.0,1525,53671.854192
92.0,1348,53720.163981
88.0,1307,53763.745194
80.0,1545,53820.55059
93.0,1325,53870.906342
93.0,1385,53922.668319
82.0,1379,53972.706418
92.0,1454,54024.318601
92.0,1351,54073.879189
74.0,1718,54133.508534
77.0,1409,54183.553207
95.0,1348,54229.596272
93.0,1397,54278.222384
91.0,1277,54322.782865
88.0,1460,54374.510404
81.0,1512,54429.088592
97.0,1285,54473.727546
94.0,1336,54519.558664
89.0,1395,54566.550774
91.0,1294,54611.61253
85.0,1529,54664.596421
95.0,1318,54711.0452
95.0,1355,54756.823433
90.0,1369,54805.570048
80.0,1632,54862.62242
88.0,1411,54913.600232
88.0,1450,54964.743706
93.0,1321,55015.282212
97.0,1137,55056.546854
91.0,1457,55110.396384
73.0,1635,55171.634548
96.0,1371,55222.701406
95.0,1204,55265.104416
89.0,1508,55321.612495
91.0,1392,55372.558931
83.0,1441,55426.74784
96.0,1220,55472.626955
87.0,1327,55519.943551
94.0,1213,55565.543852
94.0,1361,55615.984493
95.0,1216,55660.300998
81.0,1632,55716.875413
90.0,1275,55764.860233
82.0,1465,55819.603081
84.0,1610,55877.901648
91.0,1264,55924.526608
93.0,1269,55969.44288
85.0,1564,56028.317272
95.0,1263,56073.438593
91.0,1496,56128.707393
92.0,1409,56179.135358
89.0,1454,56229.970173
73.0,1648,56290.567118
88.0,1274,56338.319224
99.0,1129,56378.655301
93.0,1351,56429.387506
89.0,1457,56483.495015
92.0,1443,56534.197769
96.0,1172,56575.833931
91.0,1501,56630.128394
85.0,1720,56692.673371
82.0,1516,56748.510966
96.0,1328,56797.388165
80.0,1390,56849.534449
91.0,1438,56900.17787
96.0,1291,56946.694663
96.0,1285,56991.524343
96.0,1264,57039.99065
84.0,1264,57085.3804
88.0,1331,57133.102643
88.0,1392,57184.125074
91.0,1356,57235.461784
95.0,1324,57283.014386
94.0,1423,57334.848139
94.0,1301,57381.611642
90.0,1392,57432.092876
94.0,1395,57481.774681
94.0,1309,57528.247095
94.0,1324,57576.657062
97.0,1255,57621.480919
90.0,1307,57669.289753
92.0,1402,57720.388846
82.0,1500,57775.998544
84.0,1424,57827.757003
92.0,1393,57878.586421
93.0,1345,57925.937332
94.0,1222,57968.66461
80.0,1420,58022.771425
91.0,1291,58069.48421
82.0,1524,58125.422113
82.0,1422,58178.666223
91.0,1347,58228.303548
89.0,1366,58277.464888
94.0,1392,58328.54596
94.0,1262,58373.688082
96.0,1377,58423.28707
99.0,1224,58467.251423
88.0,1404,58520.076555
97.0,1299,58567.178514
95.0,1245,58612.584815
89.0,1220,58656.821535
91.0,1366,58705.346016
88.0,1474,58756.475753
77.0,1440,58805.180012
91.0,1392,58856.308619
95.0,1177,58898.579393
86.0,1478,58952.285413
84.0,1262,58997.305377
91.0,1352,59044.422354
96.0,1300,59091.5083
91.0,1272,59135.200204
92.0,1136,59178.568037
86.0,1567,59235.983041
91.0,1442,59286.991932
90.0,1396,59336.09839
79.0,1499,59387.088576
92.0,1425,59440.408469
89.0,1405,59490.126322
84.0,1403,59539.808531
96.0,1268,59584.865335
89.0,1204,59627.870545
91.0,1461,59675.847406
99.0,1185,59718.799312
95.0,1250,59762.357119
94.0,1463,59814.032537
92.0,1450,59866.271736
91.0,1313,59911.754068
86.0,1311,59959.138827
86.0,1400,60010.104455
86.0,1313,60055.635712
92.0,1443,60106.045012
86.0,1534,60159.967573
95.0,1313,60206.970137
94.0,1300,60251.508328
94.0,1403,60300.774267
72.0,1444,60354.856775
89.0,1456,60406.328793
93.0,1284,60452.288434
96.0,1331,60500.204307
89.0,1237,60543.222416
92.0,1440,60594.838609
89.0,1439,60646.036912
95.0,1208,60687.732956
98.0,1218,60730.107283
88.0,1418,60780.01969
95.0,1265,60826.409535
95.0,1219,60868.498558
94.0,1451,60919.303061
78.0,1376,60967.747862
90.0,1539,61023.409168
87.0,1468,61074.998005
87.0,1360,61125.327479
87.0,1388,61173.198455
90.0,1355,61222.31958
90.0,1603,61279.345091
89.0,1372,61326.622491
72.0,1425,61377.56341
91.0,1270,61421.008825
94.0,1316,61467.504251
85.0,1364,61514.472762
95.0,1417,61563.56262
91.0,1445,61614.345127
96.0,1240,61657.260145
90.0,1330,61701.928282
90.0,1536,61756.191208
88.0,1346,61804.10298
84.0,1314,61850.412074
89.0,1499,61902.173066
83.0,1535,61956.147456
89.0,1286,62001.009942
98.0,1214,62044.922758
95.0,1400,62095.287012
95.0,1419,62144.450753
96.0,1259,62189.156269
94.0,1357,62235.744467
90.0,1625,62290.963659
84.0,1482,62343.579597
92.0,1358,62390.250176
83.0,1374,62441.651036
94.0,1338,62488.525077
80.0,1357,62536.164191
91.0,1359,62582.644963
92.0,1312,62629.977538
91.0,1301,62676.318612
89.0,1237,62720.674005
83.0,1449,62771.033468
98.0,1185,62813.441991
86.0,1270,62859.47329
97.0,1218,62902.753438
91.0,1269,62947.253746
92.0,1483,63000.429923
91.0,1417,63050.100302
92.0,1303,63097.564032
94.0,1277,63143.307127
93.0,1266,63187.624553
94.0,1278,63233.335648
84.0,1491,63286.815195
98.0,1296,63331.874918
87.0,1366,63381.412613
91.0,1327,63427.197908
84.0,1309,63474.054651
89.0,1229,63519.081957
91.0,1391,63569.701262
88.0,1445,63620.694274
91.0,1399,63671.013786
89.0,1372,63721.140516
97.0,1187,63762.108891
97.0,1213,63802.826576
94.0,1265,63846.938556
86.0,1293,63893.153538
32.0,1437,63946.354744
92.0,1337,63993.688822
92.0,1402,64044.202264
90.0,1308,64090.131905
97.0,1319,64137.200742
94.0,1245,64179.86305
91.0,1290,64225.486813
98.0,1273,64270.565055
93.0,1234,64315.357473
90.0,1366,64363.380358
95.0,1290,64407.918858
84.0,1509,64460.330729
94.0,1315,64507.223013
96.0,1218,64550.870285
93.0,1443,64602.338319
97.0,1141,64642.190449
94.0,1135,64680.454129
91.0,1197,64722.084444
86.0,1357,64768.302751
77.0,1462,64819.296105
92.0,1270,64864.679931
90.0,1479,64914.236687
95.0,1277,64958.631259
99.0,1387,65005.983072
97.0,1211,65047.345735
92.0,1426,65094.148454
91.0,1294,65140.552023
94.0,1301,65185.933225
89.0,1351,65232.138791
87.0,1508,65284.286011
89.0,1486,65337.294482
96.0,1300,65380.612399
90.0,1242,65424.255037
91.0,1316,65470.694362
96.0,1266,65515.71389
98.0,1164,65556.388254
87.0,1355,65603.427882
85.0,1379,65650.27821
89.0,1542,65703.805495
94.0,1320,65749.946581
96.0,1145,65788.666488
86.0,1497,65841.078295
89.0,1307,65885.338099
92.0,1394,65934.294448
94.0,1233,65975.687113
95.0,1403,66022.427312
91.0,1438,66072.256695
93.0,1331,66119.313024
93.0,1319,66165.226459
85.0,1429,66214.075824
93.0,1364,66263.758037
82.0,1363,66312.770317
84.0,1485,66363.577919
94.0,1272,66406.699927
92.0,1220,66448.224121
98.0,1248,66488.76674
86.0,1366,66535.722928
91.0,1288,66579.802803
84.0,1395,66628.483474
89.0,1374,66677.547199
86.0,1538,66729.819081
97.0,1214,66773.682132
95.0,1147,66812.646345
86.0,1348,66860.709159
93.0,1281,66904.760636
93.0,1296,66947.51528
97.0,1337,66993.356502
98.0,1218,67034.572066
95.0,1143,67074.900807
97.0,1218,67117.660343
95.0,1271,67162.799669
90.0,1329,67209.765359
84.0,1206,67251.295035
87.0,1319,67295.747324
93.0,1294,67341.290399
88.0,1402,67391.475688
88.0,1380,67439.310621
88.0,1604,67496.154915
92.0,1377,67542.958546
91.0,1400,67592.462353
90.0,1407,67642.785556
92.0,1424,67691.579154
94.0,1437,67742.248409
92.0,1316,67786.941622
91.0,1329,67831.499695
84.0,1354,67879.625581
95.0,1153,67919.593235
85.0,1346,67968.806405
93.0,1403,68018.68283
97.0,1357,68065.142862
94.0,1348,68110.439499
94.0,1221,68151.369186
85.0,1538,68203.723585
97.0,1167,68243.064244
88.0,1331,68289.883255
92.0,1309,68333.969296
88.0,1517,68387.594118
98.0,1099,68423.688703
95.0,1396,68470.502321
91.0,1321,68513.960001
90.0,1251,68554.528564
80.0,1575,68606.190151
88.0,1262,68648.85696
88.0,1392,68692.693206
94.0,1234,68733.104692
88.0,1337,68779.354192
95.0,1280,68822.600156
99.0,1301,68865.71129
92.0,1140,68904.654711
98.0,1159,68944.768898
94.0,1360,68990.860636
91.0,1376,69035.283413
96.0,1164,69074.107673
90.0,1217,69114.052857
90.0,1359,69159.854886
96.0,1282,69202.719711
95.0,1246,69246.120519
93.0,1465,69295.28171
84.0,1404,69341.441597
91.0,1240,69383.573638
98.0,1164,69422.711658
91.0,1252,69464.385711
90.0,1214,69505.21646
84.0,1434,69552.350422
86.0,1272,69593.808293
91.0,1248,69637.127704
84.0,1397,69683.433475
82.0,1376,69728.953216
91.0,1438,69776.566234
96.0,1264,69818.486876
96.0,1117,69856.126808
94.0,1225,69896.783101
95.0,1269,69939.687925
92.0,1394,69985.622824
94.0,1261,70028.22834
95.0,1236,70069.177712
95.0,1295,70113.180913
86.0,1405,70161.271626
89.0,1162,70198.190887
94.0,1309,70241.014506
84.0,1613,70293.518815
89.0,1451,70342.453798
89.0,1362,70388.454219
89.0,1307,70432.095153
94.0,1274,70473.744615
88.0,1267,70514.183281
96.0,1372,70559.323776
95.0,1332,70602.993964
79.0,1439,70649.823298
86.0,1364,70693.017025
95.0,1565,70744.623462
97.0,1254,70785.251621
90.0,1461,70832.461246
98.0,1164,70869.379532
96.0,1236,70909.297591
95.0,1343,70954.043223
92.0,1440,70999.288331
87.0,1255,71040.027012
92.0,1407,71086.067297
92.0,1460,71134.296489
92.0,1190,71172.354138
98.0,1220,71211.61199
92.0,1387,71257.808798
89.0,1188,71296.954634
90.0,1327,71341.715901
91.0,1393,71388.446204
93.0,1402,71434.865222
90.0,1198,71476.079428
83.0,1504,71527.047358
97.0,1167,71565.648273
96.0,1394,71612.568074
94.0,1378,71660.46717
84.0,1361,71707.673687
92.0,1401,71756.349844
95.0,1233,71797.599369
95.0,1269,71840.246317
96.0,1318,71882.694008
90.0,1589,71937.079401
95.0,1173,71976.476479
89.0,1391,72021.668831
88.0,1366,72065.403653
93.0,1217,72106.479859
91.0,1331,72149.993019
96.0,1317,72192.750542
96.0,1275,72233.062684
94.0,1163,72270.703772
98.0,1289,72311.118602
94.0,1310,72352.934651
95.0,1236,72393.569256
93.0,1276,72434.476452
92.0,1456,72482.110191
91.0,1317,72521.902898
87.0,1363,72566.277403
91.0,1244,72605.520658
92.0,1327,72647.940716
96.0,1199,72684.131645
91.0,1218,72721.501563
91.0,1479,72766.871113
95.0,1173,72800.655108
93.0,1286,72836.607
99.0,1072,72866.887625
95.0,1360,72904.148896
97.0,1213,72938.417348
94.0,1241,72972.70482
85.0,1395,73011.361916
91.0,1320,73047.913649
91.0,1317,73085.18518
95.0,1269,73121.124815
90.0,1419,73161.066013
96.0,1133,73193.415306
90.0,1329,73230.258471
97.0,1046,73259.308156
83.0,1396,73297.64744
99.0,1204,73330.274415
93.0,1364,73364.236085
92.0,1360,73398.315095
86.0,1272,73431.65936
93.0,1391,73466.348575
92.0,1320,73499.342358
89.0,1291,73530.903842
92.0,1523,73569.026671
92.0,1337,73603.130246
93.0,1151,73631.460691
84.0,1314,73665.815252
90.0,1301,73701.151669
90.0,1331,73735.996586
86.0,1276,73770.653092
94.0,1299,73804.271927
90.0,1485,73841.100871
99.0,1110,73867.420626
95.0,1184,73897.113917
94.0,1246,73927.474716
90.0,1250,73957.396278
79.0,1295,73986.487782
94.0,1279,74016.789004
97.0,1181,74044.078968
89.0,1273,74075.536805
92.0,1369,74109.715886
88.0,1441,74144.643963
92.0,1292,74175.285463
86.0,1293,74203.36625
93.0,1316,74232.982387
92.0,1248,74260.560722
93.0,1268,74287.060199
98.0,1167,74313.771051
94.0,1375,74345.653639
92.0,1263,74373.101084
89.0,1401,74403.239301
90.0,1238,74429.842928
89.0,1374,74459.841129
90.0,1490,74491.430924
88.0,1403,74522.063578
97.0,1194,74547.716046
92.0,1452,74577.662579
85.0,1367,74605.891414
90.0,1270,74633.51278
93.0,1269,74661.476225
85.0,1297,74690.60935
97.0,1202,74717.131388
92.0,1295,74745.607313
97.0,1217,74773.171655
90.0,1358,74803.617998
95.0,1183,74828.645417
96.0,1221,74854.457319
92.0,1288,74882.246417
91.0,1209,74909.614
93.0,1219,74936.480934
95.0,1221,74962.468486
98.0,1243,74987.905108
81.0,1321,75013.731538
85.0,1389,75042.023639
96.0,1210,75066.094538
91.0,1264,75091.265094
83.0,1321,75114.337282
85.0,1383,75139.149882
95.0,1224,75161.278909
95.0,1277,75183.189952
92.0,1236,75204.352929
95.0,1247,75227.427628
96.0,1332,75252.763628
91.0,1357,75278.7754
96.0,1297,75302.929144
98.0,1121,75323.601219
95.0,1094,75342.66046
90.0,1319,75365.739994
90.0,1270,75388.370793
99.0,1183,75410.140844
80.0,1473,75435.801677
97.0,1151,75455.221759
95.0,1357,75476.304278
91.0,1141,75494.426788
94.0,1243,75514.024945
89.0,1350,75535.40045
80.0,1349,75556.07075
92.0,1227,75574.104112
93.0,1162,75591.443047
95.0,1223,75610.20014
96.0,1191,75627.825065
96.0,1164,75644.441353
90.0,1298,75663.214251
85.0,1328,75682.178416
94.0,1305,75702.116053
98.0,1178,75720.242054
91.0,1299,75739.898727
92.0,1376,75760.336975
91.0,1267,75779.766852
79.0,1320,75799.729862
82.0,1591,75822.387114
94.0,1262,75840.262739
84.0,1281,75859.085666
98.0,1202,75876.750542
84.0,1428,75897.492764
87.0,1293,75916.162751
94.0,1269,75934.305442
89.0,1261,75952.078723
78.0,1372,75971.726621
96.0,1284,75990.639332
95.0,1232,76008.245124
95.0,1198,76025.523671
80.0,1246,76043.770987
95.0,1233,76062.172557
83.0,1297,76081.565495
95.0,1204,76097.507559
84.0,1270,76114.940619
94.0,1265,76130.649864
93.0,1178,76145.431939
95.0,1222,76160.560441
98.0,1267,76176.245408
96.0,1159,76190.665794
88.0,1270,76206.693961
86.0,1360,76223.98943
89.0,1205,76239.609017
90.0,1246,76255.623987
93.0,1215,76271.1916
93.0,1191,76286.303163
93.0,1422,76304.499819
85.0,1358,76322.3469
92.0,1287,76339.248248
94.0,1259,76355.522353
90.0,1208,76371.17892
99.0,1138,76385.893241
90.0,1251,76401.571231
91.0,1350,76418.436696
96.0,1207,76433.291782
98.0,1163,76447.758735
56.0,1318,76464.205457
93.0,1298,76480.40409
88.0,1344,76497.122159
91.0,1275,76513.55325
99.0,1138,76528.396109
98.0,1128,76542.852033
95.0,1268,76558.773666
89.0,1496,76577.174362
94.0,1194,76592.572124
94.0,1266,76609.018836
74.0,1527,76628.136493
89.0,1394,76645.386983
95.0,1405,76663.087492
96.0,1198,76677.955829
89.0,1369,76695.158598
95.0,1206,76710.855105
87.0,1334,76728.050877
98.0,1135,76742.343258
84.0,1377,76759.36794
93.0,1192,76774.108568
86.0,1319,76790.870866
91.0,1190,76806.412197
93.0,1272,76822.349097
94.0,1290,76838.953118
94.0,1121,76853.073176
95.0,1251,76869.764518
96.0,1249,76886.037574
97.0,1226,76901.629086
90.0,1362,76918.603254
99.0,1406,76936.469029
95.0,1262,76952.724349
90.0,1263,76968.846629
94.0,1198,76983.589579
95.0,1269,76999.162554
96.0,1204,77014.770726
97.0,1208,77030.544705
96.0,1355,77047.527284
88.0,1282,77063.589231
88.0,1278,77079.434313
95.0,1272,77095.235324
93.0,1187,77110.224161
94.0,1392,77127.581394
94.0,1118,77141.535144
88.0,1214,77156.984396
97.0,1211,77172.549584
97.0,1138,77187.23229
95.0,1187,77202.105923
95.0,1265,77217.724523
90.0,1361,77234.844517
89.0,1294,77251.00791
98.0,1092,77264.885761
96.0,1190,77279.951943
83.0,1525,77299.193733
96.0,1241,77315.065032
95.0,1208,77330.205764
94.0,1269,77345.765385
90.0,1351,77362.771787
91.0,1276,77378.843203
96.0,1374,77396.879053
92.0,1265,77413.304759
89.0,1394,77430.617939
93.0,1391,77447.845787
99.0,1136,77462.211439
96.0,1262,77477.905099
97.0,1076,77490.8291
98.0,1115,77503.937428
92.0,1227,77518.427922
96.0,1217,77532.805586
98.0,1200,77547.005206
99.0,1235,77562.202521
97.0,1192,77576.358745
80.0,1284,77591.676291
97.0,1178,77605.7335
92.0,1351,77621.505213
100.0,1129,77634.926341
79.0,1390,77651.726694
94.0,1263,77667.168249
91.0,1230,77681.839096
97.0,1330,77697.500614
97.0,1162,77711.031751
93.0,1259,77725.639777
89.0,1223,77740.198289
97.0,1245,77754.34844
97.0,1202,77767.843022
96.0,1222,77781.355038
85.0,1223,77795.285829
92.0,1280,77809.642166
97.0,1298,77823.91081
90.0,1331,77838.750869
94.0,1183,77852.028364
93.0,1318,77866.557467
86.0,1219,77880.207275
94.0,1387,77895.649748
96.0,1271,77909.308899
96.0,1178,77921.489397
94.0,1221,77934.186769
92.0,1346,77948.38912
94.0,1279,77961.601094
83.0,1292,77975.055759
94.0,1309,77988.658867
94.0,1501,78004.188837
91.0,1277,78017.363364
99.0,1097,78028.633902
97.0,1167,78040.797396
95.0,1119,78052.388788
89.0,1457,78067.320999
97.0,1207,78079.991485
95.0,1207,78092.294539
93.0,1298,78105.757242
99.0,1115,78117.463533
95.0,1067,78128.36881
82.0,1345,78142.312901
98.0,1163,78154.482498
96.0,1325,78168.240298
96.0,1112,78179.757453
91.0,1330,78193.816186
92.0,1163,78205.94698
88.0,1303,78219.275457
91.0,1260,78232.354998
94.0,1268,78245.654502
98.0,1060,78256.632578
93.0,1351,78270.632706
96.0,1332,78284.520266
92.0,1319,78298.360904
98.0,1318,78311.841146
91.0,1325,78325.510284
80.0,1392,78339.960958
95.0,1292,78353.11207
94.0,1207,78365.978719
92.0,1404,78380.494611
95.0,1253,78393.507787
93.0,1270,78406.914618
94.0,1324,78420.777802
