# {"t_start": 1547446681.8718116, "env_id": "PrivateEyeNoFrameskip-v4"} 
r,l,t
100.0,2695,104.415478
0.0,2692,197.94123
100.0,2694,294.734438
4067.0,2697,387.924404
-1000.0,2693,481.601703
100.0,2696,577.955323
-1000.0,2693,675.649068
-1000.0,2697,774.209349
100.0,2691,875.216733
-1000.0,2697,974.526067
-1000.0,2692,1069.61276
100.0,2697,1166.175303
-920.0,2694,1268.283944
-919.0,2693,1367.17075
4061.0,2696,1464.647931
4070.0,2691,1563.203693
-1000.0,2690,1661.965809
4000.0,2697,1754.710532
4000.0,2697,1854.0922
-927.0,2696,1955.813099
-900.0,2692,2052.828939
-4.0,2696,2150.563639
-1000.0,2692,2248.922418
0.0,2695,2346.618313
0.0,2691,2446.246883
-13.0,2696,2545.886115
0.0,2694,2645.321822
-13.0,2695,2740.459899
0.0,2697,2840.172676
0.0,2695,2939.416736
-343.0,2694,3038.439317
0.0,2691,3134.970759
0.0,2694,3233.079756
0.0,2694,3333.236128
0.0,2691,3429.524244
0.0,2697,3528.239766
77.0,2695,3625.607344
-831.0,2696,3726.563526
0.0,2697,3828.189604
0.0,2691,3927.290051
0.0,2691,4028.020065
0.0,2692,4129.052909
0.0,2696,4231.273731
0.0,2694,4332.118981
0.0,2697,4432.384844
0.0,2692,4535.486963
0.0,2696,4633.87254
0.0,2692,4735.116902
0.0,2695,4835.563923
0.0,2695,4934.481519
0.0,2692,5034.985781
0.0,2693,5137.501092
0.0,2692,5237.266293
0.0,2697,5338.790954
0.0,2693,5435.063594
0.0,2697,5539.165954
0.0,2696,5641.072065
0.0,2691,5746.62212
0.0,2693,5844.83513
0.0,2691,5943.076444
0.0,2697,6040.620355
0.0,2695,6137.56209
-900.0,2695,6240.83875
0.0,2695,6338.436725
0.0,2698,6438.469475
0.0,2693,6539.958429
0.0,2694,6640.224996
0.0,2697,6737.242867
-1000.0,2691,6837.766547
75.0,2696,6936.803987
0.0,2690,7032.940321
93.0,2697,7133.565502
0.0,2695,7237.467091
0.0,2696,7339.714336
-417.0,2693,7440.605734
0.0,2692,7538.583527
0.0,2697,7638.952892
0.0,2691,7738.579521
0.0,2696,7839.358277
83.0,2694,7938.550137
0.0,2695,8039.607579
0.0,2694,8136.660816
0.0,2694,8235.620594
0.0,2696,8335.215978
0.0,2692,8438.122067
0.0,2695,8538.679962
0.0,2695,8641.301305
0.0,2694,8738.642966
0.0,2691,8839.244736
0.0,2691,8937.77288
0.0,2692,9033.529285
0.0,2692,9133.580914
0.0,2695,9234.237969
0.0,2691,9333.268962
0.0,2691,9434.210016
0.0,2693,9532.116743
0.0,2693,9632.281789
0.0,2697,9734.452043
0.0,2693,9837.379982
0.0,2694,9935.555968
0.0,2696,10036.274831
0.0,2693,10138.432284
-900.0,2694,10234.135832
0.0,2691,10333.026834
-925.0,2693,10432.14017
0.0,2692,10531.272537
0.0,2695,10634.221366
0.0,2693,10734.71744
-24.0,2695,10834.341907
0.0,2693,10937.631564
0.0,2691,11035.144087
0.0,2694,11136.001092
100.0,2691,11234.51069
100.0,2691,11335.165833
100.0,2695,11437.894057
0.0,2694,11538.067035
100.0,2696,11638.835514
100.0,2691,11740.305731
0.0,2691,11844.027758
100.0,2693,11944.628739
100.0,2697,12044.716982
100.0,2695,12145.366162
100.0,2694,12247.571597
100.0,2693,12349.240129
100.0,2692,12447.712141
100.0,2695,12545.786211
100.0,2696,12645.401838
100.0,2697,12746.028047
100.0,2697,12848.42368
100.0,2693,12949.791173
0.0,2697,13050.246946
0.0,2695,13150.711471
0.0,2692,13250.479864
0.0,2695,13352.324884
0.0,2697,13450.173373
0.0,2696,13550.372458
0.0,2691,13647.543747
0.0,2694,13748.716908
0.0,2695,13847.754871
0.0,2694,13948.904302
0.0,2692,14045.282286
100.0,2695,14145.399942
0.0,2691,14247.334864
100.0,2692,14347.341574
100.0,2691,14448.395277
100.0,2694,14547.246658
100.0,2697,14648.45892
0.0,2694,14748.321144
0.0,2693,14847.274867
0.0,2693,14948.088424
0.0,2691,15046.169284
0.0,2697,15145.361235
0.0,2695,15247.471473
0.0,2692,15347.727187
0.0,2696,15447.714857
0.0,2691,15545.552086
0.0,2690,15645.410197
0.0,2694,15744.790279
100.0,2697,15844.53159
100.0,2697,15947.434497
100.0,2696,16047.074302
0.0,2697,16144.225865
100.0,2691,16246.06907
0.0,2694,16348.771713
100.0,2694,16445.304484
100.0,2695,16542.614767
0.0,2694,16643.278729
0.0,2693,16744.360937
0.0,2692,16845.039412
0.0,2694,16946.42428
0.0,2692,17048.826969
0.0,2690,17147.635546
0.0,2693,17246.501586
-38.0,2696,17348.622405
-1000.0,2695,17450.621184
4067.0,2695,17549.946313
0.0,2692,17649.704319
-900.0,2692,17748.283824
-328.0,2695,17847.097723
0.0,2696,17946.444194
-722.0,2695,18046.396081
0.0,2692,18146.726584
0.0,2693,18247.931624
0.0,2694,18346.804314
0.0,2696,18448.902395
0.0,2690,18548.337922
0.0,2695,18650.031638
0.0,2695,18749.033201
0.0,2692,18847.44009
0.0,2693,18945.217765
0.0,2696,19050.111907
0.0,2694,19150.86743
0.0,2694,19249.487902
0.0,2691,19350.901642
-900.0,2693,19451.702187
-1000.0,2697,19548.960622
0.0,2695,19649.187066
0.0,2696,19748.16218
0.0,2694,19848.653352
0.0,2691,19948.728184
0.0,2693,20049.339523
0.0,2697,20149.632588
0.0,2693,20250.750051
0.0,2694,20349.15193
0.0,2692,20447.89931
0.0,2691,20550.095029
0.0,2696,20649.073518
0.0,2697,20750.457458
0.0,2697,20849.577217
0.0,2696,20950.098555
0.0,2693,21048.762025
0.0,2691,21146.512845
0.0,2694,21248.324471
0.0,2692,21347.975877
0.0,2696,21443.718295
0.0,2695,21542.455705
0.0,2695,21639.49764
0.0,2696,21737.532806
0.0,2698,21838.95929
0.0,2693,21940.053692
0.0,2693,22039.090212
0.0,2696,22139.66028
0.0,2697,22238.88313
0.0,2695,22341.203918
-470.0,2696,22440.26517
0.0,2695,22541.100104
0.0,2695,22638.036503
0.0,2693,22736.810071
0.0,2695,22836.258034
0.0,2696,22935.546779
0.0,2695,23034.762106
0.0,2697,23133.94253
0.0,2697,23237.569436
0.0,2691,23338.476296
0.0,2693,23440.325079
0.0,2696,23539.179458
0.0,2695,23637.191833
-43.0,2694,23737.194228
0.0,2697,23839.621393
4100.0,2692,23938.99374
0.0,2690,24038.275507
0.0,2694,24138.548523
0.0,2692,24238.096534
0.0,2691,24336.059557
0.0,2692,24437.117884
0.0,2694,24537.219767
0.0,2694,24638.593491
-646.0,2691,24734.689692
4100.0,2690,24836.145232
0.0,2695,24933.823343
4070.0,2698,25032.466192
0.0,2697,25130.349781
0.0,2696,25230.926968
0.0,2694,25330.800982
0.0,2694,25431.296757
0.0,2698,25536.258188
0.0,2695,25635.879277
0.0,2694,25733.936954
0.0,2692,25834.098484
0.0,2694,25932.633549
4094.0,2693,26033.838125
0.0,2695,26134.908715
0.0,2691,26233.440779
0.0,2696,26334.235303
0.0,2691,26434.944119
0.0,2695,26535.947869
0.0,2695,26639.562562
0.0,2694,26745.766624
0.0,2692,26851.41353
0.0,2693,26959.039312
0.0,2691,27063.439331
0.0,2694,27165.359268
0.0,2690,27267.85935
0.0,2692,27369.827735
0.0,2695,27473.910494
0.0,2694,27576.355788
0.0,2694,27677.496436
0.0,2695,27778.157766
0.0,2694,27877.601493
0.0,2692,27980.579909
0.0,2692,28080.452974
0.0,2696,28183.854504
0.0,2693,28286.789465
0.0,2691,28386.259608
0.0,2691,28488.969075
-1000.0,2692,28589.772
-1000.0,2691,28691.553669
0.0,2697,28793.461524
0.0,2692,28896.03079
0.0,2693,29001.602305
0.0,2693,29104.197309
0.0,2697,29208.481289
0.0,2692,29315.456124
0.0,2694,29416.635897
0.0,2697,29519.589402
0.0,2694,29625.031733
0.0,2691,29730.245719
0.0,2695,29833.010592
0.0,2691,29935.478106
0.0,2692,30038.579305
0.0,2692,30142.342579
0.0,2697,30247.208802
0.0,2693,30350.962845
0.0,2692,30455.608836
0.0,2697,30555.588639
0.0,2697,30656.334844
0.0,2697,30756.461912
0.0,2693,30858.127586
0.0,2694,30958.687125
0.0,2697,31058.069895
0.0,2691,31157.139237
0.0,2694,31255.711934
0.0,2692,31354.562849
-134.0,2694,31457.255709
0.0,2696,31554.12197
-838.0,2691,31654.293849
0.0,2692,31758.044942
-330.0,2696,31858.016646
0.0,2692,31962.187589
0.0,2696,32068.427755
0.0,2695,32171.544253
0.0,2690,32270.843268
0.0,2692,32368.6259
0.0,2696,32469.219271
0.0,2692,32570.957513
0.0,2697,32672.507252
0.0,2696,32770.33713
0.0,2695,32870.383207
0.0,2697,32975.470923
0.0,2692,33083.747494
0.0,2693,33185.785425
0.0,2695,33282.588625
0.0,2694,33385.27606
0.0,2690,33484.494472
0.0,2691,33587.185579
0.0,2691,33692.844665
0.0,2696,33794.919803
0.0,2691,33895.600336
54.0,2693,33998.474746
0.0,2692,34098.484995
0.0,2695,34198.720273
-191.0,2691,34297.578073
0.0,2696,34399.988118
0.0,2697,34502.929686
0.0,2695,34603.926747
0.0,2695,34705.529153
0.0,2691,34805.887232
0.0,2690,34902.422742
0.0,2693,35002.440656
0.0,2693,35099.195683
0.0,2695,35198.735201
0.0,2692,35297.772614
0.0,2696,35397.633576
0.0,2691,35496.161451
0.0,2691,35597.135133
0.0,2697,35698.772678
0.0,2696,35796.654281
0.0,2695,35894.943443
100.0,2695,35993.20788
0.0,2695,36093.346231
0.0,2692,36193.585608
0.0,2691,36292.80725
0.0,2696,36392.814973
0.0,2690,36493.732981
0.0,2692,36591.849774
0.0,2698,36691.732154
0.0,2692,36792.916472
0.0,2697,36892.555161
0.0,2695,36993.065482
0.0,2691,37094.040823
0.0,2696,37195.498295
0.0,2692,37294.543648
0.0,2696,37395.327188
0.0,2696,37497.383377
0.0,2694,37594.539489
0.0,2694,37692.980396
0.0,2696,37792.527239
0.0,2695,37887.723389
0.0,2697,37987.783619
0.0,2690,38084.223113
0.0,2695,38184.023944
0.0,2691,38283.601019
0.0,2691,38383.986789
0.0,2694,38483.217621
0.0,2690,38583.609227
0.0,2694,38685.362915
0.0,2694,38784.814671
0.0,2696,38886.884591
0.0,2697,38991.236035
0.0,2694,39091.303159
-425.0,2698,39192.464706
0.0,2694,39291.86419
0.0,2695,39395.521362
0.0,2693,39497.921636
0.0,2692,39599.787864
0.0,2697,39703.120269
0.0,2694,39804.507638
0.0,2695,39902.074571
0.0,2691,39999.359664
0.0,2692,40098.199828
0.0,2694,40198.806292
0.0,2695,40297.968136
0.0,2692,40399.299704
0.0,2693,40496.346789
0.0,2696,40595.822673
0.0,2698,40697.009464
0.0,2698,40801.054903
0.0,2697,40903.757238
0.0,2691,41003.149335
0.0,2696,41104.481797
0.0,2694,41204.692715
0.0,2695,41302.990228
0.0,2695,41403.599251
0.0,2697,41502.771555
0.0,2694,41604.620902
0.0,2692,41701.90756
100.0,2693,41801.827483
0.0,2695,41899.973005
0.0,2698,41999.792935
0.0,2693,42102.97734
0.0,2697,42202.531842
0.0,2694,42303.412947
0.0,2692,42403.906816
0.0,2694,42505.560004
0.0,2691,42607.234809
0.0,2695,42705.224935
0.0,2692,42807.529513
100.0,2693,42906.239592
100.0,2692,43006.869434
100.0,2691,43106.367365
100.0,2691,43203.229147
100.0,2696,43302.433544
100.0,2694,43402.545754
100.0,2695,43502.940391
100.0,2694,43605.24945
100.0,2693,43703.937866
100.0,2694,43803.333235
100.0,2693,43901.021244
100.0,2693,44000.690502
100.0,2690,44103.885826
0.0,2696,44202.534225
0.0,2695,44302.411183
-28.0,2697,44400.998972
0.0,2696,44502.985277
0.0,2692,44603.656951
0.0,2697,44703.385217
0.0,2691,44801.451485
0.0,2691,44899.533802
0.0,2697,45000.392932
0.0,2692,45099.230501
0.0,2691,45198.061495
0.0,2692,45299.264736
0.0,2694,45399.720311
0.0,2691,45495.273198
0.0,2692,45595.382413
0.0,2697,45695.16818
0.0,2693,45793.169635
0.0,2694,45893.43694
0.0,2696,45992.009028
0.0,2693,46092.602965
0.0,2690,46192.606969
0.0,2696,46290.933225
0.0,2691,46391.826843
0.0,2695,46492.407544
0.0,2696,46594.030605
0.0,2693,46693.529814
0.0,2696,46795.390268
0.0,2697,46895.223334
0.0,2694,46997.19575
0.0,2691,47097.369823
0.0,2693,47195.655869
0.0,2697,47294.017366
0.0,2694,47393.258111
0.0,2692,47488.650389
0.0,2692,47591.396704
0.0,2692,47693.436662
0.0,2691,47794.897559
0.0,2694,47888.848732
0.0,2692,47984.705446
0.0,2691,48083.620243
0.0,2692,48179.93454
0.0,2692,48281.043495
0.0,2691,48380.390697
0.0,2697,48479.69526
0.0,2693,48575.548702
0.0,2692,48669.220108
0.0,2691,48765.681771
0.0,2692,48863.588425
0.0,2693,48959.685131
0.0,2693,49058.271641
0.0,2695,49154.244792
0.0,2693,49246.103705
0.0,2693,49332.64714
0.0,2692,49420.334155
0.0,2696,49507.053086
0.0,2693,49593.636925
0.0,2696,49680.622306
0.0,2693,49765.832351
-1000.0,2693,49847.972649
0.0,2690,49933.101079
0.0,2695,50014.661277
0.0,2694,50095.637216
0.0,2697,50176.373592
0.0,2695,50258.329298
0.0,2693,50337.141089
0.0,2692,50415.886093
0.0,2698,50498.551607
0.0,2697,50576.207584
0.0,2693,50653.338749
0.0,2695,50729.992898
0.0,2698,50806.648223
0.0,2691,50885.166181
0.0,2691,50972.139799
0.0,2691,51062.176306
0.0,2693,51155.051134
-700.0,2696,51248.038476
0.0,2692,51341.123604
0.0,2693,51435.482057
0.0,2691,51526.820833
0.0,2695,51623.16544
0.0,2692,51720.88693
0.0,2694,51813.755178
0.0,2694,51909.565262
0.0,2692,52000.06655
0.0,2697,52092.544347
0.0,2696,52187.642262
0.0,2695,52275.142306
0.0,2693,52351.50087
0.0,2695,52425.658295
0.0,2691,52498.89413
0.0,2695,52571.607819
0.0,2694,52640.77031
0.0,2693,52709.316192
0.0,2693,52776.492822
0.0,2694,52844.142858
0.0,2691,52912.526728
100.0,2692,52982.867539
100.0,2695,53049.066822
100.0,2692,53115.277694
100.0,2693,53181.61941
100.0,2694,53247.137519
100.0,2696,53312.827819
100.0,2693,53381.496625
100.0,2693,53448.851335
100.0,2693,53514.896922
100.0,2695,53580.443943
100.0,2691,53646.568464
100.0,2693,53712.465809
100.0,2695,53778.778064
100.0,2697,53843.317799
100.0,2697,53910.241138
100.0,2692,53976.154943
100.0,2695,54040.749698
100.0,2695,54106.861362
100.0,2693,54175.18003
100.0,2696,54242.922858
100.0,2696,54307.931806
100.0,2697,54375.649661
100.0,2693,54444.29481
100.0,2692,54511.592779
100.0,2691,54579.288227
0.0,2695,54647.504603
100.0,2692,54714.310326
100.0,2696,54784.76714
100.0,2695,54852.76478
100.0,2690,54920.268032
100.0,2693,54987.276342
100.0,2696,55055.161405
100.0,2692,55122.564429
100.0,2692,55192.954585
100.0,2692,55261.089931
100.0,2693,55328.500983
100.0,2693,55396.036914
100.0,2697,55462.521031
100.0,2697,55528.830008
100.0,2696,55596.096958
0.0,2695,55662.4338
0.0,2696,55729.867036
0.0,2693,55795.571187
0.0,2696,55862.719114
0.0,2698,55929.194357
0.0,2696,55996.796672
0.0,2693,56064.075822
0.0,2692,56129.704829
0.0,2696,56195.670159
0.0,2691,56262.271475
0.0,2691,56329.201654
-1000.0,2697,56395.200014
0.0,2691,56460.309105
0.0,2695,56528.475767
0.0,2693,56599.779267
0.0,2694,56667.128688
0.0,2696,56734.569014
0.0,2692,56800.049842
0.0,2693,56867.123905
0.0,2696,56932.134236
0.0,2690,56999.223988
0.0,2697,57066.407473
0.0,2690,57131.82383
0.0,2695,57197.043424
0.0,2696,57263.849512
0.0,2696,57329.309026
0.0,2692,57393.722545
0.0,2691,57458.374571
0.0,2695,57525.435596
0.0,2697,57590.996934
0.0,2691,57659.309837
0.0,2691,57724.396355
0.0,2696,57791.820999
0.0,2693,57860.24861
0.0,2695,57927.802115
0.0,2693,57994.21705
0.0,2696,58062.774338
0.0,2695,58132.422275
0.0,2697,58203.958802
0.0,2693,58278.680516
0.0,2694,58356.506394
0.0,2691,58431.342041
0.0,2691,58508.046001
0.0,2694,58592.963034
0.0,2692,58684.687995
0.0,2694,58775.93922
0.0,2695,58864.754779
0.0,2691,58952.885521
0.0,2696,59041.479589
0.0,2695,59129.826659
0.0,2696,59221.198081
0.0,2695,59313.541636
0.0,2698,59405.430229
0.0,2694,59499.399158
0.0,2696,59591.257554
0.0,2695,59686.200858
0.0,2695,59780.776252
0.0,2695,59869.509471
0.0,2690,59960.88963
0.0,2698,60056.598042
0.0,2693,60148.204381
0.0,2695,60239.383309
0.0,2693,60329.533451
0.0,2693,60423.065639
0.0,2692,60518.139416
0.0,2691,60609.598829
0.0,2691,60701.399127
0.0,2694,60793.542083
0.0,2698,60887.330307
0.0,2693,60982.051225
0.0,2692,61076.784595
0.0,2692,61174.117648
0.0,2694,61263.152202
0.0,2696,61352.5179
0.0,2691,61442.375551
0.0,2695,61535.338439
0.0,2691,61629.919312
0.0,2692,61723.403794
0.0,2694,61815.946899
0.0,2694,61908.006223
0.0,2697,62002.244515
0.0,2697,62095.512883
0.0,2697,62188.975617
0.0,2696,62281.049629
0.0,2694,62370.272371
0.0,2695,62464.066519
0.0,2693,62557.837369
100.0,2693,62652.34971
0.0,2692,62744.557264
0.0,2696,62835.044839
0.0,2694,62927.489365
100.0,2697,63018.819393
0.0,2695,63109.747544
0.0,2698,63200.921161
100.0,2695,63292.101599
0.0,2698,63385.249985
100.0,2697,63475.362484
100.0,2695,63567.884868
100.0,2694,63659.176017
100.0,2693,63751.721297
100.0,2696,63845.145797
100.0,2696,63940.413053
100.0,2693,64031.634404
100.0,2692,64125.121622
0.0,2692,64219.302395
-39.0,2690,64312.939594
66.0,2694,64407.415573
0.0,2692,64495.212904
0.0,2697,64588.95314
100.0,2691,64683.349721
-1000.0,2692,64775.964689
0.0,2694,64867.200801
0.0,2691,64959.581674
0.0,2695,65051.1812
0.0,2698,65143.337147
0.0,2693,65235.847579
100.0,2691,65327.606983
100.0,2691,65423.964423
100.0,2694,65516.462983
0.0,2695,65608.440636
0.0,2697,65697.066741
0.0,2697,65786.161694
0.0,2693,65878.298571
0.0,2698,65973.989287
0.0,2696,66070.119924
0.0,2695,66159.588105
0.0,2691,66250.978947
0.0,2691,66344.519059
0.0,2695,66436.547348
0.0,2697,66527.566206
0.0,2694,66622.648509
0.0,2692,66714.256797
0.0,2691,66806.163337
0.0,2691,66899.403982
0.0,2692,66992.123224
0.0,2690,67084.197983
100.0,2694,67178.622724
0.0,2691,67267.305186
0.0,2693,67359.320878
0.0,2694,67450.403024
0.0,2692,67543.561678
100.0,2695,67632.82568
0.0,2694,67725.761958
0.0,2692,67819.364076
0.0,2697,67910.933522
0.0,2697,68002.623164
0.0,2691,68095.280037
100.0,2693,68184.180928
100.0,2695,68271.402491
100.0,2697,68362.287283
100.0,2693,68454.214462
100.0,2696,68546.849768
100.0,2697,68636.032092
0.0,2694,68725.763426
100.0,2691,68819.629477
0.0,2692,68908.931426
100.0,2698,69000.638591
100.0,2692,69093.947866
100.0,2690,69184.736599
0.0,2698,69277.414164
0.0,2693,69371.096045
0.0,2691,69464.151369
100.0,2693,69555.696769
100.0,2695,69647.71174
0.0,2691,69742.449224
0.0,2693,69837.646169
0.0,2690,69930.901621
0.0,2692,70028.723451
0.0,2697,70120.225093
0.0,2693,70212.820982
-1000.0,2696,70307.449385
0.0,2693,70396.172132
0.0,2693,70489.298502
-1000.0,2693,70581.05512
0.0,2695,70673.86036
0.0,2692,70763.414159
0.0,2698,70857.240361
0.0,2695,70949.338956
0.0,2695,71042.136805
0.0,2694,71137.683753
0.0,2695,71230.399089
0.0,2695,71319.459849
0.0,2696,71411.055483
0.0,2693,71502.695997
0.0,2696,71596.08072
0.0,2695,71690.284307
0.0,2691,71780.786973
0.0,2694,71872.827873
0.0,2697,71964.879507
0.0,2693,72058.362164
0.0,2692,72150.930678
0.0,2697,72243.034647
0.0,2693,72335.386683
0.0,2696,72430.005573
0.0,2694,72524.351099
0.0,2697,72614.908684
0.0,2694,72706.622603
0.0,2696,72799.648328
0.0,2690,72890.549086
0.0,2691,72984.944639
0.0,2698,73079.044703
0.0,2694,73175.466791
0.0,2694,73268.347402
0.0,2692,73366.019644
0.0,2691,73461.914611
0.0,2695,73556.106425
0.0,2693,73654.765476
0.0,2697,73752.193447
0.0,2691,73845.609049
0.0,2694,73939.7299
0.0,2691,74034.359087
0.0,2693,74123.674279
0.0,2692,74210.864681
0.0,2692,74304.879292
0.0,2697,74397.154999
0.0,2697,74490.85362
0.0,2697,74586.661448
0.0,2693,74678.709796
0.0,2693,74775.488978
0.0,2695,74869.269359
0.0,2692,74962.520598
0.0,2695,75056.207751
0.0,2696,75148.269847
0.0,2692,75240.615506
0.0,2697,75333.50379
0.0,2697,75429.660696
0.0,2697,75520.821212
0.0,2698,75614.493248
0.0,2696,75704.65467
0.0,2694,75792.265771
0.0,2692,75884.761719
0.0,2692,75973.352837
0.0,2697,76069.412777
0.0,2695,76160.85953
0.0,2697,76251.686329
0.0,2692,76342.022342
0.0,2692,76432.67721
0.0,2697,76525.973242
0.0,2695,76618.554545
0.0,2694,76713.06548
0.0,2692,76802.574132
0.0,2693,76895.591122
0.0,2693,76987.001783
0.0,2696,77081.996386
0.0,2696,77170.676934
0.0,2694,77262.420311
0.0,2697,77354.49479
0.0,2692,77446.335611
0.0,2697,77539.094104
0.0,2696,77633.165236
0.0,2692,77726.246725
0.0,2694,77819.613602
0.0,2695,77908.949312
0.0,2696,77999.663279
0.0,2695,78091.777128
0.0,2695,78183.431114
0.0,2697,78274.380783
0.0,2697,78369.556011
0.0,2695,78461.673267
0.0,2693,78554.594939
0.0,2694,78649.236978
0.0,2692,78741.797799
0.0,2696,78834.513231
0.0,2692,78925.564831
0.0,2692,79018.35345
0.0,2696,79107.320816
0.0,2697,79197.879424
0.0,2696,79288.074949
0.0,2697,79380.565398
0.0,2695,79471.931417
0.0,2692,79563.787689
0.0,2696,79655.113931
0.0,2691,79746.319462
0.0,2695,79840.192985
0.0,2697,79934.866438
0.0,2695,80028.060796
0.0,2694,80124.536341
0.0,2696,80213.853904
0.0,2691,80307.121988
0.0,2697,80399.44547
0.0,2693,80491.255565
0.0,2691,80581.733178
0.0,2694,80674.920523
0.0,2696,80765.312542
0.0,2691,80857.192373
0.0,2695,80946.669858
0.0,2694,81039.905729
0.0,2695,81133.880345
0.0,2691,81228.065693
0.0,2695,81319.162725
0.0,2692,81409.974004
0.0,2691,81499.210175
0.0,2697,81595.143751
0.0,2697,81689.869701
0.0,2692,81779.64422
0.0,2695,81870.34947
0.0,2692,81963.258519
0.0,2696,82055.441305
0.0,2698,82149.882284
0.0,2697,82241.891416
0.0,2695,82335.321582
0.0,2694,82429.853617
0.0,2695,82522.270579
0.0,2692,82615.332889
0.0,2693,82707.440758
0.0,2691,82797.153169
0.0,2693,82891.437561
0.0,2691,82986.027512
0.0,2694,83077.242537
0.0,2696,83169.780921
0.0,2694,83264.228288
0.0,2696,83356.66229
0.0,2692,83449.795459
0.0,2693,83542.575093
0.0,2697,83634.47843
0.0,2696,83725.961671
0.0,2693,83816.850658
0.0,2698,83913.059656
0.0,2697,84005.600988
0.0,2692,84092.0725
0.0,2694,84181.868684
0.0,2697,84268.019462
0.0,2696,84349.100086
0.0,2694,84429.391639
0.0,2691,84508.255073
0.0,2693,84589.385206
0.0,2697,84671.583961
0.0,2697,84753.850795
0.0,2694,84834.299663
0.0,2694,84915.908848
0.0,2692,84997.597177
0.0,2690,85081.677629
0.0,2692,85163.19199
0.0,2693,85242.253814
0.0,2692,85322.251688
0.0,2694,85402.114837
0.0,2691,85481.639477
0.0,2696,85560.381215
0.0,2691,85643.655354
0.0,2697,85721.451152
0.0,2697,85795.726919
0.0,2691,85872.153291
0.0,2695,85946.328318
0.0,2693,86019.433793
0.0,2697,86093.797679
0.0,2697,86167.367112
0.0,2695,86242.326175
0.0,2695,86318.021593
0.0,2691,86392.614145
0.0,2697,86467.099712
0.0,2690,86540.117877
0.0,2690,86614.178563
