# {"t_start": 1548219421.3541756, "env_id": "AsteroidsNoFrameskip-v4"} 
r,l,t610.0,647,28.675738
310.0,487,50.92973
530.0,579,79.560831
930.0,662,111.934594
1080.0,1453,189.178408
460.0,444,212.292259
310.0,388,234.533993
1460.0,1364,323.556254
930.0,604,365.208
680.0,364,383.474747
1300.0,1166,457.875647
1320.0,1838,583.2066
1300.0,1306,665.709404
710.0,604,700.35817
1510.0,1559,802.245927
1610.0,1875,924.828747
1180.0,557,959.124227
830.0,595,999.681276
730.0,665,1040.605583
680.0,549,1074.101243
1360.0,2025,1208.020694
780.0,746,1256.170913
1360.0,1250,1334.577523
330.0,408,1360.338688
930.0,705,1408.389898
1180.0,1059,1474.483701
880.0,950,1535.173566
1280.0,1018,1600.825032
580.0,554,1633.579056
2250.0,1662,1743.941631
980.0,569,1783.25048
1340.0,1264,1859.664065
780.0,515,1893.922078
1460.0,1265,1976.13642
1080.0,568,2015.954705
1420.0,1461,2110.437194
1300.0,2539,2276.837986
310.0,351,2294.973721
1460.0,1295,2376.344404
830.0,574,2417.954417
2150.0,1655,2526.49599
1370.0,1020,2586.039862
1280.0,649,2628.82414
1390.0,1768,2745.994333
1180.0,902,2803.282785
710.0,617,2845.392996
1390.0,1161,2920.852614
1470.0,763,2969.164527
730.0,479,2996.057962
880.0,385,3021.734401
1280.0,649,3064.301941
930.0,501,3096.933977
580.0,426,3121.849913
780.0,812,3178.529941
1320.0,1993,3305.861874
1280.0,1314,3389.306536
1600.0,2325,3538.662042
1490.0,1477,3638.635302
230.0,341,3656.207618
1400.0,1697,3771.642071
1390.0,1213,3846.801245
830.0,452,3871.933216
1180.0,1040,3939.318186
780.0,642,3981.891533
1470.0,1905,4106.209371
880.0,599,4147.463037
860.0,813,4199.500233
1280.0,1546,4299.812535
1180.0,923,4358.048223
1320.0,1337,4443.315621
1390.0,1028,4509.586913
1350.0,1705,4625.080463
1300.0,1122,4694.783545
1300.0,2421,4852.567914
1730.0,1741,4967.185753
1600.0,1718,5078.024835
830.0,852,5134.003556
1340.0,1517,5228.133183
1390.0,1787,5342.912124
730.0,732,5393.359606
1030.0,990,5460.998916
930.0,648,5495.690693
880.0,614,5535.851265
880.0,1117,5611.224466
630.0,512,5644.860449
480.0,593,5678.855474
310.0,277,5695.438205
1180.0,1686,5805.393657
1300.0,1685,5919.412392
480.0,377,5937.524553
680.0,588,5979.095783
1030.0,1111,6054.074744
1730.0,1302,6136.608428
1490.0,1232,6214.498256
1320.0,1593,6314.379416
830.0,519,6348.824889
1130.0,734,6396.613406
1280.0,1703,6506.279305
830.0,588,6545.903403
880.0,949,6603.97808
2150.0,1538,6705.203319
1780.0,1104,6777.715869
1300.0,730,6821.825876
780.0,494,6855.109933
1300.0,1124,6927.936815
380.0,363,6946.368915
1580.0,2093,7089.225545
580.0,306,7105.8646
980.0,676,7147.351846
830.0,851,7206.624049
1850.0,1207,7283.00305
1460.0,1845,7399.912275
730.0,751,7449.710208
630.0,616,7489.928925
1280.0,1004,7556.076121
1700.0,2201,7697.611881
980.0,677,7740.256402
1180.0,1232,7824.263344
1030.0,1215,7898.079165
630.0,613,7940.220594
1930.0,1693,8046.777834
830.0,699,8090.468929
730.0,631,8132.297773
1280.0,836,8181.331308
480.0,373,8205.736858
1430.0,1411,8299.12132
630.0,411,8323.66536
530.0,480,8355.179613
1610.0,1474,8450.078313
1320.0,1121,8523.461436
1510.0,2737,8699.512747
480.0,623,8740.454005
1370.0,1508,8841.063191
1320.0,1058,8906.614596
1590.0,3427,9132.573879
1280.0,1752,9242.333716
830.0,600,9282.872509
680.0,550,9317.485634
1440.0,1183,9393.436936
1300.0,1145,9466.931911
1180.0,856,9526.24138
1390.0,2380,9676.607894
880.0,945,9742.239444
1860.0,2160,9877.479493
1300.0,1190,9957.270495
980.0,932,10017.44543
730.0,374,10043.237607
1180.0,1022,10108.111242
980.0,621,10142.572851
1980.0,1620,10250.344811
1500.0,980,10309.556592
1300.0,1196,10392.013991
1390.0,1715,10501.164834
1540.0,1577,10600.34149
1710.0,1384,10693.50646
1300.0,1231,10773.443274
580.0,506,10801.029704
980.0,649,10844.197454
780.0,465,10875.623459
1080.0,543,10907.473128
1280.0,772,10958.234218
1390.0,1276,11041.186534
1300.0,1254,11123.979406
1300.0,1509,11216.462155
1560.0,1061,11290.021531
880.0,731,11333.638334
780.0,418,11359.245243
530.0,614,11400.284486
1420.0,979,11465.758274
1340.0,2312,11617.03656
830.0,1059,11683.745027
1830.0,1882,11802.554626
2850.0,1776,11918.545726
1340.0,1767,12035.338178
1180.0,1107,12103.228677
1300.0,947,12168.466051
1510.0,3388,12387.465384
830.0,857,12445.392421
1130.0,951,12504.840529
680.0,637,12546.58705
930.0,608,12587.701187
1300.0,1962,12713.460243
980.0,830,12763.849483
630.0,601,12804.786275
580.0,683,12847.151602
1080.0,910,12905.92246
280.0,377,12930.860013
760.0,636,12972.57648
2200.0,1557,13073.024649
980.0,563,13107.356819
1730.0,2654,13282.150623
1080.0,873,13340.183218
2750.0,1962,13465.602419
1280.0,1713,13576.042401
880.0,530,13609.843845
1300.0,1933,13734.52863
1080.0,708,13784.383099
1320.0,1420,13874.070894
1180.0,1181,13951.192947
930.0,830,14001.735932
1180.0,771,14050.887867
780.0,550,14084.694369
1440.0,1107,14159.854394
1280.0,1174,14234.419027
780.0,587,14275.225658
1430.0,1622,14377.101557
1370.0,1174,14452.082541
1080.0,787,14502.405107
1300.0,1121,14577.105831
1490.0,3366,14793.417359
480.0,489,14826.192695
980.0,321,14843.600564
1030.0,909,14901.860757
480.0,459,14934.301181
680.0,500,14967.524023
930.0,861,15019.171991
530.0,501,15052.48946
1300.0,1956,15178.413575
1370.0,1637,15285.815096
430.0,319,15303.652352
1300.0,1475,15403.302263
660.0,347,15427.395779
280.0,372,15445.458634
280.0,374,15469.985441
1280.0,998,15536.958666
480.0,594,15571.384384
1180.0,976,15636.296937
560.0,587,15677.157555
780.0,826,15729.030448
1280.0,838,15780.555449
730.0,546,15820.233765
630.0,846,15870.808758
510.0,657,15912.972972
780.0,559,15947.521157
310.0,426,15979.705724
1490.0,1592,16079.360232
430.0,306,16096.677989
1280.0,1065,16164.80357
930.0,816,16222.005769
930.0,1035,16288.554696
830.0,579,16322.735253
830.0,561,16363.045076
980.0,1105,16431.708132
980.0,702,16474.751515
430.0,321,16498.724041
530.0,392,16523.594598
1940.0,1397,16615.083235
1280.0,1949,16740.054833
2530.0,1807,16857.18089
1280.0,879,16915.066157
1080.0,856,16965.878083
1590.0,868,17024.167213
3280.0,3843,17276.692346
1180.0,849,17328.327205
1080.0,506,17361.684162
1470.0,1202,17443.621672
1180.0,1142,17512.29952
1320.0,1072,17586.1376
780.0,597,17620.662158
1280.0,808,17676.973669
1280.0,1333,17761.214625
1760.0,1181,17836.855982
930.0,1216,17912.773464
580.0,468,17945.466483
1390.0,1051,18012.50536
1300.0,1682,18121.364027
1180.0,1167,18196.540968
1560.0,1872,18320.986273
430.0,304,18338.58623
1390.0,723,18387.774068
780.0,740,18430.345707
280.0,313,18454.004269
360.0,195,18463.282053
1300.0,1147,18539.003009
1280.0,1213,18616.121407
780.0,671,18658.173964
830.0,912,18722.270043
1340.0,686,18764.362931
2030.0,1355,18850.763149
1080.0,1059,18918.511456
630.0,540,18957.767577
1180.0,674,18999.759749
880.0,763,19050.270803
880.0,729,19093.852467
1080.0,701,19141.872836
1300.0,1120,19209.164253
1370.0,1332,19301.594033
980.0,860,19352.495139
1460.0,1359,19442.761558
1280.0,1048,19511.554092
1490.0,837,19559.997963
1030.0,706,19610.471931
1300.0,909,19670.294245
580.0,483,19701.562808
1510.0,1319,19787.107557
580.0,367,19812.815199
2030.0,1675,19922.129586
930.0,607,19956.722444
1370.0,1324,20042.461493
830.0,476,20074.91957
880.0,516,20107.601133
1300.0,1048,20175.584795
1420.0,1406,20267.75077
1370.0,1707,20377.866563
1490.0,1316,20461.856734
730.0,603,20502.716164
1080.0,588,20544.719439
1350.0,2295,20689.218922
1300.0,842,20748.186487
1080.0,645,20790.922046
980.0,771,20840.361208
1420.0,855,20891.266448
1320.0,1295,20976.845971
310.0,337,21001.300574
1470.0,1261,21084.134713
1030.0,816,21135.310288
630.0,370,21160.566608
830.0,767,21211.740516
1300.0,1282,21293.157695
1350.0,1075,21362.544275
1180.0,586,21396.25222
1370.0,1238,21479.284622
780.0,687,21523.043119
680.0,494,21556.34996
1030.0,584,21597.135526
1440.0,1426,21690.177941
730.0,553,21725.063894
1300.0,1282,21808.426821
1300.0,951,21869.482309
2050.0,1553,21971.376607
1300.0,1629,22081.701886
980.0,525,22116.19197
1280.0,1889,22241.945441
1410.0,1153,22311.532173
730.0,471,22344.207312
880.0,416,22369.866891
2130.0,970,22436.508584
1340.0,1793,22557.315277
1340.0,1589,22658.935357
980.0,988,22725.085563
1180.0,1248,22802.648377
930.0,651,22844.752184
630.0,321,22868.700712
1080.0,1186,22943.71093
540.0,526,22977.347633
1610.0,1170,23053.218038
1650.0,2509,23215.164971
880.0,590,23256.016642
410.0,189,23265.243796
930.0,1047,23333.067518
1320.0,932,23399.094818
630.0,534,23432.922489
360.0,285,23449.976691
630.0,569,23484.332175
830.0,544,23518.520117
1810.0,1993,23651.741817
1130.0,1156,23727.452638
580.0,383,23752.962516
1730.0,2020,23879.626042
2750.0,1723,23996.983855
880.0,844,24047.751643
1080.0,1357,24141.909888
2000.0,2122,24276.661235
1320.0,969,24340.181639
1390.0,1327,24428.063801
580.0,504,24461.50082
1280.0,1454,24553.427424
880.0,405,24579.529754
1420.0,1770,24695.600786
1560.0,1765,24815.652407
2000.0,1264,24897.633265
1710.0,929,24958.486432
980.0,643,24999.510966
1130.0,628,25034.095094
2010.0,967,25101.664031
1640.0,1514,25200.931166
930.0,665,25244.014596
980.0,650,25286.177963
1300.0,1086,25352.942283
1470.0,1400,25446.957691
1680.0,882,25504.71286
2400.0,1840,25624.279346
1130.0,468,25657.481638
1280.0,940,25716.435382
1280.0,3393,25936.954497
1030.0,651,25979.134555
1280.0,1423,26072.554532
1390.0,1439,26171.815121
1280.0,1332,26259.135732
1780.0,1733,26368.906853
1660.0,1884,26494.633694
1280.0,865,26552.381739
1520.0,1711,26662.236926
530.0,340,26680.017744
1360.0,1650,26790.425565
730.0,548,26824.481466
1180.0,933,26889.579518
830.0,480,26916.390882
480.0,321,26940.27568
780.0,432,26966.273827
1300.0,877,27024.937185
280.0,307,27042.366292
1080.0,722,27091.709813
680.0,526,27124.979848
730.0,548,27159.308363
230.0,191,27168.948909
480.0,272,27186.241282
480.0,413,27218.979453
930.0,734,27262.873631
430.0,405,27287.787196
1030.0,582,27327.918068
630.0,726,27371.666052
930.0,556,27412.836858
1280.0,2325,27564.05792
1130.0,868,27616.374744
1280.0,848,27672.723625
1390.0,1796,27792.147356
1080.0,603,27826.780954
830.0,576,27867.318047
480.0,251,27884.184146
1280.0,2080,28018.683972
1760.0,1332,28104.382889
1610.0,2623,28279.563238
1460.0,2021,28406.788231
1630.0,856,28464.623621
1610.0,1274,28548.336403
360.0,250,28565.526971
730.0,651,28607.046152
780.0,550,28639.59807
1930.0,1196,28717.670657
280.0,297,28735.423261
1590.0,1937,28861.27495
1440.0,1363,28952.74771
730.0,636,28994.21085
2080.0,1137,29070.586496
830.0,343,29088.228729
1690.0,1025,29154.748073
1300.0,1647,29262.828701
530.0,406,29288.194705
1080.0,1059,29358.132019
1080.0,651,29399.154751
730.0,347,29422.514752
1760.0,1796,29542.587729
1280.0,1404,29633.597617
630.0,371,29652.538611
680.0,268,29669.789104
1480.0,1327,29761.685956
1030.0,555,29795.233406
980.0,646,29836.835704
1080.0,769,29887.975041
1300.0,606,29929.961211
1410.0,1543,30029.74081
1540.0,637,30065.790164
380.0,308,30089.881574
1030.0,598,30125.337224
580.0,302,30149.027458
1780.0,2509,30310.56022
980.0,641,30352.405682
1370.0,633,30394.247966
1760.0,1223,30471.083811
1810.0,2146,30613.375783
530.0,620,30654.756683
780.0,580,30689.237
530.0,428,30715.13162
880.0,362,30740.081505
1180.0,1276,30823.775355
580.0,308,30841.356622
1630.0,1384,30934.057835
1350.0,1209,31015.463812
880.0,723,31058.828024
1610.0,682,31101.908647
880.0,587,31142.288997
880.0,510,31174.884027
1300.0,1160,31250.598869
780.0,488,31277.517898
830.0,464,31309.281409
1580.0,1033,31375.921757
1300.0,1390,31468.37761
1630.0,1255,31546.536925
1130.0,487,31580.3368
1030.0,557,31614.959671
2500.0,1840,31731.540406
580.0,371,31752.457624
1300.0,1439,31819.072401
1080.0,722,31849.364193
1340.0,1488,31918.850875
1490.0,1900,32005.282395
1490.0,2177,32099.719082
1590.0,1403,32163.760447
1300.0,2285,32267.550867
280.0,301,32279.866244
1130.0,887,32320.472694
1560.0,1820,32401.090423
310.0,382,32418.746599
1180.0,1016,32465.449991
1490.0,1773,32545.812687
1390.0,1560,32616.893804
880.0,625,32646.161593
1300.0,2537,32757.189157
1320.0,1654,32833.013787
2000.0,1163,32884.716868
730.0,455,32906.600421
1320.0,1503,32971.496457
2050.0,1128,33023.594766
480.0,456,33046.0941
1610.0,1349,33105.308745
3100.0,2670,33226.211731
1370.0,1245,33283.753762
1300.0,1149,33331.643698
1300.0,1441,33401.076127
730.0,609,33425.369633
1320.0,1967,33516.416853
1080.0,1353,33576.182691
580.0,320,33588.667655
930.0,423,33610.98104
1340.0,2372,33716.615299
830.0,670,33745.990149
1300.0,1020,33792.471262
1030.0,690,33821.324513
1180.0,1244,33878.477365
630.0,578,33902.871538
880.0,912,33948.654202
880.0,868,33984.275628
1490.0,1415,34047.531788
980.0,636,34076.468801
730.0,552,34100.240196
430.0,326,34117.151003
1560.0,1720,34195.165351
1280.0,1431,34257.820548
2550.0,2372,34369.162091
430.0,524,34392.19119
1280.0,1201,34444.585678
930.0,554,34468.985745
780.0,602,34498.455633
1320.0,832,34534.9851
1080.0,869,34574.925595
780.0,496,34597.42124
1300.0,2191,34698.742649
1080.0,768,34734.343673
1130.0,692,34763.788209
1080.0,633,34791.621399
780.0,560,34815.179621
1580.0,1952,34903.987733
830.0,542,34926.804523
1280.0,1096,34978.284454
680.0,425,34996.718408
630.0,502,35020.598816
510.0,361,35038.123748
1650.0,1053,35085.652683
730.0,364,35102.18345
2500.0,1422,35165.840751
780.0,328,35178.484571
1580.0,1111,35231.159321
2300.0,1409,35293.725896
1860.0,1267,35348.496531
2060.0,1988,35441.283133
1280.0,1158,35493.220814
2180.0,1748,35570.469219
1580.0,879,35610.572047
1540.0,1305,35668.057002
1280.0,1721,35749.184513
430.0,275,35760.923053
1180.0,1503,35825.899274
1640.0,1289,35883.117967
1300.0,1001,35930.200285
730.0,574,35959.16099
730.0,638,35984.114004
680.0,616,36012.084615
1430.0,1069,36058.500645
730.0,659,36088.142184
430.0,399,36110.289831
1560.0,716,36140.673182
1300.0,776,36174.732676
1180.0,1304,36232.590256
630.0,617,36261.92769
880.0,580,36286.417004
1560.0,941,36331.214586
1540.0,1209,36383.771148
880.0,435,36402.259054
1390.0,699,36437.228434
930.0,818,36472.210403
1630.0,1358,36530.466765
1370.0,974,36577.447171
980.0,675,36606.166427
880.0,685,36634.605682
780.0,521,36658.514362
780.0,606,36688.437734
1300.0,980,36736.149581
3000.0,1921,36822.199156
2500.0,1610,36894.731054
630.0,593,36922.789177
1370.0,1103,36969.016881
1080.0,506,36992.788191
680.0,456,37011.717989
1300.0,1095,37062.827906
680.0,555,37085.766859
580.0,346,37103.303941
1080.0,888,37145.83429
1390.0,1032,37194.280473
530.0,550,37216.930268
780.0,516,37239.224013
1360.0,1164,37293.275238
1460.0,1324,37352.660056
480.0,299,37364.360229
1080.0,1178,37416.288312
1030.0,617,37445.63632
1180.0,689,37475.989566
1320.0,1127,37526.591496
1960.0,2034,37621.445537
1370.0,2665,37744.38577
680.0,364,37757.256665
1630.0,1638,37831.127745
880.0,519,37855.159937
1180.0,1116,37907.232025
1180.0,781,37941.142282
830.0,577,37965.435582
3200.0,2265,38072.366718
1470.0,2127,38165.270351
980.0,752,38200.909329
1080.0,772,38234.656686
1080.0,649,38263.216034
1320.0,1612,38341.557984
880.0,408,38359.323565
980.0,591,38382.564718
1880.0,2705,38505.890205
430.0,254,38517.215088
530.0,365,38533.929948
2550.0,1708,38609.247982
880.0,556,38633.393552
1350.0,537,38662.027721
1300.0,922,38703.78831
1950.0,1372,38760.877528
880.0,594,38789.8828
1080.0,503,38813.601341
460.0,253,38825.371137
1490.0,1548,38896.550756
460.0,329,38908.884233
2950.0,1681,38983.496754
1180.0,576,39011.675615
980.0,656,39041.220217
1710.0,1539,39107.224268
280.0,351,39124.04295
2050.0,1470,39191.766996
980.0,736,39221.756659
1830.0,906,39262.520626
1520.0,1167,39314.03141
1910.0,1454,39377.893108
1180.0,762,39412.829422
1180.0,916,39453.521396
1490.0,731,39487.074925
1780.0,2663,39609.23764
1080.0,558,39632.765939
1350.0,1087,39678.967519
430.0,336,39695.410621
1630.0,1515,39764.854485
1180.0,861,39800.841537
2050.0,1931,39887.043855
1390.0,1155,39938.665325
1080.0,589,39967.232563
510.0,369,39984.599803
730.0,335,39997.240335
2200.0,1208,40054.58136
1300.0,1725,40129.372819
1280.0,1358,40189.580646
1890.0,1094,40240.582077
2080.0,2584,40357.824842
1300.0,1618,40432.42468
310.0,352,40444.853891
1610.0,1216,40501.823406
1610.0,888,40538.386261
980.0,922,40583.207928
1180.0,860,40618.479652
1280.0,1167,40670.395435
680.0,443,40692.693776
880.0,594,40716.998177
1390.0,2215,40817.166283
1350.0,645,40845.890742
1750.0,1600,40919.897265
2050.0,1759,40997.525719
1760.0,1307,41059.428312
1320.0,705,41088.229558
730.0,532,41111.572473
530.0,435,41129.670242
1910.0,1636,41204.016927
1530.0,1490,41273.001667
1630.0,1741,41349.139269
1560.0,1593,41418.545793
1590.0,1803,41499.906429
930.0,545,41526.268601
1490.0,1352,41585.804004
1300.0,926,41627.810392
680.0,456,41650.197517
1280.0,1323,41706.879049
1280.0,743,41742.166138
460.0,369,41759.698183
1400.0,783,41794.741298
1320.0,656,41822.945861
1280.0,1617,41893.127739
1300.0,1963,41981.451555
1880.0,714,42014.352634
1300.0,703,42044.018244
2650.0,1003,42090.91026
1280.0,1136,42142.494972
1280.0,626,42170.742666
1670.0,1460,42235.185599
880.0,337,42252.047391
830.0,719,42282.217725
1280.0,1258,42339.364308
1760.0,1803,42420.147213
390.0,390,42437.909914
1640.0,1383,42498.392296
930.0,781,42532.641676
680.0,557,42559.721207
1390.0,1542,42630.100571
1540.0,675,42660.147699
1350.0,1125,42710.803784
630.0,576,42734.286634
1650.0,1707,42811.967119
1280.0,630,42841.295024
330.0,281,42853.029902
780.0,398,42870.015931
480.0,345,42886.326912
1610.0,2037,42979.502376
1480.0,1916,43064.703657
1480.0,1634,43135.726657
2430.0,1527,43204.557225
1460.0,1378,43268.831492
1300.0,1623,43338.419102
1080.0,589,43366.492546
1300.0,1115,43414.769893
1300.0,1904,43502.912824
930.0,560,43529.924401
2900.0,2776,43653.967166
1030.0,591,43682.05241
980.0,504,43704.488238
2080.0,1299,43762.201061
830.0,352,43775.123609
830.0,752,43810.434927
1350.0,1162,43863.976816
880.0,498,43886.782096
1300.0,1692,43960.934065
1520.0,949,44002.270447
1080.0,659,44031.507491
980.0,490,44054.038019
1180.0,1393,44116.372941
1180.0,1097,44163.785011
660.0,365,44180.955643
780.0,609,44209.805882
980.0,625,44238.836923
1500.0,1226,44291.186681
1300.0,1714,44366.742595
1300.0,969,44412.73321
2100.0,1661,44486.07617
580.0,563,44510.20853
1080.0,911,44551.603478
1390.0,1301,44608.677552
880.0,667,44637.26122
2330.0,1574,44712.526583
980.0,690,44741.932024
830.0,574,44765.358365
460.0,327,44781.390518
2150.0,1566,44851.742847
680.0,503,44875.600265
1280.0,999,44918.650047
1300.0,2467,45032.526746
1080.0,597,45057.217235
1590.0,1647,45130.592899
1300.0,1083,45179.369531
1420.0,1425,45242.193876
1180.0,854,45282.28976
1320.0,1054,45330.365406
930.0,575,45358.742261
730.0,507,45377.039168
880.0,808,45415.230394
1630.0,1691,45491.598689
880.0,656,45520.420525
1930.0,1185,45571.593386
1410.0,2621,45688.497047
1510.0,1432,45750.726584
1300.0,1339,45814.15941
580.0,284,45825.983893
1320.0,883,45866.073528
1450.0,1624,45935.806932
1030.0,375,45953.04747
1300.0,935,45994.365777
830.0,661,46028.004398
1470.0,948,46069.438313
