# {"t_start": 1547505974.9060082, "env_id": "RoadRunnerNoFrameskip-v4"} 
r,l,t0.0,199,17.427369
0.0,183,25.011386
0.0,75,28.015426
0.0,235,38.014151
0.0,113,42.699831
0.0,82,46.977309
0.0,138,53.070857
0.0,219,63.690166
0.0,335,77.213256
0.0,137,83.785365
0.0,118,89.320156
0.0,118,95.229505
0.0,124,99.840974
0.0,154,106.180997
0.0,180,114.584398
0.0,227,125.456556
800.0,701,158.762892
1200.0,455,179.460397
100.0,338,195.125745
300.0,705,227.7651
400.0,272,240.05863
200.0,360,256.357402
300.0,393,273.957049
500.0,607,303.671481
0.0,193,311.374368
1000.0,389,329.102493
100.0,254,339.088402
2000.0,755,375.41117
1500.0,541,400.924217
1300.0,603,429.035476
2000.0,663,457.102324
2000.0,410,473.705943
2100.0,437,492.396033
1100.0,472,514.12926
3400.0,478,535.051078
1000.0,452,556.05284
2100.0,540,578.194036
1100.0,474,600.013815
1100.0,507,621.969203
1400.0,837,660.807824
1100.0,695,691.702122
2100.0,936,733.447605
2100.0,314,745.913784
2200.0,509,768.588544
3300.0,746,801.840082
1500.0,860,839.009837
1400.0,1029,884.393521
300.0,526,908.158054
1200.0,418,928.08941
2400.0,552,952.506521
3500.0,622,979.940672
2000.0,422,999.487386
1900.0,748,1033.731342
3900.0,1174,1086.226132
1100.0,450,1105.3434
1300.0,763,1140.922019
2700.0,373,1156.871962
1100.0,433,1177.208133
1300.0,694,1209.274932
2500.0,555,1234.783532
1200.0,423,1253.990452
3300.0,454,1273.359212
1300.0,457,1292.001799
1400.0,511,1313.549818
1400.0,475,1334.413842
1000.0,442,1355.566125
3300.0,521,1377.865689
1300.0,479,1399.269798
2000.0,420,1417.280655
1000.0,366,1435.093607
1200.0,463,1455.615347
1100.0,271,1467.526263
100.0,339,1482.570244
2000.0,437,1501.831942
2300.0,420,1520.661588
2800.0,542,1545.05642
100.0,382,1563.062296
100.0,287,1575.035245
0.0,295,1588.743333
100.0,507,1611.167681
1200.0,363,1627.103957
2200.0,332,1642.023427
2200.0,594,1668.281912
3100.0,590,1692.434366
3100.0,498,1716.468821
200.0,339,1731.813564
200.0,336,1745.559463
100.0,242,1756.817639
2300.0,476,1778.525022
1300.0,389,1795.802172
2500.0,840,1833.627295
3400.0,1075,1883.245788
3400.0,594,1909.433176
2200.0,409,1928.116166
2200.0,365,1945.784415
200.0,454,1965.999243
800.0,436,1985.280756
1200.0,439,2003.429158
2600.0,595,2032.527909
3200.0,822,2069.620163
3500.0,699,2102.686099
3300.0,807,2138.226468
3400.0,660,2168.785303
2400.0,593,2196.985445
2500.0,870,2234.696973
2200.0,505,2256.832947
1200.0,337,2271.553806
1100.0,368,2288.387936
0.0,263,2300.271
100.0,388,2315.914796
2400.0,738,2348.372439
2700.0,842,2385.967873
1000.0,409,2403.736302
2400.0,1009,2446.919872
2400.0,481,2467.751578
2200.0,509,2489.945607
3300.0,834,2526.771692
3200.0,554,2550.932632
4100.0,703,2584.157962
1300.0,489,2605.357991
3800.0,613,2631.807658
1700.0,1093,2683.754054
1300.0,546,2707.387963
3200.0,578,2734.319465
4700.0,859,2773.096149
6600.0,1011,2818.651215
4200.0,834,2854.500151
5500.0,1102,2905.599835
1100.0,513,2928.555658
4600.0,1116,2977.957685
2700.0,1078,3028.116438
1600.0,1042,3076.488497
5500.0,693,3104.511329
2700.0,688,3133.402518
3800.0,1074,3184.078074
4700.0,748,3219.018358
4200.0,473,3238.425835
3300.0,1059,3286.606035
4800.0,1007,3330.253443
5000.0,1162,3384.119112
5200.0,556,3409.974447
2300.0,746,3445.454958
9100.0,987,3489.475545
5300.0,755,3523.464355
2000.0,516,3546.740861
5600.0,1023,3593.1131
4500.0,819,3627.67703
6700.0,1034,3673.339398
3400.0,542,3696.25144
6800.0,1052,3744.042264
7100.0,1041,3790.472373
8100.0,964,3831.252436
6400.0,1014,3875.575589
5200.0,959,3917.159408
5800.0,1032,3963.947326
7800.0,992,4008.726219
5900.0,989,4052.757595
7100.0,1023,4099.276362
6800.0,966,4144.062803
6300.0,1164,4197.207592
5500.0,933,4239.182113
6800.0,1047,4288.454195
6700.0,935,4329.464332
4800.0,770,4363.271118
6900.0,1023,4407.404001
7300.0,1032,4455.921231
7600.0,1052,4503.261133
6200.0,1006,4548.28536
5600.0,998,4592.765448
8500.0,1029,4639.315195
4900.0,1089,4686.526987
7700.0,1071,4734.51491
4700.0,832,4771.265077
2400.0,799,4807.159673
6600.0,1077,4858.292827
1100.0,363,4873.644675
4400.0,867,4910.621888
100.0,319,4926.104648
10100.0,1058,4973.099787
5100.0,822,5008.632519
6000.0,1038,5053.90464
4800.0,788,5089.404902
7500.0,1082,5140.459983
5800.0,810,5177.088756
8800.0,1010,5221.873719
4600.0,868,5260.532073
2200.0,472,5282.120378
7800.0,1077,5332.634789
11400.0,1157,5384.071078
1300.0,477,5405.227282
1200.0,266,5415.089717
4500.0,826,5451.294621
4600.0,833,5486.526575
7200.0,1016,5532.064595
2100.0,457,5551.868785
5400.0,1063,5601.524298
5000.0,1013,5644.803936
8500.0,1047,5691.985094
7200.0,1024,5736.746959
7300.0,1028,5784.38722
2500.0,505,5805.065088
6100.0,1079,5852.265288
3200.0,508,5875.433167
5400.0,457,5896.316546
9600.0,1180,5949.295624
8500.0,1132,6000.04985
6700.0,1077,6050.813679
6000.0,1045,6098.409801
8000.0,1003,6143.899502
9000.0,998,6189.393311
4900.0,823,6225.98168
10200.0,1128,6275.848388
7000.0,1016,6320.960335
6200.0,1023,6367.138019
7000.0,1090,6415.988237
4700.0,1047,6463.522524
8800.0,1094,6513.603214
8000.0,1034,6560.202354
6900.0,1023,6605.139288
6200.0,981,6651.117758
3600.0,697,6681.333723
6000.0,955,6723.219456
5700.0,927,6763.645015
5300.0,906,6806.424729
6500.0,894,6845.477765
10100.0,943,6888.151882
8300.0,852,6924.92226
7000.0,976,6969.771182
8100.0,864,7007.960352
7700.0,908,7048.183741
9000.0,891,7089.115046
6900.0,855,7124.503778
6800.0,867,7165.176124
10700.0,1140,7218.45599
6800.0,915,7257.295354
5700.0,869,7294.952691
11500.0,862,7332.788789
7000.0,900,7373.902063
8600.0,889,7415.262235
7800.0,855,7455.170329
9300.0,882,7495.515939
7800.0,858,7533.239823
7100.0,972,7576.950299
8100.0,887,7617.127921
6200.0,945,7657.102397
8000.0,871,7698.482509
10700.0,942,7741.883481
9400.0,1000,7787.057601
12200.0,895,7827.55577
4300.0,944,7867.915865
13800.0,952,7911.156605
9800.0,954,7953.839588
12000.0,866,7990.013437
13900.0,876,8030.069585
11200.0,943,8075.60534
9100.0,863,8114.717059
11000.0,942,8155.224329
11000.0,984,8200.752429
14100.0,960,8245.783206
12900.0,936,8286.322124
10700.0,862,8323.175882
15500.0,913,8366.007751
13800.0,892,8404.282672
10900.0,917,8445.882865
9800.0,869,8483.393785
14900.0,896,8522.193702
15400.0,960,8565.922255
13900.0,944,8609.022697
12300.0,972,8650.553242
14500.0,966,8692.707218
14700.0,870,8731.547974
12100.0,988,8775.067682
13900.0,883,8815.961884
14800.0,885,8855.130978
12100.0,881,8894.202471
13800.0,903,8933.44373
16100.0,857,8970.918917
15400.0,913,9014.310344
11800.0,956,9057.537033
12700.0,892,9097.278613
14300.0,973,9141.426455
13400.0,894,9183.3786
13300.0,916,9224.437127
11800.0,889,9264.72383
14700.0,988,9308.342255
13700.0,1058,9354.098367
8000.0,921,9394.386476
10800.0,996,9438.566025
11400.0,934,9481.530397
11700.0,971,9527.266405
12900.0,956,9570.234407
16200.0,939,9611.908478
14800.0,852,9650.176026
14300.0,885,9690.07521
15700.0,945,9732.713457
14900.0,855,9768.410251
15500.0,883,9809.953369
15700.0,922,9849.40962
14500.0,902,9890.167271
12000.0,924,9930.807564
13600.0,917,9971.790107
14900.0,900,10013.215654
14600.0,945,10055.897177
15000.0,889,10095.667639
16800.0,1032,10143.243117
14900.0,914,10181.619369
14600.0,860,10221.69915
15400.0,859,10260.137931
15100.0,918,10303.057169
16900.0,883,10341.351698
13600.0,969,10383.235684
14100.0,848,10421.760757
15900.0,912,10461.259935
15500.0,978,10505.278742
14300.0,884,10543.93205
14000.0,932,10586.302088
16200.0,886,10627.621468
15400.0,868,10667.888506
15600.0,957,10712.518638
14600.0,893,10753.137708
14900.0,887,10793.069674
16500.0,966,10835.565176
10300.0,884,10873.482855
11300.0,951,10916.705209
15100.0,902,10957.582214
14700.0,884,10996.603595
14300.0,884,11036.212725
15200.0,896,11078.472616
13400.0,936,11120.301861
13100.0,898,11160.018643
15200.0,929,11199.121551
14700.0,906,11240.294015
14500.0,907,11279.941448
13500.0,930,11322.671558
14100.0,971,11366.390945
15100.0,958,11409.181666
13700.0,933,11451.480174
13800.0,913,11492.13434
13100.0,911,11532.328686
10500.0,963,11575.812407
15000.0,1036,11621.403628
11200.0,702,11651.726471
16100.0,946,11693.244576
14300.0,928,11734.583342
15100.0,927,11774.997273
14800.0,925,11816.445991
11400.0,934,11856.63984
14600.0,884,11895.707925
16100.0,903,11937.295916
14100.0,919,11978.097147
12400.0,959,12020.641839
15200.0,948,12063.928428
14300.0,876,12104.538788
16900.0,904,12146.176571
6600.0,996,12190.651787
13400.0,878,12227.818892
16900.0,935,12268.331105
16100.0,915,12310.074988
14400.0,959,12352.039873
15300.0,850,12390.449037
13700.0,968,12435.36448
14700.0,924,12476.600564
14300.0,869,12516.278412
15900.0,1014,12560.89857
14400.0,885,12601.22428
16000.0,865,12642.557531
14500.0,862,12680.089767
16200.0,1093,12731.531679
17500.0,887,12771.886942
15700.0,879,12813.125297
13600.0,888,12854.167337
14300.0,869,12892.790341
15400.0,908,12931.657046
14100.0,891,12970.244998
12000.0,954,13012.879283
14400.0,875,13049.045327
14900.0,916,13091.447572
14800.0,934,13133.786287
15500.0,894,13175.776576
9000.0,927,13217.725665
17300.0,967,13260.098388
15300.0,913,13300.555998
19000.0,1021,13348.666461
13200.0,900,13387.829947
13600.0,908,13428.48533
2000.0,993,13474.465392
13300.0,938,13514.999908
15100.0,888,13554.955803
13100.0,892,13594.347894
14000.0,886,13633.570978
14000.0,867,13672.314758
14500.0,848,13712.371827
16900.0,927,13754.786203
17400.0,881,13793.454169
10200.0,878,13833.082546
13800.0,869,13874.010802
12800.0,865,13915.317745
15800.0,891,13956.036698
14000.0,877,13995.530048
17300.0,851,14034.257985
14900.0,871,14074.194854
13100.0,847,14112.280992
13800.0,856,14149.938042
14400.0,868,14189.873324
14500.0,875,14227.912884
12300.0,850,14266.636163
15700.0,868,14305.324476
13200.0,854,14346.16387
13800.0,876,14385.297145
16600.0,885,14425.868099
16300.0,845,14463.878874
15100.0,845,14498.897643
16100.0,902,14539.498809
15300.0,866,14579.327126
15100.0,857,14617.069278
14200.0,893,14658.33757
13400.0,947,14699.397467
14300.0,958,14739.577885
14000.0,883,14778.456564
14900.0,859,14817.081659
13400.0,850,14853.974711
14900.0,918,14894.855558
12300.0,882,14932.490145
17100.0,879,14970.408892
16000.0,930,15011.104847
13400.0,842,15048.312875
16200.0,878,15086.917063
13500.0,932,15126.827605
12900.0,862,15165.81584
15800.0,893,15206.158693
13500.0,882,15245.418258
16900.0,881,15287.029615
16700.0,863,15323.851628
15900.0,911,15363.817513
12500.0,949,15405.753771
15800.0,875,15442.054915
16200.0,867,15481.13036
15500.0,866,15518.899957
15700.0,898,15559.538279
12400.0,941,15600.911617
14400.0,999,15644.751322
14600.0,897,15685.529796
12900.0,869,15723.826364
15800.0,839,15760.000757
16500.0,913,15801.086582
16200.0,841,15838.122799
15600.0,851,15876.840505
15900.0,854,15915.572905
17000.0,883,15955.139894
13000.0,896,15993.492128
17000.0,976,16038.799907
14100.0,883,16078.569811
13900.0,918,16119.753866
14400.0,965,16163.198532
14600.0,1021,16209.322702
16800.0,909,16247.390746
15800.0,975,16292.164239
15600.0,1086,16343.92975
10500.0,1011,16389.656431
15000.0,1016,16436.3795
12900.0,971,16480.589824
13300.0,1004,16524.169041
17400.0,1057,16570.893402
12700.0,950,16614.284828
11900.0,1019,16657.620015
12100.0,1067,16706.092326
12500.0,890,16745.532796
13100.0,928,16785.147963
10100.0,906,16825.497718
18100.0,924,16867.071341
14400.0,883,16907.670304
14300.0,865,16948.29577
13100.0,870,16985.396276
13800.0,914,17024.485413
14200.0,957,17067.719714
12100.0,979,17108.86225
14600.0,909,17152.724002
11500.0,836,17187.831545
11100.0,825,17225.416848
13600.0,881,17264.551363
10700.0,794,17301.477715
11300.0,712,17332.655199
11000.0,744,17366.238458
12400.0,912,17408.327325
12900.0,998,17454.986197
17000.0,1102,17504.077568
11100.0,973,17546.914051
13100.0,1017,17591.670972
12700.0,1130,17640.502631
13600.0,966,17682.835586
12100.0,891,17722.677305
13200.0,1041,17770.948939
12100.0,806,17806.668581
9600.0,1031,17852.441329
13400.0,1018,17898.683706
10800.0,1005,17941.039136
13500.0,831,17980.03091
13100.0,1033,18027.070959
14800.0,948,18068.503382
15400.0,979,18110.810787
13100.0,909,18151.374182
9300.0,913,18190.324976
12000.0,884,18230.849356
14400.0,906,18272.26627
16500.0,955,18315.043225
15000.0,956,18357.241392
8600.0,1047,18402.576334
13500.0,1006,18449.202196
14100.0,1016,18495.94462
15400.0,992,18540.447731
15000.0,984,18584.115665
13900.0,1006,18628.520589
15200.0,1067,18675.241123
16000.0,999,18717.820506
17800.0,1002,18762.26975
15800.0,985,18805.983161
13500.0,1015,18854.785925
16800.0,1187,18907.578881
17200.0,1145,18960.569653
14200.0,1076,19006.875361
12100.0,1086,19054.589114
15000.0,951,19098.993624
13700.0,922,19140.569006
13900.0,912,19181.752128
15500.0,968,19226.019314
12800.0,944,19268.216249
15100.0,901,19307.976739
13000.0,1067,19357.989168
15000.0,940,19399.26424
13000.0,887,19440.033287
14500.0,971,19483.759191
15500.0,931,19522.873964
14100.0,941,19562.460663
18600.0,975,19606.626061
14800.0,973,19649.361181
17100.0,981,19691.449553
15300.0,1044,19738.548328
15400.0,1055,19785.21083
10100.0,865,19823.742354
12300.0,896,19863.980729
12000.0,985,19905.913124
15100.0,1040,19954.058448
13300.0,1031,19999.892869
14100.0,1205,20054.061695
14100.0,811,20089.778676
10300.0,704,20122.546043
14700.0,1156,20176.870823
16100.0,1199,20229.773882
15200.0,1056,20277.783804
11800.0,1092,20327.307028
13200.0,1177,20378.7147
9400.0,852,20416.710939
6100.0,788,20451.560778
3900.0,619,20480.372149
5200.0,772,20513.792462
16800.0,1190,20566.797757
21000.0,1266,20620.635051
14900.0,1094,20671.051791
15900.0,1216,20726.752917
20400.0,1289,20785.140814
16300.0,1254,20842.895672
20500.0,1242,20899.185688
16400.0,1202,20952.916449
12700.0,942,20995.791701
14900.0,1286,21053.495142
11600.0,1040,21100.852033
18400.0,1147,21152.77452
16100.0,1124,21203.8956
18200.0,1155,21256.862993
13900.0,1133,21307.198025
12400.0,937,21352.010203
13100.0,911,21391.562169
14200.0,947,21433.023933
15400.0,917,21473.527286
13700.0,1019,21521.160192
13200.0,1083,21568.537411
16200.0,931,21608.64025
13300.0,1065,21654.303011
10700.0,1003,21696.899053
12800.0,949,21739.325971
15000.0,998,21782.363402
15500.0,1009,21827.449812
14400.0,1006,21870.795355
14200.0,1070,21916.657763
17800.0,967,21960.642262
14900.0,1315,22019.778811
17900.0,1292,22080.422661
16400.0,1062,22128.427061
14800.0,939,22169.912443
16600.0,1023,22215.171236
16000.0,1042,22259.36027
14100.0,1032,22303.897002
18200.0,1048,22350.76929
9800.0,985,22395.20961
16400.0,1112,22443.079131
16700.0,965,22482.898869
17500.0,1051,22530.714643
13500.0,986,22577.199413
16400.0,1049,22623.4801
11800.0,779,22659.090546
17400.0,1086,22703.87703
15300.0,952,22748.83613
18900.0,991,22793.549023
16000.0,968,22839.006923
18600.0,1119,22891.669551
11700.0,1178,22946.711573
13100.0,1056,22996.097877
15500.0,1047,23041.702266
19300.0,1080,23090.886101
15100.0,1094,23138.061988
14500.0,1189,23190.031465
12500.0,1158,23241.552107
15300.0,1095,23291.567776
14600.0,1087,23339.105822
16100.0,1097,23386.195991
14900.0,985,23431.476156
19000.0,1057,23480.478524
17000.0,1109,23528.442062
17200.0,1043,23574.162289
16100.0,1097,23623.627158
16300.0,904,23663.046001
14800.0,962,23704.881613
17600.0,990,23750.474256
15400.0,994,23795.619178
12800.0,1023,23841.680723
16400.0,1003,23887.320989
16000.0,929,23926.405847
13300.0,931,23966.807416
16100.0,971,24010.775966
13600.0,949,24053.156505
16500.0,957,24094.778442
15800.0,1098,24142.433896
13400.0,962,24183.283299
14100.0,1139,24234.441673
9600.0,650,24262.978909
14700.0,1166,24318.225701
15100.0,949,24360.865331
16400.0,1105,24409.131174
17200.0,1161,24460.845138
16800.0,1049,24506.46383
13300.0,1037,24552.468012
12400.0,1011,24597.710811
12400.0,1011,24641.262151
16300.0,1141,24692.578036
8500.0,800,24727.941489
18700.0,1139,24778.391263
19900.0,1227,24830.419268
17500.0,1187,24880.30632
15000.0,1207,24931.904838
20400.0,1141,24980.220068
16500.0,1017,25021.020994
15200.0,974,25062.613679
17300.0,1091,25108.646953
13100.0,932,25148.377121
14400.0,958,25186.596975
19600.0,1140,25234.483259
14200.0,1008,25277.218119
16300.0,1119,25323.911818
15600.0,961,25363.750445
13200.0,977,25404.091343
14900.0,927,25444.596403
13300.0,936,25483.671908
15700.0,985,25526.057253
17800.0,1029,25568.69534
14900.0,967,25609.019974
15200.0,975,25646.815996
17700.0,1089,25690.953518
16400.0,1097,25737.12759
12900.0,1027,25779.036451
18200.0,984,25817.042405
17100.0,1064,25859.100931
18800.0,1005,25901.285612
16100.0,961,25941.07691
15000.0,913,25979.358125
15800.0,980,26019.98052
15200.0,1045,26063.947587
18200.0,1058,26106.811826
14600.0,1250,26158.998125
16300.0,1052,26203.905195
17400.0,1075,26247.055876
16300.0,991,26290.045033
13300.0,918,26330.180286
15200.0,1032,26374.410899
15300.0,1002,26412.651466
15400.0,1043,26452.965968
16000.0,1027,26495.187867
14800.0,1018,26537.362787
14900.0,963,26575.647802
14900.0,1016,26615.68311
20000.0,1063,26656.480159
16300.0,1026,26697.078094
16300.0,1006,26737.831848
15900.0,1116,26782.4385
13300.0,984,26823.57888
17700.0,1060,26865.370843
17200.0,1114,26910.676151
12700.0,1017,26950.191998
15400.0,1029,26990.366486
13100.0,1026,27032.720964
14900.0,1008,27071.680458
16800.0,1182,27120.249503
16600.0,1086,27165.259871
11300.0,1117,27210.973561
15700.0,1118,27255.362316
13300.0,1006,27296.775018
10900.0,766,27325.977449
12900.0,1048,27368.413395
17500.0,1135,27416.638797
15100.0,1011,27454.997747
13800.0,1030,27496.730347
7800.0,1025,27538.001486
15400.0,1002,27579.341902
13700.0,999,27619.950333
15000.0,1133,27665.608803
15200.0,1098,27708.307089
13000.0,1010,27749.161986
17300.0,1178,27797.28065
15800.0,1157,27845.971672
12400.0,1124,27891.719762
12000.0,1018,27931.461582
12800.0,1095,27973.889283
19400.0,1136,28019.485755
14400.0,1041,28062.868457
12900.0,983,28102.048239
16200.0,1216,28150.970903
12800.0,1014,28193.575466
14100.0,1077,28236.931134
12700.0,1025,28279.907434
14100.0,934,28318.997097
13500.0,1037,28362.983355
13400.0,1067,28406.376874
16900.0,1137,28453.156335
16500.0,1145,28499.123275
18000.0,1085,28544.690205
15100.0,1087,28589.111756
17900.0,1135,28634.903604
14400.0,1132,28680.529923
14400.0,982,28720.082534
4900.0,509,28739.880035
13500.0,945,28779.042663
13300.0,1131,28825.904531
15000.0,1011,28865.934783
14700.0,959,28904.15949
16900.0,1130,28949.479171
16000.0,1072,28993.129232
16200.0,1078,29037.12434
12600.0,980,29076.144414
14800.0,946,29113.596744
17000.0,1051,29156.69633
16400.0,1073,29200.459446
13500.0,1003,29239.760007
13800.0,924,29278.178207
14400.0,949,29317.397259
13700.0,915,29355.1593
15500.0,944,29395.042086
16900.0,1060,29441.074402
15500.0,946,29480.137842
11600.0,960,29518.29335
14500.0,987,29560.376132
15300.0,912,29597.645831
14800.0,976,29637.265919
16500.0,1037,29678.95372
14700.0,974,29716.686044
15100.0,980,29755.75705
18700.0,977,29793.906609
14700.0,977,29832.561213
14300.0,939,29869.670211
14000.0,880,29906.495682
13100.0,877,29942.394254
11400.0,884,29978.866299
18800.0,1094,30024.583581
16700.0,1082,30067.906808
15800.0,930,30106.318922
14300.0,930,30143.050554
17900.0,980,30180.552001
18800.0,1019,30221.605387
18000.0,1009,30263.657608
14300.0,938,30301.560241
14600.0,956,30340.710074
16100.0,991,30380.57917
13600.0,967,30419.534135
14700.0,893,30455.777596
15100.0,959,30493.650691
15000.0,981,30533.152771
17700.0,983,30573.555822
13400.0,894,30608.389691
16500.0,914,30644.312433
17400.0,966,30683.913496
16700.0,924,30720.650884
12200.0,939,30759.862739
16300.0,1014,30799.387689
15300.0,1028,30840.88458
14600.0,1097,30885.443992
14800.0,988,30925.214677
9000.0,901,30960.571936
15100.0,1097,31006.05784
17300.0,1173,31053.028542
16900.0,1078,31095.629241
14100.0,963,31135.436665
14400.0,963,31174.236733
15800.0,926,31214.431883
15800.0,1086,31259.227363
15800.0,1047,31301.503548
18700.0,1078,31344.962718
17300.0,951,31385.201493
15300.0,978,31423.248816
14100.0,1001,31464.423734
14200.0,997,31504.705667
14000.0,1013,31544.846338
17800.0,1015,31587.032755
15000.0,981,31625.023947
14600.0,952,31663.439954
14800.0,909,31698.6204
14600.0,1005,31737.59429
16800.0,916,31775.048931
14500.0,952,31815.091906
12600.0,938,31851.673365
15300.0,981,31891.741351
17800.0,968,31932.603996
14200.0,1017,31975.120395
15400.0,983,32015.444844
16800.0,950,32053.326532
15300.0,962,32093.093194
14400.0,951,32132.410844
15200.0,1046,32176.570999
16400.0,1052,32217.179823
16400.0,972,32256.470015
14900.0,951,32294.190908
14700.0,1009,32335.880396
16100.0,1000,32376.233933
16800.0,1128,32421.276089
15200.0,1081,32464.733787
15900.0,1061,32508.311286
14700.0,1074,32551.333886
15100.0,968,32588.483971
13000.0,915,32626.588252
14000.0,975,32664.910063
15500.0,1127,32710.24163
19500.0,1086,32756.494636
15900.0,1014,32798.578178
14700.0,993,32839.113637
17700.0,953,32878.868981
17000.0,993,32920.09493
17700.0,1053,32962.628686
16200.0,1037,33006.684901
17300.0,1077,33049.354499
15800.0,1093,33094.682519
18600.0,1120,33143.113307
18800.0,1160,33190.57875
19200.0,1135,33236.461058
18200.0,1262,33287.859572
13900.0,1233,33336.461819
14800.0,1094,33381.286887
11200.0,1088,33424.53905
17000.0,1168,33472.357248
16900.0,1125,33517.812456
16000.0,1127,33564.255088
12800.0,1081,33607.840204
17000.0,1042,33651.550247
15600.0,994,33693.680958
13300.0,1123,33740.267837
11100.0,1121,33784.700372
17300.0,1072,33828.877682
14000.0,908,33865.696228
1100.0,446,33882.8516
18100.0,1129,33927.646139
18300.0,1162,33975.200719
18800.0,1176,34023.385027
13300.0,1034,34065.75689
16800.0,995,34106.566745
15600.0,995,34146.200744
14600.0,994,34186.040835
14900.0,1027,34227.102674
15400.0,995,34269.315054
17700.0,1095,34313.772765
13100.0,908,34351.780848
14500.0,929,34389.029701
16100.0,969,34429.111324
14300.0,903,34464.922972
13400.0,1033,34507.226043
14300.0,923,34544.710251
15100.0,974,34584.753222
15000.0,955,34622.051417
17400.0,1054,34664.462835
14400.0,985,34706.300992
16100.0,1024,34746.787056
18100.0,1058,34788.43593
17300.0,1044,34828.873912
11900.0,982,34869.36225
13600.0,1008,34910.071318
14300.0,980,34951.614256
15400.0,1138,34996.584024
18500.0,1086,35039.190544
12700.0,1127,35085.289188
17700.0,1124,35129.254507
18900.0,1164,35179.005209
14700.0,1003,35220.737136
16000.0,1052,35261.293753
19300.0,1051,35304.896512
12000.0,991,35345.933568
17900.0,995,35384.79133
12100.0,945,35420.337332
15500.0,1024,35460.20937
14200.0,1028,35497.413627
15100.0,1034,35540.658796
14900.0,1061,35585.129712
15700.0,1136,35631.832858
17800.0,1078,35673.216225
17300.0,1055,35714.803974
15300.0,1073,35754.892007
18200.0,1110,35796.239187
15800.0,1066,35840.492684
19100.0,1146,35885.319514
17200.0,1178,35933.635181
17400.0,1048,35975.521573
15900.0,1005,36017.400526
15400.0,930,36053.508226
14600.0,1011,36092.841965
16800.0,1066,36134.812945
14700.0,1070,36177.002368
13300.0,1016,36218.215511
18100.0,1046,36262.017669
14300.0,895,36297.42114
6500.0,1026,36338.140398
18400.0,1156,36384.993008
18700.0,1098,36428.485713
18800.0,1208,36476.280273
13600.0,1059,36519.977945
17300.0,1050,36564.683102
17200.0,1079,36607.74442
12300.0,1123,36653.637063
16900.0,1210,36697.823151
18000.0,1121,36740.973851
16600.0,1165,36785.647065
15100.0,976,36822.257131
15900.0,1166,36867.483815
12300.0,1061,36908.067463
13300.0,1052,36947.800705
12100.0,1011,36984.058219
14500.0,1061,37026.154654
12000.0,834,37058.239077
12700.0,862,37091.395032
14400.0,945,37129.462415
13400.0,815,37161.021904
14500.0,951,37196.917167
18800.0,1230,37246.9523
15600.0,1177,37294.987735
16700.0,1069,37335.808718
15100.0,1073,37379.250182
12200.0,1103,37424.845962
14800.0,937,37462.807422
16500.0,1022,37502.742766
15400.0,996,37543.557984
17300.0,990,37583.818798
14000.0,963,37621.404928
16500.0,950,37659.852341
14600.0,988,37697.530431
15300.0,1014,37737.365192
13900.0,1136,37782.272844
16400.0,1008,37822.853864
16500.0,987,37862.382699
14000.0,927,37900.544342
16400.0,1023,37941.006294
13200.0,986,37981.431623
16300.0,1053,38023.890035
17800.0,1096,38067.187073
18400.0,1059,38109.349823
16100.0,1071,38151.315654
13200.0,970,38190.92766
15100.0,1156,38235.777683
18700.0,1101,38278.044653
16500.0,1052,38319.916523
17000.0,1095,38363.634197
14100.0,984,38403.59175
16400.0,1048,38444.747451
15300.0,994,38482.467595
17000.0,1062,38524.950407
15400.0,1028,38566.871792
15200.0,1027,38607.06462
13600.0,1023,38644.832789
17400.0,1143,38690.387415
18800.0,1147,38733.974864
13900.0,1000,38773.750797
17300.0,1002,38814.307424
14500.0,955,38850.888701
16400.0,1051,38890.532076
15800.0,1064,38933.150869
14600.0,1355,38988.068592
13000.0,1052,39030.166308
13700.0,947,39069.627212
21800.0,1118,39114.163952
14100.0,955,39153.259107
15100.0,938,39189.993951
18300.0,1075,39233.633131
21100.0,1116,39281.07583
15900.0,999,39322.796901
15000.0,993,39365.092442
13600.0,979,39407.64748
16300.0,964,39448.892259
15300.0,979,39490.37044
15700.0,1034,39536.875949
15100.0,1046,39580.906837
15800.0,1031,39622.988536
16100.0,1069,39667.430116
12600.0,990,39711.740763
14000.0,1040,39755.018456
15500.0,984,39797.65314
17600.0,1072,39844.525732
19000.0,1208,39895.211504
16200.0,1155,39944.717994
15800.0,1041,39987.681916
15500.0,1059,40033.755271
13800.0,987,40073.165577
14800.0,1074,40121.237405
15100.0,1056,40165.917224
15500.0,1065,40210.633598
15500.0,1176,40259.952489
19200.0,1038,40305.852794
6500.0,522,40328.425116
14100.0,1027,40374.402977
15100.0,1076,40421.704865
16400.0,1041,40466.939772
16400.0,1080,40513.333963
17900.0,1068,40555.63709
18000.0,1027,40599.873671
16600.0,1117,40650.02949
14400.0,1079,40696.652701
15700.0,1035,40742.442793
14600.0,1007,40785.606146
15200.0,1131,40834.442919
20900.0,1055,40880.417238
15500.0,1013,40924.999672
17600.0,1156,40975.777066
14200.0,1100,41023.274084
17800.0,978,41067.366179
13300.0,1030,41110.038479
12900.0,1025,41157.110194
16500.0,966,41201.137868
18000.0,1073,41246.899339
17000.0,982,41289.038581
16500.0,1020,41334.618062
15800.0,974,41374.909778
14700.0,1014,41418.041816
14800.0,1014,41460.999845
14900.0,1062,41508.836545
15500.0,1038,41553.044452
14800.0,1025,41598.106416
17000.0,1031,41641.699244
18100.0,1097,41688.685231
14000.0,1071,41734.255741
16000.0,996,41775.366455
13000.0,837,41808.621549
15000.0,1018,41848.421821
16100.0,1065,41891.00328
17500.0,1119,41937.674214
18600.0,1170,41986.172559
15800.0,1049,42028.180097
14100.0,1043,42072.13046
18100.0,1048,42115.224568
13300.0,1071,42156.62043
14900.0,1088,42199.844365
14600.0,1146,42245.719202
16900.0,1106,42290.215491
18400.0,1179,42337.157009
14800.0,1012,42376.935212
16500.0,1010,42416.817183
13000.0,1010,42456.805362
13100.0,964,42496.136866
15900.0,987,42537.173313
16100.0,1012,42580.667947
15100.0,1039,42622.65753
15600.0,985,42661.80208
12800.0,918,42698.795445
15800.0,996,42739.282067
18800.0,1023,42781.107452
15600.0,1069,42825.272462
17000.0,1132,42872.653918
17300.0,1062,42915.095695
19500.0,1084,42958.990145
14800.0,1159,43006.595244
15600.0,1101,43053.502465
13900.0,995,43094.416208
16400.0,985,43134.212902
15900.0,973,43171.188504
13500.0,1034,43211.533639
15300.0,1012,43251.697751
17300.0,1064,43295.939464
13300.0,959,43335.631465
16100.0,1042,43377.136072
12000.0,962,43416.134932
15800.0,1028,43454.867182
16700.0,1008,43497.539633
16600.0,1041,43539.845206
16200.0,1009,43582.220496
15100.0,1061,43624.9076
14400.0,935,43666.061077
13300.0,915,43704.26321
13400.0,909,43743.216219
12300.0,1023,43786.151287
16400.0,955,43826.547182
16000.0,1052,43871.29003
13300.0,940,43913.614322
15700.0,1019,43955.590261
14200.0,968,43995.024231
16100.0,945,44032.078757
17500.0,930,44069.603787
15500.0,941,44107.552691
12800.0,929,44143.53122
14400.0,918,44179.166267
18100.0,972,44218.946362
16400.0,995,44258.705925
15300.0,922,44296.516539
12600.0,911,44333.103689
16300.0,908,44368.884012
13800.0,927,44409.118412
16500.0,923,44444.844261
16500.0,896,44478.253658
16900.0,1036,44521.249539
14500.0,1066,44562.358535
14900.0,1022,44603.167168
14500.0,948,44641.074393
14100.0,957,44679.441439
15600.0,1023,44720.838442
15400.0,952,44758.852794
14500.0,974,44797.209737
14600.0,972,44834.995987
12700.0,898,44873.070329
14100.0,1020,44913.891445
17600.0,1005,44955.532987
16600.0,1003,44995.882893
16600.0,1011,45035.705868
21600.0,1193,45084.691593
17300.0,1108,45130.777895
16300.0,937,45166.928921
17100.0,1005,45206.57147
15800.0,941,45244.864693
14600.0,999,45284.476885
12600.0,1022,45326.207611
16800.0,1057,45369.755118
12300.0,1033,45411.967736
13300.0,988,45452.199747
13900.0,984,45493.785342
14400.0,977,45532.179017
16200.0,1274,45583.644414
15600.0,1129,45630.339322
17200.0,1061,45675.975595
15100.0,1009,45722.13
12500.0,1028,45768.8974
15100.0,908,45812.865623
16600.0,1069,45864.593725
16600.0,1185,45918.102612
12700.0,980,45962.586575
14500.0,1112,46017.758554
12500.0,982,46063.203852
14500.0,935,46108.174916
13800.0,982,46156.775474
15800.0,1987,46254.474786
13300.0,1067,46305.061305
16100.0,1018,46351.241787
15600.0,1051,46401.218235
12600.0,1016,46448.548759
15000.0,997,46493.137752
17600.0,1076,46542.957756
15400.0,919,46587.271169
18800.0,977,46633.863233
14600.0,921,46676.576069
15700.0,1009,46725.025392
13800.0,938,46769.283882
13900.0,985,46814.726134
13800.0,938,46861.057319
14200.0,984,46908.348469
13800.0,990,46954.290194
15100.0,1003,47000.717676
15700.0,957,47047.28578
15400.0,1019,47095.792411
14300.0,942,47140.973045
14700.0,960,47187.588633
17500.0,987,47232.732941
15400.0,1009,47280.824649
17300.0,1029,47330.466194
15300.0,939,47373.535183
14200.0,971,47419.618338
16500.0,939,47462.861476
16000.0,931,47507.573732
15000.0,987,47554.421803
14200.0,940,47596.433255
14700.0,981,47643.52823
14900.0,991,47692.570602
14700.0,956,47737.283341
15800.0,962,47780.054128
16400.0,1017,47828.5556
16400.0,931,47874.056704
14300.0,944,47916.874597
17100.0,1000,47964.694146
14200.0,959,48010.004691
17000.0,1090,48062.505291
13900.0,965,48106.454276
12600.0,1019,48152.496233
15800.0,963,48196.996212
16100.0,948,48242.159141
15900.0,996,48289.675107
16200.0,1017,48337.206113
13800.0,995,48382.446826
14400.0,942,48425.674296
13200.0,971,48469.824245
10100.0,805,48508.160161
17100.0,992,48555.616701
12100.0,964,48599.097988
16800.0,1027,48648.288047
10700.0,909,48690.915642
17600.0,1003,48739.873597
14400.0,972,48786.160713
13700.0,959,48832.070932
15100.0,1055,48880.817561
16900.0,979,48926.937049
12700.0,948,48970.65469
17700.0,1013,49017.3462
13200.0,883,49058.668062
12900.0,943,49101.841275
13200.0,957,49147.133864
17800.0,1053,49196.220419
16000.0,1037,49244.126754
17500.0,1120,49297.31817
13900.0,1028,49346.334469
14900.0,978,49392.873523
16000.0,1275,49452.883316
14400.0,1027,49502.02196
12000.0,1124,49556.994159
11500.0,919,49600.744154
13200.0,973,49647.219416
15900.0,1035,49695.043427
15000.0,1015,49744.221211
17900.0,1030,49793.024699
16500.0,1018,49840.730046
18500.0,1046,49888.812497
16600.0,1036,49937.58587
15200.0,1044,49987.370046
16700.0,978,50034.006318
13300.0,955,50077.24604
16900.0,1060,50126.91321
18200.0,1043,50176.28815
20000.0,1057,50227.1434
13900.0,961,50272.508714
13800.0,963,50319.378636
14300.0,1025,50368.94289
14100.0,1017,50414.59526
14500.0,1021,50461.394626
13600.0,964,50509.208266
12800.0,979,50554.522927
14000.0,947,50598.441726
10900.0,931,50644.337225
18100.0,1039,50694.553282
15500.0,973,50740.048724
16700.0,993,50787.114676
15800.0,991,50831.04416
14700.0,1006,50876.981404
15700.0,1007,50925.755612
16700.0,976,50971.920114
17200.0,985,51019.35244
14000.0,1012,51067.522614
17200.0,938,51107.805402
20600.0,1058,51157.393653
17900.0,996,51202.260834
14800.0,951,51246.945768
16400.0,1075,51296.419283
15400.0,1096,51348.412344
13700.0,986,51393.126905
15400.0,961,51436.707628
14100.0,962,51480.809278
17500.0,1021,51526.881536
17800.0,993,51576.259264
17100.0,1118,51628.519495
17200.0,966,51675.683707
18400.0,1107,51727.508568
14400.0,908,51769.369228
17300.0,1103,51821.777209
17200.0,963,51864.297007
12300.0,961,51908.380585
16200.0,1039,51958.534623
19900.0,1147,52013.576729
16800.0,979,52060.023388
13400.0,951,52104.711958
13700.0,1040,52153.67314
16500.0,1135,52208.70689
16600.0,1142,52263.437147
15300.0,984,52311.491509
14200.0,998,52361.916862
16400.0,1149,52415.85144
16400.0,1055,52467.037411
14200.0,1014,52515.351062
13900.0,925,52558.111097
17300.0,953,52606.083594
12900.0,1201,52660.176324
15800.0,855,52701.53421
16200.0,1102,52752.092572
15500.0,1256,52810.808792
15500.0,977,52857.954558
14900.0,1123,52910.501677
14200.0,980,52957.654152
13900.0,1070,53007.126134
14800.0,940,53047.776226
14800.0,1010,53094.426755
14400.0,945,53140.038375
18200.0,1262,53198.486651
13700.0,1046,53247.786165
17500.0,1276,53306.124381
15000.0,1195,53363.537677
15300.0,1060,53413.710858
13200.0,920,53457.347278
15800.0,949,53501.667944
15900.0,1003,53548.645396
14200.0,947,53593.44633
14900.0,947,53638.431577
14800.0,1005,53686.05422
16800.0,921,53730.270782
16900.0,1011,53777.284356
20400.0,1096,53826.948279
15300.0,995,53873.542103
19900.0,1210,53931.390418
16200.0,1072,53982.460977
17300.0,988,54029.847365
14200.0,983,54076.688113
16800.0,1014,54121.608563
17500.0,996,54168.437288
15800.0,943,54213.85928
17600.0,963,54259.346735
11800.0,966,54304.791594
17400.0,1009,54351.978113
15700.0,997,54401.391886
18800.0,1008,54449.379418
18500.0,1124,54504.663912
13600.0,972,54550.31767
14400.0,1049,54594.560154
16600.0,1051,54645.297391
15400.0,977,54690.18105
16600.0,998,54738.912051
12400.0,967,54780.840999
15900.0,958,54826.140011
15500.0,920,54869.070999
12900.0,968,54912.553063
15200.0,983,54956.36889
14100.0,943,54998.019536
19300.0,1123,55051.409724
15700.0,1054,55100.743707
16000.0,1219,55159.738641
15400.0,1076,55211.6038
17800.0,1024,55259.703906
13400.0,1038,55309.155642
15600.0,1039,55356.376891
15300.0,986,55401.890229
15900.0,1023,55451.594499
16900.0,983,55499.211214
15400.0,967,55546.22828
16200.0,966,55589.518909
16300.0,913,55632.047717
16000.0,930,55678.112918
13500.0,919,55722.10973
15400.0,907,55763.739409
16100.0,1054,55813.548502
14000.0,964,55856.165481
16300.0,891,55899.909184
16000.0,926,55944.694964
14900.0,975,55991.273949
14700.0,916,56032.604252
17400.0,1006,56083.312193
17000.0,1102,56132.857038
15000.0,961,56180.228891
17300.0,1033,56227.097013
17400.0,966,56273.283797
15600.0,956,56317.952543
14800.0,966,56363.133431
17000.0,1096,56416.644139
12300.0,1075,56468.041634
18400.0,1123,56522.066272
15900.0,1069,56572.89836
16600.0,1142,56628.06252
16300.0,1153,56681.246158
13900.0,1103,56732.726647
18400.0,1050,56781.063681
14000.0,965,56828.196594
16900.0,1065,56878.977322
17900.0,1014,56927.756439
17900.0,1011,56975.5509
16700.0,1016,57022.819637
17200.0,966,57065.410505
16900.0,1106,57117.415338
14700.0,1120,57171.477096
17800.0,1072,57221.771707
20400.0,1110,57270.572049
18300.0,1053,57322.712871
14400.0,945,57365.285761
17700.0,1135,57416.52379
16300.0,1027,57463.780142
17600.0,922,57507.115888
15600.0,932,57550.294111
13700.0,916,57592.669363
18800.0,987,57640.536959
19100.0,1138,57696.348795
21800.0,1077,57746.72712
19200.0,991,57794.403539
15900.0,985,57839.340282
18400.0,993,57885.552811
14900.0,1086,57936.884483
14800.0,960,57982.086722
18700.0,1043,58032.184089
14800.0,982,58081.53519
19500.0,1042,58129.279291
17000.0,1199,58188.126845
17400.0,993,58236.095428
19300.0,987,58281.922073
17300.0,989,58328.657086
18600.0,959,58372.660589
15000.0,996,58419.119301
18600.0,1006,58466.040687
15200.0,1039,58515.466162
14700.0,924,58556.488747
16900.0,1041,58606.700356
11700.0,1013,58653.7424
16400.0,1053,58702.935752
18800.0,999,58751.446465
20300.0,1109,58804.147352
17600.0,1104,58854.19381
15300.0,1023,58902.808952
18800.0,949,58946.902062
15800.0,949,58991.696436
13800.0,949,59034.949828
19700.0,1083,59085.830646
17300.0,1045,59136.073428
16300.0,1059,59182.575872
15500.0,1059,59232.533628
12600.0,869,59273.160638
16100.0,944,59316.945962
18300.0,1159,59369.8535
14900.0,1026,59418.278004
14700.0,1034,59467.242745
14400.0,950,59509.826427
14900.0,1029,59556.803485
15200.0,929,59601.937714
15700.0,982,59648.930945
15500.0,923,59693.313391
16200.0,949,59736.508623
15700.0,948,59782.532373
15100.0,939,59827.048039
14600.0,972,59874.25984
15700.0,942,59917.192529
16700.0,999,59963.473681
18900.0,1085,60015.760034
20400.0,1139,60070.450206
15300.0,976,60116.426324
13500.0,911,60158.650413
16600.0,951,60202.069863
14600.0,987,60250.578148
18500.0,1033,60299.072945
13900.0,924,60339.786617
16500.0,1048,60391.682032
16100.0,1088,60442.812376
16500.0,1074,60494.683536
14100.0,922,60539.872177
14500.0,1048,60587.999122
17300.0,980,60634.284108
16900.0,976,60677.989835
17300.0,1016,60724.90465
16500.0,965,60769.399672
15500.0,923,60813.075272
16400.0,974,60858.141922
15000.0,943,60900.101926
13700.0,901,60940.361168
15100.0,969,60985.145793
15000.0,982,61034.163918
15000.0,970,61077.615471
15400.0,905,61122.278437
16700.0,967,61169.395707
16400.0,955,61215.170342
19400.0,1060,61263.785543
15200.0,978,61310.747725
17300.0,1040,61359.152494
14000.0,979,61405.82668
13900.0,909,61449.594989
13600.0,974,61493.860256
16100.0,947,61538.02081
12900.0,884,61580.634609
16500.0,921,61624.781083
15900.0,1013,61671.352432
14900.0,890,61714.251018
16200.0,875,61754.253006
15600.0,938,61797.558401
13200.0,920,61842.715317
16700.0,947,61884.445968
14200.0,891,61925.655737
18300.0,1078,61973.960747
16900.0,1200,62031.418996
14800.0,962,62075.738803
16300.0,949,62120.348119
16600.0,1001,62168.184623
13900.0,959,62212.566391
14200.0,931,62254.474669
15900.0,1149,62308.067812
15800.0,994,62354.568788
13500.0,924,62398.646012
18200.0,958,62442.259699
12000.0,888,62481.296337
16500.0,990,62528.015776
16600.0,1039,62576.787167
14200.0,935,62622.14398
18800.0,1052,62673.372373
13800.0,969,62719.448965
15900.0,1541,62791.321588
16600.0,1048,62839.099211
16000.0,1068,62890.254622
13900.0,983,62935.398016
14400.0,1199,62990.789297
15800.0,1016,63038.035261
18100.0,1124,63091.182469
15900.0,983,63137.601409
14800.0,1005,63183.048998
15400.0,1089,63234.514968
14300.0,990,63281.534375
12900.0,1005,63327.851377
22400.0,994,63373.320575
17600.0,1058,63424.940795
18500.0,1037,63473.41333
11800.0,967,63517.828125
15100.0,1055,63565.695369
15500.0,1051,63613.743362
18400.0,1147,63669.250886
14000.0,938,63713.417876
18500.0,1224,63770.687368
17600.0,1026,63820.830467
19000.0,1073,63869.609613
18300.0,1210,63925.274246
16600.0,1156,63979.554775
18400.0,1162,64030.831475
13500.0,945,64077.073784
14100.0,917,64121.380403
20300.0,1016,64168.653581
16300.0,983,64213.845253
20900.0,1015,64262.091369
16700.0,1026,64311.305146
14300.0,914,64355.390416
15900.0,994,64406.141612
14700.0,988,64452.405567
16900.0,999,64498.624125
14100.0,912,64540.789264
18700.0,1066,64590.251494
14900.0,945,64634.321061
16300.0,948,64676.608044
16200.0,955,64721.832653
16700.0,942,64764.951001
16200.0,941,64809.914511
11400.0,917,64852.084313
18400.0,983,64898.657566
14700.0,1001,64943.214979
16300.0,938,64985.079537
17900.0,1009,65034.312741
17400.0,983,65079.203078
16900.0,954,65124.325152
19600.0,968,65169.648095
15200.0,915,65212.206199
16500.0,966,65257.028473
16800.0,964,65302.930418
16500.0,982,65347.114011
13500.0,948,65389.36929
14300.0,992,65435.256521
15600.0,987,65482.145492
15500.0,1010,65529.954866
12600.0,909,65575.109704
11300.0,907,65617.502369
18100.0,1002,65663.097056
16100.0,1063,65713.01572
17300.0,1009,65761.009048
14900.0,964,65808.250358
17700.0,1049,65856.352102
14100.0,1023,65905.334487
16400.0,880,65944.507562
14100.0,981,65989.170919
13400.0,969,66035.675299
16300.0,983,66079.657892
17100.0,1126,66128.637194
15900.0,1032,66176.888914
12800.0,1030,66225.599262
13100.0,1006,66272.412363
14800.0,951,66317.058501
15000.0,1007,66364.505815
15600.0,986,66409.290532
16000.0,952,66451.906238
15800.0,1067,66502.389126
16300.0,1050,66554.796347
14200.0,949,66600.043409
15100.0,1030,66648.054211
16700.0,1063,66698.671656
16000.0,1121,66752.169824
15500.0,1005,66799.554383
17400.0,1087,66848.626656
14900.0,997,66896.49548
17400.0,1092,66948.045415
16700.0,1018,66996.889407
17200.0,972,67044.347991
17000.0,999,67089.770447
17600.0,908,67130.635728
15600.0,943,67175.600225
17400.0,915,67217.060582
16100.0,989,67263.991057
14000.0,887,67305.594471
17400.0,972,67349.884947
15900.0,955,67394.463998
16500.0,937,67439.582049
18000.0,978,67487.115002
18400.0,1019,67533.285078
16600.0,991,67582.881648
15100.0,944,67626.253903
15900.0,959,67671.252155
16900.0,970,67719.608438
15300.0,952,67765.198891
12600.0,935,67809.311183
17300.0,1003,67856.05124
13800.0,760,67891.237202
15900.0,967,67938.316953
15300.0,957,67982.289523
14300.0,924,68024.849158
12000.0,946,68072.024176
14000.0,922,68114.233316
15000.0,986,68160.339339
15300.0,990,68206.657013
13400.0,992,68252.433501
14300.0,959,68296.429918
10400.0,935,68340.01312
14800.0,986,68385.536166
17900.0,1094,68436.377104
12100.0,834,68475.254286
13900.0,968,68520.741447
14600.0,988,68565.864224
18200.0,1023,68614.34608
14000.0,987,68660.272456
13600.0,901,68702.121729
14300.0,954,68746.688095
14000.0,848,68786.501811
13900.0,1067,68834.93207
17500.0,1052,68884.845047
15200.0,1061,68933.827715
17600.0,1155,68989.859428
14300.0,906,69030.941391
17600.0,1027,69079.898344
17600.0,1129,69132.14491
15300.0,1016,69178.177691
17000.0,1143,69232.17891
16300.0,1052,69282.615736
19500.0,1243,69340.985016
21300.0,1267,69401.791679
17900.0,1209,69459.549899
14300.0,1083,69510.545812
15600.0,1101,69563.660194
18100.0,1107,69615.700307
18800.0,1074,69667.793668
20800.0,1162,69723.482316
17500.0,1072,69771.989593
18800.0,1109,69823.123044
18800.0,1118,69877.707144
19800.0,1151,69932.643566
16700.0,1121,69983.752073
18300.0,1045,70032.859566
18700.0,1146,70086.623569
16500.0,1039,70134.441726
19700.0,1148,70190.639177
18600.0,1030,70239.018095
15800.0,1063,70289.068439
17200.0,1015,70338.073836
18200.0,1091,70388.07467
19200.0,1246,70446.449478
19900.0,1076,70498.914152
17000.0,1098,70550.837137
16700.0,1009,70599.614447
16400.0,1095,70650.408615
17400.0,1107,70702.689032
19000.0,1030,70753.38587
17200.0,1132,70805.068079
16800.0,1049,70852.805449
17300.0,1018,70900.186307
17300.0,997,70945.701395
15600.0,1004,70995.394648
15200.0,1105,71047.829397
15500.0,983,71094.671437
15300.0,1101,71143.579941
15500.0,982,71188.83494
16300.0,1006,71237.543369
16100.0,1007,71286.206214
16500.0,1116,71339.964452
15600.0,985,71384.417517
14800.0,1098,71437.914093
18300.0,1040,71486.732181
17400.0,987,71534.620556
16700.0,1241,71592.691737
14800.0,1044,71641.964706
13700.0,947,71687.117973
18600.0,1021,71735.115451
18400.0,1102,71787.070805
15400.0,1113,71838.839932
17700.0,1005,71886.665524
14300.0,958,71931.872632
15800.0,1149,71985.967665
19600.0,1019,72034.988533
15900.0,1014,72080.295371
15400.0,989,72126.697868
16400.0,960,72173.097259
15300.0,1018,72221.390008
15300.0,983,72266.907126
14800.0,969,72313.249174
15900.0,1039,72362.646285
15600.0,1141,72415.180913
16600.0,1084,72466.200691
15100.0,995,72512.939509
14500.0,956,72557.516227
17100.0,1013,72604.827729
17200.0,1228,72664.508018
13400.0,1283,72726.092639
16900.0,1015,72773.95687
16600.0,1030,72821.514751
16900.0,1048,72870.98791
15600.0,1087,72922.181567
18200.0,1013,72969.169779
13800.0,1003,73018.049648
15700.0,1074,73069.875059
17800.0,1009,73117.05798
16600.0,970,73162.506587
15800.0,970,73207.701893
16400.0,1021,73256.137225
17100.0,1113,73309.477911
16800.0,1049,73359.7428
16500.0,1014,73405.863585
17200.0,1094,73456.905669
14700.0,994,73503.750455
19400.0,1110,73556.429219
16800.0,985,73600.825423
16400.0,1081,73653.249186
18200.0,1137,73708.613008
16800.0,994,73755.363168
16100.0,975,73801.183802
19700.0,1064,73852.26955
16300.0,1049,73901.536922
18900.0,1023,73948.304118
15500.0,1053,73997.728017
16800.0,1090,74047.126417
13900.0,1058,74096.933697
15100.0,971,74140.444436
15800.0,1130,74194.548467
15700.0,1016,74241.010092
12700.0,968,74288.907291
13500.0,1067,74336.907567
15700.0,1076,74389.167694
14300.0,995,74436.76248
15900.0,1125,74490.682418
14500.0,1162,74547.045306
17800.0,995,74593.481662
16400.0,960,74636.639748
16600.0,1067,74685.784559
16700.0,984,74732.388188
17000.0,1107,74787.125656
14400.0,1037,74838.481117
17900.0,1008,74885.962314
15400.0,945,74929.074904
18100.0,996,74975.433932
16500.0,991,75020.842453
14300.0,975,75066.900172
17100.0,934,75108.099534
15700.0,927,75151.604067
16700.0,982,75199.288858
13700.0,954,75244.670065
16800.0,1047,75295.225555
14700.0,1090,75346.051321
18400.0,984,75391.399685
17300.0,995,75439.700529
18800.0,1091,75487.266272
19900.0,1089,75535.017039
16600.0,989,75581.901855
15700.0,934,75629.185988
17300.0,971,75674.430104
15700.0,937,75717.902603
18500.0,1075,75768.343835
17200.0,1037,75815.361355
15300.0,1015,75862.447475
16800.0,933,75904.925514
14300.0,902,75949.690301
14800.0,949,75995.070913
15000.0,971,76040.839961
16800.0,993,76085.505234
15100.0,1029,76134.565692
16500.0,955,76181.801872
19400.0,1051,76229.952826
14600.0,937,76274.217502
17800.0,1068,76326.959254
17400.0,963,76371.518135
16900.0,952,76415.972039
17500.0,1015,76464.169749
17400.0,1142,76521.432295
18200.0,1153,76575.137886
14600.0,976,76624.883661
15700.0,986,76671.028752
17400.0,1039,76721.833777
16400.0,1063,76771.034357
16900.0,1033,76819.44691
20100.0,1002,76869.967962
16800.0,1030,76917.036447
18800.0,1074,76969.80572
14400.0,980,77016.330113
15100.0,948,77062.371839
14200.0,1075,77111.947613
17100.0,1208,77168.268986
19000.0,1107,77220.292407
15000.0,1012,77267.977103
18800.0,1177,77323.685417
17600.0,1087,77376.593807
17200.0,1051,77427.241434
16500.0,1062,77477.087526
16900.0,1093,77528.364779
19400.0,1116,77581.067751
15900.0,1007,77626.796815
17500.0,1135,77678.668615
16700.0,995,77725.32574
18800.0,1039,77772.91704
20400.0,1063,77825.024996
18600.0,1032,77874.57564
16700.0,1010,77921.331319
18500.0,1055,77970.605874
17200.0,1077,78020.860279
16500.0,1128,78073.759998
17700.0,1145,78128.294402
15000.0,1010,78175.649916
15100.0,1009,78224.288903
16600.0,1004,78271.796571
15100.0,962,78315.748788
16500.0,999,78364.1477
16700.0,1020,78413.447769
14700.0,1047,78464.314572
12000.0,899,78504.368326
14200.0,918,78547.461796
13400.0,878,78585.853967
16500.0,1043,78635.835032
16400.0,954,78680.883057
17700.0,952,78724.820955
13900.0,985,78771.480883
17900.0,1005,78816.883471
20300.0,1048,78866.098038
18700.0,1031,78913.691366
17200.0,974,78958.862115
17500.0,1016,79009.105229
15300.0,935,79052.029407
16500.0,1023,79102.18731
16600.0,1079,79153.042559
15400.0,977,79199.757943
18300.0,1079,79249.167324
18500.0,1020,79296.591657
16500.0,967,79341.947729
16300.0,941,79385.505002
12900.0,901,79425.300587
16700.0,1072,79471.852207
18300.0,1039,79522.815188
17500.0,1067,79573.537271
18700.0,1059,79621.517083
16400.0,1040,79670.419555
15600.0,1078,79721.432037
17700.0,1108,79773.792994
18000.0,1066,79821.921614
15900.0,1018,79869.748494
13100.0,984,79913.835274
16000.0,1070,79965.573555
19900.0,1104,80017.296379
15300.0,980,80062.312373
14300.0,967,80106.905193
16500.0,1028,80153.794183
17600.0,1052,80203.226004
16000.0,1024,80250.835014
14800.0,968,80297.297475
15400.0,971,80342.940308
15700.0,956,80389.208019
17300.0,1082,80439.752592
16100.0,995,80487.203024
14800.0,1017,80533.39462
17800.0,1018,80582.812277
15600.0,987,80630.372806
19400.0,1052,80678.711032
16100.0,978,80722.306761
16700.0,968,80767.569425
18100.0,956,80811.226769
20600.0,1036,80860.105644
14600.0,940,80904.277995
20400.0,1046,80953.004448
18500.0,1044,81003.162376
17300.0,951,81046.530664
11200.0,1088,81095.23522
17200.0,997,81140.331576
18400.0,1033,81187.189079
15400.0,974,81232.845429
17200.0,1032,81281.590016
15800.0,998,81329.807853
17100.0,978,81375.122073
16400.0,1072,81425.031269
14700.0,942,81465.313833
14600.0,973,81508.80535
14800.0,934,81551.749896
15300.0,922,81593.887216
17800.0,978,81638.622278
16000.0,1119,81693.603814
15800.0,963,81736.600418
19200.0,995,81782.884639
14100.0,935,81826.397454
15800.0,991,81870.38928
14600.0,948,81914.167798
19400.0,1170,81966.998322
20800.0,1153,82018.484563
20300.0,1064,82067.036715
16400.0,980,82113.173676
16000.0,1005,82158.397988
14500.0,951,82203.636926
13700.0,922,82245.073069
18000.0,974,82289.409129
15600.0,956,82333.409406
17500.0,981,82376.833851
17200.0,1006,82425.101152
16700.0,936,82469.532772
16400.0,982,82512.816326
18400.0,1039,82559.462713
17400.0,976,82602.59312
17200.0,1066,82648.508231
14800.0,1016,82694.713809
14500.0,971,82737.350956
16200.0,1169,82786.896752
17400.0,996,82831.360505
17700.0,970,82876.717282
16700.0,961,82919.61812
16800.0,959,82963.867914
15200.0,913,83005.927977
17500.0,983,83051.38072
14500.0,947,83092.27196
17600.0,936,83135.148795
17100.0,928,83176.279394
17300.0,967,83218.859584
18800.0,977,83265.010439
16100.0,954,83307.876281
15500.0,901,83352.383859
17200.0,912,83395.311116
17400.0,914,83435.618947
18400.0,925,83480.568054
16700.0,943,83521.675545
15200.0,883,83563.136465
18600.0,1021,83610.532591
19000.0,950,83651.754851
14200.0,941,83695.324381
18000.0,992,83746.580969
21000.0,982,83792.933213
16600.0,996,83839.63792
15400.0,910,83882.91671
16800.0,930,83924.585734
14300.0,929,83966.128067
14400.0,896,84007.669406
19600.0,997,84054.278767
19400.0,1004,84103.4881
16600.0,927,84145.577026
16900.0,999,84190.843689
15300.0,928,84231.430315
16400.0,982,84275.978847
17400.0,957,84320.912534
21300.0,1031,84365.78038
18100.0,992,84412.986248
15200.0,925,84455.487457
15300.0,969,84499.031926
16000.0,979,84544.542582
14800.0,906,84586.191241
15700.0,1030,84635.140782
17600.0,940,84678.580356
16900.0,972,84724.985142
15900.0,982,84773.005989
20500.0,1042,84820.732136
17500.0,957,84864.571494
16400.0,954,84908.509867
20000.0,1140,84961.288872
16900.0,1029,85008.691391
17700.0,1020,85055.376148
14900.0,943,85100.106079
15300.0,960,85145.917945
14000.0,948,85192.707919
15400.0,1036,85242.187688
14100.0,949,85285.923281
16900.0,1053,85337.898005
16100.0,932,85380.256995
18000.0,934,85424.130518
17800.0,1005,85470.473955
12900.0,887,85510.575532
15300.0,1012,85555.842872
18000.0,999,85601.839626
15500.0,1030,85648.866868
15500.0,990,85691.085064
17100.0,982,85731.553149
18200.0,973,85771.788569
15600.0,944,85815.109209
16900.0,981,85860.133036
17400.0,1004,85902.070554
19000.0,1102,85953.043868
17000.0,920,85993.643733
16100.0,955,86033.833281
17800.0,959,86076.002179
17600.0,935,86118.28247
15300.0,947,86158.719869
15800.0,1101,86207.121159
18200.0,975,86250.729391
15300.0,939,86290.47765
17400.0,971,86334.729951
17200.0,1006,86380.298365
15800.0,945,86421.205291
12900.0,901,86460.519403
16800.0,1107,86507.662964
15800.0,917,86548.000074
16400.0,1004,86591.01897
17000.0,944,86630.352232
19900.0,1061,86676.19439
14600.0,942,86715.97516
20600.0,1802,86795.173402
16700.0,1213,86846.438081
13500.0,926,86886.713876
17300.0,1077,86933.713234
18700.0,940,86974.695928
18800.0,1022,87018.005184
20000.0,1081,87064.394397
21100.0,1175,87115.259789
17500.0,1046,87159.093641
19200.0,916,87198.639737
14900.0,991,87240.990322
18400.0,964,87279.123903
17200.0,956,87320.091851
17900.0,1003,87361.286209
17400.0,1005,87401.96297
17800.0,964,87444.031577
20800.0,1050,87487.449256
17900.0,1032,87529.353141
17400.0,1011,87571.309219
17100.0,1007,87613.133294
18700.0,1001,87655.027515
17400.0,954,87694.668627
17000.0,940,87733.048313
18100.0,954,87771.172478
17200.0,923,87810.858828
16500.0,1038,87852.922647
17200.0,966,87891.830042
13600.0,924,87932.03271
16900.0,951,87972.926044
16300.0,1020,88014.064417
14900.0,976,88052.437338
17200.0,942,88093.000919
18700.0,927,88132.728745
16800.0,981,88172.735761
18000.0,962,88213.262229
17100.0,1033,88255.817948
16800.0,918,88294.453235
17800.0,948,88333.282471
18100.0,979,88372.814081
15500.0,1091,88416.347787
15700.0,1003,88459.595627
18400.0,1096,88505.533277
18800.0,1132,88553.886461
17600.0,1094,88599.972675
13900.0,1011,88642.516046
18500.0,1063,88686.513766
13000.0,948,88724.969761
17700.0,1117,88772.866847
18600.0,1016,88815.461517
18100.0,1144,88864.086647
18800.0,1016,88904.480077
16400.0,1027,88947.34374
17700.0,999,88987.65388
18000.0,1052,89031.735828
18800.0,1099,89078.702124
18500.0,1013,89122.095378
15900.0,952,89160.566428
18400.0,1023,89203.64295
13400.0,895,89239.612054
17300.0,1068,89284.636075
17200.0,966,89325.944432
17000.0,1046,89369.956658
17400.0,984,89411.342607
16500.0,930,89451.364949
17900.0,1037,89494.578754
14900.0,866,89528.953584
18600.0,1002,89570.662019
19500.0,926,89609.154155
14900.0,912,89647.371255
15700.0,959,89689.566445
15900.0,958,89732.376817
14600.0,952,89771.424581
18200.0,957,89811.320829
15900.0,1033,89854.00432
21300.0,1095,89899.345344
17300.0,1012,89941.210024
17800.0,973,89982.879056
17900.0,973,90024.719396
17600.0,997,90068.204952
14700.0,994,90112.825754
17700.0,1073,90157.975996
15700.0,1055,90200.49544
15100.0,960,90239.713287
18200.0,1023,90279.181551
15600.0,1028,90322.050658
17100.0,950,90361.970251
16500.0,994,90403.860977
17800.0,935,90441.641683
20100.0,1120,90491.009659
16700.0,983,90531.66043
18300.0,1107,90578.950545
17300.0,975,90620.801655
18100.0,944,90662.494507
14100.0,948,90701.739254
16400.0,1078,90747.173867
18300.0,954,90789.183758
16700.0,977,90831.284668
17900.0,1119,90878.640625
16300.0,1003,90921.373267
13500.0,952,90960.773269
20900.0,1103,91008.16233
15200.0,980,91047.386795
13600.0,912,91086.289186
17600.0,1043,91131.923299
20400.0,1103,91178.022616
18200.0,1013,91219.109833
14900.0,936,91260.402508
17000.0,1017,91304.590404
16100.0,1007,91347.018692
18800.0,1140,91395.071465
17100.0,1098,91439.156349
17700.0,1042,91481.426157
16500.0,976,91523.002556
18100.0,1003,91566.676606
17600.0,999,91606.963631
17400.0,1038,91651.073993
18000.0,922,91689.370656
18400.0,1221,91740.213984
18800.0,1145,91787.888026
14700.0,962,91826.985129
16900.0,1056,91871.853269
13000.0,961,91912.408923
18100.0,1121,91959.463094
15200.0,937,91997.706151
19900.0,1054,92041.181322
21000.0,1116,92089.248452
17000.0,1026,92131.248579
18700.0,1110,92177.781523
16100.0,1054,92221.474286
17800.0,987,92262.136127
17900.0,962,92303.757421
16000.0,999,92346.688913
17200.0,950,92386.011446
17800.0,1003,92426.473731
19400.0,963,92468.395901
15300.0,926,92505.118073
17500.0,1012,92546.238247
16600.0,1065,92591.509439
21000.0,975,92636.266076
17900.0,955,92675.673094
18200.0,1006,92718.346181
18500.0,1077,92763.63445
18400.0,1038,92807.935337
16400.0,967,92851.469782
12700.0,1029,92895.115977
21600.0,1091,92942.050169
17600.0,1034,92986.575722
17300.0,1004,93032.033713
16000.0,963,93076.251045
17900.0,1012,93121.204359
18700.0,954,93163.513561
16200.0,976,93207.475516
18700.0,1012,93252.579248
17100.0,1014,93299.388703
14300.0,1006,93346.560773
14900.0,927,93391.674362
15700.0,1019,93440.420401
17600.0,921,93481.955385
16500.0,971,93525.222295
14400.0,1014,93574.499671
16300.0,1052,93625.106785
15700.0,1036,93671.854395
18200.0,1003,93717.861321
21000.0,1008,93765.098748
16100.0,935,93808.782409
15000.0,1089,93863.420036
15700.0,974,93912.393687
15500.0,937,93962.250513
17200.0,1050,94013.730557
15600.0,950,94061.82233
18600.0,1074,94115.61849
16300.0,1032,94167.77176
17800.0,1059,94218.551695
14500.0,988,94266.819094
18700.0,1073,94322.021166
18100.0,1071,94377.380508
16900.0,1006,94428.363
17300.0,987,94475.378756
16000.0,955,94521.67373
17700.0,987,94572.630015
18000.0,960,94618.359408
19100.0,1023,94666.719623
15800.0,1056,94721.580402
18600.0,1118,94779.797103
17000.0,988,94828.095627
18700.0,1151,94886.58106
14600.0,946,94933.149446
14600.0,999,94983.089371
18000.0,1050,95037.100086
16400.0,1059,95090.80372
16900.0,979,95139.574347
18600.0,1029,95194.168702
18300.0,1072,95251.562643
16200.0,1036,95307.307247
18400.0,983,95357.07991
19000.0,1041,95411.517226
18000.0,988,95463.36128
16600.0,1083,95516.754104
16800.0,1159,95575.592404
18600.0,1055,95630.09639
18500.0,1103,95687.330557
17700.0,970,95735.502248
16100.0,995,95786.391373
13800.0,1000,95836.964468
18700.0,1081,95891.029907
17000.0,1065,95945.51874
18800.0,1024,95997.167743
17300.0,948,96044.184488
18300.0,948,96088.614916
16100.0,979,96135.981939
13200.0,952,96180.315461
19300.0,1165,96238.335495
17200.0,1102,96289.486372
18100.0,932,96334.835878
15700.0,1067,96386.770141
18900.0,974,96431.675383
16900.0,953,96477.662514
13800.0,954,96524.610051
18400.0,1031,96575.959773
16700.0,984,96622.168081
16100.0,1092,96675.980945
17900.0,949,96722.402955
20100.0,981,96769.901755
17300.0,996,96818.632538
13800.0,882,96860.492621
16500.0,934,96907.665384
19500.0,987,96953.965867
18700.0,983,96999.787992
18900.0,987,97043.899482
20900.0,1037,97096.564327
15700.0,1047,97144.479923
16600.0,1029,97194.800075
15600.0,959,97241.614289
17800.0,1128,97298.397248
14900.0,959,97345.273071
17800.0,1070,97397.316702
20200.0,1003,97446.06074
21900.0,1173,97503.722277
18000.0,951,97551.451424
17800.0,963,97595.813435
18300.0,977,97643.807664
17000.0,987,97689.807739
16300.0,963,97737.326782
16800.0,917,97780.700796
14600.0,873,97822.78992
13500.0,917,97866.954166
15900.0,917,97911.959234
15000.0,966,97956.127233
14600.0,934,98003.992036
17600.0,924,98048.797871
18600.0,914,98093.613791
17900.0,982,98143.268664
16900.0,912,98187.142731
14500.0,882,98229.441696
18600.0,947,98276.060246
19300.0,937,98323.082549
13200.0,972,98370.641386
16400.0,918,98413.934555
19200.0,960,98462.047376
16500.0,981,98510.117033
16700.0,924,98554.071224
16400.0,1027,98606.379888
15100.0,899,98649.109337
15800.0,880,98693.124351
16600.0,1084,98743.010526
13400.0,906,98786.648726
17900.0,919,98832.122018
16000.0,891,98878.464297
16000.0,898,98922.860326
17200.0,890,98965.149198
15000.0,954,99011.754291
14500.0,961,99060.451881
16400.0,998,99108.695339
17300.0,918,99153.481874
16900.0,910,99197.923241
14700.0,907,99240.076092
16600.0,920,99286.859002
18000.0,960,99334.280311
15200.0,1090,99387.996424
18500.0,1060,99442.412741
14200.0,950,99485.497817
18300.0,1016,99535.303183
15400.0,1001,99580.512744
17500.0,968,99629.058848
15200.0,974,99675.112753
18000.0,978,99723.823698
15500.0,1069,99773.709267
16900.0,983,99821.359631
18700.0,947,99870.129458
16500.0,965,99915.461605
16500.0,941,99962.607953
18300.0,936,100006.384121
18400.0,885,100047.979147
17500.0,1069,100097.548633
17100.0,1074,100145.052855
17400.0,1056,100196.28375
18000.0,957,100244.528857
16100.0,944,100290.573503
18100.0,977,100336.482991
18900.0,1091,100388.676607
18200.0,930,100434.691245
18100.0,979,100480.637765
17900.0,995,100526.817208
18400.0,1019,100575.646774
18200.0,943,100621.809536
17500.0,1048,100672.726873
18900.0,1049,100723.24521
18800.0,1009,100771.515861
19000.0,1041,100822.533533
13800.0,911,100868.447447
12400.0,923,100914.152451
16800.0,1201,100972.828411
18900.0,1017,101021.153124
18000.0,927,101065.441103
18900.0,979,101114.130282
14900.0,967,101162.098178
16900.0,993,101209.148978
17800.0,989,101258.575986
20300.0,1141,101316.200918
17800.0,968,101362.669927
16200.0,1104,101417.221922
12300.0,994,101466.748643
16500.0,1033,101517.064924
20500.0,1018,101567.37007
16500.0,1075,101615.621878
17300.0,963,101660.909114
18400.0,1032,101708.459074
18400.0,963,101758.531013
15600.0,984,101804.994156
18400.0,968,101851.225822
18700.0,944,101898.085061
17100.0,998,101945.828495
18900.0,936,101993.504249
17700.0,1023,102043.501463
13900.0,913,102089.244203
19100.0,1003,102136.244286
18700.0,1008,102187.22054
18500.0,933,102233.00533
13800.0,952,102279.123539
18300.0,1050,102330.344518
14100.0,1065,102380.182824
17700.0,988,102428.090866
15200.0,915,102472.093509
14200.0,886,102514.352538
18300.0,955,102561.867443
15700.0,1000,102613.322406
13200.0,870,102654.524976
18600.0,930,102699.171333
17500.0,951,102747.026471
18200.0,986,102798.067455
18300.0,1019,102849.658579
18400.0,914,102895.111116
17200.0,974,102941.298181
17300.0,1064,102991.037708
18100.0,1033,103041.21313
18400.0,1091,103096.346736
18200.0,1059,103149.941432
17500.0,1075,103200.358793
19200.0,1118,103255.118391
17500.0,995,103303.022582
19300.0,1099,103352.08657
15900.0,1045,103403.63682
19400.0,1103,103455.712412
16500.0,992,103504.90532
17200.0,979,103550.995698
14700.0,1030,103601.368876
18800.0,1028,103649.25684
18700.0,1077,103703.322774
14300.0,866,103746.085524
16700.0,919,103787.084015
21600.0,996,103837.678443
17900.0,1006,103886.839248
19600.0,1030,103937.603935
18000.0,958,103981.801164
13700.0,856,104022.88413
20400.0,1029,104071.315747
18000.0,962,104119.462176
17500.0,1096,104172.650704
17900.0,1063,104224.925625
17900.0,1062,104278.333546
17000.0,1054,104330.700821
18800.0,990,104379.260122
14000.0,1083,104429.320439
17600.0,1073,104481.515674
15400.0,911,104527.250055
18500.0,993,104578.221338
17500.0,1074,104631.400561
16200.0,968,104676.330326
18100.0,907,104721.144279
20800.0,1020,104770.443726
18400.0,1061,104821.10176
18200.0,970,104869.318068
13800.0,952,104913.339535
18400.0,1044,104965.530216
19800.0,1091,105019.856547
18500.0,1033,105072.478921
18100.0,984,105121.158207
16900.0,933,105166.188443
14300.0,945,105209.656564
17900.0,1009,105258.899066
17200.0,1035,105308.541734
17200.0,945,105353.747499
16600.0,926,105400.751186
16600.0,1009,105449.234363
16800.0,1084,105501.965497
16900.0,1005,105549.213213
14800.0,871,105591.926198
17000.0,1033,105638.168098
17200.0,955,105683.280396
16200.0,966,105730.519202
16800.0,974,105779.451198
20900.0,1048,105830.003725
15400.0,957,105874.992356
15100.0,989,105922.463744
18900.0,941,105967.836206
18400.0,1042,106019.014333
21000.0,1172,106077.545048
20400.0,1038,106129.339771
18500.0,1051,106179.51779
17700.0,998,106229.216591
16500.0,965,106275.047472
19400.0,1131,106328.581024
18500.0,991,106378.01369
15400.0,1037,106431.790377
17900.0,966,106479.955749
17900.0,948,106525.331618
18500.0,966,106572.692041
22500.0,1127,106624.629531
19400.0,1024,106676.638162
18500.0,998,106724.506656
14800.0,962,106772.687699
15400.0,952,106818.168679
18800.0,944,106861.318127
18000.0,997,106910.033702
15900.0,919,106953.368424
16300.0,959,106999.926927
17100.0,933,107043.41568
14200.0,931,107088.772746
20700.0,1046,107139.526018
17100.0,941,107184.325641
17100.0,1059,107234.395277
18100.0,1100,107286.620328
17300.0,1229,107347.923997
15800.0,1101,107400.190495
14900.0,918,107444.294577
20000.0,982,107490.202597
18900.0,971,107539.423653
20600.0,1060,107594.298148
18500.0,1055,107645.005163
19300.0,1135,107700.234801
18900.0,1076,107752.605299
17700.0,961,107797.313116
15400.0,1117,107854.362445
16400.0,1013,107905.216112
14600.0,957,107951.388308
18700.0,1019,108001.044743
21500.0,1082,108052.630569
19100.0,984,108099.950214
17300.0,973,108147.888278
18600.0,1051,108199.207644
18300.0,980,108246.517459
18300.0,1106,108298.576714
18500.0,1055,108347.142191
16600.0,987,108398.292219
19300.0,1037,108448.082945
16000.0,931,108493.634948
18400.0,1042,108543.629922
20100.0,1127,108597.012726
17800.0,1058,108650.074556
15400.0,972,108697.865087
21200.0,1072,108750.347896
19500.0,1057,108802.68432
17900.0,1012,108852.953104
18200.0,950,108899.094812
18500.0,1047,108952.659576
18300.0,1036,109003.905938
17600.0,980,109054.035524
21400.0,1193,109111.110938
17500.0,960,109158.302231
18800.0,933,109203.912251
18800.0,1016,109254.132597
20000.0,1093,109309.90955
14400.0,926,109354.748004
13900.0,907,109399.455749
18600.0,1002,109451.089758
20000.0,1110,109503.710893
19500.0,1022,109552.601048
15500.0,1129,109609.09903
18500.0,1050,109661.921769
18000.0,988,109711.528489
18400.0,999,109762.600597
20600.0,1238,109822.575142
20600.0,1042,109872.38983
16300.0,1017,109922.981174
18300.0,985,109969.788049
18200.0,1016,110018.648721
18300.0,977,110067.488762
13900.0,909,110110.834083
20600.0,1024,110162.256323
19700.0,1059,110213.32384
18100.0,1015,110262.737496
15300.0,935,110306.629661
18100.0,978,110352.5328
15900.0,900,110394.009294
18900.0,961,110437.752289
18200.0,1000,110487.446634
18100.0,947,110533.76362
18300.0,958,110581.340256
18700.0,1073,110633.494303
18900.0,1150,110690.887601
18300.0,1040,110740.831757
15600.0,1013,110789.856942
19500.0,1057,110840.209411
21100.0,956,110888.943968
18800.0,1009,110937.81853
18800.0,943,110982.650502
17400.0,999,111029.781155
18800.0,989,111075.321526
18000.0,932,111121.956611
14600.0,931,111168.845306
19200.0,967,111215.676654
14400.0,891,111257.38623
21700.0,1084,111310.350438
15700.0,905,111356.807468
14400.0,948,111405.057337
14200.0,920,111449.773689
15100.0,888,111492.758409
17000.0,928,111541.035029
19000.0,965,111590.38017
18400.0,1063,111642.362329
19000.0,998,111693.078284
15900.0,941,111738.138031
19100.0,981,111786.858107
17300.0,944,111833.552958
18800.0,996,111880.167138
19800.0,982,111930.124314
17600.0,1053,111982.243076
18700.0,1029,112031.849594
17800.0,1010,112080.407393
16500.0,938,112125.226458
15200.0,958,112174.032253
19500.0,967,112219.247426
18300.0,962,112265.90381
17400.0,1028,112316.897314
21600.0,1026,112363.852589
18000.0,1031,112416.308809
17400.0,1002,112465.060655
18800.0,1086,112517.45925
18700.0,1027,112568.045997
18500.0,979,112618.933906
14000.0,879,112662.269632
18400.0,988,112711.700335
13400.0,945,112756.727595
18800.0,951,112800.96844
20700.0,1101,112857.85063
13400.0,916,112903.378643
15600.0,935,112948.355661
13900.0,898,112993.782106
16200.0,942,113040.048435
18600.0,965,113087.814111
18400.0,1032,113137.49165
13600.0,871,113180.264923
15200.0,890,113222.906081
19500.0,968,113270.98543
17400.0,964,113318.556787
15100.0,972,113364.362107
17000.0,992,113412.355062
16700.0,926,113457.203928
18800.0,1048,113509.048574
17600.0,1002,113556.197682
18600.0,1065,113608.997522
22400.0,1056,113662.759116
17500.0,945,113706.370369
17400.0,1043,113756.97078
18800.0,1015,113805.187657
