# {"t_start": 1547078455.7768342, "env_id": "MontezumaRevengeNoFrameskip-v4"} 
r,l,t
0.0,451,32.119526
0.0,848,70.330704
0.0,507,89.251121
0.0,661,119.680016
0.0,1119,167.679117
0.0,528,188.816865
0.0,426,208.731157
0.0,343,224.945962
0.0,529,246.734415
0.0,883,283.476283
0.0,544,308.227369
0.0,1081,354.530517
0.0,676,388.068324
0.0,617,414.271308
0.0,4837,625.961276
0.0,529,651.287261
0.0,985,692.646274
0.0,473,712.378325
0.0,1171,763.116816
0.0,1222,816.60252
0.0,363,833.666074
0.0,933,871.222734
0.0,820,907.342837
0.0,344,923.833493
0.0,244,933.662387
0.0,531,954.018526
0.0,285,966.214734
0.0,466,988.116236
0.0,579,1013.869205
0.0,502,1034.317893
0.0,574,1058.633753
0.0,432,1078.98129
0.0,1321,1134.200669
0.0,331,1148.947397
0.0,288,1161.822204
0.0,364,1177.331685
0.0,1572,1245.965562
0.0,235,1257.499377
0.0,981,1299.296014
0.0,902,1339.548297
0.0,491,1362.614217
0.0,550,1383.563755
0.0,874,1424.893
0.0,339,1440.070529
0.0,1667,1516.373261
0.0,587,1542.688062
0.0,1374,1599.492305
0.0,580,1626.648274
0.0,983,1667.15798
0.0,497,1689.650407
0.0,561,1716.688792
0.0,694,1743.343963
0.0,823,1780.898159
0.0,663,1809.799597
0.0,875,1848.340573
0.0,392,1866.667653
0.0,343,1882.56389
0.0,1842,1961.631988
0.0,1172,2011.647197
0.0,598,2039.588398
0.0,815,2076.742255
0.0,522,2096.753949
0.0,480,2119.333066
0.0,353,2134.292693
0.0,589,2161.349613
0.0,906,2198.084724
0.0,623,2226.585043
0.0,1094,2271.455744
0.0,249,2282.438061
0.0,228,2292.071846
0.0,1363,2352.119975
0.0,384,2368.162016
0.0,271,2380.276362
0.0,485,2402.376198
0.0,416,2420.979654
0.0,308,2433.907547
0.0,983,2477.010929
0.0,229,2487.824993
0.0,570,2512.719315
0.0,528,2532.578556
0.0,1050,2580.327322
0.0,1606,2652.507129
0.0,1251,2705.841146
0.0,3562,2864.670233
0.0,21520,3805.867982
0.0,4076,3986.87501
0.0,651,4014.006538
0.0,986,4057.13228
0.0,614,4084.949835
0.0,1551,4150.926689
0.0,1257,4204.834505
0.0,838,4241.961943
0.0,472,4263.269054
0.0,745,4292.338249
0.0,531,4316.44633
0.0,1325,4374.312943
0.0,698,4405.35798
0.0,1643,4478.222433
0.0,666,4509.812706
0.0,670,4537.437217
0.0,388,4553.688823
0.0,477,4575.081042
0.0,398,4593.117642
0.0,440,4612.529137
0.0,361,4625.656423
0.0,400,4641.595524
0.0,578,4668.797734
0.0,495,4689.528371
0.0,530,4710.672261
0.0,529,4731.017727
0.0,19457,5579.121974
0.0,420,5594.425682
0.0,744,5626.818349
0.0,339,5643.76925
0.0,587,5669.270961
0.0,506,5688.740938
0.0,568,5714.844966
0.0,684,5747.240452
0.0,458,5766.129219
0.0,479,5785.614829
0.0,465,5806.43874
0.0,669,5835.282472
0.0,555,5857.279253
0.0,532,5880.053869
0.0,514,5902.908029
0.0,366,5920.02668
0.0,535,5942.644691
0.0,506,5962.192301
0.0,426,5981.94896
0.0,349,5997.234077
0.0,310,6011.093676
0.0,362,6025.354956
0.0,286,6035.521312
0.0,380,6052.479987
0.0,417,6072.166414
0.0,680,6101.831345
0.0,592,6124.523809
0.0,453,6144.058185
0.0,452,6165.193839
0.0,536,6189.418271
0.0,493,6208.078118
0.0,337,6221.590198
0.0,401,6240.410097
0.0,261,6251.466106
0.0,419,6270.818233
0.0,353,6285.033389
0.0,392,6299.775682
0.0,429,6319.226193
0.0,298,6332.092931
0.0,440,6351.992846
0.0,274,6364.006276
0.0,297,6376.325781
0.0,406,6393.989928
0.0,488,6417.151558
0.0,253,6428.298282
0.0,307,6441.476398
0.0,489,6461.978445
0.0,251,6471.486036
0.0,474,6493.211896
0.0,527,6519.100687
0.0,465,6539.509785
0.0,603,6565.244778
0.0,597,6592.458617
0.0,945,6634.974355
0.0,538,6657.798506
0.0,334,6672.323055
0.0,472,6693.964063
0.0,452,6714.334083
0.0,536,6736.043362
0.0,453,6756.427325
0.0,452,6777.660098
0.0,393,6795.149957
0.0,425,6812.334061
0.0,377,6827.389001
0.0,421,6845.917562
0.0,418,6864.111734
0.0,505,6886.430573
0.0,602,6909.712756
0.0,482,6931.253278
0.0,556,6956.740855
0.0,509,6979.112438
0.0,247,6988.206118
0.0,282,6998.957395
0.0,401,7017.22537
0.0,579,7043.630139
0.0,234,7052.895792
0.0,356,7068.554559
0.0,780,7101.03127
0.0,357,7118.67091
0.0,189,7127.040536
0.0,438,7146.819727
0.0,317,7160.468341
0.0,745,7190.543827
0.0,464,7213.043505
0.0,752,7246.446563
0.0,384,7261.17786
0.0,437,7280.000727
0.0,496,7303.534217
0.0,571,7329.795906
0.0,626,7354.600663
0.0,495,7377.738602
0.0,446,7398.145973
0.0,411,7417.444348
0.0,381,7432.686458
0.0,291,7444.708401
0.0,332,7459.075543
0.0,267,7469.504768
0.0,224,7478.527596
0.0,474,7497.514852
0.0,243,7507.772264
0.0,375,7521.914436
0.0,435,7541.232099
0.0,369,7557.545744
0.0,269,7569.503119
0.0,633,7597.102118
0.0,262,7605.964111
0.0,621,7634.918273
0.0,572,7659.64464
0.0,297,7674.223189
0.0,882,7710.740472
0.0,697,7742.912617
0.0,443,7763.306861
0.0,450,7780.221976
0.0,272,7790.440278
0.0,221,7800.400097
0.0,309,7813.855258
0.0,691,7845.586418
0.0,1141,7892.335633
0.0,272,7905.006013
0.0,221,7915.615484
0.0,729,7948.290832
0.0,467,7966.408988
0.0,599,7994.992642
0.0,277,8007.51969
0.0,458,8027.587636
0.0,513,8046.897343
0.0,227,8056.771163
0.0,391,8075.632489
0.0,377,8091.682383
0.0,195,8100.302595
0.0,426,8119.147427
0.0,502,8138.943804
0.0,466,8160.079938
0.0,286,8172.742409
0.0,335,8188.601543
0.0,281,8201.232434
0.0,596,8223.974317
0.0,486,8245.897488
0.0,252,8257.327918
0.0,943,8299.61
0.0,556,8321.197756
0.0,778,8359.989788
0.0,401,8377.310313
0.0,312,8389.047561
0.0,235,8397.219401
0.0,492,8418.665806
0.0,696,8451.22472
0.0,357,8466.423344
0.0,717,8494.565614
0.0,1445,8561.518735
0.0,342,8574.125969
0.0,327,8588.379179
0.0,256,8598.952563
0.0,258,8610.456817
0.0,943,8650.905979
0.0,181,8657.013945
0.0,362,8671.319777
0.0,396,8687.666914
0.0,601,8715.100491
0.0,1336,8773.645492
0.0,791,8808.850632
0.0,206,8817.733641
0.0,480,8836.035559
0.0,520,8859.434128
0.0,436,8880.326227
0.0,236,8890.813521
0.0,567,8915.965926
0.0,215,8923.371878
0.0,570,8948.671902
0.0,587,8977.422587
0.0,756,9009.502216
0.0,838,9047.402956
0.0,839,9084.598609
0.0,204,9091.742817
0.0,722,9123.525263
0.0,923,9165.527766
0.0,806,9198.9841
0.0,953,9243.496118
0.0,393,9259.482873
0.0,460,9277.543741
0.0,1074,9326.186659
0.0,244,9337.117768
0.0,669,9363.324958
0.0,582,9387.924882
0.0,483,9411.221796
0.0,733,9442.849349
0.0,563,9465.930001
0.0,1008,9513.314438
0.0,853,9548.917781
0.0,689,9578.072216
0.0,677,9607.820053
0.0,553,9629.466189
0.0,744,9663.14065
0.0,877,9701.065966
0.0,763,9733.27585
0.0,526,9759.001539
0.0,470,9780.025688
0.0,713,9808.48103
0.0,520,9832.718692
0.0,1020,9877.348719
0.0,1134,9928.04071
0.0,437,9947.38217
0.0,394,9963.303246
0.0,851,9996.782531
0.0,450,10016.146589
0.0,232,10025.905018
0.0,596,10050.776413
0.0,345,10063.61455
0.0,951,10104.788893
0.0,974,10147.026292
0.0,700,10178.119339
0.0,331,10193.903456
0.0,237,10204.023313
0.0,183,10212.914998
0.0,370,10227.364701
0.0,561,10249.949371
0.0,536,10274.500689
0.0,555,10300.717237
0.0,599,10324.45214
0.0,244,10333.735364
0.0,591,10361.26881
0.0,604,10390.033979
0.0,799,10421.933578
0.0,404,10440.468719
0.0,517,10463.548792
0.0,852,10499.167356
0.0,737,10531.822424
0.0,798,10567.942795
0.0,764,10598.374075
0.0,503,10620.968272
0.0,344,10637.565884
0.0,796,10670.923603
0.0,355,10684.862673
0.0,910,10727.171062
0.0,499,10749.206806
0.0,362,10762.962198
0.0,275,10774.51245
0.0,438,10793.643749
0.0,534,10818.548304
0.0,501,10840.576041
0.0,409,10855.116086
0.0,285,10867.039482
0.0,481,10888.562726
0.0,349,10904.154836
0.0,394,10921.182072
0.0,520,10941.644017
0.0,831,10980.70395
0.0,422,10998.885803
0.0,233,11008.628343
0.0,244,11017.67784
0.0,1343,11079.157233
0.0,663,11107.968532
0.0,249,11116.998197
0.0,355,11132.956167
0.0,639,11162.305431
0.0,453,11182.623658
0.0,282,11192.727621
0.0,1253,11250.487993
0.0,360,11268.53348
0.0,515,11288.323783
0.0,678,11319.999787
0.0,549,11345.845936
0.0,203,11354.644135
0.0,492,11373.774191
0.0,771,11406.165159
0.0,188,11414.222235
0.0,396,11431.935998
0.0,281,11444.638246
0.0,1506,11508.072913
0.0,366,11526.414697
0.0,504,11546.33198
0.0,550,11569.78699
0.0,394,11588.391467
0.0,568,11614.199074
0.0,990,11655.641454
0.0,668,11687.17427
0.0,575,11711.824984
0.0,427,11727.671742
0.0,588,11754.948009
0.0,337,11769.362753
0.0,773,11801.48632
0.0,447,11819.025063
0.0,449,11838.134825
0.0,494,11859.915958
0.0,853,11894.054445
0.0,279,11904.471939
0.0,387,11921.467202
0.0,560,11947.388027
0.0,587,11974.465121
0.0,431,11989.93067
0.0,631,12016.385066
0.0,1216,12070.857942
0.0,754,12101.938272
0.0,1797,12176.363479
0.0,741,12210.681216
0.0,1303,12263.668269
0.0,2484,12376.059958
0.0,1774,12451.345391
0.0,1575,12517.53765
0.0,1408,12580.072939
0.0,772,12611.81478
0.0,633,12640.037051
0.0,965,12681.633593
0.0,809,12716.137242
0.0,630,12745.612348
0.0,423,12764.591136
0.0,669,12791.036922
0.0,892,12830.932131
0.0,302,12845.57611
0.0,1260,12899.05154
0.0,1007,12943.239294
0.0,325,12956.120433
0.0,773,12990.666619
0.0,426,13008.933422
0.0,452,13028.909005
0.0,403,13044.344743
0.0,277,13055.172201
0.0,253,13064.856363
0.0,404,13082.196748
0.0,317,13095.370693
0.0,244,13105.906055
0.0,209,13115.609903
0.0,403,13130.413488
0.0,301,13141.415382
0.0,384,13158.475374
0.0,390,13176.226772
0.0,560,13202.007366
0.0,551,13223.398491
0.0,518,13246.49985
0.0,684,13278.663877
0.0,321,13293.921588
0.0,224,13301.526082
0.0,206,13309.764889
0.0,272,13321.305931
0.0,256,13331.842594
0.0,288,13345.138084
0.0,641,13375.121089
0.0,439,13393.041259
0.0,899,13433.946946
0.0,244,13445.994202
0.0,215,13454.957245
0.0,302,13466.400978
0.0,398,13481.969771
0.0,177,13488.897215
0.0,270,13499.612808
0.0,252,13510.058019
0.0,321,13524.287543
0.0,367,13540.758206
0.0,619,13566.027366
0.0,207,13573.852473
0.0,646,13602.545882
0.0,259,13614.298604
0.0,328,13628.033988
0.0,579,13652.664312
0.0,268,13662.297103
0.0,1265,13718.62895
0.0,442,13737.748958
0.0,543,13760.99508
0.0,498,13782.191226
0.0,311,13796.565319
0.0,822,13831.455027
0.0,631,13858.237342
0.0,286,13870.665112
0.0,283,13882.48203
0.0,242,13893.317967
0.0,773,13925.10223
0.0,250,13936.102256
0.0,440,13955.421019
0.0,294,13967.798154
0.0,433,13986.832997
0.0,570,14009.745522
0.0,319,14021.79111
0.0,223,14031.351968
0.0,348,14047.315145
0.0,653,14077.352527
0.0,750,14107.711076
0.0,345,14122.345079
0.0,771,14157.208772
0.0,1305,14212.155854
0.0,611,14242.893965
0.0,840,14277.651006
0.0,327,14290.874276
0.0,2118,14385.097675
0.0,743,14419.147924
0.0,1800,14500.650358
0.0,335,14515.114528
0.0,615,14539.277899
0.0,701,14568.4201
0.0,309,14581.431229
0.0,1046,14627.57834
0.0,510,14647.213229
0.0,467,14668.425271
0.0,731,14700.804924
0.0,1182,14749.627285
0.0,600,14776.60705
0.0,573,14801.403947
0.0,448,14818.755038
0.0,1092,14867.701209
0.0,506,14888.267154
0.0,1546,14957.890321
0.0,426,14975.992706
0.0,1011,15018.484734
0.0,819,15055.753413
0.0,553,15078.16128
0.0,451,15096.955044
0.0,600,15124.208527
0.0,1345,15182.507633
0.0,480,15204.929332
0.0,839,15243.459977
0.0,295,15254.202382
0.0,512,15277.47684
0.0,384,15294.284751
0.0,956,15333.689407
0.0,213,15341.226899
0.0,781,15377.441406
0.0,260,15389.260614
0.0,1071,15432.270559
0.0,510,15455.227097
0.0,646,15484.798089
0.0,552,15508.024812
0.0,376,15522.649042
0.0,1022,15569.521105
0.0,427,15586.442479
0.0,347,15599.149858
0.0,494,15620.292206
0.0,381,15637.578262
0.0,269,15649.355214
0.0,328,15663.991337
0.0,446,15682.507331
0.0,283,15692.870878
0.0,386,15710.731632
0.0,332,15724.780986
0.0,403,15743.824081
0.0,354,15758.747365
0.0,408,15774.875841
0.0,357,15788.930574
0.0,512,15812.420492
0.0,420,15832.947163
0.0,371,15848.379791
0.0,524,15869.926541
0.0,345,15885.377427
0.0,396,15903.004009
0.0,587,15930.763661
0.0,434,15947.119789
0.0,610,15974.326677
0.0,416,15993.612612
0.0,286,16005.572816
0.0,364,16021.388175
0.0,389,16035.618013
0.0,408,16052.899211
0.0,278,16065.799007
0.0,741,16101.007763
0.0,414,16116.998779
0.0,507,16137.34081
0.0,633,16166.477409
0.0,349,16182.985968
0.0,546,16205.491683
0.0,598,16232.125137
0.0,304,16247.062631
0.0,274,16259.39813
0.0,502,16280.68514
0.0,588,16304.950271
0.0,630,16335.527716
0.0,325,16351.212234
0.0,379,16367.613818
0.0,381,16382.960104
0.0,400,16400.354234
0.0,233,16410.337985
0.0,373,16426.99156
0.0,293,16439.3041
0.0,777,16470.229631
0.0,257,16480.57612
0.0,530,16502.598534
0.0,280,16515.489612
0.0,331,16531.342133
0.0,435,16549.655267
0.0,332,16562.137708
0.0,679,16593.180642
0.0,317,16607.442662
0.0,405,16625.194093
0.0,440,16642.503898
0.0,469,16662.899702
0.0,395,16680.306495
0.0,520,16705.023101
0.0,811,16737.374094
0.0,838,16774.978639
0.0,814,16809.07648
0.0,673,16837.784292
0.0,724,16871.614414
0.0,855,16906.25848
0.0,303,16918.46958
0.0,709,16951.84648
0.0,259,16963.373428
0.0,715,16994.390283
0.0,213,17002.860311
0.0,662,17033.5473
0.0,369,17050.183031
0.0,576,17073.317145
0.0,353,17088.285804
0.0,552,17114.26584
0.0,534,17139.65715
0.0,787,17169.55696
0.0,736,17202.920206
0.0,449,17224.577781
0.0,1901,17306.197529
0.0,1996,17393.008896
0.0,1344,17450.428486
0.0,1035,17495.293066
0.0,509,17514.717436
0.0,917,17556.975397
0.0,825,17590.714485
0.0,758,17623.513892
0.0,860,17663.186041
0.0,677,17688.628315
0.0,731,17721.729587
0.0,284,17734.381385
0.0,607,17759.729349
0.0,322,17771.446946
0.0,757,17804.619777
0.0,550,17829.322971
0.0,351,17844.845161
0.0,653,17870.348944
0.0,712,17901.649921
0.0,1134,17950.41292
0.0,389,17967.13767
0.0,584,17994.237521
0.0,550,18019.691161
0.0,477,18037.869478
0.0,1177,18088.654114
0.0,363,18105.568854
0.0,758,18134.03107
0.0,713,18166.512254
0.0,553,18191.09568
0.0,312,18203.207035
0.0,433,18220.073326
0.0,509,18242.21581
0.0,997,18287.814788
0.0,690,18314.949066
0.0,299,18328.375
0.0,359,18345.670426
0.0,655,18375.175456
0.0,314,18386.418937
0.0,464,18405.924065
0.0,373,18421.695636
0.0,442,18440.018327
0.0,424,18460.622901
0.0,446,18478.545186
0.0,243,18487.049828
0.0,222,18496.499274
0.0,303,18509.941941
0.0,615,18538.334516
0.0,342,18552.69629
0.0,539,18573.630804
0.0,581,18599.595103
0.0,543,18623.750022
0.0,612,18649.72357
0.0,914,18690.964344
0.0,330,18705.49591
0.0,282,18717.336106
0.0,457,18735.824039
0.0,415,18752.015433
0.0,420,18770.449219
0.0,513,18792.698465
0.0,599,18818.548344
0.0,418,18834.554807
0.0,380,18853.14062
0.0,312,18867.250152
0.0,451,18889.038583
0.0,339,18902.400113
0.0,672,18930.656303
0.0,368,18948.006092
0.0,421,18966.903774
0.0,260,18978.735912
0.0,286,18990.370861
0.0,563,19013.049942
0.0,476,19035.011539
0.0,1082,19083.907253
0.0,375,19098.362705
0.0,1208,19154.60196
0.0,565,19176.494851
0.0,524,19199.778255
0.0,455,19218.814986
0.0,583,19245.62285
0.0,510,19264.660327
0.0,776,19299.37197
0.0,570,19325.263331
0.0,467,19344.241768
0.0,336,19356.079545
0.0,816,19392.282242
0.0,1149,19441.114911
0.0,815,19476.41344
0.0,435,19495.435094
0.0,423,19513.471684
0.0,903,19550.168542
0.0,577,19575.402566
0.0,257,19587.290712
0.0,374,19603.29561
0.0,274,19613.841156
0.0,323,19626.337085
0.0,728,19660.974378
0.0,624,19688.816359
0.0,206,19696.225746
0.0,682,19723.194105
0.0,338,19738.128422
0.0,781,19773.069949
0.0,320,19785.833873
0.0,909,19825.010362
0.0,323,19840.662557
0.0,513,19862.871021
0.0,428,19878.874273
0.0,664,19904.987793
0.0,973,19950.890374
0.0,881,19986.136487
0.0,602,20013.559549
0.0,424,20034.262897
0.0,438,20052.828652
0.0,895,20091.526819
0.0,981,20135.064722
0.0,1127,20182.734579
0.0,442,20202.510897
0.0,690,20230.139608
0.0,578,20253.879545
0.0,604,20280.818595
0.0,593,20307.309412
0.0,2205,20403.322899
0.0,650,20431.349218
0.0,375,20447.746622
0.0,699,20481.030183
0.0,520,20501.143018
0.0,323,20515.116208
0.0,536,20538.178449
0.0,444,20558.626713
0.0,607,20582.822505
0.0,632,20610.57562
0.0,488,20633.427698
0.0,670,20662.24054
0.0,772,20696.919424
0.0,388,20713.6467
0.0,585,20738.87811
0.0,863,20775.197978
0.0,458,20794.706523
0.0,878,20834.243672
0.0,641,20859.66872
0.0,861,20898.929789
0.0,941,20936.853225
400.0,1207,20990.137962
0.0,569,21013.715292
0.0,626,21037.986863
0.0,686,21069.732291
0.0,224,21079.791166
0.0,255,21091.301291
0.0,570,21113.616554
0.0,328,21127.351797
0.0,294,21140.240548
0.0,310,21154.348843
0.0,1136,21204.846298
0.0,231,21214.706621
0.0,669,21244.060114
0.0,286,21256.761284
0.0,281,21268.055819
0.0,234,21276.96443
0.0,340,21290.458692
0.0,799,21328.621841
0.0,533,21354.057282
0.0,785,21388.787053
0.0,428,21406.822741
0.0,372,21423.607174
0.0,336,21438.061379
0.0,907,21475.468884
0.0,407,21494.854239
0.0,333,21512.078718
0.0,438,21530.697884
0.0,451,21546.323322
0.0,797,21584.08153
0.0,1280,21637.568497
0.0,388,21655.084328
0.0,603,21682.281875
0.0,625,21710.099178
0.0,490,21730.302537
0.0,903,21772.286232
0.0,508,21793.596299
0.0,378,21808.642683
0.0,551,21834.947461
0.0,320,21849.053721
0.0,272,21861.188689
0.0,664,21886.710681
0.0,288,21897.974626
0.0,490,21919.709017
0.0,642,21949.862675
0.0,418,21966.052943
0.0,956,22005.123244
0.0,678,22036.18595
0.0,208,22044.612513
0.0,1078,22089.72237
0.0,381,22106.666713
0.0,1059,22153.777945
0.0,476,22173.027589
0.0,432,22192.738974
0.0,788,22227.544733
0.0,375,22242.116532
0.0,1269,22299.571758
0.0,914,22336.569248
0.0,397,22353.54882
0.0,477,22374.274566
0.0,776,22407.701501
0.0,360,22421.680418
0.0,490,22442.654001
0.0,352,22457.890258
0.0,594,22484.771056
0.0,617,22509.454787
0.0,879,22549.773433
0.0,333,22564.103242
0.0,849,22599.585107
0.0,898,22641.921594
0.0,309,22656.527577
0.0,487,22676.931781
0.0,533,22700.773514
0.0,724,22732.804387
0.0,236,22742.776204
0.0,868,22778.858465
0.0,675,22810.274107
0.0,1398,22869.358927
0.0,683,22900.152186
0.0,734,22935.461252
0.0,669,22960.994733
0.0,840,23001.408354
0.0,370,23018.994924
0.0,711,23046.558411
0.0,1042,23093.320046
0.0,270,23106.483606
0.0,331,23119.321929
0.0,1225,23172.58272
0.0,462,23194.527452
0.0,1199,23243.374593
0.0,939,23285.711474
0.0,496,23305.199658
0.0,303,23316.978648
0.0,302,23330.161691
0.0,298,23344.333121
0.0,1684,23417.974702
0.0,540,23443.457394
0.0,1004,23486.219575
0.0,292,23498.6453
0.0,200,23507.370479
0.0,802,23546.13976
0.0,642,23572.247563
0.0,430,23591.277447
0.0,498,23615.01994
0.0,720,23647.822694
0.0,662,23674.671534
0.0,440,23694.12167
0.0,827,23731.234902
0.0,972,23775.521977
0.0,750,23810.733791
0.0,1041,23854.080255
0.0,404,23871.906209
0.0,437,23891.61183
0.0,522,23913.829137
0.0,833,23948.770371
0.0,215,23958.911196
0.0,457,23979.923625
0.0,323,23993.989981
0.0,876,24029.361532
0.0,489,24053.249087
0.0,606,24082.142541
0.0,970,24118.722275
0.0,1068,24157.167135
0.0,563,24177.121931
0.0,353,24189.772155
0.0,335,24202.356976
0.0,280,24212.001436
0.0,820,24243.049707
0.0,696,24269.99671
0.0,425,24285.823911
0.0,545,24306.145367
0.0,817,24337.140843
0.0,668,24362.133717
0.0,838,24392.944464
0.0,551,24412.933638
0.0,317,24424.559291
0.0,469,24441.61856
0.0,1523,24498.498206
0.0,292,24508.433963
0.0,600,24530.734275
0.0,817,24561.002032
0.0,750,24588.334011
0.0,355,24601.688877
0.0,1321,24651.927476
0.0,213,24659.66657
0.0,454,24676.257379
0.0,190,24682.830998
0.0,244,24691.376751
0.0,214,24698.586663
0.0,265,24708.499367
0.0,553,24729.177596
0.0,369,24741.547126
0.0,542,24762.062351
0.0,588,24784.178885
0.0,418,24799.308562
0.0,882,24833.510717
0.0,538,24854.191282
0.0,711,24879.642856
0.0,606,24902.599766
0.0,359,24915.958141
0.0,381,24929.66406
0.0,320,24942.379006
0.0,346,24955.050534
0.0,558,24976.005163
0.0,609,24998.994879
0.0,201,25005.910899
0.0,648,25029.330021
0.0,190,25036.884337
0.0,211,25044.42277
0.0,348,25057.11207
0.0,500,25076.768602
0.0,295,25087.796491
0.0,260,25097.229671
0.0,310,25107.846555
0.0,319,25119.5271
0.0,380,25134.203917
0.0,425,25150.059008
0.0,315,25161.928546
0.0,608,25184.417972
0.0,1368,25235.323295
0.0,439,25251.28476
0.0,366,25264.609481
0.0,212,25272.809665
0.0,537,25291.974433
0.0,236,25300.841754
0.0,358,25313.755981
0.0,266,25323.144499
0.0,347,25335.182908
0.0,722,25363.183223
0.0,452,25379.749316
0.0,541,25400.20915
0.0,414,25415.739783
0.0,798,25446.871104
0.0,997,25485.404009
0.0,285,25496.089978
0.0,417,25511.180691
0.0,1015,25548.744466
0.0,362,25562.610502
0.0,517,25581.176678
0.0,195,25588.098894
0.0,809,25617.791584
0.0,284,25628.26147
0.0,645,25650.527791
0.0,370,25664.660295
0.0,517,25684.063949
0.0,751,25713.138841
0.0,299,25724.312211
0.0,497,25742.630335
0.0,435,25758.684654
0.0,796,25789.282986
0.0,263,25799.062474
0.0,366,25812.130165
0.0,302,25822.816232
0.0,276,25833.258818
0.0,621,25856.395929
0.0,265,25865.699393
0.0,456,25882.779781
0.0,406,25897.809507
0.0,1276,25947.197248
0.0,469,25964.587268
0.0,187,25971.706866
0.0,665,25997.251318
0.0,874,26031.259627
0.0,222,26039.402899
0.0,414,26053.717961
0.0,408,26068.79087
0.0,262,26078.564053
0.0,611,26101.231982
0.0,886,26135.379506
0.0,842,26167.202186
0.0,512,26185.947811
0.0,716,26212.963488
0.0,314,26225.293956
0.0,669,26249.312773
0.0,954,26285.33832
0.0,1270,26333.666692
0.0,633,26357.537836
0.0,373,26370.024803
0.0,473,26389.186891
0.0,551,26407.431254
0.0,635,26431.427943
0.0,291,26441.443024
0.0,494,26460.004291
0.0,1167,26504.016859
0.0,1083,26544.693933
0.0,884,26577.937238
0.0,483,26595.183143
0.0,533,26615.578235
0.0,927,26650.430858
0.0,919,26683.822211
0.0,872,26717.021627
0.0,1170,26761.638391
0.0,293,26772.286437
0.0,698,26798.421495
0.0,861,26829.365545
0.0,347,26841.871151
0.0,399,26855.963138
0.0,330,26868.221573
0.0,694,26893.910407
0.0,568,26915.785955
0.0,264,26924.966837
0.0,403,26938.930113
0.0,421,26953.806261
0.0,440,26970.42918
0.0,554,26991.251792
0.0,357,27003.910269
0.0,834,27035.156296
0.0,918,27069.604667
0.0,420,27084.779804
0.0,929,27118.014596
0.0,335,27130.510787
0.0,675,27156.855941
0.0,352,27169.713948
0.0,691,27196.137944
0.0,661,27220.105926
0.0,681,27245.448893
0.0,973,27281.907949
0.0,633,27304.740005
0.0,592,27326.575914
0.0,407,27341.624942
0.0,823,27372.203112
0.0,242,27381.014446
0.0,635,27404.614988
0.0,744,27433.20409
0.0,904,27467.05645
0.0,672,27492.851477
0.0,332,27505.570032
0.0,374,27519.956899
0.0,312,27531.146549
0.0,750,27558.402124
0.0,353,27571.228333
0.0,460,27588.931399
0.0,1021,27627.509958
0.0,467,27644.389411
0.0,328,27656.508592
0.0,426,27671.066832
0.0,256,27679.75994
0.0,667,27704.509764
0.0,844,27736.548948
0.0,568,27758.568361
0.0,337,27771.226409
0.0,440,27787.939344
0.0,529,27807.676147
0.0,285,27818.341609
0.0,505,27837.4823
0.0,470,27854.020487
0.0,398,27868.318413
0.0,269,27877.898209
0.0,419,27893.318282
0.0,361,27906.058744
0.0,621,27929.930882
0.0,427,27944.125824
0.0,355,27957.375498
0.0,367,27970.884387
0.0,965,28006.887386
0.0,363,28019.495696
0.0,425,28033.335203
0.0,594,28055.748035
0.0,1478,28111.207408
0.0,777,28140.33896
0.0,555,28160.920668
0.0,564,28182.706616
0.0,303,28193.714034
0.0,655,28217.736483
0.0,344,28230.643828
0.0,970,28267.028245
0.0,750,28295.665775
0.0,224,28304.215462
0.0,639,28328.381757
0.0,229,28336.580741
0.0,903,28370.574001
0.0,381,28383.299281
0.0,651,28406.760377
0.0,343,28419.494323
0.0,179,28425.080763
0.0,450,28441.789952
0.0,637,28465.538552
0.0,408,28481.038173
0.0,612,28504.179034
0.0,992,28542.771451
0.0,479,28560.50198
0.0,320,28572.349052
0.0,888,28604.535376
0.0,462,28621.722555
0.0,424,28637.292565
0.0,344,28649.677296
0.0,324,28662.074831
0.0,703,28688.723494
0.0,449,28706.086991
0.0,635,28729.053639
0.0,849,28760.442513
0.0,380,28775.28416
0.0,600,28797.347145
0.0,605,28820.637528
0.0,358,28833.908688
0.0,1095,28874.96013
0.0,746,28903.149978
0.0,637,28926.842591
0.0,333,28939.053446
0.0,382,28953.659981
0.0,975,28990.150355
0.0,971,29028.405922
0.0,216,29036.023358
0.0,746,29063.129533
0.0,1177,29107.470594
0.0,446,29123.477558
0.0,630,29146.367024
0.0,322,29158.080143
0.0,251,29166.793315
0.0,329,29179.007249
0.0,258,29188.288027
0.0,213,29195.99663
0.0,310,29207.914216
0.0,607,29229.931253
0.0,371,29243.898164
0.0,606,29265.335381
0.0,1170,29308.879391
0.0,180,29315.606158
0.0,228,29323.566696
0.0,818,29353.765081
0.0,570,29374.842598
0.0,848,29405.974165
0.0,555,29424.697995
0.0,433,29440.819654
0.0,516,29460.448792
0.0,421,29475.086655
0.0,384,29488.75891
0.0,528,29508.62785
0.0,448,29524.491341
0.0,527,29544.469149
0.0,490,29561.970454
0.0,570,29583.826545
0.0,691,29609.912636
0.0,1178,29654.885951
0.0,384,29669.316511
0.0,386,29683.376868
0.0,399,29697.627656
0.0,510,29716.682356
0.0,957,29752.209687
0.0,583,29773.617962
0.0,454,29790.231497
0.0,853,29821.102595
0.0,612,29843.741134
0.0,1057,29883.875614
0.0,266,29893.777125
0.0,247,29901.821158
0.0,687,29927.459088
0.0,391,29942.020953
0.0,353,29954.626249
0.0,773,29982.539163
0.0,415,29997.265547
0.0,474,30014.82506
0.0,290,30024.234974
0.0,594,30045.975302
0.0,367,30060.178674
0.0,584,30082.402589
0.0,610,30105.191156
0.0,571,30125.673943
0.0,250,30134.783268
0.0,400,30149.105586
0.0,489,30167.08806
0.0,275,30176.354826
0.0,472,30194.435018
0.0,1076,30234.342135
0.0,824,30265.403911
0.0,559,30286.426726
0.0,389,30301.668414
0.0,571,30322.025633
0.0,589,30343.488322
0.0,739,30371.672767
0.0,332,30383.830377
0.0,1348,30433.391105
0.0,515,30453.781604
0.0,453,30470.63881
0.0,1266,30517.619249
0.0,625,30541.128902
0.0,500,30560.03941
0.0,573,30581.084754
0.0,434,30597.791235
0.0,613,30622.609415
0.0,686,30648.905413
0.0,430,30664.061068
0.0,1142,30709.415657
0.0,916,30744.400093
0.0,227,30752.530002
0.0,195,30759.562715
0.0,448,30776.77183
0.0,765,30804.768413
0.0,641,30827.696536
0.0,891,30860.957952
0.0,677,30886.190997
0.0,408,30900.708211
0.0,785,30929.914117
0.0,1412,30983.339647
0.0,683,31009.547593
0.0,586,31031.469678
0.0,387,31045.610817
0.0,874,31079.333241
0.0,692,31104.070299
0.0,503,31123.122124
0.0,818,31153.369466
0.0,522,31173.143349
0.0,544,31192.6802
0.0,561,31213.977598
0.0,1014,31251.477746
0.0,262,31261.26057
0.0,376,31275.58422
0.0,583,31297.242987
0.0,466,31313.960094
0.0,356,31327.901538
0.0,459,31343.8013
0.0,513,31362.381808
0.0,404,31376.665313
0.0,590,31398.668235
0.0,539,31418.598453
0.0,312,31429.778264
0.0,686,31455.508198
0.0,291,31466.111666
0.0,785,31495.260913
0.0,698,31521.893805
0.0,358,31535.012042
0.0,363,31548.494403
0.0,444,31564.787172
0.0,316,31576.726837
0.0,665,31601.501784
0.0,484,31619.204036
0.0,425,31634.957798
0.0,1073,31673.158134
0.0,1316,31723.287534
0.0,396,31736.900445
0.0,443,31753.485727
0.0,635,31778.669847
0.0,721,31805.120462
0.0,630,31827.46159
0.0,646,31850.984064
0.0,536,31871.358153
0.0,637,31895.948209
0.0,324,31908.257241
0.0,1271,31957.583431
0.0,208,31965.478296
0.0,236,31975.003322
0.0,622,31998.766905
0.0,740,32026.902987
0.0,913,32061.694635
0.0,563,32081.859035
0.0,317,32093.955442
0.0,210,32102.146676
0.0,858,32135.990886
0.0,708,32162.306042
0.0,546,32183.684036
0.0,477,32202.125516
0.0,585,32224.765288
0.0,620,32248.495748
0.0,956,32285.799395
0.0,622,32309.846852
0.0,1033,32350.38709
0.0,643,32373.891712
0.0,286,32383.912227
0.0,885,32417.034014
0.0,366,32430.060603
0.0,607,32453.162585
0.0,289,32463.535394
0.0,752,32492.625767
0.0,306,32503.465705
0.0,296,32514.297918
0.0,564,32535.733378
0.0,351,32548.716223
0.0,450,32565.713625
0.0,516,32586.038105
0.0,1320,32637.608014
0.0,608,32660.137139
0.0,867,32693.000098
0.0,546,32714.38261
0.0,563,32735.093731
0.0,699,32761.300393
0.0,383,32776.283312
0.0,493,32794.223836
0.0,607,32816.318991
0.0,545,32836.778245
0.0,400,32851.822379
0.0,340,32864.64508
0.0,1230,32911.528556
0.0,605,32934.231302
0.0,352,32947.975037
0.0,513,32967.224397
0.0,601,32990.00497
0.0,631,33014.090593
0.0,1050,33054.692201
0.0,734,33082.598765
0.0,769,33111.610228
0.0,257,33121.538596
0.0,526,33142.149737
0.0,653,33166.546275
0.0,368,33180.039518
0.0,334,33192.254558
0.0,590,33214.431121
0.0,583,33235.202867
0.0,296,33246.731039
0.0,261,33256.266437
0.0,335,33269.71184
0.0,344,33282.138875
0.0,299,33293.65306
0.0,311,33305.280082
0.0,1253,33353.50596
0.0,245,33362.461771
0.0,259,33372.349098
0.0,3345,33502.397566
0.0,287,33512.467289
0.0,797,33542.862263
0.0,451,33559.775011
0.0,367,33573.331619
0.0,1067,33613.712886
0.0,292,33624.845995
0.0,342,33637.480258
0.0,476,33656.317722
0.0,684,33682.23287
0.0,885,33715.347622
0.0,796,33745.427383
0.0,1377,33797.563761
0.0,247,33807.035387
0.0,864,33841.452639
0.0,529,33861.701959
0.0,483,33879.732478
0.0,528,33898.819198
0.0,845,33931.396738
0.0,481,33948.972696
0.0,515,33967.686649
0.0,567,33990.537567
0.0,344,34003.727816
0.0,342,34016.766726
0.0,627,34040.525831
0.0,1012,34080.583637
0.0,1730,34149.364664
0.0,678,34175.917249
0.0,466,34193.475976
0.0,867,34228.046606
0.0,394,34243.36008
0.0,324,34255.606586
0.0,710,34282.691143
0.0,271,34293.188725
0.0,467,34311.909812
0.0,487,34331.074188
0.0,417,34346.55565
0.0,381,34361.270124
0.0,388,34375.983123
0.0,367,34390.677776
0.0,347,34402.899201
0.0,350,34416.986678
0.0,1083,34458.637614
0.0,496,34476.889674
0.0,676,34502.822634
0.0,298,34513.212712
0.0,618,34535.848228
0.0,511,34555.372706
0.0,532,34576.138976
0.0,874,34611.440742
0.0,406,34626.85607
0.0,769,34656.248675
0.0,240,34665.680235
0.0,590,34687.875285
0.0,583,34709.711301
0.0,583,34732.877186
0.0,467,34751.42294
0.0,269,34762.164525
0.0,562,34783.71392
0.0,776,34812.576102
0.0,679,34838.12492
0.0,485,34855.974691
0.0,364,34870.266892
0.0,502,34889.261816
0.0,688,34914.79623
0.0,714,34942.549876
0.0,930,34977.379249
0.0,771,35006.734328
0.0,254,35015.924667
0.0,567,35037.413962
0.0,559,35058.902984
0.0,682,35085.285557
0.0,1445,35141.21664
0.0,329,35152.90963
0.0,544,35173.205436
0.0,603,35197.28272
0.0,1193,35245.512531
0.0,301,35256.793095
0.0,300,35267.946985
0.0,495,35287.176666
0.0,491,35306.067761
0.0,577,35328.527312
0.0,745,35357.209086
0.0,1151,35399.966275
0.0,1166,35444.570481
0.0,745,35474.48211
0.0,523,35494.843764
0.0,566,35516.776952
0.0,794,35548.190331
0.0,440,35564.428731
0.0,770,35594.990412
0.0,209,35602.376086
0.0,984,35641.15552
0.0,360,35654.527221
0.0,526,35673.968274
0.0,367,35687.656485
0.0,201,35694.888767
0.0,643,35719.254281
0.0,537,35739.633176
0.0,734,35766.274229
0.0,530,35785.980926
0.0,1011,35824.143637
0.0,712,35852.089479
0.0,1556,35913.127438
0.0,1036,35952.474668
0.0,465,35969.067502
0.0,676,35994.578376
0.0,572,36016.839849
0.0,670,36041.832365
0.0,1207,36087.102309
0.0,828,36119.124787
0.0,300,36129.761683
0.0,522,36149.275004
0.0,609,36171.974252
0.0,654,36198.248455
0.0,612,36223.238263
0.0,412,36239.670104
0.0,572,36260.972849
0.0,356,36274.901704
0.0,783,36303.822195
0.0,180,36310.178044
0.0,373,36324.272697
0.0,356,36336.790578
0.0,912,36373.270738
0.0,490,36391.598139
0.0,797,36423.091875
0.0,409,36438.672973
0.0,751,36466.482007
0.0,239,36475.650584
0.0,598,36498.609944
0.0,663,36523.994509
0.0,301,36534.933949
0.0,607,36558.564721
0.0,1359,36610.875162
0.0,250,36620.594774
0.0,424,36636.299719
0.0,890,36671.344291
0.0,867,36705.72897
0.0,734,36734.687027
0.0,626,36758.384985
0.0,513,36777.147551
0.0,661,36802.693164
0.0,1145,36846.817794
0.0,406,36861.224485
0.0,264,36870.667372
0.0,362,36884.589151
0.0,471,36903.827363
0.0,291,36914.848815
0.0,775,36944.211
0.0,703,36970.605854
0.0,728,36998.711359
0.0,523,37018.375421
0.0,276,37028.462862
0.0,741,37056.781986
0.0,656,37081.438568
0.0,230,37089.427003
0.0,555,37109.351747
0.0,695,37135.428123
0.0,231,37144.426764
0.0,414,37160.193461
0.0,717,37186.723636
0.0,584,37209.230428
0.0,414,37225.331048
0.0,603,37248.593143
0.0,876,37280.660612
0.0,378,37294.33582
0.0,805,37324.582691
0.0,745,37353.447384
0.0,353,37367.133061
0.0,631,37391.145975
0.0,884,37423.769079
0.0,872,37457.236364
0.0,808,37489.092449
0.0,448,37506.218359
0.0,472,37523.63201
0.0,821,37555.243222
0.0,893,37590.888449
0.0,1066,37631.975248
0.0,571,37653.263589
0.0,249,37662.602721
0.0,342,37675.108564
0.0,651,37697.909938
0.0,623,37720.851252
0.0,612,37742.813266
0.0,1150,37787.769781
0.0,537,37808.403311
0.0,259,37818.22914
0.0,846,37849.920149
0.0,660,37874.006254
0.0,735,37901.377709
0.0,951,37937.638377
0.0,356,37950.521224
0.0,571,37971.275229
0.0,732,37997.702758
0.0,364,38011.072161
0.0,637,38033.649758
0.0,447,38050.035111
0.0,685,38075.141568
0.0,406,38088.770843
0.0,247,38097.364166
0.0,511,38117.400887
0.0,410,38132.862445
0.0,726,38159.584308
0.0,458,38176.721685
0.0,194,38183.84273
0.0,603,38206.270529
0.0,1099,38247.909296
0.0,209,38255.216587
0.0,555,38275.358024
0.0,405,38290.642524
0.0,225,38298.54551
0.0,712,38324.962168
0.0,892,38359.639318
0.0,936,38394.176149
0.0,467,38412.412622
0.0,390,38428.297343
0.0,816,38458.533262
0.0,337,38470.743891
0.0,352,38484.798345
0.0,205,38491.622467
0.0,245,38500.070186
0.0,663,38523.988369
0.0,268,38532.532548
0.0,1509,38590.310526
0.0,345,38603.172316
0.0,442,38618.896781
0.0,245,38628.438281
0.0,406,38644.652551
0.0,928,38679.78343
0.0,399,38694.241812
0.0,660,38717.755304
0.0,332,38729.738986
0.0,902,38765.286804
0.0,586,38787.050984
0.0,496,38805.762571
0.0,448,38822.950311
0.0,509,38842.448824
0.0,607,38865.354032
0.0,373,38879.381047
0.0,1213,38924.707349
0.0,429,38940.247331
0.0,687,38965.198331
0.0,284,38975.29909
0.0,390,38989.856099
0.0,651,39014.554605
0.0,1241,39060.738856
0.0,322,39072.213001
0.0,768,39101.657843
0.0,660,39126.758832
0.0,510,39144.354532
0.0,372,39157.808301
0.0,596,39180.780693
0.0,435,39196.62511
0.0,432,39212.398604
0.0,442,39229.139408
0.0,569,39250.406562
0.0,485,39268.6747
0.0,218,39275.775807
0.0,679,39299.920396
0.0,438,39316.273734
0.0,475,39333.335179
0.0,307,39344.62023
0.0,523,39364.239472
0.0,364,39377.512665
0.0,631,39400.702409
0.0,476,39417.993561
0.0,601,39440.788934
0.0,303,39451.60393
0.0,319,39463.008015
0.0,180,39469.566111
0.0,292,39480.239084
0.0,241,39489.184828
0.0,394,39503.346336
0.0,900,39537.629054
0.0,582,39559.863648
0.0,464,39577.977923
0.0,535,39598.009737
0.0,252,39606.242851
0.0,420,39622.26263
0.0,391,39637.132449
0.0,770,39666.245081
0.0,338,39679.115849
0.0,880,39711.171649
0.0,525,39731.043257
0.0,536,39752.260809
0.0,441,39767.784771
0.0,351,39780.226177
0.0,800,39810.659947
0.0,400,39825.782925
0.0,960,39861.183883
0.0,575,39883.127785
0.0,564,39904.450891
0.0,476,39920.891391
0.0,544,39941.473939
0.0,641,39966.234889
0.0,264,39976.024395
0.0,354,39988.631882
0.0,1029,40027.397104
0.0,459,40043.758498
0.0,428,40058.286463
0.0,655,40082.678543
0.0,947,40115.737741
0.0,524,40135.105621
0.0,469,40152.3746
0.0,638,40175.942225
0.0,924,40211.289512
0.0,258,40220.676181
0.0,1058,40260.281053
0.0,1228,40306.244864
0.0,838,40336.913576
0.0,432,40352.564414
0.0,630,40376.448884
0.0,730,40404.765386
0.0,405,40419.06674
0.0,428,40435.538778
0.0,493,40454.613509
0.0,573,40475.325113
0.0,708,40501.738303
0.0,302,40512.874326
0.0,372,40526.540584
0.0,1368,40579.701255
0.0,219,40587.587679
0.0,738,40615.774449
0.0,872,40649.434252
0.0,686,40675.475168
0.0,715,40702.252751
0.0,849,40733.914732
0.0,541,40753.487352
0.0,324,40764.247016
0.0,1508,40822.483731
0.0,472,40839.116185
0.0,857,40870.977979
0.0,496,40889.745073
0.0,525,40908.280236
0.0,1626,40969.651253
0.0,662,40993.523344
0.0,623,41016.98707
0.0,334,41028.962531
0.0,697,41056.374671
0.0,754,41084.449775
0.0,561,41104.735812
0.0,914,41139.070272
0.0,1621,41200.851252
0.0,628,41224.363
0.0,322,41236.45774
0.0,511,41255.79694
0.0,525,41275.961575
0.0,252,41284.666578
0.0,346,41297.214354
0.0,248,41306.194881
0.0,212,41313.130139
0.0,346,41326.145952
0.0,381,41340.0267
0.0,385,41354.376626
0.0,490,41371.670116
0.0,627,41395.361729
0.0,468,41412.194365
0.0,359,41424.233324
0.0,578,41445.126231
0.0,1000,41482.23949
0.0,274,41492.269406
0.0,512,41511.368198
0.0,450,41528.055839
0.0,332,41539.957941
0.0,1016,41578.859039
0.0,678,41603.809224
0.0,425,41619.59727
0.0,459,41637.26401
0.0,766,41665.326699
0.0,495,41684.23423
0.0,849,41716.982753
0.0,796,41746.770921
0.0,737,41774.813432
0.0,535,41795.214809
0.0,323,41807.412977
0.0,657,41830.226923
0.0,752,41857.152251
0.0,1211,41903.735081
0.0,1069,41942.622795
0.0,479,41960.984966
0.0,714,41988.294178
0.0,384,42001.893633
0.0,320,42013.25299
0.0,474,42031.967267
0.0,1663,42092.857896
0.0,653,42118.06735
0.0,476,42135.93168
0.0,306,42146.778752
0.0,468,42163.576895
0.0,365,42176.634132
0.0,556,42196.743068
0.0,217,42204.480947
0.0,774,42233.546298
0.0,341,42245.254837
0.0,294,42255.89992
0.0,1139,42299.05058
0.0,344,42311.630918
0.0,676,42336.367413
0.0,791,42365.473001
0.0,919,42401.157408
0.0,386,42415.597639
0.0,270,42425.471007
0.0,780,42454.906278
0.0,909,42487.675724
0.0,733,42513.149164
0.0,652,42537.269652
0.0,671,42561.62711
0.0,789,42590.719303
0.0,408,42604.912344
0.0,482,42622.16229
0.0,675,42646.817393
0.0,280,42657.031405
0.0,921,42691.384214
0.0,449,42706.675542
0.0,2131,42784.551956
0.0,372,42797.629574
0.0,1701,42862.318357
0.0,692,42887.875675
0.0,1069,42928.686738
0.0,388,42943.067608
0.0,1246,42988.804279
0.0,287,42998.546636
0.0,254,43007.859864
0.0,714,43033.43818
0.0,336,43046.031328
0.0,326,43056.919326
0.0,501,43074.91001
0.0,494,43092.506251
0.0,901,43124.036072
0.0,334,43136.053961
0.0,895,43169.200776
0.0,383,43182.946252
0.0,452,43198.420762
0.0,454,43215.016315
0.0,442,43230.519132
0.0,237,43238.778722
0.0,660,43263.122652
0.0,728,43289.462245
0.0,933,43323.717416
0.0,273,43333.197994
0.0,283,43342.943214
0.0,499,43361.397847
0.0,452,43377.598026
0.0,443,43392.65896
0.0,247,43401.676291
0.0,609,43423.101229
0.0,307,43433.98572
0.0,435,43450.07744
0.0,371,43463.595949
0.0,317,43474.63079
0.0,601,43496.031015
0.0,581,43515.899224
0.0,295,43526.08408
0.0,592,43547.767161
0.0,553,43567.045674
0.0,473,43583.530887
0.0,609,43604.386037
0.0,329,43616.007338
0.0,460,43632.59246
0.0,372,43646.30067
0.0,1071,43685.914402
0.0,950,43720.718234
0.0,712,43746.759352
0.0,222,43754.476002
0.0,386,43768.376671
0.0,377,43781.703425
0.0,529,43799.787266
0.0,691,43824.223977
0.0,590,43846.045181
0.0,607,43867.744173
0.0,672,43891.442103
0.0,387,43905.911579
0.0,580,43928.163275
0.0,349,43940.458423
0.0,780,43968.562769
0.0,773,43997.553559
0.0,1385,44048.540359
0.0,621,44071.038968
0.0,578,44091.708623
0.0,409,44105.77275
0.0,673,44130.617419
0.0,672,44154.520044
0.0,556,44174.836706
0.0,680,44198.874004
0.0,849,44229.338116
0.0,252,44238.048147
0.0,408,44252.575573
0.0,293,44262.947573
0.0,661,44287.107827
0.0,830,44316.999731
0.0,314,44328.517078
0.0,520,44346.972875
0.0,550,44366.735776
0.0,576,44388.380373
0.0,350,44400.706127
0.0,463,44417.796162
0.0,401,44432.329785
0.0,249,44440.863183
0.0,211,44448.371239
0.0,454,44463.523961
0.0,942,44498.112588
0.0,534,44516.788295
0.0,764,44544.258731
0.0,440,44560.059556
0.0,377,44572.898677
0.0,771,44602.073607
0.0,790,44630.805214
0.0,365,44642.996673
0.0,322,44655.099001
0.0,565,44675.236707
0.0,267,44684.045913
0.0,708,44708.590297
0.0,762,44736.256546
0.0,601,44758.755074
0.0,606,44780.601964
0.0,942,44815.371398
0.0,795,44843.578528
0.0,910,44876.46198
0.0,303,44886.781079
0.0,475,44904.13112
0.0,366,44917.607709
0.0,238,44925.815623
0.0,455,44941.95424
0.0,368,44954.91886
0.0,351,44967.835261
0.0,417,44982.555734
0.0,572,45003.039318
0.0,464,45020.135989
0.0,503,45036.821459
0.0,191,45043.916682
0.0,691,45068.845428
0.0,781,45097.662393
0.0,357,45110.423229
0.0,298,45120.754669
0.0,351,45132.445973
0.0,418,45148.033965
0.0,381,45161.051192
0.0,871,45192.285459
0.0,1098,45234.214079
0.0,326,45245.68209
0.0,253,45254.656594
0.0,327,45266.156395
0.0,491,45283.794005
0.0,481,45301.136291
0.0,301,45311.335285
0.0,1180,45356.314027
0.0,342,45367.406189
0.0,1409,45419.517722
0.0,556,45440.577561
0.0,480,45457.563876
0.0,470,45474.203088
0.0,327,45486.119867
0.0,437,45501.908357
0.0,331,45514.124314
0.0,1122,45554.631319
0.0,224,45561.900111
0.0,534,45581.192679
0.0,420,45596.765476
0.0,488,45614.436294
0.0,581,45634.871247
0.0,411,45649.746224
0.0,621,45673.254287
0.0,304,45684.113196
0.0,574,45705.725989
0.0,905,45738.337543
0.0,759,45766.236772
0.0,479,45784.183839
0.0,351,45796.361006
0.0,309,45806.859583
0.0,581,45827.8055
0.0,327,45839.797647
0.0,801,45869.34561
0.0,399,45883.086056
0.0,609,45904.475939
0.0,319,45915.477411
0.0,360,45928.11884
0.0,438,45943.807406
0.0,1030,45981.725585
0.0,743,46007.760804
0.0,579,46029.107706
0.0,822,46059.999141
0.0,338,46071.876052
0.0,1308,46118.96359
0.0,726,46144.704544
0.0,742,46171.366019
0.0,393,46184.358277
0.0,282,46194.021974
0.0,400,46208.546047
0.0,810,46238.522575
0.0,1599,46297.974871
0.0,451,46314.486369
0.0,363,46326.315818
0.0,666,46350.939831
0.0,601,46372.644993
0.0,256,46381.836919
0.0,612,46404.294319
0.0,624,46426.567525
0.0,356,46438.718081
0.0,458,46455.427351
0.0,987,46493.061274
0.0,544,46513.362955
0.0,708,46539.99077
0.0,271,46548.98728
0.0,485,46565.506283
0.0,387,46579.546323
0.0,1036,46616.981254
0.0,448,46632.345655
0.0,388,46646.402105
0.0,232,46654.474364
0.0,619,46678.263653
0.0,525,46697.964862
0.0,861,46728.856281
0.0,449,46746.421883
0.0,291,46756.857974
0.0,444,46772.039505
0.0,390,46785.518867
0.0,887,46816.572263
0.0,676,46841.743237
0.0,898,46875.173687
0.0,325,46886.447034
0.0,584,46907.675752
0.0,449,46924.2698
0.0,474,46941.454495
0.0,938,46975.656832
0.0,552,46995.880256
0.0,361,47008.401814
0.0,507,47026.075389
0.0,1409,47078.873568
0.0,1265,47124.551468
0.0,591,47145.435521
0.0,1924,47216.225372
0.0,488,47234.042032
0.0,1860,47303.062227
0.0,1530,47358.554249
0.0,609,47379.924389
0.0,1911,47448.3846
0.0,716,47473.743743
0.0,1133,47514.479735
0.0,823,47543.787218
0.0,765,47572.164559
0.0,771,47599.3011
0.0,1077,47638.967803
0.0,832,47669.432354
0.0,1205,47714.221543
0.0,586,47734.261861
0.0,481,47751.567909
0.0,247,47760.019559
0.0,3293,47880.17831
0.0,826,47911.564339
0.0,1017,47948.923898
0.0,567,47968.611498
0.0,590,47990.182728
0.0,501,48008.17798
0.0,773,48036.060456
0.0,919,48069.657061
0.0,1049,48107.378721
0.0,418,48121.226342
0.0,625,48142.435471
0.0,1333,48192.050004
0.0,707,48217.815979
0.0,288,48227.383776
0.0,385,48241.933238
0.0,389,48255.764844
0.0,1069,48295.034668
0.0,866,48325.566551
0.0,876,48357.232905
0.0,828,48388.423084
0.0,374,48401.752588
0.0,525,48420.617783
0.0,389,48434.196679
0.0,592,48455.453103
0.0,898,48488.65423
0.0,1266,48533.458234
0.0,346,48545.99328
0.0,376,48558.982326
0.0,566,48579.458215
0.0,366,48592.406616
0.0,383,48606.727799
0.0,225,48614.302913
0.0,785,48641.584577
0.0,335,48653.881309
0.0,1095,48692.79456
0.0,274,48702.486439
0.0,385,48716.445559
0.0,999,48752.667913
0.0,567,48772.910666
0.0,603,48794.118308
0.0,698,48818.013577
0.0,1038,48856.142266
0.0,624,48878.257226
0.0,1149,48920.949383
0.0,261,48930.102267
0.0,736,48956.879561
0.0,1206,49001.380841
0.0,747,49027.667503
0.0,690,49052.091025
0.0,334,49064.766438
0.0,661,49088.522367
0.0,1567,49146.66443
0.0,714,49172.228524
0.0,669,49197.086863
0.0,615,49219.856791
0.0,1826,49288.21516
0.0,1499,49344.382878
0.0,661,49369.127808
0.0,637,49392.719568
0.0,935,49425.887731
0.0,1093,49465.381934
0.0,22332,50285.818272
0.0,1731,50349.08903
0.0,1567,50406.158715
0.0,823,50435.239155
0.0,924,50466.472298
0.0,469,50482.916554
0.0,1073,50520.866894
0.0,1050,50559.539907
0.0,1363,50608.886853
0.0,830,50639.411498
0.0,649,50663.271726
0.0,533,50684.124083
0.0,483,50701.617255
0.0,551,50721.183731
0.0,583,50741.916927
0.0,510,50760.277801
0.0,679,50785.066278
0.0,728,50811.724949
0.0,596,50833.002234
0.0,342,50845.965784
0.0,383,50859.052099
0.0,793,50887.972529
0.0,404,50902.580292
0.0,401,50916.851082
0.0,994,50953.606672
0.0,280,50963.320392
0.0,480,50979.821935
0.0,381,50994.465307
0.0,644,51018.930205
0.0,339,51031.071921
0.0,495,51048.755766
0.0,401,51063.4433
0.0,502,51081.644994
0.0,428,51096.449892
0.0,714,51123.713975
0.0,356,51136.380788
0.0,613,51158.484564
0.0,588,51179.70314
0.0,519,51198.326312
0.0,725,51224.44889
0.0,305,51234.480106
0.0,326,51246.100734
0.0,907,51279.293638
0.0,1000,51315.783501
0.0,488,51333.003426
0.0,464,51350.175204
0.0,445,51365.931093
0.0,1482,51418.719695
0.0,1681,51482.176424
0.0,519,51501.355231
0.0,1283,51551.855204
0.0,273,51561.453484
0.0,1111,51604.228009
0.0,1736,51671.511287
0.0,636,51695.438922
0.0,823,51727.191406
0.0,605,51749.590534
0.0,647,51775.287998
0.0,836,51806.972087
0.0,194,51813.227182
0.0,628,51835.945556
0.0,460,51852.586572
0.0,410,51868.328688
0.0,299,51878.863932
0.0,220,51886.714241
0.0,1011,51924.488019
0.0,1039,51962.197752
0.0,881,51994.874456
0.0,712,52020.709132
0.0,1078,52061.102046
0.0,565,52083.150032
0.0,1115,52125.612309
0.0,307,52137.893644
0.0,868,52170.55635
0.0,661,52194.499462
0.0,307,52205.293369
0.0,252,52214.880906
0.0,768,52243.895318
0.0,1286,52293.456725
0.0,605,52316.571797
0.0,575,52337.238591
0.0,697,52363.855266
0.0,461,52380.788781
0.0,225,52389.070024
0.0,433,52406.570913
0.0,355,52419.552525
0.0,707,52444.259642
0.0,698,52470.355944
0.0,688,52494.88966
0.0,778,52522.518741
0.0,366,52536.303631
0.0,840,52567.655012
0.0,420,52583.376254
0.0,352,52595.814255
0.0,547,52617.299784
0.0,548,52637.634014
0.0,302,52648.935374
0.0,435,52664.505685
0.0,373,52678.466261
0.0,580,52700.36376
0.0,451,52718.003222
0.0,231,52725.443073
0.0,298,52735.949862
0.0,435,52752.395826
0.0,530,52771.396655
0.0,671,52797.051436
0.0,333,52809.201399
0.0,684,52836.545938
0.0,308,52847.638223
0.0,335,52859.690131
0.0,258,52868.981133
0.0,261,52878.716396
0.0,347,52892.462565
0.0,317,52903.500808
0.0,488,52922.704624
0.0,414,52937.785915
0.0,266,52947.83307
0.0,254,52957.092674
0.0,406,52972.142357
0.0,331,52984.097738
0.0,374,52998.56404
0.0,282,53009.051252
0.0,253,53018.194892
0.0,582,53040.186049
0.0,293,53050.845685
0.0,556,53072.415878
0.0,395,53087.041889
0.0,205,53094.356044
0.0,245,53102.851942
0.0,396,53117.876592
0.0,594,53140.286538
0.0,357,53153.43574
0.0,575,53174.82095
0.0,288,53184.925617
0.0,433,53202.08537
0.0,447,53218.756997
0.0,484,53237.085342
0.0,336,53249.794151
0.0,466,53267.408481
0.0,419,53283.025246
0.0,322,53294.384492
0.0,627,53318.411672
0.0,689,53344.792604
0.0,899,53378.787398
0.0,271,53388.761504
0.0,737,53416.450836
0.0,303,53427.588042
0.0,341,53439.953396
0.0,769,53468.730736
0.0,1106,53510.486154
0.0,753,53538.74002
0.0,880,53570.94003
0.0,521,53591.019799
0.0,249,53599.638983
0.0,344,53612.243799
0.0,432,53628.286206
0.0,275,53639.047344
0.0,339,53651.574334
0.0,211,53658.983335
0.0,462,53676.742216
0.0,336,53688.004758
0.0,881,53720.65258
0.0,398,53734.823665
0.0,330,53746.518799
0.0,449,53763.043086
0.0,582,53784.304884
0.0,573,53806.393972
0.0,776,53835.856331
0.0,541,53856.418904
0.0,205,53863.629977
0.0,797,53892.467741
0.0,565,53913.906049
0.0,335,53926.475421
0.0,379,53940.554825
0.0,537,53960.17527
0.0,614,53983.175104
0.0,535,54002.950721
0.0,342,54015.371753
0.0,313,54026.989927
0.0,1164,54069.981676
0.0,570,54091.54379
0.0,1108,54132.453247
0.0,570,54153.689384
0.0,760,54182.331213
0.0,531,54203.059317
0.0,567,54224.638962
0.0,446,54241.677402
0.0,655,54264.823575
0.0,373,54277.297848
0.0,440,54295.061976
0.0,467,54312.32759
0.0,439,54328.718578
0.0,745,54355.300589
0.0,388,54370.637933
0.0,586,54392.220196
0.0,559,54413.395455
0.0,274,54423.357725
0.0,637,54446.9845
0.0,853,54479.899179
0.0,646,54504.486562
0.0,379,54518.17668
0.0,661,54543.51287
0.0,318,54555.210865
0.0,281,54565.422703
0.0,651,54589.292659
0.0,499,54607.311286
0.0,298,54617.909955
0.0,766,54645.874488
0.0,450,54662.52846
0.0,865,54694.344737
0.0,520,54712.92069
0.0,391,54727.835826
0.0,749,54755.722224
0.0,524,54774.963629
0.0,636,54798.742788
0.0,717,54825.357651
0.0,379,54840.197629
0.0,264,54850.019728
0.0,292,54860.210965
0.0,621,54883.663045
0.0,378,54897.369109
0.0,1147,54941.334424
0.0,239,54950.217906
0.0,325,54961.767118
0.0,1156,55005.324075
0.0,340,55017.565159
0.0,282,55027.307436
0.0,631,55050.260665
0.0,430,55065.655173
0.0,604,55087.380488
0.0,848,55119.031408
0.0,467,55135.895966
0.0,257,55144.937769
0.0,420,55160.267371
0.0,296,55171.393455
0.0,921,55205.484928
0.0,510,55224.408965
0.0,914,55258.786018
0.0,652,55283.492297
0.0,314,55295.216542
0.0,628,55318.294268
0.0,337,55330.87227
0.0,637,55353.921037
0.0,678,55378.149369
0.0,610,55400.425088
0.0,527,55420.776924
0.0,585,55440.537045
0.0,625,55463.099584
0.0,992,55500.409068
0.0,524,55519.926025
0.0,224,55527.623963
0.0,1071,55568.50496
0.0,276,55579.872342
0.0,385,55593.951143
0.0,606,55616.727201
0.0,812,55646.088429
0.0,584,55667.865175
0.0,771,55695.44723
0.0,711,55722.056708
0.0,604,55744.091108
0.0,500,55761.850274
0.0,940,55795.964103
0.0,1111,55835.944565
0.0,729,55863.260029
0.0,312,55873.861785
0.0,298,55885.021795
0.0,369,55898.000067
0.0,501,55915.498059
0.0,345,55926.49184
0.0,495,55944.892927
0.0,644,55967.768214
0.0,630,55990.803726
0.0,547,56010.321427
0.0,679,56034.258217
0.0,231,56042.269509
0.0,375,56055.362451
0.0,1477,56109.83637
0.0,776,56137.696061
0.0,618,56159.585979
0.0,391,56173.387932
0.0,744,56201.250629
0.0,962,56234.64501
0.0,346,56247.550622
0.0,475,56264.747038
0.0,382,56278.331788
0.0,271,56287.81018
0.0,494,56305.062659
0.0,471,56323.575426
0.0,473,56340.590167
0.0,746,56367.02042
0.0,505,56385.92574
0.0,234,56393.730162
0.0,916,56426.623365
0.0,536,56445.412652
0.0,621,56467.613222
0.0,650,56491.311765
0.0,704,56517.593989
0.0,570,56537.740689
0.0,712,56563.548008
0.0,864,56593.949071
0.0,956,56627.012213
0.0,801,56655.675249
0.0,491,56673.350913
0.0,400,56687.662924
0.0,679,56712.784736
0.0,734,56740.35987
0.0,733,56767.67988
0.0,641,56790.054289
0.0,419,56805.006786
0.0,217,56812.522028
0.0,554,56832.007716
0.0,392,56845.919455
0.0,700,56871.692329
0.0,365,56884.781966
0.0,350,56897.16362
0.0,244,56906.038656
0.0,386,56919.787961
0.0,521,56938.722216
0.0,401,56953.630831
0.0,382,56967.499117
0.0,258,56976.901484
0.0,303,56986.93935
0.0,241,56994.935659
0.0,372,57008.727934
0.0,407,57022.352786
0.0,356,57034.539496
0.0,306,57045.462247
0.0,872,57076.362913
0.0,779,57104.626519
0.0,338,57116.322451
0.0,492,57134.05811
0.0,361,57146.898007
0.0,225,57154.469899
0.0,770,57182.969115
0.0,557,57203.416404
0.0,377,57217.019921
0.0,900,57248.870106
0.0,347,57260.652112
0.0,315,57272.100989
0.0,297,57281.987175
0.0,360,57295.089612
0.0,257,57303.930561
0.0,431,57319.918261
0.0,573,57340.739127
0.0,252,57349.665751
0.0,447,57363.973044
0.0,486,57381.600357
0.0,532,57400.286307
0.0,721,57426.898578
0.0,833,57458.341319
0.0,328,57469.605314
0.0,406,57484.704571
0.0,267,57494.261914
0.0,593,57515.145294
0.0,687,57540.222923
0.0,428,57555.343363
0.0,289,57565.339151
0.0,387,57579.669158
0.0,703,57604.835863
0.0,909,57637.383986
0.0,337,57649.478222
0.0,363,57662.703949
0.0,460,57679.541057
0.0,1422,57732.976553
0.0,521,57752.019875
0.0,694,57777.663693
0.0,327,57789.868238
0.0,745,57817.303504
0.0,423,57833.153532
0.0,690,57857.454755
0.0,1059,57895.34883
0.0,659,57919.032
0.0,375,57932.923832
0.0,344,57944.768652
0.0,1247,57989.911351
0.0,865,58021.132921
0.0,588,58042.142066
0.0,731,58067.842892
0.0,868,58098.935222
0.0,863,58130.259574
0.0,510,58148.253204
0.0,937,58181.755757
0.0,482,58198.678773
0.0,636,58221.82426
0.0,481,58239.529644
0.0,789,58267.455955
0.0,265,58276.917141
0.0,985,58312.843739
0.0,831,58341.809536
0.0,1179,58384.659167
0.0,1597,58444.68549
0.0,730,58470.581401
0.0,688,58495.421635
0.0,990,58530.384175
0.0,1037,58567.353384
0.0,456,58583.767735
0.0,293,58594.444776
0.0,1163,58636.378182
0.0,392,58651.002896
0.0,418,58665.646673
0.0,312,58676.948959
0.0,406,58691.647842
0.0,435,58707.238258
0.0,381,58720.420182
0.0,479,58737.751177
0.0,217,58745.098238
0.0,437,58760.597462
0.0,513,58779.989826
0.0,506,58798.454283
0.0,607,58820.858616
0.0,374,58834.216384
0.0,357,58847.105943
0.0,609,58869.074541
0.0,564,58889.036406
0.0,391,58901.691446
0.0,718,58928.452938
0.0,301,58939.16458
0.0,545,58958.328523
0.0,715,58984.54862
0.0,335,58996.032801
0.0,183,59001.610459
0.0,421,59017.391014
0.0,485,59035.749417
0.0,425,59050.623311
0.0,1078,59090.143281
0.0,740,59117.377331
0.0,314,59128.616925
0.0,374,59142.093787
0.0,271,59151.668269
0.0,396,59166.028699
0.0,423,59182.09272
0.0,927,59216.743923
0.0,552,59236.57306
0.0,326,59248.217053
0.0,350,59260.618984
0.0,235,59268.817425
0.0,453,59286.018349
0.0,257,59294.739046
0.0,420,59309.954005
0.0,550,59330.788888
0.0,368,59344.765466
0.0,306,59356.305161
0.0,293,59367.10288
0.0,251,59374.928492
0.0,245,59383.56914
0.0,260,59392.111982
0.0,206,59399.923391
0.0,524,59420.062747
0.0,433,59435.522091
0.0,322,59446.7672
0.0,717,59471.90542
0.0,345,59483.621674
0.0,363,59497.187983
0.0,425,59512.459771
0.0,591,59533.644082
0.0,569,59554.751071
0.0,218,59562.632313
0.0,503,59580.04223
0.0,280,59589.715314
0.0,545,59609.612721
0.0,949,59645.188595
0.0,727,59671.847768
0.0,566,59692.496599
0.0,696,59717.255297
0.0,468,59733.838268
0.0,252,59742.215648
0.0,230,59750.139961
0.0,230,59758.095174
0.0,355,59770.805519
0.0,802,59800.614179
0.0,475,59816.950382
0.0,382,59830.938926
0.0,607,59852.960451
0.0,359,59865.527609
0.0,724,59891.636331
0.0,302,59902.393324
0.0,270,59912.043923
0.0,345,59923.838826
0.0,827,59953.87156
0.0,655,59977.291653
0.0,608,59998.858258
0.0,271,60007.842579
0.0,468,60024.467077
0.0,306,60035.735777
0.0,530,60055.684585
0.0,601,60078.003382
0.0,487,60095.550488
0.0,263,60104.414667
0.0,520,60123.462729
0.0,869,60155.609725
0.0,380,60168.958992
0.0,238,60176.863309
0.0,271,60187.324631
0.0,749,60213.880206
0.0,425,60228.290281
0.0,289,60238.514332
0.0,515,60256.514514
0.0,266,60265.490375
0.0,355,60277.901281
0.0,602,60300.011898
0.0,276,60309.401825
0.0,460,60325.635667
0.0,388,60340.059182
0.0,772,60369.102313
0.0,465,60385.396681
0.0,222,60393.192669
0.0,470,60410.594893
0.0,427,60425.85529
0.0,308,60436.721013
0.0,383,60450.737827
0.0,382,60465.001021
0.0,276,60474.603308
0.0,668,60498.632979
0.0,646,60522.918957
0.0,577,60543.298113
0.0,356,60556.049623
0.0,757,60584.897624
0.0,417,60600.248942
0.0,716,60625.407226
0.0,615,60647.130919
0.0,568,60666.641465
0.0,417,60681.459506
0.0,551,60701.058398
0.0,462,60718.781968
0.0,325,60729.476873
0.0,655,60754.889222
0.0,652,60777.753345
0.0,491,60795.332316
0.0,285,60805.182343
0.0,396,60819.423066
0.0,213,60826.840725
0.0,551,60847.449441
0.0,328,60859.114879
0.0,233,60867.446775
0.0,501,60886.545027
0.0,831,60915.816566
0.0,512,60934.118872
0.0,205,60941.221965
0.0,293,60952.3111
0.0,469,60969.151873
0.0,487,60986.257575
0.0,293,60996.434738
0.0,474,61011.92624
0.0,288,61022.342269
0.0,274,61031.29722
0.0,347,61043.36186
0.0,628,61065.397918
0.0,634,61088.617416
0.0,295,61099.214285
0.0,707,61124.403728
0.0,483,61142.15515
0.0,399,61156.056047
0.0,833,61185.999967
0.0,477,61203.086555
0.0,415,61218.485055
0.0,214,61225.993659
0.0,642,61250.222575
0.0,669,61275.235361
0.0,643,61298.055949
0.0,543,61317.306906
0.0,477,61333.654997
0.0,323,61344.53951
0.0,396,61358.430763
0.0,521,61376.974384
0.0,550,61398.035428
0.0,568,61418.248117
0.0,892,61452.299333
0.0,606,61474.445537
0.0,1027,61511.810375
0.0,769,61540.450836
0.0,669,61564.37481
0.0,808,61593.919606
0.0,531,61613.477439
0.0,734,61640.08713
0.0,681,61664.916849
0.0,529,61682.428198
0.0,453,61698.631817
0.0,472,61715.47935
0.0,357,61728.307
0.0,222,61736.171868
0.0,409,61751.348936
0.0,392,61765.802665
0.0,798,61794.385864
0.0,1256,61840.95452
0.0,875,61872.549717
0.0,298,61883.349831
0.0,350,61896.29722
0.0,974,61931.888987
0.0,391,61945.561288
0.0,833,61975.399262
0.0,778,62003.192818
0.0,272,62012.941984
0.0,326,62024.45512
0.0,506,62042.814333
0.0,484,62059.525184
0.0,597,62081.194784
0.0,568,62101.507457
0.0,474,62118.304973
0.0,437,62135.255591
0.0,369,62148.28107
0.0,445,62164.415201
0.0,487,62181.248176
0.0,560,62201.822622
0.0,380,62214.044341
0.0,410,62228.898005
0.0,855,62260.952513
0.0,933,62295.647029
0.0,397,62308.920318
0.0,493,62326.88027
0.0,477,62344.766925
0.0,539,62363.917851
0.0,351,62376.41411
0.0,283,62386.609825
0.0,414,62401.242219
0.0,392,62414.782473
0.0,265,62423.350085
0.0,294,62432.929693
0.0,641,62455.450359
0.0,1053,62494.371737
0.0,316,62505.635486
0.0,364,62518.631065
0.0,423,62533.551246
0.0,725,62559.256078
0.0,461,62575.781497
0.0,535,62594.964213
0.0,955,62630.564549
0.0,257,62639.381647
0.0,581,62660.825462
0.0,1287,62708.575954
0.0,370,62720.429375
0.0,333,62732.31333
0.0,613,62754.343448
0.0,580,62775.543889
0.0,792,62804.696521
0.0,665,62828.63724
0.0,521,62847.426902
0.0,327,62859.019162
0.0,301,62870.250649
0.0,510,62888.691968
0.0,438,62905.102582
0.0,512,62921.10138
0.0,669,62944.709707
0.0,280,62954.511355
0.0,439,62970.177708
0.0,1056,63008.344977
0.0,306,63018.889258
0.0,266,63028.249957
0.0,670,63053.244253
0.0,177,63059.352788
0.0,309,63068.999485
0.0,486,63087.075115
0.0,741,63114.05203
0.0,611,63135.50815
0.0,702,63162.076728
0.0,440,63177.090989
0.0,558,63197.953859
0.0,497,63215.60159
0.0,601,63237.807851
0.0,404,63252.005321
0.0,486,63269.514279
0.0,937,63302.341764
0.0,504,63319.332306
0.0,951,63354.517957
0.0,468,63371.933188
0.0,617,63394.915038
0.0,388,63409.901644
0.0,329,63421.834898
0.0,225,63429.324113
0.0,643,63452.070178
0.0,523,63470.812767
0.0,298,63481.191604
0.0,686,63505.628277
0.0,383,63519.585507
0.0,375,63533.294124
0.0,690,63557.675886
0.0,484,63575.742317
0.0,517,63594.61138
0.0,210,63601.678807
0.0,1290,63648.053085
0.0,331,63660.298873
0.0,821,63690.478957
0.0,892,63722.663883
0.0,294,63733.13488
0.0,270,63742.193695
0.0,331,63753.79984
0.0,737,63779.955186
0.0,708,63807.009297
0.0,446,63823.772992
0.0,1261,63869.523088
0.0,591,63890.528599
0.0,860,63921.006235
0.0,444,63936.821496
0.0,439,63952.451073
0.0,391,63966.014846
0.0,488,63983.198326
0.0,241,63991.172696
0.0,520,64009.194624
0.0,836,64040.537168
0.0,297,64051.526343
0.0,542,64071.247386
0.0,362,64084.020148
0.0,631,64106.654184
0.0,880,64138.834249
0.0,639,64161.244771
0.0,723,64187.371473
0.0,739,64213.760097
0.0,434,64230.358208
0.0,357,64242.893785
0.0,1418,64297.840638
0.0,552,64317.331492
0.0,651,64340.687251
0.0,515,64358.493162
0.0,451,64374.883045
0.0,399,64389.013768
0.0,238,64397.163731
0.0,767,64423.477597
0.0,805,64453.845155
0.0,257,64462.722249
0.0,510,64480.991529
0.0,478,64498.692519
0.0,689,64524.264148
0.0,572,64544.233243
0.0,464,64560.943268
0.0,360,64573.68838
0.0,278,64583.291653
0.0,338,64595.019115
0.0,313,64606.71996
0.0,661,64631.136046
0.0,343,64643.662587
0.0,501,64662.288905
0.0,367,64674.915274
0.0,391,64688.968115
0.0,575,64709.506738
0.0,733,64735.462275
0.0,762,64763.079304
0.0,760,64790.342075
0.0,615,64813.208081
0.0,253,64821.913212
0.0,666,64846.62719
0.0,385,64860.567942
0.0,978,64895.107996
0.0,507,64913.05849
0.0,345,64925.023312
0.0,546,64945.310544
0.0,229,64953.635255
0.0,805,64983.863059
0.0,368,64996.753305
0.0,380,65009.521557
0.0,800,65037.702965
0.0,341,65049.853581
0.0,608,65072.134906
0.0,279,65081.74231
0.0,1801,65147.115941
0.0,264,65156.255378
0.0,739,65183.598815
0.0,614,65204.928066
0.0,295,65215.310696
0.0,1145,65256.426252
0.0,329,65267.863722
0.0,407,65282.246969
0.0,247,65290.719164
0.0,603,65312.340272
0.0,982,65348.247115
0.0,802,65376.833809
0.0,741,65403.046803
0.0,311,65413.78894
0.0,780,65442.474572
0.0,497,65460.741908
0.0,457,65477.52716
0.0,541,65496.752738
0.0,686,65520.624113
0.0,682,65546.201953
0.0,335,65558.845338
0.0,186,65565.463401
0.0,313,65576.551553
0.0,213,65583.052721
0.0,854,65613.424039
0.0,362,65626.458681
0.0,220,65634.039695
0.0,237,65642.958857
0.0,1658,65704.708952
0.0,366,65717.23319
0.0,616,65739.175676
0.0,625,65776.176054
0.0,398,65808.102307
0.0,1649,65937.461337
0.0,281,65960.477183
0.0,814,66028.86223
0.0,587,66052.244594
0.0,468,66070.033471
0.0,691,66097.317668
0.0,875,66130.9067
0.0,849,66165.15609
0.0,742,66192.704226
0.0,511,66212.560755
0.0,621,66235.888838
0.0,450,66254.704413
0.0,394,66269.18661
0.0,886,66301.990728
0.0,710,66330.160294
0.0,1317,66379.856581
0.0,662,66405.242245
0.0,4484,66575.94228
0.0,1489,66632.797137
0.0,1005,66670.167157
0.0,601,66693.876177
0.0,660,66717.657931
0.0,269,66726.934271
0.0,465,66743.650256
0.0,1103,66784.314875
0.0,499,66802.985646
0.0,958,66836.945465
0.0,265,66845.897062
0.0,819,66876.691344
0.0,650,66902.398968
0.0,279,66912.625836
100.0,3077,67024.921707
0.0,537,67044.539628
0.0,437,67059.546798
0.0,313,67070.851494
0.0,558,67090.361118
0.0,372,67103.586495
0.0,354,67115.769953
0.0,727,67142.974853
0.0,812,67171.772961
0.0,456,67188.190516
0.0,664,67212.590548
0.0,609,67234.098938
0.0,581,67255.691013
0.0,619,67278.536209
0.0,528,67297.579076
0.0,314,67308.508523
0.0,496,67325.639319
0.0,769,67353.060802
0.0,419,67367.918837
0.0,310,67379.828717
0.0,324,67391.446466
0.0,374,67404.837916
0.0,802,67433.63042
0.0,401,67448.273964
0.0,585,67468.229959
0.0,314,67480.063927
0.0,1069,67518.842195
0.0,742,67545.748715
0.0,352,67559.288562
0.0,736,67585.519438
0.0,398,67599.974422
0.0,487,67617.869225
0.0,634,67641.010558
0.0,1305,67687.628011
0.0,192,67694.795192
0.0,487,67713.370219
0.0,253,67722.736464
0.0,456,67739.253024
0.0,700,67765.263048
0.0,198,67771.65478
0.0,391,67784.970453
0.0,270,67794.67963
0.0,262,67803.41602
0.0,511,67821.033974
0.0,638,67843.022428
0.0,251,67851.721572
0.0,436,67866.982498
0.0,459,67883.722059
0.0,287,67893.521693
100.0,1102,67932.872224
0.0,677,67956.63614
0.0,282,67965.999191
0.0,272,67975.116619
0.0,439,67991.684823
0.0,698,68017.346679
0.0,259,68026.726373
0.0,449,68042.444123
0.0,710,68068.535434
0.0,237,68076.44356
0.0,715,68103.036067
0.0,225,68110.178098
0.0,744,68136.866536
0.0,376,68150.198537
0.0,651,68174.242158
0.0,1073,68214.398282
0.0,398,68229.02234
0.0,760,68257.041364
0.0,519,68274.857043
0.0,378,68288.284028
0.0,588,68308.675557
0.0,563,68328.741908
0.0,244,68337.535391
0.0,429,68352.685227
0.0,345,68364.912967
0.0,558,68384.696803
0.0,677,68408.290057
0.0,820,68437.748709
0.0,510,68454.881283
0.0,521,68472.845843
0.0,572,68493.811831
0.0,400,68508.976746
0.0,230,68516.814186
0.0,550,68537.242208
0.0,395,68551.211879
0.0,258,68560.207672
0.0,604,68582.863788
0.0,480,68600.640704
0.0,392,68613.701005
0.0,537,68634.184157
0.0,408,68648.736271
0.0,236,68656.089563
0.0,748,68683.597137
0.0,435,68699.424076
0.0,454,68715.60001
0.0,852,68747.031241
0.0,482,68764.822567
0.0,729,68789.982904
0.0,681,68815.203107
0.0,400,68829.147064
0.0,1071,68868.719543
0.0,1245,68913.686053
0.0,1143,68956.457616
0.0,504,68974.141336
0.0,517,68992.745566
0.0,280,69002.120953
0.0,549,69021.913607
0.0,560,69041.056015
0.0,404,69055.245802
0.0,481,69072.374117
0.0,866,69106.404791
0.0,417,69121.650111
0.0,917,69153.938389
0.0,252,69163.090035
0.0,306,69174.094818
0.0,311,69184.903161
0.0,889,69217.145638
0.0,279,69226.855385
0.0,697,69251.563313
0.0,280,69261.640901
0.0,581,69282.337264
0.0,1637,69342.973402
0.0,600,69365.449195
0.0,970,69401.612564
0.0,348,69413.544869
0.0,961,69447.368044
0.0,206,69455.011775
0.0,425,69469.588309
0.0,712,69495.544096
0.0,1327,69544.004133
0.0,549,69563.780998
0.0,754,69590.723269
0.0,600,69611.014752
0.0,418,69625.782177
0.0,538,69644.902462
0.0,562,69665.0252
0.0,316,69675.616294
0.0,394,69690.277068
0.0,1026,69730.134321
0.0,420,69744.752923
0.0,392,69758.763623
0.0,755,69787.945805
0.0,948,69822.387301
0.0,693,69847.285501
0.0,451,69864.036193
0.0,1200,69906.63422
0.0,394,69920.527681
0.0,813,69950.902024
0.0,285,69961.01419
0.0,534,69979.856737
0.0,413,69995.020239
0.0,607,70016.882545
0.0,737,70043.489386
0.0,451,70059.696896
0.0,350,70072.036284
0.0,397,70085.286049
0.0,326,70096.92085
0.0,1147,70137.815554
0.0,217,70145.257864
0.0,418,70160.110838
0.0,451,70176.658583
0.0,309,70188.543799
0.0,835,70220.373964
0.0,1327,70268.534699
0.0,564,70288.607091
0.0,237,70296.734076
0.0,382,70310.383013
0.0,468,70327.218914
0.0,409,70342.131533
0.0,349,70355.015079
0.0,538,70375.307633
0.0,410,70390.070716
0.0,255,70398.834011
0.0,877,70431.68624
0.0,768,70459.844117
0.0,685,70485.290516
0.0,1145,70526.451277
0.0,565,70547.04142
0.0,259,70556.26649
0.0,815,70585.319514
0.0,413,70600.432891
0.0,354,70612.620196
0.0,533,70632.661187
0.0,571,70653.989411
0.0,267,70663.4534
0.0,678,70687.531516
0.0,360,70700.127954
0.0,520,70719.1199
0.0,423,70734.333873
0.0,307,70745.757518
0.0,278,70755.851078
0.0,378,70769.361493
0.0,733,70796.146833
0.0,326,70807.708486
0.0,660,70831.535849
0.0,296,70841.885677
0.0,193,70848.316069
0.0,352,70860.041895
0.0,269,70869.773341
0.0,467,70887.178852
0.0,490,70905.544075
0.0,563,70926.448701
0.0,232,70934.117415
0.0,357,70947.148589
0.0,620,70970.971773
0.0,255,70979.722559
0.0,242,70988.934885
0.0,245,70997.564242
0.0,448,71013.082961
0.0,307,71023.943714
0.0,676,71048.199387
0.0,473,71065.153171
0.0,766,71093.499161
0.0,473,71111.523548
0.0,842,71142.56541
0.0,665,71166.649827
0.0,655,71189.567642
0.0,564,71210.907815
0.0,695,71236.159509
0.0,215,71243.522515
0.0,1139,71285.213129
0.0,503,71302.433091
0.0,456,71318.255698
0.0,248,71326.902857
0.0,896,71360.081985
0.0,1111,71399.151231
0.0,311,71409.245927
0.0,527,71428.0491
0.0,336,71439.344798
0.0,246,71448.28224
0.0,416,71464.285524
0.0,225,71472.139304
0.0,400,71486.708887
0.0,476,71504.111157
0.0,633,71526.808786
0.0,274,71536.005929
0.0,316,71549.113665
0.0,520,71568.008479
0.0,286,71577.522227
0.0,457,71593.850972
0.0,675,71618.264695
0.0,433,71633.912991
0.0,1544,71689.606203
0.0,277,71699.327119
0.0,604,71720.708964
0.0,189,71726.95446
0.0,778,71754.972896
0.0,358,71767.854563
0.0,424,71783.05587
0.0,251,71791.876435
0.0,271,71800.986467
0.0,341,71813.774953
0.0,715,71839.56951
0.0,1374,71890.19855
0.0,244,71898.779989
0.0,193,71905.547376
0.0,359,71918.176999
0.0,864,71950.082483
0.0,792,71979.756104
0.0,414,71995.538972
0.0,654,72018.786024
0.0,503,72036.763336
0.0,299,72047.279981
0.0,785,72075.78144
0.0,313,72087.241401
0.0,593,72107.91796
0.0,679,72131.285759
0.0,411,72146.399657
0.0,387,72160.107824
0.0,1455,72213.00993
0.0,502,72231.430389
0.0,308,72242.479698
0.0,621,72264.031776
0.0,898,72297.440008
0.0,365,72309.684537
0.0,593,72331.280011
0.0,383,72344.946087
0.0,428,72360.262511
0.0,431,72375.639075
0.0,549,72394.653584
0.0,617,72416.164874
0.0,767,72444.300027
0.0,266,72453.170038
0.0,303,72463.974757
0.0,728,72491.33164
0.0,856,72522.840667
0.0,540,72542.678634
0.0,1111,72584.269888
0.0,319,72594.939562
0.0,995,72631.897542
0.0,709,72658.287907
0.0,824,72687.555795
0.0,727,72714.784467
0.0,340,72727.687562
0.0,273,72737.744955
0.0,417,72753.65024
0.0,362,72766.855793
0.0,723,72793.633354
0.0,263,72804.001367
0.0,314,72816.31488
0.0,477,72834.765846
0.0,289,72845.237191
0.0,844,72877.71441
0.0,537,72899.96739
0.0,390,72913.940926
0.0,636,72937.711284
0.0,481,72955.886774
0.0,733,72985.66226
0.0,441,73001.613939
0.0,835,73032.659748
0.0,1237,73082.055155
0.0,651,73106.897966
0.0,843,73138.902397
0.0,907,73174.400687
0.0,996,73212.328285
0.0,755,73241.708836
0.0,907,73275.644116
0.0,450,73292.904208
0.0,1023,73335.385645
0.0,1136,73379.356395
0.0,458,73397.288632
0.0,582,73421.248299
0.0,702,73449.2634
0.0,470,73466.696082
0.0,575,73490.186166
0.0,800,73521.074314
0.0,435,73538.146779
0.0,283,73549.133037
0.0,829,73584.176152
0.0,442,73602.431022
0.0,484,73621.046986
0.0,626,73646.342495
0.0,822,73681.668853
0.0,281,73692.00446
0.0,767,73721.155951
0.0,435,73737.354143
0.0,361,73751.367981
0.0,259,73762.449153
0.0,514,73784.699982
0.0,591,73808.812467
0.0,403,73824.295851
0.0,708,73851.160885
0.0,517,73871.196517
0.0,590,73895.151814
0.0,235,73903.539595
0.0,327,73915.704296
0.0,373,73930.917166
0.0,252,73940.600081
0.0,1078,73985.872223
0.0,344,74000.502851
0.0,647,74024.547541
0.0,335,74036.37367
0.0,236,74044.783487
0.0,454,74064.533231
0.0,681,74091.034866
0.0,332,74103.192674
0.0,951,74142.913214
0.0,591,74167.738955
0.0,329,74180.4648
0.0,327,74192.875181
0.0,915,74230.211632
0.0,539,74251.792537
0.0,1191,74299.544992
0.0,242,74308.741163
0.0,421,74325.377553
0.0,431,74342.595472
0.0,286,74354.015443
0.0,340,74368.162534
0.0,184,74374.701963
0.0,570,74397.172848
0.0,225,74405.220803
0.0,650,74432.96816
0.0,369,74448.013291
0.0,706,74476.538646
0.0,316,74488.438274
0.0,888,74525.526858
0.0,390,74541.020042
0.0,629,74567.057728
0.0,248,74576.048868
0.0,231,74585.785423
0.0,772,74617.141727
0.0,702,74644.240255
0.0,1582,74708.785431
100.0,11600,75180.12782
0.0,486,75198.766001
0.0,528,75220.086412
0.0,219,75230.265768
0.0,586,75254.301277
0.0,363,75268.137546
0.0,432,75284.519756
0.0,585,75307.388787
0.0,787,75340.626891
0.0,333,75353.990201
0.0,736,75383.254562
0.0,679,75413.295206
0.0,644,75438.890765
0.0,873,75473.556398
0.0,870,75509.644382
0.0,668,75535.960318
0.0,920,75574.607983
0.0,285,75585.918965
0.0,994,75627.46783
0.0,308,75639.542489
0.0,213,75647.266592
0.0,488,75665.610221
0.0,494,75687.34248
0.0,476,75706.087462
0.0,951,75743.173784
0.0,353,75757.65958
0.0,284,75769.93811
0.0,893,75805.924001
0.0,339,75818.716048
0.0,760,75850.739002
0.0,261,75862.842877
0.0,673,75889.527705
0.0,287,75900.889518
0.0,224,75909.956686
0.0,590,75932.600681
0.0,418,75949.996842
0.0,380,75964.237725
0.0,238,75972.818385
0.0,389,75988.921645
0.0,217,75996.375288
0.0,433,76012.699266
0.0,226,76021.164298
0.0,595,76046.131362
0.0,674,76072.665243
0.0,791,76103.828945
0.0,386,76119.848568
0.0,1075,76165.319687
0.0,627,76189.285533
0.0,365,76204.508817
0.0,394,76221.765956
0.0,348,76234.323004
0.0,228,76243.166006
0.0,614,76267.758327
0.0,622,76293.684748
0.0,286,76304.586812
0.0,457,76322.545145
0.0,276,76332.447643
0.0,555,76354.09297
0.0,416,76370.501919
0.0,839,76404.34197
0.0,467,76423.285441
0.0,1051,76464.893067
0.0,332,76477.214539
0.0,196,76484.293236
0.0,541,76507.987025
0.0,691,76535.715623
0.0,477,76554.798908
0.0,596,76580.134351
0.0,236,76588.93986
0.0,870,76622.388013
0.0,819,76654.638123
0.0,493,76675.328819
0.0,367,76690.149559
0.0,545,76710.260115
0.0,415,76727.613128
0.0,262,76737.44445
0.0,949,76776.173174
0.0,357,76791.17343
0.0,280,76802.152619
0.0,360,76816.74086
0.0,518,76836.967158
0.0,344,76852.962333
0.0,1074,76896.024367
0.0,367,76910.537897
0.0,288,76921.204772
0.0,703,76952.067389
0.0,501,76970.418376
0.0,703,76997.418943
0.0,1267,77050.18809
0.0,358,77063.848069
0.0,418,77079.931265
0.0,609,77105.258916
0.0,744,77136.169253
0.0,703,77164.450869
0.0,940,77201.838365
0.0,337,77215.763361
0.0,403,77234.149709
0.0,718,77262.57089
0.0,380,77277.161313
0.0,1269,77329.917888
0.0,671,77356.894531
0.0,735,77386.985133
0.0,4019,77550.001734
0.0,844,77584.514093
0.0,555,77607.200257
0.0,313,77618.965821
0.0,624,77642.221064
0.0,494,77663.902442
0.0,528,77684.887508
0.0,10523,78116.518705
0.0,435,78133.34113
0.0,620,78159.484409
0.0,878,78195.017503
0.0,391,78211.011965
0.0,448,78227.699017
0.0,625,78254.345706
0.0,331,78266.103844
0.0,563,78288.610575
0.0,651,78314.393125
0.0,851,78349.424735
0.0,859,78385.806857
0.0,14438,78991.719647
0.0,437,79009.202236
0.0,871,79044.957761
0.0,453,79062.558379
0.0,454,79081.071571
0.0,490,79100.856727
0.0,674,79127.921406
0.0,731,79157.605174
0.0,434,79174.175778
0.0,429,79191.61372
0.0,526,79213.13089
0.0,438,79230.469826
0.0,418,79246.727541
0.0,512,79265.810308
0.0,634,79294.108019
0.0,312,79305.115564
0.0,432,79321.622687
0.0,936,79360.82851
0.0,281,79373.40285
0.0,610,79396.874197
0.0,603,79420.249309
0.0,699,79449.156673
0.0,599,79474.309603
0.0,641,79500.376397
0.0,508,79520.920498
0.0,374,79536.48317
0.0,670,79565.835258
0.0,815,79598.654228
0.0,360,79613.678526
0.0,866,79649.583126
0.0,365,79664.704986
0.0,466,79682.88258
0.0,621,79708.296622
0.0,950,79750.813939
0.0,815,79783.305377
0.0,492,79803.714324
0.0,1031,79846.873973
0.0,637,79870.005352
0.0,601,79893.62724
0.0,694,79922.984467
0.0,461,79940.708044
0.0,799,79971.971246
0.0,395,79987.543367
0.0,670,80015.458925
0.0,640,80042.31608
0.0,1430,80097.472949
0.0,462,80117.500535
0.0,359,80130.554492
0.0,309,80142.395222
0.0,867,80176.510806
0.0,329,80189.326767
0.0,235,80200.187028
0.0,276,80210.821444
0.0,952,80248.685105
0.0,971,80288.794103
0.0,1044,80331.239734
0.0,791,80361.332352
0.0,1078,80408.710847
0.0,506,80429.031198
0.0,791,80462.078808
0.0,600,80487.517386
0.0,337,80500.04018
0.0,215,80507.714978
0.0,596,80530.753977
0.0,864,80567.803989
0.0,401,80583.194834
0.0,398,80598.391606
0.0,718,80627.420622
0.0,477,80647.581778
0.0,292,80658.337382
0.0,651,80684.008093
0.0,784,80714.654165
0.0,457,80734.270565
0.0,201,80741.924825
0.0,648,80766.183079
0.0,347,80781.350686
0.0,365,80794.993962
0.0,860,80829.028874
0.0,815,80860.738207
0.0,612,80884.243139
0.0,1068,80929.222486
0.0,740,80957.645728
0.0,660,80983.342927
0.0,395,80999.166189
0.0,243,81009.513419
0.0,711,81038.351801
0.0,378,81052.954531
0.0,944,81089.925381
0.0,872,81125.3794
0.0,406,81142.029514
0.0,678,81167.474812
0.0,345,81179.879946
0.0,663,81207.402926
0.0,512,81226.995695
0.0,406,81242.832404
0.0,323,81255.480725
0.0,718,81284.955509
0.0,276,81295.105582
0.0,264,81304.659499
0.0,458,81322.248167
0.0,421,81338.156542
0.0,428,81353.881963
0.0,395,81370.490216
0.0,632,81397.020502
0.0,396,81412.145353
0.0,553,81434.992337
0.0,229,81443.495555
0.0,364,81456.401296
0.0,383,81472.275905
0.0,352,81485.788401
0.0,680,81513.045451
0.0,365,81527.99182
0.0,854,81562.562556
0.0,485,81583.20661
0.0,521,81603.267621
0.0,626,81628.23599
0.0,465,81647.321781
0.0,810,81679.443617
0.0,482,81699.123387
0.0,838,81733.904278
0.0,1069,81775.19312
0.0,359,81790.000056
0.0,203,81799.31722
0.0,1011,81840.413412
0.0,479,81858.841858
0.0,489,81879.318315
0.0,402,81895.404718
0.0,716,81926.480044
0.0,1032,81967.595836
0.0,343,81981.768675
0.0,729,82011.937601
0.0,536,82035.160754
0.0,898,82069.373378
0.0,624,82096.410796
0.0,529,82118.060598
0.0,1023,82158.228884
0.0,367,82174.000096
0.0,460,82193.477801
0.0,453,82211.316089
0.0,575,82232.981119
0.0,668,82259.759043
0.0,447,82278.714847
0.0,634,82302.541975
0.0,656,82329.765562
0.0,595,82353.006858
0.0,633,82378.954364
0.0,628,82405.358315
0.0,357,82419.146191
0.0,544,82440.171438
0.0,507,82462.819724
0.0,725,82491.578854
0.0,1126,82535.849774
0.0,584,82559.838023
0.0,221,82567.798549
0.0,359,82581.341413
0.0,446,82599.0337
0.0,444,82618.214141
0.0,711,82648.232797
0.0,644,82673.309054
0.0,309,82685.564292
0.0,423,82701.128115
0.0,713,82729.749417
0.0,455,82746.929452
0.0,314,82759.385308
0.0,368,82773.232599
0.0,891,82809.331375
0.0,629,82834.171848
0.0,415,82848.721588
0.0,272,82858.901463
0.0,643,82882.601673
0.0,984,82922.897329
0.0,934,82959.468048
0.0,389,82974.806786
0.0,272,82986.218582
0.0,283,82997.708531
0.0,426,83012.907402
0.0,353,83025.735951
0.0,395,83040.137111
0.0,354,83054.34282
0.0,317,83065.412347
0.0,390,83081.488894
0.0,320,83093.389437
0.0,667,83118.654239
0.0,728,83148.239034
0.0,481,83166.460755
0.0,354,83180.745059
0.0,791,83211.416643
0.0,323,83223.735662
0.0,368,83236.682546
0.0,367,83251.375839
0.0,307,83263.711718
0.0,384,83279.533283
0.0,489,83297.413483
0.0,522,83315.84883
0.0,578,83338.1705
0.0,1671,83407.147818
0.0,526,83427.963578
0.0,556,83449.754847
0.0,575,83470.836377
0.0,508,83491.734825
0.0,336,83504.189932
0.0,375,83520.207212
0.0,910,83555.478555
0.0,373,83569.379062
0.0,548,83589.789173
0.0,938,83629.45056
0.0,356,83642.774254
0.0,710,83670.057954
0.0,294,83680.429657
0.0,622,83707.624378
0.0,400,83722.422162
0.0,809,83753.573047
0.0,313,83765.705254
0.0,496,83787.55244
0.0,591,83811.111994
0.0,1051,83853.073338
0.0,662,83879.807929
0.0,608,83902.275369
0.0,543,83923.816584
0.0,585,83947.274138
0.0,267,83958.139756
0.0,510,83977.013454
0.0,561,84000.532072
0.0,664,84024.76623
0.0,538,84048.234226
0.0,609,84072.246815
0.0,343,84084.373773
0.0,492,84103.315224
0.0,496,84121.6843
0.0,499,84142.962545
0.0,342,84156.864691
0.0,519,84177.772485
0.0,380,84192.275598
0.0,309,84203.670417
0.0,483,84223.440233
0.0,765,84251.489877
0.0,654,84276.941651
0.0,794,84309.795832
0.0,537,84330.180085
0.0,289,84341.123013
0.0,833,84374.883235
0.0,615,84399.99497
0.0,1327,84450.328307
0.0,552,84470.45151
0.0,424,84489.064183
0.0,652,84513.179118
0.0,582,84535.491484
0.0,300,84546.26762
0.0,720,84575.291751
0.0,394,84589.174394
0.0,639,84613.699136
0.0,424,84631.174577
0.0,344,84644.382975
0.0,1216,84692.550425
0.0,732,84722.912059
0.0,1151,84769.223908
0.0,585,84792.939822
0.0,442,84809.367572
0.0,451,84827.618899
0.0,821,84861.41423
0.0,435,84878.077966
0.0,529,84899.213308
0.0,344,84914.65234
0.0,444,84932.828237
0.0,450,84948.957951
0.0,715,84975.771666
0.0,230,84985.698189
0.0,525,85009.006253
0.0,722,85035.488816
0.0,506,85054.361865
0.0,418,85071.567772
0.0,297,85082.926872
0.0,456,85101.992017
0.0,196,85109.285976
0.0,773,85139.243739
0.0,510,85160.318539
0.0,407,85175.810898
0.0,290,85187.927066
0.0,352,85201.805784
0.0,1399,85257.227171
0.0,455,85276.674374
0.0,593,85302.527228
0.0,268,85312.2096
0.0,424,85327.539892
0.0,629,85351.453563
0.0,304,85364.129049
0.0,360,85377.271749
0.0,586,85398.533544
0.0,227,85407.293044
0.0,357,85421.927547
0.0,914,85458.186409
0.0,872,85492.296777
0.0,929,85527.142336
0.0,562,85549.399369
0.0,852,85582.803683
0.0,310,85593.762849
0.0,892,85626.734962
0.0,515,85645.820771
0.0,331,85658.234402
0.0,585,85679.669393
0.0,834,85713.873782
0.0,754,85742.20446
0.0,540,85762.415988
0.0,395,85778.387954
0.0,507,85799.898115
0.0,503,85818.609197
0.0,468,85834.843637
0.0,387,85849.342875
0.0,280,85859.259639
0.0,656,85885.394248
0.0,343,85897.237826
0.0,436,85913.293563
0.0,597,85935.239132
0.0,612,85960.071973
0.0,976,85997.639991
0.0,861,86029.685557
0.0,943,86067.771776
0.0,604,86088.754111
0.0,754,86116.080072
0.0,753,86147.589447
0.0,1327,86197.1612
0.0,388,86211.980714
0.0,662,86237.873729
0.0,313,86249.589092
0.0,453,86267.703882
0.0,307,86279.132308
0.0,768,86307.509129
0.0,484,86324.683939
0.0,360,86338.948746
0.0,676,86364.494082
0.0,1232,86413.585878
0.0,232,86421.911322
0.0,228,86429.898781
0.0,1043,86468.694431
0.0,500,86489.465949
0.0,918,86522.947891
0.0,370,86536.701481
0.0,627,86563.062809
0.0,419,86578.053493
0.0,719,86604.898156
0.0,783,86634.609517
0.0,254,86645.192166
0.0,318,86658.125814
0.0,789,86688.480629
0.0,579,86711.094769
0.0,490,86728.478178
0.0,1506,86790.211293
0.0,762,86818.026476
0.0,617,86843.967819
0.0,601,86865.621964
0.0,288,86876.466539
0.0,317,86888.842259
0.0,290,86899.851331
0.0,415,86918.533064
0.0,268,86928.405401
0.0,1230,86972.935434
0.0,1337,87027.518056
0.0,510,87048.002604
0.0,886,87083.185869
0.0,275,87093.615658
0.0,546,87113.707728
0.0,229,87122.724459
0.0,394,87136.051538
0.0,334,87148.776086
0.0,314,87160.134976
0.0,351,87176.33706
0.0,373,87191.89141
0.0,234,87200.327319
0.0,1259,87246.942257
0.0,538,87270.782059
0.0,213,87278.604295
0.0,1551,87335.613097
0.0,534,87357.263566
0.0,801,87386.961593
0.0,566,87408.909534
0.0,348,87421.682837
0.0,294,87433.49344
0.0,1003,87471.461969
0.0,1533,87531.31721
0.0,1117,87574.938926
0.0,293,87585.279425
0.0,318,87596.893919
0.0,1501,87654.820703
0.0,436,87669.624691
0.0,836,87702.920609
0.0,562,87723.670807
0.0,551,87743.043444
0.0,299,87754.855286
0.0,442,87771.556772
0.0,1044,87811.153751
0.0,688,87836.900958
0.0,931,87872.146859
0.0,404,87886.023692
0.0,302,87896.443138
0.0,566,87916.357374
0.0,598,87937.375433
0.0,622,87963.148957
0.0,352,87976.176575
0.0,906,88009.045528
0.0,740,88038.783522
0.0,1195,88083.220026
0.0,882,88117.630504
0.0,302,88128.469455
0.0,689,88154.875205
0.0,347,88168.953773
0.0,858,88201.873384
0.0,293,88212.165813
0.0,1028,88250.830036
0.0,315,88262.112738
0.0,463,88280.153215
0.0,899,88316.593454
0.0,627,88339.354269
0.0,858,88372.893796
0.0,380,88386.599424
0.0,282,88395.913191
0.0,970,88431.698797
0.0,360,88445.703834
0.0,437,88463.273288
0.0,780,88491.133113
0.0,362,88506.633891
0.0,318,88517.407942
0.0,480,88533.496183
0.0,561,88556.333809
0.0,375,88572.129216
0.0,428,88587.620768
0.0,1015,88625.913972
0.0,637,88650.574924
0.0,594,88672.243091
0.0,440,88687.203991
0.0,904,88723.061388
0.0,256,88731.798887
0.0,1221,88776.388791
0.0,954,88812.898358
0.0,417,88828.222971
0.0,401,88843.019219
0.0,698,88868.687695
0.0,579,88890.206831
0.0,407,88903.267459
0.0,526,88923.678391
0.0,309,88933.666276
0.0,465,88949.359143
0.0,508,88968.930642
0.0,383,88983.810218
0.0,471,88999.652333
0.0,623,89022.265243
0.0,491,89039.658874
0.0,252,89052.043308
0.0,515,89070.754628
0.0,324,89082.129854
0.0,296,89092.409706
0.0,377,89104.419617
0.0,738,89133.581301
0.0,409,89147.912384
0.0,337,89159.135037
0.0,979,89195.132409
0.0,1132,89237.089582
0.0,2624,89336.180956
0.0,429,89351.232028
0.0,438,89366.747956
0.0,509,89388.971779
0.0,725,89414.0477
0.0,434,89429.057574
0.0,738,89458.812796
0.0,608,89481.032044
0.0,402,89494.163126
0.0,631,89517.719974
0.0,574,89540.598686
0.0,843,89569.566214
0.0,359,89582.418559
0.0,500,89600.566462
0.0,1149,89645.251524
0.0,285,89655.530285
0.0,274,89665.044008
0.0,416,89679.277303
0.0,497,89696.193658
0.0,1484,89754.766455
0.0,1078,89797.450869
0.0,547,89816.915988
0.0,592,89838.337136
0.0,610,89861.473086
0.0,316,89874.18503
0.0,437,89889.25063
0.0,260,89898.035931
0.0,553,89918.402566
0.0,339,89930.647896
0.0,718,89957.483947
0.0,508,89974.915985
0.0,456,89992.567859
0.0,393,90007.00443
0.0,293,90017.37906
0.0,371,90029.225924
0.0,1294,90077.882295
0.0,615,90099.540461
0.0,529,90119.665608
0.0,767,90147.342538
0.0,708,90170.237925
0.0,506,90188.846534
0.0,188,90196.031662
0.0,1299,90241.818006
0.0,546,90261.508428
0.0,534,90282.449769
0.0,295,90292.180064
0.0,547,90310.898489
0.0,598,90332.122226
0.0,869,90362.797298
0.0,424,90377.95404
0.0,1098,90417.136767
0.0,479,90435.661441
0.0,366,90448.586325
0.0,221,90455.872198
0.0,810,90482.697332
0.0,1063,90522.219132
0.0,459,90537.295608
0.0,1493,90591.555505
0.0,751,90618.867243
0.0,251,90626.792486
0.0,229,90634.959288
0.0,349,90647.582823
0.0,1022,90686.346288
0.0,786,90714.594765
0.0,1760,90777.42202
0.0,435,90793.063406
0.0,1046,90831.910275
0.0,697,90856.251803
0.0,591,90875.863977
0.0,769,90905.234542
0.0,973,90939.434825
0.0,558,90958.138127
0.0,513,90976.843094
0.0,978,91011.611834
0.0,322,91022.046079
0.0,803,91050.693278
0.0,1431,91104.432914
0.0,279,91113.356965
0.0,633,91136.016722
0.0,610,91160.237918
0.0,436,91175.526942
0.0,905,91207.127425
0.0,611,91230.923384
0.0,593,91251.579072
0.0,1000,91285.402142
0.0,854,91317.334264
0.0,1776,91379.545885
0.0,581,91402.295338
0.0,392,91414.885718
0.0,1052,91453.054229
0.0,323,91465.143279
0.0,242,91472.119468
0.0,233,91479.307372
0.0,561,91498.838159
0.0,425,91513.81065
0.0,651,91536.158449
0.0,315,91550.652446
0.0,395,91565.007851
0.0,914,91596.614111
0.0,314,91606.966547
0.0,1340,91656.828708
0.0,369,91669.08508
0.0,286,91678.793368
0.0,783,91708.196904
0.0,585,91728.744013
0.0,283,91738.25037
0.0,975,91772.952229
0.0,693,91799.405217
0.0,1013,91836.744189
0.0,389,91849.598364
0.0,727,91876.703362
0.0,304,91887.839291
0.0,524,91904.743572
0.0,495,91922.500629
0.0,364,91933.481746
0.0,642,91958.782392
0.0,475,91974.151078
0.0,226,91981.151793
0.0,791,92009.191587
0.0,523,92030.295181
0.0,259,92039.278133
0.0,408,92053.780518
0.0,477,92070.1738
0.0,808,92101.137804
0.0,404,92114.398218
0.0,509,92131.137322
0.0,576,92152.028114
0.0,322,92163.20245
0.0,746,92191.058729
0.0,840,92221.145616
0.0,423,92236.214774
0.0,469,92254.179649
0.0,447,92271.0558
0.0,385,92284.781376
0.0,322,92295.766862
0.0,288,92305.120467
0.0,320,92315.627823
0.0,542,92335.582433
0.0,197,92342.887872
0.0,238,92351.228247
0.0,292,92361.225973
0.0,643,92383.277762
0.0,576,92403.584977
0.0,639,92428.332108
0.0,268,92437.305619
0.0,350,92449.656248
0.0,467,92466.536086
0.0,998,92503.371836
0.0,327,92514.609958
0.0,330,92524.990309
0.0,484,92542.165876
0.0,427,92556.624727
0.0,367,92568.352143
0.0,203,92575.54117
0.0,566,92596.378886
0.0,464,92613.178576
0.0,733,92638.37916
0.0,599,92662.625219
0.0,519,92682.039859
0.0,768,92707.579099
0.0,258,92716.353232
0.0,580,92737.922591
0.0,395,92752.279829
0.0,332,92763.677053
0.0,886,92796.528007
0.0,727,92824.346089
0.0,550,92843.245995
0.0,353,92854.39498
0.0,516,92873.419137
0.0,834,92904.201317
0.0,356,92916.733831
0.0,624,92938.782743
0.0,529,92956.371703
0.0,277,92965.526528
0.0,667,92992.084856
0.0,492,93008.570104
0.0,478,93024.769958
0.0,436,93039.621956
0.0,231,93047.111405
0.0,302,93060.980948
0.0,702,93082.893588
0.0,530,93101.160956
0.0,334,93111.943614
0.0,520,93130.620785
0.0,835,93161.967505
0.0,403,93176.330795
0.0,247,93185.144914
0.0,489,93202.143984
0.0,349,93215.131789
0.0,280,93225.705502
0.0,920,93255.641585
0.0,453,93270.874685
0.0,240,93278.371932
0.0,645,93302.492761
0.0,322,93314.171544
0.0,438,93329.849558
0.0,791,93358.015807
0.0,291,93368.127456
0.0,298,93379.892671
0.0,733,93404.999572
0.0,770,93430.237759
0.0,784,93460.671276
0.0,561,93480.751708
0.0,422,93495.527952
0.0,328,93508.03824
0.0,613,93531.042899
0.0,298,93542.303758
0.0,214,93549.25902
0.0,912,93582.149164
0.0,721,93607.142982
0.0,555,93626.62367
0.0,226,93634.34971
0.0,633,93658.008107
0.0,374,93670.564628
0.0,318,93680.409373
0.0,255,93690.00691
0.0,431,93707.439867
0.0,553,93726.504416
0.0,324,93737.918255
0.0,592,93758.573693
0.0,605,93782.066645
0.0,337,93792.482654
0.0,573,93812.776258
0.0,442,93828.556316
0.0,1247,93874.27852
0.0,409,93889.656631
0.0,367,93903.263609
0.0,480,93918.671878
0.0,1327,93967.122837
0.0,384,93979.849391
0.0,411,93994.221565
0.0,371,94008.34394
0.0,980,94042.725123
0.0,561,94060.795583
0.0,1573,94117.957443
0.0,227,94125.793315
0.0,241,94133.931924
0.0,1060,94171.470865
0.0,316,94180.996969
0.0,332,94191.811797
0.0,459,94208.203031
0.0,361,94220.213743
0.0,422,94236.062813
0.0,566,94254.497593
0.0,470,94270.974266
0.0,444,94286.205945
0.0,550,94305.664716
0.0,360,94317.234402
0.0,617,94339.37555
0.0,508,94355.13016
0.0,604,94374.37423
0.0,318,94385.639903
0.0,302,94395.165559
0.0,726,94419.39307
0.0,440,94431.677959
0.0,819,94461.815846
0.0,191,94468.124301
0.0,579,94485.736008
0.0,1554,94540.074
0.0,580,94557.273979
0.0,898,94585.956932
0.0,453,94602.453766
0.0,763,94626.689759
0.0,389,94639.228388
0.0,969,94672.798564
0.0,537,94690.673947
0.0,527,94707.394855
0.0,415,94720.866191
0.0,966,94754.560143
0.0,403,94766.489818
0.0,621,94784.794254
0.0,587,94804.474549
0.0,704,94829.301407
0.0,400,94842.66311
0.0,555,94860.509712
0.0,1134,94898.618774
0.0,352,94910.832618
0.0,692,94933.091281
0.0,716,94954.790085
0.0,1092,94992.560977
0.0,1303,95038.218514
0.0,240,95046.201735
0.0,744,95068.961822
0.0,823,95096.654883
0.0,424,95112.098983
0.0,745,95135.97649
0.0,1127,95173.238999
0.0,551,95192.12312
0.0,413,95205.411389
0.0,263,95213.546299
0.0,765,95238.619215
0.0,465,95255.371299
0.0,196,95261.326584
0.0,285,95270.509549
0.0,896,95296.35607
0.0,1078,95332.199892
0.0,265,95339.056906
0.0,292,95347.305938
0.0,439,95361.341076
0.0,680,95383.011539
0.0,822,95409.864426
0.0,418,95421.74519
0.0,441,95435.942144
0.0,517,95450.618239
0.0,621,95469.766374
0.0,481,95484.395953
0.0,228,95491.019771
0.0,569,95509.418261
0.0,490,95524.783646
0.0,584,95544.439798
0.0,334,95554.660675
0.0,453,95568.64443
0.0,380,95580.140618
0.0,386,95591.181552
0.0,422,95603.402692
0.0,279,95615.016575
0.0,323,95624.213947
0.0,1157,95659.33861
0.0,424,95672.820182
0.0,501,95690.42662
0.0,759,95714.419649
0.0,485,95730.221533
0.0,734,95754.949792
0.0,272,95762.787542
0.0,540,95780.360541
0.0,666,95800.276077
0.0,643,95820.987423
0.0,979,95850.916514
0.0,1043,95881.700221
0.0,264,95890.666784
0.0,328,95902.014443
0.0,896,95931.166937
0.0,747,95953.813369
0.0,370,95964.920468
0.0,571,95981.988208
0.0,351,95991.52932
0.0,554,96007.7198
0.0,1008,96042.730072
0.0,730,96065.239893
0.0,336,96076.300012
0.0,771,96099.425805
0.0,320,96110.716261
0.0,264,96117.495178
0.0,242,96125.088728
0.0,738,96147.209027
0.0,2089,96213.216907
0.0,697,96235.310093
0.0,436,96251.473136
0.0,267,96258.946932
0.0,382,96269.124766
0.0,685,96287.562478
0.0,447,96301.597237
0.0,557,96318.377312
0.0,463,96330.617909
0.0,444,96342.085969
0.0,504,96357.823821
0.0,558,96374.260417
0.0,1052,96406.898367
0.0,251,96412.802245
0.0,469,96425.793476
0.0,307,96434.417353
0.0,410,96447.967683
0.0,495,96463.135688
0.0,352,96472.356036
0.0,496,96486.080242
0.0,447,96498.582532
0.0,301,96510.220758
0.0,427,96521.656148
0.0,524,96535.234246
0.0,1322,96575.839728
0.0,1144,96610.454517
0.0,1448,96655.242978
0.0,464,96669.228455
0.0,595,96686.275437
0.0,1068,96719.990671
0.0,614,96737.399757
0.0,258,96743.866036
0.0,522,96759.045332
0.0,974,96789.557028
0.0,446,96801.919303
0.0,559,96819.653774
0.0,684,96841.074407
0.0,218,96846.308345
0.0,177,96851.177022
0.0,486,96862.547452
0.0,577,96880.02792
0.0,478,96892.471193
0.0,817,96917.489835
0.0,516,96933.46845
0.0,585,96949.85584
0.0,885,96977.085211
0.0,976,97004.623638
0.0,524,97019.917044
0.0,637,97041.962172
0.0,1218,97074.107064
0.0,321,97083.854889
0.0,562,97101.209566
0.0,888,97123.577779
0.0,617,97140.157799
0.0,257,97146.325788
0.0,380,97157.058336
0.0,231,97163.376444
0.0,589,97178.806633
0.0,1213,97209.999133
0.0,511,97225.439718
0.0,619,97241.642528
0.0,900,97264.3926
0.0,479,97279.967005
0.0,540,97294.036597
0.0,1008,97320.939672
0.0,521,97334.522319
0.0,224,97342.466876
0.0,393,97352.057277
0.0,959,97376.843451
0.0,1096,97407.762459
0.0,548,97423.209041
0.0,255,97430.141968
0.0,801,97450.390923
0.0,494,97467.128153
0.0,373,97476.281632
0.0,645,97492.687874
0.0,485,97505.249772
0.0,363,97515.372099
0.0,322,97525.317604
0.0,773,97544.40307
0.0,375,97553.656426
0.0,698,97572.989958
0.0,367,97584.170185
0.0,723,97603.473375
0.0,424,97615.086184
0.0,312,97622.273658
0.0,431,97633.669894
0.0,1324,97670.020874
0.0,211,97675.48592
0.0,367,97684.499771
0.0,970,97712.948503
0.0,969,97738.525139
0.0,671,97757.526628
0.0,678,97775.762862
0.0,774,97794.693903
0.0,219,97800.586234
0.0,521,97814.18503
0.0,362,97825.542163
0.0,495,97837.938984
0.0,898,97861.570061
0.0,1968,97917.081221
0.0,863,97939.645949
0.0,317,97950.519721
0.0,479,97963.068242
0.0,341,97971.617691
0.0,340,97980.217161
0.0,971,98009.916028
0.0,704,98027.079839
0.0,548,98040.970952
0.0,304,98049.433162
0.0,510,98063.614074
0.0,404,98074.312127
0.0,423,98085.44044
0.0,567,98101.63748
0.0,856,98125.817406
0.0,300,98133.056916
0.0,609,98150.239877
0.0,716,98168.49564
0.0,417,98179.481577
0.0,310,98189.180137
0.0,409,98199.533093
0.0,706,98217.394286
0.0,803,98239.469802
0.0,344,98249.666442
0.0,337,98257.725108
0.0,674,98275.595581
0.0,742,98296.177076
0.0,342,98306.289505
0.0,496,98317.432466
0.0,593,98332.720032
0.0,452,98344.288263
0.0,873,98367.965385
0.0,569,98383.076821
0.0,977,98407.873514
0.0,231,98414.148518
0.0,907,98440.240222
0.0,383,98448.675284
