# {"t_start": 1546750256.2212186, "env_id": "AmidarNoFrameskip-v4"} 
r,l,t
1.0,623,16.700176
70.0,821,33.255501
32.0,864,52.188587
92.0,766,69.550746
41.0,710,86.114091
32.0,533,98.479597
78.0,493,110.134361
31.0,472,120.831995
29.0,489,132.255995
50.0,653,147.09995
30.0,518,158.646392
24.0,524,170.48318
39.0,678,186.487744
74.0,526,198.718397
85.0,518,210.188487
24.0,535,222.165179
47.0,678,237.483118
29.0,580,250.338652
18.0,548,263.092789
39.0,529,275.249105
19.0,460,285.504726
88.0,692,300.971835
31.0,513,312.315189
34.0,531,324.354461
61.0,811,343.184632
43.0,638,357.756209
69.0,779,376.513983
86.0,679,392.956394
92.0,650,408.464646
42.0,532,420.482994
32.0,715,436.94353
99.0,695,453.681708
22.0,450,463.902784
92.0,820,483.147861
41.0,632,497.033157
102.0,687,512.873971
93.0,810,531.524685
27.0,522,543.149835
31.0,496,554.598325
93.0,630,569.161376
37.0,468,579.996306
33.0,626,594.857158
59.0,1078,619.643661
29.0,438,629.548902
46.0,662,645.06545
65.0,934,667.948895
48.0,990,690.75459
46.0,689,706.198709
49.0,747,722.938427
50.0,717,739.125304
44.0,437,749.159326
51.0,788,768.292848
22.0,480,779.221067
37.0,747,795.761441
43.0,878,815.607903
52.0,768,832.772757
43.0,470,843.292368
63.0,734,859.462455
40.0,495,870.681957
43.0,482,881.571394
56.0,738,898.731331
58.0,723,915.38777
79.0,526,927.902951
42.0,457,939.105923
64.0,813,957.563714
40.0,575,970.550556
41.0,530,982.671584
33.0,487,993.628322
89.0,798,1012.025755
36.0,535,1024.121591
33.0,570,1037.078778
48.0,785,1054.69506
79.0,497,1066.01944
89.0,788,1084.357664
93.0,711,1101.053047
86.0,471,1111.577374
36.0,535,1123.45369
49.0,753,1140.856863
42.0,812,1159.134929
45.0,748,1176.288491
45.0,570,1189.737806
45.0,741,1206.453543
102.0,809,1224.673631
62.0,793,1242.91952
49.0,741,1259.330336
106.0,960,1281.554742
94.0,766,1299.557268
45.0,699,1315.865601
55.0,894,1336.644991
53.0,893,1358.518096
95.0,819,1378.340142
53.0,843,1398.232849
48.0,713,1414.392535
49.0,732,1431.116681
60.0,1118,1456.840644
46.0,793,1474.490638
44.0,860,1493.834665
53.0,684,1509.349078
56.0,1116,1534.106735
52.0,894,1555.175631
66.0,855,1576.082553
52.0,843,1596.350756
58.0,981,1618.559643
58.0,880,1638.849479
34.0,549,1651.008288
59.0,1049,1674.473271
57.0,705,1690.476356
66.0,781,1708.197791
76.0,859,1727.168443
83.0,1211,1754.958746
71.0,928,1775.972102
71.0,1066,1800.399086
73.0,905,1820.923153
65.0,780,1838.26136
69.0,922,1859.479384
84.0,935,1880.714175
113.0,891,1900.850989
56.0,738,1917.442784
74.0,865,1936.760991
115.0,1375,1968.602142
73.0,969,1991.483541
91.0,1087,2017.696249
84.0,883,2037.585522
99.0,809,2056.162362
64.0,986,2078.402848
111.0,811,2097.642612
70.0,931,2119.007346
123.0,1014,2142.083236
70.0,877,2162.053346
74.0,809,2182.059129
67.0,882,2203.172809
65.0,811,2222.320766
63.0,766,2239.562127
59.0,757,2257.212353
77.0,962,2279.933291
100.0,1107,2305.110738
93.0,1108,2329.947058
75.0,968,2351.879095
103.0,710,2368.074857
65.0,761,2385.49403
80.0,920,2406.707003
90.0,1041,2430.281759
84.0,1046,2454.755914
94.0,1099,2480.416958
130.0,966,2502.529872
82.0,867,2521.861123
72.0,721,2538.387265
125.0,743,2555.098696
75.0,862,2574.768912
114.0,763,2592.027667
138.0,926,2612.674706
156.0,952,2634.338603
149.0,1163,2661.335627
64.0,766,2678.74879
146.0,1110,2704.281585
92.0,994,2726.958831
98.0,1088,2751.747104
199.0,943,2773.024686
80.0,841,2792.739921
153.0,921,2813.63952
122.0,834,2832.75373
130.0,1048,2856.320001
149.0,935,2877.211219
209.0,1057,2902.286297
158.0,895,2922.692831
198.0,967,2945.648835
105.0,1035,2969.054645
149.0,991,2992.149985
36.0,568,3005.514788
146.0,948,3027.235098
178.0,967,3048.858952
149.0,907,3069.280518
91.0,950,3090.645066
200.0,1059,3115.186774
153.0,933,3136.423702
147.0,855,3157.048267
135.0,836,3176.310058
99.0,851,3195.552186
157.0,885,3215.836253
162.0,937,3237.557918
100.0,680,3253.082554
155.0,762,3270.737164
149.0,896,3291.131128
155.0,992,3313.763382
107.0,1019,3337.474654
103.0,910,3359.189836
126.0,864,3379.174274
168.0,1006,3402.582495
177.0,1001,3425.316082
168.0,928,3446.316252
167.0,945,3467.902262
166.0,823,3486.207415
169.0,971,3507.663522
81.0,933,3528.830745
100.0,896,3549.268042
166.0,842,3568.172348
114.0,671,3583.696772
110.0,664,3598.569558
219.0,1218,3627.752513
160.0,866,3648.351448
167.0,871,3668.296812
167.0,965,3690.384165
172.0,810,3708.936793
168.0,1031,3732.597417
174.0,995,3755.154162
187.0,1102,3779.707672
128.0,1000,3802.262611
170.0,991,3825.269614
166.0,894,3845.532551
181.0,959,3867.600769
161.0,963,3889.548653
219.0,923,3910.621809
181.0,973,3932.997325
83.0,859,3952.714528
153.0,796,3971.415274
164.0,953,3992.772758
175.0,944,4014.02457
122.0,969,4035.954217
155.0,950,4058.61012
175.0,960,4080.155087
176.0,909,4100.412532
56.0,654,4116.118902
175.0,949,4137.599978
170.0,971,4159.191165
224.0,926,4180.109743
224.0,958,4202.740564
175.0,869,4223.732969
114.0,669,4239.366084
220.0,930,4261.804873
113.0,660,4277.170167
192.0,770,4294.640512
30.0,510,4306.66524
114.0,698,4322.886656
100.0,658,4338.587487
167.0,666,4354.009461
152.0,647,4368.467108
176.0,655,4383.214685
162.0,634,4397.74623
111.0,634,4413.009898
154.0,641,4428.208507
168.0,716,4445.810355
135.0,518,4458.23054
111.0,561,4471.800903
111.0,684,4488.453618
165.0,675,4503.926965
170.0,678,4519.568117
162.0,637,4533.901777
111.0,558,4546.252153
173.0,709,4562.24555
175.0,728,4578.857618
112.0,704,4594.476302
151.0,968,4616.849954
174.0,648,4631.585954
105.0,611,4645.643417
174.0,705,4661.483214
152.0,1036,4684.800681
176.0,714,4701.276555
106.0,696,4716.764283
99.0,792,4734.4659
175.0,703,4750.297401
173.0,719,4766.988549
175.0,778,4784.986733
236.0,850,4804.961365
174.0,654,4819.906742
129.0,567,4832.502188
163.0,696,4848.433973
239.0,851,4868.134323
153.0,1036,4891.944775
196.0,826,4910.641704
192.0,824,4930.012562
82.0,750,4947.766833
203.0,803,4965.712055
138.0,887,4985.529807
72.0,636,5000.106849
187.0,757,5017.210957
200.0,1174,5044.664888
179.0,791,5063.422626
186.0,864,5082.85858
206.0,804,5102.563913
144.0,945,5124.703322
189.0,903,5145.627832
173.0,832,5164.194435
174.0,807,5182.407475
121.0,715,5198.262689
195.0,881,5217.807111
235.0,1024,5241.078186
202.0,824,5259.394823
206.0,825,5278.722888
190.0,892,5299.150324
292.0,931,5320.068301
162.0,987,5342.866241
251.0,923,5364.684115
146.0,840,5385.050813
257.0,1008,5409.338036
237.0,989,5432.298702
214.0,786,5451.306772
256.0,921,5472.203462
289.0,1149,5498.253028
151.0,841,5517.031553
148.0,831,5537.083809
207.0,860,5557.092144
257.0,895,5577.679967
222.0,1238,5606.091944
208.0,1111,5632.115966
166.0,832,5650.928979
181.0,1302,5680.041796
205.0,1082,5704.341182
250.0,859,5724.068938
163.0,1000,5747.071509
263.0,1021,5770.679853
201.0,977,5793.596579
146.0,864,5812.938764
164.0,1108,5838.210066
224.0,1088,5864.571935
281.0,1140,5891.582087
199.0,889,5911.935206
228.0,1016,5935.478865
224.0,1094,5960.115638
183.0,1140,5986.870965
198.0,844,6006.18384
166.0,1036,6029.758763
210.0,973,6051.86165
237.0,1139,6077.825784
209.0,799,6095.533867
104.0,1086,6120.091705
193.0,924,6141.638359
114.0,899,6161.634944
201.0,1402,6193.318508
208.0,901,6213.684166
243.0,1193,6240.83018
207.0,803,6259.27893
313.0,1141,6285.2671
204.0,1166,6311.441932
215.0,855,6331.124453
286.0,1249,6362.023494
204.0,1130,6388.525378
148.0,1030,6411.830296
179.0,1036,6436.248372
189.0,973,6457.931583
201.0,865,6478.638556
215.0,980,6500.617993
151.0,868,6519.764202
207.0,885,6539.977428
102.0,1205,6567.528798
286.0,1265,6595.523668
189.0,961,6617.488823
162.0,728,6633.995627
79.0,1039,6657.576255
243.0,1160,6684.226361
184.0,1011,6707.004207
301.0,1301,6738.752458
174.0,760,6757.219592
308.0,1411,6791.721053
304.0,1089,6818.524306
268.0,1046,6842.693147
261.0,1251,6873.130294
132.0,958,6895.820777
354.0,1261,6924.577075
231.0,943,6945.736976
208.0,812,6964.591153
298.0,1185,6991.621763
234.0,1086,7018.033865
256.0,1499,7053.899764
215.0,800,7073.815392
230.0,1103,7099.551423
231.0,958,7122.629236
192.0,846,7141.46218
242.0,1264,7169.994562
300.0,1407,7202.380477
170.0,957,7224.223317
157.0,1141,7250.61962
214.0,1069,7275.258773
229.0,1014,7297.882841
206.0,852,7317.503163
233.0,1101,7343.673173
187.0,1098,7368.826989
248.0,1274,7397.607264
214.0,1329,7427.917276
183.0,1122,7453.000893
228.0,1088,7477.238659
281.0,1366,7508.929781
405.0,1968,7555.360278
191.0,1189,7583.122312
285.0,1153,7609.224526
132.0,910,7630.149241
163.0,893,7650.127496
154.0,825,7668.453853
162.0,831,7686.991187
338.0,1635,7725.023076
295.0,1196,7751.829222
309.0,1474,7785.135274
308.0,1365,7816.789586
182.0,1176,7843.678343
306.0,1452,7876.659461
181.0,1116,7902.37962
256.0,1429,7936.342923
172.0,660,7951.204183
272.0,1145,7977.090271
286.0,1701,8015.293451
174.0,713,8031.535902
105.0,610,8045.754009
253.0,1054,8069.370498
256.0,1452,8102.835418
292.0,1128,8129.241944
296.0,1333,8159.608552
310.0,1275,8188.824212
220.0,833,8208.73176
193.0,1090,8233.445053
235.0,1162,8259.717515
340.0,1206,8287.152028
341.0,1187,8314.797569
371.0,1267,8343.901403
295.0,1193,8370.589863
333.0,1146,8396.5869
144.0,865,8416.005745
242.0,1036,8440.239937
270.0,1374,8471.070378
242.0,1278,8500.064341
242.0,1276,8529.862135
361.0,1454,8563.625666
311.0,1285,8593.190998
191.0,1040,8616.380803
319.0,1377,8648.797151
360.0,1402,8680.815153
362.0,1413,8712.830048
363.0,1467,8746.524248
260.0,1369,8777.942801
298.0,1762,8818.095134
221.0,983,8840.662516
305.0,1324,8870.811285
403.0,1552,8905.610771
257.0,1156,8932.634933
316.0,1356,8963.477077
256.0,1337,8994.583967
153.0,689,9010.652672
286.0,1198,9038.370816
349.0,1252,9067.739595
306.0,1441,9102.089717
404.0,1389,9135.718185
298.0,1142,9161.976688
308.0,1504,9196.839942
224.0,1032,9221.133145
230.0,1258,9250.970282
223.0,965,9272.976725
204.0,805,9291.011291
246.0,1073,9315.204939
242.0,1120,9340.650759
345.0,1160,9367.611953
311.0,1565,9403.817303
298.0,1125,9429.939765
360.0,1467,9463.003647
195.0,949,9484.662581
284.0,1371,9516.086542
361.0,1381,9548.510349
360.0,1309,9578.266051
344.0,1161,9604.68839
412.0,1467,9638.940073
407.0,1367,9669.349676
410.0,1670,9707.44984
408.0,1573,9743.86869
260.0,1168,9770.128861
120.0,646,9785.266103
352.0,1453,9820.317557
351.0,1490,9853.443038
355.0,1492,9887.660019
233.0,1242,9916.546598
412.0,1294,9947.538175
375.0,1266,9977.266964
200.0,1147,10003.643789
306.0,1682,10041.345035
446.0,1387,10074.283284
257.0,1175,10103.243174
410.0,1564,10140.972955
151.0,903,10162.040771
121.0,749,10179.272273
368.0,1232,10207.203903
403.0,1321,10237.00763
435.0,1432,10269.629324
494.0,1457,10303.203831
458.0,1556,10339.258992
464.0,1651,10376.495991
325.0,1282,10405.367541
352.0,1502,10439.530662
453.0,1594,10476.732011
324.0,1217,10504.706835
399.0,1677,10542.801802
452.0,1425,10575.200265
411.0,1383,10607.007115
290.0,1165,10633.827253
354.0,1528,10671.587384
465.0,1281,10701.276999
240.0,895,10721.292654
221.0,1300,10750.509315
266.0,1191,10777.859318
246.0,1193,10806.183556
413.0,1358,10837.606568
247.0,1132,10862.859723
453.0,1562,10898.091822
452.0,1564,10933.661856
439.0,1356,10964.217947
395.0,1491,10998.497121
344.0,1174,11025.439492
208.0,919,11045.962271
278.0,1254,11074.10742
441.0,1316,11103.5603
217.0,1134,11129.644372
173.0,773,11146.81548
160.0,896,11167.959606
455.0,1420,11200.688102
171.0,989,11223.025551
461.0,1396,11255.228911
313.0,1307,11285.800987
212.0,913,11306.53245
272.0,1046,11330.1085
203.0,1051,11353.9875
396.0,1144,11379.513901
470.0,1308,11409.065609
283.0,1268,11438.638302
84.0,982,11460.527561
400.0,1070,11484.664802
314.0,1417,11516.900543
561.0,1653,11555.632374
423.0,1266,11585.447964
377.0,1604,11622.42205
369.0,1183,11650.902412
469.0,1470,11684.612581
519.0,1612,11721.08786
425.0,1408,11754.735175
282.0,1028,11777.88737
201.0,826,11796.165877
271.0,1184,11823.547549
440.0,1487,11858.614424
425.0,1407,11890.659338
470.0,1358,11921.441641
475.0,1463,11955.177455
117.0,674,11971.395819
208.0,935,11992.741179
204.0,1004,12016.188922
320.0,1261,12044.486854
242.0,1101,12069.631856
388.0,1478,12103.269314
411.0,1214,12131.672512
461.0,1554,12168.277674
514.0,1481,12203.128832
358.0,1408,12234.802092
274.0,1136,12260.64613
421.0,1397,12293.340208
393.0,1270,12322.574106
465.0,1472,12356.16884
470.0,1398,12388.784766
222.0,1117,12414.69633
418.0,1525,12450.556494
383.0,1336,12481.148184
525.0,2128,12529.148093
470.0,1289,12558.635286
475.0,1597,12595.902632
468.0,1438,12629.012752
264.0,969,12650.976774
470.0,1511,12685.198209
459.0,1398,12716.722587
474.0,2067,12765.857395
468.0,1269,12795.347192
520.0,1889,12838.837369
523.0,1795,12880.319624
248.0,1299,12909.85073
323.0,1044,12933.946744
209.0,847,12953.151477
419.0,1436,12985.634261
513.0,1453,13018.765998
473.0,1533,13053.399432
377.0,1740,13092.756098
226.0,1145,13119.583838
469.0,1229,13147.120948
370.0,1260,13175.930497
166.0,925,13196.567595
206.0,988,13219.381836
475.0,1611,13255.764736
281.0,1188,13282.775822
225.0,1028,13306.20793
353.0,1360,13336.998902
418.0,1254,13365.453802
472.0,1764,13407.223628
212.0,1085,13433.515186
541.0,1846,13477.595214
420.0,1294,13508.754268
471.0,1486,13543.162799
369.0,1219,13571.264915
470.0,1468,13606.081184
277.0,1271,13636.82458
196.0,898,13657.963916
414.0,1197,13686.010917
474.0,1308,13715.138031
256.0,918,13736.287467
470.0,1485,13771.075572
423.0,1369,13802.279727
468.0,1461,13835.455505
523.0,1455,13868.331846
528.0,1771,13908.690817
315.0,1268,13937.669817
350.0,1189,13965.061909
348.0,1409,13998.313674
194.0,904,14020.009929
189.0,854,14039.474261
326.0,1329,14070.056194
199.0,1392,14101.257953
369.0,1293,14131.016899
174.0,731,14147.435459
470.0,1618,14185.419434
210.0,939,14206.965589
218.0,893,14227.08991
477.0,2198,14278.176733
253.0,1088,14303.039289
316.0,1167,14329.752927
517.0,1427,14361.867284
378.0,1193,14388.982754
475.0,1693,14427.518455
381.0,1379,14458.506955
288.0,1249,14487.146547
281.0,1126,14512.894329
266.0,1105,14538.095112
325.0,968,14560.891328
420.0,1379,14592.498591
256.0,897,14613.54823
378.0,1403,14645.343651
390.0,1330,14676.775152
386.0,1394,14708.221088
335.0,1731,14749.691914
316.0,1728,14789.269974
353.0,1130,14816.97633
255.0,1313,14847.570292
201.0,894,14868.123005
308.0,1128,14893.366636
475.0,1393,14924.730811
205.0,937,14946.363421
438.0,1260,14975.400432
288.0,1493,15009.172288
248.0,1344,15039.657016
306.0,1390,15071.205769
444.0,1468,15104.665287
330.0,1235,15133.046279
304.0,986,15156.192522
250.0,979,15179.558207
334.0,1176,15206.399727
303.0,1281,15236.524042
358.0,1274,15266.284178
290.0,1015,15290.926483
240.0,1194,15318.034387
350.0,1416,15350.584202
428.0,1261,15378.549498
310.0,1222,15407.995977
302.0,946,15430.808397
383.0,1261,15460.030828
429.0,1568,15495.872076
330.0,1280,15524.786687
395.0,1408,15558.45513
324.0,995,15583.45297
587.0,1601,15622.450095
439.0,1286,15652.89712
544.0,1560,15688.884836
298.0,995,15711.655371
441.0,1393,15743.562078
545.0,1481,15777.022775
602.0,1333,15807.620799
571.0,1391,15840.861549
396.0,1251,15869.08982
494.0,1371,15901.267258
345.0,1292,15930.440423
447.0,1269,15959.288821
455.0,1511,15993.487789
507.0,1479,16026.7347
427.0,1258,16055.025436
567.0,1698,16094.52248
506.0,1510,16128.826736
461.0,1182,16155.370643
108.0,604,16169.302782
366.0,1826,16211.066522
465.0,1346,16241.698267
465.0,1345,16272.195217
606.0,1749,16311.998153
514.0,1417,16344.159376
549.0,1434,16376.270543
565.0,1463,16409.540174
41.0,505,16420.82383
564.0,1855,16463.312221
552.0,1490,16498.786251
558.0,1779,16541.620185
491.0,1495,16575.650414
512.0,1375,16607.682937
545.0,1459,16641.289581
513.0,1787,16681.841861
511.0,1714,16721.136581
515.0,1612,16759.30728
456.0,1289,16788.632239
567.0,1857,16832.044483
447.0,1373,16863.562375
498.0,1421,16895.931392
565.0,1569,16931.716744
490.0,1759,16973.5802
152.0,581,16986.441042
510.0,1659,17023.625693
415.0,1419,17056.504405
338.0,1153,17082.975821
403.0,1446,17116.373352
443.0,1621,17152.788349
556.0,1538,17187.647241
482.0,1228,17216.080511
203.0,612,17229.981841
438.0,1348,17260.606785
414.0,1118,17285.8937
515.0,1483,17319.582478
434.0,1387,17352.805853
466.0,1815,17394.643965
429.0,1112,17420.170167
476.0,1407,17453.014351
562.0,2084,17502.496393
484.0,1152,17529.158746
349.0,1620,17568.082718
511.0,1762,17611.765335
318.0,1352,17643.069807
363.0,1475,17676.614783
556.0,1873,17719.191315
660.0,2152,17769.08615
588.0,1473,17803.544856
366.0,1212,17831.152428
592.0,1715,17870.837124
483.0,1580,17907.165829
589.0,1598,17943.194117
564.0,1497,17978.197573
546.0,1555,18013.64927
495.0,1527,18048.385224
378.0,1064,18072.964141
484.0,1137,18099.233935
452.0,2086,18146.721047
547.0,1458,18180.038634
602.0,1469,18213.613726
505.0,1353,18244.081029
463.0,1573,18280.778051
506.0,1313,18310.930929
400.0,1357,18341.427459
544.0,1445,18375.79654
564.0,1796,18419.078438
409.0,1086,18445.745234
588.0,1567,18482.263724
465.0,1486,18516.794629
434.0,1145,18542.654728
589.0,1542,18577.981314
482.0,1148,18604.455119
482.0,1128,18629.656692
472.0,1405,18661.875507
554.0,1494,18696.411026
293.0,1119,18722.133677
431.0,1138,18748.295775
329.0,1015,18771.649951
593.0,1621,18808.217121
312.0,1276,18837.522758
526.0,1299,18867.683923
593.0,1353,18898.638314
588.0,1685,18936.460575
593.0,1433,18969.500843
641.0,1481,19003.017277
467.0,1254,19031.303105
642.0,1481,19066.844437
588.0,1674,19105.171783
128.0,705,19120.988994
539.0,1693,19159.225888
544.0,1385,19190.466413
422.0,1374,19223.32028
540.0,1430,19255.581347
446.0,1121,19280.983507
593.0,1449,19313.686185
593.0,1473,19347.543737
439.0,1136,19373.53712
462.0,1215,19401.526491
590.0,1743,19441.867358
593.0,1836,19485.441952
441.0,1379,19517.528985
593.0,1455,19550.739577
593.0,1422,19582.866735
593.0,1430,19615.396236
641.0,1646,19653.987283
593.0,1391,19687.148718
544.0,1423,19721.729005
592.0,1394,19754.215655
593.0,1731,19793.363164
588.0,1733,19834.889706
545.0,1566,19870.630381
593.0,1410,19904.532913
592.0,1429,19937.464031
593.0,1437,19970.503471
592.0,1415,20003.630396
137.0,750,20021.161969
588.0,1397,20052.69383
593.0,1422,20084.87214
536.0,1495,20120.334434
544.0,1398,20152.655071
544.0,1500,20187.131547
544.0,1468,20220.528783
448.0,1520,20255.889875
593.0,1438,20291.501587
588.0,1542,20327.861721
592.0,1449,20361.568996
484.0,1367,20394.285615
540.0,1711,20432.767061
545.0,1419,20465.137733
690.0,1691,20503.691733
446.0,1113,20528.875698
637.0,2107,20576.4984
539.0,1305,20606.638684
593.0,1429,20641.027531
593.0,1420,20673.054759
542.0,1435,20705.445908
345.0,1099,20730.080287
739.0,2040,20776.46171
692.0,1718,20816.69551
347.0,1149,20842.756233
593.0,1359,20873.986065
545.0,1364,20905.213914
382.0,1216,20932.902012
544.0,1347,20963.38925
644.0,1664,21001.784749
593.0,1392,21034.659685
638.0,1637,21072.156068
641.0,1351,21103.18264
638.0,1516,21139.435769
592.0,1584,21177.202739
532.0,1725,21217.63747
593.0,1390,21248.719415
592.0,1413,21280.782913
641.0,1540,21317.129502
642.0,1472,21350.229005
642.0,1390,21382.502433
594.0,1397,21414.993656
691.0,1600,21451.592659
438.0,1259,21480.710299
638.0,1410,21512.779367
594.0,1382,21544.799103
402.0,1248,21574.806039
594.0,1462,21610.804059
592.0,1540,21645.762628
635.0,1383,21678.504012
590.0,1528,21715.715973
592.0,1424,21747.954115
642.0,1695,21787.110067
639.0,1481,21820.413655
641.0,1567,21855.707798
690.0,1478,21889.898751
584.0,1317,21921.712921
740.0,2001,21970.528371
686.0,1725,22010.769652
687.0,1519,22045.720745
593.0,1309,22076.236566
691.0,1741,22115.260965
642.0,1517,22150.039138
740.0,1507,22184.641142
692.0,1725,22224.451483
651.0,1569,22259.963393
689.0,1771,22300.771975
677.0,1583,22336.579656
691.0,1375,22368.408738
690.0,1374,22400.093791
563.0,1364,22430.906166
691.0,1599,22467.975943
689.0,1360,22499.691046
125.0,720,22515.795095
556.0,1671,22554.994543
691.0,1357,22585.337766
637.0,1433,22618.579066
641.0,1514,22652.580001
690.0,1434,22684.909935
633.0,1544,22720.27467
705.0,1746,22759.987171
638.0,1396,22791.874239
689.0,1383,22823.720998
740.0,1616,22861.107021
642.0,1762,22901.440581
641.0,1610,22937.838055
735.0,1708,22976.473859
691.0,1560,23013.184309
588.0,1341,23043.937326
690.0,1452,23076.862176
686.0,1388,23108.271089
637.0,1372,23139.377748
740.0,1645,23176.160793
588.0,1586,23212.201371
637.0,1541,23248.136311
686.0,1442,23280.9334
83.0,603,23294.990222
682.0,1601,23331.468728
641.0,1473,23366.770536
593.0,1369,23397.708504
635.0,1446,23430.460614
643.0,1740,23470.09615
643.0,1357,23501.300404
643.0,1494,23534.591367
642.0,1569,23570.437041
592.0,1418,23602.676923
686.0,1675,23641.595696
686.0,1368,23672.591661
691.0,1458,23705.903864
691.0,1508,23739.759984
685.0,1385,23772.243778
210.0,1174,23799.050212
642.0,1593,23835.610625
595.0,1320,23865.234528
691.0,1485,23898.585825
433.0,1031,23922.913254
686.0,1473,23956.830768
643.0,1335,23988.087368
735.0,1625,24025.496172
585.0,1335,24056.34969
643.0,1352,24087.422432
691.0,1470,24120.798523
690.0,1366,24153.616291
690.0,1371,24185.247209
691.0,1490,24219.307442
585.0,1331,24249.004998
685.0,1349,24280.030179
642.0,1341,24310.371984
593.0,1506,24345.632886
639.0,1725,24385.981107
691.0,1697,24423.861339
740.0,2046,24472.585919
638.0,1477,24506.270536
690.0,1382,24538.799978
691.0,1364,24570.101793
361.0,1212,24599.157313
689.0,1357,24629.916388
593.0,1543,24664.880247
691.0,1364,24695.348383
643.0,1378,24726.848325
642.0,1475,24761.355647
739.0,1647,24799.817832
691.0,1365,24831.011295
691.0,1531,24866.589238
690.0,1481,24900.967041
690.0,1473,24934.128951
686.0,1471,24967.610002
690.0,1358,24998.473246
691.0,1428,25031.040501
594.0,1359,25061.824965
689.0,1360,25092.400155
691.0,1464,25125.922965
643.0,1485,25159.369902
691.0,1364,25192.013725
593.0,1442,25224.569486
734.0,1503,25260.809612
642.0,1842,25302.907637
739.0,1848,25346.036151
639.0,1496,25380.560804
686.0,1459,25413.038818
691.0,1728,25452.939788
485.0,1912,25496.856667
689.0,1494,25531.865869
642.0,1359,25563.092809
692.0,1899,25607.276597
692.0,1648,25644.20954
691.0,1522,25678.840102
691.0,1373,25709.916635
691.0,1467,25743.639838
590.0,1409,25775.304564
641.0,1507,25809.755172
740.0,1907,25853.537158
740.0,1787,25893.499991
691.0,1741,25932.866846
637.0,1625,25970.379883
193.0,997,25993.862365
593.0,1418,26026.675117
593.0,1250,26054.960835
641.0,1271,26083.440803
691.0,1738,26123.582773
686.0,1511,26158.401483
639.0,1937,26202.804643
689.0,1415,26234.964263
685.0,1514,26269.110606
685.0,1364,26300.248384
739.0,1883,26344.247768
689.0,1374,26375.218494
690.0,1524,26409.733486
689.0,1513,26443.803216
735.0,1717,26484.408062
642.0,1461,26517.834403
639.0,1460,26550.674574
740.0,1529,26585.747658
688.0,1374,26616.737993
690.0,1355,26647.632005
685.0,1548,26682.633789
690.0,1461,26716.334692
681.0,1472,26750.080351
637.0,1376,26781.147281
642.0,1480,26815.764358
691.0,1356,26846.527347
583.0,1385,26877.990165
642.0,1434,26910.572803
689.0,1386,26943.213646
740.0,1465,26977.129175
686.0,1904,27020.84438
639.0,1430,27053.373601
643.0,1524,27088.075473
690.0,1384,27119.354004
593.0,1952,27163.88014
688.0,1379,27195.891685
691.0,1364,27227.502432
735.0,1738,27266.868814
642.0,1418,27300.005549
690.0,1743,27340.292738
689.0,1830,27381.782742
681.0,1769,27421.870366
490.0,1358,27452.629585
643.0,1367,27483.702308
690.0,1769,27524.905593
686.0,1345,27555.601641
643.0,1369,27586.39959
640.0,1485,27620.180085
686.0,1760,27661.071809
740.0,1512,27696.280631
638.0,1339,27724.726927
540.0,1762,27761.215957
691.0,1374,27790.098282
686.0,1601,27823.909434
690.0,1387,27853.085243
641.0,1354,27881.540179
584.0,1200,27908.447988
691.0,1712,27946.124183
389.0,1216,27971.274796
691.0,1351,28001.01298
541.0,1291,28027.926718
643.0,1370,28055.25858
691.0,1523,28085.306434
690.0,1457,28112.921033
740.0,1388,28139.517486
735.0,1690,28170.213024
639.0,1343,28193.474142
686.0,1355,28216.651186
740.0,1395,28241.06541
690.0,1374,28263.870322
735.0,1632,28290.601779
327.0,1226,28310.51827
685.0,1397,28333.511587
740.0,1384,28356.243621
642.0,1612,28382.857296
691.0,1390,28406.01322
691.0,1359,28429.208859
691.0,1349,28451.385822
691.0,1379,28474.184233
691.0,1388,28496.73233
691.0,1389,28519.69677
690.0,1389,28542.679463
739.0,1568,28568.61049
642.0,1475,28593.080747
691.0,1387,28615.692735
685.0,1372,28638.261691
691.0,1372,28661.487164
586.0,1308,28684.078571
