# {"t_start": 1546750257.2069814, "env_id": "AmidarNoFrameskip-v4"} 
r,l,t
6.0,692,17.984595
39.0,929,36.706174
34.0,627,50.683483
45.0,634,64.963133
88.0,963,87.118113
14.0,534,99.636643
97.0,703,116.257509
73.0,484,127.19447
34.0,464,138.136342
33.0,624,152.160808
41.0,681,167.391518
42.0,526,179.592048
17.0,477,191.238894
8.0,538,203.254052
50.0,666,218.09954
8.0,535,230.090517
26.0,537,241.953885
51.0,639,256.515948
25.0,519,268.709605
47.0,612,282.421057
47.0,665,297.36886
30.0,496,308.346259
17.0,450,318.339879
42.0,680,334.374617
78.0,486,345.035783
47.0,700,361.299253
99.0,971,384.480221
42.0,775,403.31233
14.0,434,413.708211
46.0,727,430.045355
34.0,666,445.770283
45.0,623,460.45133
52.0,638,475.330814
32.0,620,489.446855
41.0,518,500.980729
44.0,648,515.859105
33.0,711,532.136197
43.0,671,547.574493
45.0,618,561.485039
35.0,506,573.317262
46.0,607,587.907665
32.0,670,603.263008
47.0,721,619.714471
33.0,696,635.580443
63.0,1147,663.767894
42.0,770,681.828187
50.0,707,697.406361
35.0,713,713.503733
57.0,755,730.585319
37.0,456,740.566166
22.0,481,751.853481
32.0,465,762.832213
29.0,441,773.588093
53.0,977,795.355058
28.0,459,805.811448
28.0,485,816.663551
61.0,780,834.072114
35.0,701,849.61431
50.0,689,864.893313
61.0,730,881.548437
27.0,524,893.62286
26.0,445,903.658456
48.0,779,922.505259
57.0,654,938.213372
22.0,470,948.713207
123.0,511,960.232134
49.0,462,970.621137
43.0,540,982.952176
28.0,465,993.467485
30.0,478,1004.278253
55.0,689,1019.895349
42.0,571,1033.111086
84.0,512,1044.782377
94.0,772,1062.072704
36.0,567,1075.058067
60.0,829,1094.298424
104.0,1041,1118.503882
51.0,793,1136.684904
62.0,734,1152.858893
126.0,516,1164.594393
42.0,804,1183.539442
42.0,794,1201.722302
93.0,807,1219.896341
45.0,777,1237.638354
104.0,832,1256.144777
50.0,675,1271.62261
48.0,763,1289.081114
47.0,931,1311.399523
32.0,471,1322.175385
55.0,975,1345.162976
52.0,956,1368.552607
31.0,505,1380.707351
51.0,754,1398.411983
45.0,734,1415.264088
59.0,876,1434.936218
45.0,720,1451.665962
46.0,775,1468.923646
50.0,924,1489.798742
49.0,740,1506.520216
49.0,675,1521.350486
50.0,981,1543.827293
48.0,797,1563.13908
54.0,712,1579.987856
50.0,863,1600.940997
55.0,904,1621.093628
76.0,1226,1649.028323
104.0,991,1671.292579
126.0,916,1691.936162
71.0,867,1711.641467
74.0,949,1732.746331
100.0,819,1751.591106
64.0,824,1770.236009
70.0,1212,1797.935453
65.0,908,1818.37014
46.0,764,1835.592116
121.0,1025,1859.142862
58.0,833,1878.105994
59.0,878,1897.861358
58.0,1208,1925.077792
118.0,931,1945.892013
75.0,969,1968.632521
57.0,839,1988.271475
51.0,798,2007.793627
63.0,788,2025.612598
69.0,863,2045.683557
82.0,849,2064.89853
118.0,1067,2089.43519
79.0,943,2111.373178
84.0,908,2131.820296
73.0,1019,2155.216976
70.0,849,2175.789365
59.0,804,2195.38627
45.0,545,2208.15751
81.0,845,2227.785903
86.0,1093,2252.865664
96.0,1104,2279.12193
75.0,929,2300.034677
57.0,792,2317.8783
75.0,828,2336.336429
74.0,814,2354.920681
122.0,889,2375.316938
105.0,1084,2400.244056
103.0,834,2419.514145
89.0,865,2438.809423
134.0,968,2461.997844
131.0,1150,2488.626655
92.0,912,2509.24089
104.0,1155,2535.331451
131.0,1077,2559.848933
99.0,969,2582.017267
104.0,1137,2607.288998
88.0,791,2625.323486
103.0,879,2645.173895
105.0,963,2667.74396
104.0,980,2689.934923
155.0,988,2712.76639
142.0,926,2733.802114
142.0,884,2753.877193
152.0,1092,2778.697988
193.0,954,2801.036589
133.0,944,2822.287816
99.0,850,2841.69428
143.0,835,2860.331561
157.0,850,2879.680111
140.0,1092,2905.386873
157.0,1068,2930.050811
96.0,853,2949.817929
148.0,1134,2975.880792
146.0,1084,3000.878971
138.0,1100,3026.696386
101.0,676,3041.757805
74.0,735,3058.389074
132.0,833,3077.014497
138.0,943,3098.431212
182.0,995,3121.289497
124.0,919,3142.379431
61.0,658,3158.159656
57.0,662,3173.873212
175.0,969,3195.527393
152.0,1069,3219.979328
112.0,946,3242.028411
43.0,527,3254.288581
66.0,601,3267.959274
173.0,1003,3290.763279
161.0,967,3312.871475
215.0,919,3334.149577
163.0,854,3354.207845
162.0,945,3376.795417
173.0,1049,3401.060644
181.0,902,3421.446498
168.0,990,3443.742631
185.0,1027,3467.061509
169.0,973,3488.912058
219.0,1069,3512.581623
171.0,923,3533.471357
102.0,965,3555.608205
98.0,1261,3584.749719
174.0,1024,3608.591226
163.0,766,3626.305549
173.0,755,3643.875154
166.0,758,3661.957372
174.0,873,3681.722676
203.0,984,3704.526985
186.0,1111,3729.799181
164.0,948,3751.465646
175.0,971,3773.037898
168.0,920,3793.706965
175.0,972,3816.053475
168.0,895,3836.589128
171.0,876,3856.209101
172.0,932,3877.946823
173.0,924,3898.784246
120.0,871,3918.918805
175.0,893,3939.394833
158.0,844,3958.919281
180.0,984,3981.752318
170.0,934,4002.582778
174.0,969,4024.193063
175.0,904,4045.007922
142.0,880,4065.853988
169.0,976,4087.694051
170.0,701,4103.42862
110.0,733,4121.108321
175.0,933,4141.97746
159.0,863,4161.189483
157.0,1037,4184.796258
224.0,943,4206.894103
245.0,887,4228.573621
164.0,944,4250.694945
170.0,701,4267.747192
174.0,934,4289.054552
224.0,924,4310.455062
117.0,660,4326.02059
124.0,781,4344.740499
96.0,610,4358.565197
102.0,1346,4389.025184
166.0,719,4405.975605
173.0,639,4421.361321
162.0,715,4438.167874
116.0,732,4456.117522
105.0,644,4471.835588
72.0,539,4484.973246
105.0,688,4500.988467
123.0,532,4513.11162
106.0,890,4533.155557
105.0,649,4547.692969
172.0,666,4563.043113
121.0,812,4581.337078
176.0,715,4597.255638
196.0,972,4619.642123
168.0,656,4634.660492
174.0,943,4655.974167
165.0,635,4670.478745
174.0,651,4684.998014
202.0,813,4703.582337
221.0,717,4719.682822
162.0,940,4740.643972
173.0,708,4757.014808
172.0,652,4772.03865
170.0,800,4790.55829
25.0,444,4800.793589
118.0,628,4815.1739
186.0,840,4834.336314
192.0,794,4852.648564
203.0,819,4871.545439
126.0,599,4885.343736
179.0,654,4900.003915
171.0,769,4918.065807
206.0,855,4937.484254
27.0,485,4949.083955
183.0,876,4968.683926
176.0,743,4985.357421
119.0,777,5003.117666
161.0,661,5018.214153
151.0,844,5037.369684
300.0,1060,5062.848902
179.0,1116,5088.430521
196.0,839,5108.879996
203.0,825,5128.06207
183.0,821,5146.807698
188.0,915,5167.586287
185.0,1015,5190.141367
241.0,1045,5213.400025
239.0,1056,5237.505299
233.0,826,5255.848229
203.0,1018,5279.395063
247.0,902,5300.08687
288.0,1012,5323.000503
236.0,969,5345.503364
100.0,837,5365.176717
183.0,782,5384.285596
152.0,919,5406.345635
297.0,1052,5431.068405
160.0,1174,5458.73979
313.0,1141,5484.559197
262.0,1148,5510.460151
248.0,1064,5535.409696
200.0,1136,5562.423991
225.0,1045,5586.09951
99.0,659,5601.053436
312.0,1044,5625.506725
211.0,832,5644.614016
96.0,794,5662.390883
168.0,1017,5685.205332
214.0,844,5704.064505
263.0,994,5727.001789
258.0,1434,5759.600114
293.0,1019,5783.916381
238.0,1237,5812.115943
239.0,871,5831.776913
313.0,1235,5861.322954
288.0,956,5884.21673
236.0,1018,5907.466193
203.0,824,5926.546824
210.0,1208,5954.132755
247.0,889,5974.916571
275.0,1058,5999.438561
186.0,1136,6025.333456
215.0,1172,6051.816217
260.0,1294,6081.151454
203.0,819,6099.375291
202.0,918,6120.201137
210.0,901,6140.918923
151.0,851,6160.255033
233.0,1075,6184.217454
132.0,538,6196.799145
207.0,1190,6223.702652
246.0,1053,6247.277587
253.0,975,6269.800343
260.0,1563,6305.145061
202.0,1187,6332.621876
208.0,851,6353.069318
203.0,901,6374.930759
372.0,1591,6411.558392
194.0,1139,6438.409444
305.0,1391,6470.132952
185.0,925,6491.508328
207.0,1403,6522.733551
189.0,860,6542.604817
196.0,1159,6568.763698
322.0,1205,6595.541781
196.0,875,6615.442389
255.0,1411,6647.681908
154.0,1026,6671.027795
158.0,829,6689.930651
137.0,584,6702.995176
301.0,1290,6734.626796
143.0,1389,6768.752572
229.0,1016,6793.23166
91.0,792,6812.431564
124.0,779,6830.569406
303.0,1233,6859.579698
197.0,882,6881.168407
252.0,1240,6910.503938
305.0,1215,6937.65473
266.0,1184,6965.266569
191.0,871,6984.64814
303.0,1294,7015.529853
206.0,1377,7048.744282
302.0,1283,7080.287206
222.0,1204,7108.673892
220.0,1118,7134.488164
254.0,1270,7163.113308
161.0,928,7184.092298
233.0,1349,7215.457027
162.0,1229,7243.808615
227.0,1018,7266.856687
109.0,802,7285.396864
261.0,1080,7309.939602
177.0,762,7327.380341
185.0,970,7350.473428
226.0,778,7368.135757
126.0,792,7385.78113
155.0,837,7404.800742
235.0,1157,7431.325494
252.0,897,7451.099923
284.0,1115,7476.107947
249.0,1230,7504.690561
225.0,752,7522.018661
307.0,1442,7556.218586
279.0,1045,7580.395189
101.0,862,7599.512201
305.0,1374,7631.273172
165.0,871,7650.834981
235.0,1020,7673.753194
115.0,1011,7696.476276
186.0,1141,7722.939201
289.0,1413,7754.798439
296.0,1195,7781.701722
219.0,1397,7814.37934
282.0,1090,7838.76416
224.0,1037,7862.786679
346.0,1473,7896.480753
207.0,831,7916.380492
246.0,1225,7944.340774
159.0,797,7962.654095
211.0,1468,7995.560045
204.0,1167,8021.908193
240.0,1148,8048.481908
241.0,1192,8075.253649
256.0,1469,8109.678917
303.0,1314,8140.003456
241.0,1188,8166.606481
214.0,991,8190.035218
260.0,1102,8215.426365
304.0,1300,8244.981328
255.0,1209,8272.446755
358.0,1591,8309.114972
404.0,1530,8344.452146
337.0,1104,8369.307149
175.0,766,8386.747788
299.0,1282,8415.190963
208.0,1648,8453.313758
349.0,1140,8479.050174
169.0,791,8496.872944
242.0,1138,8523.412771
180.0,842,8543.175228
306.0,1441,8576.791714
347.0,1220,8604.037374
345.0,1478,8638.555415
252.0,1284,8667.850727
292.0,1117,8693.060857
277.0,1097,8718.248017
343.0,1178,8745.237323
228.0,1105,8770.684781
241.0,1261,8798.788148
260.0,1327,8829.717999
238.0,1404,8861.699564
395.0,1263,8889.8843
147.0,834,8908.702822
284.0,1232,8937.320189
230.0,883,8957.271237
211.0,842,8977.116178
230.0,1349,9008.235225
368.0,1389,9040.663817
242.0,1282,9070.586544
267.0,1662,9110.912675
226.0,1051,9135.852399
301.0,1290,9165.377097
136.0,774,9183.53461
230.0,986,9206.63168
216.0,1186,9234.179573
181.0,1454,9268.263144
203.0,921,9288.808676
223.0,1085,9313.58838
244.0,1238,9341.509671
264.0,1443,9375.056129
196.0,857,9394.654389
360.0,1447,9428.390762
353.0,1327,9458.603326
152.0,846,9477.292101
318.0,1509,9512.256513
242.0,1171,9539.815596
310.0,1036,9563.438586
196.0,886,9583.448608
361.0,1492,9617.440411
361.0,1523,9652.625068
196.0,1360,9683.084777
364.0,1663,9721.526026
408.0,1503,9755.996433
194.0,959,9777.815235
399.0,1531,9814.773108
175.0,708,9830.523176
342.0,1206,9857.685922
404.0,1400,9889.810105
297.0,1150,9916.416688
345.0,1158,9944.036184
413.0,1355,9976.183431
404.0,1403,10008.502745
417.0,1401,10039.71682
331.0,1245,10068.605866
369.0,1404,10103.418448
283.0,1067,10129.82232
361.0,1211,10158.094433
411.0,1357,10189.32212
190.0,836,10207.911224
404.0,1489,10241.630026
297.0,1246,10269.967177
404.0,1521,10305.13368
306.0,1359,10336.336507
517.0,1574,10372.174176
345.0,1376,10403.301353
404.0,1561,10438.652409
174.0,654,10454.465424
445.0,1202,10481.561368
441.0,1313,10511.560788
462.0,1570,10547.390165
243.0,1161,10573.837992
203.0,819,10592.295708
448.0,1319,10622.585323
300.0,1087,10648.661212
357.0,1388,10682.260589
461.0,1613,10719.420382
446.0,1456,10751.89506
386.0,1172,10778.809226
307.0,1554,10815.98431
394.0,1315,10845.819088
334.0,1413,10877.605002
408.0,1517,10911.478748
403.0,1333,10942.319317
448.0,1598,10978.155289
447.0,1438,11011.634374
214.0,1023,11034.618442
446.0,1513,11068.606295
322.0,1067,11092.38018
388.0,1182,11119.396241
461.0,1363,11150.079413
277.0,973,11173.468679
314.0,1150,11199.43745
149.0,819,11218.194397
463.0,1374,11249.421217
309.0,1110,11275.812484
406.0,1312,11305.749032
465.0,1342,11336.019719
462.0,1552,11371.006575
448.0,1549,11406.003619
461.0,1865,11448.880394
384.0,1212,11476.17722
120.0,696,11491.651603
314.0,1432,11524.562694
270.0,1194,11552.570562
316.0,1367,11584.90201
377.0,1377,11616.503587
369.0,1202,11645.007383
420.0,1296,11675.501816
200.0,878,11695.095336
272.0,1086,11719.463904
516.0,1427,11753.367665
469.0,1341,11783.877388
420.0,1278,11813.085471
515.0,1372,11844.954199
425.0,1289,11874.69401
420.0,1278,11903.891508
470.0,1277,11932.753137
476.0,1513,11968.59683
515.0,1412,12001.111452
417.0,1518,12035.889114
572.0,1650,12073.605106
415.0,1340,12103.929604
297.0,1321,12134.966637
470.0,1650,12174.040536
425.0,1521,12209.416576
235.0,958,12230.677197
425.0,1300,12260.425162
467.0,1743,12301.162808
467.0,1411,12333.536387
420.0,1786,12374.353672
468.0,1687,12414.037797
470.0,1438,12447.759121
518.0,1546,12483.435125
474.0,1384,12514.602571
518.0,1750,12554.333312
470.0,1316,12585.245321
283.0,1168,12611.945626
366.0,1732,12651.467779
466.0,1254,12679.798903
462.0,1687,12717.870923
216.0,830,12737.653671
313.0,1071,12763.053807
419.0,1305,12793.386554
471.0,1467,12826.818088
523.0,1553,12862.948983
185.0,786,12881.231642
524.0,2271,12933.232325
219.0,894,12953.417497
469.0,1398,12985.097543
365.0,1283,13014.501805
314.0,1084,13038.640502
365.0,1884,13081.399159
178.0,814,13099.728365
369.0,1247,13128.839675
474.0,1989,13173.936475
332.0,1220,13201.485286
386.0,1293,13231.305647
404.0,1554,13266.213554
236.0,1215,13294.133787
128.0,865,13313.575171
225.0,1021,13336.67168
398.0,1496,13370.968098
568.0,1860,13414.733963
374.0,1182,13443.667534
225.0,1134,13470.740401
519.0,1349,13503.438439
321.0,1288,13533.195631
182.0,842,13552.540736
321.0,1279,13582.251158
321.0,1295,13612.994575
474.0,1554,13650.267122
469.0,1427,13683.89987
152.0,662,13698.549251
186.0,819,13717.02427
110.0,565,13729.847035
619.0,1908,13774.473461
344.0,1284,13803.89507
288.0,1112,13828.916276
517.0,1767,13868.792974
375.0,1227,13896.867809
525.0,1714,13935.729171
408.0,1540,13971.429847
523.0,1733,14012.856798
443.0,1440,14046.419545
452.0,1357,14077.0328
515.0,1643,14114.263565
573.0,1609,14151.427662
515.0,1780,14192.655643
522.0,1940,14237.478236
298.0,1116,14263.10485
344.0,1244,14291.902095
513.0,1534,14326.941491
527.0,1591,14362.744787
421.0,1524,14397.836531
246.0,1167,14424.138348
307.0,1102,14448.92969
283.0,853,14467.877392
155.0,869,14487.962294
327.0,1364,14519.351725
247.0,920,14540.315809
122.0,1050,14565.181185
279.0,1064,14589.144905
473.0,1768,14630.068747
203.0,900,14650.70111
405.0,1220,14679.511292
189.0,978,14701.466759
439.0,1350,14732.643628
432.0,1696,14772.58682
349.0,1212,14801.026994
428.0,1468,14836.1818
381.0,1424,14869.219105
284.0,1642,14906.289567
361.0,1391,14938.009699
495.0,1385,14970.137787
309.0,947,14991.45923
274.0,1092,15016.017668
374.0,1888,15059.141437
295.0,902,15079.546461
262.0,933,15100.322253
325.0,1488,15134.801495
383.0,1653,15174.196573
379.0,1222,15201.790479
335.0,1309,15232.54674
353.0,1294,15262.867647
300.0,1196,15292.269845
341.0,1704,15330.678782
368.0,1203,15358.076702
535.0,1675,15396.629467
470.0,1445,15432.156106
590.0,1722,15471.380132
444.0,1535,15506.442576
392.0,1235,15534.65972
551.0,1437,15570.031886
376.0,1132,15597.227638
295.0,924,15620.675338
547.0,1458,15655.102855
338.0,1235,15683.572902
404.0,1416,15715.85025
507.0,1566,15751.851497
562.0,1513,15785.894032
640.0,1373,15817.459611
397.0,1251,15847.462013
344.0,1230,15874.996254
283.0,1030,15899.326611
384.0,1137,15925.139668
603.0,1512,15959.517644
412.0,1482,15993.11129
506.0,1659,16030.334334
508.0,1389,16061.825084
508.0,1807,16103.606064
155.0,924,16124.548675
318.0,1478,16158.031148
38.0,443,16167.985195
518.0,1776,16208.669522
439.0,1230,16236.947283
363.0,931,16257.849453
408.0,1276,16286.995297
416.0,1426,16319.164143
360.0,1296,16348.630409
289.0,1207,16375.605792
612.0,1787,16416.031531
465.0,1521,16451.013989
502.0,1728,16490.949067
515.0,1454,16527.400984
412.0,1454,16560.549604
349.0,947,16581.770391
562.0,1591,16619.496002
463.0,1870,16661.682173
541.0,1660,16699.853365
480.0,1215,16727.881125
511.0,1810,16770.354378
400.0,1162,16796.447741
692.0,1741,16837.597377
543.0,1418,16869.598968
382.0,1330,16900.231501
545.0,1469,16933.902211
512.0,1754,16975.461934
436.0,1122,17000.360631
329.0,1141,17025.91949
313.0,992,17049.076945
408.0,1706,17088.363238
420.0,1130,17114.487257
471.0,1262,17142.701712
457.0,1800,17183.551459
558.0,1591,17220.042066
380.0,1103,17245.263087
369.0,1049,17269.155686
382.0,1278,17298.054998
441.0,1283,17327.379341
116.0,584,17340.655321
420.0,1092,17367.357384
565.0,1572,17403.338106
464.0,1408,17436.24855
339.0,1086,17461.589453
452.0,1071,17486.094978
379.0,1219,17515.140635
492.0,1777,17557.351147
434.0,1320,17589.467334
346.0,1501,17625.759021
511.0,1331,17656.240407
179.0,859,17675.918361
480.0,1481,17709.549867
545.0,1463,17742.390593
564.0,1467,17777.570327
465.0,1142,17803.802132
545.0,1445,17837.112691
258.0,1457,17870.570618
515.0,1360,17901.818101
513.0,1361,17932.426335
529.0,1535,17968.246449
445.0,1436,18000.777688
544.0,1434,18033.676603
172.0,783,18051.430761
466.0,1125,18077.345382
640.0,1511,18112.654594
481.0,1367,18143.398114
550.0,1260,18172.164842
636.0,1398,18203.881452
599.0,1433,18236.356376
430.0,1505,18271.33527
538.0,1305,18301.137502
540.0,1427,18333.544752
431.0,1249,18362.774808
589.0,1389,18396.120115
666.0,1743,18438.858188
488.0,1390,18471.544107
508.0,1403,18503.846081
493.0,1514,18538.65778
542.0,1461,18571.730702
331.0,1096,18597.261639
541.0,1468,18630.099904
545.0,1557,18665.810832
593.0,1438,18699.597029
540.0,1433,18732.310372
540.0,1464,18765.723446
419.0,1438,18798.608283
544.0,1325,18828.591758
470.0,1304,18859.42533
405.0,1605,18895.734833
593.0,1709,18934.141566
540.0,1697,18973.493239
593.0,1502,19006.998159
497.0,1698,19046.785299
218.0,849,19066.763596
593.0,1423,19099.316324
447.0,1387,19130.676013
447.0,1329,19160.53021
277.0,804,19178.395646
544.0,1770,19220.477851
576.0,1369,19251.474237
593.0,1435,19283.975173
489.0,1373,19315.119588
380.0,1210,19342.400564
492.0,1422,19375.393912
533.0,1457,19408.99188
588.0,1404,19441.444383
593.0,1479,19476.345947
497.0,1793,19518.813558
594.0,1795,19559.230243
593.0,1457,19592.071414
592.0,1435,19624.725088
592.0,1772,19667.32169
636.0,1808,19711.179507
478.0,1271,19741.332877
593.0,1815,19782.111063
593.0,1398,19814.961269
590.0,1404,19848.198989
391.0,1205,19875.765969
589.0,1357,19908.483742
536.0,1373,19939.788531
445.0,1135,19965.782072
541.0,1427,19998.63312
592.0,1703,20038.339768
593.0,1341,20068.934757
535.0,1432,20101.394497
593.0,1400,20134.836605
489.0,1131,20160.722292
491.0,1338,20191.701995
594.0,1340,20221.847512
590.0,1817,20264.681972
540.0,1784,20308.353063
93.0,710,20324.792547
593.0,1433,20358.263698
592.0,1445,20392.649355
541.0,1505,20426.773473
545.0,1386,20458.376074
694.0,1977,20503.317475
587.0,1392,20534.717688
643.0,1379,20565.890647
633.0,1516,20600.464801
541.0,1430,20634.957992
543.0,1736,20674.534745
686.0,1961,20718.601732
681.0,1430,20750.888634
593.0,1439,20783.719123
689.0,1374,20816.125984
639.0,1482,20849.828514
498.0,1348,20880.503438
641.0,1698,20919.578567
593.0,1373,20950.653363
302.0,1228,20978.959694
592.0,1267,21008.157819
545.0,1281,21038.380878
642.0,1502,21072.706099
691.0,1628,21110.563082
586.0,1415,21144.20602
540.0,1463,21179.310072
593.0,1531,21214.873064
689.0,1759,21254.439265
685.0,1618,21291.41236
630.0,1420,21324.605299
644.0,1641,21361.950074
593.0,1391,21394.678101
641.0,1713,21433.43263
690.0,1468,21468.108299
691.0,1395,21499.47916
691.0,1475,21533.644893
637.0,1726,21574.782001
642.0,1461,21610.777263
585.0,1410,21642.590106
545.0,1381,21675.371737
691.0,1706,21716.933812
587.0,1291,21746.097801
690.0,1394,21778.341414
545.0,1361,21808.861176
642.0,1455,21841.780585
593.0,1535,21876.421622
641.0,1358,21908.692185
740.0,1638,21948.176051
472.0,1400,21982.423766
636.0,1368,22014.249365
689.0,1374,22045.788826
642.0,1492,22080.290556
690.0,1712,22119.102204
593.0,1563,22154.73909
690.0,1516,22189.420542
642.0,1928,22233.795378
740.0,1505,22268.221083
690.0,1376,22299.824313
688.0,1366,22330.631184
710.0,1664,22368.975602
545.0,1714,22408.457005
396.0,1445,22441.21138
642.0,1796,22483.642173
594.0,1378,22514.811307
643.0,1586,22551.983082
686.0,1663,22589.404192
594.0,1442,22622.629222
588.0,1395,22654.088828
638.0,1584,22689.596746
641.0,1377,22721.221457
391.0,1292,22750.79407
586.0,1368,22782.13296
595.0,1368,22813.179812
229.0,1139,22839.645183
691.0,1431,22872.552628
642.0,1466,22905.977282
690.0,1441,22938.708339
424.0,1203,22965.529874
690.0,1532,23001.35088
642.0,1457,23034.988526
691.0,1373,23066.295774
642.0,1732,23105.376454
689.0,1383,23136.827959
435.0,1487,23170.135767
691.0,1394,23201.785969
691.0,1756,23242.408331
691.0,1424,23274.793751
642.0,1382,23306.499015
642.0,1442,23339.858944
684.0,1454,23374.409502
643.0,1463,23407.639458
643.0,1738,23446.715624
639.0,1487,23481.067326
643.0,1541,23515.91885
684.0,1357,23546.498585
789.0,1608,23583.045358
691.0,1601,23619.847854
740.0,1608,23657.066985
641.0,1370,23688.283137
686.0,1553,23723.364485
642.0,1326,23753.597579
494.0,1681,23792.665684
588.0,1367,23823.805389
691.0,1612,23860.138597
524.0,1160,23886.434025
641.0,1665,23925.217735
638.0,1512,23959.833724
642.0,1599,23997.053488
644.0,1604,24034.273821
639.0,1472,24068.285665
642.0,1311,24097.896858
686.0,1457,24131.681412
689.0,1377,24164.571712
686.0,1464,24198.187504
656.0,1345,24228.585408
691.0,1700,24267.237761
691.0,1770,24307.462556
636.0,1327,24338.255387
690.0,1467,24373.086058
759.0,1949,24416.987303
638.0,1765,24459.176178
691.0,1357,24489.876552
343.0,1180,24516.634991
642.0,1484,24551.419409
686.0,1491,24586.971458
589.0,1328,24617.404212
592.0,1402,24649.448082
690.0,1474,24682.261587
691.0,1509,24716.265109
691.0,1366,24748.516924
689.0,1390,24781.002028
689.0,1447,24814.011192
636.0,1460,24848.399987
681.0,1477,24881.795136
642.0,1510,24916.851755
691.0,1750,24956.46639
533.0,1230,24984.04543
691.0,1450,25017.667614
691.0,1711,25056.451998
690.0,1465,25089.148299
411.0,1349,25120.215526
643.0,1515,25154.553041
691.0,1478,25189.394729
587.0,1405,25221.355719
643.0,1472,25256.273425
641.0,1516,25291.369624
691.0,1710,25331.115155
62.0,608,25345.22034
740.0,1487,25379.495759
691.0,1411,25411.028705
691.0,1715,25450.452725
641.0,1725,25489.356143
690.0,1902,25534.417356
738.0,1633,25572.344642
691.0,1439,25605.450908
638.0,1363,25636.187819
691.0,1352,25666.694385
636.0,1362,25697.6246
691.0,1354,25728.563612
739.0,1578,25764.479628
691.0,1357,25795.297983
690.0,1724,25834.603093
691.0,1778,25874.99133
642.0,1473,25907.82581
690.0,1341,25938.471496
738.0,1477,25972.659558
595.0,1678,26011.915357
690.0,1349,26042.747075
740.0,1408,26074.289026
198.0,687,26089.676149
691.0,1766,26130.48998
691.0,1856,26173.563158
642.0,1490,26207.231184
686.0,1372,26238.577167
643.0,1609,26274.908859
690.0,1397,26306.80003
692.0,1579,26343.494591
690.0,1358,26374.499477
690.0,1441,26407.051561
232.0,1077,26431.176676
685.0,1354,26462.878733
686.0,1446,26496.501218
681.0,1380,26527.857761
638.0,1409,26559.864083
685.0,1504,26594.060293
691.0,1347,26624.532745
633.0,1383,26656.017586
439.0,1496,26689.655639
740.0,1565,26726.182117
739.0,1786,26766.727222
544.0,1342,26797.828941
638.0,1365,26829.06301
691.0,1357,26860.185838
690.0,1578,26895.790871
685.0,1464,26929.828429
685.0,1436,26963.414781
786.0,1817,27005.254102
593.0,1418,27037.230191
643.0,1394,27069.517273
640.0,1425,27101.291398
691.0,1420,27133.632624
691.0,1377,27165.15516
740.0,1683,27204.33391
689.0,1388,27236.289931
690.0,1365,27266.972439
638.0,1732,27307.810238
691.0,1747,27347.489939
690.0,1353,27378.265494
692.0,1411,27410.186548
691.0,1601,27446.641134
691.0,1452,27479.227207
690.0,1351,27510.635415
691.0,1359,27541.891227
688.0,1773,27582.175766
643.0,1393,27613.771507
690.0,1401,27646.328685
497.0,1491,27680.984442
540.0,1269,27709.338769
691.0,1463,27740.037596
686.0,1455,27769.82588
690.0,1350,27799.071178
639.0,1365,27827.078871
740.0,1615,27861.143202
686.0,1380,27890.652741
688.0,1660,27927.747695
685.0,1457,27959.133685
689.0,1385,27988.703113
638.0,1353,28017.496876
686.0,1362,28045.39983
690.0,1362,28072.242145
636.0,1598,28103.045624
639.0,1355,28128.747685
540.0,1534,28157.976489
691.0,1384,28181.919729
643.0,1378,28205.492753
643.0,1376,28229.545926
690.0,1494,28254.807229
691.0,1346,28276.843764
739.0,1714,28304.793566
635.0,1382,28327.438952
690.0,1392,28350.408576
686.0,1419,28373.845197
739.0,1391,28396.82625
688.0,1375,28420.04367
788.0,1870,28451.287524
586.0,1293,28472.630292
690.0,1394,28495.415778
691.0,1392,28518.440561
685.0,1372,28540.938897
639.0,1372,28563.766783
684.0,1483,28588.239516
789.0,1617,28614.770518
686.0,1345,28636.895754
593.0,1404,28660.509171
691.0,1367,28684.203654
