# {"t_start": 1546716437.0448296, "env_id": "PongNoFrameskip-v4"} 
r,l,t
-21.0,901,24.887681
-21.0,779,42.138882
-21.0,882,61.101699
-21.0,916,82.414684
-21.0,884,102.477452
-21.0,820,121.013666
-21.0,760,137.763235
-21.0,789,155.122171
-20.0,893,174.512325
-21.0,764,191.485528
-21.0,762,208.346557
-21.0,762,226.191617
-21.0,764,243.508662
-21.0,762,261.025775
-21.0,757,277.790898
-21.0,787,295.623672
-21.0,785,313.791961
-21.0,848,332.147787
-20.0,1190,359.269639
-20.0,839,377.986793
-21.0,820,396.36603
-21.0,762,413.747591
-21.0,759,430.563051
-21.0,759,447.451632
-21.0,760,464.191093
-21.0,760,480.853231
-20.0,917,501.956437
-21.0,762,519.558938
-21.0,759,536.749049
-21.0,817,555.164403
-21.0,881,574.917311
-20.0,1024,597.512441
-19.0,1085,621.541809
-21.0,820,639.713213
-21.0,780,657.367136
-21.0,822,675.786205
-20.0,1036,698.739228
-21.0,1000,720.804685
-20.0,1039,743.901836
-21.0,884,763.827335
-21.0,940,784.73742
-21.0,760,801.286197
-21.0,899,821.24122
-20.0,839,840.032803
-21.0,965,861.710043
-21.0,761,878.493577
-21.0,758,895.216174
-21.0,759,912.145057
-21.0,759,929.384334
-21.0,757,945.92454
-20.0,978,967.752047
-21.0,761,985.012735
-21.0,757,1001.371713
-21.0,759,1018.729526
-21.0,763,1035.957579
-21.0,761,1053.52415
-21.0,761,1070.79502
-21.0,758,1087.757624
-21.0,763,1104.809893
-21.0,759,1121.410799
-21.0,761,1138.796553
-21.0,758,1155.330553
-21.0,760,1172.061798
-21.0,760,1188.937021
-21.0,763,1205.612764
-21.0,757,1222.234356
-21.0,758,1240.412816
-21.0,761,1257.777086
-21.0,762,1274.610637
-21.0,761,1291.248916
-21.0,763,1308.277028
-21.0,764,1325.464571
-21.0,763,1342.846348
-21.0,758,1359.683001
-21.0,817,1378.627405
-21.0,786,1395.697153
-21.0,764,1412.461764
-21.0,759,1429.655378
-21.0,758,1446.197274
-20.0,832,1464.777615
-21.0,791,1482.337241
-21.0,762,1498.939395
-21.0,764,1515.933997
-21.0,758,1533.127574
-21.0,764,1550.703588
-21.0,760,1568.071046
-21.0,758,1585.208211
-21.0,762,1602.703354
-21.0,759,1620.448633
-21.0,763,1637.214149
-21.0,761,1654.005042
-21.0,758,1670.614665
-21.0,759,1687.183271
-21.0,763,1703.724274
-21.0,760,1720.573404
-21.0,764,1738.116593
-21.0,757,1755.006963
-21.0,760,1771.656892
-21.0,760,1788.721315
-21.0,757,1805.653859
-21.0,763,1822.183454
-21.0,758,1838.971301
-21.0,763,1855.757856
-21.0,764,1872.407384
-21.0,757,1889.600589
-20.0,840,1908.917621
-21.0,968,1930.287868
-21.0,935,1951.17713
-21.0,882,1970.792691
-20.0,1016,1993.317237
-21.0,1004,2016.176755
-21.0,884,2035.758276
-20.0,974,2057.959947
-21.0,824,2076.217253
-20.0,995,2098.812851
-20.0,958,2120.994899
-20.0,978,2142.102617
-21.0,821,2160.517872
-20.0,1050,2184.82796
-21.0,792,2202.073709
-21.0,884,2221.417407
-21.0,818,2239.708022
-21.0,760,2256.114468
-21.0,763,2273.165334
-21.0,761,2291.325673
-21.0,759,2308.726646
-21.0,764,2325.607674
-21.0,763,2342.489972
-21.0,762,2359.468465
-21.0,757,2376.003243
-21.0,759,2393.06222
-21.0,762,2410.272009
-21.0,759,2427.394818
-21.0,760,2443.874192
-21.0,762,2460.458173
-21.0,761,2477.61867
-21.0,757,2494.640814
-20.0,840,2513.834752
-21.0,785,2531.81469
-21.0,762,2548.617906
-21.0,757,2565.268109
-21.0,759,2582.301185
-21.0,814,2600.400601
-21.0,760,2616.983375
-21.0,760,2633.813437
-21.0,763,2650.456101
-21.0,759,2667.014925
-21.0,759,2684.202091
-21.0,762,2701.528314
-21.0,764,2718.406536
-21.0,757,2734.696826
-21.0,760,2751.384823
-21.0,760,2768.577284
-21.0,758,2785.42333
-21.0,757,2802.425071
-21.0,791,2819.614655
-21.0,819,2838.090072
-20.0,838,2857.553561
-21.0,776,2876.161817
-21.0,760,2893.063418
-21.0,811,2910.650822
-21.0,757,2927.278258
-21.0,761,2944.375886
-21.0,758,2961.06674
-20.0,840,2979.973629
-21.0,1178,3006.242252
-21.0,758,3024.437093
-21.0,760,3041.330114
-21.0,759,3057.921973
-21.0,760,3074.779519
-21.0,757,3091.125564
-21.0,764,3108.399244
-21.0,764,3125.748723
-21.0,820,3144.117275
-21.0,787,3161.64243
-20.0,831,3180.683424
-20.0,927,3201.741078
-20.0,902,3222.577235
-21.0,910,3242.65291
-21.0,783,3259.633953
-21.0,879,3279.09981
-21.0,880,3298.694163
-21.0,906,3319.118278
-21.0,788,3336.386011
-21.0,909,3357.319853
-21.0,762,3374.60704
-21.0,849,3392.96957
-19.0,998,3415.103811
-21.0,763,3432.160569
-21.0,759,3448.683189
-21.0,757,3465.345281
-21.0,759,3483.196978
-21.0,848,3501.490452
-20.0,918,3523.231116
-21.0,790,3540.64153
-21.0,791,3558.807538
-21.0,787,3576.370916
-21.0,762,3593.238701
-21.0,757,3610.105615
-21.0,757,3627.149858
-21.0,757,3644.650917
-21.0,760,3662.968243
-21.0,762,3680.150348
-21.0,760,3696.544119
-20.0,837,3715.263143
-21.0,879,3734.836866
-21.0,761,3751.509143
-21.0,760,3768.385173
-21.0,757,3785.239146
-21.0,758,3802.34543
-21.0,760,3820.207389
-21.0,763,3837.413305
-21.0,757,3854.005703
-21.0,762,3871.079159
-21.0,939,3892.285816
-20.0,1001,3914.054328
-20.0,835,3932.794886
-20.0,928,3953.535098
-20.0,835,3972.417465
-21.0,758,3989.469257
-21.0,763,4006.114178
-21.0,763,4023.901961
-21.0,762,4040.914367
-21.0,759,4058.103512
-21.0,791,4075.630167
-19.0,950,4096.877257
-21.0,821,4114.989628
-21.0,811,4133.859129
-21.0,791,4151.086616
-21.0,818,4169.91709
-21.0,792,4188.051793
-21.0,758,4204.951007
-21.0,758,4222.818875
-21.0,761,4239.285243
-20.0,841,4258.92713
-21.0,805,4277.212958
-21.0,759,4294.046804
-21.0,817,4312.786467
-21.0,786,4330.910673
-21.0,845,4349.36602
-20.0,1011,4371.944951
-21.0,759,4389.00117
-21.0,851,4407.670295
-20.0,960,4430.071769
-20.0,870,4448.85951
-21.0,817,4467.668286
-21.0,760,4484.944272
-21.0,776,4502.289378
-21.0,845,4521.424763
-20.0,976,4544.148267
-21.0,1032,4566.730339
-21.0,883,4586.693382
-21.0,817,4604.362826
-21.0,806,4622.819688
-20.0,951,4643.760756
-20.0,859,4662.649957
-20.0,1046,4685.898148
-20.0,842,4704.448099
-21.0,760,4721.021779
-21.0,758,4738.215838
-21.0,809,4756.169911
-21.0,811,4773.950308
-21.0,759,4791.38821
-21.0,816,4809.7506
-21.0,758,4827.472621
-21.0,806,4845.477118
-21.0,808,4863.95498
-21.0,807,4882.227339
-21.0,806,4900.664099
-21.0,809,4918.478363
-21.0,762,4935.20232
-21.0,811,4953.405709
-21.0,761,4970.636647
-21.0,761,4987.812224
-21.0,810,5006.350297
-21.0,788,5024.137674
-21.0,808,5042.08469
-21.0,810,5060.036819
-21.0,810,5078.191331
-21.0,811,5096.169179
-21.0,809,5113.978217
-21.0,807,5131.585263
-21.0,805,5149.31992
-21.0,832,5167.691523
-21.0,856,5187.69979
-21.0,821,5207.303888
-20.0,836,5226.006169
-21.0,818,5244.364561
-20.0,979,5265.45229
-21.0,789,5282.867164
-21.0,788,5301.398777
-20.0,898,5320.804427
-21.0,842,5339.176485
-20.0,1099,5363.759793
-19.0,1150,5389.116016
-20.0,1047,5412.096029
-20.0,916,5432.363589
-20.0,976,5454.128515
-21.0,944,5475.735044
-21.0,937,5497.024878
-21.0,781,5515.202306
-20.0,1041,5537.801999
-21.0,913,5558.242644
-20.0,867,5577.259968
-19.0,941,5599.253262
-20.0,870,5618.134236
-20.0,939,5639.178761
-20.0,831,5658.654849
-20.0,891,5679.211856
-21.0,827,5697.635795
-21.0,758,5714.701921
-21.0,761,5731.495465
-21.0,782,5748.758845
-20.0,898,5768.949982
-21.0,1000,5791.187052
-21.0,942,5812.739253
-21.0,910,5832.77977
-21.0,908,5853.077315
-21.0,880,5872.722795
-21.0,757,5889.773468
-21.0,763,5906.482202
-21.0,762,5923.415855
-21.0,758,5939.619389
-21.0,759,5957.04168
-21.0,760,5974.786436
-21.0,764,5991.724189
-21.0,942,6013.100493
-19.0,1071,6037.801695
-20.0,840,6056.411146
-20.0,1018,6079.501414
-19.0,938,6100.755335
-18.0,1067,6124.278578
-20.0,963,6145.57062
-19.0,908,6165.777692
-20.0,1075,6190.24312
-21.0,778,6208.198484
-21.0,786,6225.581377
-21.0,787,6242.674246
-20.0,862,6261.74211
-21.0,804,6279.393872
-20.0,942,6301.06291
-20.0,1135,6326.294943
-21.0,868,6345.881788
-21.0,759,6362.645454
-21.0,792,6380.060701
-20.0,1078,6404.27344
-21.0,933,6424.822215
-21.0,805,6442.738818
-19.0,950,6464.21039
-20.0,1025,6486.569778
-20.0,959,6507.475933
-21.0,758,6524.578315
-21.0,759,6542.025154
-20.0,1185,6568.612174
-21.0,937,6589.705685
-21.0,839,6608.218931
-18.0,1244,6635.926965
-20.0,1181,6662.330863
-18.0,1324,6692.260778
-20.0,1019,6714.93416
-20.0,949,6736.556724
-20.0,1111,6761.347737
-18.0,1113,6786.765688
-19.0,1115,6812.268598
-19.0,1130,6837.464
-19.0,1254,6864.735142
-18.0,1390,6896.298187
-19.0,1190,6923.183547
-20.0,1327,6952.920317
-18.0,1293,6981.747889
-19.0,1197,7008.8939
-19.0,1465,7041.892259
-20.0,1312,7071.871812
-18.0,1514,7105.918576
-18.0,1356,7135.610327
-20.0,1109,7161.024316
-20.0,886,7180.431694
-19.0,930,7202.381037
-16.0,1605,7239.022408
-20.0,839,7257.54585
-20.0,913,7277.544568
-21.0,823,7295.569465
-21.0,757,7312.295598
-21.0,763,7329.051548
-15.0,1364,7359.405346
-10.0,1831,7400.692187
-19.0,1490,7434.019215
-18.0,1336,7463.099906
-21.0,761,7480.479658
-18.0,1297,7509.510562
-17.0,1197,7536.153567
-8.0,2003,7580.924232
-11.0,1609,7616.382701
-12.0,1704,7654.186388
-15.0,1738,7692.731567
-11.0,1787,7733.864726
-13.0,1702,7771.050953
-17.0,1633,7806.989694
-19.0,1951,7850.238402
-12.0,2504,7906.744953
-19.0,1498,7939.617274
-6.0,1961,7984.190799
-4.0,2136,8031.796283
-7.0,1956,8075.491094
-13.0,1613,8111.160525
-17.0,1377,8141.453559
-9.0,2134,8189.082499
-14.0,2115,8236.812006
-18.0,1598,8272.623783
-21.0,1580,8307.024112
-18.0,2964,8374.307783
-2.0,2483,8430.735658
-1.0,2928,8495.817807
-20.0,1437,8528.127905
-21.0,1566,8562.849151
-21.0,1315,8593.723819
-20.0,1374,8625.742008
-4.0,2676,8684.984782
-21.0,1514,8719.029739
-7.0,2938,8785.011158
4.0,3178,8856.508186
-18.0,3068,8924.680169
-21.0,2104,8971.143613
-11.0,4132,9062.573338
-15.0,5500,9184.325948
-8.0,4838,9291.011746
-21.0,2306,9343.206998
-6.0,6261,9483.306156
-12.0,3797,9569.857749
-19.0,1766,9608.955469
-20.0,1749,9647.883415
-21.0,2925,9714.277913
-2.0,5010,9825.931157
-21.0,1284,9854.613656
-9.0,3537,9934.567161
-21.0,2538,9991.10103
-21.0,3356,10067.482707
-21.0,1932,10110.122663
-9.0,5054,10224.363254
-21.0,3476,10301.717462
-5.0,5092,10415.997418
-21.0,2263,10465.908416
-7.0,3389,10541.771851
-6.0,5303,10659.714415
-7.0,4984,10772.001435
-3.0,4777,10878.069756
-8.0,4820,10986.03511
-3.0,4265,11080.835143
5.0,4511,11180.163353
-20.0,2047,11226.052291
-20.0,1965,11270.090286
-19.0,1986,11313.676514
-19.0,1894,11356.567329
-19.0,1776,11397.486171
-5.0,2651,11457.21892
-8.0,2415,11510.936555
-21.0,1211,11538.353052
-5.0,2549,11594.976979
-7.0,2368,11647.777769
-3.0,2803,11710.15734
-2.0,2838,11773.148349
-3.0,2741,11834.044751
-2.0,2820,11897.114484
-4.0,2631,11954.983535
-2.0,2984,12022.343527
-5.0,2934,12087.281155
-3.0,3154,12158.929032
-9.0,2178,12207.116974
-7.0,2334,12258.702172
-10.0,2100,12305.95295
-7.0,2269,12356.480417
-3.0,2492,12411.335291
-8.0,1995,12455.443739
8.0,2212,12506.27271
-18.0,1315,12535.169809
20.0,1689,12573.172702
14.0,2005,12617.830836
12.0,2073,12664.322636
-11.0,1859,12705.080996
-9.0,2163,12753.504577
-11.0,1924,12796.01557
-4.0,2586,12853.882188
-10.0,2049,12899.759689
4.0,2734,12960.810116
-3.0,2766,13022.447334
6.0,2640,13081.628651
-3.0,2647,13141.523219
-7.0,2363,13193.982952
-9.0,2090,13241.181595
-1.0,3058,13309.134791
-1.0,3062,13377.245766
-8.0,2233,13426.411017
-3.0,2680,13485.754908
-3.0,2783,13546.616992
-6.0,2440,13601.619515
-4.0,2609,13658.979145
-1.0,2939,13724.523816
-4.0,2661,13785.014501
-4.0,2688,13844.765556
-4.0,2563,13902.009481
-4.0,2537,13958.779917
18.0,1804,13998.762833
7.0,2499,14055.013304
8.0,2451,14109.299879
-1.0,2817,14172.963073
-1.0,2779,14235.338869
-2.0,2699,14295.35429
-6.0,2103,14341.755624
10.0,2257,14391.593838
20.0,1689,14429.678467
1.0,2885,14494.606443
1.0,2884,14559.116365
-1.0,2833,14622.444917
17.0,1836,14662.895852
-1.0,2786,14726.552833
20.0,1692,14764.686343
-4.0,2587,14822.698078
12.0,2158,14872.05277
-2.0,2697,14933.520017
-1.0,2850,14996.868624
13.0,1935,15040.888344
-3.0,2884,15105.121973
18.0,1777,15145.425231
15.0,1934,15189.084146
20.0,1689,15228.074282
20.0,1689,15267.080027
20.0,1690,15304.647751
-2.0,3000,15370.802671
-3.0,2690,15430.130594
14.0,1989,15473.796604
10.0,2292,15524.585995
-1.0,2855,15587.837694
17.0,1863,15629.31741
-1.0,2836,15692.300743
-1.0,2792,15753.917124
-1.0,2652,15812.045041
-4.0,2549,15869.918879
17.0,1839,15910.287798
-4.0,2696,15970.827631
-1.0,2828,16034.346072
21.0,1717,16072.045773
-3.0,2734,16133.392576
1.0,2994,16202.031176
14.0,1986,16246.135166
2.0,2629,16304.699965
-7.0,2275,16355.218256
-1.0,2910,16422.45609
-3.0,2574,16479.456553
1.0,3160,16550.476279
2.0,2924,16615.722409
-2.0,2839,16679.960212
15.0,2072,16725.917747
14.0,2128,16774.134564
2.0,2880,16838.051272
2.0,2945,16903.549706
4.0,2694,16963.71967
-2.0,2768,17024.656979
-1.0,2817,17088.531326
17.0,1927,17131.638937
-13.0,1661,17168.431929
16.0,1998,17213.2589
13.0,2202,17263.982033
4.0,2813,17327.666634
20.0,1691,17365.419101
2.0,2847,17429.128254
-5.0,2603,17487.973184
-1.0,3129,17558.465213
13.0,2241,17608.615684
-11.0,1791,17649.413386
-2.0,2757,17712.182823
11.0,2496,17768.217849
10.0,2298,17819.176472
-2.0,2801,17882.57914
18.0,1894,17925.224044
14.0,2227,17975.007744
17.0,1863,18016.142304
1.0,2930,18081.721746
17.0,1931,18125.715077
17.0,1926,18169.926649
2.0,2914,18233.737592
20.0,1688,18271.978518
1.0,2773,18333.145636
16.0,1923,18376.094649
6.0,2686,18437.39965
4.0,2793,18498.933189
-20.0,914,18520.108528
-20.0,916,18540.75359
15.0,2074,18587.378012
17.0,1929,18630.30461
17.0,1931,18673.091653
21.0,1717,18711.129554
20.0,1778,18750.449697
15.0,2087,18797.104795
1.0,2933,18862.188662
17.0,1930,18905.295073
5.0,2937,18970.901501
21.0,1714,19008.756083
-1.0,3009,19075.923464
21.0,1718,19113.977391
1.0,3034,19182.092832
1.0,2977,19248.372749
-3.0,2726,19308.944295
-15.0,1543,19343.777734
-13.0,1920,19386.099234
-5.0,2490,19442.126039
-6.0,2551,19498.305793
-4.0,2634,19556.959473
1.0,2825,19619.502379
6.0,2606,19677.021527
-8.0,2441,19730.546928
3.0,2775,19793.317242
16.0,2118,19840.074737
5.0,2501,19898.627497
3.0,2813,19961.651318
2.0,2875,20027.389204
1.0,2976,20096.217154
1.0,2976,20163.985249
3.0,2803,20225.540681
-1.0,2921,20291.530427
15.0,1956,20335.433336
11.0,2279,20385.894007
21.0,1711,20424.54065
17.0,1841,20465.323638
1.0,3002,20532.971926
2.0,2890,20597.368139
11.0,2625,20656.912315
1.0,3010,20724.511471
1.0,2927,20789.883697
-3.0,2604,20847.468948
3.0,2707,20908.100386
3.0,2878,20973.318924
6.0,2766,21034.252779
18.0,1863,21075.495863
6.0,3241,21147.101707
18.0,1954,21191.415194
6.0,3027,21259.856505
19.0,1902,21302.061083
17.0,1930,21346.417881
2.0,3062,21414.049228
3.0,2821,21476.709366
2.0,3068,21544.543594
15.0,2155,21593.145838
6.0,2838,21656.326948
17.0,1932,21698.772864
8.0,2712,21760.008715
7.0,2749,21822.337406
21.0,1715,21860.970969
9.0,2848,21923.868952
21.0,1712,21962.515131
7.0,2666,22023.306785
21.0,1714,22061.498138
17.0,1927,22106.209235
21.0,1713,22143.758101
8.0,2877,22208.614493
21.0,1714,22247.069975
17.0,2067,22293.071582
21.0,1711,22332.635623
18.0,1952,22376.408812
8.0,2854,22440.422105
21.0,1713,22477.98418
21.0,1715,22517.003684
8.0,2777,22578.125209
16.0,2129,22624.957491
17.0,1892,22668.242304
-13.0,1647,22705.431255
-5.0,2662,22765.408995
2.0,3155,22836.122319
17.0,1917,22880.023229
21.0,1718,22918.007943
13.0,2235,22967.684266
17.0,1893,23009.647343
6.0,2707,23069.305868
10.0,2683,23128.928258
21.0,1718,23167.601616
18.0,1905,23209.673556
16.0,2034,23254.849139
9.0,3043,23323.454458
21.0,1712,23360.972942
5.0,3048,23428.689512
11.0,2618,23486.443036
21.0,1716,23524.71702
16.0,1979,23569.178333
4.0,2962,23635.287164
7.0,2812,23697.079614
17.0,2033,23742.557845
7.0,2985,23808.601801
16.0,2153,23856.010957
18.0,1919,23899.397001
21.0,1715,23937.53841
5.0,2946,24004.627517
8.0,2602,24063.78637
3.0,2945,24129.707203
12.0,2512,24185.159376
8.0,2652,24245.057657
3.0,3022,24311.876101
15.0,2207,24361.93555
4.0,2820,24424.386738
9.0,2685,24484.255233
10.0,3162,24555.756651
11.0,2720,24617.630313
9.0,3099,24686.517743
21.0,1718,24724.728472
6.0,2764,24786.351144
9.0,2625,24845.391643
7.0,2860,24908.848502
16.0,2096,24955.608016
7.0,2639,25014.606268
9.0,2769,25076.870274
18.0,1935,25119.578964
11.0,3125,25188.592214
5.0,3211,25259.952641
8.0,2894,25324.449336
19.0,1907,25366.696066
19.0,1808,25407.565032
20.0,1741,25446.633665
21.0,1713,25484.450376
14.0,2153,25532.285791
11.0,3125,25602.150702
11.0,3127,25672.458164
14.0,2316,25723.916222
1.0,3565,25803.554823
11.0,3122,25873.148219
15.0,2115,25920.74429
10.0,3082,25989.203613
11.0,3126,26058.169991
17.0,2021,26103.11783
10.0,3161,26173.619223
11.0,3122,26242.788109
4.0,3300,26316.964015
21.0,1715,26355.003072
10.0,3085,26424.353317
21.0,1714,26462.449689
11.0,3126,26532.436769
10.0,2701,26592.30878
20.0,1741,26632.560076
10.0,3159,26702.284332
10.0,3087,26770.775895
5.0,3185,26841.675549
21.0,1716,26879.398611
10.0,2734,26940.083929
10.0,3084,27010.235693
21.0,1711,27048.935305
8.0,3175,27122.101364
10.0,3084,27190.327661
21.0,1716,27228.270335
18.0,1918,27271.366349
10.0,3082,27341.523934
11.0,3121,27410.863996
21.0,1715,27449.813936
21.0,1718,27487.307865
10.0,3087,27556.659355
9.0,2707,27617.448845
21.0,1717,27655.056706
20.0,1743,27690.674368
20.0,1744,27727.021998
11.0,3120,27790.657557
17.0,1896,27829.560645
9.0,3147,27890.141085
21.0,1718,27922.74814
18.0,1918,27959.762182
