# {"t_start": 1546716314.3353534, "env_id": "AsteroidsNoFrameskip-v4"} 
r,l,t
1340.0,1411,26.129139
610.0,453,32.992604
1510.0,1273,53.136896
1750.0,1049,70.57377
930.0,612,81.142808
780.0,538,90.627442
480.0,289,95.695038
1320.0,1011,114.399523
2080.0,1100,136.004529
1530.0,630,148.472701
1930.0,1272,176.506899
1790.0,868,195.281127
1630.0,811,212.884761
1910.0,804,230.983852
1410.0,899,250.290412
1030.0,455,260.017985
730.0,594,273.009339
1390.0,551,284.74074
1730.0,816,302.283009
1300.0,678,317.074146
780.0,361,324.579628
530.0,280,331.152803
680.0,384,339.141634
480.0,406,347.9927
2650.0,1043,370.755578
1080.0,380,378.669479
1300.0,1309,408.250221
1370.0,753,424.488751
1280.0,868,444.320692
1710.0,924,464.262354
630.0,442,474.173566
1080.0,706,490.045195
1180.0,725,506.081119
1350.0,721,521.671928
1590.0,1316,550.77681
780.0,436,560.364164
280.0,366,568.134763
630.0,457,577.867291
1370.0,663,592.323191
1500.0,775,609.851019
780.0,458,620.159563
1760.0,945,641.884784
1440.0,911,661.705354
580.0,245,666.907071
480.0,471,676.855716
1080.0,449,686.702189
1180.0,796,704.205102
2400.0,1018,726.500108
1300.0,915,746.906391
980.0,434,756.179141
930.0,472,766.407109
1080.0,594,779.239031
1180.0,613,792.547687
1030.0,398,801.004762
680.0,538,812.442473
2050.0,2367,866.066337
980.0,532,877.442042
360.0,409,886.597682
1370.0,1344,915.445855
1440.0,1092,940.211765
1480.0,636,954.87304
1030.0,569,967.214623
930.0,501,978.221937
630.0,475,988.236295
1320.0,714,1003.737093
1300.0,787,1021.34922
930.0,544,1032.80672
1880.0,1041,1056.072318
1420.0,707,1071.387611
1370.0,745,1088.4133
1300.0,782,1105.891238
1080.0,788,1122.784969
1540.0,717,1139.228821
480.0,355,1146.749827
860.0,638,1160.968644
980.0,976,1182.944279
1030.0,660,1197.654873
1420.0,621,1211.158181
780.0,496,1221.62337
1280.0,717,1237.534209
730.0,416,1246.713202
1300.0,1048,1269.263412
1610.0,1353,1299.212852
1340.0,786,1316.685793
1350.0,819,1334.226632
630.0,502,1345.779743
1390.0,1107,1370.242706
630.0,386,1378.454751
880.0,458,1388.599952
2450.0,1031,1411.036881
1810.0,1167,1436.679098
1950.0,1368,1467.104753
1740.0,635,1481.016817
1370.0,1010,1503.883831
1300.0,1265,1532.02307
380.0,283,1537.915697
1730.0,1625,1573.499188
930.0,694,1588.523117
1410.0,1488,1621.495248
830.0,371,1629.194777
1180.0,916,1649.207608
1180.0,668,1664.694281
1390.0,1358,1694.741847
580.0,442,1704.030061
1370.0,876,1723.179686
880.0,567,1735.940365
780.0,708,1751.218696
830.0,558,1763.747685
480.0,319,1771.191875
680.0,541,1783.316121
930.0,487,1793.894619
1280.0,753,1809.887137
330.0,294,1816.284141
730.0,327,1823.046746
530.0,573,1835.564798
730.0,426,1844.985296
430.0,377,1853.108834
280.0,320,1859.711955
680.0,627,1873.60669
530.0,367,1881.835158
530.0,467,1892.024109
1030.0,785,1908.818456
510.0,331,1915.964514
1320.0,1417,1947.265043
880.0,647,1961.137498
1490.0,1443,1993.297922
1490.0,814,2011.132314
630.0,362,2018.937461
830.0,488,2029.517381
1730.0,1389,2060.433044
1080.0,695,2075.572722
1300.0,1135,2100.872291
730.0,632,2114.562048
1030.0,599,2128.524353
630.0,429,2137.759405
210.0,336,2144.955525
880.0,573,2157.175959
530.0,475,2167.541585
1030.0,463,2177.468933
1300.0,1003,2199.468619
410.0,380,2208.063583
410.0,291,2214.390481
930.0,369,2222.372025
530.0,503,2233.601239
430.0,509,2244.721151
630.0,473,2254.728857
480.0,536,2266.148093
880.0,779,2283.36755
310.0,400,2291.958569
1470.0,851,2311.725264
580.0,403,2320.720872
480.0,479,2331.525317
1320.0,1175,2357.181805
880.0,680,2371.775127
530.0,609,2385.424914
830.0,731,2401.051022
580.0,716,2417.454011
480.0,700,2432.82771
930.0,498,2444.341269
330.0,458,2454.48034
410.0,498,2465.817042
260.0,547,2477.582448
680.0,644,2491.447479
1370.0,1345,2521.288593
1280.0,920,2541.126758
760.0,474,2551.186427
1180.0,1757,2591.43603
780.0,494,2602.090319
1280.0,1148,2627.32187
1180.0,846,2645.567756
830.0,691,2660.995644
230.0,378,2668.936383
610.0,729,2685.003394
580.0,630,2698.883701
480.0,417,2707.763128
1540.0,1932,2750.582489
630.0,506,2761.448835
780.0,826,2780.283448
1180.0,1308,2810.026628
480.0,542,2822.040599
730.0,603,2834.890299
430.0,415,2843.750273
560.0,636,2857.233895
730.0,612,2870.974342
1180.0,820,2889.159811
830.0,749,2905.243864
380.0,498,2916.581651
530.0,428,2926.156198
880.0,656,2940.272047
430.0,455,2950.20286
530.0,606,2963.708661
380.0,542,2975.951458
560.0,549,2989.311488
530.0,483,2999.41753
1080.0,898,3018.947878
780.0,1000,3040.869198
780.0,647,3055.168015
630.0,633,3068.862081
680.0,596,3081.579718
780.0,694,3096.763556
530.0,466,3106.840687
830.0,517,3118.768548
410.0,425,3128.497635
1180.0,1048,3152.687118
780.0,1000,3174.114336
730.0,505,3185.260469
310.0,548,3197.061415
630.0,420,3206.497061
210.0,234,3211.373134
380.0,488,3222.435321
230.0,455,3232.130639
930.0,647,3246.184195
310.0,249,3251.479471
730.0,375,3259.450799
680.0,568,3272.545533
1300.0,1268,3301.445577
1180.0,1163,3327.635901
580.0,491,3338.592807
730.0,474,3349.712836
930.0,808,3367.516228
780.0,517,3378.598239
380.0,414,3387.434983
380.0,414,3396.348245
610.0,502,3407.477005
510.0,451,3416.928643
880.0,780,3434.040734
980.0,616,3447.800353
880.0,455,3458.101608
980.0,712,3473.587946
980.0,904,3494.137254
510.0,458,3504.519179
830.0,895,3524.755191
730.0,519,3535.870201
1540.0,1936,3578.995857
480.0,452,3589.14756
630.0,468,3600.337903
330.0,364,3608.361252
680.0,593,3622.235089
680.0,902,3641.724574
930.0,633,3656.997577
580.0,512,3668.677299
530.0,528,3680.167852
330.0,416,3688.99915
1030.0,787,3706.946775
1300.0,1716,3744.60291
730.0,491,3755.223486
430.0,482,3765.939348
310.0,364,3773.425301
630.0,513,3785.311843
930.0,826,3803.850217
980.0,698,3819.113837
780.0,890,3838.322932
710.0,475,3848.393342
530.0,450,3858.175305
530.0,433,3867.290779
880.0,710,3883.010944
680.0,652,3897.264165
530.0,506,3908.402663
530.0,568,3921.088739
410.0,386,3930.184827
1370.0,785,3947.775787
1180.0,667,3962.572688
1280.0,1290,3991.302417
330.0,466,4001.42582
480.0,552,4013.750222
980.0,738,4029.589834
680.0,714,4045.430868
380.0,458,4055.255122
560.0,572,4068.424383
480.0,432,4077.889759
190.0,429,4086.976035
580.0,649,4101.483771
380.0,438,4111.990137
460.0,464,4121.870871
160.0,279,4127.847908
330.0,523,4139.318453
310.0,350,4147.486156
430.0,521,4159.39483
410.0,377,4167.445227
210.0,475,4177.396034
240.0,379,4185.544513
510.0,729,4202.363967
380.0,453,4212.332035
240.0,471,4222.85834
240.0,330,4230.108902
660.0,431,4240.34778
310.0,446,4249.87814
180.0,383,4258.108155
580.0,507,4269.549716
480.0,381,4277.908285
380.0,426,4287.515838
480.0,456,4297.760649
280.0,272,4303.594008
410.0,374,4311.476888
410.0,465,4321.869352
460.0,339,4329.177395
530.0,448,4338.635851
680.0,544,4350.317574
980.0,586,4364.079531
1340.0,985,4385.759706
1080.0,716,4402.116851
1830.0,1597,4437.209306
1280.0,1098,4461.930924
1300.0,1330,4491.063421
1180.0,789,4508.204705
680.0,443,4517.779115
1180.0,741,4534.158212
610.0,311,4540.995438
730.0,477,4552.435737
580.0,365,4561.047098
680.0,458,4571.040014
930.0,401,4579.635416
530.0,339,4586.888711
1280.0,922,4607.639937
630.0,325,4614.692814
980.0,553,4627.075555
780.0,373,4635.128271
180.0,287,4641.167423
730.0,661,4655.695074
1030.0,517,4667.839248
680.0,440,4677.563817
730.0,411,4686.19896
360.0,368,4694.000952
630.0,496,4705.05267
580.0,299,4711.518286
880.0,409,4720.216033
680.0,292,4726.376433
1280.0,789,4743.633535
680.0,352,4751.304078
560.0,390,4759.92319
880.0,773,4777.525956
1300.0,798,4795.189569
1180.0,704,4810.580553
730.0,500,4821.113886
730.0,453,4830.931892
930.0,709,4846.65871
1280.0,1836,4887.929827
480.0,290,4894.396448
310.0,383,4903.06583
830.0,471,4913.111235
480.0,316,4920.13465
260.0,279,4926.092216
330.0,425,4935.466032
380.0,397,4944.166885
530.0,310,4950.582474
730.0,429,4959.865906
780.0,551,4971.612612
730.0,460,4981.342591
330.0,475,4992.222698
1180.0,1156,5018.040879
530.0,288,5024.353285
1300.0,1167,5050.848062
310.0,283,5056.982344
530.0,421,5066.098364
1030.0,551,5078.915036
630.0,452,5088.601781
1280.0,930,5109.261541
980.0,579,5122.570297
760.0,617,5135.686877
780.0,362,5143.465556
380.0,322,5150.707534
1180.0,1121,5175.705049
730.0,471,5185.972844
680.0,369,5193.979014
680.0,473,5204.034588
730.0,531,5215.518591
980.0,568,5228.056206
1080.0,988,5249.366719
680.0,461,5259.276631
530.0,496,5270.282457
1520.0,1184,5296.999857
1080.0,428,5306.402731
980.0,358,5313.954949
730.0,421,5323.315301
580.0,377,5331.557746
480.0,440,5341.155577
430.0,374,5349.416286
1030.0,736,5365.666441
1280.0,723,5382.118667
930.0,408,5390.811385
880.0,447,5400.79657
1320.0,1236,5427.643871
380.0,393,5436.258057
880.0,624,5450.614045
730.0,530,5462.301336
480.0,462,5472.539357
830.0,417,5481.547051
1540.0,1118,5506.075887
580.0,331,5513.377689
1080.0,698,5528.393218
380.0,418,5537.34165
780.0,648,5551.458871
380.0,454,5561.53799
1340.0,1191,5588.22897
1320.0,939,5608.887593
630.0,402,5617.662012
1280.0,992,5639.185327
730.0,644,5653.591201
360.0,380,5661.890301
410.0,383,5670.334191
1300.0,1135,5696.25342
480.0,331,5703.45886
780.0,412,5712.650463
430.0,237,5718.014772
630.0,473,5728.653878
830.0,339,5735.587987
730.0,666,5749.964181
710.0,501,5761.025528
410.0,454,5771.540224
680.0,354,5779.229303
1390.0,1523,5812.954232
1080.0,900,5832.388429
530.0,474,5844.107343
330.0,417,5853.050929
780.0,526,5864.56668
630.0,460,5874.587109
1280.0,1085,5899.114325
510.0,370,5907.473146
1030.0,500,5918.112502
830.0,419,5927.852727
480.0,464,5938.212469
610.0,430,5947.767222
310.0,337,5955.408941
530.0,237,5960.652375
1390.0,1211,5987.595856
730.0,602,6001.112082
930.0,405,6009.883744
1300.0,1309,6038.506047
580.0,554,6050.36286
780.0,460,6061.04396
980.0,492,6071.676504
780.0,390,6080.10587
930.0,525,6091.282135
380.0,307,6098.199029
1080.0,629,6112.725224
830.0,357,6120.539639
610.0,317,6128.064133
430.0,246,6133.141072
480.0,512,6144.873461
730.0,635,6158.491343
830.0,633,6172.116461
380.0,237,6177.433098
380.0,231,6182.687236
280.0,234,6187.452628
310.0,242,6192.585826
480.0,261,6198.100573
380.0,254,6203.417416
1080.0,649,6217.61954
260.0,233,6222.750976
630.0,309,6229.194866
980.0,842,6247.648123
410.0,300,6254.058961
330.0,486,6264.717915
310.0,256,6270.493631
980.0,445,6280.910335
880.0,733,6297.206229
730.0,371,6305.651147
830.0,479,6316.579396
680.0,383,6324.70936
980.0,822,6342.427619
730.0,422,6351.763602
480.0,426,6361.17813
580.0,531,6372.865769
630.0,434,6381.963187
580.0,361,6389.734014
930.0,372,6398.121938
1180.0,670,6412.961887
580.0,342,6420.192658
630.0,548,6432.386806
580.0,536,6444.211386
480.0,419,6453.139287
1280.0,1784,6492.311417
830.0,465,6502.108558
1080.0,907,6522.332232
580.0,374,6530.303979
1130.0,674,6544.971222
1610.0,1317,6573.511528
310.0,291,6580.066206
430.0,539,6591.726522
210.0,320,6598.562917
880.0,457,6608.801066
780.0,458,6618.886578
330.0,356,6626.773017
860.0,550,6638.721346
1760.0,1614,6673.851663
830.0,474,6684.89219
630.0,775,6701.620684
810.0,662,6716.228465
1430.0,1160,6742.323989
730.0,415,6751.540425
830.0,563,6763.98165
830.0,422,6773.055428
780.0,348,6780.424096
1370.0,1570,6816.080624
1280.0,1003,6837.908444
1130.0,940,6858.828367
1370.0,1008,6880.56019
360.0,345,6888.23003
1080.0,678,6903.317681
1350.0,1195,6930.217163
980.0,716,6945.987937
580.0,344,6954.137154
1300.0,857,6973.54616
630.0,429,6982.754032
730.0,716,6998.843083
680.0,379,7007.519674
1030.0,517,7019.394858
1410.0,837,7037.713232
980.0,325,7044.731815
480.0,374,7052.666411
530.0,327,7059.536144
1080.0,377,7067.920995
730.0,366,7075.836699
1440.0,1220,7102.852351
1080.0,563,7115.073863
530.0,488,7126.67447
1280.0,966,7148.418046
1300.0,695,7163.882101
830.0,400,7172.515237
580.0,266,7178.314847
480.0,308,7185.182917
630.0,358,7193.324744
1320.0,959,7214.505231
680.0,318,7221.461763
980.0,434,7231.089247
1510.0,760,7248.359718
780.0,708,7263.570472
730.0,378,7271.561316
1130.0,1003,7294.627545
1320.0,962,7315.330617
580.0,309,7322.726671
930.0,353,7330.686457
1180.0,590,7345.44121
1410.0,1212,7372.437561
510.0,334,7379.564399
930.0,617,7392.744958
830.0,363,7400.230956
980.0,518,7411.711695
1080.0,417,7421.013936
730.0,390,7429.238133
830.0,533,7441.443247
680.0,328,7448.320579
580.0,436,7457.608307
780.0,606,7470.998963
680.0,329,7478.018464
680.0,406,7487.511488
730.0,368,7495.094942
930.0,367,7503.26199
1180.0,661,7518.001364
730.0,419,7527.130532
1300.0,799,7544.903796
1280.0,952,7565.273179
830.0,531,7576.727861
1300.0,756,7593.814986
580.0,476,7603.851983
780.0,510,7614.870566
480.0,452,7625.053584
980.0,933,7645.103541
1470.0,982,7667.57542
530.0,370,7675.285964
880.0,601,7688.548998
980.0,533,7699.912503
630.0,440,7709.097375
530.0,470,7719.423876
830.0,387,7728.202013
830.0,402,7737.045691
930.0,318,7743.958111
780.0,371,7752.710075
930.0,428,7762.13272
630.0,515,7773.174105
1280.0,496,7783.848201
1300.0,1165,7810.729658
630.0,438,7821.049977
1470.0,805,7838.527828
1280.0,513,7849.535057
1280.0,873,7868.593413
510.0,380,7877.125677
430.0,533,7888.611488
930.0,581,7901.223741
1080.0,587,7913.707198
1370.0,928,7934.074207
980.0,556,7946.282369
530.0,322,7952.981667
1080.0,840,7971.489594
1030.0,801,7989.011602
1300.0,605,8002.005819
680.0,415,8011.518475
580.0,316,8018.354998
780.0,459,8028.23848
390.0,510,8039.792933
1520.0,635,8054.502031
1030.0,468,8064.708038
1320.0,780,8081.60589
1080.0,580,8094.121056
630.0,296,8100.70826
780.0,503,8111.458285
880.0,446,8121.426925
480.0,429,8131.072037
1130.0,764,8148.031295
1420.0,588,8160.515387
1180.0,514,8171.572033
930.0,491,8182.138355
980.0,674,8196.97129
880.0,678,8211.532721
1350.0,978,8232.957807
1300.0,914,8253.465918
780.0,643,8267.487116
480.0,236,8272.592601
1480.0,1477,8305.797983
1370.0,908,8326.318651
1300.0,1275,8355.749066
980.0,711,8371.213103
1030.0,617,8384.221693
830.0,443,8394.564424
630.0,501,8405.834786
680.0,492,8416.392337
1180.0,601,8429.510691
480.0,526,8440.901532
730.0,395,8449.240736
480.0,414,8458.449592
1300.0,937,8479.73882
1530.0,736,8496.18976
580.0,290,8502.242595
1300.0,750,8519.442044
1080.0,827,8538.576855
430.0,312,8545.569912
1300.0,1095,8569.842243
830.0,385,8578.687742
930.0,844,8597.598511
1180.0,606,8610.919752
1370.0,703,8626.889081
1690.0,947,8648.236282
830.0,524,8659.505019
1300.0,675,8673.818788
1300.0,919,8694.106338
780.0,689,8710.090986
930.0,414,8719.839843
680.0,495,8730.89312
1180.0,923,8751.451489
1080.0,633,8765.048738
1030.0,560,8777.718266
730.0,366,8785.380435
430.0,425,8794.769217
880.0,391,8803.384869
880.0,537,8815.465387
1350.0,971,8837.097703
1080.0,532,8849.015371
1180.0,682,8864.448829
830.0,489,8874.779148
780.0,480,8885.437276
410.0,304,8892.167209
560.0,235,8897.454798
1180.0,564,8909.730199
730.0,443,8919.414155
1390.0,1075,8943.060381
880.0,441,8952.71446
880.0,419,8962.063113
830.0,285,8968.186667
1180.0,491,8979.030682
780.0,316,8986.110576
680.0,313,8992.757914
630.0,236,8997.738111
1180.0,324,9004.559451
1130.0,545,9016.614853
780.0,319,9023.48201
780.0,434,9033.121614
780.0,484,9043.892254
480.0,381,9051.856481
410.0,335,9058.854299
680.0,311,9065.827754
830.0,514,9076.999931
1510.0,668,9091.245271
580.0,270,9097.027841
1180.0,588,9110.160849
780.0,454,9120.89851
830.0,335,9128.265507
1570.0,965,9149.645876
1350.0,654,9163.632907
1080.0,510,9174.824444
1080.0,373,9182.900204
780.0,314,9189.545865
830.0,675,9204.916287
730.0,233,9209.899374
980.0,432,9219.212565
780.0,422,9228.234264
1740.0,667,9243.274513
630.0,328,9251.007729
630.0,289,9257.143174
830.0,483,9267.690459
930.0,515,9278.916162
1300.0,950,9299.41081
880.0,435,9308.821197
1130.0,920,9328.775294
1420.0,1396,9360.028421
880.0,611,9373.69501
780.0,500,9384.564497
1280.0,825,9402.493289
680.0,397,9411.01488
480.0,304,9417.518494
1030.0,698,9432.919461
730.0,371,9441.088706
780.0,502,9452.102385
1560.0,1758,9490.763231
430.0,445,9500.395879
380.0,243,9505.283369
980.0,550,9517.520356
1080.0,814,9535.445893
1520.0,967,9557.187422
580.0,482,9569.009476
830.0,428,9578.725946
780.0,369,9587.016739
510.0,369,9595.005373
1080.0,863,9613.631414
1180.0,652,9629.293342
780.0,442,9638.961583
880.0,430,9648.024201
680.0,318,9654.845601
1530.0,640,9668.460732
1280.0,930,9689.070342
1180.0,498,9699.753645
1280.0,718,9715.705487
1030.0,377,9723.829319
1300.0,978,9745.088555
1280.0,1349,9776.006494
1080.0,476,9786.221353
830.0,351,9793.86153
1370.0,836,9812.034106
930.0,610,9824.872737
1280.0,751,9842.682717
730.0,344,9850.242099
630.0,525,9861.4203
760.0,293,9867.613833
1280.0,1279,9897.163161
780.0,555,9908.877645
680.0,271,9914.639891
880.0,333,9922.244314
980.0,400,9930.682248
880.0,437,9939.946849
1370.0,1124,9964.553114
1300.0,641,9978.970502
680.0,267,9984.408133
1730.0,757,10000.55215
930.0,624,10014.451295
880.0,475,10025.148425
680.0,317,10032.112729
580.0,374,10040.937135
1320.0,718,10057.851675
1080.0,387,10066.258462
1410.0,616,10080.818376
880.0,330,10088.698446
1080.0,650,10103.054763
1080.0,430,10112.167266
930.0,656,10126.51639
1130.0,810,10145.236177
1760.0,1061,10169.21487
1180.0,1141,10193.946903
1080.0,574,10206.656922
1280.0,643,10220.864858
780.0,594,10233.868484
780.0,595,10247.647473
930.0,451,10257.062895
930.0,666,10271.377597
1300.0,1290,10300.06917
880.0,505,10311.091465
930.0,694,10327.029405
1320.0,1596,10362.686467
980.0,359,10370.610886
1350.0,897,10390.433413
1300.0,709,10406.052142
330.0,418,10415.109019
1670.0,845,10433.952346
1030.0,962,10455.648831
880.0,523,10467.141873
630.0,356,10474.764918
830.0,441,10484.130113
1300.0,855,10503.619387
880.0,285,10509.897306
980.0,715,10525.300467
880.0,310,10532.017711
2000.0,1617,10567.659489
1440.0,976,10589.066
980.0,667,10603.521848
1080.0,434,10613.103747
1540.0,838,10631.733226
630.0,397,10640.389056
430.0,233,10645.307918
830.0,557,10657.568965
580.0,326,10664.383986
460.0,288,10670.397451
1030.0,504,10681.463271
1300.0,1196,10708.43488
830.0,450,10718.582971
980.0,566,10730.958876
1390.0,1145,10756.204225
830.0,432,10765.83664
830.0,373,10773.71064
980.0,422,10782.693068
880.0,339,10790.391197
1280.0,573,10803.502222
930.0,367,10811.417918
680.0,429,10820.373436
2500.0,1091,10844.704486
930.0,493,10856.378063
1180.0,719,10871.600871
1300.0,591,10884.908643
530.0,378,10892.808035
780.0,394,10901.262644
630.0,388,10909.512439
780.0,498,10920.097574
1280.0,1031,10943.195249
830.0,468,10954.270302
680.0,381,10962.913299
1560.0,1279,10990.626862
680.0,355,10998.060032
1280.0,1168,11024.606519
730.0,518,11035.586106
1370.0,1161,11060.988474
310.0,287,11067.421942
480.0,369,11075.975538
980.0,409,11085.206755
980.0,746,11102.1097
780.0,479,11112.667253
1530.0,1288,11141.761313
580.0,485,11152.055189
780.0,380,11160.163147
1750.0,1305,11188.510311
190.0,333,11195.854522
2050.0,1422,11227.073625
780.0,554,11238.99154
1130.0,947,11259.760628
1180.0,1085,11284.060022
630.0,548,11296.375393
1300.0,982,11318.708814
530.0,432,11328.238177
880.0,437,11337.61296
1300.0,760,11353.952022
510.0,457,11364.13423
730.0,539,11375.582289
1430.0,890,11395.396514
680.0,326,11402.514577
530.0,338,11409.924884
1370.0,1036,11432.562124
1300.0,1249,11460.643129
980.0,602,11474.299268
680.0,448,11484.183939
1080.0,1125,11510.74804
980.0,825,11528.591435
830.0,480,11538.836172
1030.0,688,11554.469757
1280.0,1385,11585.504526
1300.0,1075,11609.438835
880.0,471,11619.639413
780.0,396,11628.60102
710.0,619,11641.787249
1180.0,762,11659.160132
1300.0,874,11677.624337
2130.0,1484,11711.069572
1300.0,1093,11735.290741
1440.0,1510,11769.152956
1680.0,1106,11793.968371
480.0,545,11805.974747
1390.0,1004,11827.588312
830.0,544,11839.520963
680.0,538,11851.098641
430.0,251,11856.386486
2100.0,1495,11888.905027
1420.0,572,11901.6338
1410.0,1303,11930.505875
1830.0,1357,11959.793907
1510.0,889,11979.802969
2650.0,1695,12017.668823
730.0,320,12024.491818
1510.0,720,12039.75721
930.0,625,12053.522938
1780.0,1273,12081.123724
1180.0,1104,12105.556919
730.0,470,12115.873487
1850.0,2309,12168.011776
1180.0,1007,12190.549504
780.0,507,12201.341391
730.0,427,12210.326792
1300.0,1272,12239.06654
1080.0,547,12251.05084
730.0,335,12258.155406
1760.0,1070,12282.485376
1930.0,952,12302.865227
1530.0,763,12319.734911
1650.0,1293,12348.085789
730.0,595,12360.773089
1860.0,2159,12407.847847
1280.0,766,12425.00953
1370.0,1464,12457.379217
2450.0,1588,12492.163996
730.0,458,12501.714276
980.0,621,12515.336989
1590.0,1111,12539.501352
1180.0,532,12551.522112
1280.0,748,12568.067644
1640.0,915,12588.817871
1300.0,982,12611.125182
1180.0,646,12625.475364
880.0,700,12640.687408
530.0,505,12651.353966
880.0,461,12661.78738
930.0,797,12679.199331
780.0,611,12692.361681
1510.0,1451,12724.339629
510.0,323,12731.146635
1630.0,1082,12754.833468
780.0,720,12770.916253
1300.0,1231,12798.30671
1480.0,952,12818.933291
1180.0,717,12834.648595
880.0,642,12848.379093
1300.0,1009,12870.158769
1080.0,727,12885.866782
680.0,466,12896.678613
1280.0,1185,12922.720346
1280.0,1301,12951.813136
1180.0,608,12965.220481
880.0,501,12975.903435
1180.0,1299,13003.989293
880.0,911,13024.175362
930.0,533,13035.838012
1760.0,775,13052.365393
1900.0,1375,13083.295268
1390.0,1364,13113.472169
1680.0,1157,13138.854772
2050.0,1339,13168.425098
1180.0,1379,13199.436833
1320.0,1174,13224.924053
2450.0,1267,13253.457126
1510.0,805,13270.796375
1180.0,646,13285.019748
830.0,668,13299.636346
1700.0,810,13316.893152
1880.0,1451,13349.104041
1300.0,1155,13375.815947
1510.0,1088,13400.113893
680.0,322,13406.803312
780.0,287,13413.060031
1410.0,1034,13435.95667
1560.0,839,13454.371183
1280.0,753,13471.136472
1280.0,894,13491.098881
1180.0,812,13508.882755
460.0,278,13514.762696
3200.0,2360,13566.241837
1340.0,1100,13590.46744
1080.0,678,13605.173399
1650.0,870,13624.661042
1130.0,540,13636.001961
730.0,472,13646.22087
1320.0,831,13664.742627
1180.0,854,13683.83657
730.0,549,13696.176172
880.0,413,13705.000181
880.0,631,13718.845691
1180.0,1042,13741.678741
780.0,480,13752.013518
880.0,552,13763.755957
1280.0,894,13783.075735
1390.0,1314,13812.218975
880.0,675,13826.942951
1180.0,722,13842.308787
1300.0,870,13861.09051
1440.0,1939,13905.068717
760.0,522,13916.666207
1590.0,911,13936.481692
930.0,616,13950.656749
1350.0,976,13972.251572
830.0,553,13984.331962
630.0,354,13991.955513
930.0,519,14003.583913
830.0,457,14013.516075
730.0,509,14024.458089
1030.0,666,14039.163263
1630.0,813,14058.078121
930.0,422,14067.402756
880.0,412,14076.325657
880.0,559,14088.589412
1340.0,1069,14112.178284
530.0,484,14122.65691
1030.0,574,14134.862955
680.0,404,14143.626215
1180.0,542,14155.033753
1600.0,1058,14178.249005
1180.0,553,14190.397064
1730.0,1183,14216.543453
880.0,484,14226.75523
1350.0,911,14247.424525
1080.0,617,14260.726992
880.0,437,14270.275011
1300.0,992,14292.781473
1080.0,707,14308.617071
1560.0,1256,14336.380075
1080.0,635,14350.146862
880.0,728,14366.13678
630.0,503,14377.05953
1030.0,824,14394.822729
1180.0,767,14411.562104
780.0,238,14416.785351
780.0,513,14427.927241
480.0,314,14434.491613
460.0,456,14444.677335
730.0,325,14451.668326
1500.0,1040,14474.52118
1490.0,1181,14500.269367
880.0,547,14512.175538
880.0,591,14524.804325
930.0,529,14536.135916
1560.0,1266,14564.896891
730.0,310,14571.848277
1520.0,580,14584.980089
1440.0,1063,14608.711067
1390.0,1095,14633.132376
580.0,385,14641.428231
1300.0,987,14662.549501
1350.0,980,14685.119983
1470.0,1144,14709.988034
1180.0,715,14726.200939
680.0,373,14733.942418
1440.0,1526,14767.528571
1180.0,722,14783.015149
1590.0,990,14804.773649
1480.0,858,14824.205405
630.0,451,14834.277703
1500.0,1151,14860.282857
1280.0,1269,14888.980058
2480.0,1506,14922.498466
1180.0,502,14933.83254
1950.0,1275,14961.336475
980.0,548,14973.656775
1130.0,329,14980.788898
1590.0,1622,15017.594519
1030.0,599,15031.378722
1540.0,1445,15063.948163
880.0,485,15074.220202
1690.0,844,15093.660211
1800.0,1207,15120.249346
1280.0,777,15137.386058
1030.0,460,15147.757478
780.0,407,15157.037755
1280.0,1068,15180.953843
1300.0,1155,15206.523932
980.0,454,15216.274213
1640.0,969,15237.432754
630.0,323,15244.323316
680.0,409,15253.413322
1180.0,815,15271.407756
1680.0,1081,15295.054644
1130.0,598,15308.577972
780.0,488,15319.743871
730.0,426,15329.071587
680.0,314,15335.83225
1300.0,1071,15360.00668
860.0,478,15370.608284
1610.0,810,15388.09523
1610.0,1098,15412.336135
1180.0,644,15426.315634
1510.0,834,15445.163298
1030.0,737,15461.202487
680.0,341,15468.253794
1680.0,1402,15499.775409
1520.0,656,15513.954956
730.0,471,15524.310635
1280.0,988,15546.316399
730.0,418,15555.802228
830.0,389,15564.104356
1180.0,1433,15595.249051
630.0,553,15607.391566
780.0,563,15619.602165
580.0,251,15625.009739
980.0,325,15632.089486
480.0,255,15637.535846
530.0,423,15646.667428
1280.0,818,15664.79897
2030.0,1487,15698.459995
980.0,675,15713.260045
1300.0,857,15731.51012
680.0,347,15739.248166
830.0,408,15747.964115
830.0,458,15757.928604
530.0,364,15765.71166
730.0,439,15775.748469
1080.0,687,15790.564142
1370.0,932,15810.714927
1760.0,652,15824.700229
2010.0,741,15841.126364
1690.0,822,15858.754763
1300.0,1216,15885.30953
530.0,382,15893.627683
1360.0,1001,15915.870525
610.0,704,15931.524058
930.0,422,15940.745059
880.0,638,15954.814265
880.0,434,15964.087502
1030.0,440,15973.652848
830.0,550,15985.531717
1780.0,728,16001.290033
1510.0,2225,16050.300915
630.0,457,16060.293711
1530.0,1209,16086.652874
1030.0,714,16103.556957
1510.0,1164,16129.179732
680.0,454,16139.000134
1390.0,907,16159.958105
1830.0,1224,16187.119312
1130.0,789,16204.90145
1430.0,861,16224.496891
680.0,560,16236.397172
780.0,291,16242.666936
1320.0,604,16256.016776
1080.0,412,16264.966764
930.0,313,16271.569036
930.0,648,16286.036202
930.0,574,16298.702755
1300.0,915,16319.428181
630.0,580,16332.105144
1080.0,656,16346.392873
980.0,496,16357.059411
1080.0,783,16374.088264
980.0,555,16386.098303
530.0,242,16391.25343
1950.0,1025,16414.472554
680.0,371,16422.71711
1300.0,1261,16450.236002
880.0,547,16462.444504
530.0,323,16469.360525
1280.0,1148,16494.860313
1080.0,462,16505.756035
780.0,466,16516.432949
1180.0,584,16530.227743
1180.0,816,16547.895188
1600.0,1156,16572.965518
1440.0,1214,16600.16865
1280.0,906,16620.337272
780.0,580,16634.072066
1300.0,1029,16656.355142
1470.0,677,16670.815897
1520.0,1062,16694.056788
1320.0,1062,16716.866899
980.0,524,16728.534206
880.0,568,16741.746777
1280.0,641,16755.90835
1080.0,651,16770.067367
880.0,480,16780.160944
1080.0,552,16792.117088
580.0,467,16802.1529
530.0,190,16805.973587
830.0,486,16816.437823
930.0,338,16823.772029
1540.0,862,16842.802018
1800.0,1325,16872.610384
1180.0,413,16881.324394
980.0,636,16895.442349
1180.0,595,16908.070103
1470.0,738,16924.234061
1280.0,1263,16952.792428
1340.0,707,16967.914239
1030.0,470,16978.026994
1280.0,677,16993.281185
930.0,327,17000.019868
1280.0,1037,17022.413083
930.0,373,17030.754027
380.0,253,17036.385471
1340.0,928,17057.800269
1180.0,613,17071.99367
1630.0,941,17093.260752
1630.0,688,17108.33298
1180.0,483,17118.913169
1180.0,657,17133.258321
1470.0,1500,17166.854142
730.0,412,17175.796651
730.0,365,17183.761511
930.0,553,17195.486989
1700.0,1539,17230.249057
1180.0,785,17247.572462
1800.0,1343,17276.931069
1080.0,742,17293.005324
1180.0,661,17307.529089
1440.0,623,17321.213471
1580.0,1132,17346.900731
1180.0,562,17360.635039
630.0,440,17370.856005
880.0,287,17376.925039
610.0,326,17383.964224
1490.0,769,17400.639445
1280.0,1131,17425.574915
630.0,329,17432.643147
980.0,496,17443.767874
1610.0,1163,17469.68334
780.0,281,17475.680889
1080.0,785,17492.979571
930.0,390,17501.684179
1620.0,1060,17525.387898
1370.0,821,17543.897813
930.0,402,17552.580382
1280.0,1133,17577.750786
1640.0,1103,17602.534187
1390.0,1350,17632.564034
1300.0,689,17647.931485
1300.0,692,17663.232199
1180.0,397,17671.896973
530.0,395,17680.37401
1350.0,907,17699.978422
1280.0,1089,17723.875372
1280.0,982,17745.498159
1180.0,640,17760.2669
730.0,479,17770.918921
980.0,423,17780.346077
780.0,296,17786.770321
980.0,341,17794.413805
1730.0,932,17814.728406
830.0,299,17820.854774
1280.0,771,17838.199946
830.0,510,17849.006066
780.0,455,17858.615438
880.0,498,17869.289578
1370.0,1279,17898.168201
1440.0,1024,17921.827747
830.0,333,17928.746214
2040.0,863,17947.328092
1180.0,875,17967.144489
1030.0,650,17981.824606
1300.0,744,17998.193371
1280.0,758,18014.906638
480.0,405,18024.165673
1790.0,1452,18056.307509
980.0,461,18066.254735
830.0,401,18075.030044
680.0,427,18084.511328
1620.0,664,18098.651335
1180.0,709,18114.044147
1180.0,553,18126.203284
1560.0,1539,18160.057023
1300.0,1031,18182.841151
630.0,426,18192.586938
780.0,428,18201.700645
1300.0,557,18213.585615
1080.0,490,18224.510122
880.0,499,18235.605457
1080.0,770,18252.31566
1610.0,1341,18282.997878
930.0,522,18294.530435
1560.0,1276,18322.293818
730.0,254,18327.997655
830.0,329,18335.242781
1390.0,1206,18363.172822
1280.0,1632,18399.4067
780.0,325,18406.336314
930.0,379,18414.214894
1080.0,637,18428.112216
1280.0,810,18446.443677
630.0,433,18455.726389
980.0,454,18465.199968
1080.0,689,18480.290672
1080.0,638,18495.203386
1280.0,752,18511.727832
1130.0,533,18523.506239
1880.0,1430,18555.958853
1300.0,559,18567.812695
1370.0,1091,18591.352941
1510.0,1539,18625.380807
780.0,374,18634.135394
1700.0,1423,18666.414987
880.0,532,18677.686897
1420.0,900,18697.527753
1280.0,976,18718.885962
1610.0,976,18740.830051
1350.0,1770,18779.687049
1180.0,681,18794.483274
680.0,319,18801.657028
1660.0,1344,18831.162426
2260.0,1358,18861.063785
1440.0,956,18882.084381
830.0,500,18893.212207
780.0,373,18901.42455
1960.0,1240,18928.362678
1180.0,790,18945.652716
1340.0,2911,19009.627126
1080.0,508,19020.864398
1080.0,392,19029.465896
1300.0,720,19044.977392
1320.0,1373,19075.643614
830.0,587,19088.577036
880.0,571,19101.181971
1180.0,560,19113.201586
1280.0,1118,19137.816834
1510.0,555,19149.999749
880.0,432,19159.619989
1030.0,635,19173.624648
1320.0,1298,19202.198565
1610.0,1444,19234.269469
1710.0,1423,19265.910545
1440.0,1195,19292.326631
880.0,421,19302.276989
1080.0,662,19318.282024
780.0,423,19327.172654
730.0,474,19337.754109
1930.0,1256,19364.690367
1030.0,562,19377.561813
1080.0,743,19393.832366
1180.0,789,19411.178194
1440.0,1123,19435.258893
880.0,428,19445.300279
930.0,575,19457.686296
1540.0,1776,19497.640756
1080.0,924,19518.045604
2850.0,1788,19557.113451
1930.0,1484,19589.9865
1750.0,1314,19618.524315
680.0,502,19629.198429
1370.0,1052,19652.237406
680.0,513,19663.5843
480.0,280,19669.828318
930.0,744,19686.450637
1440.0,2034,19731.07956
2050.0,825,19748.971035
3340.0,2428,19803.07839
530.0,301,19809.49542
2000.0,1373,19839.725226
930.0,419,19848.50977
880.0,547,19860.397763
2450.0,1515,19893.309217
1130.0,612,19906.94943
1630.0,840,19925.164774
2000.0,1086,19949.117101
1560.0,1800,19990.222887
1370.0,1338,20019.389254
1490.0,635,20032.984298
1320.0,1547,20067.294597
860.0,546,20079.356048
780.0,353,20086.883053
1080.0,528,20097.990927
2400.0,1206,20125.230591
2300.0,1103,20150.564808
2200.0,1582,20184.959949
1460.0,1387,20218.497253
1180.0,340,20225.45332
830.0,524,20236.634554
1730.0,1076,20260.413936
1180.0,1132,20285.376225
1030.0,506,20296.83189
1900.0,1067,20320.958583
1180.0,688,20335.92844
980.0,649,20349.986011
1630.0,1341,20379.552161
2050.0,1093,20403.80339
1030.0,682,20418.454378
980.0,590,20431.225988
1650.0,1012,20453.718516
880.0,646,20468.271738
2900.0,1647,20505.135386
1280.0,739,20521.511269
1180.0,608,20535.003189
1880.0,1017,20557.335889
1180.0,1099,20581.946769
1320.0,1103,20606.501654
880.0,584,20619.253103
1490.0,1078,20643.793342
1510.0,1278,20671.882469
1180.0,494,20682.737937
980.0,599,20696.037312
830.0,513,20707.339208
2000.0,1327,20736.656084
1280.0,945,20757.164096
1180.0,989,20778.43679
2000.0,944,20799.285364
980.0,510,20811.19929
1810.0,1444,20843.764352
1540.0,845,20862.264799
880.0,653,20876.650088
1180.0,647,20890.566589
1540.0,1176,20916.149474
2210.0,1445,20947.950887
2000.0,1436,20979.918924
930.0,655,20994.5481
880.0,531,21006.686593
1080.0,569,21019.384825
1180.0,467,21030.688056
1850.0,1442,21063.161207
530.0,437,21072.732399
930.0,688,21088.535323
1680.0,1042,21111.242269
830.0,774,21128.103417
2000.0,1310,21157.123651
1280.0,1174,21183.349472
1030.0,543,21195.210721
930.0,382,21203.648418
2100.0,1193,21230.462162
1860.0,1281,21258.529891
2700.0,2281,21308.541047
1710.0,1127,21333.302567
1660.0,1214,21360.784083
1580.0,621,21374.500544
1280.0,1922,21417.125016
1080.0,827,21435.305925
780.0,375,21444.311406
2900.0,1732,21482.449418
1680.0,785,21500.285247
880.0,696,21515.909589
1180.0,918,21536.356344
930.0,530,21548.028313
1280.0,1051,21571.327945
1590.0,1390,21601.724109
2200.0,1755,21640.185238
730.0,377,21648.582192
630.0,288,21654.944834
1540.0,743,21671.374966
1280.0,988,21692.954458
1580.0,850,21711.299708
1750.0,1235,21738.580987
1300.0,1377,21769.280842
2450.0,2046,21813.995162
1630.0,989,21835.853499
2230.0,1140,21861.33743
680.0,403,21870.16222
780.0,413,21878.889379
780.0,457,21888.674868
1700.0,1548,21924.5279
880.0,433,21933.749872
980.0,465,21943.730655
630.0,234,21948.845523
2450.0,1215,21975.96623
1320.0,1052,21999.126965
1600.0,1351,22028.989614
980.0,640,22042.713365
1080.0,638,22056.512407
1130.0,708,22072.126206
980.0,503,22082.838254
1470.0,665,22097.486846
480.0,515,22108.830212
1300.0,595,22122.383181
1300.0,870,22141.128844
730.0,545,22152.698544
1530.0,725,22168.627259
1280.0,755,22184.835491
1460.0,1321,22214.94339
1300.0,798,22233.172425
830.0,542,22244.897622
1560.0,1181,22270.745839
1180.0,804,22288.813531
930.0,645,22302.821723
1030.0,595,22316.721345
1080.0,507,22327.917166
1520.0,971,22350.198951
1350.0,893,22369.580145
1630.0,1774,22409.368078
880.0,721,22425.701514
2300.0,1654,22462.720588
930.0,742,22478.828874
1630.0,861,22498.0754
2150.0,1228,22525.603141
1080.0,653,22539.911276
1420.0,1662,22577.597852
880.0,424,22586.482765
2000.0,1645,22622.858865
530.0,538,22634.757259
1790.0,967,22655.668619
1880.0,827,22674.042081
1730.0,1164,22699.637772
1320.0,832,22717.567426
1180.0,643,22731.602473
680.0,517,22742.801141
880.0,425,22752.201644
1710.0,1305,22781.224723
1450.0,843,22799.37128
1750.0,1196,22827.466331
2200.0,1322,22857.197115
1420.0,743,22873.929775
1730.0,1217,22902.270782
1490.0,1192,22929.181956
1830.0,694,22944.811304
1640.0,827,22962.617423
930.0,516,22973.626124
1650.0,1393,23004.773576
1280.0,1000,23026.38574
930.0,597,23039.508545
1180.0,1097,23064.211749
1180.0,390,23072.451173
1900.0,1223,23099.462817
1080.0,673,23114.572803
1930.0,1228,23141.119314
1320.0,836,23159.346327
1420.0,750,23175.126008
1900.0,918,23195.677191
1280.0,535,23207.822694
2250.0,2066,23254.0672
1630.0,1340,23283.425511
1480.0,1338,23312.377596
1450.0,678,23326.861677
1320.0,587,23340.322642
1340.0,1751,23379.155888
1560.0,939,23399.94666
1080.0,596,23413.196555
830.0,445,23423.358188
2500.0,1677,23460.194804
730.0,466,23470.398731
680.0,502,23481.484816
1080.0,821,23499.039158
730.0,242,23503.861898
1800.0,1015,23526.381869
1440.0,715,23541.649533
1440.0,512,23552.6809
1280.0,839,23571.711942
1760.0,1221,23598.699068
1280.0,470,23608.821174
730.0,432,23618.102316
1780.0,1156,23644.322108
1540.0,1140,23669.714778
980.0,467,23680.067053
880.0,469,23689.871745
980.0,555,23701.921206
1680.0,1466,23734.053157
1300.0,1039,23756.805649
1410.0,746,23773.327836
980.0,811,23790.680274
2080.0,850,23809.040552
2250.0,1472,23842.467187
2250.0,1219,23868.71188
1080.0,589,23881.825075
1860.0,1097,23907.12435
680.0,334,23914.768568
880.0,453,23924.614345
1630.0,836,23942.773057
3000.0,1705,23979.877782
1810.0,873,23998.730941
1280.0,1584,24034.628362
1280.0,542,24046.532378
1960.0,1091,24070.883249
980.0,598,24084.135659
1860.0,1581,24119.852549
2600.0,1731,24159.176841
1830.0,1050,24181.862335
1280.0,559,24193.974882
880.0,473,24204.275724
530.0,281,24210.158892
1880.0,1463,24242.688961
1580.0,765,24259.771849
980.0,491,24270.24188
1980.0,815,24288.050681
1300.0,776,24305.52399
1880.0,932,24326.131327
880.0,407,24335.255759
880.0,387,24343.250067
1830.0,1848,24383.701499
1470.0,745,24400.336445
780.0,289,24406.402443
2300.0,1004,24427.962965
2430.0,1211,24454.390052
1030.0,520,24466.036855
1280.0,1194,24492.244595
1280.0,743,24508.694422
1180.0,615,24522.692482
2450.0,1919,24565.416059
1320.0,1192,24592.035222
1280.0,897,24612.814367
1610.0,1727,24651.1637
1760.0,891,24671.492517
1390.0,537,24683.353811
1510.0,2353,24735.738664
1080.0,649,24750.118227
880.0,450,24760.135115
1590.0,734,24775.709648
1180.0,1158,24801.366286
930.0,553,24813.943849
760.0,324,24820.877931
1480.0,1071,24843.952962
1610.0,830,24863.095206
1490.0,1273,24890.747964
1730.0,1269,24918.748703
1280.0,1035,24942.304308
1180.0,500,24953.112245
980.0,430,24962.29562
1320.0,1039,24984.742254
1080.0,575,24997.831406
1370.0,1159,25023.24368
1280.0,818,25041.62035
1350.0,1051,25064.294584
2900.0,1403,25096.022651
1300.0,1121,25120.349143
630.0,282,25126.298187
1300.0,645,25140.063905
1640.0,1265,25167.999596
930.0,521,25179.245518
830.0,470,25189.12052
780.0,467,25199.503332
1180.0,425,25208.699987
2330.0,856,25227.831298
1440.0,1114,25252.899687
1540.0,1326,25281.734508
1460.0,800,25299.267987
630.0,504,25310.640002
1930.0,1208,25336.772463
880.0,330,25343.735816
1390.0,829,25362.640458
830.0,296,25368.878429
1640.0,1211,25395.29173
1300.0,890,25415.021477
1950.0,1298,25443.711677
1390.0,1355,25473.545185
1280.0,803,25491.341805
980.0,331,25498.399804
1030.0,489,25509.13008
930.0,583,25522.037752
1300.0,1425,25553.028444
830.0,282,25558.9246
1320.0,1177,25584.876992
1180.0,521,25596.053355
1180.0,799,25613.430654
1320.0,1028,25635.724411
1180.0,561,25648.165701
2100.0,1149,25673.177499
1760.0,923,25693.31237
1180.0,608,25706.64947
1660.0,983,25728.934326
1180.0,638,25743.35063
1300.0,963,25764.221589
1390.0,2116,25812.040224
930.0,413,25821.927161
1370.0,578,25835.17045
1390.0,722,25851.107069
1300.0,1064,25874.432594
2000.0,976,25895.285865
1460.0,1598,25931.182154
2100.0,918,25951.340522
1760.0,733,25967.336084
2200.0,738,25983.305568
1080.0,473,25993.666645
1370.0,733,26009.53024
1130.0,551,26022.021238
2380.0,922,26042.938416
1400.0,730,26059.329616
1320.0,752,26075.54797
1680.0,1766,26114.474599
1280.0,589,26127.071092
1180.0,591,26139.738598
1860.0,832,26158.279589
1180.0,580,26170.932014
1800.0,921,26190.929112
2050.0,1036,26213.590277
1780.0,1005,26236.178424
780.0,556,26248.338615
1580.0,823,26266.058483
730.0,302,26272.342047
1910.0,880,26292.173326
1080.0,458,26301.991465
1280.0,802,26319.16011
780.0,392,26328.175432
1180.0,809,26345.800195
2100.0,1337,26375.149854
1390.0,660,26389.692657
1320.0,1088,26413.257299
1280.0,565,26425.265403
1390.0,1307,26454.575707
830.0,530,26466.595481
1180.0,511,26478.262364
1830.0,708,26493.85721
1180.0,466,26503.811304
1300.0,563,26517.166741
2010.0,699,26532.437527
2650.0,1360,26562.1637
1130.0,733,26578.027681
1300.0,613,26591.299031
1630.0,662,26605.597621
1680.0,958,26627.244097
1540.0,695,26642.3697
1300.0,740,26658.206643
1180.0,515,26669.701492
830.0,447,26679.236522
1800.0,988,26700.796915
1080.0,785,26718.998571
630.0,274,26724.727146
1490.0,916,26744.717944
1830.0,1018,26767.120036
1280.0,1230,26794.288068
1440.0,1173,26819.809136
1510.0,769,26836.756077
1660.0,1521,26871.884604
1680.0,861,26890.372602
1280.0,868,26909.343216
980.0,515,26920.391935
2250.0,1257,26948.04821
1370.0,1148,26973.318408
1830.0,971,26994.560305
1450.0,893,27014.127373
1280.0,1136,27039.211349
1660.0,634,27052.996072
980.0,521,27064.916581
1280.0,762,27081.414949
680.0,242,27086.346062
1420.0,1624,27122.842562
1880.0,1318,27151.892965
1300.0,906,27171.655831
2350.0,989,27193.292919
1280.0,1046,27216.646451
1370.0,764,27234.795859
2250.0,1663,27272.10722
1030.0,482,27282.261966
1750.0,788,27299.751399
1030.0,813,27317.589104
1850.0,773,27334.47291
2080.0,938,27355.224663
1080.0,745,27371.53602
1590.0,823,27389.416066
1080.0,681,27405.107787
980.0,465,27415.888666
1690.0,1436,27448.281027
880.0,448,27457.664769
1390.0,1362,27487.805048
1460.0,963,27509.247045
1830.0,641,27523.002288
1510.0,649,27537.218522
980.0,510,27548.753875
730.0,420,27557.604281
2000.0,1093,27581.683757
1180.0,685,27596.190539
1280.0,1105,27620.74022
1680.0,913,27641.186114
1180.0,469,27651.367198
1280.0,1201,27678.295401
1300.0,654,27692.430902
880.0,340,27699.55841
1080.0,771,27716.723081
1320.0,865,27736.311404
1580.0,1057,27759.903913
1420.0,1042,27781.545793
2300.0,986,27801.779304
1130.0,500,27811.939313
1350.0,1017,27832.700225
1030.0,601,27845.095412
1590.0,854,27862.127805
1750.0,957,27881.598971
2550.0,1397,27909.60652
1300.0,1021,27930.282834
830.0,444,27939.106087
1300.0,865,27956.878034
