# {"t_start": 1548219598.2378547, "env_id": "BattleZoneNoFrameskip-v4"} 
r,l,t
1000.0,1255,78.008455
0.0,1147,154.404293
3000.0,1424,246.384257
0.0,1534,347.618032
4000.0,1291,433.592713
3000.0,1039,499.721308
1000.0,1018,565.703543
5000.0,1001,627.483454
2000.0,749,678.294211
10000.0,1747,794.694775
1000.0,1342,879.013427
0.0,1210,956.601971
2000.0,1116,1029.780904
1000.0,1156,1105.425825
1000.0,1048,1174.752626
1000.0,1138,1250.785433
5000.0,1348,1334.141082
3000.0,1222,1418.583752
1000.0,1396,1511.91264
4000.0,1427,1602.818232
3000.0,894,1656.388763
1000.0,1162,1734.121747
7000.0,1569,1839.372609
3000.0,1301,1925.367766
4000.0,1306,2010.983384
1000.0,1118,2077.137412
7000.0,1157,2154.628914
1000.0,1084,2230.47117
4000.0,1324,2313.338177
2000.0,1047,2381.172565
2000.0,1129,2458.473659
1000.0,872,2511.998866
2000.0,1739,2628.317875
3000.0,1424,2721.36288
2000.0,774,2773.493116
0.0,1214,2851.558383
0.0,1324,2933.642232
0.0,1183,3017.933662
1000.0,1571,3119.478966
0.0,1240,3195.574917
7000.0,2060,3333.631677
8000.0,1353,3423.394337
1000.0,1171,3499.45963
0.0,1071,3568.512916
4000.0,1098,3635.496012
0.0,1406,3727.627534
1000.0,1082,3803.922805
1000.0,1208,3881.645918
1000.0,1586,3981.660165
1000.0,746,4032.186698
2000.0,846,4091.427573
0.0,1228,4169.645579
3000.0,970,4229.099101
0.0,1240,4310.868391
0.0,1312,4396.978629
1000.0,1149,4473.601562
0.0,1573,4572.310114
1000.0,1244,4657.353189
1000.0,1126,4733.167667
1000.0,1337,4815.85248
1000.0,1456,4911.21206
1000.0,1046,4979.176719
1000.0,973,5043.985983
4000.0,1331,5129.716207
1000.0,937,5190.401791
2000.0,1377,5280.543088
4000.0,1755,5392.201245
0.0,1166,5468.435766
4000.0,1025,5534.137065
9000.0,1569,5637.32924
4000.0,1719,5757.271865
0.0,1291,5839.706187
1000.0,1051,5907.584982
2000.0,711,5951.972958
8000.0,1544,6053.511021
1000.0,1649,6162.775266
0.0,1374,6256.821648
2000.0,1103,6322.874515
1000.0,1082,6398.731844
1000.0,1854,6515.295466
2000.0,1189,6593.082165
1000.0,1196,6671.30161
4000.0,1079,6744.417305
4000.0,1197,6820.32085
1000.0,1123,6898.038378
1000.0,1454,6991.567626
2000.0,1408,7082.516077
7000.0,1470,7177.34002
4000.0,1230,7257.457281
4000.0,1565,7360.620309
3000.0,999,7421.592628
6000.0,738,7469.661189
1000.0,1290,7554.428737
6000.0,1463,7650.50499
0.0,1272,7734.115529
2000.0,970,7799.012344
10000.0,1464,7895.388762
3000.0,908,7954.786361
1000.0,855,8004.421376
8000.0,1355,8097.210078
2000.0,1174,8174.186779
0.0,1282,8255.804898
4000.0,1294,8342.62576
1000.0,1196,8421.486047
7000.0,1775,8536.837066
1000.0,1252,8622.481098
11000.0,1491,8717.658709
1000.0,1306,8800.39011
12000.0,1267,8886.809845
10000.0,1689,8999.809873
15000.0,1386,9091.585605
1000.0,1130,9165.926415
1000.0,1320,9253.124618
1000.0,1025,9321.893671
3000.0,1131,9389.06442
5000.0,1460,9489.707478
4000.0,1751,9601.634594
8000.0,1134,9674.647713
3000.0,1240,9760.627946
0.0,1241,9838.426485
0.0,1234,9919.94765
3000.0,1189,9998.030394
1000.0,983,10054.554057
5000.0,1297,10141.402218
13000.0,1439,10242.974489
2000.0,787,10291.443661
0.0,1111,10360.432622
8000.0,1707,10472.624368
2000.0,1083,10544.976009
2000.0,1663,10657.29416
1000.0,925,10717.847864
0.0,1287,10798.933383
5000.0,1289,10885.503657
11000.0,1611,10988.144689
0.0,1185,11063.645668
0.0,1472,11164.928174
1000.0,1262,11243.390299
2000.0,1175,11325.695163
7000.0,1676,11433.218711
5000.0,1233,11511.178213
0.0,1532,11610.950764
1000.0,1301,11694.899587
2000.0,1177,11771.700602
1000.0,1076,11839.860486
6000.0,1056,11907.550326
12000.0,977,11973.712049
2000.0,1051,12041.180011
1000.0,1427,12134.104216
10000.0,1737,12251.269169
0.0,1189,12327.899761
2000.0,778,12378.614558
5000.0,1473,12471.94546
2000.0,1392,12563.013162
2000.0,828,12614.084979
5000.0,1498,12714.482276
2000.0,1269,12798.375
0.0,1133,12866.374064
4000.0,1499,12965.395091
1000.0,1133,13041.486739
0.0,1185,13117.894402
11000.0,1614,13217.766865
0.0,1254,13303.324342
1000.0,1050,13372.673209
2000.0,956,13437.819498
6000.0,1290,13521.133924
3000.0,1355,13608.757773
9000.0,1624,13714.369371
1000.0,778,13765.793786
1000.0,1240,13844.312974
4000.0,1118,13918.237214
10000.0,1679,14026.660547
14000.0,1809,14145.183812
3000.0,1193,14220.735875
7000.0,1424,14313.263074
1000.0,1328,14397.896041
2000.0,1234,14480.968474
1000.0,1176,14557.550779
3000.0,1344,14643.3481
3000.0,1974,14776.283051
2000.0,1741,14886.240771
0.0,1262,14970.761096
2000.0,1019,15038.494982
2000.0,1430,15131.626191
2000.0,936,15189.825117
1000.0,1027,15256.847482
1000.0,1316,15343.272971
3000.0,1836,15460.614186
3000.0,1369,15552.66841
1000.0,1662,15662.714533
9000.0,1097,15729.840578
1000.0,1505,15830.585771
2000.0,1223,15908.167819
2000.0,1129,15982.573609
7000.0,1295,16066.232398
10000.0,1815,16185.100612
9000.0,1794,16302.243165
6000.0,1042,16370.123717
3000.0,1095,16439.410665
1000.0,1067,16514.665504
2000.0,1285,16598.110092
0.0,1046,16665.284739
0.0,1245,16743.215708
2000.0,1943,16870.332113
2000.0,1039,16935.871453
1000.0,1040,17004.654974
0.0,1601,17114.062155
1000.0,1179,17189.35972
5000.0,1228,17265.186561
2000.0,1209,17348.04152
6000.0,1344,17432.74854
1000.0,997,17498.854661
1000.0,964,17558.825716
1000.0,1127,17634.05065
2000.0,1299,17718.313679
3000.0,1208,17794.987555
3000.0,1130,17870.745382
9000.0,1302,17955.156847
3000.0,1019,18022.230695
12000.0,1674,18130.754621
4000.0,1310,18215.22638
0.0,1249,18299.625537
9000.0,1618,18401.470417
0.0,1380,18493.318048
1000.0,1312,18578.445198
7000.0,1872,18699.460475
3000.0,1224,18781.42514
1000.0,1259,18865.312397
1000.0,1033,18933.924195
0.0,1293,19019.310201
3000.0,1250,19095.911699
3000.0,1358,19187.219581
0.0,1187,19265.50303
8000.0,1367,19349.423015
2000.0,887,19408.444503
5000.0,1337,19503.617036
4000.0,1215,19582.520946
3000.0,1042,19647.427284
3000.0,1424,19742.544156
0.0,1244,19826.674894
2000.0,1314,19910.557828
1000.0,1159,19988.634342
5000.0,1914,20117.055335
4000.0,1004,20176.526407
0.0,1211,20261.224613
5000.0,1204,20337.020266
0.0,1284,20421.821382
9000.0,1681,20533.481027
8000.0,1397,20625.404888
4000.0,1238,20704.658162
16000.0,1381,20798.48125
8000.0,2006,20932.633117
2000.0,992,20993.537818
0.0,1163,21071.674534
6000.0,1672,21179.912875
0.0,1228,21265.834228
4000.0,991,21327.952962
3000.0,1064,21395.892334
0.0,1153,21471.249058
3000.0,1329,21564.835299
0.0,1102,21635.110069
1000.0,898,21694.19113
5000.0,968,21756.47267
5000.0,1306,21851.471125
2000.0,1185,21930.549835
0.0,1222,22009.219827
1000.0,1082,22084.387378
2000.0,1178,22162.554608
14000.0,1975,22293.526621
1000.0,745,22344.972715
1000.0,1673,22455.0055
1000.0,1183,22531.176382
3000.0,1274,22617.130044
0.0,1095,22685.6359
14000.0,1232,22769.503414
19000.0,2260,22915.057419
19000.0,2089,23051.371521
1000.0,1496,23153.559959
2000.0,1225,23230.783125
1000.0,1189,23313.542632
3000.0,1422,23408.233972
8000.0,959,23469.188181
1000.0,1189,23545.652244
1000.0,1219,23622.947248
0.0,1173,23707.688854
1000.0,1161,23782.684377
7000.0,1248,23861.102502
2000.0,705,23912.512169
4000.0,1513,24011.672001
8000.0,1529,24111.533887
1000.0,1587,24217.194211
3000.0,1268,24305.041344
0.0,1415,24397.78186
6000.0,1414,24491.162488
0.0,1214,24567.876162
4000.0,1354,24659.135127
1000.0,1185,24737.532786
8000.0,1467,24829.650796
0.0,1158,24907.918555
0.0,932,24973.600919
4000.0,1108,25042.180644
13000.0,1875,25170.775138
1000.0,1205,25245.804174
0.0,1420,25340.724295
6000.0,1059,25409.529716
0.0,877,25466.735341
6000.0,1153,25544.100086
1000.0,1324,25628.670449
3000.0,778,25678.212759
0.0,1305,25765.03469
1000.0,1321,25850.142224
7000.0,1491,25950.792984
2000.0,1318,26035.494579
1000.0,1244,26118.250319
8000.0,1714,26231.55214
9000.0,1388,26323.0924
0.0,1144,26394.647997
0.0,1279,26481.141634
5000.0,1752,26597.548582
0.0,1541,26700.564948
1000.0,1318,26786.948484
4000.0,970,26847.800947
6000.0,1116,26923.156453
2000.0,959,26983.375421
3000.0,1234,27069.500562
0.0,1185,27145.776656
2000.0,1338,27231.132059
8000.0,1424,27327.011329
2000.0,1200,27409.793221
1000.0,1191,27486.369803
5000.0,1293,27573.80552
6000.0,1335,27659.448324
11000.0,1687,27769.866093
3000.0,984,27837.454684
1000.0,1119,27911.559921
4000.0,1506,28007.705889
4000.0,1005,28076.15341
0.0,997,28141.437892
2000.0,1212,28220.600359
1000.0,1316,28309.276232
3000.0,962,28374.303858
1000.0,1125,28444.13035
7000.0,1390,28540.168099
6000.0,1296,28622.24231
0.0,1255,28709.602074
1000.0,1185,28789.221055
3000.0,1418,28880.532953
2000.0,922,28941.347273
6000.0,1131,29018.666621
1000.0,1180,29092.607187
2000.0,882,29147.304897
6000.0,1127,29226.184602
3000.0,1330,29314.694381
0.0,1239,29397.826295
7000.0,1224,29475.615791
5000.0,1114,29552.612158
6000.0,1681,29663.743015
1000.0,1442,29756.714597
7000.0,1028,29824.608658
3000.0,919,29883.415257
0.0,1186,29959.731416
2000.0,1009,30027.614719
3000.0,1345,30119.915459
3000.0,1782,30231.102999
4000.0,1308,30322.637056
4000.0,1219,30399.505596
13000.0,1472,30493.186797
1000.0,1165,30569.675364
11000.0,1272,30654.073295
5000.0,1443,30747.572394
7000.0,1537,30847.86391
3000.0,1138,30924.977253
15000.0,1751,31042.595044
2000.0,1375,31129.126958
0.0,1101,31204.942891
4000.0,1175,31281.055886
8000.0,1359,31368.175387
3000.0,1348,31460.523471
3000.0,890,31516.544399
0.0,1451,31594.145643
2000.0,916,31635.543081
12000.0,1165,31688.396671
5000.0,1310,31746.994964
10000.0,1105,31793.825512
7000.0,869,31833.565885
3000.0,1025,31880.605323
2000.0,1671,31957.951334
3000.0,1058,32005.703658
1000.0,1320,32064.150884
4000.0,1112,32115.694118
6000.0,1322,32175.437193
3000.0,1471,32241.828208
2000.0,1438,32310.02896
4000.0,1524,32375.61412
2000.0,731,32410.729013
2000.0,99994,37000.735688
8000.0,1294,37061.786958
7000.0,1174,37116.187574
3000.0,1645,37190.154809
6000.0,1671,37267.814567
4000.0,1423,37330.52137
5000.0,1050,37378.453834
3000.0,1293,37439.431346
3000.0,1222,37495.360775
5000.0,1255,37551.868742
2000.0,783,37587.407142
5000.0,1343,37652.874141
0.0,1164,37702.131886
2000.0,1322,37763.889186
5000.0,1415,37829.763459
1000.0,836,37866.639652
9000.0,1547,37938.492924
11000.0,1376,38000.725595
0.0,1551,38072.943919
3000.0,1014,38121.758859
14000.0,1670,38196.37179
9000.0,1466,38263.784809
1000.0,1137,38317.089918
1000.0,1443,38382.235762
9000.0,1102,38428.467192
3000.0,1536,38498.575799
0.0,1265,38558.352036
13000.0,2124,38654.491638
6000.0,1293,38710.784135
3000.0,1476,38780.732791
1000.0,1166,38833.464379
2000.0,939,38873.572983
0.0,1156,38924.910167
8000.0,1468,38990.274064
2000.0,863,39030.776121
3000.0,949,39071.925907
3000.0,951,39117.156288
2000.0,699,39146.669673
0.0,1489,39211.618749
0.0,1372,39274.308666
4000.0,1298,39332.495762
9000.0,1289,39391.49737
2000.0,972,39438.364254
10000.0,1757,39516.17263
0.0,1241,39572.893476
0.0,1505,39637.115399
5000.0,1102,39689.126534
1000.0,1046,39736.052023
11000.0,1494,39799.601503
5000.0,961,39844.798887
1000.0,1385,39909.59968
8000.0,1551,39981.137774
5000.0,1683,40056.003122
2000.0,1769,40133.762465
7000.0,1264,40193.531955
0.0,1172,40247.294056
8000.0,1419,40311.310348
1000.0,1066,40357.200863
1000.0,1147,40409.516416
2000.0,1107,40461.83666
5000.0,1490,40527.667167
7000.0,1218,40585.232001
2000.0,1075,40631.177287
1000.0,1159,40683.022336
3000.0,1196,40736.380329
3000.0,972,40782.018319
5000.0,1217,40833.796463
5000.0,1122,40885.793036
1000.0,1202,40939.312502
4000.0,1243,40996.609717
3000.0,1206,41049.512864
13000.0,1739,41126.834548
5000.0,1677,41203.239133
10000.0,1584,41277.676625
7000.0,1040,41324.37044
1000.0,1487,41390.788276
2000.0,1233,41450.124141
5000.0,1435,41515.666828
4000.0,1038,41560.461214
5000.0,1427,41625.337377
10000.0,1331,41684.476912
9000.0,1737,41763.897721
0.0,1164,41817.578024
8000.0,1723,41895.681063
7000.0,1148,41947.807484
12000.0,1461,42011.663222
2000.0,1348,42071.309944
12000.0,1676,42148.146978
12000.0,1610,42223.073058
4000.0,1046,42268.3719
10000.0,1633,42345.131159
5000.0,1607,42416.834827
4000.0,1361,42478.314096
4000.0,1425,42543.703034
4000.0,1296,42603.351143
1000.0,1181,42653.981775
2000.0,1188,42707.281927
0.0,1258,42766.198819
12000.0,1675,42840.32282
7000.0,1225,42894.595237
5000.0,1433,42960.76427
9000.0,1684,43037.356899
4000.0,1342,43099.552476
9000.0,1289,43158.355559
3000.0,1164,43211.2937
3000.0,1250,43263.059262
2000.0,1133,43315.707278
5000.0,1085,43363.796783
7000.0,1136,43417.259329
1000.0,1184,43469.883652
2000.0,991,43514.733778
5000.0,1322,43573.895426
10000.0,1625,43651.084111
8000.0,1695,43729.329092
10000.0,1416,43793.640605
1000.0,1173,43844.80777
1000.0,1248,43897.998648
15000.0,1483,43967.936272
1000.0,1291,44027.019425
2000.0,1313,44085.891858
8000.0,1398,44148.750812
6000.0,1490,44213.721359
1000.0,1194,44271.843653
4000.0,1008,44314.881164
10000.0,1455,44383.830403
14000.0,1836,44465.124937
2000.0,1172,44518.785795
7000.0,1075,44566.263761
6000.0,1389,44629.125478
1000.0,901,44669.400743
16000.0,1538,44741.176384
3000.0,970,44783.90563
4000.0,951,44829.940626
9000.0,1293,44886.532704
3000.0,1240,44941.397584
3000.0,1247,45001.408238
13000.0,1359,45062.394686
2000.0,1082,45112.145576
4000.0,1446,45177.70327
12000.0,1555,45249.490409
0.0,1255,45306.702356
4000.0,931,45347.165562
2000.0,959,45388.375861
3000.0,905,45429.331949
9000.0,1717,45506.408828
14000.0,1483,45576.635343
1000.0,1187,45628.18808
2000.0,962,45668.808066
16000.0,1894,45756.473282
22000.0,1357,45819.571347
3000.0,872,45855.636038
4000.0,1069,45906.509365
