# {"t_start": 1547997810.1830926, "env_id": "RoboschoolHumanoid-v1"} 
r,l,t
-101.037448,19,4.798064
-101.920021,20,5.9707
-68.711452,17,6.796599
-83.762941,19,7.511275
-109.592076,17,8.44123
-86.191608,18,9.163291
-95.648464,25,10.715745
-108.885926,18,11.704699
-101.690597,19,12.735425
-69.201398,20,13.950751
-95.513759,18,14.796279
-89.336719,18,15.675993
-81.229219,19,16.540471
-120.760104,20,17.67872
-103.310206,19,18.743163
-71.64367,19,19.390723
-96.861483,19,20.259081
-85.369671,20,21.172464
-112.091029,20,21.944659
-92.204424,18,22.58693
-110.556833,19,23.129307
-60.738827,17,23.864807
-98.200538,20,24.708582
-95.478242,19,25.794266
-87.662557,17,27.032296
-79.18522,18,28.296334
-77.811001,18,29.443196
-107.055325,20,2731.862067
-82.631372,19,2732.860017
-107.349052,21,2734.049948
-95.358327,17,2735.261973
-102.646127,20,2736.54903
-131.442283,27,2737.999725
-78.020659,19,2739.080363
-108.017875,18,2739.966905
-89.556605,20,2741.348238
-119.367779,18,2742.683115
-90.394628,21,2743.98792
-74.085167,19,2745.286577
-77.707446,20,2746.560471
-110.269135,20,2747.988824
-75.592204,18,2748.950861
-84.12919,19,2749.691274
-95.243435,18,2750.47581
-84.544219,20,2751.65693
-95.165878,18,2752.833185
-79.770093,18,2753.788408
-109.329379,19,2755.002922
-64.869943,19,2755.952231
-90.754964,19,2757.273908
-104.869942,20,2758.517791
-91.839307,24,2760.122091
-123.71834,28,5480.49096
-86.013938,20,5481.62901
-101.775924,18,5482.772827
-103.415408,19,5484.060834
-101.752971,19,5485.136918
-84.707979,18,5486.383248
-111.883521,18,5487.471698
-93.446923,19,5488.711883
-119.154989,20,5489.893868
-75.649823,23,5491.444577
-103.481779,28,5492.95154
-99.286908,19,5494.158343
-85.01919,20,5495.580269
-154.076276,29,5496.856248
-79.799574,19,5497.898997
-80.494185,19,5498.987887
-96.781977,19,5500.063131
-97.046941,19,5501.105864
-89.230595,22,5502.408294
-116.712962,19,5503.27813
-104.700139,20,5504.596416
-109.47995,20,5505.936198
-102.68473,20,5507.167641
-113.928592,18,5508.324798
-72.805331,20,5509.648242
-86.981842,21,5511.031348
-114.767526,25,8229.021931
-93.149829,20,8230.265352
-98.124107,19,8231.424153
-93.812783,20,8232.580255
-103.096543,18,8233.508815
-98.062903,18,8234.278466
-78.674648,16,8235.292846
-98.270304,20,8236.299191
-93.567685,19,8237.333652
-86.751427,19,8238.556452
-81.264836,19,8239.610956
-82.099456,20,8240.68218
-122.35788,31,8242.393919
-96.202262,20,8243.809248
-95.156116,18,8244.826387
-95.557879,18,8246.077933
-83.557961,19,8247.191469
-77.217897,19,8248.209798
-114.262654,23,8249.710329
-86.132462,18,8250.740078
-86.444076,18,8251.835774
-136.829656,22,8253.1427
-87.809186,18,8254.137162
-94.326961,19,8254.978112
-105.00169,19,8256.043262
-77.44267,19,10982.912372
-100.925083,20,10984.204111
-65.926699,17,10985.11664
-93.821463,18,10986.093872
-73.444543,19,10987.292213
-99.765289,20,10988.674017
-106.030777,21,10989.785479
-120.994888,19,10990.668184
-81.332696,18,10991.732012
-106.609161,18,10992.785814
-69.199265,18,10993.879209
-86.947825,18,10994.992226
-68.438131,19,10996.258829
-87.365897,21,10997.542368
-94.337504,18,10998.551275
-75.044439,18,10999.73005
-97.610211,18,11000.970121
-92.703773,18,11001.740452
-97.128989,19,11002.730067
-109.211506,19,11003.654819
-105.097641,20,11004.835489
-92.172832,20,11006.098931
-86.540537,18,11007.041669
-84.736181,19,11008.26918
-96.743602,19,11009.12439
-114.536835,25,11010.34589
-69.353457,20,11011.08027
-111.531359,19,13811.562303
-81.043632,20,13812.525821
-61.539578,19,13813.822936
-61.686757,21,13814.886645
-86.838964,21,13816.014506
-88.176529,19,13816.6843
-75.150752,20,13818.189178
-95.563199,18,13819.144792
-99.127679,19,13819.793974
-97.617394,20,13820.891658
-75.207172,19,13822.010929
-73.215088,19,13823.00079
-113.903577,21,13823.883751
-61.265415,20,13824.80338
-85.931684,19,13825.850268
-99.262115,19,13826.730651
-71.002388,19,13827.523212
-83.387414,18,13828.081079
-102.812037,19,13829.019401
-95.319588,18,13830.151049
-90.356231,21,13831.498179
-109.011444,21,13832.578423
-79.657081,21,13833.791233
-96.418623,18,13834.874589
-101.952854,20,13835.947561
-87.759665,19,13837.015353
-113.750414,24,16608.78937
-83.639216,21,16609.667819
-105.014141,19,16610.326399
-74.295027,19,16611.153372
-113.36414,25,16612.094298
-70.532628,19,16612.822142
-105.151234,21,16613.739343
-74.287595,21,16615.247385
-108.111811,21,16616.314237
-92.685013,24,16617.890832
-84.078242,20,16618.987743
-87.088589,19,16619.753431
-75.733301,19,16620.555584
-68.543416,20,16621.304269
-133.66805,29,16622.962138
-106.020403,20,16623.89585
-87.685488,20,16624.638405
-147.925985,27,16626.241981
-67.631481,18,16627.212968
-87.571533,19,16628.239756
-68.777808,18,16628.835328
-93.811133,19,16629.449903
-69.004586,20,16630.109787
-70.810394,18,16631.097886
-62.289363,18,16632.22393
-109.231089,22,19234.80946
-83.669917,19,19235.806265
-80.789641,19,19236.672613
-124.39032,25,19238.211316
-78.703415,19,19239.227102
-60.328569,19,19240.280566
-82.474641,19,19241.220423
-107.340658,23,19242.428373
-88.24955,19,19243.736331
-63.201963,19,19244.63383
-105.438619,19,19245.392885
-97.403765,23,19246.745576
-67.857959,19,19247.694032
-90.60451,18,19248.95673
-72.757037,19,19249.856508
-80.343731,20,19250.949401
-86.057997,19,19251.930367
-88.690052,19,19252.515588
-57.736659,19,19253.437697
-91.118377,19,19254.182485
-95.668699,19,19254.991002
-109.527557,25,19255.693092
-92.081448,18,19256.381306
-114.322591,21,19257.727203
-93.860237,19,19258.699886
-69.088548,19,19259.765901
-63.95147,17,21870.851952
-72.802819,19,21871.789456
-72.518111,19,21873.119208
-75.355714,21,21874.101882
-115.637523,25,21875.520675
-67.179241,18,21876.320645
-87.788509,19,21877.049941
-83.271846,20,21877.909833
-59.066568,20,21878.737075
-78.234066,20,21879.776423
-110.380644,22,21880.941539
-52.687635,18,21882.262706
-88.637935,19,21883.368557
-103.421234,27,21884.407138
-87.773191,20,21885.225094
-73.674838,20,21886.563396
-80.901684,20,21887.720624
-83.190585,17,21888.583051
-82.041427,24,21889.646925
-74.390592,18,21890.436329
-76.640466,21,21891.591543
-85.114243,19,21892.494273
-93.608342,18,21893.331699
-59.715136,19,21894.395561
-75.940154,19,21895.324854
-83.792419,18,21896.353789
-89.098299,18,24713.363127
-62.313073,18,24714.292842
-69.159047,19,24715.373435
-89.006402,19,24716.501878
-57.783269,20,24717.60242
-85.204962,19,24718.54518
-53.996635,19,24719.728228
-66.851315,19,24720.589479
-102.885027,20,24721.62064
-89.978846,19,24722.461108
-100.890764,32,24723.978516
-65.743212,18,24724.873296
-80.393879,18,24725.651179
-71.32263,18,24726.705634
-65.355199,19,24727.602592
-75.302719,19,24728.666849
-66.141949,18,24729.579141
-77.297206,19,24730.686877
-59.005646,20,24731.826039
-61.821443,19,24732.58159
-68.601377,19,24733.567034
-71.237081,25,24734.731295
-83.349361,19,24735.777826
-93.948077,21,24736.654747
-79.66235,20,24737.690994
-63.361672,19,24738.717825
-68.182351,18,27822.175142
-83.351013,18,27823.360356
-86.129275,24,27824.158388
-74.301707,18,27824.702946
-69.588488,19,27825.54094
-69.129863,20,27826.757643
-63.227743,18,27827.418489
-104.049267,28,27828.431051
-61.359056,19,27829.147177
-71.08816,20,27829.747134
-104.882011,29,27830.730401
-64.621663,20,27831.935068
-60.944198,19,27832.996512
-61.114046,19,27834.033057
-71.765882,24,27835.741552
-66.009518,19,27836.600471
-85.429411,20,27837.289044
-70.35409,19,27837.977637
-69.106095,19,27838.861265
-70.926308,19,27839.824852
-79.367222,19,27840.854833
-81.106351,18,27841.433974
-82.59552,21,27842.1395
-72.129327,19,27842.848855
-68.894204,18,27843.534636
-82.99564,20,30308.034369
-71.088344,19,30308.583419
-56.684339,19,30309.323893
-72.39097,21,30310.149078
-77.995761,19,30310.686832
-67.127188,19,30311.276062
-61.094697,21,30312.175228
-75.501246,19,30313.167498
-74.2254,19,30313.905529
-86.342587,19,30314.514318
-91.553441,18,30315.211649
-66.959024,20,30315.874304
-61.78281,20,30316.600962
-95.904941,19,30317.194544
-66.008281,19,30317.902242
-72.409033,18,30318.597886
-56.438888,20,30319.32711
-67.29887,19,30319.924717
-81.75844,18,30320.637817
-93.386381,23,30321.599107
-44.20042,19,30322.349238
-77.58794,19,30323.083055
-70.698682,19,30323.705984
-42.616325,18,30324.304765
-65.179187,19,30325.017512
-78.127426,19,30325.576853
-57.81393,18,30326.102452
-68.856526,19,32518.60706
-57.931231,21,32519.204347
-71.175759,19,32519.826884
-57.212006,17,32520.333313
-58.146342,19,32520.925589
-65.394483,19,32521.422569
-70.934162,21,32522.026563
-90.215378,20,32522.59438
-87.803825,19,32523.243187
-61.861792,18,32523.783994
-57.124179,19,32524.433484
-59.935923,19,32525.047961
-68.899427,18,32525.756391
-60.83158,19,32526.317878
-68.868252,18,32527.015444
-101.620161,19,32527.652875
-40.136561,19,32528.228335
-79.87774,19,32528.864943
-60.335959,18,32529.49804
-57.086753,17,32530.047656
-63.495045,19,32530.660957
-77.466189,21,32531.42404
-78.129869,20,32532.084268
-59.523642,19,32532.648568
-67.375039,20,32533.274497
-66.023104,19,32533.867688
-54.933364,19,34255.694276
-68.41838,19,34256.228384
-64.027765,22,34256.738907
-67.196772,20,34257.16997
-76.908525,20,34257.661853
-67.011603,18,34258.100306
-70.278391,20,34258.530751
-61.22086,18,34259.008722
-62.053517,19,34259.47322
-56.7411,19,34259.898332
-60.566665,21,34260.383008
-66.749529,21,34260.841724
-64.023985,18,34261.41497
-56.314055,19,34261.954313
-69.636422,19,34262.751224
-81.946456,19,34263.273217
-55.448123,18,34263.845186
-59.841424,18,34264.34016
-54.220137,19,34264.882867
-51.454504,18,34265.573111
-58.15177,19,34266.090522
-75.16036,26,34266.813094
-54.794428,19,34267.346419
-85.890521,27,34268.04897
-57.189614,19,34268.680129
-65.174835,19,34269.247923
-64.647086,19,35744.42156
-52.223996,19,35744.943727
-65.465569,20,35745.523558
-57.102768,19,35746.134975
-74.621817,21,35746.739746
-60.641781,20,35747.358238
-58.333349,20,35747.946681
-63.000425,19,35748.504233
-64.318293,18,35749.007054
-54.746842,19,35749.514789
-58.116065,19,35750.000838
-72.216314,20,35750.6164
-63.708458,20,35751.181538
-65.519952,19,35751.730852
-51.788324,19,35752.420602
-59.13025,19,35753.002553
-54.752189,19,35753.730771
-56.185001,19,35754.296012
-85.376565,19,35754.835769
-64.606581,19,35755.391484
-72.679355,20,35755.934641
-64.467734,20,35756.478565
-80.712971,20,35756.944447
-77.282982,19,35757.355532
-57.87484,18,35757.780027
-65.365281,24,35758.27756
-63.662343,20,35758.873373
-91.133574,24,37230.959663
-48.664487,19,37231.471411
-62.539248,20,37232.131632
-67.860951,18,37232.644454
-68.571709,20,37233.257329
-68.980793,19,37233.735502
-61.646104,20,37234.159283
-59.732349,18,37234.636472
-65.285347,19,37235.322382
-64.392976,28,37236.288404
-47.992441,19,37236.85147
-68.072397,20,37237.403491
-61.983285,19,37237.971139
-67.01796,20,37238.50912
-70.266051,20,37239.072915
-57.234677,19,37239.678514
-52.617433,19,37240.17622
-59.389976,18,37240.672811
-68.092886,21,37241.230422
-51.605846,19,37241.87571
-56.44655,19,37242.331217
-76.308122,20,37242.792023
-71.970633,23,37243.314979
-65.157406,19,37243.780811
-59.126498,19,37244.236753
-69.031416,19,38582.428968
-50.547854,18,38582.947886
-51.527654,20,38583.573149
-69.374431,28,38584.265674
-68.554737,19,38584.75396
-60.113809,19,38585.154543
-62.634712,25,38585.770075
-56.049686,20,38586.218501
-61.954589,19,38586.734795
-47.777159,19,38587.136365
-62.439695,18,38587.505478
-97.814738,27,38588.013834
-63.861695,19,38588.450772
-63.429373,20,38588.945567
-55.689537,19,38589.478183
-50.471515,19,38590.112075
-53.00317,19,38590.663421
-51.498384,18,38591.157182
-50.136669,19,38591.644932
-42.115452,19,38592.202371
-57.962174,19,38592.654095
-53.639436,19,38593.129375
-100.782387,26,38593.933902
-59.745711,19,38594.519007
-62.860139,18,38594.976079
-58.472695,20,38595.588529
-64.078842,20,39737.554169
-64.430745,19,39737.889877
-70.559705,18,39738.199618
-68.521026,19,39738.519939
-74.668623,24,39739.003548
-67.264993,19,39739.336701
-37.608022,18,39739.76382
-66.073924,18,39740.199407
-48.92562,19,39740.624752
-52.017976,19,39741.124611
-53.93939,18,39741.618511
-52.67473,18,39742.04613
-49.802135,19,39742.491027
-41.282944,24,39743.007721
-66.560923,19,39743.510804
-45.90126,19,39743.974526
-52.501492,20,39744.508852
-55.370506,19,39745.004417
-44.334788,18,39745.433639
-55.022653,20,39745.863564
-61.71836,23,39746.392539
-69.428675,19,39746.81586
-69.071028,19,39747.224381
-68.612806,19,39747.63946
-47.97404,19,39747.9291
-64.405089,18,39748.288598
-53.906328,19,40830.619638
-51.736788,20,40830.958552
-48.218357,19,40831.302052
-69.296709,29,40831.811739
-50.657661,19,40832.138542
-64.657818,18,40832.508828
-59.911157,20,40832.923791
-58.417384,19,40833.268392
-62.841016,19,40833.651939
-65.212072,19,40833.995944
-47.118091,19,40834.337978
-51.7364,20,40834.727722
-47.853624,19,40835.176742
-50.91619,19,40835.695828
-51.236245,19,40836.157588
-59.660915,19,40836.650995
-56.771901,19,40837.124671
-62.606396,20,40837.631068
-47.148583,19,40838.119272
-67.691115,18,40838.489799
-70.894704,20,40838.993313
-59.313432,20,40839.465425
-56.397135,19,40839.972766
-44.954122,18,40840.393137
-64.662885,19,40840.960283
-50.018174,20,40841.392222
-57.820267,18,41922.595345
-44.407891,19,41922.966608
-48.705999,19,41923.396696
-71.66924,19,41923.79264
-57.408122,19,41924.127899
-52.683084,19,41924.512451
-56.555316,18,41924.885466
-50.42833,19,41925.235317
-49.28066,19,41925.622592
-60.737833,20,41926.171874
-49.274231,19,41926.664504
-72.091169,20,41927.272636
-55.76766,19,41927.783089
-57.788419,18,41928.244658
-48.100435,18,41928.71486
-65.67872,20,41929.168376
-58.327499,18,41929.64306
-52.444572,18,41930.080824
-61.867595,20,41930.538893
-52.226928,20,41931.095976
-47.456843,19,41931.618568
-40.375199,18,41932.053262
-64.565277,19,41932.524575
-58.041335,20,41932.987902
-59.873584,18,41933.46021
-53.22199,20,41933.88938
-47.663608,19,41934.296053
-57.850057,20,43014.376108
-51.04026,19,43014.70436
-63.735263,19,43015.114741
-56.331379,19,43015.471561
-53.844061,19,43015.820628
-46.227585,19,43016.235166
-51.377146,20,43016.612533
-49.131373,19,43017.016275
-45.300001,18,43017.343508
-44.481376,20,43017.687027
-46.007799,18,43017.990509
-51.117723,18,43018.443445
-48.976544,18,43018.857022
-63.402077,18,43019.279774
-55.596624,18,43019.690912
-52.444689,19,43020.163633
-45.30254,19,43020.642035
-57.581944,19,43021.176445
-47.956284,19,43021.62551
-64.686581,19,43022.15923
-46.099805,19,43022.602565
-50.299379,19,43023.082505
-37.927543,19,43023.511198
-48.84278,19,43023.965005
-62.876649,18,43024.372865
-63.926835,19,43024.82933
-49.986218,19,43025.262967
-54.343185,19,44105.83418
-47.9955,18,44106.256998
-61.71173,19,44106.726807
-53.299847,19,44107.166261
-59.934762,18,44107.561708
-38.574638,19,44107.974235
-50.031999,19,44108.418163
-55.672328,19,44108.868676
-48.428782,19,44109.344447
-55.543865,19,44109.646953
-52.477556,19,44109.972202
-50.02179,19,44110.359697
-57.739155,18,44110.642993
-35.637159,19,44111.051525
-60.635954,19,44111.402627
-47.217868,20,44111.747419
-49.646214,18,44112.090367
-49.263149,20,44112.478565
-49.180992,19,44112.846067
-58.717066,19,44113.165882
-53.451664,19,44113.565171
-47.624832,18,44113.889236
-41.965796,19,44114.315494
-48.969347,19,44114.718314
-59.691867,18,44115.140009
-58.594349,19,44115.607016
-55.902735,20,44116.138478
-66.117998,20,44116.62079
-53.374983,19,45195.19318
-41.79338,19,45195.541949
-38.479439,19,45195.897407
-53.377346,19,45196.246262
-45.108948,19,45196.521547
-73.55744,22,45196.953009
-53.928241,19,45197.45777
-53.964009,19,45197.909805
-46.650788,19,45198.316825
-39.576938,20,45198.793755
-48.803081,20,45199.259048
-45.695233,19,45199.673933
-56.912954,19,45200.131295
-48.398533,22,45200.64842
-44.299386,19,45201.134217
-60.445226,19,45201.604694
-46.792268,19,45202.040546
-38.066639,19,45202.505804
-47.041651,19,45202.887327
-60.851252,18,45203.36498
-44.704512,19,45203.867684
-59.629416,19,45204.356977
-51.666879,19,45204.762454
-56.5626,20,45205.214735
-54.791412,19,45205.566655
-44.452977,20,45205.989186
-50.296666,19,46286.358768
-49.887528,19,46286.81705
-43.240567,20,46287.359622
-49.103924,19,46287.652671
-67.287505,19,46287.991777
-39.732213,20,46288.374649
-37.504351,19,46288.721545
-60.242413,19,46289.068668
-49.051748,19,46289.420766
-41.672791,18,46289.749376
-57.613602,20,46290.113341
-46.395718,19,46290.418656
-50.108767,19,46290.779244
-52.006023,19,46291.158699
-34.122507,19,46291.547634
-67.708886,18,46291.877532
-50.811343,18,46292.17815
-45.705379,18,46292.611377
-49.010444,19,46293.072226
-49.031048,18,46293.485266
-44.431322,19,46293.901701
-36.35447,19,46294.353318
-45.63087,19,46294.78979
-44.586342,19,46295.319275
-53.044761,19,46295.787215
-41.211164,19,46296.260688
-55.276662,19,46296.726121
-46.670323,19,47377.308412
-39.141002,19,47377.736053
-39.567887,21,47378.208528
-43.81395,20,47378.683462
-47.33247,20,47379.183239
-50.094032,21,47379.661416
-58.076858,24,47380.347841
-57.584969,19,47380.781227
-46.476587,19,47381.266768
-48.066225,19,47381.722017
-53.301947,19,47382.199548
-46.685672,19,47382.661406
-71.615915,25,47383.250636
-41.59071,18,47383.733819
-40.092705,21,47384.309818
-28.690002,19,47384.664058
-39.907378,19,47385.003513
-49.211195,20,47385.37128
-42.471583,20,47385.720949
-54.233206,18,47386.091187
-56.098044,19,47386.453647
-33.37893,18,47386.797088
-53.759444,19,47387.161509
-39.539835,19,47387.595573
-49.575311,20,47387.938623
-53.5004,19,47388.337869
-29.128312,21,48468.735087
-43.486143,19,48469.164898
-52.623671,18,48469.640063
-58.001314,19,48470.122454
-76.556806,32,48470.924149
-42.684357,20,48471.467592
-45.130576,20,48471.89219
-36.667893,20,48472.315454
-46.063286,20,48472.701549
-34.417642,20,48473.069586
-46.639218,19,48473.456646
-53.010321,18,48473.852076
-49.752682,19,48474.234545
-50.676965,19,48474.596739
-38.963261,20,48475.061924
-42.572255,19,48475.405837
-45.58341,19,48475.78623
-43.346895,17,48476.090571
-56.703058,19,48476.438097
-45.947288,18,48476.900466
-38.738045,21,48477.368628
-42.564073,19,48477.848544
-45.394301,19,48478.338048
-42.645615,19,48478.768752
-42.91402,22,48479.311098
-44.92762,19,48479.735799
-55.634762,19,49550.154436
-42.696433,20,49550.603739
-40.414357,20,49551.10657
-26.955158,18,49551.547203
-47.064831,19,49552.000842
-36.840122,20,49552.44988
-55.479488,20,49552.877974
-41.453732,19,49553.318241
-50.967475,20,49553.797037
-49.40924,19,49554.208294
-49.86405,19,49554.637363
-40.865047,19,49555.008297
-39.529929,19,49555.393186
-38.498548,19,49555.787618
-65.225252,19,49556.119874
-46.922859,20,49556.527305
-43.92406,20,49556.903527
-46.636849,20,49557.261843
-50.827658,20,49557.673599
-39.308664,19,49558.017651
-38.380371,19,49558.452997
-48.495492,23,49558.869766
-48.444053,19,49559.213595
-55.482275,18,49559.684227
-57.550951,20,49560.13585
-53.11926,19,49560.625106
-44.39821,20,50567.455485
-48.475383,20,50567.757948
-49.69805,20,50568.064055
-28.924977,19,50568.35818
-38.236104,19,50568.65488
-42.497916,20,50568.961226
-34.451505,21,50569.278933
-55.345641,19,50569.582088
-47.227035,21,50569.982618
-41.008735,19,50570.270739
-55.234337,20,50570.599398
-40.201035,19,50570.893993
-39.487417,20,50571.218261
-52.054076,20,50571.528911
-46.948159,19,50571.828902
-51.724725,19,50572.151602
-54.854822,19,50572.444757
-43.98312,19,50572.714846
-32.834407,21,50573.022441
-43.818128,19,50573.331021
-41.568316,20,50573.67067
-36.854538,19,50573.985426
-47.341668,21,50574.308382
-52.177542,19,50574.625256
-44.348282,19,50574.923701
-46.574393,23,50575.289347
-43.868548,19,51492.396956
-49.116904,20,51492.680407
-52.418682,20,51492.9397
-40.806348,19,51493.261036
-60.145662,18,51493.559275
-40.532035,19,51493.882135
-48.162556,20,51494.18645
-38.170297,18,51494.481455
-41.484252,20,51494.807508
-46.572142,19,51495.135022
-49.370627,21,51495.504277
-39.422333,19,51495.767345
-42.160496,19,51496.040148
-38.378966,19,51496.36445
-30.302974,19,51496.70136
-30.729846,19,51496.996244
-42.941465,21,51497.341879
-39.088055,18,51497.656585
-33.424392,20,51497.955317
-50.974519,19,51498.247642
-37.79378,19,51498.536347
-57.005845,20,51498.845962
-43.081682,20,51499.167199
-42.912774,19,51499.446363
-51.89951,19,51499.756888
-37.577223,20,51500.105157
-34.778999,19,51500.46171
-42.401795,18,52417.457859
-51.648779,19,52417.714824
-37.992282,20,52418.00072
-29.564906,22,52418.371229
-38.646217,19,52418.693743
-28.909279,19,52418.989048
-44.33893,21,52419.326188
-43.371969,19,52419.679493
-43.305086,18,52419.949015
-46.079719,19,52420.223027
-35.856351,19,52420.529223
-37.629127,20,52420.8456
-40.955102,18,52421.133041
-39.463876,19,52421.477581
-48.851055,20,52421.799978
-43.285222,21,52422.175648
-43.145181,19,52422.451016
-39.106669,19,52422.754285
-43.53958,19,52423.081049
-40.14961,20,52423.396088
-50.064625,21,52423.729255
-37.797582,20,52424.040246
-30.749435,19,52424.382071
-44.587332,20,52424.718235
-34.355747,19,52425.027509
-38.88478,19,52425.33911
-45.790593,19,53341.871197
-47.803678,19,53342.178498
-39.06635,19,53342.508852
-49.546248,21,53342.811691
-39.42875,20,53343.101399
-33.469766,19,53343.404107
-47.00459,19,53343.689705
-55.154284,21,53344.024574
-37.50162,19,53344.314961
-32.500482,20,53344.601412
-45.045796,19,53344.928685
-43.407387,20,53345.214494
-36.034848,19,53345.544121
-48.14734,21,53345.916197
-40.869667,21,53346.224968
-47.671682,18,53346.499871
-31.331193,19,53346.806045
-47.083679,20,53347.164698
-43.430727,23,53347.512734
-40.069487,19,53347.840468
-34.658644,19,53348.194829
-39.138551,21,53348.529612
-43.648324,19,53348.812001
-44.788519,19,53349.112541
-37.931926,26,53349.568911
-33.822838,19,53349.858795
-44.037964,19,54266.306363
-39.261467,20,54266.6221
-35.509828,20,54266.94501
-28.867175,20,54267.276397
-30.227581,20,54267.589895
-33.801701,18,54267.952453
-52.939442,21,54268.282839
-35.370816,19,54268.59297
-48.214729,21,54268.96134
-56.893179,19,54269.308345
-40.108326,19,54269.599313
-43.338437,19,54269.900862
-49.616863,19,54270.226598
-37.1155,20,54270.527244
-43.53681,19,54270.835967
-30.507834,20,54271.162181
-45.263936,20,54271.508926
-41.044293,19,54271.82535
-42.43892,20,54272.132029
-40.487344,19,54272.447697
-36.121541,19,54272.767673
-44.777681,21,54273.122802
-39.499204,20,54273.443111
-40.12993,19,54273.783539
-33.863848,20,54274.089741
-34.459761,20,54274.417176
-32.615883,19,55083.693659
-47.873565,19,55083.944132
-30.781314,19,55084.144871
-39.944932,20,55084.367388
-50.144384,19,55084.566809
-26.148112,19,55084.760222
-32.327396,21,55084.997138
-26.012505,20,55085.222745
-37.084403,20,55085.431498
-38.312196,21,55085.658276
-36.726094,20,55085.865811
-45.160507,20,55086.064659
-41.909723,20,55086.302111
-41.867396,19,55086.510458
-45.276254,19,55086.732349
-42.550226,17,55086.902291
-39.825356,20,55087.10885
-34.476001,22,55087.386458
-47.839427,19,55087.594765
-40.569073,20,55087.811554
-43.036358,20,55088.009043
-51.463988,18,55088.20748
-50.439807,20,55088.46643
-33.899911,21,55088.726224
-42.633265,19,55088.919029
-32.232359,19,55089.145087
-40.947631,19,55881.954331
-43.361893,20,55882.190613
-42.581751,19,55882.380999
-41.434682,19,55882.574424
-36.627187,21,55882.801432
-45.160076,19,55882.997892
-31.043669,21,55883.231205
-44.513875,20,55883.456492
-43.825695,18,55883.640223
-34.471534,19,55883.834293
-40.971131,20,55884.052639
-32.219785,20,55884.252461
-39.548606,22,55884.516698
-44.677599,22,55884.750767
-33.661104,19,55884.957592
-31.381076,21,55885.186603
-37.89023,19,55885.384506
-41.744223,19,55885.607368
-46.018331,19,55885.833653
-40.423448,21,55886.051702
-46.06182,26,55886.331227
-56.517593,20,55886.531727
-44.90204,19,55886.771579
-47.594488,19,55886.977244
-34.215881,20,55887.203327
-46.817323,19,56875.54219
-39.056872,19,56876.008893
-46.107438,20,56876.454073
-46.899399,22,56877.114811
-39.28138,21,56877.624359
-37.57433,20,56878.1687
-40.005551,20,56878.721432
-61.790473,21,56879.296435
-38.249106,19,56879.820114
-48.191472,21,56880.370525
-42.074486,19,56880.870687
-35.198057,19,56881.38278
-34.581857,20,56881.943169
-45.43762,18,56882.408324
-42.551211,20,56883.210153
-30.591163,19,56883.835212
-38.725409,19,56884.532103
-30.114683,20,56885.097174
-31.960222,20,56885.675485
-32.0592,19,56886.20084
-48.16234,20,56886.783519
-37.161846,19,56887.322041
-55.816468,21,56887.905222
-30.977673,19,56888.454546
-48.953681,20,56889.008699
-34.948114,19,56889.686377
-51.058715,18,57977.753321
-47.932331,19,57978.217707
-34.025888,19,57978.958127
-45.95768,25,57979.667069
-37.507575,20,57980.227406
-44.86252,22,57980.796785
-39.48288,19,57981.318281
-27.009842,18,57981.810403
-35.261296,20,57982.405928
-34.7622,19,57982.981126
-52.651447,22,57983.546981
-34.736933,19,57984.089547
-48.515563,21,57984.649664
-35.109376,19,57985.183806
-39.848784,20,57985.754596
-37.765342,19,57986.298721
-40.199032,20,57986.837365
-37.777646,20,57987.452058
-37.033093,19,57988.038437
-35.935345,20,57988.776236
-34.704717,19,57989.342048
-28.932592,19,57989.93027
-38.010381,18,57990.530719
-50.345322,21,57991.087489
-38.81459,21,57991.654207
-34.141224,19,57992.193271
-47.28313,19,59088.681513
-44.149905,19,59089.135103
-35.234051,19,59089.545168
-43.317758,19,59090.046584
-28.310865,19,59090.50916
-34.201486,19,59091.301881
-42.066698,19,59091.824897
-43.906525,19,59092.411935
-51.729442,25,59093.144134
-39.813338,18,59093.638835
-57.465268,20,59094.193996
-34.938464,21,59094.772932
-36.497912,19,59095.297116
-36.850907,20,59095.905837
-50.101876,20,59096.489659
-32.973458,19,59097.111902
-39.900095,20,59097.714809
-39.336827,19,59098.319677
-46.306768,20,59098.91185
-47.427421,19,59099.438728
-35.890439,20,59099.999974
-34.716023,19,59100.531182
-37.704249,20,59101.239447
-30.620337,20,59101.934562
-41.842174,20,59102.485754
-31.695515,19,59103.012367
-39.599673,20,60195.659311
-35.641371,20,60196.25576
-42.62738,19,60196.824754
-39.926206,18,60197.313421
-42.22347,20,60197.953549
-41.799117,19,60198.520413
-37.523938,19,60199.001157
-36.795627,18,60199.468575
-38.464392,19,60200.121727
-29.846765,19,60200.724773
-34.321879,19,60201.258456
-33.322449,19,60201.777647
-35.661072,19,60202.401183
-27.457759,19,60202.926353
-29.694477,20,60203.499076
-39.307198,20,60204.09359
-37.192813,19,60204.838588
-27.458949,20,60205.535428
-36.556791,20,60206.047408
-31.859694,19,60206.642984
-35.251902,20,60207.224617
-26.247897,19,60207.744641
-30.625086,21,60208.443096
-47.967012,19,60209.021593
-32.664853,20,60209.55836
-33.822685,19,60210.069309
-37.113811,20,60210.595589
-38.097306,19,61303.440915
-41.290768,19,61303.976808
-37.32499,19,61304.518708
-36.595356,19,61305.113805
-32.097484,19,61305.710045
-37.459388,19,61306.315824
-43.844129,23,61306.932756
-30.565846,19,61307.404901
-36.430304,19,61307.966288
-55.670787,19,61308.667125
-36.589412,19,61309.136724
-38.262136,19,61309.605781
-44.078999,21,61310.131271
-35.62541,19,61310.581202
-36.975876,20,61311.03761
-42.26233,19,61311.57495
-41.784728,19,61312.018206
-40.285942,19,61312.522644
-27.312854,19,61312.978074
-36.263614,19,61313.403591
-46.642237,20,61314.004321
-42.37965,22,61314.600539
-30.52547,19,61315.138207
-32.608175,19,61315.660433
-38.633003,20,61316.23461
-39.497522,22,61316.881952
-40.661284,20,62408.999873
-36.744854,20,62409.527765
-34.23854,20,62410.120457
-35.617959,20,62410.751016
-49.932477,19,62411.24223
-31.260239,20,62411.843422
-29.593472,20,62412.402043
-40.01321,27,62413.180814
-40.26336,20,62413.71122
-31.01987,20,62414.217878
-29.653785,19,62414.673687
-41.824839,19,62415.126047
-35.409049,20,62415.632358
-31.33636,20,62416.152608
-37.52661,21,62416.706612
-44.700218,21,62417.366714
-37.681468,20,62417.925922
-35.360357,20,62418.515106
-37.698108,19,62419.251831
-27.675617,19,62419.744778
-47.026229,20,62420.344733
-40.10521,20,62420.9467
-41.792994,20,62421.567769
-27.155124,20,62422.127844
-40.558514,18,62422.734828
-29.98939,19,63511.128033
-41.993994,19,63511.61949
-33.440983,19,63512.117613
-33.346525,20,63512.625276
-40.501936,20,63513.141093
-36.058996,20,63513.742297
-31.998289,20,63514.39499
-34.604097,20,63515.034153
-30.939689,20,63515.665627
-45.894225,23,63516.293796
-38.497808,26,63517.0283
-28.917694,19,63517.553412
-26.703491,21,63518.147012
-33.786306,19,63518.640832
-42.2315,21,63519.285724
-41.697115,19,63519.863874
-30.622479,20,63520.441708
-33.871915,20,63521.079696
-33.261279,22,63521.732016
-38.000144,20,63522.347741
-32.294112,20,63522.974236
-51.462496,17,63523.436343
-35.049299,20,63523.989751
-31.412548,19,63524.510122
-31.280513,21,63525.139722
-33.012879,21,63525.75421
-43.98405,19,64618.037353
-26.198077,19,64618.506087
-25.47648,20,64619.016324
-37.939798,20,64619.621247
-34.598921,21,64620.437626
-26.277757,21,64621.024562
-35.519034,19,64621.538022
-30.909857,19,64622.012664
-34.589105,21,64622.546834
-35.618546,19,64623.065443
-49.442844,19,64623.553953
-30.351676,19,64624.062507
-37.254017,20,64624.627575
-37.583985,20,64625.089873
-33.499372,17,64625.507516
-27.669406,20,64625.966531
-28.355162,19,64626.530778
-28.363342,20,64627.008274
-33.279701,20,64627.566253
-33.126733,22,64628.150706
-28.493228,19,64628.683714
-39.941152,21,64629.211745
-36.026297,21,64629.744899
-34.233639,19,64630.232893
-30.396209,20,64630.782054
-35.716523,20,64631.327126
-31.985267,20,65726.230691
-41.02031,21,65726.899275
-38.351708,21,65727.585265
-36.534984,20,65728.22718
-30.419075,20,65728.80496
-44.264173,20,65729.319671
-38.965629,19,65729.853523
-34.332712,19,65730.36507
-27.430841,19,65730.896168
-35.909012,19,65731.617692
-28.640085,20,65732.168093
-29.421885,18,65732.854843
-41.581642,20,65733.593101
-28.178999,19,65734.205478
-38.697144,20,65734.8949
-25.40575,21,65735.467294
-34.064154,20,65736.041909
-30.514489,21,65736.632454
-33.145928,19,65737.14861
-42.34834,19,65737.768345
-28.126665,18,65738.250799
-22.409041,19,65738.771621
-38.584717,22,65739.356672
-33.597829,19,65739.97946
-37.282924,19,65740.495165
-31.119616,19,65741.002155
-20.506945,20,66833.968635
-37.78788,21,66834.523218
-30.959601,19,66835.092401
-34.752717,20,66835.670561
-33.790332,19,66836.238293
-25.279694,21,66836.775906
-36.320227,20,66837.313943
-32.900759,20,66837.749088
-29.299581,20,66838.276411
-28.727653,19,66838.794536
-35.81781,20,66839.260807
-35.798916,19,66839.740211
-45.057078,19,66840.211622
-33.706038,21,66840.79805
-35.024523,19,66841.276478
-45.093907,20,66841.872681
-36.37477,20,66842.292326
-39.79229,19,66842.717941
-26.611783,20,66843.220937
-29.680776,20,66843.903146
-32.569925,19,66844.410849
-33.619629,19,66845.105927
-39.819679,20,66846.138298
-33.293026,20,66846.690926
-45.968933,22,66847.296352
-29.247986,20,67936.581746
-34.257631,19,67937.155114
-41.944856,20,67937.603651
-38.768898,19,67938.058386
-34.308888,20,67938.49435
-24.52,19,67939.024479
-34.300922,20,67939.55168
-23.320437,21,67940.072174
-47.74773,25,67940.782077
-30.268479,21,67941.257975
-24.558902,20,67941.734803
-33.645808,22,67942.212284
-40.6276,21,67942.733037
-41.311195,20,67943.209954
-36.762978,21,67943.739786
-40.359682,21,67944.491832
-48.821948,21,67945.088808
-38.273934,19,67945.577693
-31.256756,19,67946.112548
-31.576449,19,67946.602481
-30.901781,21,67947.268166
-37.083901,20,67947.834805
-26.230202,20,67948.367392
-37.83654,19,67948.884256
-28.460298,20,67949.387626
-36.860025,18,67949.876255
-29.648219,20,69042.422642
-36.405326,17,69042.91472
-27.43342,21,69043.656483
-29.032014,20,69044.267984
-24.936939,20,69044.899283
-30.882628,20,69045.538891
-33.911637,20,69046.118557
-39.497519,21,69046.801004
-22.485105,20,69047.390161
-31.992043,20,69048.019044
-43.191555,20,69048.545334
-47.251579,21,69049.199319
-27.716073,20,69049.896964
-38.643125,20,69050.43581
-38.079126,24,69051.071718
-37.319824,20,69051.682765
-26.301781,19,69052.291204
-29.994176,20,69052.912146
-23.881513,20,69053.625758
-33.88505,20,69054.182244
-29.667479,20,69054.743891
-34.2907,21,69055.327879
-35.215231,21,69055.941078
-33.482611,21,69056.496127
-40.913204,23,69057.290549
-32.520682,18,70147.034002
-27.8198,21,70147.600341
-41.184768,20,70148.157367
-28.617548,19,70148.710621
-41.509867,19,70149.336001
-30.735779,19,70149.831453
-32.791026,20,70150.354151
-41.362463,21,70151.135522
-34.39799,19,70151.68349
-29.909146,19,70152.232915
-37.538471,21,70152.906345
-36.053839,21,70153.603512
-34.724592,19,70154.133421
-37.044286,19,70154.641376
-26.628788,21,70155.20691
-22.726024,19,70155.730086
-33.620124,22,70156.337139
-33.194726,19,70156.855463
-25.158762,21,70157.43465
-34.240352,19,70157.928533
-39.641696,20,70158.477819
-36.543567,19,70158.96626
-34.601289,21,70159.542007
-33.407626,20,70160.203363
-31.639118,20,70160.765589
-28.068534,20,70161.305394
-30.873632,20,71254.604503
-39.154198,21,71255.253768
-31.145733,20,71255.889769
-20.822205,21,71256.535214
-22.22173,19,71257.071913
-26.587562,20,71257.643577
-29.507665,20,71258.258682
-24.447896,19,71258.828079
-36.302972,21,71259.555369
-47.665006,19,71260.127645
-41.657736,19,71260.716272
-29.429126,21,71261.348134
-27.508351,19,71261.890442
-36.488689,20,71262.52808
-27.428817,19,71263.006729
-27.811029,20,71263.523216
-27.461384,20,71264.08803
-28.74584,20,71264.630456
-36.574882,19,71265.140842
-34.856371,20,71265.6753
-27.289145,20,71266.223744
-30.855091,21,71266.739606
-36.668085,21,71267.253453
-28.896306,20,71267.779944
-20.170783,20,71268.221583
-30.296076,20,72361.775013
-30.029795,19,72362.305305
-32.462879,20,72363.135648
-28.330923,19,72363.835167
-23.786889,19,72364.566683
-22.715256,20,72365.141887
-31.504215,20,72365.67655
-29.529822,20,72366.397742
-21.756857,20,72367.036479
-29.599735,20,72367.698581
-30.226677,21,72368.296421
-24.76932,20,72369.176863
-37.944374,20,72369.716209
-21.099655,20,72370.34337
-27.939635,25,72371.093998
-27.976353,20,72371.56371
-29.383516,21,72372.088823
-31.395232,21,72372.657448
-34.902055,24,72373.367695
-25.916574,19,72373.886853
-30.505098,21,72374.460404
-34.307457,22,72375.072826
-34.628934,20,72375.598858
-27.397722,20,72376.231217
-31.518726,23,72376.908442
-26.305571,19,73462.645067
-28.727403,20,73463.2054
-35.712883,24,73464.062123
-25.35335,21,73464.636917
-41.069508,20,73465.210302
-32.914323,19,73465.803268
-22.794722,20,73466.361914
-24.940749,20,73466.973417
-24.298611,20,73467.666459
-36.034347,21,73468.21516
-24.48263,20,73468.84382
-30.997813,21,73469.415058
-29.954661,20,73469.979092
-36.94247,21,73470.540274
-25.073158,21,73471.162385
-26.59261,21,73471.735577
-26.97379,20,73472.282585
-33.874069,19,73472.804548
-32.392251,22,73473.382042
-27.195723,20,73473.905594
-28.363048,20,73474.455192
-30.126412,21,73474.907972
-44.044643,22,73475.465349
-25.492371,20,73475.930663
-35.79777,20,73476.429843
-23.159591,21,74561.015799
-30.295083,23,74561.649418
-32.547799,21,74562.225674
-24.211457,19,74562.757196
-27.417084,19,74563.391154
-21.247049,20,74563.92657
-32.191979,20,74564.468653
-24.709869,21,74565.047762
-29.865709,20,74565.591684
-24.974591,20,74566.113793
-25.600414,20,74566.687497
-26.762997,20,74567.20164
-38.549847,19,74567.660935
-32.721621,22,74568.255862
-18.120176,19,74568.757
-30.846267,20,74569.339128
-36.372129,19,74569.836979
-31.914258,20,74570.358572
-32.630435,19,74571.066521
-25.281758,20,74571.588078
-27.85399,19,74572.083218
-30.184025,19,74572.669
-30.45315,20,74573.230628
-34.338687,21,74573.783539
-31.307499,20,74574.309917
-28.945935,19,74575.098438
-28.118611,20,75548.097992
-28.744374,20,75548.598367
-28.024785,19,75549.148427
-24.304166,20,75549.708033
-32.597381,22,75550.236693
-30.35099,20,75550.804534
-31.43383,19,75551.305037
-34.185426,18,75551.818946
-25.572738,20,75552.430631
-29.065968,20,75552.950052
-36.973916,19,75553.455397
-25.899137,20,75553.952631
-29.731501,19,75554.436539
-23.821091,20,75554.951787
-30.137383,19,75555.528742
-40.244595,20,75556.03369
-23.613309,21,75556.563362
-30.915153,22,75557.212783
-29.275171,19,75557.758015
-26.356346,20,75558.286841
-24.806095,20,75558.808488
-28.060647,20,75559.420018
-39.930491,20,75559.945767
-34.949263,22,75560.774848
-35.707683,21,75561.401495
-25.690737,21,76540.393073
-28.997534,21,76540.931301
-41.506514,17,76541.444438
-26.42372,20,76542.110887
-30.548202,20,76542.694315
-29.500461,20,76543.356537
-30.075703,22,76544.053059
-47.217228,20,76544.599767
-41.612375,19,76545.121182
-36.102534,17,76545.560639
-26.459943,20,76546.105653
-28.166479,19,76546.614288
-32.614699,20,76547.178386
-38.606812,20,76547.763613
-25.736359,20,76548.348764
-30.097728,20,76548.839273
-22.964033,19,76549.386537
-23.566608,22,76550.075765
-22.573829,20,76550.62415
-30.699557,21,76551.180803
-35.877739,22,76551.768309
-24.392744,20,76552.309181
-29.090746,19,76552.811233
-33.392068,20,76553.370917
-26.502081,19,76553.903223
-30.466835,20,76554.477919
-29.693791,19,77536.399939
-29.508536,20,77537.248565
-18.295601,19,77537.842868
-20.626353,20,77538.505813
-29.061632,21,77539.025402
-26.558248,20,77539.495276
-29.050048,20,77539.980305
-30.896492,20,77540.540736
-30.940819,21,77541.048049
-42.059452,26,77541.809155
-29.167613,20,77542.327786
-28.691935,20,77542.873262
-25.811272,19,77543.311182
-36.606358,19,77543.82962
-22.147342,20,77544.349673
-28.59123,20,77544.845694
-35.872531,19,77545.445884
-37.60758,21,77545.987467
-36.927089,20,77546.511898
-27.315647,19,77547.058752
-29.868689,18,77547.624562
-23.449675,21,77548.205786
-27.410716,20,77548.746266
-24.139369,19,77549.270861
-32.561765,20,77549.82378
-19.225165,19,77550.342946
-26.026958,23,78535.733469
-28.610158,20,78536.297918
-31.055466,21,78536.864806
-25.738528,21,78537.490842
-27.347972,21,78538.040239
-24.272095,20,78538.64176
-40.737858,21,78539.248782
-26.161241,20,78539.772792
-36.59098,20,78540.272886
-30.307923,20,78540.851163
-26.914443,19,78541.409492
-36.048945,20,78541.94623
-23.850809,20,78542.547307
-35.626532,22,78543.15203
-29.732296,21,78543.702782
-25.930062,21,78544.232101
-33.480055,20,78544.762979
-19.211748,20,78545.32575
-16.155164,20,78545.921545
-28.235658,20,78546.46145
-25.115948,20,78547.003983
-21.27608,21,78547.524713
-35.815518,19,78548.039827
-22.856131,21,78548.51633
-25.620537,20,78549.108771
-32.276382,20,79527.248854
-21.280356,20,79527.761494
-28.048556,20,79528.304914
-29.399563,19,79528.764176
-57.151973,34,79529.742755
-29.866816,21,79530.328722
-27.971197,19,79530.847898
-21.851713,20,79531.40175
-26.912529,20,79531.991986
-23.493472,20,79532.521719
-25.036133,20,79533.073938
-24.37263,20,79533.598682
-28.709329,22,79534.343109
-37.254817,20,79534.913513
-31.398683,21,79535.457766
-22.929988,20,79536.00148
-24.042254,20,79536.55871
-36.471005,20,79537.238952
-22.005417,20,79537.787248
-26.964461,22,79538.35034
-24.842918,19,79538.845534
-14.811236,20,79539.403639
-25.594022,20,79539.978686
-23.500009,20,79540.473646
-30.791102,20,79541.028754
-29.56695,19,80524.226096
-20.697298,20,80524.738837
-29.432966,20,80525.329299
-26.083497,20,80525.883037
-43.015983,20,80526.461644
-14.511708,20,80527.002998
-27.857165,21,80527.586051
-23.774313,22,80528.195329
-29.902687,19,80528.698168
-21.40282,19,80529.350115
-32.007712,21,80530.058586
-33.499839,20,80530.586527
-32.577258,21,80531.206567
-24.339353,20,80531.729963
-26.330711,20,80532.229697
-23.650105,20,80532.769137
-28.742857,20,80533.420056
-33.993568,19,80533.904307
-25.030032,20,80534.41909
-26.13234,20,80534.920558
-26.674265,20,80535.583951
-26.007157,20,80536.13745
-31.35848,17,80536.607893
-22.828078,19,80537.224256
-30.606143,23,80537.918895
-31.741619,22,81519.644505
-29.470533,21,81520.11495
-22.503077,19,81520.685615
-23.912615,19,81521.257736
-28.45902,19,81521.854826
-18.798595,21,81522.373822
-34.845908,19,81522.7005
-19.836168,19,81523.099473
-25.913305,21,81523.548207
-26.175168,20,81524.0022
-30.275343,20,81524.477086
-36.081753,20,81524.870014
-27.945043,19,81525.210738
-22.865455,22,81525.684598
-19.63065,20,81526.117753
-25.746458,20,81526.528046
-25.419861,20,81526.936478
-30.105518,23,81527.387234
-30.615142,20,81528.037943
-24.62405,21,81528.572575
-25.828554,20,81529.173837
-29.740246,23,81529.738369
-22.259825,20,81530.266665
-29.554579,20,81530.741615
-18.797444,20,81531.308447
-23.187451,20,82430.076754
-22.012405,20,82430.500886
-20.990551,20,82430.948562
-22.092715,22,82431.437857
-25.269078,20,82431.897706
-34.977612,19,82432.343838
-29.078708,20,82432.756623
-18.448288,20,82433.251773
-29.084281,19,82433.660287
-34.433392,20,82434.113831
-17.363686,20,82434.6248
-17.958971,20,82435.073788
-19.591234,21,82435.580028
-28.235782,20,82435.995532
-25.316033,20,82436.431981
-24.347953,20,82436.860708
-27.663754,20,82437.280912
-33.352128,20,82437.720022
-21.90939,20,82438.19151
-19.218545,20,82438.616258
-29.765264,20,82438.955518
-28.925036,21,82439.327608
-27.618858,20,82439.68536
-20.148158,20,82440.045637
-19.091852,20,82440.400297
-16.44978,21,82440.775509
-25.660912,21,83301.372169
-35.475749,19,83301.685728
-32.862251,20,83301.98909
-21.388393,20,83302.31749
-25.935123,22,83302.677843
-25.862466,19,83302.987571
-29.924128,20,83303.297886
-25.347843,19,83303.62821
-33.460346,20,83303.990554
-38.74281,21,83304.343089
-26.557049,20,83304.663588
-24.976262,20,83304.947979
-19.27842,21,83305.274248
-20.979257,20,83305.554962
-29.360683,20,83305.895623
-24.659939,20,83306.232775
-31.388169,21,83306.587836
-27.114693,21,83306.863842
-31.703271,20,83307.182248
-32.139497,20,83307.495419
-22.978007,21,83307.779034
-23.361243,20,83308.084862
-19.464573,20,83308.385702
-25.407964,21,83308.759691
-28.465932,20,83309.09734
-24.261063,20,84122.397667
-21.149357,20,84122.616181
-26.165805,21,84122.835552
-26.595798,19,84123.030828
-22.900391,19,84123.230309
-19.87604,20,84123.442859
-27.118134,20,84123.685893
-27.341609,19,84123.899925
-24.147949,20,84124.110613
-27.566915,20,84124.305368
-21.385915,20,84124.523596
-24.772369,21,84124.785259
-31.575272,20,84125.009089
-30.198571,21,84125.263699
-23.361106,21,84125.485266
-29.43468,19,84125.687974
-21.765944,20,84125.930666
-32.715932,24,84126.214297
-23.050817,20,84126.438135
-27.810328,21,84126.650412
-28.408629,19,84126.853508
-33.634414,20,84127.084833
-25.933009,21,84127.295205
-36.498752,20,84127.494396
-22.167473,20,84127.695449
-28.957293,20,84920.454677
-32.479207,20,84920.661956
-30.503642,20,84920.877697
-26.534317,20,84921.081892
-23.556615,20,84921.282619
-28.047689,22,84921.514165
-24.214504,20,84921.725937
-28.581159,20,84921.955943
-25.249815,20,84922.161758
-33.438564,21,84922.385803
-20.860506,21,84922.586119
-35.28657,20,84922.834625
-22.346458,20,84923.053659
-19.810804,20,84923.258876
-27.079618,21,84923.465623
-16.66271,20,84923.674995
-33.142578,20,84923.897616
-28.265314,20,84924.128167
-36.215043,20,84924.373339
-27.120294,20,84924.575446
-21.825813,20,84924.784425
-23.923219,21,84925.026387
-23.469677,20,84925.252696
-15.403742,20,84925.501937
-31.030074,19,84925.693799
-23.37617,20,84925.907968
-32.058373,20,85731.362904
-29.758686,20,85731.555531
-16.362774,20,85731.768716
-28.279766,21,85731.974964
-25.799018,19,85732.176354
-34.905438,22,85732.437113
-29.622497,20,85732.64881
-27.891554,21,85732.869164
-28.093116,20,85733.074926
-22.755545,21,85733.300129
-26.897327,20,85733.541635
-28.001285,19,85733.739224
-26.622104,20,85733.940913
-23.325895,21,85734.165759
-19.237957,20,85734.365692
-21.862387,20,85734.595391
-25.896361,20,85734.816665
-24.417032,21,85735.024736
-26.745099,22,85735.240219
-25.300738,20,85735.431646
-31.226873,20,85735.651034
-23.757823,20,85735.894523
-31.527296,20,85736.106489
-26.564692,23,85736.357462
-21.591014,20,85736.575629
-20.803753,21,86530.017964
-28.687912,21,86530.226018
-17.836258,20,86530.437384
-23.355586,24,86530.682623
-21.855862,20,86530.940364
-26.144954,19,86531.142644
-25.890671,19,86531.356193
-21.00106,20,86531.562937
-20.565146,20,86531.784283
-29.972409,22,86532.04017
-30.652536,18,86532.278327
-34.7346,20,86532.494191
-25.688997,20,86532.718077
-27.893743,20,86532.930933
-26.68561,22,86533.189502
-23.891165,22,86533.461588
-29.250668,21,86533.705087
-23.710088,23,86533.946401
-30.096694,20,86534.149213
-22.771427,21,86534.378657
-30.681799,20,86534.618673
-26.627977,21,86534.848305
-22.691875,20,86535.048058
-22.587034,20,86535.26317
-26.968273,21,86535.508902
-25.858507,21,87328.547765
-22.880947,21,87328.769817
-21.766909,21,87329.000406
-25.693918,21,87329.230833
-19.424492,21,87329.49167
-31.155894,22,87329.738528
-31.963052,20,87329.95178
-28.273934,21,87330.178082
-25.361702,21,87330.406316
-23.111885,19,87330.630611
-29.782671,20,87330.84039
-21.222587,23,87331.082341
-23.713015,21,87331.290589
-25.439332,20,87331.510386
-26.361724,20,87331.735493
-28.297437,20,87331.947446
-16.028707,20,87332.153736
-29.727477,20,87332.359652
-25.305741,22,87332.615856
-23.495539,20,87332.828303
-24.479111,20,87333.059641
-27.511983,21,87333.275779
-25.855306,21,87333.49302
-25.901535,22,87333.718265
-32.232015,20,88120.65697
-26.156129,20,88120.790462
-20.23984,21,88120.934345
-26.445045,20,88121.069567
-27.513916,23,88121.222999
-20.28976,21,88121.362829
-32.400166,22,88121.503107
-22.672169,21,88121.639914
-26.627192,22,88121.790454
-27.179084,20,88121.925473
-18.749523,20,88122.060918
-30.049789,18,88122.182215
-23.683537,20,88122.314936
-25.430131,21,88122.450972
-27.762866,19,88122.578364
-20.789546,20,88122.710078
-28.796046,20,88122.841013
-19.41695,21,88122.980363
-16.198322,20,88123.119367
-18.954792,20,88123.25937
-31.414551,20,88123.396435
-41.877585,17,88123.517288
-25.196242,21,88123.660465
-24.417127,20,88123.789594
-18.616542,20,88123.929304
-39.523617,18,88124.045321
-28.835701,20,88874.003891
-38.125672,19,88874.136361
-23.681624,19,88874.263333
-21.032013,20,88874.395734
-25.83441,20,88874.532938
-26.85403,19,88874.662492
-25.493196,20,88874.793564
-20.260421,20,88874.926673
-29.263652,20,88875.060442
-30.831492,20,88875.194323
-17.167727,21,88875.335625
-26.332202,19,88875.469975
-22.888558,20,88875.602186
-18.576426,20,88875.735467
-27.532407,19,88875.863722
-21.485583,20,88876.007536
-21.054814,20,88876.145596
-33.042046,20,88876.286889
-23.205656,19,88876.417619
-22.810559,20,88876.553545
-24.27294,20,88876.682237
-23.40226,20,88876.814999
-18.11621,19,88876.941234
-22.511522,20,88877.074013
-31.360907,21,88877.21877
-32.728611,20,88877.350492
-22.245015,21,89628.240801
-23.239114,22,89628.393953
-25.973062,21,89628.537093
-25.129458,21,89628.681251
-19.05605,21,89628.830782
-24.143839,20,89628.97288
-33.419897,22,89629.117683
-26.371415,21,89629.260993
-17.956734,20,89629.392323
-26.681993,24,89629.551925
-25.800725,21,89629.697079
-24.547115,19,89629.828634
-23.449355,21,89629.975831
-21.392929,20,89630.117857
-18.8398,20,89630.252025
-19.836224,21,89630.390085
-28.568113,20,89630.52202
-20.955677,20,89630.655534
-28.281837,20,89630.800006
-20.463587,19,89630.924198
-29.822426,19,89631.057401
-19.943114,20,89631.192552
-23.595844,20,89631.334139
-19.063963,19,89631.456209
-16.715951,20,89631.595036
-25.112561,20,90400.220074
-20.742884,22,90400.386977
-15.57443,20,90400.549384
-24.829184,20,90400.709149
-27.691278,20,90400.860622
-28.831249,21,90401.048855
-16.868965,21,90401.222218
-43.948927,20,90401.389456
-20.694717,20,90401.54764
-23.812968,19,90401.711075
-22.616207,20,90401.874334
-21.824211,20,90402.025648
-24.719329,21,90402.185675
-19.158173,21,90402.346627
-32.310285,17,90402.486296
-26.809664,20,90402.6439
-15.955843,20,90402.798092
-22.830905,21,90402.991272
-24.835986,20,90403.13648
-19.550783,20,90403.290009
-35.346791,19,90403.428551
-38.142488,19,90403.572601
-28.870331,20,90403.734292
-22.588063,21,90403.907977
-29.873559,24,90404.122468
-33.95714,20,91152.754621
-25.065908,20,91152.889442
-24.813321,21,91153.039811
-20.260505,19,91153.168783
-20.425276,20,91153.303433
-28.479563,20,91153.441196
-15.273154,20,91153.583722
-23.43659,19,91153.715742
-23.952411,21,91153.859464
-16.237892,20,91153.996265
-23.786311,21,91154.147498
-31.876552,21,91154.299125
-25.012466,21,91154.440565
-20.553668,20,91154.592882
-22.489862,20,91154.728382
-18.854193,22,91154.880865
-18.887309,19,91155.013098
-25.01155,21,91155.167085
-23.022689,19,91155.300761
-17.395511,21,91155.446922
-18.806914,20,91155.588206
-18.249548,20,91155.720854
-23.64282,20,91155.866303
-26.887221,24,91156.03923
-21.346712,19,91156.169825
-29.413156,20,91929.594815
-24.279076,20,91929.735559
-28.442318,20,91929.866295
-23.439153,19,91929.990744
-21.256381,20,91930.126281
-26.246573,21,91930.266649
-14.134913,20,91930.401877
-32.67648,22,91930.550234
-21.857006,21,91930.690798
-29.362663,20,91930.824331
-21.650312,21,91930.967331
-19.764408,19,91931.08396
-22.796219,19,91931.211907
-25.211735,20,91931.344986
-23.722599,20,91931.475667
-20.864785,21,91931.621289
-21.469381,22,91931.77542
-22.685002,22,91931.935565
-24.333837,20,91932.072339
-14.056333,19,91932.209062
-23.698633,23,91932.367118
-20.066695,20,91932.500261
-18.428798,20,91932.626365
-17.56758,21,91932.769472
-17.676233,20,91932.91187
-21.841729,20,92682.348337
-19.495576,20,92682.482975
-22.844067,23,92682.648052
-20.977208,20,92682.787817
-25.0628,22,92682.940387
-33.643318,20,92683.082493
-14.078179,20,92683.216676
-16.576205,20,92683.349958
-20.097551,20,92683.493536
-17.404417,20,92683.637191
-23.157927,22,92683.787381
-35.72361,21,92683.930035
-27.759494,20,92684.067165
-33.902724,22,92684.229856
-26.095551,20,92684.362497
-16.014274,20,92684.495799
-25.745492,21,92684.640579
-17.810651,21,92684.778691
-24.153293,20,92684.911558
-19.69776,20,92685.043904
-21.624756,20,92685.180368
-22.186735,19,92685.320069
-28.332546,20,92685.455372
-24.772994,20,92685.593972
-20.830948,21,92685.738222
-37.452044,17,93465.675926
-25.734635,21,93465.82323
-23.197917,20,93465.963387
-25.505106,20,93466.098418
-21.028594,23,93466.252851
-18.862331,20,93466.383138
-26.145801,22,93466.525281
-28.785747,21,93466.666257
-20.163828,20,93466.800472
-12.261905,20,93466.942039
-27.920134,20,93467.080219
-22.412138,20,93467.210242
-18.220886,22,93467.360849
-29.729845,19,93467.494147
-21.990191,21,93467.642752
-33.857401,19,93467.772197
-19.118383,20,93467.904289
-23.462334,19,93468.044239
-21.287276,20,93468.175664
-23.844673,20,93468.314425
-15.784391,20,93468.45067
-24.282199,19,93468.585183
-21.334526,21,93468.730958
-18.701407,19,93468.866236
-20.606586,20,93469.000515
-26.647379,20,93469.135114
