# {"t_start": 1547997810.1848128, "env_id": "RoboschoolHumanoid-v1"} 
r,l,t
-63.124162,19,4.34362
-78.811337,18,5.359901
-110.960758,20,6.360333
-106.686576,20,7.147995
-77.033206,19,8.110091
-108.685756,19,8.99853
-82.244275,18,10.118009
-90.645235,21,11.277374
-103.214633,20,12.341129
-114.349085,20,13.604677
-107.146467,20,14.577464
-107.430999,19,15.505684
-96.27094,24,16.602031
-92.047322,18,17.652519
-92.174647,19,18.609546
-86.362201,19,19.189549
-67.943423,19,20.179662
-99.549683,20,21.026628
-86.727217,18,21.72044
-95.088469,20,22.356109
-92.446137,19,23.011419
-94.996594,22,24.028152
-103.323644,22,25.100035
-109.100735,19,26.421299
-85.336194,19,27.789712
-93.599628,19,28.970846
-85.065601,21,2731.452614
-92.501244,19,2732.469109
-122.477509,22,2733.76339
-75.807931,18,2735.026439
-84.354795,18,2736.16792
-106.003333,20,2737.245608
-80.466323,20,2738.365473
-105.475663,21,2739.369792
-83.343519,19,2740.721376
-75.286303,20,2742.115798
-117.287044,19,2743.358966
-79.677311,19,2744.613593
-77.19689,17,2745.751236
-87.632533,20,2747.149488
-82.862633,20,2748.27629
-65.790949,18,2749.009063
-140.793545,28,2750.325672
-124.759008,19,2751.481248
-108.831923,20,2752.685646
-89.234257,19,2753.753482
-83.674661,17,2754.741522
-94.281078,20,2755.83248
-127.669121,25,2757.550669
-128.204369,21,2759.026875
-62.166842,17,2760.025377
-84.246173,19,5479.844285
-79.057148,18,5480.869314
-78.490209,17,5481.915425
-89.531025,17,5483.055651
-97.394873,20,5484.318944
-77.713239,20,5485.543231
-91.403597,22,5486.929948
-85.798192,21,5488.307199
-104.627409,18,5489.351857
-73.418615,18,5490.579155
-133.297258,26,5492.10812
-94.737019,19,5493.171328
-95.748367,20,5494.649004
-93.224437,20,5495.603602
-85.037451,18,5496.438654
-79.866068,18,5497.428951
-114.060694,23,5498.695584
-79.985463,20,5500.013153
-75.946303,17,5500.766139
-65.873474,19,5501.938484
-87.233217,19,5502.812586
-105.163674,21,5504.184308
-93.312112,18,5505.400007
-113.996826,20,5506.629626
-79.969496,18,5507.799903
-92.359716,19,5508.903042
-80.686463,18,5510.296266
-76.66047,20,8227.843121
-114.37389,22,8229.342975
-82.8553,18,8230.41421
-96.579934,19,8231.43172
-89.257966,19,8232.649144
-108.629571,27,8233.808954
-93.134072,19,8234.978536
-81.953046,19,8236.003712
-79.047896,15,8236.739424
-97.551159,17,8237.770258
-107.909926,21,8238.971711
-76.929617,18,8240.015697
-73.242433,20,8241.162489
-110.24273,26,8242.795828
-70.107357,18,8243.822939
-108.523083,20,8245.098706
-136.852582,30,8246.952864
-99.330987,28,8248.600029
-101.117611,20,8249.879386
-95.988392,18,8250.931795
-61.314325,18,8251.988783
-75.825799,20,8253.085613
-94.732833,23,8254.225509
-89.84753,19,8255.243467
-85.892632,18,8256.276365
-82.254478,19,10983.213364
-88.652547,19,10984.305941
-76.425647,20,10985.280127
-66.343512,19,10986.501663
-77.917168,22,10988.067028
-63.757774,19,10989.054791
-84.539825,21,10990.121215
-109.348389,19,10991.230289
-101.98634,19,10992.319135
-72.977661,19,10993.471941
-92.855093,23,10995.006399
-93.468015,18,10996.102415
-91.96467,20,10997.254882
-65.656743,19,10998.382786
-81.306046,20,10999.746192
-90.918011,20,11000.903692
-104.807901,24,11002.041795
-63.49751,20,11003.035983
-100.381482,20,11004.191347
-103.669741,19,11005.356839
-121.287068,21,11006.500188
-77.297221,19,11007.752705
-69.264915,18,11008.53386
-111.139594,29,11009.959981
-95.138117,21,11010.726258
-87.139118,27,13811.578614
-91.688261,19,13812.792267
-69.715103,20,13813.955753
-82.656033,19,13815.019422
-82.71734,19,13815.745752
-68.292226,20,13816.775273
-74.241127,20,13818.082054
-72.646426,18,13818.94713
-87.101188,20,13819.666548
-105.286906,22,13821.132954
-76.767103,19,13822.179976
-62.260174,19,13823.004173
-99.322066,20,13823.763441
-97.884432,18,13824.954682
-68.920403,19,13825.715126
-129.087326,20,13826.770916
-96.040894,18,13827.287417
-76.875129,18,13827.939363
-93.876035,19,13829.048924
-87.133695,19,13830.381763
-74.32299,18,13831.324758
-76.8262,20,13832.379658
-93.102547,19,13833.503411
-61.809778,19,13834.60045
-125.458228,26,13836.033767
-85.452899,19,13837.300806
-82.998663,21,16608.569591
-74.959979,29,16609.71436
-90.883392,19,16610.479065
-89.200441,19,16611.227293
-94.989987,21,16612.064997
-79.052344,19,16612.801367
-79.934671,16,16613.747034
-73.098387,20,16615.04576
-86.409139,18,16615.958561
-89.666297,17,16617.00933
-83.559783,18,16618.074698
-84.098416,21,16619.086557
-93.961215,23,16620.017018
-68.93637,17,16620.649925
-96.958898,19,16621.786389
-117.281035,27,16623.188595
-98.788257,20,16623.911011
-91.379196,19,16624.855871
-74.958466,19,16626.005696
-79.317346,23,16627.393665
-77.454417,19,16628.100839
-73.920989,19,16628.655508
-109.072633,20,16629.338315
-73.4237,19,16630.206779
-107.177785,15,16631.059767
-96.406805,24,16632.479051
-92.3997,19,19234.894668
-118.52424,28,19236.203752
-91.536356,18,19237.352385
-91.742262,23,19238.566782
-79.110767,21,19239.764299
-77.181707,21,19240.826895
-71.105003,12,19241.463986
-87.306564,20,19242.57201
-89.103663,18,19243.794636
-74.541371,18,19244.421883
-107.068713,19,19245.332125
-95.488953,24,19246.706682
-89.632691,19,19247.98418
-121.28483,26,19249.253536
-88.170098,20,19250.371242
-54.736171,19,19251.394782
-69.493355,20,19252.000785
-84.182695,20,19252.966633
-86.163411,19,19253.71202
-94.838259,25,19254.696344
-76.770952,19,19255.222242
-118.699768,21,19256.152788
-94.580499,21,19257.421142
-91.580716,18,19258.285609
-73.993217,19,19259.369611
-92.223486,23,21870.800337
-75.752096,18,21871.709052
-104.210367,21,21873.114447
-68.130566,18,21873.974802
-70.542692,20,21875.084522
-319.768937,62,21877.680243
-112.002948,23,21878.756779
-71.578844,18,21879.632917
-59.178455,18,21880.695554
-91.426047,20,21882.100097
-80.832353,21,21883.195076
-92.241083,22,21883.993201
-75.994929,18,21884.755415
-91.855067,19,21886.047395
-63.692935,19,21887.107779
-98.033972,20,21888.145218
-55.572445,19,21888.981229
-63.038264,18,21889.801556
-65.180152,19,21890.830178
-90.427542,18,21891.669589
-73.033578,21,21892.692054
-95.761257,19,21893.681381
-60.210844,19,21894.635254
-87.884985,20,21895.778801
-75.616585,20,24712.902894
-71.341049,19,24713.871522
-71.286197,20,24715.052141
-71.40404,17,24716.030939
-67.26456,19,24717.100721
-65.382177,20,24718.075701
-62.277923,20,24719.324221
-69.990538,19,24720.161898
-90.061098,23,24721.398971
-61.907789,20,24722.372522
-71.222037,19,24723.196962
-74.961925,18,24723.98658
-73.152252,18,24724.833806
-60.645639,19,24725.863937
-79.340002,20,24726.820805
-94.169414,19,24727.924206
-55.357455,20,24728.833987
-63.830021,19,24729.968433
-93.205411,20,24731.044334
-80.141912,20,24731.926706
-96.900679,18,24732.918335
-78.823913,21,24733.911292
-69.032032,19,24734.864468
-93.29952,25,24735.950092
-75.523482,17,24736.803676
-67.685601,20,24737.937851
-54.467338,19,27821.243375
-86.43264,19,27822.719252
-61.640507,19,27823.402882
-46.322153,18,27823.969249
-56.506885,19,27824.536702
-71.891981,19,27825.664871
-70.972921,19,27826.61335
-96.70817,23,27827.431479
-82.693072,18,27828.206347
-82.704324,19,27828.802856
-69.667107,19,27829.378609
-85.437234,22,27830.114123
-72.527446,18,27831.067724
-93.16074,20,27832.169185
-74.418991,18,27833.171312
-69.786914,19,27834.581607
-94.53018,20,27835.800372
-62.696502,19,27836.395461
-58.515602,22,27837.215522
-76.979273,19,27838.011909
-69.80492,19,27838.969857
-75.659375,19,27840.096634
-83.604727,19,27840.741013
-73.905811,21,27841.460756
-68.130059,18,27842.074517
-104.1821,25,27843.028707
-105.632955,26,30307.703811
-77.504986,19,30308.299342
-70.723783,19,30309.102628
-85.657995,19,30309.767615
-90.88634,24,30310.469549
-69.728295,19,30311.034422
-71.483593,17,30311.972121
-87.579783,20,30312.962471
-62.54869,21,30313.634778
-87.028872,18,30314.278825
-68.483001,21,30315.054406
-87.325138,26,30315.942215
-83.03711,19,30316.573134
-86.894543,19,30317.227661
-63.829101,19,30317.964673
-64.876815,19,30318.662253
-84.883035,19,30319.285326
-58.566671,20,30320.000206
-63.407311,19,30320.90076
-90.789379,22,30321.708399
-69.343745,22,30322.579769
-61.110856,21,30323.267133
-62.299083,19,30323.886809
-66.512563,20,30324.63303
-59.054202,19,30325.201518
-144.487894,31,32518.044691
-63.022128,19,32518.588145
-58.645108,19,32519.193685
-51.057737,20,32519.796581
-69.746758,19,32520.389421
-68.437683,18,32520.878272
-62.393353,20,32521.421172
-79.508436,19,32521.960766
-45.55286,19,32522.547992
-73.577405,19,32523.170918
-56.73976,22,32523.918368
-53.890309,19,32524.546175
-58.595516,23,32525.451979
-58.822484,20,32526.013219
-60.515137,21,32526.8453
-53.73409,21,32527.447114
-64.232675,19,32528.057139
-57.336169,19,32528.74886
-61.096132,19,32529.342919
-75.737833,17,32529.916958
-64.352478,20,32530.595886
-77.465414,19,32531.283485
-78.798151,19,32531.879663
-72.386442,20,32532.480131
-82.506084,20,32533.098279
-70.426802,19,32533.718227
-61.928078,20,34255.527057
-53.77747,19,34256.012354
-57.846114,20,34256.425405
-52.232177,19,34256.919808
-54.104333,19,34257.310053
-68.672642,19,34257.77101
-63.08323,20,34258.29089
-57.249368,19,34258.770792
-61.683043,18,34259.13556
-59.808629,18,34259.550322
-67.849701,18,34260.021079
-72.153186,19,34260.440746
-73.81804,19,34261.000667
-79.641738,19,34261.610775
-57.024675,17,34262.308023
-70.077063,22,34262.926418
-61.411957,19,34263.514974
-49.94375,19,34264.000166
-77.124506,19,34264.677062
-68.851382,17,34265.225957
-88.442472,20,34265.81733
-66.027058,19,34266.312694
-57.819,18,34266.823521
-69.027957,17,34267.253236
-64.592622,19,34267.778433
-63.698077,20,34268.462696
-67.345572,18,34268.96186
-84.936463,19,35744.144761
-68.459641,19,35744.667995
-56.792444,19,35745.225049
-65.560049,23,35745.931319
-64.156997,21,35746.654781
-90.897289,18,35747.107357
-52.854852,19,35747.696394
-53.224643,19,35748.236594
-55.574763,20,35748.770384
-77.977267,23,35749.370718
-68.827259,20,35749.996066
-66.479488,20,35750.538293
-69.204197,19,35751.096918
-77.971935,19,35751.772433
-69.387536,23,35752.474317
-54.158357,19,35753.190288
-57.544075,20,35753.796105
-54.94046,20,35754.365961
-70.948968,18,35754.872838
-57.84013,18,35755.36301
-73.036013,26,35756.10988
-104.06538,30,35756.722775
-52.481098,19,35757.134459
-56.064908,20,35757.634666
-72.25828,19,35758.08216
-64.007086,20,37230.111271
-48.587792,19,37230.628824
-56.822417,20,37231.166028
-80.040361,18,37231.77307
-70.393633,27,37232.578423
-60.544477,19,37233.110465
-53.272203,19,37233.537641
-51.596252,18,37233.957159
-57.983711,19,37234.531628
-63.321342,19,37235.347233
-61.396331,18,37235.856859
-56.79052,18,37236.381574
-48.989123,19,37236.896238
-65.52789,20,37237.501185
-72.434122,24,37238.155746
-97.115692,19,37238.684026
-56.215735,18,37239.267829
-65.600181,19,37239.759929
-65.015471,19,37240.276777
-52.999416,19,37240.788447
-64.656494,19,37241.427598
-44.140971,18,37241.860888
-63.500806,19,37242.29245
-50.07845,18,37242.748687
-47.297509,19,37243.167333
-65.767117,19,37243.61463
-62.715932,19,37244.077523
-59.320824,20,38582.287632
-58.683432,20,38582.991992
-59.593589,19,38583.494532
-52.819063,20,38583.985823
-53.803964,20,38584.433294
-43.451516,20,38584.952536
-59.650097,20,38585.391112
-80.597929,19,38585.846521
-51.22608,19,38586.33975
-81.022561,28,38586.890021
-50.642505,19,38587.270692
-72.958343,18,38587.643261
-54.243871,20,38588.114078
-59.45644,19,38588.602008
-62.675464,20,38589.169904
-75.076032,18,38589.74437
-46.731611,19,38590.343188
-61.277781,26,38590.972799
-45.812226,20,38591.570836
-64.093145,19,38592.041631
-61.143024,18,38592.484104
-65.224508,19,38593.019733
-72.645376,23,38593.809205
-67.146224,20,38594.311724
-59.950579,19,38594.83482
-64.256805,18,39736.833232
-63.056956,18,39737.183849
-61.076736,20,39737.550714
-71.246286,20,39737.90342
-56.124961,19,39738.254995
-60.190784,19,39738.587873
-57.796148,22,39739.048544
-55.61891,19,39739.534529
-65.205942,18,39739.927963
-73.93244,18,39740.368132
-97.470827,26,39741.06174
-46.558985,19,39741.509944
-49.773873,19,39741.964032
-60.266304,21,39742.413859
-41.49867,20,39742.92749
-55.32673,19,39743.423217
-63.704038,20,39743.927006
-47.848713,19,39744.424702
-59.157814,20,39744.89184
-56.864266,19,39745.329617
-60.920697,24,39745.872106
-61.163573,21,39746.34474
-53.351713,17,39746.693869
-63.252252,21,39747.164068
-57.883052,18,39747.441359
-58.443133,19,39747.81705
-51.361564,19,40830.145627
-58.680683,18,40830.463902
-49.497447,19,40830.782976
-45.576739,18,40831.088907
-64.947446,21,40831.481778
-42.475793,20,40831.860299
-52.362167,19,40832.205945
-59.088652,19,40832.633579
-51.005692,19,40832.964082
-47.224713,19,40833.298587
-57.235783,22,40833.746172
-59.670096,19,40834.081712
-53.801998,19,40834.512882
-52.814982,19,40834.992512
-43.302789,19,40835.478824
-57.92184,24,40836.114475
-55.735189,19,40836.575327
-59.024293,20,40837.086932
-72.447006,18,40837.529756
-60.048207,22,40838.016224
-57.690284,18,40838.485691
-57.427299,19,40838.922644
-66.35809,19,40839.410251
-66.208708,19,40839.865332
-59.720278,19,40840.438601
-58.277087,18,40840.838218
-53.599837,20,41922.09723
-47.745074,19,41922.453201
-63.456936,19,41922.84671
-61.241679,18,41923.285911
-56.011664,18,41923.61263
-53.030489,19,41923.94675
-54.549885,20,41924.346774
-52.712501,18,41924.698545
-67.079107,22,41925.147855
-48.17893,19,41925.663389
-61.123239,18,41926.127671
-76.942713,23,41926.842443
-64.19386,19,41927.331069
-66.816619,21,41927.862798
-62.673241,20,41928.392868
-53.081056,19,41928.795008
-38.505802,19,41929.342319
-41.957709,19,41929.771332
-47.591975,18,41930.19068
-51.842881,18,41930.715929
-56.517296,19,41931.218819
-46.530719,20,41931.724861
-80.301272,27,41932.361172
-53.255116,20,41932.885139
-48.677648,19,41933.302675
-55.294894,20,41933.74545
-54.020736,21,43013.833775
-50.878232,19,43014.177076
-55.37053,19,43014.527215
-46.678426,19,43014.954109
-49.309497,19,43015.27823
-51.873227,18,43015.638585
-39.992773,19,43016.040586
-58.523484,18,43016.397951
-60.105246,19,43016.765001
-51.489927,19,43017.118145
-52.298568,19,43017.447948
-45.906496,19,43017.80524
-60.660026,20,43018.322126
-48.482295,19,43018.755171
-68.655823,19,43019.188673
-47.595192,21,43019.715673
-58.609935,19,43020.215399
-55.279275,18,43020.708803
-48.402095,20,43021.174366
-40.068618,19,43021.718434
-59.867831,19,43022.14799
-53.304306,20,43022.660852
-64.617798,20,43023.105475
-39.345772,19,43023.564846
-55.660957,20,43024.025673
-40.231218,19,43024.465389
-62.482245,18,43024.876715
-49.573236,19,44105.424718
-53.171187,18,44105.878398
-46.757215,18,44106.339738
-57.391155,19,44106.75087
-46.723358,19,44107.183816
-43.374885,19,44107.59172
-50.077835,20,44108.052547
-50.722032,21,44108.58477
-69.30712,22,44109.003857
-54.339603,20,44109.361093
-55.466402,20,44109.75131
-43.755416,17,44110.057147
-47.276037,19,44110.356696
-46.51431,19,44110.783482
-46.321392,19,44111.156324
-40.96219,21,44111.506055
-67.921317,18,44111.853882
-51.762586,20,44112.221343
-43.256483,19,44112.565309
-38.036668,19,44112.965303
-58.827146,19,44113.295769
-61.969642,17,44113.648785
-55.691153,20,44114.131382
-56.645201,18,44114.505329
-46.210579,18,44114.931368
-46.143274,18,44115.40254
-51.151074,20,44115.941883
-52.503429,18,45194.555094
-47.061911,18,45194.888327
-47.132,20,45195.207436
-47.474377,20,45195.574268
-43.303093,19,45195.906375
-37.567605,19,45196.222891
-36.609921,18,45196.60702
-62.175324,20,45197.141165
-45.634792,19,45197.582305
-47.906937,19,45197.977128
-39.146557,18,45198.398624
-69.973474,19,45198.867147
-46.340736,18,45199.260578
-48.524622,19,45199.704997
-56.156454,19,45200.159879
-53.940006,19,45200.64154
-43.481256,19,45201.103528
-50.661307,19,45201.525828
-52.778494,19,45201.999236
-62.036382,19,45202.394294
-43.120168,19,45202.902879
-51.594996,18,45203.369328
-47.456438,19,45203.860905
-63.17665,18,45204.239473
-42.535348,19,45204.698217
-45.991179,20,45205.052885
-33.768095,18,45205.443142
-41.608784,19,46285.768464
-42.856344,19,46286.257532
-52.182585,18,46286.684794
-48.693755,18,46287.068083
-50.420632,19,46287.390706
-44.202787,19,46287.763919
-44.959618,19,46288.137281
-41.303505,19,46288.458096
-47.132374,18,46288.776474
-45.130067,20,46289.155859
-44.256905,19,46289.48541
-43.170081,19,46289.854655
-46.345162,18,46290.122073
-46.829534,18,46290.49435
-58.558371,19,46290.840647
-37.939211,20,46291.217965
-38.808704,18,46291.529361
-60.2471,18,46291.966341
-63.656633,19,46292.419058
-53.747144,19,46292.865859
-49.359849,18,46293.287189
-46.957023,19,46293.68259
-42.94673,18,46294.136852
-34.627401,19,46294.608506
-50.135901,20,46295.115039
-55.594989,19,46295.592257
-50.465058,19,46296.04374
-39.156403,19,47376.661288
-30.770703,20,47377.08924
-42.707526,19,47377.517675
-63.483041,20,47377.972548
-47.064587,21,47378.540803
-46.598929,19,47378.967743
-40.134401,18,47379.476167
-43.563976,19,47379.938415
-41.350326,20,47380.417094
-49.350426,19,47380.889119
-58.895344,21,47381.381969
-38.084204,20,47381.874905
-40.192489,20,47382.386652
-42.354521,19,47382.824326
-52.220269,18,47383.306354
-48.610243,19,47383.833085
-44.378703,19,47384.190082
-38.391702,19,47384.532194
-39.542197,19,47384.884327
-36.950368,19,47385.200597
-58.345511,19,47385.595379
-60.326801,21,47385.991627
-57.716787,21,47386.396457
-65.408635,19,47386.788432
-44.430279,19,47387.16783
-46.794692,20,47387.548691
-47.997165,19,47387.940876
-45.795084,19,48468.316442
-41.210507,18,48468.709007
-48.797769,19,48469.229465
-54.276765,18,48469.670505
-49.656066,19,48470.131092
-40.634753,20,48470.658118
-36.698868,20,48471.186089
-42.433199,18,48471.584721
-48.702105,19,48471.957603
-53.092612,19,48472.303086
-44.469665,19,48472.625036
-50.950077,21,48473.086897
-34.212789,19,48473.50233
-39.696845,21,48473.873052
-47.519522,20,48474.32158
-39.555872,20,48474.733384
-50.93044,19,48475.085757
-51.662885,19,48475.453329
-47.065409,19,48475.845156
-52.533028,19,48476.25459
-31.070401,19,48476.682755
-51.503398,20,48477.168
-49.06029,19,48477.674699
-50.68141,20,48478.148452
-58.454937,26,48478.777346
-63.324194,19,48479.196508
-41.50118,18,49549.58968
-56.220684,20,49550.04738
-32.766421,19,49550.499393
-42.07021,22,49551.053408
-50.495928,21,49551.545857
-35.962714,20,49551.995768
-49.812838,18,49552.383449
-49.589034,19,49552.810497
-45.518545,19,49553.280856
-49.301498,19,49553.690095
-48.148861,20,49554.147988
-33.876407,19,49554.5225
-43.377366,19,49554.883068
-35.233768,21,49555.3234
-44.589409,19,49555.663415
-40.834032,19,49556.041486
-49.201956,19,49556.417659
-39.315639,20,49556.77083
-43.350678,19,49557.130932
-45.68415,19,49557.501022
-66.696174,19,49557.926528
-34.726227,20,49558.301305
-36.234216,19,49558.662724
-41.527135,20,49559.151772
-43.697095,21,49559.623122
-42.321811,20,49560.129154
-52.113191,19,50566.932389
-39.543251,21,50567.271038
-36.461362,19,50567.542153
-49.034496,20,50567.866808
-39.508339,19,50568.163462
-37.676193,19,50568.458514
-34.178707,19,50568.741499
-35.365498,19,50569.047868
-71.582298,25,50569.501736
-36.999931,19,50569.794243
-67.596779,21,50570.140139
-56.974719,19,50570.443879
-29.205919,20,50570.750445
-47.760292,20,50571.064819
-34.437786,19,50571.368656
-41.132484,20,50571.724227
-34.802322,21,50572.009375
-37.183357,25,50572.404029
-41.279172,19,50572.671188
-47.233584,19,50573.016106
-42.59374,19,50573.315773
-57.402493,19,50573.615663
-32.332575,19,50573.913452
-44.435584,20,50574.236879
-41.272364,19,50574.546156
-38.191996,19,50574.844884
-46.788853,20,51491.955187
-53.132828,19,51492.233166
-43.634734,21,51492.507904
-40.337763,19,51492.823262
-55.315999,18,51493.12981
-36.14513,20,51493.469022
-42.589907,19,51493.755037
-51.773377,20,51494.091081
-44.039121,20,51494.41095
-35.399169,20,51494.767368
-44.798494,25,51495.181461
-48.190201,19,51495.425752
-41.470612,21,51495.774292
-38.037344,19,51496.09214
-38.01941,20,51496.424904
-37.246341,21,51496.760688
-40.463363,20,51497.114504
-62.056579,20,51497.424275
-39.083446,19,51497.713094
-39.313541,19,51498.00846
-49.705682,20,51498.299335
-48.492615,21,51498.639401
-43.531568,18,51498.908906
-34.979411,19,51499.209074
-55.242547,20,51499.563516
-44.119075,23,51499.986879
-43.976516,20,52417.005706
-33.335655,19,52417.274442
-46.652936,19,52417.547782
-45.676647,20,52417.877297
-29.871008,24,52418.280944
-30.322665,21,52418.609991
-37.835846,20,52418.953961
-42.701571,19,52419.258535
-51.439551,19,52419.579741
-40.471579,19,52419.854481
-51.561653,19,52420.155906
-43.253518,19,52420.458085
-41.135655,19,52420.768422
-57.343676,19,52421.097188
-49.132794,21,52421.473386
-48.286813,22,52421.82269
-42.787271,19,52422.100476
-42.962421,19,52422.400171
-35.202913,19,52422.729803
-57.007813,19,52423.036331
-55.062328,19,52423.328654
-41.88553,19,52423.630451
-46.898019,19,52423.971255
-51.161203,20,52424.317494
-51.307858,25,52424.726576
-48.477176,20,53341.281663
-39.395223,22,53341.622583
-42.307555,19,53341.952922
-47.880044,19,53342.228662
-39.10776,20,53342.532447
-41.779391,20,53342.837872
-37.088737,19,53343.140365
-44.16254,18,53343.40153
-38.597117,18,53343.684355
-43.523276,20,53343.982877
-40.569302,19,53344.305748
-42.304278,20,53344.594819
-43.052051,19,53344.881108
-42.272819,20,53345.244502
-30.660883,18,53345.550549
-37.707304,19,53345.832202
-44.662814,20,53346.138608
-39.500074,19,53346.454365
-28.300763,20,53346.783974
-36.197005,20,53347.099977
-33.719815,19,53347.439929
-41.043018,21,53347.811427
-34.876396,19,53348.121199
-37.580895,20,53348.420691
-42.271739,19,53348.711583
-47.83065,19,53349.059345
-41.005831,19,53349.348374
-49.764703,20,54265.815525
-53.62044,24,54266.199325
-37.225632,19,54266.508362
-34.761358,19,54266.817554
-45.647269,21,54267.165145
-57.644281,19,54267.534224
-55.293547,23,54267.899327
-37.877005,19,54268.209217
-36.120325,21,54268.600409
-31.052472,19,54268.909256
-44.886116,19,54269.215699
-51.640558,22,54269.573555
-42.633369,19,54269.888638
-42.596671,20,54270.195971
-31.278656,20,54270.505917
-29.175025,19,54270.849207
-40.935715,19,54271.146036
-41.066363,20,54271.490973
-44.740622,20,54271.764947
-42.287381,19,54272.121286
-40.316751,19,54272.420426
-28.439027,20,54272.774507
-38.119342,19,54273.100884
-46.307151,20,54273.410122
-46.665292,19,54273.707128
-38.828909,19,55083.062621
-45.501122,19,55083.282888
-36.615231,19,55083.519231
-32.374523,20,55083.734923
-41.500594,20,55083.959949
-32.786686,20,55084.165179
-47.78935,20,55084.370226
-35.035012,19,55084.601923
-51.127081,19,55084.806531
-37.019259,22,55085.036441
-33.709839,21,55085.257082
-37.07517,19,55085.453142
-41.500506,19,55085.65237
-45.65836,20,55085.881849
-38.855569,20,55086.104725
-34.628735,20,55086.334043
-34.937601,20,55086.534063
-50.590897,25,55086.809306
-52.48942,20,55087.049911
-31.924781,21,55087.285169
-30.230291,20,55087.48263
-40.077048,19,55087.693119
-42.390149,22,55087.958269
-36.382286,19,55088.203141
-31.170401,18,55088.40116
-50.428556,19,55088.61244
-44.027593,21,55881.449382
-41.442242,20,55881.676523
-38.566888,22,55881.904487
-41.619436,20,55882.106203
-45.332926,20,55882.319502
-39.826099,19,55882.523481
-26.445444,22,55882.777212
-47.355722,19,55882.983075
-29.475514,18,55883.164242
-47.441633,19,55883.358877
-43.301578,20,55883.582229
-41.150656,20,55883.777092
-42.292101,18,55883.993401
-32.418843,23,55884.244353
-34.952659,20,55884.461891
-33.316725,19,55884.672256
-40.978104,20,55884.8822
-31.801162,21,55885.119983
-31.93845,18,55885.337009
-37.767336,19,55885.528942
-37.194815,19,55885.74768
-33.098671,20,55885.934585
-33.002028,20,55886.152319
-24.46119,20,55886.407145
-32.333703,19,55886.612367
-38.963265,19,55886.826422
-44.814487,20,56875.326315
-38.361979,20,56875.806457
-37.477042,22,56876.367136
-36.682983,19,56876.887428
-32.788739,19,56877.35169
-24.36785,20,56877.922469
-44.440573,23,56878.548609
-32.436437,19,56879.071348
-40.721424,24,56879.72282
-42.552494,23,56880.312405
-26.259575,19,56880.825389
-44.704668,19,56881.360741
-32.809811,19,56881.843987
-30.262774,19,56882.521101
-32.523107,21,56883.303186
-36.654758,20,56884.028344
-52.379577,19,56884.562274
-32.666324,19,56885.112908
-39.979499,18,56885.622349
-41.094665,19,56886.147336
-51.660627,21,56886.761482
-33.120765,19,56887.287251
-45.127631,19,56887.840158
-28.771766,19,56888.347679
-39.842455,20,56889.06251
-33.005568,20,57977.173301
-46.1472,19,57977.666623
-47.368111,19,57978.375855
-44.203418,19,57978.917133
-48.910699,20,57979.495669
-29.998122,19,57979.986336
-34.827061,19,57980.526029
-49.179046,19,57981.030759
-29.126831,19,57981.55932
-28.525717,19,57982.126595
-35.740955,19,57982.691083
-32.525916,20,57983.216805
-38.128263,21,57983.80689
-37.64523,19,57984.320657
-32.421845,19,57984.83698
-46.550167,19,57985.395516
-50.262828,18,57985.907513
-26.910288,19,57986.447699
-40.96514,20,57987.043513
-51.256175,19,57987.623955
-34.685743,20,57988.410926
-37.017896,19,57988.938278
-36.98296,19,57989.561744
-29.854096,21,57990.193721
-35.504793,20,57990.703925
-43.396027,28,57991.478871
-47.938075,19,57992.03548
-44.815265,22,59088.496269
-41.847806,20,59088.993517
-39.792853,21,59089.523145
-39.965867,20,59090.009593
-34.254778,19,59090.803185
-31.469306,21,59091.386348
-42.815158,22,59092.044351
-37.471465,20,59092.644416
-38.772974,21,59093.217853
-49.397992,19,59093.758763
-41.75503,19,59094.235055
-43.876821,21,59094.850465
-35.751245,20,59095.456772
-44.442821,21,59096.062716
-40.530703,19,59096.693101
-42.12127,19,59097.269471
-28.931809,20,59097.891973
-45.82464,19,59098.468017
-36.34478,19,59098.998048
-32.581766,20,59099.55505
-52.225905,26,59100.427119
-35.853764,20,59101.085589
-36.215182,19,59101.653017
-38.867384,20,59102.19636
-38.597302,19,59102.734726
-33.501917,20,60195.390156
-38.705893,20,60195.982422
-30.494684,20,60196.569613
-32.42524,19,60197.118971
-35.618139,20,60197.746001
-29.650433,20,60198.289248
-28.242285,19,60198.785342
-39.189865,19,60199.353412
-51.186696,20,60200.055029
-29.751188,23,60200.702477
-30.164351,19,60201.184158
-31.929016,20,60201.868735
-33.122201,20,60202.425021
-40.034757,21,60203.028999
-30.499141,20,60203.623392
-28.014559,20,60204.399084
-34.396105,20,60205.092376
-48.732855,20,60205.61463
-45.011749,18,60206.173156
-34.869513,21,60206.78685
-36.861585,19,60207.303851
-39.816073,18,60207.910754
-36.77294,19,60208.489247
-33.512576,19,60209.002248
-39.371313,20,60209.538845
-44.349134,20,60210.068486
-37.85925,19,61302.90852
-36.51066,19,61303.43368
-37.586805,20,61304.015948
-33.761538,20,61304.643968
-31.242954,20,61305.269294
-26.327038,21,61305.927394
-43.055455,19,61306.428681
-31.936027,22,61306.994573
-40.887362,19,61307.635788
-34.017492,19,61308.251006
-35.709325,19,61308.70154
-35.2976,19,61309.177291
-50.100283,20,61309.695145
-27.94667,20,61310.185483
-28.15783,20,61310.618829
-37.246817,18,61311.125729
-50.364027,19,61311.565132
-34.937025,19,61312.073839
-31.411221,18,61312.508115
-42.513413,19,61312.931229
-37.358371,19,61313.500844
-27.741899,20,61314.0457
-50.085904,19,61314.567846
-46.680368,22,61315.186765
-40.207538,19,61315.733325
-31.100511,20,61316.322414
-31.076738,20,62408.471941
-39.876004,19,62408.950303
-39.400378,19,62409.451541
-35.5423,20,62410.134367
-40.526667,19,62410.632355
-39.186816,19,62411.150717
-37.703266,20,62411.801319
-32.575549,19,62412.354538
-31.264609,20,62412.874391
-38.286776,19,62413.363423
-42.263679,19,62413.839221
-47.578881,21,62414.3487
-32.422661,21,62414.851358
-42.820282,19,62415.33996
-31.951659,19,62415.825353
-44.137306,21,62416.420643
-50.650749,19,62416.999617
-38.563639,19,62417.55701
-47.629926,21,62418.20125
-30.543529,18,62418.867078
-42.590002,19,62419.355835
-32.468538,20,62419.97753
-53.295318,20,62420.556397
-44.142706,19,62421.153555
-38.045949,18,62421.656014
-34.926862,19,62422.290001
-55.025069,25,63510.844182
-49.716301,19,63511.340068
-29.804406,19,63511.814999
-47.512936,20,63512.340533
-32.65644,20,63512.875833
-42.317865,20,63513.478492
-38.791021,19,63514.133464
-28.963678,19,63514.726824
-37.65417,19,63515.301413
-40.894708,21,63515.877631
-38.396555,20,63516.438351
-37.674186,20,63516.989083
-36.534161,20,63517.539469
-22.705724,20,63518.088541
-29.965235,20,63518.664735
-33.401876,19,63519.247871
-36.931889,21,63519.874337
-31.957063,20,63520.513249
-27.182819,20,63521.107486
-38.162031,20,63521.703348
-39.907498,20,63522.353226
-33.881168,19,63522.881843
-55.332869,21,63523.453637
-40.880209,19,63523.96996
-20.225123,20,63524.559423
-41.434068,20,63525.153581
-32.315459,20,64617.505705
-36.154018,20,64617.989382
-36.885154,19,64618.445585
-27.486581,19,64619.036246
-21.991751,19,64619.706789
-31.217083,20,64620.353807
-47.218583,21,64620.93506
-34.329059,19,64621.421902
-29.499797,20,64621.912806
-40.654701,19,64622.425872
-30.016904,19,64622.925499
-26.395685,20,64623.450385
-31.327016,24,64624.127737
-39.150384,20,64624.586543
-30.583641,19,64625.047907
-25.286887,19,64625.496202
-32.367021,20,64626.092486
-34.102579,20,64626.561629
-40.631803,19,64627.095067
-31.476594,20,64627.622212
-35.44789,20,64628.190403
-43.113608,21,64628.707917
-46.389309,20,64629.219966
-45.929283,20,64629.728646
-34.872311,20,64630.281157
-38.931842,19,64630.805052
-40.471322,19,65725.675931
-31.909909,19,65726.266474
-34.653708,19,65726.851952
-37.470404,19,65727.461837
-46.140301,21,65728.144506
-38.138023,21,65728.693328
-36.985028,20,65729.254935
-43.378365,21,65729.821235
-36.815267,21,65730.368562
-32.155191,19,65731.11708
-33.725296,20,65731.668077
-47.645208,20,65732.414465
-39.60493,19,65733.125866
-40.375882,19,65733.735969
-49.331699,19,65734.391112
-37.109458,18,65734.876955
-39.419696,20,65735.453083
-36.979846,19,65735.989082
-44.977953,20,65736.534361
-35.835502,26,65737.355037
-35.464321,20,65737.901059
-29.09614,20,65738.442862
-33.947568,19,65738.938746
-41.866068,19,65739.565589
-38.402465,19,65740.077222
-24.77935,19,66832.78407
-36.334032,20,66833.563645
-31.434649,19,66834.053466
-31.502905,20,66834.648295
-28.820314,19,66835.205057
-31.725481,18,66835.737871
-38.310279,18,66836.209983
-32.199271,19,66836.708404
-26.95677,19,66837.109926
-38.45943,19,66837.628729
-36.007366,20,66838.170267
-36.372603,20,66838.648151
-45.586779,24,66839.245293
-35.704395,19,66839.704934
-30.861,20,66840.276637
-43.90898,20,66840.781335
-40.429082,20,66841.374216
-28.145983,20,66841.799562
-31.032733,20,66842.242497
-35.954664,20,66842.752336
-34.929375,20,66843.444205
-24.159462,20,66843.964768
-37.052022,19,66844.718015
-32.807942,19,66845.664606
-42.982951,19,66846.189994
-27.504554,20,66846.737462
-35.142164,19,66847.265796
-35.559612,20,67936.589494
-36.471167,21,67937.074528
-43.463222,19,67937.516855
-32.098299,19,67937.962898
-39.169818,20,67938.492075
-41.945601,22,67939.082033
-39.898953,20,67939.573034
-36.335978,20,67940.169236
-35.80684,19,67940.635756
-40.867793,19,67941.094714
-39.013932,20,67941.519791
-39.950577,19,67941.934823
-40.146163,19,67942.39842
-34.403825,19,67942.86686
-37.838654,20,67943.36199
-28.182775,20,67944.097435
-41.833556,20,67944.668571
-32.68056,22,67945.251889
-24.003863,19,67945.761824
-29.47091,19,67946.261903
-33.199942,20,67946.925019
-29.985759,19,67947.442964
-31.279405,20,67947.980703
-33.071241,20,67948.52874
-38.381271,19,67948.997944
-36.358304,19,67949.517928
-43.535407,19,69042.046734
-19.184784,19,69042.634195
-21.483832,22,69043.333102
-33.021963,20,69043.976346
-35.591463,21,69044.585449
-32.312661,19,69045.25309
-25.427566,20,69045.925706
-21.460235,20,69046.471369
-32.335195,19,69047.066064
-33.514297,21,69047.682323
-26.138589,20,69048.206588
-33.781182,20,69048.967598
-35.998512,22,69049.58833
-31.455093,20,69050.11833
-33.59232,20,69050.650308
-29.705548,19,69051.254027
-29.4974,20,69051.875629
-33.563168,20,69052.497242
-39.876097,21,69053.228816
-32.311863,21,69053.817315
-38.13037,19,69054.350626
-26.294955,20,69054.9169
-39.610665,20,69055.497232
-28.045903,20,69056.026389
-33.339818,19,69056.620377
-28.801989,22,70146.564137
-33.168505,20,70147.09393
-39.496826,21,70147.687456
-37.234223,19,70148.240773
-40.223474,22,70148.954859
-35.909353,20,70149.463719
-29.322589,20,70149.990138
-31.444774,19,70150.719144
-33.194987,20,70151.333061
-25.983988,20,70151.873353
-31.78895,20,70152.542886
-30.361232,19,70153.159891
-46.597986,20,70153.713493
-38.518166,19,70154.228479
-25.926382,20,70154.764247
-26.038425,19,70155.290367
-22.032349,19,70155.808002
-30.374992,20,70156.351818
-32.897069,19,70156.879483
-31.520422,19,70157.380686
-26.572915,20,70157.921149
-48.01723,19,70158.413138
-29.545562,20,70158.95333
-43.349271,19,70159.554853
-26.954812,20,70160.153496
-22.642736,19,70160.665237
-30.969266,20,71253.981429
-26.10449,20,71254.581048
-38.433364,21,71255.238
-23.486561,20,71255.846615
-34.200545,20,71256.42961
-35.094027,21,71257.01893
-24.307007,22,71257.702156
-26.583128,22,71258.358567
-43.816993,28,71259.301011
-39.514859,20,71259.893431
-29.933409,21,71260.563005
-47.609307,19,71261.114084
-33.618684,20,71261.757157
-29.377087,19,71262.252737
-37.831486,20,71262.762912
-43.010763,21,71263.366182
-27.883259,20,71263.85756
-24.739159,19,71264.392342
-29.754483,21,71264.953877
-31.61736,21,71265.524331
-26.103774,20,71266.027149
-28.797806,20,71266.519255
-29.587705,21,71267.056
-38.601091,19,71267.51975
-30.574231,20,71268.002984
-25.728199,22,72361.633275
-30.758789,21,72362.385518
-30.334394,20,72363.212821
-30.864187,21,72364.000315
-28.723345,19,72364.556775
-24.548193,20,72365.098544
-30.096785,19,72365.739792
-35.423259,20,72366.412353
-24.291942,21,72367.114605
-31.958763,21,72367.69747
-25.192015,20,72368.600624
-36.531317,21,72369.163911
-22.031644,20,72369.791342
-27.221558,19,72370.36408
-27.469836,21,72370.911101
-33.017256,20,72371.383665
-30.985189,25,72372.040628
-30.276987,21,72372.671015
-51.421985,27,72373.417438
-32.070049,21,72373.990564
-35.657235,19,72374.530185
-34.55983,20,72375.048211
-33.978253,21,72375.69936
-34.24102,20,72376.263758
-32.821001,20,73462.05566
-32.172517,20,73462.592725
-34.760404,20,73463.367556
-33.883951,19,73463.883858
-37.507752,19,73464.41185
-29.611074,19,73464.956482
-33.73137,21,73465.600615
-30.688517,20,73466.170521
-30.014142,19,73466.84517
-37.028228,21,73467.435598
-32.947581,19,73467.984363
-24.518359,20,73468.581589
-29.059096,20,73469.151817
-31.115134,20,73469.695247
-21.780896,19,73470.203033
-30.644633,20,73470.796877
-38.576109,20,73471.347113
-25.047498,20,73471.893566
-20.197623,22,73472.489417
-21.009763,20,73473.014165
-33.730177,21,73473.573729
-31.227187,19,73474.047177
-29.365478,23,73474.573532
-34.702826,20,73475.092727
-30.053872,20,73475.559984
-27.63259,19,73476.020151
-26.137714,19,74560.576966
-20.87488,19,74561.088293
-30.764003,19,74561.615501
-19.314456,20,74562.17502
-38.960965,20,74562.79904
-46.190083,18,74563.322639
-25.530308,20,74563.853639
-41.682266,22,74564.458718
-33.375886,24,74565.120519
-29.558694,20,74565.643913
-25.790453,21,74566.24392
-27.437024,20,74566.753304
-30.772268,21,74567.269499
-36.221183,20,74567.814349
-25.288349,20,74568.340304
-30.350946,21,74568.946489
-25.761793,20,74569.467348
-22.577553,19,74569.965841
-25.180497,20,74570.698266
-38.518938,20,74571.218788
-26.753288,19,74571.806819
-28.982253,20,74572.361046
-41.896706,22,74572.946259
-30.297561,20,74573.470681
-33.749731,20,74574.032279
-24.033797,20,75547.292641
-29.384505,23,75547.877609
-25.573988,20,75548.470241
-34.955165,20,75548.940411
-32.093505,20,75549.502354
-35.290298,19,75550.035403
-40.674499,21,75550.562499
-34.834611,20,75551.156696
-31.052705,20,75551.771173
-24.720627,19,75552.23747
-32.018291,20,75552.751069
-17.958499,21,75553.309429
-28.341824,20,75553.810446
-34.218267,19,75554.301571
-30.153099,19,75554.779845
-35.153749,21,75555.408204
-41.603081,20,75555.911158
-28.031005,21,75556.529181
-27.734944,20,75557.054858
-24.707079,19,75557.593627
-30.367464,20,75558.12042
-29.223306,20,75558.73038
-36.06646,22,75559.321343
-27.368759,20,75559.94857
-23.641339,20,75560.692016
-27.437213,19,75561.163451
-25.095469,20,76540.133024
-34.790838,20,76540.718992
-32.940403,26,76541.478319
-22.065524,21,76542.134577
-34.238427,20,76542.808501
-32.461605,20,76543.463506
-27.819989,19,76543.973202
-28.422355,21,76544.557697
-28.576384,20,76545.090811
-32.231833,20,76545.635953
-27.254316,20,76546.169734
-40.877458,24,76546.854641
-32.071954,22,76547.522108
-26.540488,20,76548.05825
-24.55457,21,76548.607257
-30.494757,22,76549.325412
-31.729274,20,76549.864398
-24.649878,21,76550.432022
-23.530878,20,76550.96237
-29.377347,21,76551.500507
-29.478072,22,76552.096755
-30.124895,18,76552.588845
-31.993655,21,76553.170134
-17.456743,20,76553.753954
-24.350726,21,76554.393934
-28.935333,20,77536.544385
-25.530047,20,77537.155869
-22.540479,20,77537.893715
-33.905837,21,77538.435089
-30.268325,20,77538.884426
-32.863671,19,77539.320292
-35.175381,26,77540.037297
-26.350911,20,77540.518599
-29.511167,21,77541.079365
-19.950909,21,77541.701518
-26.538811,20,77542.245192
-30.352911,21,77542.74939
-29.274705,20,77543.281918
-37.064018,23,77543.87908
-32.342583,20,77544.375811
-23.240877,19,77544.976179
-30.841592,21,77545.51774
-33.920778,20,77546.042042
-33.670541,21,77546.698796
-34.062648,20,77547.271284
-37.337343,20,77547.815799
-29.243325,22,77548.410332
-31.381699,20,77548.964808
-24.607889,19,77549.484878
-17.681446,21,78534.735648
-26.763914,20,78535.37869
-29.267003,20,78535.943749
-27.732575,20,78536.48956
-33.546964,19,78537.045284
-31.224555,20,78537.582189
-34.214121,20,78538.174809
-21.680834,19,78538.716754
-23.049584,23,78539.334683
-33.834992,22,78539.903859
-33.758133,20,78540.461988
-27.959841,20,78541.043449
-19.953663,21,78541.612414
-35.563816,21,78542.259214
-29.917896,20,78542.789796
-26.156202,20,78543.303727
-21.25728,20,78543.844829
-36.819846,20,78544.34307
-33.467428,21,78544.93852
-21.885892,21,78545.554444
-26.053543,20,78546.084886
-30.1731,19,78546.582935
-27.017138,20,78547.087511
-33.190869,23,78547.703597
-25.167516,23,78548.263859
-26.891002,19,79526.425147
-24.263277,20,79526.954921
-23.089766,20,79527.469613
-22.295528,20,79528.002156
-25.450961,20,79528.510098
-40.663583,21,79529.060891
-29.914486,20,79529.705949
-22.3932,21,79530.271989
-29.535794,21,79530.852916
-33.610035,21,79531.468325
-32.978322,19,79531.972878
-23.817839,19,79532.494828
-28.032169,19,79533.002695
-35.795654,20,79533.671339
-36.769283,21,79534.268481
-27.764709,20,79534.779744
-38.053389,20,79535.334175
-28.984661,20,79535.909978
-34.366218,20,79536.554347
-30.73987,20,79537.108923
-27.935803,20,79537.643807
-34.086265,18,79538.096774
-16.327357,20,79538.661898
-26.098239,22,79539.256404
-29.472594,21,79539.851959
-23.656144,21,79540.385521
-31.714988,20,80523.62451
-32.803798,20,80524.158911
-29.186088,19,80524.687997
-37.34805,17,80525.154482
-31.42318,21,80525.778249
-26.570047,20,80526.301423
-32.577697,20,80526.8599
-27.013111,19,80527.382976
-29.299414,20,80527.935989
-27.555866,20,80528.480787
-23.050939,20,80529.294062
-23.231817,21,80529.850175
-26.009646,20,80530.410507
-37.45931,20,80530.976385
-22.141775,20,80531.488955
-32.89645,21,80532.033666
-28.11963,24,80532.786526
-19.189979,21,80533.321971
-27.204766,20,80533.845209
-27.816377,20,80534.341761
-28.830289,20,80534.987921
-34.50917,20,80535.551233
-43.343936,17,80536.03246
-25.7975,21,80536.693233
-27.621253,19,80537.284019
-35.745199,22,81519.014193
-23.867985,22,81519.535712
-33.465397,20,81520.091994
-23.372386,19,81520.6869
-18.901707,20,81521.291447
-28.253,20,81521.837278
-25.638412,21,81522.19979
-22.585336,20,81522.601173
-30.462839,22,81523.080161
-25.147151,20,81523.532529
-22.77856,20,81524.007671
-20.527424,20,81524.398104
-32.350553,21,81524.782759
-26.701513,19,81525.188427
-28.808967,19,81525.571259
-24.421799,20,81526.022365
-30.062887,23,81526.484007
-25.393255,20,81526.856163
-21.150957,19,81527.492382
-30.346544,20,81527.984626
-34.151115,20,81528.581858
-22.676941,20,81529.091617
-29.881844,21,81529.638828
-19.382889,21,81530.15765
-29.318215,20,81530.695013
-24.966278,20,81531.223016
-23.946308,19,82429.904826
-25.103512,20,82430.355498
-26.170816,22,82430.845264
-22.167021,20,82431.291481
-29.400679,20,82431.737955
-42.683914,23,82432.242064
-17.990716,20,82432.715862
-60.319687,18,82433.125072
-28.234791,21,82433.605335
-31.262633,20,82434.105483
-30.341042,20,82434.553776
-25.029218,21,82435.058388
-30.870397,19,82435.46429
-32.49031,19,82435.867255
-24.682997,21,82436.320535
-32.20709,19,82436.7378
-31.986147,20,82437.133954
-29.910336,20,82437.637615
-25.384774,21,82438.110567
-25.957874,20,82438.443522
-29.076438,20,82438.812385
-30.238967,20,82439.134104
-22.633352,20,82439.490572
-39.034235,19,82439.818312
-21.27313,20,82440.143389
-23.423934,19,83300.778044
-20.101215,20,83301.096759
-28.807883,20,83301.406372
-26.958592,20,83301.725549
-26.734059,21,83302.0741
-29.520778,21,83302.421852
-22.660226,20,83302.724522
-22.931591,20,83303.06144
-34.157539,20,83303.428812
-28.778534,21,83303.780438
-31.264824,20,83304.11954
-30.434679,20,83304.408595
-34.491237,20,83304.694445
-18.368821,20,83304.987413
-26.190399,20,83305.315301
-27.776061,21,83305.678972
-25.561461,20,83305.995786
-28.770325,21,83306.301056
-27.758235,20,83306.609058
-57.996577,20,83306.92863
-28.619054,19,83307.182853
-25.76718,22,83307.514929
-32.059434,21,83307.82982
-27.207233,21,83308.186637
-22.670079,21,83308.568838
-23.922683,20,84121.886646
-27.715348,21,84122.112253
-34.983783,21,84122.329549
-25.536498,20,84122.53377
-13.311982,20,84122.743913
-23.972003,20,84122.95269
-31.497288,20,84123.200557
-29.541906,20,84123.427982
-26.617615,20,84123.635294
-29.529782,19,84123.81549
-33.080367,20,84124.039722
-34.006883,20,84124.284617
-25.295367,20,84124.515665
-32.047491,20,84124.759012
-26.450146,20,84124.967662
-36.192111,22,84125.203868
-24.728617,20,84125.446027
-30.2858,19,84125.67417
-34.479269,19,84125.890733
-22.403136,21,84126.106243
-23.890331,20,84126.316655
-33.712797,18,84126.525094
-25.254831,21,84126.736539
-17.434695,20,84126.938269
-32.903798,21,84127.153701
-22.267998,20,84127.36384
-29.177479,19,84920.106018
-30.466612,19,84920.313586
-31.706737,21,84920.5187
-27.861152,21,84920.731136
-34.034054,20,84920.948108
-23.947424,20,84921.16378
-24.709454,21,84921.387117
-23.428483,20,84921.607449
-33.499236,22,84921.831053
-18.346335,20,84922.040956
-29.636831,21,84922.273036
-39.315276,23,84922.527742
-26.981505,20,84922.746934
-19.705496,21,84922.948899
-25.13438,21,84923.168752
-28.441785,20,84923.382885
-46.136775,22,84923.641944
-29.069213,20,84923.885948
-25.998644,21,84924.098975
-29.970969,20,84924.309114
-28.487727,20,84924.540571
-20.907255,20,84924.763789
-22.071762,20,84925.017917
-27.418825,22,84925.237402
-27.846284,19,84925.439823
-25.168158,21,85730.905578
-24.824793,20,85731.102274
-19.510588,21,85731.320387
-26.454253,19,85731.509634
-26.585799,21,85731.738351
-26.249681,20,85731.969693
-40.026753,20,85732.185643
-26.6049,19,85732.380493
-34.71832,20,85732.589241
-30.051367,19,85732.791789
-23.886483,20,85733.036124
-20.363888,21,85733.251912
-23.411362,20,85733.454769
-19.455662,21,85733.675357
-25.30976,19,85733.873758
-21.367007,20,85734.10046
-27.599594,20,85734.323645
-29.810519,20,85734.518327
-24.803278,20,85734.714111
-28.487097,20,85734.913091
-23.540825,21,85735.130072
-26.035442,20,85735.37441
-24.815581,20,85735.592866
-30.04956,20,85735.807537
-22.946303,21,85736.043616
-27.303862,20,86529.465343
-30.871568,22,86529.688967
-26.853387,22,86529.918707
-20.992414,20,86530.124023
-30.106676,20,86530.346724
-25.056632,20,86530.600025
-23.668669,21,86530.821949
-28.126871,21,86531.052858
-23.331458,21,86531.278619
-23.908922,21,86531.511714
-23.965125,20,86531.764582
-20.962351,20,86531.992722
-28.13261,19,86532.204597
-26.386012,20,86532.41005
-29.239105,21,86532.667614
-30.440272,20,86532.917388
-27.837637,19,86533.145839
-31.313396,20,86533.347428
-23.068441,20,86533.56399
-25.696531,20,86533.763669
-21.50529,20,86534.011387
-18.235641,20,86534.219064
-26.774567,20,86534.439377
-25.391875,19,86534.639894
-22.512437,22,86534.884793
-23.810041,23,87327.958419
-20.920725,22,87328.183234
-16.338525,20,87328.409636
-17.502313,20,87328.614732
-21.877323,20,87328.844882
-24.360278,20,87329.105575
-17.493806,20,87329.321182
-22.785936,22,87329.55178
-19.222264,21,87329.784403
-31.104454,20,87329.997293
-27.401073,22,87330.246798
-44.124419,25,87330.509562
-23.965423,21,87330.725701
-17.401289,22,87330.955731
-22.646608,20,87331.180488
-27.955948,20,87331.401177
-21.104082,20,87331.601903
-27.423712,22,87331.835844
-21.605948,23,87332.096642
-25.00314,20,87332.307623
-22.805459,20,87332.539027
-21.715949,20,87332.752385
-29.170759,20,87332.958127
-25.716692,20,87333.157023
-24.914246,21,87333.375479
-25.379211,21,88120.270251
-32.464064,20,88120.407353
-28.423961,21,88120.550676
-31.571988,20,88120.686067
-40.66945,21,88120.82566
-18.941853,19,88120.949996
-21.327894,21,88121.082049
-20.079524,20,88121.215236
-23.234078,21,88121.360282
-19.771067,21,88121.50075
-29.186309,20,88121.633775
-28.712806,21,88121.775189
-27.331513,22,88121.9218
-25.589896,20,88122.0552
-29.151489,21,88122.188555
-25.994191,19,88122.320014
-27.053764,21,88122.461314
-29.779433,20,88122.593599
-33.630303,21,88122.746238
-30.129426,20,88122.880773
-28.990836,20,88123.016128
-27.265273,21,88123.158133
-19.59689,20,88123.290151
-35.34418,20,88123.432805
-24.180191,20,88123.56098
-33.80388,20,88873.519556
-21.822627,19,88873.65106
-22.089232,19,88873.779148
-21.957078,20,88873.910708
-17.580722,22,88874.065782
-26.244454,20,88874.199855
-40.233384,20,88874.331125
-20.030246,19,88874.459951
-27.65284,20,88874.592075
-20.008681,21,88874.734113
-24.612469,20,88874.867638
-30.135993,19,88875.002406
-20.269729,19,88875.125758
-21.941528,20,88875.258756
-33.525734,21,88875.40461
-28.040359,19,88875.539867
-16.512179,20,88875.67687
-27.762125,20,88875.818724
-31.122696,21,88875.962799
-23.813212,20,88876.09466
-26.318378,20,88876.226434
-25.289439,21,88876.363869
-21.281088,19,88876.490733
-30.823711,20,88876.625743
-17.018623,19,88876.75447
-17.201231,20,88876.88579
-38.125902,20,89627.772402
-19.098644,19,89627.902836
-23.684752,20,89628.036763
-26.60579,20,89628.175681
-18.728509,22,89628.334063
-23.526348,23,89628.496655
-19.567441,20,89628.62519
-32.262565,18,89628.750006
-35.239323,24,89628.907577
-25.485527,20,89629.042462
-24.937255,21,89629.186435
-28.167686,21,89629.332698
-25.059003,20,89629.473155
-21.805187,20,89629.615539
-23.945958,19,89629.73773
-27.245475,21,89629.877291
-27.945962,21,89630.017279
-17.087506,20,89630.150833
-20.959037,20,89630.290666
-39.109626,24,89630.454723
-27.379355,23,89630.614522
-22.461689,19,89630.744973
-26.169663,20,89630.886158
-25.656977,21,89631.024793
-20.608748,20,90399.630164
-17.07322,20,90399.788862
-20.28638,22,90399.956913
-25.326127,20,90400.118562
-34.799186,21,90400.287107
-27.812613,21,90400.450202
-23.004939,20,90400.638166
-14.041782,20,90400.79912
-23.888015,20,90400.959264
-21.363093,20,90401.12269
-18.424791,19,90401.282692
-20.388321,22,90401.455866
-18.126127,19,90401.60762
-21.41873,20,90401.758393
-21.939724,22,90401.923745
-16.026754,21,90402.09383
-23.582628,20,90402.245556
-20.51063,23,90402.458925
-21.64803,20,90402.610397
-19.922893,20,90402.759013
-32.651913,20,90402.910855
-30.865361,22,90403.072364
-20.905187,19,90403.225257
-20.732373,20,90403.393072
-37.185432,21,90403.570655
-27.420541,21,91152.232161
-27.697377,20,91152.364368
-33.175729,20,91152.508389
-23.587934,20,91152.643606
-20.585077,20,91152.779352
-19.381537,20,91152.917191
-21.795459,19,91153.053107
-22.37108,20,91153.191951
-26.686215,20,91153.329684
-27.64651,20,91153.463793
-23.68627,25,91153.646316
-15.858494,20,91153.78615
-24.470478,20,91153.922412
-21.16645,20,91154.072133
-21.529426,20,91154.215835
-31.052058,22,91154.359709
-20.179729,21,91154.508927
-24.917564,20,91154.650128
-27.115171,20,91154.7953
-24.732597,21,91154.942711
-25.93018,19,91155.079404
-16.346543,21,91155.21784
-29.231265,21,91155.368178
-20.306865,20,91155.516401
-17.255281,20,91155.651904
-20.295486,21,91929.082541
-29.995698,20,91929.219117
-16.852677,20,91929.354157
-27.463252,20,91929.487525
-20.606425,21,91929.626631
-18.593924,21,91929.77064
-14.598164,20,91929.903873
-24.622848,21,91930.046072
-22.930962,20,91930.180824
-29.745016,22,91930.328254
-15.292819,20,91930.459468
-21.825162,20,91930.586204
-27.053663,20,91930.720624
-27.888955,20,91930.852435
-14.074971,20,91930.985513
-19.887692,21,91931.129683
-34.132284,21,91931.276179
-17.739046,20,91931.421256
-21.498756,21,91931.564824
-25.980519,23,91931.731867
-22.560925,20,91931.869826
-11.183958,20,91932.004354
-30.079685,22,91932.14067
-23.274077,21,91932.283851
-25.941573,21,91932.435598
-20.859757,20,92681.871638
-20.735494,20,92682.006496
-15.436736,21,92682.156151
-30.476625,23,92682.319111
-26.272649,21,92682.463908
-20.681209,20,92682.605629
-14.773722,22,92682.753789
-23.392605,20,92682.889132
-18.591839,21,92683.038462
-19.766536,20,92683.182989
-27.953382,21,92683.324871
-37.162351,20,92683.461208
-28.448671,22,92683.61185
-20.777491,21,92683.765963
-24.05767,20,92683.901425
-25.985764,20,92684.034837
-26.154314,21,92684.177467
-26.170151,20,92684.309461
-25.629469,20,92684.442064
-28.360968,21,92684.579636
-17.347055,20,92684.718513
-22.813898,21,92684.87406
-14.958867,19,92685.001394
-21.099736,20,92685.138611
-25.38159,19,92685.270657
-25.549415,20,93465.234522
-24.4642,21,93465.378751
-25.873346,21,93465.520199
-19.686747,20,93465.656646
-20.47709,21,93465.795777
-16.910178,20,93465.926743
-30.538547,23,93466.075214
-16.571444,20,93466.209751
-19.96562,21,93466.353294
-23.671141,20,93466.496699
-24.232109,20,93466.630651
-16.421026,20,93466.766285
-23.374877,20,93466.900112
-26.988414,20,93467.041558
-23.108673,20,93467.182403
-22.385402,20,93467.317542
-19.491645,20,93467.453411
-22.304269,21,93467.600424
-34.639284,20,93467.733846
-21.297471,18,93467.858814
-19.754827,21,93468.005703
-22.098168,21,93468.151224
-23.208275,20,93468.286772
-25.40558,20,93468.434012
-25.232456,19,93468.557469
