# {"t_start": 1547446674.4694304, "env_id": "PitfallNoFrameskip-v4"} 
r,l,t0.0,1504,60.189245
-432.0,4894,232.800548
-200.0,1524,288.626593
-39.0,634,308.90291
-256.0,2982,409.702923
-100.0,1513,461.010807
-200.0,6104,676.409971
-178.0,5769,882.774984
-306.0,3369,1006.681171
-200.0,3640,1136.785445
-100.0,3342,1257.929908
-24.0,761,1285.645208
0.0,321,1297.081113
0.0,554,1316.528609
-300.0,10654,1700.861676
-100.0,1846,1768.095661
0.0,4943,1945.082075
0.0,1367,1993.789131
0.0,761,2019.428536
0.0,2589,2112.250386
0.0,2022,2183.074225
-48.0,633,2204.270186
0.0,9148,2534.458615
-22.0,385,2550.181969
-38.0,556,2570.481038
-32.0,568,2590.51999
-42.0,503,2608.751782
-100.0,1936,2678.278676
-46.0,501,2696.344759
0.0,243,2704.588477
-100.0,3483,2826.398845
-24.0,628,2848.942253
-88.0,626,2871.256402
-59.0,1076,2910.919794
-100.0,2165,2991.423054
-352.0,1693,3052.669402
0.0,327,3064.55493
0.0,339,3077.335459
0.0,3915,3216.56505
0.0,324,3227.336711
-100.0,5870,3442.870914
-24.0,437,3458.174639
-100.0,887,3490.592894
0.0,6543,3728.775575
-22.0,501,3748.442103
0.0,12518,4211.711872
0.0,760,4239.623755
0.0,502,4258.656882
0.0,305,4268.824128
0.0,499,4286.017829
0.0,637,4308.600172
-25.0,502,4327.156729
-11.0,495,4344.439582
-11.0,694,4370.566683
0.0,496,4388.591415
0.0,308,4399.868194
0.0,633,4423.741024
-94.0,813,4451.790054
0.0,372,4466.007738
0.0,439,4480.997703
0.0,440,4495.981991
0.0,516,4514.960014
-42.0,435,4529.908965
0.0,570,4550.989609
0.0,453,4566.638873
0.0,432,4581.122383
0.0,367,4594.312088
0.0,1666,4654.452516
0.0,756,4682.197709
-400.0,6319,4911.868469
-14.0,621,4934.145778
-46.0,633,4957.26814
0.0,386,4971.498386
-13.0,570,4991.587217
-11.0,367,5004.129886
0.0,4073,5150.960445
-200.0,100000,8793.560933
0.0,408,8808.978348
0.0,18064,9474.90665
-100.0,99997,13135.210148
0.0,2270,13215.874996
0.0,684,13241.462228
0.0,3808,13381.223266
0.0,631,13405.125125
0.0,722,13430.307807
-100.0,1133,13470.311764
0.0,775,13498.602398
0.0,2685,13596.644993
0.0,1518,13653.380311
0.0,14337,14179.124006
0.0,324,14190.764739
0.0,99994,17867.104354
-100.0,8822,18188.450742
-40.0,556,18209.053519
0.0,5555,18408.981466
-20.0,494,18427.084088
0.0,499,18443.881475
-56.0,450,18460.834976
0.0,365,18472.937564
-100.0,5089,18661.557289
-200.0,13724,19169.0739
0.0,605,19192.926836
-100.0,99997,22878.468745
-100.0,99993,26556.859673
-641.0,99996,30326.974271
-24.0,559,30347.573435
-100.0,99997,34044.573915
0.0,3386,34167.31266
-100.0,12578,34620.946258
0.0,18060,35285.697102
0.0,324,35297.89076
0.0,493,35316.512083
0.0,366,35328.804829
0.0,427,35343.045809
-50.0,436,35359.288932
0.0,420,35373.956859
-34.0,418,35389.089809
0.0,350,35400.485878
0.0,293,35411.668605
-24.0,558,35433.768761
-16.0,697,35459.845556
-11.0,516,35479.231191
0.0,214,35486.672355
0.0,262,35496.29886
-42.0,378,35509.802724
-12.0,688,35534.749703
-73.0,626,35557.961641
-100.0,17135,36185.591121
-17.0,312,36196.10001
0.0,2272,36280.300909
0.0,15659,36854.712282
0.0,308,36865.563517
0.0,230,36873.725045
0.0,232,36880.748395
0.0,498,36899.376299
0.0,497,36916.667204
0.0,321,36927.702799
-64.0,633,36951.183448
-35.0,242,36959.888595
-48.0,388,36973.021222
-45.0,444,36989.274998
-4.0,246,36998.454334
0.0,4437,37161.132232
0.0,344,37173.876591
0.0,255,37183.335343
0.0,266,37193.134109
0.0,434,37209.803728
0.0,603,37229.868597
0.0,451,37245.897263
0.0,306,37256.612555
0.0,310,37268.142824
0.0,318,37280.629159
-20.0,454,37296.321504
-42.0,430,37311.742022
0.0,305,37323.139535
-5.0,380,37336.51842
0.0,2302,37421.368196
-19.0,371,37434.071417
0.0,488,37450.780931
0.0,242,37459.584765
-46.0,756,37487.271903
-5.0,647,37511.279343
-70.0,439,37527.914817
-1.0,433,37545.800445
0.0,721,37569.58563
-100.0,11962,38005.954083
0.0,99996,41669.840895
0.0,709,41694.691312
-200.0,99995,45371.958625
0.0,689,45396.670142
-59.0,643,45420.109967
0.0,99993,49067.777468
0.0,5870,49264.575061
0.0,1314,49305.953835
0.0,6922,49521.825988
0.0,99998,52647.239078
0.0,1475,52683.900759
0.0,2607,52747.152966
0.0,18063,53199.024844
0.0,2207,53253.427274
0.0,1202,53282.81203
0.0,16875,53698.297585
0.0,244,53704.536027
-100.0,12974,54018.476447
0.0,603,54032.882444
0.0,808,54052.094471
0.0,1047,54076.858704
0.0,1563,54114.772941
0.0,3046,54188.308605
0.0,508,54200.936755
0.0,529,54214.879489
0.0,99997,56667.102371
-574.0,2906,56736.082829
0.0,99993,59489.473232
0.0,99995,62853.991568
0.0,601,62875.230015
0.0,99997,66265.380637
-100.0,99999,69656.101831
-2000.0,99997,73024.432691
0.0,99993,76430.911983
-100.0,99996,79823.968294
-100.0,99999,83194.076575
