# {"t_start": 1547320709.4643927, "env_id": "DoubleDunkNoFrameskip-v4"} 
r,l,t
-22.0,2063,100.196048
-20.0,1880,190.052969
-24.0,1742,276.693443
-22.0,1871,367.511818
-18.0,1886,459.812083
-22.0,2186,566.548581
-22.0,1756,653.654613
-20.0,1579,728.787671
-22.0,1738,812.363455
-16.0,1881,905.355092
-20.0,1679,984.782878
-18.0,1809,1070.092296
-20.0,1599,1149.086345
-16.0,2188,1258.733116
-20.0,1685,1339.150711
-20.0,1959,1432.683514
-22.0,2314,1548.584645
-18.0,2380,1664.617903
-20.0,2411,1780.660709
-20.0,1776,1867.436965
-20.0,3271,2025.461101
-18.0,2015,2123.902977
-24.0,1437,2195.119053
-16.0,1936,2289.052811
-22.0,1951,2387.254765
-14.0,2009,2485.003041
-12.0,2125,2587.683992
-20.0,1679,2668.864641
-16.0,1681,2749.632005
-18.0,2129,2848.108935
-18.0,2080,2950.551612
-10.0,2090,3052.239928
-12.0,1806,3142.016016
-16.0,2316,3256.522896
-16.0,1944,3352.537496
-16.0,1817,3438.383484
-18.0,2060,3537.560806
-20.0,1824,3628.367437
-16.0,2448,3747.60205
-18.0,2073,3849.923086
-14.0,2267,3962.711874
-20.0,1813,4050.916015
-20.0,2125,4152.72897
-16.0,2451,4271.19136
2.0,2966,4413.865227
-20.0,2174,4513.768797
-18.0,2215,4620.926175
-18.0,2194,4725.820853
-18.0,2006,4820.336258
-20.0,2606,4947.184252
-16.0,1877,5037.751534
-16.0,1938,5131.688707
-14.0,1810,5220.236538
-16.0,2027,5319.267263
-18.0,1689,5401.657369
-12.0,2764,5535.542994
-18.0,2016,5634.44878
-12.0,1927,5727.681032
-18.0,1299,5791.39261
-18.0,2191,5896.859993
-14.0,2630,6026.636049
-12.0,2467,6148.628921
-12.0,2127,6248.730971
-18.0,1978,6346.627917
-12.0,2336,6459.187601
-16.0,1541,6532.382235
-18.0,1873,6622.991747
-18.0,2514,6746.206043
-18.0,1935,6837.818161
-18.0,1756,6920.520864
-14.0,1959,7019.730357
-20.0,2014,7117.727977
-12.0,2399,7230.966394
-18.0,2497,7350.720099
-14.0,1940,7441.362561
-16.0,1765,7527.927334
-14.0,2197,7636.678893
-18.0,1421,7705.246742
-12.0,2689,7837.614515
-18.0,2272,7953.461167
-16.0,2143,8056.469332
-14.0,2653,8186.742157
-18.0,2314,8301.353656
-14.0,2837,8439.965678
-16.0,1929,8535.442539
-18.0,1883,8625.91779
-6.0,2568,8750.321007
-22.0,2463,8869.345038
-22.0,1321,8930.504029
-22.0,2205,9036.86545
-20.0,2263,9146.542341
-20.0,1950,9241.148467
-20.0,1818,9327.90003
-24.0,1738,9410.700605
-14.0,2040,9507.11683
-16.0,2241,9615.43418
-10.0,2449,9736.80864
-16.0,3467,9904.601838
-16.0,2345,10019.381133
-16.0,2014,10113.870066
-16.0,2070,10215.14604
-12.0,2051,10315.210077
-20.0,2253,10423.64247
-22.0,2331,10536.053393
-16.0,2687,10668.825536
-14.0,2513,10791.832012
-14.0,2010,10890.271755
-20.0,1928,10983.185399
-20.0,1821,11072.182018
-10.0,2572,11193.228373
-14.0,2846,11335.160988
-16.0,1891,11423.75589
-14.0,1674,11505.672537
-16.0,3067,11656.451769
-10.0,2664,11785.190526
-16.0,2093,11884.709512
-14.0,2522,11999.869507
-16.0,1948,12094.498452
-16.0,2000,12193.127156
-18.0,1677,12273.260118
-16.0,2451,12391.069586
-10.0,2591,12516.600731
-20.0,3077,12663.554399
-14.0,2241,12769.055706
-20.0,2062,12867.388369
-16.0,2580,12988.563491
-18.0,1562,13062.354611
-16.0,2197,13168.272436
-12.0,3016,13319.002789
-22.0,2368,13433.971197
-10.0,2837,13570.128445
-12.0,2335,13684.370998
-16.0,2627,13813.699692
-10.0,2863,13954.056715
-14.0,1809,14038.726962
-14.0,2326,14151.755931
-18.0,2004,14248.372711
-12.0,3149,14395.613587
-20.0,2446,14515.59037
-18.0,2318,14622.996593
-14.0,1767,14707.492785
-10.0,2654,14834.852233
-12.0,2703,14968.704633
-12.0,2251,15074.625072
-16.0,2127,15174.497612
-12.0,2574,15301.25624
-16.0,2706,15427.727736
-16.0,2573,15550.720363
-12.0,2398,15667.885839
-14.0,2323,15781.268811
-12.0,2069,15881.56097
-4.0,3044,16024.498258
-14.0,2693,16150.024678
4.0,2378,16261.54056
4.0,2838,16396.130704
-8.0,2267,16503.73376
-14.0,3345,16667.220698
-10.0,2090,16768.982895
-8.0,2316,16879.858806
-14.0,1942,16975.474895
-12.0,2572,17095.295978
-6.0,3424,17260.947311
-14.0,2391,17376.513306
-14.0,2307,17484.040242
-10.0,1948,17578.154835
-20.0,2511,17699.062875
-20.0,1947,17793.630213
-10.0,2130,17895.080483
-18.0,2589,18017.401852
-14.0,2463,18135.244736
-10.0,2298,18249.795884
-16.0,2180,18357.419678
-16.0,1950,18449.158659
-8.0,2267,18558.288896
-12.0,2643,18687.234343
-14.0,1817,18776.452873
-18.0,2206,18884.113752
-14.0,2442,19005.59162
-18.0,2697,19137.362288
-14.0,3041,19284.732514
-14.0,2455,19405.222032
-16.0,3753,19590.843051
-14.0,10578,20106.503415
-16.0,38159,21957.089785
-10.0,25749,23207.780084
-18.0,17370,24046.728731
-24.0,19711,24958.290913
-16.0,26564,26175.473539
-20.0,49982,28476.184124
-22.0,21638,29454.399625
-20.0,3345,29604.738615
-20.0,41662,31511.633909
-20.0,7662,31862.402488
-20.0,28546,33180.330913
-20.0,51458,35595.281047
-18.0,54850,38133.677212
-18.0,60627,40949.736063
-12.0,32358,42452.516258
-18.0,69455,45625.963636
-20.0,68689,48510.684194
-16.0,78398,51550.817329
-2.0,99999,55258.331641
-20.0,99996,58977.789745
-18.0,99997,62691.653167
-6.0,99995,66404.340676
-16.0,99994,70167.961188
-10.0,99998,73947.534823
-10.0,63568,76347.681202
-8.0,100000,80096.847738
-2.0,99999,83809.972903
2.0,99996,87595.409336
-16.0,69456,90616.406764
-12.0,99997,95118.991649
-14.0,99995,99215.648574
2.0,99999,102567.299526
