# {"t_start": 1546996462.6814673, "env_id": "DemonAttackNoFrameskip-v4"} 
r,l,t120.0,721,21.037774
235.0,958,41.966891
280.0,3915,129.504239
50.0,274,135.767138
80.0,471,145.63901
250.0,869,166.153882
110.0,515,178.246768
160.0,1389,212.761775
190.0,816,233.012031
150.0,629,249.676299
355.0,1065,276.985966
265.0,1082,303.642205
90.0,583,318.317883
150.0,1036,345.593868
190.0,746,364.603386
120.0,731,383.133686
355.0,1589,424.107308
190.0,978,449.654634
205.0,835,472.807072
140.0,742,491.574857
205.0,636,509.123144
90.0,778,529.130374
130.0,550,543.376134
80.0,348,552.15401
160.0,749,570.905703
60.0,406,581.516606
70.0,504,594.402064
150.0,551,608.09114
235.0,711,626.300655
205.0,836,648.415536
310.0,1146,677.853161
120.0,673,694.811779
280.0,1481,731.687733
175.0,855,753.705178
160.0,630,769.562887
190.0,636,785.958089
205.0,890,808.61669
120.0,491,821.47054
540.0,1822,868.357156
220.0,861,890.365525
325.0,1068,917.495139
120.0,642,934.305847
310.0,1178,964.765648
235.0,911,988.474755
80.0,428,999.536084
370.0,966,1024.806131
150.0,802,1044.951041
280.0,958,1069.173122
160.0,553,1084.05771
220.0,742,1102.726564
90.0,456,1114.576397
110.0,659,1130.938966
265.0,1423,1167.83041
190.0,857,1189.646571
295.0,1143,1220.538514
235.0,922,1243.201474
1060.0,2217,1300.888386
190.0,912,1323.988988
120.0,877,1345.686161
250.0,928,1370.424698
140.0,740,1388.293856
130.0,898,1412.828395
90.0,388,1423.104939
400.0,1612,1464.589408
420.0,1331,1498.907063
295.0,1050,1526.287214
860.0,1462,1565.10981
325.0,1233,1597.427761
325.0,1265,1629.543122
420.0,1497,1667.644557
220.0,1054,1694.914094
205.0,1144,1723.736796
265.0,1682,1768.283646
220.0,1054,1795.756317
385.0,1173,1826.791523
140.0,655,1843.389015
100.0,618,1859.829064
90.0,453,1871.623227
100.0,806,1892.839586
310.0,1304,1924.660109
120.0,517,1937.422815
325.0,1506,1975.578515
295.0,1244,2009.368824
140.0,804,2029.46208
110.0,594,2044.681943
190.0,784,2064.694269
340.0,1594,2106.967985
250.0,955,2131.858486
340.0,1101,2159.981976
720.0,1642,2201.646535
220.0,1002,2226.615711
370.0,1501,2264.683286
250.0,932,2288.278001
355.0,1263,2320.810501
60.0,474,2332.927084
385.0,1485,2371.291801
580.0,1861,2420.760948
150.0,503,2433.199659
295.0,1188,2463.630109
310.0,1234,2496.191154
150.0,584,2510.892905
540.0,1935,2560.248147
325.0,1828,2607.721326
340.0,1471,2645.478041
355.0,1475,2682.790841
880.0,2251,2741.012291
420.0,1985,2792.606202
1060.0,1777,2840.133045
740.0,1892,2890.093226
580.0,1953,2940.698205
580.0,1705,2983.554888
440.0,1347,3018.715184
400.0,1348,3054.783114
760.0,2168,3111.188637
205.0,1007,3137.323083
1800.0,2803,3208.250084
385.0,1779,3254.747007
280.0,909,3277.793669
265.0,1164,3307.763936
1140.0,1690,3351.896496
250.0,1129,3381.202164
190.0,791,3401.865609
1400.0,2194,3457.461145
295.0,973,3481.547491
340.0,1005,3506.453614
370.0,1254,3539.0577
295.0,1046,3567.116742
400.0,1303,3601.187527
280.0,1156,3630.561037
620.0,1391,3667.375546
500.0,1391,3704.347376
280.0,1196,3735.72007
355.0,1187,3767.198904
355.0,1397,3802.727586
620.0,1652,3845.105655
355.0,1300,3878.035409
250.0,1391,3913.881419
1460.0,2633,3983.45344
370.0,1356,4018.451356
150.0,751,4037.393134
140.0,581,4051.340804
370.0,1326,4085.72874
1460.0,2192,4142.700926
235.0,953,4166.568075
205.0,949,4190.526962
640.0,1529,4231.115911
540.0,1601,4272.485429
600.0,2213,4329.419553
1160.0,1872,4377.095493
760.0,1833,4424.533995
295.0,1362,4459.747062
580.0,1570,4499.911476
1100.0,1977,4551.028613
120.0,612,4566.7714
580.0,1494,4605.242885
250.0,753,4624.618931
370.0,1158,4655.362939
1140.0,1722,4699.366726
1060.0,1782,4746.133448
480.0,1425,4783.646625
385.0,1329,4818.1121
370.0,1265,4850.493109
295.0,1248,4882.891044
1600.0,2443,4945.49556
620.0,1466,4983.694683
400.0,1447,5021.224634
355.0,1193,5053.066795
880.0,2019,5103.702101
1680.0,2389,5165.526868
250.0,1112,5193.558949
220.0,1252,5226.697133
3930.0,3864,5326.605797
50.0,281,5333.606308
820.0,1474,5372.986312
355.0,1155,5402.158625
600.0,1791,5447.507646
120.0,579,5462.416467
2190.0,2995,5540.378895
310.0,1495,5578.914087
540.0,1630,5621.091736
400.0,1285,5654.037707
720.0,1734,5698.535717
1680.0,3019,5775.868211
370.0,1087,5802.438372
1080.0,1950,5852.704914
325.0,1228,5884.143609
295.0,1497,5922.359477
400.0,1899,5972.298176
800.0,1705,6016.237075
680.0,1520,6055.858813
1900.0,2857,6129.864628
175.0,642,6146.67484
1100.0,2307,6204.737175
205.0,1066,6232.484064
1640.0,2309,6293.406888
1140.0,1661,6335.605416
580.0,1531,6374.242461
1880.0,2839,6448.208177
280.0,1016,6475.206904
1060.0,2166,6530.878012
660.0,1639,6573.729084
1040.0,2423,6637.42046
370.0,1384,6673.026769
900.0,1592,6714.254677
175.0,750,6732.793115
800.0,2003,6784.431854
310.0,1156,6813.8424
2125.0,3101,6894.262074
940.0,1694,6937.837058
1460.0,1941,6987.961198
280.0,1176,7019.38931
1000.0,1801,7065.463848
920.0,2111,7120.480488
1700.0,2204,7177.480909
560.0,1702,7221.378648
500.0,1687,7265.701698
1880.0,2425,7329.382872
1040.0,1514,7367.819477
620.0,1724,7413.092595
1520.0,2898,7489.266993
1400.0,2874,7563.294928
220.0,894,7586.308864
3185.0,3863,7685.047696
3910.0,4056,7789.394723
2425.0,2941,7863.636902
2695.0,3181,7946.92467
780.0,1939,7996.466234
1955.0,2404,8059.117198
3115.0,3968,8161.345961
250.0,1232,8193.032168
820.0,1786,8240.238181
2875.0,3345,8327.099205
385.0,1066,8354.439315
355.0,1267,8387.835943
2000.0,2338,8448.040189
3015.0,3576,8541.173179
1140.0,1723,8584.671476
4770.0,4488,8698.73781
1860.0,2418,8760.556791
3245.0,3565,8854.08234
280.0,1078,8882.59764
1820.0,2538,8947.610539
680.0,1791,8994.793711
900.0,1854,9043.180607
310.0,1343,9078.710041
1460.0,2500,9145.541886
840.0,1440,9182.513703
1380.0,2396,9244.633888
1840.0,2714,9315.713265
250.0,1104,9345.946963
1920.0,2590,9414.143313
1120.0,1860,9462.480668
2060.0,3045,9543.661609
960.0,2084,9599.725625
1200.0,2387,9663.977876
120.0,424,9675.608921
1400.0,1850,9723.687346
400.0,1024,9750.626016
130.0,625,9766.980687
340.0,1052,9795.064797
1160.0,1838,9843.160764
1420.0,2137,9897.824639
1480.0,2489,9961.761417
1540.0,2174,10019.459872
2160.0,2414,10082.434651
1420.0,2330,10142.384598
480.0,1569,10183.707016
5520.0,5567,10327.494087
1640.0,2260,10385.038155
520.0,1546,10425.839192
1820.0,2636,10494.58018
2695.0,2970,10572.477739
4860.0,3813,10671.193733
190.0,835,10692.615648
1780.0,2130,10747.516185
1520.0,2040,10801.997792
1980.0,2697,10872.252638
385.0,1361,10907.314014
3755.0,3588,11000.48522
540.0,1847,11048.548537
1040.0,1806,11094.79364
385.0,1686,11138.582054
600.0,1636,11181.578208
2960.0,2774,11252.504172
235.0,1065,11279.12346
2470.0,2825,11350.853291
1340.0,1931,11400.997025
6280.0,5137,11533.682015
580.0,2180,11589.154781
150.0,961,11613.177904
4750.0,4362,11727.166394
880.0,1755,11773.836608
1020.0,2373,11835.431297
400.0,1476,11876.013416
4110.0,3939,11977.071488
1040.0,1694,12020.854107
800.0,1847,12068.57531
1340.0,2132,12125.000093
2040.0,2503,12188.813628
6060.0,4666,12309.702207
580.0,1406,12346.261898
4420.0,4201,12453.981364
940.0,1681,12498.301922
2355.0,3196,12579.94291
5910.0,4817,12705.477336
2780.0,2754,12776.973702
1660.0,1980,12827.902087
3615.0,3477,12918.985563
2215.0,2662,12990.855589
2080.0,2680,13060.021809
420.0,1437,13097.166661
2780.0,2468,13160.222927
6930.0,4932,13287.43914
1140.0,1867,13336.203451
3020.0,3603,13430.305828
140.0,719,13448.482903
4260.0,5002,13577.133521
2625.0,2498,13642.369973
5500.0,3559,13734.583733
3365.0,3349,13819.611453
640.0,1845,13866.618021
3610.0,3923,13969.922862
1760.0,2335,14029.022876
340.0,1334,14062.948608
340.0,1060,14090.293081
1200.0,2005,14141.884475
1480.0,2400,14203.296295
4120.0,3660,14299.156922
2040.0,2686,14367.03127
1040.0,2084,14419.953384
1440.0,2805,14492.968667
4890.0,4038,14597.179983
1680.0,2652,14666.482103
3060.0,3601,14758.547588
5040.0,4179,14867.176686
480.0,2131,14921.219077
385.0,1051,14947.835585
1200.0,2353,15009.93359
370.0,1545,15050.350853
2155.0,2473,15113.876843
1280.0,1991,15164.043585
370.0,1195,15193.393807
1520.0,2223,15250.909104
720.0,1709,15294.57333
2940.0,2964,15371.859636
385.0,1340,15405.417629
1580.0,2706,15474.863606
1660.0,2390,15537.898225
680.0,1913,15586.183558
160.0,725,15605.075806
385.0,1428,15641.647524
2675.0,2919,15715.756491
5300.0,4262,15826.347095
3050.0,3300,15912.190311
2080.0,2770,15983.126908
2480.0,2843,16055.563476
1300.0,2220,16113.20265
2385.0,2642,16182.767158
1540.0,2101,16237.077942
140.0,723,16255.633069
2485.0,3019,16333.395619
2680.0,3006,16411.093241
540.0,1431,16447.383561
5820.0,4484,16563.362749
5880.0,4905,16692.391778
150.0,981,16717.581942
980.0,1921,16766.904122
520.0,1831,16814.897166
920.0,1471,16853.21439
880.0,1732,16897.508864
4860.0,3748,16994.82998
5360.0,3551,17086.73668
3080.0,3340,17173.497407
3230.0,3360,17258.352998
4390.0,3555,17350.429518
4165.0,3817,17450.372821
1160.0,1922,17500.512642
2240.0,2436,17564.210465
1440.0,2378,17625.68267
1820.0,2471,17689.13711
2185.0,2422,17750.707542
3970.0,3326,17839.373553
1280.0,1548,17879.808449
1260.0,1907,17929.801895
1800.0,2365,17990.604772
1280.0,1794,18036.598539
820.0,1460,18074.460418
4740.0,3285,18160.874027
640.0,1735,18206.075237
2405.0,2385,18267.64234
6080.0,3377,18354.171674
2705.0,2630,18421.945289
5430.0,4663,18542.428552
480.0,1307,18575.180459
440.0,1338,18608.585806
4110.0,3702,18705.864629
4150.0,3665,18800.612778
1540.0,2353,18861.822402
820.0,1552,18901.500814
120.0,510,18914.607544
6600.0,4436,19030.279959
2680.0,2758,19101.405092
4245.0,3266,19186.254134
1840.0,2250,19244.072122
3350.0,2749,19314.780921
1000.0,1670,19358.629359
4170.0,3758,19457.830749
940.0,1600,19498.879564
620.0,1830,19547.00937
1980.0,2273,19605.876528
980.0,1703,19650.2283
5600.0,3789,19747.779254
480.0,1445,19784.620364
5390.0,4269,19893.78525
4020.0,3087,19973.337971
3570.0,3105,20053.935874
3700.0,3531,20145.736053
2285.0,2674,20214.718218
4290.0,3583,20308.712813
4920.0,3953,20411.728507
1640.0,1897,20460.71519
2370.0,3010,20538.51144
220.0,769,20557.447449
2240.0,2336,20617.072356
355.0,1527,20655.86253
3565.0,3433,20746.593534
900.0,1857,20793.377806
1760.0,1938,20843.592448
2080.0,2980,20920.135343
3485.0,3358,21006.44087
2100.0,2308,21064.707145
4820.0,3705,21160.161016
1580.0,2029,21212.653856
1560.0,2264,21270.733248
1200.0,1930,21320.705518
4890.0,3707,21416.396864
3555.0,3160,21499.264437
340.0,1278,21533.551983
2140.0,2474,21597.083891
5300.0,3987,21702.415764
1020.0,1827,21749.906956
1920.0,2220,21807.985438
3870.0,3080,21885.879606
1420.0,2151,21940.166428
4440.0,3814,22037.121327
220.0,892,22058.793911
2100.0,2690,22129.436652
5060.0,3831,22228.705629
7575.0,5064,22359.50296
1620.0,2123,22413.741122
920.0,1819,22460.504425
1040.0,2054,22512.954949
1300.0,2014,22565.10521
1560.0,1943,22614.896389
3575.0,3383,22703.545253
3410.0,3907,22801.911536
6840.0,4147,22910.066918
5530.0,4071,23015.565284
8845.0,5799,23166.382692
6990.0,4113,23273.614301
4190.0,3148,23354.706388
5450.0,3808,23453.476509
1920.0,2312,23513.788887
2940.0,2809,23585.44192
5380.0,4024,23688.843779
7630.0,4921,23818.300119
3840.0,3170,23901.148815
4870.0,3368,23986.41958
6865.0,5239,24121.261226
2465.0,2293,24181.152357
4130.0,3889,24282.098122
7030.0,4580,24400.488394
385.0,975,24425.534467
4730.0,3353,24512.450207
1260.0,2224,24570.614378
205.0,969,24596.361316
5560.0,3257,24680.09089
700.0,1667,24723.877074
860.0,1771,24769.050209
8060.0,5116,24900.617898
2020.0,2369,24961.972537
3755.0,2951,25039.011505
1260.0,2071,25093.872778
760.0,1472,25132.81375
1480.0,1840,25181.394801
5050.0,3792,25279.78502
7570.0,4670,25400.538238
4670.0,3257,25485.202069
3880.0,3175,25567.485143
7955.0,4769,25691.810365
1360.0,1829,25738.467555
6250.0,3907,25840.970809
2060.0,1999,25893.574443
1560.0,2283,25952.939436
660.0,1613,25993.801094
5990.0,4328,26104.200051
2220.0,2533,26170.138395
5630.0,3927,26272.586547
6250.0,4426,26387.541007
6230.0,3764,26486.49451
1700.0,1982,26537.003053
3215.0,2696,26605.848809
1120.0,2112,26660.665516
1420.0,1887,26711.83122
5240.0,3501,26801.006168
4700.0,3774,26898.590474
1600.0,2290,26957.975497
4540.0,3630,27050.787039
1900.0,1973,27103.041538
5430.0,3718,27199.300604
420.0,1325,27233.755715
3940.0,2926,27310.870893
4640.0,2949,27386.979062
5270.0,3288,27472.989381
1720.0,1956,27523.948708
3335.0,3112,27603.939327
4660.0,3284,27691.107287
2585.0,2580,27758.397922
4600.0,3050,27836.79432
7010.0,4425,27951.095858
5820.0,3768,28047.942211
4760.0,3780,28145.338541
3890.0,3406,28234.350958
1380.0,2041,28286.794906
235.0,995,28312.637275
3050.0,3784,28412.810667
6610.0,3514,28509.81564
7645.0,5033,28642.698877
2695.0,2464,28709.957631
6310.0,4501,28825.46483
7350.0,4446,28941.221246
6970.0,4598,29058.66986
4330.0,3777,29155.85978
5190.0,4221,29265.050182
2385.0,2388,29326.612803
460.0,1406,29363.050415
2990.0,2213,29419.297887
1620.0,1839,29466.814148
7330.0,5057,29596.775122
5460.0,4459,29713.585715
1940.0,2008,29766.593932
5840.0,3827,29866.369893
5260.0,3331,29951.63296
6280.0,3903,30054.643893
7280.0,4354,30175.28224
8415.0,5256,30320.479105
5530.0,4061,30427.735108
1820.0,1915,30478.500456
5080.0,3567,30572.374515
4490.0,3507,30664.807681
4750.0,3838,30763.978336
7150.0,5564,30915.822202
4500.0,3893,31022.629679
3070.0,3028,31100.335204
5900.0,3802,31197.756754
9900.0,6180,31359.11275
4590.0,3585,31455.889823
5440.0,3273,31540.633374
4520.0,3360,31630.370325
7030.0,4940,31762.093029
1340.0,2061,31813.082508
5630.0,4106,31919.491995
4760.0,3720,32013.763511
720.0,1690,32057.122773
6810.0,4213,32165.595704
6980.0,4187,32274.135119
5350.0,3847,32373.761015
4830.0,3644,32468.309714
5010.0,3813,32568.160969
8580.0,4863,32699.231708
4860.0,3116,32782.015027
7410.0,4120,32891.872232
5070.0,3727,32990.970133
5240.0,3392,33078.268697
1240.0,1680,33124.834191
4770.0,3913,33232.682368
6670.0,4406,33354.664789
5070.0,3511,33450.232841
9305.0,5176,33591.326482
120.0,551,33606.975946
3370.0,2665,33679.95386
4090.0,3229,33768.166894
3335.0,2618,33838.951522
1020.0,1482,33878.28472
2905.0,2363,33942.049747
6480.0,4100,34054.311437
4970.0,3635,34151.845676
9195.0,4887,34285.105098
1100.0,1435,34322.402458
1860.0,2285,34382.453049
6730.0,3726,34478.793987
5720.0,3660,34573.753107
6010.0,3415,34661.960923
6010.0,3983,34763.170883
5460.0,3723,34858.405507
8395.0,4962,34986.936371
7835.0,4515,35103.809745
7785.0,4431,35218.804205
4240.0,3782,35317.480821
5360.0,4010,35421.630917
1240.0,1582,35462.67257
8250.0,4384,35576.526799
3300.0,2585,35643.623634
5080.0,3649,35738.358302
4600.0,3161,35819.327088
3235.0,2833,35891.71466
8705.0,4673,36013.782838
8255.0,4451,36129.882817
7540.0,4650,36249.720248
7100.0,3903,36350.587728
1740.0,1941,36400.253477
5880.0,3529,36491.980532
2120.0,2157,36548.579364
1740.0,2137,36603.741966
2355.0,2656,36670.60487
7455.0,4334,36780.867116
5750.0,3662,36875.534803
7655.0,4596,36992.220699
5520.0,3623,37086.989374
3300.0,2830,37160.023181
8650.0,5335,37299.40457
9080.0,4868,37425.326213
7030.0,4262,37533.444637
9995.0,5182,37664.217584
4690.0,3653,37758.104251
8385.0,4803,37883.233874
5080.0,3570,37973.925883
7295.0,4422,38089.137423
8315.0,4736,38211.191521
6320.0,4105,38316.557121
1600.0,1881,38365.08318
6330.0,4104,38469.906991
5340.0,3961,38572.355573
11630.0,6422,38736.151797
6100.0,3892,38837.93236
7880.0,4583,38957.500263
6330.0,3731,39051.150791
7140.0,4172,39160.134764
4870.0,3042,39239.139062
4230.0,3025,39316.240354
4350.0,2957,39392.138454
8495.0,5183,39527.941009
8680.0,5279,39664.377544
7555.0,4900,39790.983306
1300.0,1956,39843.171226
3150.0,2663,39912.210263
4045.0,3430,40001.318146
5850.0,4129,40106.748745
6990.0,4689,40227.967467
5580.0,3886,40327.744351
7645.0,4495,40443.890455
1340.0,2397,40507.303764
4265.0,3599,40599.058989
8980.0,5879,40749.156882
3625.0,2917,40824.99129
4000.0,3106,40903.942574
8675.0,5241,41038.756588
7785.0,4831,41164.535492
5480.0,3616,41257.885224
7140.0,4329,41370.670744
6380.0,3759,41468.063551
9330.0,5720,41617.319573
5870.0,4262,41727.143369
7220.0,4784,41852.43283
7940.0,5056,41985.243733
5300.0,3963,42088.467952
2785.0,2750,42157.927313
8255.0,4689,42282.122692
7535.0,5095,42412.798004
7870.0,4049,42518.335449
9790.0,5813,42668.627469
7795.0,4719,42789.681042
4470.0,3354,42877.572891
4610.0,3313,42964.399124
5840.0,3829,43060.815626
9645.0,5253,43195.098129
8610.0,5088,43326.709568
4380.0,3203,43408.718734
9950.0,5489,43549.968931
7205.0,4260,43660.777053
4400.0,3611,43755.323614
8350.0,4554,43870.595396
6180.0,3789,43966.887274
6545.0,3782,44063.634153
7420.0,4879,44190.511331
4720.0,3408,44281.768085
1820.0,2221,44344.386253
5820.0,3744,44449.022887
295.0,1059,44478.320843
7955.0,4551,44604.612066
7110.0,4522,44730.008498
5870.0,3775,44835.948254
7015.0,4951,44976.046589
9040.0,5133,45117.068958
8715.0,5610,45272.461186
9035.0,5355,45421.375789
1260.0,1533,45463.087769
10025.0,6730,45651.069905
8185.0,4912,45786.142879
6600.0,3959,45900.178483
6130.0,4074,46016.408004
5060.0,3612,46120.059063
6760.0,4676,46253.978301
6860.0,3642,46361.013064
9265.0,5502,46519.227322
6350.0,4457,46646.086846
3090.0,2519,46721.466604
5140.0,3108,46809.362613
5280.0,3958,46920.194707
8140.0,5173,47067.22764
7900.0,4569,47203.027712
7930.0,4941,47345.510369
3790.0,3304,47436.74586
7705.0,4465,47562.245444
8570.0,5208,47705.24323
6030.0,3965,47812.601736
5440.0,3608,47912.46363
15885.0,7150,48111.321571
7105.0,4312,48232.759293
8605.0,4698,48363.059286
9745.0,5359,48509.843055
2920.0,3073,48593.908406
6955.0,4017,48704.073374
8515.0,4721,48833.481354
8785.0,4953,48971.679855
14930.0,7620,49182.542379
6320.0,3918,49289.582588
7300.0,4729,49418.111503
9460.0,5224,49562.000462
7705.0,4271,49678.755766
10150.0,5263,49825.175793
6100.0,3905,49934.297273
2955.0,2443,50001.097379
6930.0,4172,50117.772888
10110.0,5900,50279.881881
13980.0,6689,50462.001109
9600.0,4411,50584.52103
5690.0,3791,50689.054039
9260.0,5299,50833.143124
7895.0,3937,50942.417928
5980.0,3369,51036.736134
9245.0,4348,51156.80987
7150.0,4013,51267.568409
9185.0,5137,51409.29931
9150.0,5275,51556.312844
10160.0,5872,51720.916742
10340.0,5917,51888.575352
2330.0,1977,51942.623652
7265.0,4178,52061.208031
6090.0,4310,52181.046893
25940.0,10909,52488.973261
7975.0,4274,52613.325517
10680.0,6038,52786.121061
8520.0,4434,52913.025932
13690.0,6835,53107.056008
7260.0,4757,53242.918775
17240.0,7731,53465.622171
9155.0,6028,53640.61231
18100.0,8612,53897.873343
8260.0,4663,54036.546559
12460.0,6499,54229.578346
9055.0,5722,54397.50175
9605.0,5536,54556.423599
9570.0,5222,54712.112514
28175.0,12337,55074.760932
10280.0,5522,55235.672863
9615.0,4819,55377.810899
7985.0,4872,55523.208987
6630.0,4389,55651.11093
4860.0,3134,55741.709204
6470.0,3923,55861.83497
9110.0,5078,56011.452878
9395.0,4913,56153.814228
9865.0,5109,56308.204087
11760.0,5955,56482.551421
8905.0,4945,56629.839108
10680.0,5211,56782.708432
10300.0,5840,56953.491986
12800.0,6898,57154.15389
8435.0,4555,57284.472464
8055.0,4508,57410.646953
1100.0,1467,57451.794447
7530.0,4555,57580.911996
12790.0,6242,57758.55267
9250.0,4849,57896.108897
11270.0,5748,58056.791459
9695.0,5209,58203.593728
10610.0,5046,58343.388642
9635.0,5027,58484.0665
10115.0,5221,58630.22086
8120.0,4415,58754.590588
9615.0,4984,58890.332464
9865.0,5110,59034.477595
19010.0,8040,59260.202715
9620.0,4769,59391.50884
9135.0,5438,59545.410465
10020.0,5621,59703.111755
5780.0,3396,59799.291126
7175.0,4765,59934.1863
7400.0,4077,60051.29278
8555.0,4602,60179.882029
11340.0,5618,60336.203333
18450.0,8095,60567.029103
9430.0,4969,60707.271313
8920.0,5040,60845.58516
8625.0,4391,60970.05766
8875.0,4698,61101.716265
18530.0,8112,61325.100584
13840.0,6400,61505.849639
16610.0,7108,61704.693835
8175.0,4528,61830.068004
11110.0,6344,62009.409284
7640.0,4467,62133.0439
10890.0,5332,62282.549952
9165.0,5017,62420.744451
8940.0,5322,62565.976654
11910.0,5777,62725.59791
14750.0,6796,62912.361228
10930.0,5706,63069.209602
11820.0,6196,63241.177265
18660.0,8820,63480.192663
8335.0,4784,63606.92353
10225.0,4959,63742.686132
8460.0,4366,63859.563625
9580.0,5022,63998.318441
24040.0,8434,64226.274416
9950.0,4816,64357.928295
5060.0,3108,64442.584362
10320.0,5858,64604.415284
22280.0,9301,64856.581351
10440.0,5469,65006.454793
7710.0,4203,65121.957915
16480.0,7668,65325.90155
9175.0,4858,65459.734481
27355.0,11387,65766.181231
19600.0,7801,65976.646133
16730.0,7825,66190.701279
7515.0,4651,66317.17388
10200.0,5216,66462.199644
7460.0,4041,66576.162051
23780.0,9131,66827.479095
7435.0,3934,66933.914272
