# {"t_start": 1552429693.3780293, "env_id": "BreakoutNoFrameskip-v0"} 
r,l,t
2.0,203,20.601674
4.0,281,31.438503
0.0,129,36.075329
1.0,155,41.806742
0.0,123,46.303669
1.0,173,52.812951
1.0,168,59.004176
0.0,127,63.647243
1.0,157,69.802638
1.0,181,76.867825
1.0,157,82.844362
0.0,129,87.409785
2.0,204,95.15559
2.0,194,102.372205
0.0,122,106.704655
0.0,127,111.26237
0.0,125,115.883309
4.0,308,143.323855
2.0,206,150.971773
2.0,200,158.213405
3.0,250,167.580292
4.0,244,176.391126
2.0,200,183.661874
3.0,232,192.592002
1.0,155,198.150737
0.0,129,202.937724
1.0,157,208.667042
0.0,127,213.17712
4.0,297,224.510293
1.0,157,230.702067
1.0,173,237.466717
1.0,176,244.059783
3.0,248,252.978901
1.0,153,274.801188
1.0,175,281.513741
0.0,129,286.168089
0.0,129,291.258324
0.0,129,295.912057
0.0,129,300.541071
4.0,271,310.722495
1.0,172,317.285961
2.0,205,324.970341
2.0,202,332.871842
4.0,296,344.255801
0.0,127,348.721069
0.0,127,353.180679
5.0,348,366.763951
0.0,127,371.918108
0.0,129,376.60815
1.0,155,382.87398
1.0,175,405.648768
2.0,201,413.192595
1.0,171,419.70764
3.0,216,427.69717
1.0,175,434.197
0.0,127,438.804433
2.0,224,446.983008
0.0,127,451.493954
1.0,171,457.904222
1.0,175,464.292336
3.0,249,473.953811
0.0,127,478.778248
4.0,296,490.198105
2.0,222,498.546294
0.0,129,502.768078
0.0,127,507.247214
2.0,222,531.647674
3.0,248,541.577364
1.0,153,547.278004
0.0,127,552.136973
3.0,252,562.012715
2.0,195,569.097761
2.0,222,577.469411
0.0,125,582.172405
2.0,221,590.386456
3.0,220,598.562634
0.0,129,603.246835
2.0,202,610.922842
0.0,127,615.274767
0.0,127,619.82889
4.0,277,630.391259
2.0,203,638.381673
0.0,129,643.305585
0.0,127,663.334473
0.0,127,668.01083
3.0,254,678.285636
2.0,202,685.971562
3.0,250,695.965956
2.0,224,704.671213
1.0,153,710.626684
2.0,187,717.491924
2.0,213,725.563522
1.0,173,732.19774
0.0,127,736.525338
2.0,203,744.128779
1.0,173,750.76709
0.0,127,755.2504
4.0,327,767.648367
2.0,222,793.710867
4.0,297,804.999917
0.0,129,809.805091
0.0,125,814.284292
0.0,127,819.355199
0.0,129,824.079596
0.0,127,828.660723
1.0,155,834.520523
0.0,127,839.040695
2.0,225,847.560584
0.0,129,852.376413
2.0,200,859.525613
0.0,127,864.070571
1.0,152,869.312923
0.0,129,874.324269
3.0,255,884.255363
1.0,155,889.984393
1.0,175,896.617537
1.0,177,903.53105
2.0,205,926.735685
0.0,125,931.854714
1.0,173,938.247829
0.0,129,943.078943
0.0,129,947.758958
4.0,278,958.906168
0.0,127,963.576607
0.0,125,967.903297
1.0,152,973.627127
1.0,157,979.707054
4.0,299,991.667798
0.0,129,996.294911
0.0,129,1000.727137
1.0,171,1007.02143
0.0,127,1011.771473
1.0,157,1017.547019
1.0,175,1024.039443
1.0,155,1030.202906
1.0,173,1037.502199
2.0,207,1061.33499
0.0,123,1065.843139
1.0,157,1072.024278
3.0,253,1082.651381
0.0,129,1087.365395
2.0,204,1095.169353
3.0,250,1104.988366
0.0,129,1109.682794
1.0,173,1116.630711
0.0,129,1121.084519
0.0,129,1126.048683
1.0,170,1132.286285
1.0,156,1137.896781
2.0,206,1145.700661
1.0,175,1152.655106
1.0,175,1158.761883
3.0,230,1167.49596
2.0,205,1192.252881
0.0,125,1196.880191
0.0,127,1201.445745
1.0,172,1208.196831
2.0,206,1215.917728
2.0,224,1224.058663
0.0,129,1229.100281
0.0,123,1233.540587
1.0,175,1240.137336
0.0,129,1244.892089
1.0,177,1251.459514
0.0,125,1255.9315
3.0,251,1265.834419
0.0,129,1270.336769
0.0,127,1274.917766
0.0,127,1279.3929
3.0,252,1289.267568
2.0,185,1296.302872
1.0,173,1302.675521
0.0,129,1322.632177
1.0,173,1329.362186
2.0,203,1337.052181
0.0,127,1341.58767
7.0,402,1357.245848
4.0,301,1368.288225
1.0,176,1374.991318
0.0,125,1379.204744
1.0,173,1385.465725
3.0,270,1396.03391
2.0,222,1404.425184
2.0,222,1413.268785
2.0,187,1420.638534
0.0,123,1424.824788
1.0,176,1431.653859
2.0,201,1456.37335
1.0,156,1462.106637
2.0,198,1469.561058
2.0,214,1477.891096
4.0,279,1488.652971
2.0,198,1496.23895
0.0,127,1500.960732
0.0,129,1505.586269
3.0,250,1515.262389
5.0,350,1528.412888
0.0,127,1532.77542
1.0,158,1538.465406
1.0,155,1544.240366
6.0,362,1557.949692
1.0,175,1580.564947
1.0,191,1587.862946
4.0,317,1600.191967
5.0,330,1612.670621
0.0,125,1617.121162
3.0,251,1626.588227
0.0,127,1631.175009
0.0,127,1636.066339
0.0,127,1640.503881
0.0,129,1645.092165
2.0,200,1652.83732
4.0,325,1665.240164
0.0,127,1669.734847
0.0,127,1674.164969
3.0,254,1683.839449
0.0,125,1688.491502
0.0,125,1707.839123
9.0,365,1722.160133
0.0,125,1726.647053
1.0,175,1733.044296
0.0,129,1737.635548
0.0,127,1742.494178
0.0,129,1747.036592
3.0,249,1756.418982
0.0,127,1761.062728
0.0,129,1765.770528
0.0,125,1770.507828
0.0,127,1774.840794
4.0,298,1786.938533
1.0,176,1793.821477
0.0,127,1798.31731
2.0,200,1805.507452
1.0,173,1811.700082
0.0,125,1815.782286
4.0,302,1844.185852
0.0,127,1848.756805
0.0,127,1853.043718
3.0,251,1863.325149
1.0,157,1868.828185
5.0,334,1882.826706
2.0,200,1890.448554
0.0,125,1895.210937
2.0,205,1903.780745
1.0,174,1910.59915
1.0,175,1917.760971
4.0,282,1928.396685
3.0,230,1937.169966
2.0,204,1944.711758
0.0,125,1949.461455
3.0,253,1976.034966
0.0,127,1980.383467
0.0,127,1984.95453
3.0,253,1994.478119
2.0,198,2002.212099
1.0,155,2007.653022
2.0,202,2015.09044
1.0,155,2020.719712
2.0,222,2028.930269
4.0,298,2041.056395
0.0,124,2045.207316
3.0,250,2055.588496
1.0,155,2061.453714
0.0,127,2065.844179
1.0,175,2072.410797
2.0,190,2079.346329
2.0,201,2102.127927
0.0,127,2106.603171
3.0,249,2116.520072
0.0,129,2121.431043
0.0,127,2125.978143
0.0,129,2130.419963
2.0,184,2137.239228
1.0,154,2143.12528
2.0,197,2150.262281
1.0,177,2156.8136
0.0,127,2161.634257
1.0,157,2167.010734
2.0,221,2174.994203
4.0,277,2185.701262
1.0,176,2192.169877
2.0,202,2199.672053
3.0,251,2208.697152
4.0,301,2236.951097
3.0,229,2245.299993
3.0,252,2255.336739
0.0,129,2259.643441
3.0,232,2268.343374
2.0,202,2276.001918
2.0,198,2284.060205
5.0,312,2297.190845
2.0,183,2304.096247
1.0,157,2309.498676
2.0,200,2317.044518
1.0,171,2323.334435
1.0,173,2329.626229
3.0,250,2339.054564
4.0,321,2368.021959
2.0,200,2375.625003
2.0,184,2382.324226
0.0,127,2386.800201
5.0,329,2399.016682
0.0,125,2403.480285
0.0,129,2408.180998
2.0,221,2417.140887
6.0,380,2431.904876
1.0,173,2438.18347
1.0,175,2444.810556
3.0,227,2453.951171
1.0,175,2460.47418
3.0,252,2470.021936
3.0,234,2495.516992
1.0,154,2500.947523
1.0,174,2507.537687
3.0,248,2516.955564
4.0,276,2527.487755
3.0,253,2537.119215
3.0,226,2545.473147
1.0,177,2551.896854
0.0,127,2556.212494
0.0,127,2560.47556
4.0,262,2570.175208
0.0,127,2574.656952
3.0,249,2583.761787
3.0,229,2592.362194
0.0,127,2596.670508
1.0,154,2617.394749
2.0,198,2624.732316
3.0,254,2633.760975
4.0,282,2644.130737
1.0,176,2650.394966
3.0,272,2660.831206
1.0,157,2666.390763
0.0,127,2670.868452
3.0,232,2679.55997
0.0,125,2684.05065
5.0,332,2696.612458
1.0,171,2702.514105
2.0,201,2709.860606
1.0,175,2716.413095
4.0,262,2741.920295
1.0,173,2747.781875
2.0,205,2755.024309
4.0,299,2765.507582
2.0,202,2772.643991
0.0,129,2776.916039
4.0,301,2787.534219
2.0,188,2794.232301
1.0,173,2800.259642
6.0,371,2813.80707
3.0,253,2822.428183
1.0,157,2827.581333
1.0,157,2832.725299
0.0,127,2836.866913
2.0,194,2843.058208
3.0,231,2864.547523
2.0,225,2871.923699
0.0,127,2876.131646
2.0,205,2882.792331
3.0,248,2890.634125
1.0,173,2895.935747
0.0,123,2899.331891
2.0,221,2906.058201
3.0,233,2913.128766
3.0,249,2920.785315
0.0,127,2924.208018
4.0,297,2932.903693
1.0,155,2937.51446
0.0,127,2941.199455
4.0,276,2963.470775
2.0,201,2969.43063
5.0,350,2980.470281
2.0,201,2986.237413
4.0,299,2995.344606
0.0,127,2998.795309
4.0,303,3007.72289
0.0,129,3011.135594
1.0,171,3015.742628
1.0,171,3020.429466
2.0,188,3025.495506
1.0,156,3029.691034
3.0,232,3036.383082
3.0,250,3043.304528
4.0,261,3063.915169
6.0,395,3074.208472
0.0,127,3077.382938
3.0,274,3084.345648
4.0,299,3092.184034
5.0,307,3100.031421
1.0,155,3103.66187
1.0,177,3107.970118
2.0,219,3113.563097
2.0,222,3118.953715
10.0,451,3130.587844
2.0,203,3135.47731
1.0,157,3152.2383
1.0,173,3156.430049
4.0,299,3163.968399
3.0,233,3169.755725
1.0,155,3173.461332
0.0,127,3176.529334
5.0,330,3184.729197
2.0,221,3190.224648
4.0,282,3197.760928
2.0,200,3202.748476
3.0,232,3208.533713
4.0,299,3216.466049
5.0,348,3225.212905
0.0,127,3240.779818
2.0,187,3245.299374
14.0,464,3257.373745
1.0,173,3261.725983
4.0,281,3269.044785
4.0,305,3276.77172
4.0,299,3284.69272
5.0,351,3293.299797
2.0,227,3299.130814
4.0,276,3305.863256
4.0,317,3327.013455
1.0,172,3331.321627
1.0,173,3335.777791
5.0,327,3344.328755
0.0,129,3347.22222
8.0,433,3358.101722
1.0,174,3362.204041
3.0,231,3368.088247
4.0,278,3375.11797
3.0,245,3381.504179
4.0,263,3388.226873
2.0,200,3393.194108
4.0,257,3399.867538
4.0,299,3421.165878
4.0,299,3428.579105
1.0,156,3432.415618
3.0,248,3438.837822
7.0,426,3449.893382
6.0,384,3460.042979
0.0,127,3463.020473
4.0,316,3470.912703
2.0,186,3475.568474
1.0,156,3479.291835
4.0,299,3486.632226
3.0,232,3506.005904
2.0,182,3510.464583
0.0,123,3513.333907
0.0,129,3516.308262
1.0,157,3520.215491
10.0,429,3531.124605
3.0,252,3537.654656
5.0,380,3547.1042
5.0,352,3556.095119
3.0,233,3562.065043
5.0,351,3571.193384
3.0,232,3576.996545
6.0,343,3598.159785
7.0,387,3607.657273
4.0,302,3615.787122
4.0,265,3622.546668
2.0,199,3627.510011
6.0,382,3637.593644
0.0,127,3640.748256
4.0,299,3648.23511
0.0,127,3651.306544
3.0,249,3657.535754
4.0,305,3677.610377
4.0,319,3685.84726
5.0,350,3695.085983
4.0,292,3702.610935
1.0,155,3706.308795
3.0,250,3712.374224
1.0,173,3716.364049
3.0,234,3722.36107
1.0,176,3726.922836
4.0,278,3733.799479
4.0,261,3740.462511
1.0,171,3744.731068
6.0,354,3767.440252
1.0,176,3771.698581
3.0,273,3778.741472
5.0,346,3787.288244
1.0,173,3791.430656
4.0,297,3799.05837
0.0,129,3802.223538
3.0,228,3808.259011
2.0,221,3813.766325
0.0,125,3816.617424
2.0,202,3821.650732
2.0,205,3826.949708
3.0,229,3832.5889
3.0,217,3837.785059
4.0,299,3859.359759
3.0,230,3865.292619
5.0,327,3873.414764
5.0,328,3882.163469
4.0,299,3889.805986
1.0,177,3894.071531
5.0,306,3901.566381
2.0,202,3906.349125
4.0,303,3914.184045
4.0,292,3921.750124
3.0,250,3928.109008
3.0,227,3946.58303
2.0,200,3951.450807
0.0,129,3954.436489
5.0,305,3962.113416
3.0,227,3967.870864
2.0,200,3972.65768
4.0,294,3980.017219
8.0,330,3988.661743
2.0,222,3994.564741
1.0,155,3998.542171
2.0,200,4003.561616
3.0,271,4010.283762
7.0,324,4030.691776
4.0,286,4038.110441
4.0,276,4045.226527
3.0,249,4051.82959
2.0,182,4056.269893
8.0,477,4068.518609
3.0,233,4074.652015
5.0,325,4082.332715
1.0,157,4086.13764
0.0,129,4089.159734
8.0,318,4097.117723
5.0,311,4118.263011
2.0,204,4123.459469
10.0,453,4134.872895
7.0,450,4146.186717
6.0,396,4156.662862
3.0,228,4162.244653
1.0,172,4166.503868
2.0,209,4171.550369
4.0,278,4178.787097
3.0,218,4184.252308
4.0,262,4191.031815
4.0,293,4211.806272
1.0,155,4215.415816
1.0,175,4219.600663
5.0,308,4227.656513
2.0,222,4233.354458
2.0,204,4238.438202
4.0,302,4246.053425
0.0,125,4248.924147
4.0,296,4255.895285
1.0,178,4260.766624
0.0,127,4263.83569
6.0,355,4272.535661
3.0,250,4278.871729
2.0,202,4297.50227
12.0,393,4307.684392
1.0,155,4311.533703
3.0,250,4317.697686
4.0,275,4324.124038
3.0,253,4330.516951
2.0,193,4335.13429
3.0,248,4341.762757
6.0,359,4351.042989
2.0,201,4355.91987
4.0,280,4363.123766
3.0,250,4382.212903
1.0,152,4385.765502
2.0,207,4390.711874
0.0,125,4393.660549
4.0,262,4400.53248
4.0,295,4407.927935
3.0,253,4414.245323
3.0,212,4419.855144
2.0,204,4425.034256
1.0,158,4428.965994
1.0,154,4432.490059
7.0,429,4443.350271
1.0,155,4447.074515
2.0,206,4452.285181
2.0,202,4469.925164
4.0,269,4476.963835
2.0,203,4482.019691
2.0,220,4487.342534
5.0,328,4495.601674
4.0,258,4502.136011
7.0,412,4512.576545
5.0,324,4520.597614
1.0,155,4524.338506
9.0,419,4535.457652
7.0,267,4554.98682
5.0,327,4563.334875
2.0,184,4567.660465
2.0,185,4572.100592
7.0,408,4582.928962
3.0,246,4588.999545
6.0,342,4598.158684
4.0,319,4606.36537
4.0,317,4614.696452
4.0,299,4621.890132
3.0,250,4628.160784
5.0,348,4651.087896
9.0,461,4662.863985
6.0,371,4672.40907
6.0,398,4682.294908
6.0,381,4692.009105
4.0,263,4698.849688
4.0,299,4706.189483
5.0,333,4714.736245
10.0,339,4736.693342
4.0,277,4744.368321
3.0,234,4750.813427
5.0,290,4758.661365
4.0,260,4766.028
5.0,330,4775.456164
6.0,375,4786.087062
11.0,480,4799.459974
3.0,251,4806.356332
3.0,274,4826.881086
5.0,349,4836.679148
11.0,450,4849.58368
4.0,294,4857.703528
4.0,277,4865.023759
2.0,185,4869.651359
6.0,381,4879.846184
3.0,253,4887.144731
3.0,234,4893.563722
2.0,198,4898.558808
1.0,157,4902.718213
2.0,200,4921.919666
6.0,340,4931.123249
6.0,400,4941.857519
5.0,311,4950.481176
10.0,449,4963.415204
4.0,262,4970.577174
6.0,357,4980.633633
3.0,252,4987.470905
8.0,353,4997.563708
3.0,216,5017.327132
4.0,305,5026.024477
3.0,274,5033.683182
7.0,381,5044.172352
4.0,285,5051.996285
2.0,202,5057.429675
4.0,298,5065.334552
1.0,157,5069.596471
4.0,316,5078.344775
3.0,250,5085.23116
6.0,357,5095.268677
3.0,232,5114.566732
3.0,249,5121.435826
8.0,406,5132.502943
3.0,249,5139.292678
3.0,249,5146.266507
10.0,357,5156.20069
3.0,250,5163.247338
5.0,314,5171.875786
5.0,324,5180.734286
5.0,325,5202.881286
9.0,378,5213.245563
4.0,303,5221.777167
7.0,395,5233.146928
3.0,274,5240.567602
5.0,310,5248.87033
6.0,401,5258.832936
5.0,350,5267.732986
4.0,278,5275.017961
6.0,403,5298.933887
5.0,311,5307.053677
5.0,317,5315.283741
6.0,334,5323.434154
6.0,373,5333.260975
4.0,264,5339.928688
4.0,283,5347.073364
5.0,292,5354.655534
3.0,254,5361.063716
5.0,328,5369.064086
4.0,280,5390.944235
5.0,350,5400.280329
7.0,430,5411.822998
7.0,429,5422.816075
6.0,379,5432.237535
5.0,372,5442.018863
4.0,263,5449.04495
2.0,201,5454.295678
2.0,202,5459.333063
7.0,386,5483.335582
7.0,427,5494.800783
6.0,374,5504.334079
7.0,451,5516.988758
5.0,274,5524.495201
10.0,545,5539.457536
6.0,360,5549.66917
3.0,216,5567.835568
4.0,281,5575.020928
5.0,349,5585.058114
3.0,252,5591.764673
6.0,373,5602.087613
6.0,359,5611.762206
5.0,306,5619.690364
6.0,379,5629.414008
3.0,250,5636.621368
2.0,184,5641.321439
6.0,352,5664.313925
7.0,250,5670.87777
5.0,350,5680.107459
5.0,351,5689.19732
5.0,312,5697.114765
2.0,205,5702.099322
5.0,312,5710.03765
4.0,264,5716.909538
2.0,203,5721.912836
3.0,228,5727.567363
1.0,176,5732.220406
5.0,321,5754.15668
6.0,374,5763.507857
4.0,282,5770.81451
7.0,427,5782.048486
8.0,298,5789.61774
5.0,289,5796.797917
4.0,277,5803.685004
4.0,278,5810.326706
4.0,280,5817.212563
6.0,355,5839.602916
3.0,250,5845.995414
8.0,479,5858.657253
5.0,314,5866.161569
6.0,356,5875.023306
5.0,350,5883.786965
2.0,203,5889.03598
3.0,251,5895.452068
4.0,297,5903.020454
6.0,360,5925.713144
6.0,358,5935.683179
12.0,502,5949.29037
6.0,397,5960.198931
3.0,218,5966.302138
8.0,425,5977.540273
5.0,326,5986.31224
7.0,366,5995.43035
7.0,406,6021.065477
7.0,391,6031.80889
8.0,426,6043.308893
8.0,452,6055.286345
8.0,447,6067.201001
6.0,339,6076.806976
2.0,221,6082.417494
8.0,453,6108.959429
7.0,425,6120.075722
5.0,309,6128.621641
5.0,315,6137.355343
7.0,410,6148.203525
9.0,426,6159.953006
5.0,308,6168.017058
4.0,265,6174.98669
9.0,463,6201.244882
5.0,310,6210.046037
7.0,404,6221.053496
8.0,447,6232.720251
10.0,422,6244.258553
7.0,406,6255.66927
4.0,258,6262.427741
6.0,379,6273.154623
7.0,394,6297.330672
7.0,419,6308.808506
6.0,385,6319.553298
7.0,407,6331.034006
10.0,396,6342.004519
6.0,380,6352.435642
7.0,371,6362.638143
3.0,215,6368.124833
7.0,409,6392.837238
6.0,359,6402.580602
4.0,282,6410.260774
6.0,382,6420.789062
7.0,250,6426.959149
7.0,248,6433.381603
1.0,171,6438.075121
9.0,468,6451.017482
8.0,438,6462.980837
7.0,409,6487.593716
5.0,290,6495.525837
6.0,416,6506.963104
7.0,399,6518.223548
4.0,258,6525.531993
6.0,317,6534.062446
6.0,344,6542.994512
7.0,250,6549.672104
7.0,408,6575.153446
7.0,388,6586.020051
7.0,384,6596.818924
11.0,484,6609.835371
6.0,397,6620.374878
6.0,379,6630.750181
5.0,328,6640.201926
7.0,409,6651.186446
5.0,326,6674.125994
6.0,398,6684.585453
5.0,330,6693.837789
5.0,346,6703.328196
6.0,335,6712.663726
9.0,314,6720.932927
6.0,376,6730.82279
8.0,403,6741.570041
6.0,362,6765.873538
7.0,407,6777.029138
10.0,474,6790.056207
2.0,180,6794.68115
9.0,455,6807.153244
8.0,448,6819.038118
11.0,559,6835.114473
10.0,560,6863.793422
4.0,263,6871.13887
7.0,428,6882.526304
6.0,357,6892.564342
9.0,497,6906.840248
8.0,376,6917.111899
7.0,282,6924.770931
10.0,393,6948.48658
5.0,309,6956.900794
5.0,310,6965.442375
7.0,431,6977.045972
16.0,424,6988.502244
7.0,407,6999.405028
8.0,467,7012.335569
7.0,399,7023.251216
6.0,379,7046.759279
3.0,255,7053.56338
9.0,459,7066.250147
7.0,403,7076.974826
6.0,354,7086.700184
10.0,390,7097.49009
5.0,311,7105.905466
6.0,343,7115.319849
7.0,372,7139.28797
9.0,486,7152.910476
6.0,401,7163.847816
5.0,289,7171.684535
5.0,314,7180.074663
6.0,394,7190.607615
9.0,457,7203.39125
8.0,477,7230.714117
7.0,396,7240.935646
14.0,436,7252.862863
6.0,360,7263.189976
3.0,270,7270.306371
9.0,345,7280.225152
5.0,311,7288.371067
5.0,328,7297.36745
7.0,404,7322.181193
7.0,401,7333.473088
7.0,446,7346.071333
5.0,288,7353.49765
6.0,341,7362.816342
11.0,519,7376.666291
5.0,307,7384.797976
7.0,445,7397.435318
7.0,410,7421.926904
10.0,591,7437.287979
7.0,445,7449.60921
9.0,510,7463.995732
9.0,494,7477.437482
5.0,326,7486.225905
4.0,280,7507.014269
13.0,520,7521.149883
10.0,521,7535.886984
14.0,584,7551.457973
9.0,427,7563.046272
7.0,408,7574.141684
14.0,610,7604.994116
8.0,428,7616.424704
4.0,284,7624.047806
7.0,370,7634.113088
8.0,504,7648.479614
8.0,460,7661.469464
13.0,538,7690.454581
5.0,297,7698.792762
9.0,475,7711.767162
4.0,300,7719.760707
9.0,455,7732.438806
8.0,483,7745.02945
10.0,377,7755.008857
9.0,494,7783.148453
7.0,428,7794.693879
7.0,396,7805.337193
5.0,315,7813.84606
12.0,618,7831.168761
12.0,568,7847.095201
6.0,357,7856.505718
8.0,422,7881.6802
11.0,480,7894.920782
7.0,410,7906.022694
11.0,595,7922.730342
5.0,312,7930.872534
6.0,360,7940.328496
13.0,554,7969.046419
4.0,268,7976.418472
5.0,295,7984.530108
14.0,575,7999.648128
5.0,292,8007.644571
6.0,340,8017.157998
12.0,478,8030.147928
11.0,440,8042.71505
7.0,408,8066.458756
5.0,318,8075.119094
8.0,436,8087.140841
12.0,492,8100.804866
9.0,494,8114.533576
10.0,530,8129.001359
6.0,373,8152.730665
10.0,379,8163.145842
12.0,616,8180.150754
5.0,308,8188.094899
10.0,560,8204.407449
11.0,482,8217.687959
8.0,461,8230.583343
10.0,453,8256.802812
8.0,413,8267.930656
8.0,421,8279.984855
5.0,275,8287.605714
16.0,537,8302.071203
12.0,573,8318.217955
7.0,365,8342.342829
9.0,312,8351.236596
7.0,360,8360.697829
6.0,382,8370.855837
13.0,509,8384.381022
8.0,421,8396.39506
8.0,419,8407.850938
7.0,408,8419.07702
10.0,464,8444.628423
7.0,357,8454.370732
8.0,383,8464.850721
9.0,483,8478.396724
7.0,388,8489.166618
9.0,327,8497.476821
8.0,418,8508.43074
11.0,493,8535.056337
17.0,485,8548.590822
9.0,474,8561.131442
9.0,342,8570.214321
9.0,492,8583.770134
9.0,532,8598.827473
10.0,377,8622.083874
13.0,668,8640.740283
8.0,460,8653.60298
7.0,392,8664.216814
12.0,497,8677.517775
20.0,600,8693.525414
11.0,478,8719.709254
11.0,570,8735.408391
9.0,463,8747.95348
4.0,300,8755.846749
8.0,476,8769.027881
8.0,396,8779.590026
8.0,278,8800.89064
21.0,549,8814.906774
17.0,625,8832.848771
9.0,509,8846.488182
7.0,405,8857.551193
12.0,559,8872.677652
9.0,487,8900.268308
6.0,343,8909.523509
7.0,413,8920.990781
10.0,503,8934.600093
11.0,576,8950.287414
7.0,376,8960.645433
14.0,629,8992.685127
7.0,407,9003.460702
7.0,408,9014.766387
7.0,392,9025.795398
3.0,216,9031.327383
8.0,444,9043.729072
10.0,487,9056.743306
9.0,442,9082.082831
9.0,329,9091.051553
7.0,388,9101.746592
8.0,421,9113.237021
13.0,658,9130.933485
13.0,489,9144.559663
12.0,441,9156.828141
8.0,419,9181.551009
6.0,359,9191.144438
8.0,418,9201.756195
7.0,425,9214.127944
14.0,393,9224.719961
7.0,392,9235.387545
8.0,468,9248.254885
12.0,463,9273.854758
12.0,580,9290.484444
7.0,386,9300.843769
9.0,468,9313.203749
7.0,371,9323.259871
6.0,338,9332.721962
11.0,495,9359.69641
13.0,634,9376.701857
16.0,570,9392.38023
8.0,411,9403.549124
7.0,407,9414.969642
8.0,421,9426.659458
10.0,498,9453.912715
12.0,462,9466.874585
11.0,536,9481.423481
10.0,520,9495.860788
14.0,645,9512.705465
8.0,478,9526.414565
7.0,404,9551.857478
8.0,458,9564.004083
10.0,475,9576.947517
10.0,493,9590.56476
7.0,410,9602.070179
8.0,411,9614.880422
18.0,568,9645.901262
16.0,649,9664.0264
6.0,325,9673.132954
12.0,562,9688.279124
9.0,487,9700.950962
14.0,493,9714.533401
8.0,433,9742.434008
11.0,556,9760.35445
13.0,528,9778.990761
7.0,394,9793.533593
12.0,538,9812.977508
9.0,312,9824.236753
13.0,513,9863.035221
15.0,559,9884.475197
8.0,374,9899.285756
12.0,582,9922.495117
12.0,525,9942.9654
7.0,248,9952.280408
10.0,536,9993.62176
20.0,681,10020.509383
9.0,466,10038.487593
20.0,560,10060.197865
8.0,473,10078.976769
13.0,469,10117.947088
10.0,375,10132.202057
12.0,543,10153.637081
12.0,449,10170.857625
10.0,479,10189.401872
12.0,490,10208.874273
10.0,513,10229.326377
19.0,657,10274.710253
10.0,480,10293.347348
10.0,457,10311.417132
11.0,548,10332.561593
13.0,512,10352.329442
13.0,507,10390.441867
8.0,419,10406.32572
9.0,428,10423.68835
7.0,389,10438.778219
11.0,506,10458.656415
10.0,372,10473.02389
13.0,576,10514.922915
14.0,535,10535.823715
8.0,391,10550.800949
10.0,557,10572.161944
10.0,414,10588.846579
10.0,491,10607.959754
18.0,604,10649.918182
12.0,600,10673.513638
8.0,441,10690.714779
11.0,530,10711.7159
15.0,558,10734.122948
14.0,543,10754.900904
8.0,464,10792.077762
11.0,414,10807.661204
16.0,670,10833.409772
13.0,561,10855.392783
12.0,580,10878.239415
14.0,512,10916.675281
19.0,640,10941.826128
10.0,526,10962.594052
8.0,438,10980.024828
9.0,471,10997.885549
7.0,406,11013.529545
10.0,514,11052.95447
11.0,587,11074.775772
10.0,357,11088.084148
13.0,611,11110.959077
8.0,437,11127.358429
11.0,511,11163.980192
11.0,417,11179.573284
10.0,504,11198.324903
16.0,562,11219.445683
13.0,623,11243.130726
9.0,503,11262.0657
9.0,440,11297.361662
10.0,484,11315.233265
11.0,565,11336.163333
19.0,612,11359.639418
8.0,447,11376.40889
18.0,555,11397.466634
23.0,754,11444.106661
7.0,391,11458.486059
17.0,569,11479.395056
13.0,560,11500.191024
11.0,394,11515.752815
8.0,432,11549.274993
14.0,559,11571.030166
18.0,703,11597.719434
13.0,528,11617.518944
9.0,474,11635.1087
9.0,490,11672.102585
12.0,572,11693.598676
7.0,366,11706.98076
11.0,535,11727.048955
9.0,474,11745.191118
12.0,442,11761.389246
9.0,458,11797.405619
10.0,485,11815.668058
15.0,652,11839.839762
8.0,402,11854.700753
9.0,310,11865.817256
14.0,652,11890.250806
7.0,428,11925.894677
13.0,610,11948.91134
15.0,571,11970.111338
10.0,482,11987.954113
8.0,423,12003.812088
8.0,278,12013.753493
15.0,551,12053.294409
19.0,610,12076.265459
8.0,452,12093.588675
10.0,487,12111.991924
18.0,720,12138.797331
10.0,537,12178.634434
20.0,718,12206.154663
23.0,709,12232.785558
8.0,451,12249.662133
5.0,312,12260.575289
15.0,704,12306.504114
22.0,678,12332.395589
13.0,597,12354.94374
15.0,649,12379.421847
12.0,451,12395.838138
25.0,725,12442.787263
11.0,525,12462.028403
13.0,476,12479.944602
14.0,518,12499.803063
7.0,387,12513.901356
15.0,610,12537.540822
10.0,465,12573.794755
13.0,608,12596.217667
9.0,469,12613.244673
14.0,578,12635.098401
12.0,584,12656.668522
10.0,481,12692.08847
11.0,548,12712.900862
14.0,553,12733.044295
10.0,460,12749.847865
10.0,455,12766.44947
14.0,494,12784.944222
11.0,518,12822.800547
11.0,540,12843.209388
13.0,634,12867.774175
11.0,513,12887.068969
12.0,591,12909.001367
17.0,695,12953.03278
13.0,623,12976.248184
8.0,403,12991.724642
18.0,693,13018.244409
9.0,405,13033.417544
13.0,479,13070.064513
15.0,713,13097.112291
15.0,705,13123.886453
17.0,680,13148.762782
15.0,522,13186.775146
17.0,670,13212.130374
10.0,492,13230.373532
13.0,476,13248.551321
8.0,444,13264.994765
16.0,604,13287.58702
18.0,706,13332.299793
12.0,579,13354.304049
15.0,623,13377.847315
13.0,621,13401.596137
10.0,512,13439.229903
14.0,555,13460.378689
12.0,610,13483.865721
16.0,649,13508.167627
26.0,723,13536.355521
8.0,403,13570.135474
12.0,578,13592.057799
11.0,543,13612.490427
24.0,701,13639.397808
15.0,635,13663.905816
10.0,478,13699.361541
19.0,698,13725.591477
14.0,603,13748.040628
7.0,409,13762.887756
17.0,700,13789.441637
14.0,595,13830.456825
12.0,429,13846.269376
11.0,495,13865.269477
10.0,543,13885.74816
9.0,462,13901.932169
17.0,598,13924.478891
17.0,568,13964.498848
15.0,603,13987.734976
8.0,421,14004.067991
15.0,547,14024.836225
10.0,550,14045.678025
15.0,583,14084.810035
15.0,738,14113.395069
9.0,452,14129.423007
10.0,499,14148.39214
5.0,277,14158.248621
7.0,352,14171.573976
11.0,563,14211.146416
19.0,632,14235.317077
12.0,478,14252.9289
14.0,612,14276.124405
12.0,612,14299.348195
13.0,541,14338.261554
13.0,556,14358.567987
10.0,520,14378.248619
11.0,537,14398.230108
9.0,435,14414.302821
9.0,496,14432.739461
14.0,578,14473.232932
22.0,665,14497.945741
15.0,660,14522.577893
16.0,607,14545.725874
12.0,610,14587.44806
14.0,558,14607.931937
19.0,617,14631.374111
12.0,610,14653.892228
11.0,411,14668.934149
16.0,652,14711.804291
9.0,452,14728.775463
9.0,469,14746.30933
10.0,523,14766.091633
12.0,555,14787.105602
11.0,602,14809.688076
15.0,577,14850.606131
25.0,663,14876.484499
19.0,595,14898.570926
19.0,757,14927.293047
11.0,548,14966.921049
17.0,623,14991.238662
15.0,591,15013.543921
13.0,562,15034.64124
12.0,600,15056.991671
10.0,558,15097.671371
9.0,465,15114.79621
17.0,598,15137.624177
14.0,564,15158.616566
15.0,653,15183.474604
16.0,585,15224.9642
22.0,678,15250.783977
9.0,471,15268.278896
11.0,562,15289.260293
13.0,604,15312.488445
9.0,449,15348.977794
4.0,278,15358.973794
13.0,638,15382.781492
16.0,693,15409.423412
15.0,515,15428.632566
22.0,567,15449.690448
16.0,605,15491.435853
16.0,613,15514.002673
24.0,502,15533.393334
14.0,533,15553.372721
20.0,689,15598.360984
13.0,542,15619.121405
11.0,554,15639.387537
15.0,572,15660.691954
8.0,437,15676.98424
8.0,395,15691.976341
15.0,618,15734.175184
10.0,375,15748.318763
14.0,542,15769.448129
14.0,509,15788.702641
14.0,513,15807.531863
16.0,475,15825.018359
16.0,691,15870.285765
14.0,543,15889.825621
12.0,583,15911.875541
10.0,379,15925.959067
11.0,549,15946.541333
23.0,606,15988.161171
11.0,475,16006.008534
13.0,566,16026.83546
18.0,610,16049.771256
8.0,458,16066.635323
19.0,654,16110.94692
13.0,505,16130.226863
15.0,600,16152.786189
22.0,571,16174.012886
11.0,573,16195.464051
18.0,725,16241.653304
10.0,364,16255.185231
17.0,789,16285.972559
14.0,523,16305.428216
14.0,509,16324.074656
22.0,684,16368.880087
12.0,554,16390.035613
10.0,369,16403.90406
18.0,601,16426.128305
12.0,594,16448.634178
18.0,660,16493.104383
13.0,645,16516.894109
13.0,617,16539.99935
13.0,588,16562.141439
10.0,487,16579.925729
14.0,668,16623.638038
12.0,302,16634.617994
17.0,629,16657.935192
17.0,635,16682.040032
18.0,665,16706.881145
14.0,589,16747.461493
25.0,719,16774.595049
16.0,693,16800.87839
10.0,487,16818.760751
11.0,539,16839.810923
21.0,618,16882.676502
18.0,673,16907.953585
12.0,605,16930.768356
15.0,641,16955.007245
22.0,729,17001.822726
9.0,463,17019.216672
16.0,629,17042.603388
14.0,629,17066.332163
12.0,589,17088.647341
19.0,676,17133.157922
13.0,620,17156.57341
10.0,483,17174.537959
9.0,475,17191.857877
21.0,663,17217.915313
14.0,525,17256.801285
11.0,393,17271.607049
9.0,444,17288.313195
16.0,569,17309.450506
11.0,508,17328.717117
20.0,736,17375.7535
15.0,697,17402.044057
13.0,549,17422.400547
14.0,552,17443.1593
14.0,636,17466.550469
27.0,758,17513.856231
17.0,464,17531.11605
15.0,672,17556.125643
18.0,698,17582.223573
21.0,556,17603.239595
20.0,731,17648.907115
26.0,787,17678.94729
12.0,615,17702.475125
22.0,825,17752.641688
13.0,603,17775.260322
16.0,622,17798.13331
14.0,537,17818.300749
17.0,631,17842.332248
21.0,642,17884.762083
20.0,727,17913.080139
22.0,804,17943.21798
27.0,818,17974.209627
14.0,500,18011.544896
10.0,510,18030.461606
26.0,632,18053.251318
16.0,598,18075.095987
11.0,566,18096.521447
18.0,646,18140.082027
23.0,665,18165.161496
10.0,519,18184.340951
21.0,640,18208.402111
28.0,862,18260.187188
15.0,656,18284.658776
16.0,602,18307.236956
16.0,730,18334.84303
11.0,487,18352.88984
11.0,505,18391.112134
9.0,494,18409.727769
19.0,610,18432.702688
24.0,828,18464.518595
14.0,525,18484.251279
14.0,366,18516.066839
15.0,705,18542.417507
13.0,657,18567.182991
23.0,752,18594.785654
17.0,741,18642.876736
19.0,725,18669.82779
16.0,606,18692.41366
10.0,536,18712.748152
22.0,800,18742.922256
14.0,665,18786.778184
14.0,614,18810.165756
26.0,823,18841.000266
13.0,679,18866.354403
20.0,664,18910.92843
15.0,664,18935.376351
30.0,993,18972.912175
21.0,792,19022.629304
16.0,429,19038.410424
14.0,499,19057.239827
22.0,690,19083.543647
15.0,624,19107.233709
41.0,730,19153.211069
20.0,646,19178.013415
23.0,755,19206.361293
24.0,764,19234.593354
23.0,623,19276.323162
20.0,553,19298.277892
19.0,702,19325.893078
18.0,694,19352.097229
15.0,611,19375.616917
27.0,855,19427.169286
17.0,634,19451.385606
21.0,704,19478.266023
11.0,542,19498.594144
12.0,584,19538.327851
11.0,534,19558.305523
25.0,829,19589.818726
16.0,719,19617.09806
11.0,539,19656.690335
18.0,662,19681.224719
17.0,680,19708.310398
20.0,611,19731.226297
11.0,555,19752.025893
15.0,647,19795.765445
22.0,654,19820.277268
17.0,704,19846.288192
17.0,673,19871.745068
23.0,699,19917.097638
14.0,634,19940.416915
24.0,924,19975.600717
17.0,658,19999.807161
24.0,733,20045.607151
28.0,816,20076.175453
15.0,713,20102.800195
21.0,775,20132.186997
18.0,733,20178.630033
10.0,459,20195.689709
21.0,676,20221.222629
25.0,821,20252.879437
8.0,444,20287.696203
22.0,727,20315.353574
15.0,594,20336.814975
13.0,599,20359.498738
18.0,681,20385.003792
20.0,843,20435.649603
22.0,593,20458.073252
12.0,598,20479.987571
22.0,749,20507.835374
15.0,507,20546.502558
19.0,740,20574.145213
16.0,626,20597.816938
12.0,507,20616.709256
21.0,824,20665.896538
17.0,753,20694.032853
21.0,758,20723.031742
30.0,554,20744.203781
16.0,688,20770.181002
26.0,770,20818.317565
15.0,694,20844.366848
23.0,730,20871.945181
18.0,709,20915.979518
14.0,659,20941.429454
9.0,455,20958.305965
15.0,671,20983.203614
15.0,604,21006.102314
18.0,687,21049.735759
24.0,663,21074.471545
16.0,619,21098.213128
19.0,672,21123.129112
16.0,767,21170.661556
15.0,674,21195.464191
23.0,571,21216.72698
24.0,839,21248.875626
18.0,726,21294.07451
20.0,871,21327.374454
21.0,652,21351.927261
17.0,631,21375.650895
18.0,689,21419.509814
21.0,610,21442.479502
23.0,840,21474.549772
11.0,448,21491.283818
15.0,600,21513.464155
27.0,804,21562.303699
19.0,823,21592.895967
13.0,604,21615.918025
19.0,660,21640.76393
19.0,722,21686.978935
25.0,632,21711.329649
35.0,1016,21748.927029
23.0,833,21799.461263
19.0,703,21825.787529
13.0,565,21846.65258
16.0,602,21868.796007
19.0,681,21893.81016
15.0,657,21937.397752
33.0,756,21965.762573
28.0,708,21992.505204
23.0,735,22020.211624
11.0,549,22058.648325
20.0,811,22089.600122
15.0,634,22113.124935
15.0,712,22139.717975
10.0,455,22175.2665
18.0,668,22199.859237
29.0,823,22231.046552
17.0,622,22254.486781
18.0,673,22279.498728
25.0,864,22330.667094
22.0,689,22356.528724
20.0,686,22382.135502
17.0,566,22403.526883
39.0,1013,22460.077905
17.0,726,22487.748827
17.0,668,22512.633789
22.0,848,22563.524058
19.0,641,22587.70588
18.0,751,22616.898786
30.0,784,22646.455345
16.0,694,22691.89519
36.0,880,22725.005728
13.0,345,22737.88468
11.0,391,22752.151706
18.0,680,22778.111784
31.0,927,22832.045143
23.0,711,22859.107642
19.0,559,22879.507906
31.0,782,22908.865623
14.0,627,22950.721272
18.0,717,22977.59243
26.0,733,23004.766395
17.0,606,23027.726326
19.0,685,23072.283698
19.0,718,23099.291562
17.0,787,23128.702281
17.0,534,23148.603225
33.0,949,23204.016529
22.0,699,23230.626311
18.0,837,23262.980936
17.0,749,23290.799525
27.0,867,23343.110975
25.0,907,23378.332269
15.0,640,23402.322801
13.0,631,23445.023143
13.0,615,23468.066529
26.0,808,23498.569345
21.0,661,23522.99282
20.0,578,23544.651441
25.0,687,23589.741579
14.0,620,23612.99591
21.0,674,23638.035417
34.0,892,23671.326114
20.0,768,23717.751612
18.0,649,23741.992534
21.0,750,23770.273335
14.0,663,23795.314053
24.0,697,23840.824007
22.0,730,23867.789726
26.0,746,23896.680336
18.0,676,23921.627123
20.0,713,23966.955551
15.0,695,23993.407749
18.0,423,24009.591837
24.0,698,24035.471853
12.0,502,24073.978434
19.0,718,24100.851421
21.0,711,24127.582229
34.0,830,24159.315952
13.0,585,24200.712445
27.0,817,24232.117951
13.0,623,24255.125285
19.0,751,24283.547206
25.0,672,24327.070125
27.0,852,24359.19153
15.0,650,24383.384459
21.0,668,24408.515582
29.0,799,24458.481215
24.0,785,24488.370172
13.0,603,24511.135053
15.0,627,24534.922201
13.0,645,24578.481702
20.0,743,24606.107067
16.0,617,24628.815418
20.0,705,24654.924828
23.0,845,24704.874422
16.0,741,24732.120654
27.0,762,24760.785748
21.0,752,24788.656691
21.0,810,24838.420501
22.0,667,24863.442719
15.0,686,24888.791993
25.0,779,24919.360558
13.0,646,24961.858068
33.0,1023,25000.573143
19.0,690,25026.358953
16.0,593,25049.083994
23.0,807,25098.668331
25.0,784,25128.679619
23.0,784,25158.24622
16.0,711,25184.829498
26.0,661,25227.246976
17.0,719,25253.942684
20.0,703,25280.280473
15.0,581,25302.114423
18.0,761,25349.699682
22.0,667,25374.623077
26.0,823,25405.934599
18.0,646,25429.834576
21.0,660,25474.326145
31.0,823,25505.391531
32.0,826,25536.975996
22.0,795,25585.617381
23.0,822,25617.107173
22.0,772,25645.887868
22.0,677,25672.573871
21.0,657,25716.220227
16.0,690,25741.935583
20.0,798,25771.785755
15.0,647,25796.219769
17.0,668,25841.15596
22.0,816,25871.912868
25.0,690,25897.940101
22.0,708,25924.191455
23.0,677,25968.859714
21.0,802,25998.718676
14.0,504,26017.237447
23.0,777,26046.256295
30.0,850,26097.775148
14.0,626,26122.082902
17.0,747,26150.108707
30.0,898,26184.76118
12.0,560,26224.598829
45.0,941,26260.856251
19.0,716,26287.191523
12.0,573,26308.785124
29.0,886,26361.427385
26.0,999,26398.970942
14.0,535,26419.406724
25.0,756,26447.863024
23.0,729,26495.033385
33.0,865,26527.809501
21.0,752,26556.108136
25.0,957,26611.294905
28.0,823,26642.227566
19.0,727,26669.57979
16.0,681,26694.730007
25.0,812,26745.083192
12.0,517,26764.253684
30.0,826,26795.29549
17.0,584,26817.01169
21.0,801,26864.677588
18.0,732,26892.397837
25.0,969,26928.977273
18.0,604,26951.560619
30.0,929,27004.873742
15.0,525,27024.29605
24.0,707,27051.206522
35.0,917,27104.002124
21.0,761,27131.920474
18.0,727,27158.846318
11.0,572,27180.512659
18.0,786,27229.68288
28.0,718,27256.729283
34.0,989,27293.849502
24.0,629,27317.33341
29.0,873,27368.578494
31.0,903,27403.445226
29.0,718,27430.733453
19.0,549,27450.841494
33.0,712,27497.308493
21.0,796,27527.06479
15.0,603,27549.464985
28.0,706,27575.648793
25.0,898,27627.289961
33.0,848,27659.448258
18.0,792,27689.402701
25.0,819,27738.854456
23.0,579,27760.345217
29.0,745,27788.467833
29.0,888,27822.304767
31.0,957,27878.159953
41.0,1107,27920.592205
26.0,804,27950.888083
33.0,841,28001.220527
15.0,642,28025.047221
23.0,693,28050.995081
21.0,627,28074.329276
19.0,700,28119.065948
14.0,617,28142.396899
20.0,693,28168.803601
18.0,692,28195.525203
21.0,774,28242.566083
14.0,605,28264.994014
24.0,800,28294.985662
19.0,818,28325.522594
39.0,1086,28385.08141
27.0,821,28416.416276
21.0,720,28443.498639
13.0,482,28461.506978
34.0,971,28515.695942
18.0,587,28537.516866
25.0,937,28573.061455
18.0,749,28620.123635
24.0,725,28647.747486
26.0,799,28678.298499
30.0,956,28714.589662
29.0,963,28769.496092
22.0,826,28800.99098
24.0,694,28826.968514
20.0,798,28874.893743
33.0,1048,28914.707664
28.0,920,28949.474452
20.0,716,28995.869326
22.0,669,29021.119752
21.0,517,29040.312282
19.0,669,29065.279331
20.0,672,29090.411739
31.0,820,29140.468202
15.0,617,29163.436604
26.0,853,29194.550164
29.0,735,29221.725469
25.0,769,29267.739282
21.0,851,29300.047906
24.0,922,29335.279247
22.0,808,29384.481274
28.0,795,29414.419114
18.0,518,29433.722113
20.0,814,29464.556407
28.0,860,29515.235256
30.0,1001,29553.02749
18.0,796,29583.388805
27.0,881,29635.208265
17.0,730,29662.230976
33.0,919,29697.652672
40.0,1058,29756.537445
16.0,666,29781.541919
13.0,562,29802.536232
30.0,1009,29841.233688
52.0,1244,29906.037378
20.0,581,29928.474513
32.0,915,29962.960387
18.0,726,30009.146706
25.0,802,30039.100637
28.0,828,30070.879748
23.0,843,30103.056233
33.0,1105,30163.060365
34.0,838,30194.615599
32.0,888,30228.794618
27.0,783,30277.288147
25.0,743,30305.433928
27.0,888,30338.72339
24.0,874,30389.553693
28.0,863,30421.650709
40.0,1060,30461.134761
25.0,791,30510.410703
25.0,862,30542.842698
39.0,944,30578.352233
20.0,862,30611.260509
34.0,849,30661.001272
26.0,750,30689.77491
27.0,1011,30727.977388
23.0,829,30777.688763
46.0,995,30815.397468
33.0,716,30842.292416
35.0,846,30893.14094
24.0,916,30928.134574
40.0,1228,30974.458773
59.0,1262,31039.84016
32.0,974,31076.938621
29.0,662,31101.183215
29.0,645,31143.486136
19.0,593,31165.885466
27.0,835,31197.96582
53.0,1215,31262.804951
42.0,1090,31304.086657
34.0,971,31340.974008
19.0,777,31388.818854
48.0,1221,31435.479613
29.0,920,31470.211994
41.0,955,31525.291435
25.0,870,31557.505666
35.0,1062,31598.701459
39.0,1198,31662.227696
23.0,780,31691.229755
26.0,786,31720.196741
26.0,806,31769.276767
22.0,667,31793.968318
39.0,940,31829.914932
22.0,869,31862.725961
17.0,709,31908.046521
36.0,1015,31946.249282
32.0,869,31978.641025
38.0,1005,32035.394852
33.0,1015,32073.660947
27.0,944,32109.288166
30.0,914,32161.945482
22.0,890,32195.489181
29.0,1128,32238.076112
37.0,881,32290.359176
19.0,722,32317.377785
22.0,681,32342.523763
35.0,1012,32399.035647
31.0,1005,32436.817321
16.0,743,32464.044418
40.0,1024,32520.357231
23.0,717,32547.229996
30.0,972,32583.982011
39.0,1056,32625.946584
35.0,1014,32682.215329
52.0,1111,32724.748642
35.0,934,32778.660609
32.0,986,32816.465488
43.0,911,32850.681125
42.0,921,32903.856357
23.0,842,32935.527409
21.0,791,32965.354496
38.0,967,33001.714456
23.0,804,33049.730731
36.0,641,33073.467945
27.0,916,33108.444281
32.0,766,33155.275637
27.0,1167,33199.526194
24.0,788,33229.286874
52.0,1179,33292.014845
40.0,1212,33337.507078
32.0,859,33369.395355
19.0,702,33414.160025
34.0,1129,33456.678261
21.0,659,33481.86363
39.0,1167,33543.69387
27.0,973,33581.454454
23.0,811,33612.113783
21.0,740,33657.589147
39.0,1072,33698.743596
28.0,855,33731.2728
45.0,1069,33789.828533
22.0,715,33816.964487
29.0,903,33851.423907
38.0,971,33905.638796
36.0,790,33935.380596
41.0,911,33969.396606
40.0,1125,34029.785237
39.0,1134,34073.396646
12.0,564,34093.803671
27.0,955,34129.397538
47.0,903,34182.827461
32.0,914,34216.986627
28.0,781,34245.948267
31.0,886,34297.910532
39.0,1010,34336.297821
32.0,992,34373.564822
22.0,821,34423.386013
24.0,603,34445.456249
34.0,1011,34484.234266
43.0,1120,34544.331389
17.0,701,34570.888042
40.0,1197,34616.966335
24.0,901,34669.778492
39.0,1062,34710.710556
30.0,1130,34754.034081
22.0,791,34799.905499
39.0,1190,34845.127946
56.0,1279,34912.168832
26.0,752,34940.156342
18.0,657,34964.509353
32.0,1065,35004.236494
23.0,796,35052.324479
34.0,932,35087.805185
14.0,667,35112.990397
52.0,1286,35179.566503
50.0,1114,35221.342202
38.0,978,35257.603785
36.0,942,35310.614087
30.0,928,35345.201139
23.0,546,35365.937177
55.0,1356,35437.164849
22.0,714,35463.977137
48.0,1070,35504.099231
23.0,680,35548.346517
39.0,921,35582.832242
36.0,930,35617.374874
38.0,980,35672.769556
21.0,667,35697.556433
44.0,1115,35739.677604
25.0,762,35786.276163
31.0,870,35817.849203
22.0,659,35842.738524
30.0,957,35878.843644
31.0,954,35932.631287
21.0,709,35958.451628
35.0,855,35990.812646
20.0,882,36042.716216
17.0,728,36070.113685
32.0,923,36104.494246
28.0,632,36128.430467
44.0,1336,36197.481217
24.0,783,36227.876705
21.0,724,36254.704964
37.0,975,36312.067997
30.0,808,36341.685925
27.0,707,36368.078494
55.0,1298,36437.101879
32.0,867,36470.25895
34.0,1016,36508.780781
32.0,1013,36565.821825
41.0,824,36596.649712
23.0,875,36629.303314
43.0,1250,36695.93306
32.0,905,36729.979321
30.0,961,36766.109944
36.0,951,36821.182398
21.0,773,36850.448732
60.0,1348,36922.294082
38.0,929,36956.780067
43.0,1139,37000.335833
40.0,1212,37065.703313
36.0,943,37101.640757
36.0,1046,37141.111282
44.0,1129,37203.099749
37.0,951,37239.486601
26.0,854,37271.575238
51.0,1163,37334.790514
58.0,1234,37381.919086
38.0,1178,37445.398189
35.0,1021,37484.174139
38.0,1118,37526.354396
47.0,1019,37583.615061
41.0,1028,37622.400155
46.0,1031,37680.885929
17.0,666,37705.445401
27.0,705,37732.499225
33.0,964,37769.516876
27.0,862,37822.420143
51.0,1380,37874.60138
33.0,870,37907.407904
37.0,1055,37968.217491
24.0,829,37999.289311
64.0,1263,38066.195582
42.0,1053,38106.255796
41.0,1236,38153.088176
50.0,1065,38211.640695
38.0,1011,38249.568182
31.0,917,38283.853264
15.0,534,38322.6945
37.0,1112,38365.706196
52.0,878,38398.5084
44.0,1106,38459.979433
77.0,1565,38521.033272
21.0,761,38569.77609
73.0,1319,38619.733944
57.0,1431,38673.565645
54.0,1307,38743.268158
42.0,1098,38785.404462
47.0,1081,38845.260012
45.0,914,38879.396162
28.0,871,38912.738272
48.0,1307,38981.793253
34.0,918,39016.685893
24.0,642,39040.807709
39.0,987,39096.488226
22.0,920,39131.579327
45.0,1196,39176.038205
35.0,929,39231.433342
23.0,813,39262.232839
44.0,1179,39306.304174
43.0,925,39360.293584
40.0,1160,39405.001667
55.0,1074,39465.384523
34.0,1005,39503.426991
54.0,1318,39552.105551
40.0,1245,39617.580915
49.0,1199,39663.683405
32.0,891,39716.477764
30.0,821,39747.298131
32.0,927,39781.393625
37.0,1102,39841.810814
55.0,1274,39890.277906
38.0,1020,39929.750474
51.0,1386,40000.763087
51.0,1065,40040.29933
42.0,929,40095.993454
38.0,954,40131.438864
40.0,964,40167.415438
28.0,893,40219.989548
43.0,1165,40264.317101
40.0,1151,40306.930116
53.0,1259,40372.680462
40.0,1020,40411.169113
52.0,1156,40473.811502
37.0,1096,40515.490702
37.0,1090,40556.075057
47.0,1158,40620.337428
45.0,910,40654.437684
43.0,1105,40695.702669
54.0,1264,40762.10255
43.0,1158,40806.651444
30.0,953,40862.42458
27.0,981,40899.243424
42.0,1125,40941.603436
34.0,669,40987.409353
44.0,840,41019.493147
42.0,1148,41063.752711
69.0,1339,41133.140779
36.0,1053,41173.301474
24.0,811,41203.762931
35.0,1086,41264.789662
40.0,1136,41306.96473
25.0,747,41354.71508
39.0,1100,41395.887814
39.0,919,41430.36974
62.0,1406,41502.734524
42.0,1024,41541.210824
32.0,843,41573.614277
23.0,779,41621.830641
68.0,1441,41676.216248
36.0,1102,41737.83159
61.0,1097,41778.561543
26.0,827,41809.929441
58.0,1376,41882.180679
28.0,910,41916.885483
36.0,1182,41961.929941
35.0,752,42008.74666
47.0,1159,42053.193446
39.0,1164,42117.049996
53.0,1352,42168.966257
45.0,1216,42215.55817
38.0,1119,42276.545805
48.0,1221,42322.025489
75.0,1423,42397.169577
30.0,829,42429.400635
23.0,937,42464.20009
50.0,1142,42525.871602
40.0,1054,42566.064746
34.0,987,42622.901742
34.0,889,42656.17136
38.0,1013,42693.830415
28.0,718,42720.77768
33.0,953,42776.249471
50.0,1063,42815.618438
49.0,1131,42877.624521
37.0,1122,42919.867885
56.0,1197,42965.251351
38.0,1139,43027.300483
49.0,1061,43067.320245
58.0,1300,43134.731526
46.0,1136,43177.972321
73.0,1422,43251.138724
53.0,1347,43302.04919
27.0,937,43337.837169
36.0,1062,43396.676553
50.0,1280,43444.5905
61.0,1423,43517.071682
22.0,796,43547.260792
27.0,996,43584.532685
29.0,989,43640.655431
41.0,943,43676.344568
21.0,797,43706.326933
62.0,1486,43782.08929
45.0,1092,43822.737255
59.0,1395,43895.714684
48.0,1117,43938.613179
38.0,1184,43983.302574
33.0,688,44027.965755
47.0,1163,44071.619207
26.0,831,44102.557087
34.0,961,44157.016753
32.0,1089,44197.966019
59.0,1281,44265.361186
42.0,884,44299.018094
35.0,945,44334.647161
56.0,1238,44402.067725
60.0,1211,44447.115546
50.0,1071,44487.253237
57.0,1282,44554.417283
52.0,1298,44603.790442
19.0,689,44647.49933
38.0,1041,44686.272533
57.0,1380,44738.637951
36.0,825,44788.437949
23.0,689,44815.078444
27.0,929,44849.459434
59.0,1354,44918.918489
39.0,1109,44960.625563
58.0,1102,45021.389053
65.0,1303,45070.810963
46.0,1043,45110.329843
35.0,842,45160.007849
43.0,710,45186.311811
41.0,1013,45224.223824
54.0,1283,45292.154975
24.0,891,45325.802224
71.0,1585,45405.911265
55.0,1225,45451.588093
27.0,860,45484.341818
83.0,1723,45570.220675
48.0,1104,45611.927528
54.0,1027,45670.10601
48.0,1232,45716.680668
35.0,1134,45778.886823
45.0,1247,45826.503757
56.0,1220,45873.141849
57.0,1249,45939.981952
49.0,1316,45989.823569
48.0,1259,46056.939899
26.0,778,46086.171211
49.0,1224,46132.544955
30.0,983,46188.842789
47.0,1248,46236.979134
63.0,1004,46292.95114
34.0,1021,46331.746214
62.0,1387,46384.544142
35.0,866,46435.7491
45.0,1134,46478.572932
42.0,1173,46542.022875
29.0,985,46578.74635
58.0,1460,46635.220278
65.0,850,46685.946752
54.0,1280,46732.373476
59.0,1313,46797.912366
54.0,1334,46845.58348
38.0,1028,46899.903217
67.0,1271,46946.007957
71.0,1386,46996.185952
41.0,1010,47050.221715
63.0,1332,47097.600254
39.0,1069,47154.726491
49.0,1117,47194.969636
53.0,1318,47260.207782
72.0,1536,47315.372227
57.0,1315,47380.505942
49.0,1172,47422.61935
60.0,1127,47462.693485
37.0,1130,47520.138497
47.0,946,47553.888057
81.0,1535,47627.496092
27.0,933,47660.790176
50.0,1244,47705.356297
45.0,1015,47760.082355
33.0,954,47794.31451
42.0,1036,47831.230885
36.0,1112,47889.424557
57.0,1207,47932.249828
49.0,1128,47991.257067
40.0,1081,48029.987205
33.0,935,48063.47981
89.0,1395,48132.042218
50.0,1253,48176.452349
34.0,757,48221.332424
63.0,1356,48270.245677
54.0,1089,48309.101489
71.0,1511,48381.246744
57.0,1247,48425.856383
51.0,1131,48483.485702
43.0,1044,48519.961827
46.0,935,48553.378891
28.0,809,48600.848841
68.0,1364,48650.147747
31.0,979,48702.916414
59.0,1451,48755.439776
65.0,1375,48822.059712
57.0,1308,48868.332062
42.0,1130,48908.680254
21.0,769,48954.005269
16.0,515,48972.318961
73.0,1518,49027.054369
76.0,1643,49104.213132
54.0,1335,49171.293899
42.0,1054,49209.249775
42.0,1038,49246.713412
36.0,1032,49302.327821
55.0,1418,49353.491161
44.0,1085,49392.224281
46.0,1040,49447.306687
55.0,1294,49494.058018
51.0,1359,49560.101313
51.0,1376,49608.973339
44.0,1088,49665.643211
36.0,941,49699.30986
40.0,976,49734.096472
42.0,1056,49789.187593
87.0,1720,49850.890223
46.0,1148,49909.840311
62.0,1243,49953.90462
58.0,1226,50015.97727
60.0,1381,50065.476052
51.0,1137,50106.567411
76.0,1669,50184.253185
23.0,674,50208.158497
105.0,1593,50283.600095
38.0,923,50316.763788
62.0,1240,50378.830528
54.0,1331,50426.546607
74.0,1360,50494.35819
64.0,1496,50547.924485
52.0,1087,50604.790065
74.0,1532,50660.591157
45.0,1013,50696.516011
69.0,1462,50766.910635
27.0,904,50799.592025
36.0,968,50854.25603
46.0,1032,50891.204185
27.0,948,50924.127928
57.0,1179,50983.543382
43.0,1231,51027.110835
69.0,1478,51097.524776
71.0,1427,51151.384918
48.0,954,51187.775948
65.0,1186,51253.520687
31.0,697,51279.716309
68.0,1429,51351.27361
62.0,1161,51392.582885
45.0,1310,51458.206704
58.0,1245,51503.300893
27.0,906,51535.569787
58.0,1308,51600.371736
54.0,1264,51645.647475
56.0,1348,51712.480242
51.0,1213,51756.261893
37.0,1084,51795.441759
63.0,1244,51858.214459
41.0,1082,51896.689892
49.0,1137,51954.796324
59.0,1203,51997.874486
43.0,1066,52053.355929
44.0,1116,52092.864869
74.0,1580,52149.623639
45.0,1180,52209.679221
30.0,956,52243.729052
40.0,994,52297.522889
79.0,1485,52350.894636
74.0,1387,52418.593026
64.0,1537,52473.43317
31.0,724,52499.084075
47.0,1131,52558.50366
58.0,1375,52608.014132
63.0,1374,52676.565871
43.0,1093,52714.731954
62.0,1240,52779.005278
57.0,1421,52830.924773
50.0,1242,52892.918643
59.0,1287,52938.87499
34.0,908,52971.766518
53.0,1167,53031.237259
44.0,1136,53072.404166
58.0,1294,53136.604394
51.0,1167,53178.27579
46.0,1195,53221.032167
20.0,695,53263.075052
50.0,1257,53307.589954
59.0,1293,53372.730151
42.0,1076,53411.028756
52.0,1255,53458.181714
