# {"t_start": 1552429694.2927911, "env_id": "BreakoutNoFrameskip-v0"} 
r,l,t0.0,125,16.91695
1.0,173,23.516952
1.0,151,29.002047
1.0,157,34.75627
1.0,172,41.108565
1.0,173,47.677943
0.0,127,52.314026
3.0,250,61.809893
1.0,155,67.6434
0.0,127,72.634004
1.0,174,79.414015
0.0,129,84.019845
0.0,129,88.721146
0.0,129,93.500329
0.0,125,97.794525
3.0,251,107.39399
2.0,220,115.845923
1.0,156,121.302262
1.0,154,142.848988
1.0,173,149.132871
0.0,127,153.621271
2.0,204,160.987514
0.0,127,165.682214
2.0,198,172.643936
0.0,121,176.802909
0.0,129,181.214212
1.0,155,186.960169
1.0,173,193.305142
2.0,222,201.808156
1.0,173,208.220113
0.0,127,212.779484
0.0,127,217.264876
0.0,129,221.75804
0.0,129,226.619187
1.0,172,233.522644
8.0,375,248.111067
3.0,250,273.55051
3.0,229,282.370611
0.0,127,287.071787
3.0,230,296.131499
0.0,125,300.520499
1.0,176,306.854192
4.0,298,318.501392
0.0,129,323.217634
0.0,127,327.942293
0.0,127,332.642899
0.0,127,337.153176
2.0,224,345.649602
3.0,255,355.100923
2.0,208,363.205655
1.0,173,369.849751
0.0,127,374.796722
0.0,125,379.744388
3.0,250,405.570971
2.0,198,413.053549
0.0,127,417.719942
1.0,173,423.781441
2.0,202,431.604075
2.0,186,438.591532
2.0,203,445.87506
0.0,127,450.439457
3.0,250,459.907953
0.0,125,464.416813
3.0,247,473.973274
0.0,127,478.801169
0.0,127,483.177617
2.0,201,490.923676
3.0,250,500.19094
0.0,127,504.56189
0.0,127,509.075763
2.0,220,533.414581
4.0,281,544.569434
2.0,204,552.765378
1.0,173,559.460717
0.0,129,563.999068
1.0,174,570.349282
1.0,159,576.07238
3.0,266,586.289383
1.0,174,592.708191
3.0,251,602.229711
2.0,204,610.009984
3.0,270,620.132277
1.0,175,626.60881
2.0,202,634.280634
0.0,129,639.186078
3.0,254,664.696673
0.0,127,669.420831
0.0,129,674.41912
2.0,224,682.918317
2.0,200,690.944529
0.0,127,695.637041
0.0,127,700.173787
0.0,129,705.128421
0.0,127,709.96189
0.0,129,714.549929
9.0,382,729.401016
0.0,123,733.843495
1.0,176,740.260476
1.0,175,746.687305
3.0,250,756.412677
1.0,176,763.052519
1.0,174,769.109246
1.0,155,774.696347
1.0,172,799.058549
3.0,248,808.405986
3.0,231,817.655167
4.0,302,829.550844
0.0,127,834.169853
1.0,155,839.741349
4.0,298,851.42645
1.0,155,856.873914
1.0,173,863.161931
7.0,289,874.336031
7.0,326,887.07778
2.0,195,894.578738
4.0,280,905.483952
1.0,155,927.015203
2.0,204,934.959366
2.0,210,943.197472
4.0,301,955.451296
2.0,200,962.928857
5.0,291,974.142691
5.0,349,988.453415
2.0,221,996.695537
2.0,200,1004.061815
1.0,154,1009.724322
0.0,129,1014.526809
0.0,129,1019.24781
0.0,129,1023.816816
2.0,206,1032.514801
0.0,125,1037.355341
0.0,127,1057.977585
0.0,129,1062.614816
0.0,127,1067.509179
1.0,155,1073.483247
1.0,153,1079.499337
0.0,127,1084.384494
4.0,317,1096.774711
0.0,129,1101.713505
0.0,127,1106.413085
1.0,158,1112.650712
3.0,227,1121.296152
2.0,201,1129.051775
1.0,174,1135.473154
2.0,222,1143.90439
0.0,127,1148.385229
0.0,129,1153.471784
3.0,248,1162.560585
0.0,129,1167.290834
6.0,360,1198.393079
2.0,202,1206.302772
1.0,175,1212.943224
1.0,175,1219.252489
4.0,279,1230.074847
2.0,201,1237.782645
3.0,272,1248.21833
0.0,127,1252.908217
3.0,234,1262.166664
1.0,157,1267.870786
0.0,125,1272.197572
8.0,476,1291.119645
0.0,125,1295.622284
3.0,230,1319.630466
0.0,129,1324.320468
0.0,125,1329.080338
0.0,124,1333.592516
3.0,250,1343.050606
1.0,175,1349.975617
1.0,175,1356.142701
1.0,155,1361.501151
0.0,129,1366.00212
0.0,125,1370.33732
1.0,173,1376.647759
2.0,210,1384.416779
2.0,200,1391.963306
0.0,129,1396.704483
2.0,186,1403.682123
0.0,123,1408.431082
0.0,125,1413.060632
0.0,129,1417.971744
2.0,201,1425.456086
6.0,389,1458.016585
3.0,269,1468.338673
4.0,300,1480.058074
0.0,127,1484.793975
2.0,201,1492.309835
2.0,202,1500.162929
5.0,371,1514.762091
1.0,158,1520.413754
1.0,167,1526.354465
6.0,418,1542.36753
0.0,125,1546.822296
1.0,175,1553.147477
1.0,172,1559.265046
4.0,286,1586.653574
5.0,330,1599.486677
1.0,155,1605.028553
2.0,224,1613.339701
3.0,252,1622.780005
2.0,206,1630.694712
3.0,271,1641.358819
2.0,202,1648.868132
0.0,121,1653.271706
0.0,125,1657.72781
0.0,127,1662.156731
5.0,368,1676.367741
0.0,127,1680.9725
1.0,173,1687.434078
5.0,348,1715.770687
2.0,186,1722.887627
5.0,330,1735.48435
2.0,201,1743.278417
4.0,300,1754.717746
2.0,223,1763.165584
7.0,425,1780.668389
2.0,220,1789.012035
2.0,202,1796.689954
1.0,157,1802.436946
1.0,173,1808.481635
2.0,202,1815.557693
2.0,202,1839.990702
2.0,204,1847.599485
2.0,187,1854.311634
0.0,129,1859.489364
3.0,232,1868.197231
5.0,315,1881.441078
2.0,200,1889.061339
2.0,201,1897.267051
0.0,129,1902.2877
3.0,225,1911.417391
0.0,125,1916.344605
4.0,290,1927.237802
3.0,231,1936.137051
0.0,127,1940.642083
0.0,129,1945.30935
3.0,269,1972.30604
2.0,203,1980.184448
4.0,278,1990.922808
3.0,269,2001.306635
4.0,304,2012.375888
1.0,157,2018.438395
0.0,126,2022.683646
3.0,256,2032.435241
2.0,202,2040.676915
2.0,222,2049.470405
2.0,224,2058.24018
2.0,202,2065.724489
3.0,252,2075.207892
5.0,349,2103.921365
2.0,221,2112.774301
0.0,129,2117.365983
4.0,280,2128.211208
4.0,298,2139.719754
2.0,220,2147.840141
3.0,275,2158.608651
6.0,331,2170.827522
6.0,363,2184.754112
3.0,232,2193.54648
1.0,175,2199.88117
2.0,209,2207.348085
2.0,181,2230.834588
1.0,156,2236.395395
4.0,299,2247.763559
1.0,176,2254.495265
5.0,346,2267.450345
1.0,173,2273.913276
0.0,127,2278.967757
1.0,176,2285.899534
1.0,155,2292.413552
15.0,550,2313.846589
2.0,184,2320.780201
1.0,173,2327.113032
1.0,157,2332.78663
5.0,348,2362.617942
1.0,178,2369.353201
2.0,225,2377.826731
2.0,206,2385.539785
6.0,399,2400.434763
3.0,232,2409.560819
8.0,351,2423.641412
2.0,223,2432.097315
0.0,125,2436.486948
1.0,174,2442.834289
2.0,204,2450.908894
0.0,129,2455.733138
2.0,197,2463.145056
4.0,285,2490.760433
1.0,175,2497.197701
4.0,283,2507.881429
0.0,129,2512.567922
2.0,222,2521.055804
4.0,282,2531.985726
2.0,202,2539.517634
3.0,231,2547.792918
1.0,175,2554.068002
2.0,204,2561.189564
0.0,129,2565.775899
1.0,158,2571.397233
9.0,497,2590.489478
4.0,279,2616.004177
2.0,222,2624.287034
7.0,323,2635.966221
1.0,175,2642.071921
2.0,225,2650.492331
2.0,202,2658.046806
5.0,346,2671.160383
0.0,129,2675.683125
2.0,202,2683.243809
5.0,312,2694.98421
1.0,175,2701.14561
3.0,274,2711.291504
0.0,127,2715.973826
4.0,280,2742.113531
2.0,214,2749.535766
0.0,125,2753.738248
2.0,203,2760.777422
3.0,247,2769.491979
2.0,202,2776.505469
7.0,306,2787.290954
0.0,127,2791.577732
1.0,171,2797.67638
2.0,200,2804.532498
0.0,127,2808.717163
1.0,173,2814.927333
2.0,204,2821.766382
0.0,129,2825.96002
2.0,200,2832.660075
2.0,200,2839.242604
3.0,235,2860.935281
4.0,299,2870.799564
1.0,176,2876.736311
2.0,224,2884.078534
1.0,151,2888.720511
3.0,270,2897.016959
1.0,175,2902.147412
0.0,120,2905.599886
1.0,175,2910.807212
1.0,173,2916.057772
2.0,207,2922.090149
10.0,431,2934.978558
5.0,335,2945.434014
7.0,412,2972.25322
2.0,186,2977.927747
4.0,302,2986.825425
5.0,322,2996.653831
0.0,129,3000.028512
1.0,175,3005.10238
2.0,200,3010.71137
2.0,225,3016.842073
5.0,317,3025.84847
2.0,185,3030.910438
4.0,284,3039.182937
5.0,329,3048.110539
2.0,226,3067.460894
1.0,157,3071.319137
3.0,249,3077.891875
1.0,157,3081.710169
5.0,329,3090.338525
0.0,129,3093.388408
2.0,203,3098.558723
6.0,358,3107.512869
7.0,425,3118.419062
1.0,174,3122.895986
6.0,365,3131.909218
1.0,154,3135.629641
4.0,280,3155.575726
1.0,175,3159.902494
2.0,206,3164.936073
4.0,299,3172.447311
8.0,419,3183.127867
3.0,274,3190.045147
2.0,204,3195.406898
3.0,250,3201.764108
2.0,200,3206.708917
2.0,187,3211.536342
3.0,219,3217.139377
7.0,396,3239.704184
2.0,200,3244.551593
5.0,348,3253.492841
6.0,377,3263.440456
3.0,254,3269.949685
1.0,157,3273.779886
6.0,354,3283.028903
2.0,179,3287.407745
2.0,204,3292.22197
7.0,308,3300.067549
2.0,202,3304.947434
3.0,229,3310.722835
3.0,230,3329.531576
1.0,158,3333.525636
0.0,127,3336.684787
1.0,175,3341.190058
0.0,123,3344.049731
3.0,231,3349.730874
2.0,202,3354.630317
3.0,235,3360.167043
2.0,205,3365.218429
2.0,185,3369.914112
6.0,382,3379.834941
4.0,320,3388.140415
3.0,251,3394.465324
3.0,250,3414.444286
5.0,307,3422.617749
0.0,127,3425.477236
3.0,233,3431.173327
3.0,250,3437.651151
3.0,232,3443.384665
5.0,308,3451.47648
4.0,299,3459.272937
2.0,200,3464.178018
2.0,202,3469.043456
0.0,127,3472.117098
0.0,123,3475.024258
1.0,157,3478.79094
4.0,280,3485.627594
2.0,185,3503.664932
2.0,206,3508.880024
11.0,345,3517.617445
3.0,233,3523.385291
9.0,382,3533.11123
5.0,328,3541.568626
4.0,318,3549.332837
5.0,290,3556.818565
0.0,129,3559.991275
7.0,367,3569.530219
2.0,224,3575.174534
7.0,446,3598.945129
3.0,270,3605.499845
4.0,302,3613.480245
2.0,224,3619.215385
5.0,309,3627.170746
4.0,279,3634.294558
0.0,127,3637.505465
5.0,339,3646.185734
1.0,177,3650.58097
4.0,280,3657.641997
1.0,155,3661.186692
2.0,217,3679.14522
0.0,127,3682.148692
0.0,127,3685.250933
3.0,234,3691.400508
1.0,155,3695.208839
4.0,252,3701.623341
9.0,401,3711.668788
2.0,222,3716.988846
4.0,279,3724.251064
2.0,199,3729.272343
2.0,184,3733.727241
1.0,177,3738.183526
5.0,346,3747.111634
1.0,150,3750.962141
0.0,127,3767.325688
6.0,377,3777.133095
6.0,377,3786.433755
0.0,123,3789.288588
4.0,298,3796.887907
4.0,258,3803.720764
6.0,382,3813.65122
2.0,198,3818.476503
3.0,251,3824.932579
3.0,230,3830.718181
5.0,350,3839.415301
2.0,187,3857.923892
3.0,239,3864.146528
2.0,209,3869.247948
1.0,173,3873.422478
3.0,275,3880.672857
1.0,157,3884.599673
1.0,174,3888.896157
5.0,345,3897.468042
3.0,253,3903.58027
4.0,296,3910.993046
3.0,247,3917.444197
5.0,351,3926.45871
3.0,233,3945.138541
6.0,379,3954.650953
0.0,125,3957.656655
4.0,262,3964.320702
5.0,333,3972.62301
0.0,127,3975.677244
2.0,202,3980.623425
3.0,233,3986.466881
0.0,127,3989.600972
3.0,252,3996.453784
2.0,204,4001.577674
4.0,279,4008.617989
1.0,174,4012.703238
2.0,204,4030.055769
5.0,349,4039.153375
4.0,277,4046.371799
2.0,185,4051.189399
1.0,155,4054.884984
9.0,380,4064.461129
4.0,319,4072.945166
2.0,204,4077.741535
2.0,199,4082.380412
4.0,280,4089.462604
2.0,222,4094.73639
1.0,154,4098.597188
0.0,127,4101.849391
2.0,222,4120.516224
4.0,301,4128.165945
2.0,218,4133.286412
6.0,331,4141.564692
3.0,275,4148.360063
4.0,280,4155.749415
4.0,263,4162.252222
0.0,125,4165.24788
3.0,251,4171.515659
3.0,250,4177.88893
1.0,155,4181.709238
6.0,325,4190.1627
4.0,317,4211.626559
5.0,289,4218.691978
5.0,335,4227.506074
9.0,528,4241.311046
2.0,202,4246.30542
4.0,276,4252.869545
0.0,129,4255.691202
2.0,223,4261.763219
5.0,373,4271.012835
1.0,174,4275.316652
4.0,276,4295.888967
7.0,389,4306.060539
2.0,225,4311.734928
5.0,308,4319.256665
4.0,299,4326.411179
2.0,193,4331.246428
3.0,216,4336.512113
2.0,223,4342.549639
0.0,129,4345.601571
6.0,355,4354.617473
0.0,129,4357.647638
3.0,229,4363.513092
0.0,129,4366.805249
4.0,257,4385.67553
4.0,280,4392.536008
5.0,312,4400.818732
4.0,278,4407.739758
1.0,154,4411.422605
5.0,336,4420.380619
4.0,283,4427.72826
6.0,340,4436.109633
3.0,271,4442.852958
5.0,324,4451.203228
4.0,321,4471.982275
6.0,358,4481.41189
3.0,252,4487.585155
2.0,204,4492.580663
5.0,290,4499.816931
1.0,157,4503.637151
1.0,171,4507.780838
5.0,330,4516.04048
3.0,248,4522.1487
5.0,326,4530.693156
2.0,223,4536.362707
3.0,250,4555.476365
2.0,189,4560.251289
6.0,367,4569.299375
2.0,204,4574.290517
4.0,304,4582.312346
5.0,330,4590.628932
8.0,456,4602.715508
2.0,222,4608.557959
5.0,350,4617.468413
3.0,248,4623.388192
0.0,129,4626.479522
1.0,164,4644.316698
3.0,272,4651.440634
2.0,204,4656.318697
7.0,390,4666.492195
5.0,306,4674.202845
4.0,243,4680.049704
6.0,379,4689.566046
5.0,323,4698.049162
1.0,173,4702.154269
5.0,332,4710.430694
4.0,265,4730.765731
6.0,340,4739.46264
5.0,327,4748.613719
2.0,199,4754.093742
2.0,187,4758.937269
1.0,178,4763.823696
3.0,213,4769.770844
3.0,231,4776.26823
2.0,225,4782.308983
5.0,320,4791.378749
2.0,202,4796.610533
2.0,201,4802.169574
1.0,148,4806.048717
3.0,219,4825.015736
8.0,438,4837.402605
4.0,281,4845.410097
5.0,329,4854.458245
2.0,220,4860.385417
2.0,203,4865.530943
1.0,156,4869.427539
6.0,357,4878.877981
11.0,524,4894.0608
3.0,234,4900.147143
2.0,200,4919.447396
6.0,382,4929.807745
4.0,303,4937.737246
7.0,387,4948.562122
5.0,328,4957.869353
10.0,433,4970.079453
3.0,253,4977.081043
1.0,157,4981.267428
5.0,333,4990.409245
5.0,371,5014.927548
6.0,357,5025.173946
3.0,249,5032.092763
4.0,288,5040.158504
0.0,129,5043.256244
5.0,331,5052.376674
4.0,257,5059.256431
5.0,349,5068.885968
2.0,183,5073.72636
4.0,299,5082.113218
5.0,299,5090.443529
4.0,281,5111.358734
4.0,299,5119.461032
7.0,403,5130.561777
4.0,304,5138.886655
2.0,225,5145.139957
8.0,455,5157.965632
4.0,277,5165.771915
6.0,397,5176.732388
6.0,356,5186.307375
4.0,262,5206.751396
6.0,398,5218.015237
8.0,316,5226.929149
5.0,326,5236.191431
3.0,247,5242.640776
5.0,334,5251.376264
5.0,335,5259.656421
6.0,345,5268.500608
6.0,364,5277.966843
4.0,300,5299.193832
2.0,200,5304.282546
6.0,374,5314.094107
5.0,319,5321.914854
4.0,261,5328.636041
3.0,218,5334.164845
9.0,472,5346.327735
1.0,155,5350.326705
4.0,298,5357.79496
3.0,254,5364.104455
4.0,319,5386.351375
6.0,359,5396.029041
10.0,389,5406.642473
2.0,223,5412.474954
4.0,301,5420.000707
4.0,244,5425.969558
5.0,349,5434.644725
6.0,399,5445.464623
6.0,359,5455.173464
10.0,431,5480.331563
3.0,208,5485.53
7.0,427,5496.977677
7.0,421,5508.358096
5.0,354,5517.908713
9.0,331,5527.078221
2.0,187,5531.958808
7.0,441,5544.255946
9.0,474,5569.620347
6.0,339,5578.821202
11.0,473,5592.058829
4.0,265,5599.169934
7.0,389,5609.955754
7.0,426,5621.13828
5.0,312,5629.096354
5.0,324,5638.390885
2.0,186,5643.205032
6.0,357,5666.384646
3.0,230,5672.26817
5.0,313,5680.539468
8.0,370,5690.065286
3.0,229,5695.666577
2.0,222,5701.139725
5.0,289,5708.517454
3.0,250,5714.946629
7.0,428,5725.923084
8.0,444,5751.322833
4.0,279,5758.556409
7.0,426,5769.357945
7.0,409,5780.077459
4.0,301,5787.889025
7.0,443,5799.096352
7.0,429,5809.662324
6.0,359,5818.921843
4.0,283,5839.153309
7.0,423,5850.218491
6.0,401,5860.459199
5.0,288,5867.447298
9.0,457,5878.998585
5.0,310,5886.869799
7.0,424,5898.054974
8.0,417,5922.194972
8.0,426,5933.927896
2.0,204,5939.377388
5.0,309,5947.528288
4.0,260,5954.312951
6.0,369,5964.907228
5.0,326,5973.492065
4.0,321,5982.111788
7.0,432,5993.140374
2.0,185,5997.963005
14.0,508,6026.061773
5.0,334,6035.532006
4.0,302,6043.409858
5.0,315,6051.517497
8.0,296,6059.274585
7.0,445,6071.498311
7.0,430,6083.258732
7.0,406,6108.538481
6.0,340,6117.430246
5.0,294,6125.16976
5.0,346,6134.937922
4.0,260,6141.754915
10.0,446,6153.871344
7.0,387,6164.323363
4.0,277,6171.593616
6.0,401,6181.858136
7.0,425,6208.005511
10.0,429,6219.717273
14.0,462,6231.84412
8.0,455,6244.414187
8.0,483,6257.864921
2.0,224,6263.662573
6.0,376,6274.340711
6.0,322,6296.486588
6.0,371,6306.574896
7.0,384,6317.210237
7.0,408,6328.718084
9.0,310,6337.209271
9.0,402,6348.453131
6.0,379,6358.936451
4.0,260,6365.724515
5.0,346,6388.489372
3.0,212,6394.247123
9.0,348,6403.643456
6.0,340,6413.167033
6.0,364,6422.720287
7.0,445,6434.43813
8.0,450,6447.037046
5.0,332,6456.165963
4.0,299,6464.265219
8.0,441,6489.728466
10.0,429,6501.4396
5.0,306,6509.976321
6.0,398,6521.23455
4.0,258,6528.32786
5.0,310,6536.567423
16.0,658,6554.66787
5.0,306,6577.14374
4.0,247,6583.942064
4.0,277,6591.833766
7.0,416,6603.024779
8.0,403,6613.690812
4.0,262,6620.620816
5.0,305,6628.752317
5.0,329,6638.314914
10.0,546,6667.477836
11.0,406,6678.312402
11.0,457,6690.80433
6.0,372,6701.107746
6.0,380,6711.665054
6.0,355,6721.147977
8.0,434,6732.694289
5.0,305,6740.660333
6.0,373,6765.203099
5.0,349,6774.654821
3.0,233,6781.048679
14.0,613,6797.898744
7.0,418,6809.132809
5.0,351,6818.389909
2.0,184,6823.297588
11.0,271,6830.976046
4.0,281,6852.002604
8.0,435,6863.900241
8.0,474,6877.116415
4.0,282,6884.558049
5.0,335,6893.883769
8.0,429,6906.163233
6.0,355,6915.85352
8.0,394,6926.629707
4.0,265,6946.775178
14.0,387,6957.431994
9.0,327,6966.398238
7.0,432,6978.150115
6.0,360,6987.717075
9.0,494,7001.046382
10.0,415,7012.536047
3.0,231,7018.660576
5.0,352,7041.618245
7.0,429,7053.171368
9.0,345,7062.426405
8.0,427,7074.052034
15.0,629,7091.56222
7.0,400,7102.690361
7.0,395,7113.530493
9.0,449,7139.700153
6.0,380,7150.221877
7.0,250,7156.901736
8.0,439,7169.040346
9.0,490,7182.315332
7.0,360,7191.938373
11.0,439,7204.214976
8.0,450,7230.781224
11.0,569,7245.905035
11.0,394,7256.852772
5.0,340,7266.234323
6.0,382,7277.020227
5.0,307,7285.370569
8.0,462,7298.094486
4.0,265,7318.872486
6.0,341,7328.249186
6.0,334,7337.904813
8.0,447,7349.999061
14.0,580,7365.85979
6.0,360,7375.332764
6.0,359,7384.906055
9.0,502,7412.476001
8.0,442,7424.274714
8.0,498,7437.279592
5.0,345,7446.703055
4.0,282,7454.539447
16.0,584,7470.870633
14.0,430,7482.529723
5.0,295,7503.435501
4.0,264,7510.668525
9.0,495,7524.223848
15.0,532,7539.123847
9.0,518,7552.896292
6.0,375,7563.038807
7.0,248,7569.653962
9.0,325,7578.537472
8.0,443,7604.554445
5.0,309,7612.623892
8.0,416,7623.956291
6.0,335,7632.963735
9.0,532,7648.192873
12.0,481,7661.773293
6.0,341,7671.181888
7.0,383,7695.813746
9.0,461,7708.387767
5.0,314,7716.995817
9.0,526,7731.574027
4.0,299,7739.152499
6.0,323,7747.698104
4.0,276,7754.853929
6.0,322,7763.651493
6.0,360,7787.862476
7.0,390,7798.171845
7.0,248,7804.842142
14.0,415,7816.200528
9.0,479,7829.59502
8.0,431,7841.571622
7.0,409,7852.668929
12.0,454,7878.463859
8.0,426,7890.242304
6.0,336,7899.447005
6.0,324,7908.062733
14.0,413,7919.547972
11.0,271,7926.795127
7.0,406,7937.439644
10.0,356,7946.936528
11.0,477,7973.677822
6.0,359,7983.644321
13.0,607,7999.727728
6.0,334,8009.137164
9.0,312,8017.601617
12.0,462,8030.205825
6.0,337,8039.872858
10.0,535,8067.110236
8.0,391,8077.813697
8.0,502,8091.981679
9.0,439,8103.977317
8.0,460,8116.724661
6.0,359,8126.40827
9.0,349,8135.703182
4.0,282,8157.020965
9.0,478,8169.968212
10.0,527,8184.47445
6.0,338,8193.479095
6.0,363,8204.213378
6.0,360,8213.970879
13.0,525,8228.676898
11.0,461,8255.169549
7.0,367,8264.983342
8.0,495,8279.161181
6.0,376,8289.637259
7.0,453,8301.71967
15.0,650,8320.068505
9.0,331,8343.312587
6.0,352,8353.246209
12.0,531,8367.105635
6.0,309,8375.397128
5.0,306,8383.339826
9.0,436,8395.822897
5.0,295,8403.70941
21.0,710,8436.485474
16.0,637,8454.051046
12.0,548,8469.339632
12.0,460,8482.146662
11.0,416,8493.230128
10.0,536,8507.373519
7.0,423,8532.005027
9.0,498,8545.946017
9.0,484,8558.868833
5.0,347,8568.024213
4.0,260,8574.754596
11.0,528,8589.687703
13.0,545,8617.813937
16.0,553,8633.569372
6.0,344,8642.640208
12.0,569,8658.550941
10.0,391,8669.180431
8.0,444,8681.035913
7.0,393,8691.302527
4.0,279,8711.725374
7.0,385,8722.16939
8.0,402,8733.195456
13.0,498,8746.712655
13.0,513,8760.641803
5.0,310,8769.144053
6.0,351,8778.372213
11.0,518,8805.95813
12.0,320,8814.015184
11.0,395,8825.370639
10.0,336,8834.40805
11.0,268,8841.393815
8.0,423,8852.875644
9.0,455,8865.235397
9.0,473,8878.099885
6.0,340,8901.528757
12.0,531,8916.061332
12.0,589,8932.186746
12.0,321,8940.900055
7.0,429,8952.648721
10.0,472,8965.76065
8.0,410,8991.498941
13.0,557,9006.59383
12.0,518,9021.257751
8.0,479,9034.12699
9.0,484,9047.797659
9.0,500,9060.953662
15.0,451,9086.831092
7.0,412,9097.877867
8.0,457,9110.803267
6.0,339,9119.636165
8.0,405,9130.37435
10.0,558,9146.055164
21.0,499,9173.296084
5.0,291,9180.972099
11.0,502,9194.474173
15.0,525,9208.558367
16.0,482,9222.15258
8.0,481,9235.288415
12.0,446,9247.554277
6.0,338,9269.558433
8.0,412,9281.310794
8.0,404,9292.551951
13.0,673,9310.653086
9.0,343,9319.789959
6.0,397,9330.899787
13.0,353,9340.220889
11.0,448,9366.009242
9.0,327,9374.553381
8.0,457,9386.999697
12.0,597,9403.415377
8.0,428,9415.453858
20.0,665,9433.750861
8.0,441,9459.929408
14.0,488,9473.249088
12.0,610,9489.743255
11.0,394,9500.500045
10.0,484,9513.217045
9.0,446,9525.956696
12.0,598,9556.562744
14.0,542,9571.259354
10.0,485,9584.614565
13.0,333,9593.536945
10.0,496,9608.83395
16.0,760,9645.685486
20.0,623,9663.049255
11.0,457,9675.835303
13.0,508,9689.689303
13.0,528,9703.356257
11.0,534,9732.873007
11.0,549,9750.412497
12.0,470,9765.562531
7.0,409,9780.533883
8.0,453,9796.929528
10.0,393,9811.235545
10.0,473,9829.209659
7.0,390,9862.853303
12.0,571,9884.745912
10.0,520,9905.553238
9.0,349,9919.070159
9.0,459,9937.055405
17.0,661,9962.623726
16.0,603,10006.924915
15.0,503,10026.631775
13.0,543,10047.406394
20.0,704,10075.546107
11.0,505,10095.57388
12.0,450,10133.313978
8.0,409,10149.282406
11.0,551,10170.686571
10.0,517,10190.944684
10.0,497,10210.565488
9.0,308,10222.799962
5.0,287,10254.0568
11.0,552,10274.874053
9.0,431,10291.552352
12.0,501,10311.455179
10.0,480,10329.780427
12.0,584,10352.41613
11.0,487,10389.773515
13.0,651,10415.446925
8.0,428,10432.4761
10.0,575,10455.064852
19.0,665,10480.986766
12.0,563,10522.387979
12.0,640,10547.53027
16.0,635,10572.027193
9.0,474,10591.053761
12.0,507,10610.779463
9.0,432,10645.984632
12.0,600,10669.63245
10.0,548,10691.035831
12.0,466,10709.414448
10.0,357,10723.569608
16.0,433,10740.192992
16.0,646,10784.57863
7.0,414,10800.348032
15.0,584,10822.571409
12.0,459,10840.335092
12.0,587,10863.441723
13.0,526,10884.00487
14.0,556,10924.339928
9.0,418,10940.565205
14.0,643,10965.925557
9.0,501,10985.921092
18.0,709,11013.229456
15.0,591,11055.425974
7.0,405,11070.333366
8.0,415,11086.024047
12.0,469,11103.338948
10.0,523,11123.05493
13.0,555,11143.755115
9.0,457,11178.499487
9.0,547,11198.877781
18.0,693,11225.108978
15.0,443,11241.848599
19.0,730,11269.951762
11.0,562,11309.562113
8.0,421,11324.986049
7.0,413,11340.311758
8.0,462,11357.639832
17.0,547,11378.446122
20.0,805,11427.377403
22.0,723,11454.283579
26.0,824,11484.974434
7.0,422,11500.661461
10.0,485,11519.447482
11.0,533,11557.029683
10.0,553,11578.679263
8.0,415,11594.387699
11.0,553,11614.915665
13.0,600,11637.320873
12.0,537,11676.290065
22.0,731,11703.69314
12.0,447,11720.487344
9.0,326,11732.266445
10.0,390,11747.314337
15.0,613,11769.776911
14.0,564,11810.043672
5.0,288,11820.987906
15.0,585,11842.387464
10.0,515,11861.34982
11.0,497,11880.037015
28.0,653,11924.00215
11.0,534,11944.480194
13.0,469,11961.444715
6.0,312,11972.990937
9.0,451,11989.531715
8.0,385,12003.976746
19.0,729,12050.12832
16.0,467,12067.848508
9.0,508,12086.989894
10.0,539,12107.474463
9.0,434,12123.683601
10.0,393,12137.867905
14.0,534,12177.545845
18.0,583,12199.861822
12.0,588,12222.102908
6.0,337,12234.160017
5.0,312,12245.68666
13.0,613,12268.364497
14.0,620,12310.998063
18.0,704,12338.071093
11.0,532,12358.097052
12.0,516,12377.31613
13.0,634,12400.8628
14.0,535,12440.439713
9.0,485,12458.232102
10.0,533,12478.223996
6.0,322,12490.237096
12.0,454,12507.184858
12.0,455,12524.51638
9.0,467,12560.966531
8.0,412,12576.341637
11.0,553,12596.861785
15.0,572,12617.800488
12.0,555,12638.731394
10.0,505,12657.346782
14.0,612,12697.748206
14.0,483,12715.93971
11.0,510,12734.766703
5.0,309,12745.886263
10.0,535,12765.352673
15.0,686,12809.747041
22.0,587,12831.926661
16.0,592,12854.525979
11.0,560,12876.001961
23.0,786,12905.521885
9.0,490,12941.307384
10.0,488,12959.828805
9.0,454,12976.475286
14.0,603,12999.65843
10.0,520,13019.496201
16.0,720,13065.598869
16.0,674,13090.771339
14.0,386,13105.586006
11.0,562,13126.347317
16.0,681,13151.648158
16.0,530,13190.031446
18.0,714,13217.107083
11.0,541,13237.187537
8.0,388,13251.802568
12.0,600,13274.432547
22.0,771,13320.780504
12.0,633,13345.564227
18.0,594,13367.969733
10.0,542,13388.360304
15.0,610,13411.723243
8.0,439,13446.49548
9.0,464,13464.012582
13.0,609,13487.513426
11.0,427,13503.228851
17.0,658,13528.237942
11.0,564,13568.938119
23.0,744,13597.156916
13.0,633,13621.119787
13.0,522,13640.986293
14.0,637,13665.602429
12.0,481,13701.099456
14.0,597,13723.683972
9.0,549,13744.02972
11.0,542,13764.10526
7.0,355,13777.338506
15.0,526,13797.00095
11.0,537,13835.550971
8.0,415,13851.173543
14.0,605,13874.129848
14.0,593,13895.913296
19.0,730,13923.174727
16.0,602,13964.517446
11.0,512,13984.126614
10.0,527,14004.55766
19.0,630,14028.753642
13.0,597,14051.317215
15.0,668,14093.522644
11.0,569,14115.627819
14.0,510,14134.074428
10.0,391,14148.922895
19.0,653,14173.692355
11.0,542,14212.242819
16.0,605,14235.430801
24.0,783,14264.79177
9.0,440,14281.02879
9.0,448,14298.198553
11.0,567,14338.181239
23.0,715,14364.531387
7.0,395,14379.310738
9.0,466,14396.673026
21.0,643,14420.743128
11.0,586,14460.888844
22.0,676,14486.693552
27.0,739,14514.264437
13.0,601,14536.870791
13.0,592,14578.605989
7.0,411,14593.344361
26.0,760,14622.016561
12.0,553,14642.55663
13.0,643,14666.218759
18.0,609,14707.580981
14.0,594,14729.879593
10.0,499,14748.844765
16.0,633,14772.578038
16.0,625,14796.378943
14.0,612,14837.823726
13.0,608,14862.40838
10.0,515,14881.59826
13.0,464,14898.634951
12.0,447,14915.705397
14.0,479,14933.263453
6.0,321,14964.21693
11.0,515,14984.534244
9.0,491,15002.833902
16.0,577,15024.832263
12.0,526,15044.168618
10.0,495,15062.580055
14.0,693,15108.158123
17.0,683,15134.274715
11.0,407,15149.391572
19.0,693,15175.622094
13.0,514,15214.270817
13.0,593,15236.686637
11.0,549,15257.688521
14.0,550,15277.825696
12.0,543,15298.571697
9.0,453,15315.79758
13.0,615,15358.419498
10.0,494,15376.501279
7.0,370,15390.455806
11.0,503,15409.703267
10.0,510,15428.782726
11.0,560,15468.469289
11.0,546,15488.966211
13.0,580,15510.216499
9.0,506,15529.937959
10.0,503,15548.594598
14.0,512,15567.517085
8.0,405,15602.457818
14.0,622,15625.595881
10.0,567,15646.494998
13.0,588,15668.663349
13.0,615,15691.922276
12.0,459,15727.992368
7.0,354,15741.146455
22.0,729,15769.603534
15.0,577,15791.483207
16.0,621,15814.495421
10.0,469,15851.011249
10.0,506,15869.944053
11.0,567,15890.377031
6.0,353,15903.703791
11.0,407,15918.42217
10.0,499,15937.374635
16.0,657,15980.87281
13.0,633,16004.887449
14.0,654,16029.314876
14.0,646,16053.340216
17.0,714,16080.085277
10.0,561,16120.830024
11.0,564,16142.427363
11.0,466,16159.69508
22.0,741,16187.872607
19.0,598,16210.015044
18.0,675,16254.314485
14.0,542,16275.352846
16.0,478,16293.312348
16.0,606,16315.961855
20.0,691,16360.695174
6.0,361,16374.383482
14.0,662,16399.732686
12.0,568,16420.665717
13.0,476,16438.502311
12.0,582,16460.456759
7.0,389,16494.502936
24.0,736,16521.797889
6.0,337,16533.93942
12.0,584,16556.048009
15.0,700,16582.04074
15.0,713,16627.459758
14.0,635,16650.979147
17.0,760,16679.936787
8.0,432,16695.897963
9.0,517,16714.956386
24.0,801,16763.999588
14.0,661,16788.307667
9.0,457,16805.691065
24.0,791,16836.187896
11.0,537,16875.953845
18.0,726,16903.469868
12.0,442,16920.036803
34.0,838,16951.678483
11.0,492,16970.067291
14.0,600,17012.226397
10.0,462,17029.350535
11.0,485,17047.139946
12.0,570,17068.839017
17.0,673,17094.29967
17.0,718,17140.464109
12.0,625,17164.024755
20.0,559,17184.540507
19.0,691,17211.437979
17.0,639,17254.93527
9.0,468,17272.563265
17.0,611,17295.768861
12.0,464,17312.618287
16.0,625,17336.567427
24.0,711,17382.655983
20.0,704,17409.158167
19.0,839,17440.937348
14.0,672,17465.521369
17.0,619,17507.360603
17.0,653,17532.126026
15.0,636,17555.681144
16.0,657,17580.055077
15.0,598,17602.847953
6.0,372,17634.552018
20.0,505,17653.824319
10.0,516,17673.422203
17.0,720,17700.605328
10.0,515,17719.681493
23.0,642,17763.278551
15.0,730,17790.149528
15.0,615,17813.366003
20.0,655,17838.200293
13.0,499,17856.805863
17.0,623,17898.912194
12.0,592,17921.386242
13.0,585,17943.475249
11.0,556,17964.215002
10.0,515,17983.517148
23.0,793,18031.982434
26.0,779,18060.217883
20.0,787,18090.020261
20.0,718,18136.041342
13.0,597,18158.719292
12.0,560,18179.431665
11.0,538,18199.734259
12.0,601,18222.195746
18.0,738,18268.853068
17.0,632,18292.776592
18.0,668,18317.911737
15.0,680,18343.26817
12.0,556,18383.498952
16.0,708,18410.386237
12.0,550,18431.028461
17.0,596,18453.7775
19.0,599,18476.406567
15.0,721,18521.988843
15.0,729,18549.618798
18.0,691,18575.088779
11.0,393,18589.180737
22.0,738,18636.867141
15.0,643,18660.977939
17.0,524,18680.717345
19.0,763,18709.412843
20.0,668,18734.448348
15.0,637,18777.052623
15.0,669,18802.755954
11.0,525,18822.235842
24.0,802,18852.319615
14.0,664,18896.876036
12.0,546,18916.994524
15.0,683,18942.470272
20.0,781,18971.709933
13.0,505,18990.967954
23.0,838,19042.114843
17.0,683,19067.853488
21.0,693,19094.669547
17.0,622,19117.881114
19.0,670,19161.542126
27.0,780,19191.301053
14.0,651,19215.658046
15.0,585,19237.170343
11.0,539,19275.735467
10.0,488,19295.09154
18.0,661,19321.094107
15.0,710,19348.19165
22.0,733,19376.310506
12.0,580,19417.097513
18.0,692,19443.645019
16.0,720,19470.785233
16.0,739,19499.075981
19.0,448,19533.456409
12.0,621,19556.883224
26.0,855,19589.448285
14.0,558,19610.452871
24.0,795,19659.859411
23.0,715,19686.971642
23.0,740,19716.005176
14.0,641,19739.775761
15.0,715,19786.42564
16.0,668,19811.064128
15.0,691,19836.810774
13.0,599,19859.668355
14.0,634,19883.549045
19.0,584,19924.113246
23.0,458,19940.827661
21.0,713,19967.897727
19.0,654,19992.168376
16.0,622,20033.529328
12.0,439,20049.674682
34.0,837,20081.168582
11.0,513,20100.152042
13.0,485,20118.320025
16.0,721,20163.969228
28.0,840,20196.031184
25.0,810,20226.896637
33.0,710,20254.179595
11.0,504,20291.316292
16.0,694,20317.586783
17.0,807,20347.609915
19.0,717,20374.52207
13.0,349,20387.208719
16.0,411,20421.254939
28.0,811,20452.207536
21.0,644,20475.851343
14.0,634,20499.623061
22.0,541,20539.453325
14.0,662,20563.856099
22.0,923,20598.986559
11.0,568,20620.011233
20.0,749,20666.466139
13.0,586,20688.227519
22.0,807,20718.973141
19.0,568,20740.785689
15.0,647,20765.153976
22.0,611,20807.370143
22.0,752,20835.221202
16.0,658,20860.314058
30.0,791,20890.067594
22.0,863,20940.763034
12.0,572,20962.064768
20.0,722,20989.512141
14.0,614,21012.06587
16.0,740,21057.764296
18.0,688,21084.131311
15.0,559,21105.05925
13.0,608,21127.607276
31.0,796,21176.423486
16.0,697,21201.861111
23.0,708,21228.784967
14.0,618,21252.217137
30.0,822,21300.719284
22.0,786,21330.968239
21.0,685,21356.742785
13.0,465,21374.159802
25.0,744,21420.157386
17.0,650,21444.887424
14.0,646,21469.184467
21.0,605,21491.919923
25.0,832,21523.237332
27.0,792,21571.519595
19.0,702,21597.646435
14.0,617,21620.980139
19.0,702,21647.338969
19.0,702,21693.123446
25.0,780,21722.988565
13.0,590,21744.060043
12.0,552,21764.44455
11.0,528,21803.625783
16.0,668,21828.435471
16.0,573,21849.586288
25.0,844,21880.715239
12.0,587,21921.426265
21.0,771,21950.198249
29.0,996,21988.179309
22.0,688,22014.205624
23.0,814,22062.936359
17.0,600,22085.586737
20.0,615,22108.541285
14.0,625,22131.683287
22.0,440,22148.021404
30.0,939,22201.588122
22.0,789,22231.462877
20.0,725,22258.916489
23.0,883,22310.610228
13.0,485,22328.53896
15.0,675,22354.005138
17.0,509,22372.744706
17.0,667,22397.970169
27.0,631,22439.674187
19.0,691,22466.139063
14.0,634,22490.032435
22.0,842,22522.220316
12.0,532,22560.403981
18.0,781,22590.018625
18.0,652,22615.261062
18.0,763,22644.025677
19.0,686,22689.004987
15.0,705,22715.713073
41.0,1265,22763.663369
29.0,901,22816.926178
19.0,678,22842.482705
16.0,679,22867.923287
26.0,816,22898.339727
28.0,860,22949.166465
16.0,589,22971.133521
17.0,712,22997.688203
23.0,839,23029.555103
20.0,751,23076.415004
16.0,682,23102.149891
19.0,591,23123.647158
21.0,803,23154.474131
10.0,525,23193.215194
23.0,719,23220.794968
24.0,685,23246.834469
33.0,858,23279.689573
23.0,865,23331.632051
15.0,714,23358.792043
14.0,723,23386.470636
20.0,739,23414.694712
21.0,805,23463.696375
22.0,814,23494.374522
13.0,612,23516.83427
16.0,690,23543.028647
18.0,651,23586.699659
23.0,827,23617.886761
23.0,795,23647.297863
30.0,788,23694.523007
23.0,656,23718.940737
21.0,856,23750.990883
27.0,628,23774.758278
23.0,728,23821.345735
33.0,860,23853.874737
18.0,733,23881.263574
24.0,578,23903.550136
18.0,698,23947.555374
27.0,833,23979.062711
14.0,582,24001.554012
17.0,622,24024.867428
24.0,782,24074.05739
27.0,716,24100.885605
28.0,846,24132.573152
18.0,763,24161.918353
17.0,594,24203.571974
22.0,852,24236.390542
23.0,668,24261.060068
16.0,705,24288.210846
23.0,823,24336.993067
32.0,913,24371.541633
14.0,618,24394.901103
22.0,676,24419.720384
33.0,851,24471.827792
14.0,591,24494.82094
19.0,831,24526.343953
20.0,757,24554.601548
23.0,760,24602.263313
39.0,1034,24640.766332
13.0,575,24661.942147
15.0,741,24707.829301
26.0,826,24738.496856
22.0,705,24765.055155
37.0,1036,24803.809963
23.0,878,24855.938079
11.0,537,24876.310872
23.0,655,24901.154552
19.0,739,24929.339638
18.0,744,24975.723021
15.0,647,24999.97522
18.0,817,25030.845716
23.0,727,25059.22602
24.0,640,25101.788205
21.0,761,25130.83286
21.0,752,25159.073205
23.0,915,25211.084922
28.0,1029,25249.697965
13.0,566,25270.899821
15.0,646,25295.223539
18.0,677,25339.545296
22.0,733,25367.138835
24.0,743,25395.316614
24.0,864,25427.538841
11.0,489,25465.586611
18.0,641,25489.212766
22.0,836,25521.19353
27.0,862,25553.842335
15.0,642,25596.895439
14.0,591,25619.503543
36.0,911,25654.077239
14.0,594,25676.958671
20.0,472,25713.541334
38.0,902,25747.561829
17.0,765,25775.869944
23.0,903,25810.047497
25.0,777,25859.210711
23.0,824,25890.290589
18.0,525,25909.847891
27.0,763,25938.659203
36.0,1022,25996.055598
27.0,750,26024.299557
20.0,682,26049.409378
29.0,889,26102.565323
28.0,856,26135.236109
21.0,698,26161.940675
17.0,604,26185.147449
21.0,802,26234.690537
22.0,645,26259.002418
20.0,776,26287.652402
20.0,751,26316.107143
32.0,878,26368.027823
25.0,892,26402.077614
26.0,939,26437.742779
26.0,845,26489.553263
24.0,708,26515.854873
27.0,610,26539.139725
16.0,552,26559.399422
27.0,771,26607.683596
38.0,954,26643.524076
16.0,712,26670.5802
29.0,888,26703.403504
17.0,701,26749.45214
15.0,631,26773.177577
26.0,883,26806.326484
16.0,668,26831.262315
21.0,844,26880.727089
25.0,736,26908.56563
24.0,905,26942.622044
23.0,867,26993.752385
25.0,890,27027.251323
19.0,701,27053.657479
38.0,816,27084.43643
24.0,862,27134.189417
16.0,748,27161.977035
18.0,542,27182.589084
23.0,818,27233.066608
25.0,1004,27270.871155
19.0,781,27300.210477
21.0,764,27328.774128
19.0,734,27374.807482
18.0,742,27403.483547
19.0,779,27433.152581
21.0,639,27457.011869
42.0,964,27512.403101
22.0,836,27543.941206
22.0,762,27572.118509
30.0,751,27618.176076
15.0,652,27642.771483
11.0,536,27662.771088
20.0,837,27694.580685
23.0,858,27745.380272
30.0,869,27778.231766
24.0,653,27802.81776
30.0,830,27834.093288
16.0,711,27880.592284
29.0,938,27916.80669
10.0,457,27933.65316
20.0,792,27963.324292
26.0,802,28012.140073
32.0,839,28043.423318
31.0,945,28079.234156
32.0,1042,28136.987418
16.0,679,28163.131611
32.0,1088,28204.834552
24.0,802,28252.959563
21.0,644,28276.88424
25.0,880,28309.963105
30.0,901,28344.455779
14.0,633,28385.855643
21.0,776,28415.59986
20.0,845,28447.638801
22.0,672,28490.914786
13.0,583,28512.163473
22.0,785,28541.653067
21.0,705,28567.978251
20.0,733,28595.983453
21.0,722,28642.083176
26.0,778,28671.548007
31.0,1000,28709.79766
30.0,921,28763.156098
13.0,583,28785.492618
16.0,675,28810.47811
35.0,859,28842.724242
27.0,743,28888.489944
15.0,483,28906.754392
37.0,1078,28947.790081
28.0,971,29004.04217
27.0,759,29032.518995
17.0,686,29057.911168
28.0,999,29095.918832
20.0,807,29145.32383
31.0,899,29178.673281
22.0,774,29206.940803
15.0,681,29249.426158
34.0,1011,29287.717738
19.0,680,29313.481363
20.0,856,29346.058865
25.0,1041,29404.123122
24.0,645,29428.156493
25.0,784,29457.859047
18.0,808,29506.846739
25.0,809,29537.217647
25.0,921,29572.456917
14.0,492,29590.642251
32.0,887,29642.245435
21.0,762,29671.111034
20.0,839,29703.638184
14.0,634,29727.118453
33.0,655,29770.471184
34.0,1044,29810.244669
43.0,1085,29851.558446
32.0,912,29903.662522
29.0,929,29939.381267
35.0,908,29973.814051
33.0,851,30024.637622
30.0,800,30054.964391
20.0,852,30087.546999
36.0,959,30141.983198
20.0,723,30168.975793
32.0,842,30200.962492
35.0,898,30254.431006
39.0,866,30287.420761
21.0,752,30315.334993
28.0,893,30348.934458
19.0,732,30394.649304
32.0,736,30421.782907
26.0,864,30454.318861
25.0,919,30507.958611
27.0,980,30544.872694
25.0,786,30574.471818
19.0,661,30599.631452
21.0,741,30644.656831
21.0,867,30678.065524
32.0,952,30714.222724
19.0,715,30759.668417
18.0,799,30789.593351
31.0,811,30820.603761
37.0,1023,30859.269531
26.0,791,30907.765946
38.0,931,30943.319576
34.0,968,30979.897108
28.0,763,31025.457959
32.0,932,31061.776223
24.0,746,31089.174707
22.0,737,31134.997741
27.0,776,31164.149436
37.0,1100,31206.42547
25.0,827,31238.105516
41.0,1094,31297.912257
40.0,1277,31346.165904
42.0,896,31399.148887
27.0,803,31429.400799
28.0,918,31464.203964
28.0,762,31493.237749
19.0,583,31533.518705
40.0,1012,31571.83529
29.0,1009,31610.567137
46.0,1189,31673.35835
25.0,969,31709.66002
37.0,1067,31768.312802
47.0,1188,31813.156009
18.0,657,31838.003435
27.0,807,31868.688635
22.0,660,31911.77147
46.0,1085,31952.742789
24.0,688,31978.342328
36.0,904,32031.182977
19.0,799,32061.495533
31.0,943,32097.078137
27.0,866,32147.703704
21.0,748,32175.819714
25.0,836,32206.832731
25.0,909,32241.253203
30.0,852,32292.389313
28.0,822,32323.475371
31.0,1002,32361.274369
32.0,869,32412.332505
46.0,923,32446.625683
32.0,817,32476.659823
27.0,867,32526.851956
21.0,781,32555.941314
40.0,1045,32595.975097
34.0,910,32650.189211
33.0,978,32687.009741
37.0,976,32724.434473
33.0,985,32780.230138
25.0,749,32808.922762
33.0,885,32841.936314
27.0,860,32875.192631
18.0,644,32917.153442
35.0,926,32951.783426
32.0,929,32987.215439
27.0,741,33032.738799
17.0,697,33058.79953
30.0,714,33085.626958
46.0,1125,33128.837866
23.0,865,33178.922321
24.0,878,33212.426493
37.0,1060,33252.325482
55.0,1168,33314.751007
43.0,1233,33360.709341
39.0,948,33414.780176
32.0,920,33449.309706
51.0,1216,33495.908457
27.0,635,33537.426103
56.0,1476,33594.384775
39.0,1053,33652.054861
31.0,859,33684.181282
39.0,1164,33729.124436
13.0,582,33750.681609
35.0,1045,33809.0323
21.0,800,33838.533623
40.0,1039,33878.420815
23.0,825,33926.88453
25.0,743,33954.783342
55.0,1043,33993.510072
23.0,661,34037.166035
41.0,1085,34078.369994
31.0,963,34114.017808
18.0,788,34162.516351
14.0,641,34186.891433
22.0,782,34215.892475
24.0,824,34246.513351
36.0,1011,34303.38607
51.0,1274,34351.750379
18.0,651,34375.915613
42.0,950,34430.292325
34.0,698,34456.487013
52.0,1082,34497.816925
41.0,977,34552.424088
35.0,908,34586.301613
41.0,1058,34628.445484
19.0,769,34675.445588
37.0,940,34711.727896
32.0,870,34745.079513
29.0,829,34792.709329
63.0,1432,34846.942483
34.0,984,34883.429756
25.0,831,34934.056109
35.0,945,34969.009036
55.0,1197,35032.093913
44.0,895,35066.149704
42.0,924,35100.748509
30.0,732,35128.635644
43.0,978,35183.289875
17.0,618,35206.009176
22.0,697,35232.560773
42.0,1180,35294.052185
40.0,938,35329.023352
39.0,1069,35369.480299
38.0,961,35425.37936
26.0,832,35457.145815
18.0,761,35485.402394
49.0,1105,35545.897378
33.0,984,35582.737391
34.0,826,35613.471747
41.0,1085,35672.676174
17.0,674,35697.813099
44.0,1160,35741.699028
26.0,933,35794.141146
34.0,964,35830.232482
67.0,1193,35875.156585
27.0,794,35923.069814
23.0,568,35943.636563
44.0,916,35977.861991
38.0,1058,36036.68899
19.0,809,36066.90062
34.0,932,36101.896854
58.0,1296,36170.320632
36.0,1000,36207.8495
49.0,1266,36256.008114
43.0,1088,36317.430822
24.0,712,36343.59354
55.0,1416,36416.870444
36.0,1187,36461.907053
47.0,1095,36503.894374
49.0,1208,36568.405843
38.0,1097,36609.954378
28.0,1012,36666.858067
54.0,1196,36712.24552
36.0,900,36745.925109
39.0,1074,36805.494796
36.0,1003,36843.813347
24.0,858,36876.818042
36.0,964,36933.307654
44.0,1247,36980.033261
34.0,826,37011.692456
44.0,1233,37078.09251
24.0,774,37107.051226
22.0,762,37136.126459
51.0,1361,37206.58734
27.0,775,37236.252219
79.0,1394,37308.592555
51.0,977,37345.140844
28.0,781,37374.357837
42.0,873,37426.300444
50.0,1107,37469.070957
57.0,1273,37516.906059
25.0,727,37563.465534
45.0,1198,37607.642758
38.0,808,37638.46668
33.0,951,37694.028385
37.0,887,37727.535183
48.0,1055,37768.188139
52.0,1197,37834.326873
27.0,1020,37872.306234
35.0,955,37908.756181
35.0,1205,37974.752101
14.0,633,37998.457303
19.0,752,38026.766466
38.0,1068,38086.631935
26.0,742,38114.288566
31.0,852,38146.338879
33.0,1119,38207.086803
62.0,1361,38258.376296
47.0,1105,38319.093035
24.0,703,38345.534265
34.0,1067,38386.435601
53.0,1197,38451.184807
26.0,634,38474.939486
15.0,702,38502.036008
66.0,901,38537.254124
40.0,1092,38598.347194
25.0,783,38627.60477
24.0,727,38654.558051
49.0,1073,38714.77835
24.0,736,38743.091413
42.0,1183,38788.500372
35.0,1078,38847.962265
82.0,1366,38899.787659
39.0,1057,38959.465993
27.0,834,38991.174068
44.0,925,39026.098087
61.0,1111,39086.632356
33.0,979,39123.926058
39.0,1044,39162.916811
39.0,896,39216.634636
31.0,872,39249.623538
41.0,1195,39294.826086
41.0,1050,39353.074736
54.0,1330,39404.513856
55.0,1254,39471.791989
23.0,813,39502.396235
39.0,1084,39542.620812
48.0,1173,39604.870961
36.0,1097,39646.924145
33.0,831,39678.172803
67.0,1433,39751.595294
65.0,1470,39806.545353
44.0,1075,39866.236794
46.0,1268,39915.222087
54.0,1254,39981.634545
33.0,986,40017.973075
38.0,1161,40062.173749
36.0,1181,40126.620745
27.0,766,40155.168972
77.0,1639,40236.197514
29.0,725,40263.382825
54.0,1309,40312.058495
46.0,1175,40374.662801
61.0,943,40410.20417
59.0,1320,40479.157948
41.0,1088,40520.515411
39.0,989,40557.386578
41.0,1170,40621.930488
52.0,1181,40666.269395
43.0,1009,40723.473996
32.0,988,40759.85724
41.0,967,40796.89694
35.0,1089,40857.625017
37.0,1001,40895.725427
61.0,1184,40940.343277
37.0,1009,40999.404457
35.0,771,41028.683733
31.0,866,41061.96943
19.0,807,41110.916635
50.0,803,41141.520261
44.0,1060,41181.685617
29.0,529,41201.248582
34.0,1012,41259.01746
47.0,1087,41299.890606
62.0,1317,41369.150399
43.0,1160,41413.071913
37.0,929,41447.441555
43.0,1065,41506.801434
28.0,900,41540.805613
47.0,1142,41603.387164
31.0,1070,41643.469964
44.0,1110,41685.916908
31.0,831,41736.912715
31.0,915,41770.789715
32.0,873,41803.606833
57.0,894,41857.291127
31.0,908,41891.953214
51.0,1183,41937.239401
80.0,1633,42017.749457
45.0,1270,42066.563114
39.0,1130,42129.397333
55.0,1432,42184.920288
54.0,1276,42251.789739
32.0,798,42281.567191
26.0,909,42315.257734
70.0,1444,42390.833614
21.0,652,42415.686748
64.0,1412,42470.159816
41.0,982,42525.178382
17.0,678,42551.023264
67.0,1419,42624.633416
44.0,1151,42667.354503
25.0,1068,42707.521376
31.0,923,42761.369302
42.0,1131,42803.799802
42.0,1170,42847.618503
58.0,1342,42917.811975
80.0,1474,42974.06777
29.0,966,43029.396899
65.0,1402,43082.216383
65.0,1261,43148.316824
50.0,1207,43194.065922
16.0,666,43218.898565
38.0,1089,43279.231849
65.0,1453,43334.833034
41.0,859,43386.20904
32.0,934,43420.623665
64.0,1237,43467.632948
50.0,1220,43532.638472
32.0,722,43559.421882
42.0,1178,43604.346579
60.0,1376,43674.948882
55.0,1125,43717.280472
72.0,1172,43781.213966
55.0,1287,43829.241714
55.0,1118,43891.473102
58.0,1265,43940.25086
28.0,1003,43978.222109
63.0,1251,44044.431612
44.0,1017,44082.670403
51.0,1273,44148.562167
34.0,938,44183.570943
61.0,1345,44234.296588
62.0,1449,44308.936715
60.0,1341,44359.856248
43.0,1104,44421.304161
66.0,1057,44460.596338
52.0,1315,44529.220648
31.0,1023,44567.89968
34.0,954,44603.918561
57.0,1493,44677.914018
41.0,1027,44716.55216
53.0,1168,44779.833344
52.0,1007,44818.319655
40.0,1095,44859.036448
86.0,1672,44940.862832
50.0,1263,44989.035142
40.0,935,45042.346606
58.0,1371,45094.322228
38.0,1180,45157.509722
58.0,1388,45209.829643
47.0,1154,45272.917267
32.0,890,45305.931021
28.0,1033,45345.477038
74.0,1386,45417.686845
37.0,1050,45457.083476
52.0,1144,45520.276674
48.0,1062,45560.724106
57.0,1324,45610.758441
37.0,929,45665.473458
50.0,1163,45708.911712
57.0,1442,45783.310328
46.0,1184,45828.282154
43.0,1185,45873.840756
84.0,1577,45953.306789
32.0,974,45989.861234
33.0,1091,46050.588078
47.0,1146,46093.78547
45.0,995,46131.493541
58.0,1391,46204.244208
31.0,944,46239.863425
48.0,1111,46299.756834
50.0,1203,46346.139776
49.0,1233,46411.655427
57.0,1302,46460.163176
43.0,921,46494.883568
56.0,1331,46564.351732
50.0,1212,46610.869489
30.0,1040,46669.605449
29.0,933,46704.040232
43.0,1171,46745.877766
42.0,864,46795.086275
68.0,1631,46853.260408
55.0,1312,46918.397168
59.0,1537,46973.848432
60.0,1347,47040.545685
57.0,1348,47088.850485
54.0,1112,47147.022431
44.0,1159,47189.163534
36.0,954,47223.626175
22.0,612,47262.631402
49.0,1238,47307.039143
58.0,1270,47352.607199
62.0,1304,47417.612156
49.0,1149,47458.510865
58.0,1275,47521.085505
41.0,1116,47561.124606
35.0,1054,47617.52295
42.0,1089,47656.275306
74.0,1536,47711.343362
40.0,992,47765.281704
46.0,1224,47808.958603
42.0,1056,47865.445014
63.0,1362,47913.762719
44.0,1028,47950.353477
36.0,977,48003.845446
59.0,1321,48051.444833
66.0,1503,48123.990802
54.0,1372,48172.622572
33.0,814,48219.648063
82.0,1596,48277.35635
23.0,636,48300.083102
84.0,1519,48372.285346
66.0,1182,48414.482867
57.0,1426,48482.657512
46.0,1179,48524.147915
38.0,1067,48580.667779
70.0,1413,48632.041705
38.0,987,48667.287621
50.0,1089,48723.859951
49.0,1321,48772.008871
63.0,1228,48832.879153
59.0,1285,48878.423689
70.0,1387,48946.306472
32.0,929,48979.633669
74.0,1139,49020.315404
45.0,1238,49083.108645
55.0,1277,49129.211465
72.0,1327,49195.762397
42.0,970,49230.592881
35.0,830,49260.361849
55.0,1210,49322.619287
39.0,984,49358.013412
74.0,1492,49429.746559
31.0,940,49462.849883
63.0,1321,49510.791574
88.0,1504,49581.636086
42.0,1188,49624.264543
49.0,1148,49682.867225
34.0,972,49717.319043
60.0,1416,49785.437833
57.0,1325,49833.023242
54.0,1081,49889.421905
30.0,855,49919.75129
45.0,1269,49964.857503
40.0,938,50016.730907
54.0,1298,50063.201797
46.0,1131,50104.112879
72.0,1505,50175.661067
64.0,1302,50222.384284
37.0,1037,50277.721911
44.0,1071,50316.215659
40.0,1135,50374.562742
60.0,1263,50419.766346
27.0,930,50453.36176
49.0,1204,50515.082992
47.0,934,50548.284777
39.0,1012,50584.365215
34.0,1006,50638.54267
57.0,1372,50688.255111
40.0,1183,50748.289361
24.0,847,50779.074694
86.0,1727,50861.378261
68.0,1375,50910.028464
56.0,1120,50967.292418
57.0,1224,51010.624472
28.0,1009,51046.112091
39.0,1067,51101.903561
41.0,1124,51144.051405
43.0,999,51182.372754
58.0,1286,51251.908511
55.0,1371,51303.493596
72.0,1495,51376.385159
29.0,599,51397.614482
58.0,1463,51468.674218
48.0,1119,51509.199902
63.0,1274,51554.772974
53.0,1366,51622.124824
63.0,1427,51672.490628
59.0,1186,51734.121288
77.0,1528,51789.651924
34.0,941,51841.261646
57.0,1248,51886.110914
71.0,1474,51956.059414
53.0,1321,52003.445627
48.0,1247,52065.354026
60.0,1466,52117.606335
52.0,1341,52183.777785
77.0,1448,52235.589353
32.0,990,52270.949076
63.0,1179,52331.545915
43.0,1083,52370.313263
54.0,1421,52438.871241
33.0,983,52473.909594
54.0,1273,52538.386753
49.0,1220,52582.25375
68.0,1572,52657.954091
62.0,1612,52714.913688
84.0,1437,52786.896293
54.0,1132,52827.861092
52.0,1001,52862.963202
46.0,1042,52918.05642
46.0,1123,52958.874214
55.0,1368,53025.583591
57.0,1334,53073.990853
57.0,1165,53133.52097
65.0,1499,53187.262293
59.0,1340,53252.754524
66.0,1405,53302.558149
48.0,1302,53349.326447
24.0,721,53393.624389
51.0,1136,53434.56438
