# {"t_start": 1546991652.3917992, "env_id": "BattleZoneNoFrameskip-v4"} 
r,l,t
5000.0,1310,28.305728
6000.0,1552,56.688713
3000.0,1873,91.037213
20000.0,1538,119.967347
2000.0,1398,145.028291
1000.0,1316,168.471086
3000.0,1589,197.578147
3000.0,1015,216.623321
4000.0,1449,242.675157
3000.0,1204,265.260601
0.0,1188,287.852972
0.0,1195,309.318145
8000.0,1642,340.789083
0.0,1214,362.084464
2000.0,1188,382.974424
6000.0,1255,405.474725
15000.0,1659,436.472323
8000.0,1737,467.341983
2000.0,1375,493.521964
0.0,1332,517.398661
2000.0,1018,537.535028
4000.0,1033,556.086796
2000.0,935,574.224818
0.0,1272,597.094977
6000.0,1354,621.876459
2000.0,978,640.620584
3000.0,841,657.75907
1000.0,1077,677.444226
0.0,1197,699.200181
0.0,1229,722.746741
7000.0,1202,744.186761
0.0,1190,767.049411
7000.0,1276,790.295885
5000.0,1560,818.688752
7000.0,1538,847.572167
0.0,1280,871.665598
4000.0,1601,900.866345
0.0,1127,921.032542
0.0,1826,954.69448
0.0,1172,977.063123
0.0,1501,1004.575216
1000.0,1309,1027.967523
0.0,1138,1049.726384
6000.0,2271,1091.208195
1000.0,1714,1122.365814
0.0,1754,1153.908129
1000.0,1524,1181.779446
10000.0,1359,1207.612729
9000.0,1475,1235.298026
5000.0,1736,1267.237352
6000.0,1353,1293.20225
0.0,1367,1318.16479
5000.0,2181,1359.304849
8000.0,1499,1386.737006
7000.0,958,1404.52225
12000.0,1987,1441.807678
8000.0,1453,1467.642796
4000.0,1291,1491.518216
4000.0,1183,1513.252706
5000.0,1890,1548.47734
1000.0,1450,1574.575384
2000.0,1477,1604.649506
0.0,1620,1637.197303
0.0,1205,1660.275383
9000.0,1805,1697.327434
2000.0,1318,1723.961021
7000.0,1306,1749.397028
0.0,1391,1777.395171
0.0,1324,1804.500498
21000.0,2429,1852.446166
10000.0,1476,1881.572762
5000.0,1755,1916.014438
3000.0,1379,1943.821502
1000.0,2074,1985.254753
9000.0,1998,2024.598893
1000.0,1144,2048.310062
3000.0,1579,2080.579386
0.0,1357,2108.232564
1000.0,1573,2138.977351
15000.0,1485,2168.642101
1000.0,1792,2204.940968
4000.0,1377,2231.556892
3000.0,1182,2254.543698
0.0,1587,2286.250825
9000.0,2368,2333.772739
8000.0,1545,2363.95099
2000.0,1608,2395.605916
17000.0,2117,2437.753623
2000.0,1671,2470.310117
1000.0,907,2488.091459
8000.0,2950,2547.316726
18000.0,4796,2643.763122
1000.0,1063,2666.795155
5000.0,1929,2706.400162
1000.0,2492,2757.795546
15000.0,1993,2797.911982
4000.0,2084,2841.523632
3000.0,1333,2868.604508
1000.0,977,2887.373319
5000.0,1990,2927.960722
10000.0,1992,2966.6747
1000.0,1199,2989.566769
0.0,1484,3018.934784
2000.0,2908,3076.922648
8000.0,1731,3111.559903
9000.0,1380,3138.808648
7000.0,2060,3178.18968
12000.0,4681,3280.685884
4000.0,1521,3313.72805
4000.0,2485,3369.097389
5000.0,2839,3430.68555
7000.0,3690,3516.050073
3000.0,1908,3560.121255
0.0,1871,3606.481626
7000.0,2052,3658.278988
4000.0,2656,3725.02237
0.0,1763,3771.096687
0.0,1899,3821.045994
1000.0,2010,3879.559697
0.0,1770,3930.672219
13000.0,3020,4017.278643
0.0,1040,4046.676134
4000.0,905,4072.62781
2000.0,1402,4111.617841
12000.0,3104,4199.507043
2000.0,1157,4232.397441
3000.0,1874,4284.854288
3000.0,917,4311.903713
5000.0,1404,4352.363292
0.0,1030,4383.686695
4000.0,1104,4414.856463
1000.0,1187,4448.15518
6000.0,1482,4490.450036
2000.0,1517,4534.067542
0.0,1414,4575.770844
3000.0,933,4601.579603
2000.0,930,4628.394561
3000.0,1359,4666.937508
1000.0,1370,4705.923997
4000.0,1411,4745.28954
3000.0,1255,4783.392235
3000.0,1120,4816.759308
1000.0,1312,4856.550928
0.0,1185,4891.271407
1000.0,1047,4923.869939
9000.0,1467,4969.054527
0.0,1625,5016.977472
10000.0,2057,5082.590818
2000.0,1087,5117.316672
4000.0,1676,5170.539129
6000.0,1627,5221.569282
0.0,1161,5257.111901
0.0,1552,5308.087997
0.0,1579,5358.074532
0.0,1264,5398.532107
2000.0,1672,5452.973381
1000.0,1174,5490.231078
7000.0,1869,5549.44695
5000.0,955,5579.754868
1000.0,1502,5626.635084
3000.0,1580,5678.221243
8000.0,1643,5730.356293
8000.0,2179,5799.43677
4000.0,959,5829.982731
2000.0,1701,5882.953456
4000.0,1155,5919.636256
1000.0,1505,5966.876365
7000.0,1468,6012.955795
2000.0,1385,6057.784025
5000.0,1540,6109.518524
1000.0,1308,6151.722792
2000.0,1426,6196.540979
0.0,1570,6248.701222
1000.0,1166,6285.359132
1000.0,1062,6319.019472
5000.0,1496,6365.303223
6000.0,1519,6415.091967
4000.0,1877,6475.264872
9000.0,1527,6524.949325
2000.0,1230,6562.424303
0.0,1437,6607.902283
0.0,1192,6647.289864
1000.0,1117,6681.595525
13000.0,1731,6735.002553
12000.0,1596,6787.210883
7000.0,1229,6826.917365
5000.0,1269,6867.635312
4000.0,1224,6904.78126
0.0,1420,6949.771686
4000.0,1839,7007.333143
7000.0,1309,7049.37285
7000.0,1041,7082.716272
6000.0,1496,7129.020412
1000.0,2028,7194.326603
3000.0,1922,7256.836688
2000.0,1165,7293.033657
4000.0,1022,7324.316989
0.0,1790,7381.4101
3000.0,2015,7445.641045
16000.0,5845,7632.607048
1000.0,1772,7689.394795
5000.0,2244,7759.38143
8000.0,1740,7814.078254
3000.0,3041,7910.914978
3000.0,1133,7947.769618
2000.0,1473,7993.560333
5000.0,5019,8158.094357
0.0,2269,8230.830874
8000.0,6353,8438.233586
2000.0,1476,8485.946121
6000.0,4095,8619.326436
1000.0,1337,8661.881768
2000.0,1683,8716.903078
1000.0,1910,8778.581722
4000.0,1287,8819.408165
5000.0,2169,8886.674992
0.0,1736,8941.22579
0.0,1997,9006.029146
5000.0,1512,9053.965741
11000.0,1762,9109.749119
7000.0,2249,9184.198484
4000.0,1437,9230.369563
5000.0,1738,9286.677374
8000.0,1433,9331.377899
1000.0,1331,9373.628806
2000.0,1657,9428.640866
4000.0,1379,9472.860842
4000.0,957,9502.654058
2000.0,1615,9553.036383
6000.0,1843,9612.052797
9000.0,2118,9680.400592
1000.0,1189,9717.246163
10000.0,1745,9772.869797
7000.0,2160,9840.61596
8000.0,1684,9893.487815
1000.0,1171,9929.83967
3000.0,777,9954.155108
5000.0,1655,10006.528292
0.0,1293,10048.070822
0.0,1644,10100.927505
2000.0,1401,10146.544517
2000.0,1176,10185.881907
0.0,1633,10237.820183
6000.0,1299,10277.481427
2000.0,1237,10317.428612
5000.0,1877,10379.310135
0.0,1285,10420.417015
10000.0,2510,10500.82863
0.0,966,10531.985261
5000.0,1742,10588.810483
6000.0,1274,10631.698819
1000.0,1190,10668.833243
5000.0,2601,10752.142994
1000.0,3448,10863.350263
0.0,1267,10903.861609
9000.0,2505,10983.337562
4000.0,1437,11030.452499
3000.0,2050,11094.768611
1000.0,1651,11148.981752
4000.0,2720,11234.534678
2000.0,1050,11267.118469
3000.0,1634,11319.107841
5000.0,1713,11373.223192
4000.0,1815,11432.729344
1000.0,2013,11496.678983
1000.0,2463,11574.716963
3000.0,1870,11633.899103
13000.0,2571,11716.599096
1000.0,2428,11795.225393
3000.0,1757,11852.903937
15000.0,3040,11953.066324
3000.0,2250,12024.212547
5000.0,2183,12095.764544
1000.0,1504,12143.654536
11000.0,4040,12276.355687
1000.0,1428,12322.533883
1000.0,1502,12371.040766
1000.0,1873,12428.985191
9000.0,1962,12492.135413
2000.0,1765,12548.58281
2000.0,1040,12581.425178
4000.0,2746,12669.223763
5000.0,1860,12728.004589
12000.0,3420,12838.346593
1000.0,2519,12920.362106
1000.0,1716,12977.65358
1000.0,1550,13028.464408
0.0,1085,13063.503512
2000.0,1387,13107.553376
0.0,1762,13164.355091
5000.0,2094,13230.62933
5000.0,1305,13271.973056
1000.0,1815,13331.464406
1000.0,1951,13393.64979
15000.0,1805,13454.046177
0.0,1625,13504.419637
4000.0,2259,13577.305839
8000.0,1573,13627.501687
0.0,1543,13676.792679
0.0,2195,13746.961708
1000.0,993,13779.021648
0.0,2221,13852.067733
8000.0,2769,13941.859751
3000.0,1806,13999.470373
4000.0,1489,14048.3444
1000.0,1840,14108.459556
10000.0,2043,14176.820735
8000.0,1989,14243.087346
3000.0,1416,14291.452321
3000.0,1325,14335.933667
2000.0,1269,14380.135306
0.0,1746,14437.432729
1000.0,1768,14494.849766
2000.0,1362,14539.196604
4000.0,1460,14586.890278
7000.0,1842,14645.676256
1000.0,1461,14692.021517
1000.0,1629,14744.572693
8000.0,1619,14796.033497
6000.0,1510,14846.090884
1000.0,1316,14888.621212
0.0,1512,14937.068206
0.0,1292,14977.835598
8000.0,1705,15032.957317
6000.0,1740,15089.765506
1000.0,1190,15126.177618
3000.0,1219,15165.182964
2000.0,1143,15201.498253
3000.0,1698,15255.769958
2000.0,1825,15313.353866
9000.0,1633,15365.100174
0.0,1204,15403.354519
1000.0,1463,15450.786938
1000.0,1407,15495.790641
1000.0,1387,15540.512786
3000.0,1061,15574.303846
5000.0,1850,15633.800181
0.0,1319,15676.80394
2000.0,1400,15721.669733
3000.0,2294,15796.567574
4000.0,1505,15844.66943
1000.0,1190,15881.244897
8000.0,1466,15930.166989
3000.0,1210,15970.633153
4000.0,1855,16029.71194
5000.0,1866,16089.656222
12000.0,1788,16145.576669
4000.0,1843,16204.820819
0.0,1202,16243.250652
0.0,955,16275.045779
13000.0,1618,16327.090014
1000.0,1431,16372.095562
6000.0,1849,16432.49341
5000.0,1280,16474.027367
8000.0,1416,16520.310479
5000.0,1684,16573.82319
2000.0,741,16596.249555
2000.0,1262,16636.95047
3000.0,1557,16686.14318
0.0,1453,16734.171599
0.0,1839,16793.44317
9000.0,2246,16866.134482
1000.0,1195,16907.110389
2000.0,1177,16945.249374
0.0,1265,16986.323128
1000.0,1011,17018.943431
9000.0,1466,17065.216052
2000.0,1717,17121.585756
0.0,1489,17170.012754
2000.0,1266,17211.659017
3000.0,1288,17252.534218
0.0,1177,17291.013201
6000.0,1418,17337.567353
3000.0,1048,17370.076216
3000.0,1115,17404.929524
6000.0,1736,17462.207581
6000.0,1264,17502.974754
4000.0,1319,17545.261832
4000.0,1793,17603.601605
3000.0,976,17634.206519
1000.0,1189,17671.717443
1000.0,964,17703.534422
3000.0,907,17732.41151
3000.0,1165,17769.331926
3000.0,1820,17826.664762
5000.0,990,17857.075809
1000.0,1251,17896.294297
0.0,1281,17938.50724
2000.0,786,17963.524082
1000.0,1301,18005.657021
1000.0,1528,18054.259985
3000.0,925,18083.07229
7000.0,1352,18127.665157
11000.0,1647,18179.587795
4000.0,1166,18216.924466
1000.0,1283,18258.791788
2000.0,1215,18298.143477
8000.0,1671,18351.180376
5000.0,890,18381.206503
8000.0,1366,18423.782357
4000.0,1003,18457.004459
16000.0,1686,18511.733435
2000.0,1112,18548.483963
7000.0,857,18577.195045
1000.0,1322,18620.024373
10000.0,1757,18677.169802
0.0,1179,18714.947667
4000.0,674,18736.664219
1000.0,1105,18770.962427
2000.0,1098,18805.926971
3000.0,1034,18840.275006
8000.0,1290,18882.021391
8000.0,1358,18926.057826
0.0,1248,18966.141033
1000.0,1151,19003.848767
3000.0,774,19028.331596
3000.0,1333,19070.003364
3000.0,1133,19106.810956
2000.0,1713,19162.209857
6000.0,1226,19200.328594
0.0,1283,19242.146574
2000.0,1202,19279.859783
16000.0,1544,19328.032981
0.0,1169,19365.350436
5000.0,968,19395.782794
0.0,1447,19442.011068
0.0,1035,19475.078093
0.0,1543,19524.079962
11000.0,1098,19558.409926
1000.0,919,19587.59226
4000.0,1848,19648.111347
4000.0,1497,19696.79882
7000.0,1301,19738.739143
2000.0,1343,19781.87054
0.0,1084,19817.058577
2000.0,1260,19856.384407
2000.0,1165,19894.437574
10000.0,1108,19929.49121
8000.0,1623,19982.423156
13000.0,1555,20032.207777
6000.0,1354,20074.608277
4000.0,1224,20114.617702
0.0,1367,20158.182096
5000.0,1086,20192.770207
2000.0,1476,20240.300085
2000.0,1162,20278.743897
6000.0,912,20308.299267
7000.0,1001,20339.501368
2000.0,1075,20373.513362
4000.0,1218,20412.806252
1000.0,881,20440.742596
15000.0,1380,20484.728882
1000.0,1379,20527.126335
11000.0,1361,20570.80292
1000.0,968,20602.298917
7000.0,928,20631.975982
0.0,1294,20673.710002
2000.0,982,20705.792889
6000.0,1843,20765.922807
1000.0,1511,20814.695701
7000.0,1341,20860.485958
8000.0,1068,20895.427628
0.0,1192,20933.431804
13000.0,1389,20978.299192
12000.0,1464,21026.287974
6000.0,1607,21077.687255
2000.0,1242,21118.206761
1000.0,1201,21156.993585
5000.0,1506,21204.963663
1000.0,1177,21243.080551
3000.0,949,21273.304867
6000.0,1484,21321.468138
6000.0,923,21351.227214
8000.0,2244,21422.547918
2000.0,1613,21474.681574
3000.0,1355,21518.639358
4000.0,1206,21559.553257
5000.0,1053,21593.677154
1000.0,1135,21632.59563
6000.0,2693,21716.050912
1000.0,1169,21754.355271
4000.0,1199,21792.587064
1000.0,1622,21845.892071
15000.0,2576,21927.972584
7000.0,1571,21979.343252
2000.0,963,22011.449468
1000.0,987,22044.555782
1000.0,1652,22097.945256
10000.0,2266,22171.790768
7000.0,1970,22234.188182
8000.0,2583,22316.440843
10000.0,1751,22372.612572
1000.0,1634,22425.04157
1000.0,1181,22462.925841
0.0,1548,22510.800889
7000.0,2378,22587.589576
4000.0,1072,22621.436493
11000.0,1835,22681.02538
1000.0,1086,22714.305802
1000.0,1096,22748.861388
9000.0,1427,22794.320932
11000.0,1684,22850.215042
9000.0,1228,22889.077736
3000.0,1341,22932.476843
2000.0,1335,22976.520293
4000.0,1466,23025.0253
3000.0,1405,23069.369119
1000.0,1318,23110.4032
15000.0,1562,23159.775063
5000.0,1059,23192.201304
3000.0,1041,23226.065229
7000.0,1423,23270.802605
3000.0,1643,23324.262304
6000.0,2303,23396.729226
0.0,1446,23442.036681
4000.0,1340,23484.239036
0.0,1546,23533.218251
1000.0,1189,23572.651345
19000.0,1554,23625.911546
4000.0,1360,23669.439933
2000.0,801,23694.676004
4000.0,901,23722.832844
1000.0,1138,23758.893783
6000.0,1383,23802.010246
11000.0,1320,23843.037578
5000.0,1676,23897.037146
2000.0,992,23930.050189
9000.0,1390,23974.761762
1000.0,1321,24015.871232
4000.0,1522,24064.301803
11000.0,1874,24124.515919
9000.0,1297,24166.888896
2000.0,1637,24219.106023
6000.0,1038,24252.332028
2000.0,1172,24289.583066
0.0,1351,24333.335843
2000.0,1550,24384.950326
5000.0,1934,24446.248078
11000.0,1145,24482.042
6000.0,1465,24529.82145
3000.0,1366,24573.011513
9000.0,1449,24617.650167
3000.0,991,24650.069026
1000.0,1315,24693.463382
16000.0,2308,24769.305318
9000.0,1620,24822.117974
5000.0,1912,24885.162349
1000.0,1596,24935.268868
3000.0,1063,24969.693372
4000.0,1677,25022.485542
12000.0,3233,25126.657111
24000.0,4415,25268.969336
1000.0,2059,25334.351946
9000.0,1547,25384.188853
1000.0,1355,25427.4411
11000.0,1362,25470.802341
8000.0,1706,25526.5107
8000.0,1253,25567.20977
13000.0,2244,25638.841345
15000.0,4225,25777.175759
6000.0,1619,25828.927627
9000.0,1581,25879.653165
7000.0,1186,25918.761256
8000.0,1055,25952.274732
8000.0,4961,26111.299806
4000.0,781,26135.418397
3000.0,1288,26175.299202
2000.0,1916,26236.715479
10000.0,1939,26299.554724
14000.0,4887,26456.882783
8000.0,3193,26560.385571
6000.0,1385,26604.127187
3000.0,1531,26653.453082
2000.0,1476,26699.516773
3000.0,904,26728.589845
24000.0,2909,26823.100511
6000.0,1385,26867.293967
18000.0,2606,26952.764418
9000.0,6182,27151.908622
12000.0,2463,27232.839313
15000.0,2538,27313.911661
9000.0,1456,27360.300136
2000.0,3119,27461.732814
9000.0,2803,27551.643278
8000.0,3724,27672.344362
10000.0,1197,27710.633231
1000.0,1832,27769.371577
15000.0,2087,27835.673852
5000.0,1385,27880.972462
2000.0,2192,27951.817324
23000.0,2243,28022.114726
9000.0,2260,28092.642512
4000.0,719,28115.132245
5000.0,938,28148.42666
9000.0,993,28181.709203
3000.0,1045,28215.993126
3000.0,1671,28268.649983
1000.0,1367,28311.959076
11000.0,2533,28393.056577
0.0,1795,28449.877262
8000.0,2419,28528.79349
13000.0,2256,28601.529033
9000.0,1864,28660.948614
10000.0,814,28685.888174
8000.0,3554,28800.37354
18000.0,5208,28967.982991
15000.0,2460,29046.06973
2000.0,1279,29085.599604
2000.0,1966,29149.201549
16000.0,2296,29221.926686
1000.0,2055,29288.387448
2000.0,1371,29333.354616
8000.0,869,29360.405041
14000.0,1440,29405.59077
10000.0,4520,29548.462797
17000.0,2541,29630.346756
10000.0,3026,29727.124693
14000.0,2074,29794.269509
4000.0,1263,29834.513117
1000.0,1872,29895.723609
1000.0,1394,29940.229771
17000.0,3992,30068.949605
5000.0,1803,30126.009249
8000.0,1608,30176.532103
14000.0,2254,30249.57271
16000.0,3270,30352.501066
0.0,2129,30422.525934
3000.0,1097,30456.352099
3000.0,1442,30502.030736
2000.0,979,30534.560407
17000.0,3548,30647.397323
0.0,2213,30718.354121
7000.0,1988,30782.603415
12000.0,1984,30846.820565
4000.0,1686,30900.278168
7000.0,908,30928.733597
5000.0,2123,30993.592867
8000.0,1388,31039.13442
16000.0,1894,31098.150177
1000.0,1181,31136.06661
5000.0,1418,31181.359675
2000.0,1613,31232.837841
5000.0,1170,31269.758936
11000.0,2896,31364.951717
13000.0,1246,31403.178391
5000.0,1672,31457.439698
2000.0,1702,31512.664709
6000.0,99994,34752.308744
9000.0,1621,34804.141448
8000.0,2127,34872.288556
9000.0,1785,34931.684861
12000.0,1554,34981.632376
9000.0,1846,35043.811637
0.0,1255,35086.451833
0.0,1359,35132.811863
5000.0,1437,35180.999952
2000.0,1549,35233.445422
4000.0,948,35263.144725
4000.0,2416,35340.159909
0.0,1537,35388.96304
1000.0,1438,35435.385116
8000.0,1483,35483.475391
5000.0,1914,35544.037549
4000.0,1862,35604.041913
13000.0,1873,35667.92864
4000.0,1001,35703.421594
21000.0,1817,35763.678951
8000.0,1739,35823.958695
3000.0,1241,35863.344639
3000.0,1048,35896.712935
8000.0,1791,35952.886531
2000.0,1318,35995.769704
4000.0,1992,36058.177037
0.0,1507,36107.656925
7000.0,1685,36161.451265
7000.0,1293,36202.525587
13000.0,1789,36260.080215
1000.0,1206,36301.412364
9000.0,1617,36352.945157
16000.0,1604,36405.696597
19000.0,1990,36472.060744
7000.0,994,36505.324253
14000.0,1626,36557.650649
8000.0,1785,36616.915905
4000.0,1469,36665.788873
17000.0,1944,36727.356414
1000.0,1212,36765.275318
21000.0,1912,36828.778873
1000.0,2053,36895.104053
12000.0,2007,36958.009775
12000.0,2200,37027.557608
8000.0,1476,37076.767367
9000.0,99994,40359.797584
2000.0,1002,40391.157609
6000.0,1031,40422.983065
3000.0,661,40444.626523
13000.0,1318,40486.054005
0.0,1455,40533.12537
4000.0,1233,40572.390276
9000.0,1791,40630.361685
10000.0,1419,40676.592759
9000.0,1557,40724.53069
5000.0,1921,40784.703379
3000.0,1173,40822.806923
3000.0,1023,40854.497791
5000.0,1811,40914.304479
1000.0,1709,40968.908029
13000.0,1457,41014.810919
6000.0,1281,41055.492743
9000.0,837,41081.034617
6000.0,1380,41124.598454
1000.0,99993,44358.384039
5000.0,1453,44404.056609
5000.0,1268,44444.446244
8000.0,1416,44488.295341
5000.0,2032,44551.337562
5000.0,1378,44594.552193
3000.0,949,44624.189217
9000.0,910,44655.018804
5000.0,1296,44695.959095
8000.0,1325,44738.358417
11000.0,1148,44773.653975
16000.0,1554,44822.634316
4000.0,1330,44865.009963
6000.0,1178,44903.382958
19000.0,1506,44950.371274
15000.0,1463,44997.263198
11000.0,1415,45043.110729
17000.0,1175,45080.571624
7000.0,1506,45129.506721
23000.0,1633,45182.530993
10000.0,1455,45228.805151
4000.0,1660,45281.013476
4000.0,1462,45327.206192
4000.0,1038,45361.204644
3000.0,1256,45402.51272
10000.0,1221,45441.496089
6000.0,997,45473.823824
6000.0,1317,45514.817767
12000.0,902,45544.554304
20000.0,1722,45600.571101
9000.0,1469,45646.395565
5000.0,1080,45681.023968
10000.0,1445,45726.767132
5000.0,1231,45766.654797
11000.0,1259,45807.585546
14000.0,972,45838.720611
9000.0,1376,45883.120696
5000.0,1261,45923.597237
4000.0,945,45953.666515
8000.0,1314,45995.321052
6000.0,1381,46039.160379
4000.0,851,46066.550847
13000.0,1377,46111.375022
15000.0,1074,46145.795932
3000.0,1154,46182.738509
11000.0,1232,46223.053682
11000.0,1136,46259.059054
14000.0,1895,46318.096463
13000.0,1322,46361.201236
9000.0,1081,46394.985769
10000.0,1039,46428.229268
4000.0,99993,49690.447214
10000.0,1524,49740.263011
18000.0,1498,49789.461355
14000.0,1703,49844.571121
9000.0,1320,49887.658716
16000.0,1555,49938.961202
15000.0,1784,49997.10825
10000.0,1168,50035.9721
17000.0,1989,50099.841735
12000.0,1747,50157.049691
8000.0,1617,50210.735051
13000.0,1819,50269.539764
9000.0,1194,50308.27093
17000.0,1566,50359.43969
15000.0,1577,50411.199725
9000.0,937,50442.16247
13000.0,1547,50492.685954
7000.0,1382,50535.838838
30000.0,2018,50600.503207
13000.0,1497,50652.527506
12000.0,1275,50695.24898
6000.0,1346,50742.444735
18000.0,1951,50806.800974
14000.0,1511,50858.257309
16000.0,1402,50904.428478
6000.0,1380,50950.505231
26000.0,2011,51022.141002
14000.0,1556,51075.67977
14000.0,1612,51128.871469
9000.0,1210,51168.750402
15000.0,1504,51220.167904
24000.0,1481,51268.210531
12000.0,1466,51319.058467
21000.0,1774,51380.78817
21000.0,1695,51439.110225
17000.0,1875,51505.38016
27000.0,2071,51577.303756
17000.0,1573,51631.220866
15000.0,1084,51668.225248
24000.0,1492,51716.827888
18000.0,1610,51771.943939
23000.0,1808,51833.875594
21000.0,1494,51884.713614
9000.0,1226,51927.900759
19000.0,2027,51998.27315
26000.0,1931,52063.003305
13000.0,1519,52113.921639
18000.0,1493,52163.174999
16000.0,1663,52218.87955
26000.0,1533,52269.715038
13000.0,1490,52318.217604
14000.0,1548,52368.766364
20000.0,1653,52425.575496
20000.0,1853,52485.763644
13000.0,1307,52529.377742
13000.0,1161,52567.593002
32000.0,2011,52632.334647
20000.0,1754,52689.579842
26000.0,1574,52741.535533
18000.0,1558,52793.253909
15000.0,1351,52837.296913
24000.0,1543,52887.477583
25000.0,1746,52946.343109
18000.0,1290,52988.60234
32000.0,1623,53040.585649
15000.0,1360,53085.81012
20000.0,1519,53134.539794
13000.0,1238,53175.458814
13000.0,1171,53212.897408
27000.0,1691,53269.499196
17000.0,1373,53314.321114
13000.0,1058,53349.351388
16000.0,1479,53397.036163
29000.0,1771,53454.273655
11000.0,984,53485.317245
22000.0,1689,53541.076107
32000.0,1448,53589.416327
22000.0,2098,53660.196543
17000.0,1438,53707.541741
6000.0,807,53734.210401
15000.0,1090,53768.197037
23000.0,1545,53821.200458
9000.0,994,53853.989205
11000.0,1031,53888.508416
21000.0,1605,53940.664553
29000.0,1486,53992.873846
12000.0,1155,54031.354441
13000.0,1236,54072.6178
10000.0,1255,54116.336646
20000.0,1538,54167.788515
17000.0,1316,54211.375742
23000.0,1414,54258.785551
18000.0,1677,54312.596903
31000.0,1769,54367.055365
21000.0,1353,54410.94945
17000.0,1684,54467.400778
16000.0,1561,54519.403856
16000.0,1308,54562.903884
11000.0,1061,54597.917282
18000.0,1404,54642.14596
21000.0,1752,54701.216872
10000.0,1261,54742.317174
18000.0,1188,54780.942917
25000.0,1456,54828.225299
12000.0,991,54862.290716
20000.0,1413,54908.969646
11000.0,1260,54948.540953
18000.0,1844,55007.690417
15000.0,1518,55057.442321
5000.0,99997,58430.549718
20000.0,1618,58483.592693
16000.0,1317,58528.202262
19000.0,1436,58578.85792
14000.0,1004,58613.713946
19000.0,1481,58664.707125
19000.0,1607,58719.645723
35000.0,1998,58789.671214
14000.0,1222,58831.981419
22000.0,1700,58888.048562
17000.0,1589,58944.137112
13000.0,1042,58979.51537
26000.0,1600,59034.833921
20000.0,1688,59093.795007
29000.0,1373,59140.533479
23000.0,1541,59194.455503
11000.0,1495,59245.542511
4000.0,99994,62709.126967
10000.0,1641,62765.95188
11000.0,1469,62814.291731
3000.0,1201,62855.555218
10000.0,1111,62893.629357
9000.0,1470,62944.016005
4000.0,1088,62980.031815
2000.0,1385,63026.473245
12000.0,1556,63079.655692
15000.0,1560,63134.623425
12000.0,1367,63179.030822
14000.0,1714,63236.871138
21000.0,2040,63307.460749
8000.0,1288,63350.054155
11000.0,1378,63394.675363
7000.0,1580,63446.500004
20000.0,1483,63498.030312
10000.0,1318,63543.485265
17000.0,1369,63591.751212
8000.0,1701,63651.676484
12000.0,1750,63711.137297
8000.0,1375,63757.758725
17000.0,1533,63812.627152
17000.0,1612,63867.878454
2000.0,1313,63913.158557
1000.0,1581,63966.409754
19000.0,1751,64025.32036
13000.0,1296,64068.576717
6000.0,1366,64115.600867
4000.0,99993,67517.998694
17000.0,2147,67590.974723
11000.0,3289,67702.003016
6000.0,1470,67750.454298
12000.0,1567,67804.741194
21000.0,2378,67885.212891
15000.0,1713,67941.772987
8000.0,1742,67999.862739
1000.0,1177,68039.652948
16000.0,2101,68106.866809
13000.0,1734,68164.880069
23000.0,2523,68249.235693
15000.0,1670,68304.557561
13000.0,1927,68368.023628
13000.0,1546,68417.863243
17000.0,2079,68487.611051
28000.0,1828,68551.222883
19000.0,1366,68598.059244
15000.0,1186,68637.679755
17000.0,1565,68690.656779
9000.0,1230,68732.262002
20000.0,1669,68785.448747
24000.0,1680,68839.362666
18000.0,1511,68891.634928
21000.0,1603,68946.485652
24000.0,1477,68993.881703
15000.0,1501,69044.703288
21000.0,1520,69096.218392
34000.0,1721,69154.34097
20000.0,1497,69206.020584
19000.0,1360,69249.884507
14000.0,1249,69291.957989
16000.0,1485,69339.115336
15000.0,1673,69396.310232
16000.0,1428,69444.764506
20000.0,1637,69500.188316
30000.0,1588,69551.78658
38000.0,1778,69612.072751
20000.0,1191,69652.781636
26000.0,1492,69703.981384
18000.0,1283,69746.217386
28000.0,1411,69792.985422
27000.0,1847,69854.307204
29000.0,1786,69912.51002
15000.0,1427,69958.319399
24000.0,1540,70010.217279
29000.0,1242,70050.275359
28000.0,1744,70108.493682
24000.0,1794,70169.129569
27000.0,1957,70236.030961
23000.0,1660,70289.223402
18000.0,1619,70343.05429
16000.0,1495,70393.19728
17000.0,1483,70442.130417
21000.0,1636,70496.213174
21000.0,1185,70535.704601
17000.0,1244,70577.689087
16000.0,1251,70618.196147
19000.0,1052,70653.124565
18000.0,1538,70703.391174
4000.0,99993,73961.783238
17000.0,1163,74000.617043
12000.0,906,74028.584331
28000.0,2156,74095.48917
20000.0,1762,74151.732043
33000.0,2168,74220.916638
18000.0,1373,74261.986087
28000.0,2063,74326.353934
13000.0,1251,74363.684832
34000.0,1930,74422.157041
26000.0,1484,74468.229611
17000.0,1486,74514.204131
15000.0,1794,74570.518362
15000.0,1482,74617.229693
16000.0,1998,74679.685153
16000.0,1433,74725.43709
12000.0,1372,74768.939329
8000.0,1604,74818.603402
19000.0,1890,74878.407517
19000.0,2152,74948.023222
15000.0,1555,74997.475986
18000.0,1806,75055.452857
11000.0,1834,75114.555076
12000.0,2443,75194.001353
16000.0,2246,75264.969166
11000.0,2572,75346.859634
5000.0,3647,75462.384166
5000.0,1175,75500.071731
14000.0,2794,75587.861971
23000.0,2523,75668.38586
18000.0,2324,75740.112576
17000.0,2513,75820.563658
11000.0,1840,75878.236688
14000.0,2706,75960.597521
16000.0,1924,76018.049988
10000.0,1258,76055.223098
6000.0,1142,76089.763029
17000.0,2149,76152.968781
9000.0,1690,76204.6821
17000.0,1836,76256.830285
8000.0,1461,76298.310349
15000.0,1633,76340.527424
11000.0,1613,76383.731533
13000.0,1785,76431.289641
20000.0,1386,76467.074701
12000.0,1675,76512.752489
13000.0,1177,76545.98032
15000.0,1877,76597.675339
13000.0,1573,76638.70404
16000.0,2279,76701.709528
23000.0,1629,76745.594421
20000.0,1833,76794.143441
18000.0,2278,76850.091908
1000.0,1206,76880.618921
14000.0,2576,76942.58531
18000.0,1837,76986.496544
21000.0,1633,77025.952309
13000.0,2145,77077.977301
11000.0,1893,77126.180019
15000.0,1940,77174.270592
11000.0,1623,77213.607028
11000.0,1786,77258.069011
25000.0,1569,77295.656998
9000.0,2174,77346.95972
18000.0,1680,77384.455953
20000.0,1863,77425.592608
12000.0,1239,77453.35756
13000.0,2456,77507.995683
1000.0,1330,77539.480804
17000.0,2021,77583.458555
12000.0,1799,77624.063453
9000.0,933,77644.499351
9000.0,1166,77668.078348
11000.0,1998,77709.343217
15000.0,1705,77744.97798
18000.0,2361,77795.957599
18000.0,2140,77840.1578
23000.0,2330,77888.111204
11000.0,1463,77919.457505
9000.0,1553,77951.295945
6000.0,1812,77987.588013
11000.0,1372,78015.003344
16000.0,1754,78050.673666
7000.0,1708,78085.326199
8000.0,1927,78125.639388
16000.0,1314,78152.934873
10000.0,1756,78189.803657
8000.0,1411,78218.844228
19000.0,1756,78254.203555
9000.0,1259,78279.176488
14000.0,1751,78317.990865
8000.0,1860,78356.362496
19000.0,2083,78400.48564
7000.0,1351,78426.938367
18000.0,1604,78456.844425
14000.0,1562,78485.886053
16000.0,1823,78519.68571
