# {"t_start": 1546996553.0131078, "env_id": "DoubleDunkNoFrameskip-v4"} 
r,l,t
-16.0,2720,74.340315
-18.0,2000,125.591412
-18.0,1799,175.30929
-20.0,2063,232.083306
-16.0,2256,295.587928
-16.0,1556,339.04159
-18.0,1750,389.966058
-24.0,1554,433.758104
-18.0,2185,495.908761
-18.0,1991,549.685019
-18.0,2146,610.355535
-16.0,1579,654.716229
-20.0,1505,695.551664
-20.0,1997,752.323447
-22.0,1594,797.569065
-18.0,2326,863.346595
-24.0,1245,897.719103
-20.0,2202,959.032415
-16.0,1771,1008.624346
-22.0,2006,1065.180956
-22.0,1424,1104.821584
-20.0,1800,1156.04136
-20.0,1668,1203.006024
-20.0,1996,1259.161754
-22.0,1685,1306.696607
-18.0,1837,1359.504304
-20.0,1926,1412.699517
-16.0,2594,1485.30794
-8.0,2122,1545.973517
-24.0,1482,1587.387662
-16.0,2390,1650.899678
-22.0,2259,1714.288202
-22.0,2272,1778.017056
-22.0,2251,1841.493197
-18.0,2320,1906.648986
-20.0,2835,1984.632523
-14.0,2469,2054.817403
-22.0,1876,2107.056477
-20.0,2016,2162.96426
-16.0,2247,2225.090183
-24.0,2020,2282.364961
-18.0,2326,2348.245133
-16.0,2066,2405.493964
-12.0,2975,2489.515886
-12.0,2401,2555.602552
-14.0,2114,2615.381025
-18.0,2209,2676.94967
-18.0,1661,2723.281561
-18.0,2205,2783.920589
-22.0,2192,2845.895985
-16.0,2020,2901.401946
-18.0,1622,2946.653971
-16.0,2090,3005.693273
-20.0,1747,3054.915053
-14.0,1345,3092.986793
-18.0,2439,3162.059454
-20.0,2530,3231.735564
-16.0,1885,3285.45012
-20.0,1680,3332.948756
-20.0,2191,3394.754979
-18.0,1731,3443.119016
-14.0,1883,3496.916281
-22.0,2500,3566.442664
-18.0,1882,3619.193005
-16.0,1808,3670.06141
-16.0,1677,3717.705826
-18.0,1863,3770.229332
-20.0,2139,3828.693485
-20.0,1807,3879.614849
-22.0,1902,3931.515883
-18.0,1939,3985.902714
-18.0,2054,4042.149545
-18.0,2661,4115.688195
-18.0,1477,4157.002666
-18.0,2314,4221.094673
-16.0,2009,4276.48782
-18.0,2838,4355.680121
-16.0,2128,4415.782944
-20.0,1690,4462.624054
-20.0,1433,4501.783955
-20.0,1872,4554.556071
-16.0,2382,4621.816241
-16.0,2085,4680.828357
-14.0,2532,4750.618999
-20.0,1921,4806.163317
-18.0,1799,4858.439668
-20.0,2527,4929.744381
-10.0,2316,4994.833719
-20.0,2053,5052.152678
-18.0,1950,5106.459671
-16.0,1990,5161.16834
-20.0,2654,5237.178587
-24.0,1356,5274.431023
-16.0,1498,5316.519092
-20.0,1868,5369.768961
-16.0,2397,5436.709023
-18.0,2254,5499.872832
-16.0,2065,5558.225432
-20.0,2306,5623.364126
-14.0,2316,5687.978767
-18.0,2109,5747.658989
-18.0,2314,5813.066607
-14.0,2384,5878.495696
-18.0,2132,5938.599182
-16.0,1963,5994.635329
-16.0,2091,6055.036458
-18.0,1999,6111.531487
-16.0,2123,6171.154238
-14.0,2068,6227.029353
-24.0,2319,6293.114806
-22.0,2211,6353.931096
-20.0,1890,6407.081921
-18.0,2182,6466.750416
-14.0,2134,6526.236217
-16.0,2317,6590.729884
-14.0,1890,6643.832075
-20.0,1902,6696.65313
-14.0,2129,6756.642722
-14.0,2175,6818.294194
-14.0,3281,6910.186067
-20.0,2381,6975.252353
-18.0,2571,7048.264732
-18.0,2495,7118.673198
-16.0,1623,7162.508845
-14.0,2006,7218.368872
-16.0,3097,7305.758682
-22.0,2146,7367.441535
-14.0,2448,7437.373651
-14.0,2407,7505.132918
-18.0,1807,7556.268399
-18.0,1831,7608.415012
-22.0,2555,7682.094375
-18.0,2199,7744.017327
-22.0,2781,7823.868886
-12.0,2448,7892.745812
-18.0,2196,7953.509376
-20.0,2765,8030.611102
-22.0,1432,8069.8512
-14.0,1997,8126.430833
-18.0,1877,8178.837369
-18.0,1940,8233.283893
-12.0,2767,8311.828622
-18.0,2630,8386.119684
-20.0,2524,8456.15277
-16.0,1887,8509.012089
-12.0,2455,8578.780566
-18.0,2323,8643.557989
-18.0,2731,8717.642337
-16.0,2019,8774.595139
-20.0,2097,8833.768791
-14.0,2889,8914.535435
-18.0,2253,8977.756683
-20.0,2185,9041.331364
-22.0,2130,9100.414985
-16.0,2663,9173.965867
-16.0,2576,9250.607382
-16.0,1929,9308.170494
-14.0,2839,9391.58143
-18.0,1876,9445.940996
-22.0,1820,9499.771152
-10.0,2387,9571.316071
-10.0,2394,9639.554645
-10.0,2280,9707.373538
-18.0,1815,9756.501342
-18.0,3401,9851.279904
-16.0,2777,9931.186767
-18.0,1931,9985.578208
-20.0,1965,10041.32425
-16.0,2058,10100.901316
-12.0,2220,10165.007494
-14.0,2154,10225.413384
-12.0,2386,10292.784755
-18.0,2017,10349.465663
-18.0,2447,10417.685634
-20.0,2273,10481.613919
-10.0,2460,10552.856992
-18.0,2001,10610.593238
-16.0,2241,10672.243553
-14.0,2889,10755.180644
-16.0,2461,10824.172357
-16.0,2196,10885.929062
-16.0,2062,10944.421895
-18.0,2370,11010.299206
-14.0,2471,11081.203712
-10.0,2571,11154.657771
-14.0,2317,11220.214956
-14.0,2172,11279.80468
-20.0,2001,11336.366596
-16.0,2373,11403.896229
-16.0,2830,11485.503265
-10.0,2138,11546.177076
-18.0,2284,11610.467695
-16.0,2008,11668.615054
-16.0,2131,11727.805485
-20.0,1678,11776.885775
-14.0,2784,11857.52192
-18.0,2578,11927.765056
-18.0,2639,12004.759233
-10.0,2439,12074.155657
-14.0,1866,12125.216701
-8.0,2410,12192.233895
-18.0,2006,12248.676838
-18.0,2692,12323.742357
-10.0,2758,12399.956828
-12.0,2148,12460.28308
-8.0,2378,12527.379439
-12.0,2093,12586.567061
-20.0,1745,12635.751372
-14.0,2444,12703.0296
-12.0,2656,12779.361325
-12.0,2638,12851.437999
-16.0,2134,12911.606655
-16.0,2332,12977.979387
-20.0,2251,13039.607234
-16.0,2450,13110.010065
-18.0,2154,13171.507177
-12.0,2380,13239.011038
-16.0,2458,13308.194379
-18.0,1738,13356.696561
-22.0,1929,13409.080938
-16.0,2332,13474.801232
-16.0,2466,13543.585015
-22.0,1878,13597.432596
-20.0,2719,13673.176233
-14.0,2336,13737.376623
-14.0,1808,13788.93782
-12.0,2635,13861.800096
-12.0,2780,13939.576783
-10.0,2652,14014.150595
-10.0,2443,14084.154925
-16.0,2240,14147.302737
-4.0,2378,14213.363341
-14.0,1884,14265.733928
-20.0,2254,14328.414548
-10.0,6352,14502.955655
-20.0,6473,14680.410513
-8.0,31532,15568.448171
-14.0,13455,15947.962439
-10.0,23445,16601.013942
-12.0,15200,17025.222252
-14.0,22176,17648.288026
-18.0,30746,18505.939314
-16.0,35362,19494.281247
-18.0,27788,20274.097545
-16.0,42463,21462.163318
-16.0,15618,21898.22608
-20.0,7815,22119.525626
-18.0,21594,22727.276163
-18.0,21968,23342.357919
-18.0,19276,23883.912145
-10.0,41807,25060.469157
-12.0,13847,25446.173149
-16.0,57613,27061.634254
-14.0,21081,27653.869664
-20.0,28029,28451.005599
-16.0,85483,30903.122189
-24.0,42444,32111.917022
-12.0,35797,33133.329852
-16.0,36493,34215.233753
-16.0,44234,35453.350945
-14.0,57686,37065.745124
-16.0,26072,37794.210322
-12.0,93908,40414.05661
-14.0,94810,43049.397544
-22.0,9052,43302.282375
-22.0,33597,44261.611649
-10.0,99996,47333.622985
-16.0,80525,49777.240338
-20.0,18635,50343.275919
-10.0,99998,53435.460795
-14.0,99998,56686.211378
-8.0,79268,59121.807762
0.0,99997,62172.297223
-4.0,99997,65157.109044
-4.0,99999,68037.785953
-4.0,99996,70727.168432
