# {"t_start": 1552429631.3061914, "env_id": "BreakoutNoFrameskip-v0"} 
r,l,t
0.0,123,16.176844
0.0,127,39.13549
1.0,173,62.850674
1.0,151,102.665304
4.0,301,149.571102
1.0,177,173.391374
2.0,206,218.520179
1.0,166,242.784589
10.0,441,312.913595
5.0,346,381.711322
1.0,157,404.543616
0.0,129,425.421436
6.0,359,475.773502
7.0,407,543.785506
7.0,381,611.245553
2.0,185,652.497993
4.0,261,694.501262
3.0,248,722.919273
5.0,301,788.617481
4.0,265,832.512603
2.0,224,861.213214
8.0,391,929.681576
4.0,319,997.414429
9.0,461,1069.483071
4.0,270,1118.098273
10.0,451,1189.104125
2.0,202,1231.174218
3.0,253,1277.329177
7.0,423,1346.360601
4.0,276,1394.248811
6.0,359,1459.26024
4.0,288,1508.768519
4.0,286,1554.997953
10.0,392,1621.462083
1.0,175,1648.555354
0.0,129,1669.069808
2.0,199,1711.229267
7.0,417,1780.842234
5.0,328,1827.965651
8.0,410,1898.104003
5.0,332,1962.348814
12.0,465,2037.970404
5.0,315,2101.758229
5.0,332,2148.082749
7.0,388,2216.731509
8.0,447,2287.454346
10.0,548,2396.985187
5.0,307,2444.849404
13.0,529,2534.436874
9.0,450,2604.869606
2.0,197,2647.02034
9.0,458,2718.040489
2.0,182,2758.06379
8.0,458,2828.5057
12.0,578,2915.687924
9.0,345,2973.088653
8.0,437,3033.141308
10.0,568,3122.219709
8.0,430,3172.843736
2.0,220,3190.94534
3.0,231,3225.050748
5.0,272,3257.577334
5.0,308,3292.7768
8.0,444,3356.539299
8.0,450,3410.020326
4.0,256,3442.200743
6.0,343,3493.247908
2.0,182,3510.656717
11.0,502,3578.342282
8.0,430,3627.901007
6.0,358,3678.145228
12.0,475,3729.575565
7.0,408,3780.567471
12.0,474,3847.244856
4.0,245,3879.873118
6.0,381,3931.741402
3.0,253,3963.537791
8.0,470,4016.900861
10.0,481,4082.184145
3.0,248,4115.400241
6.0,432,4164.818277
5.0,313,4200.517048
6.0,347,4248.590862
3.0,236,4283.418119
4.0,281,4315.832176
6.0,344,4353.82206
3.0,232,4384.857453
11.0,582,4453.577071
6.0,324,4500.636984
7.0,406,4552.295607
12.0,470,4603.40522
11.0,409,4668.582438
9.0,327,4705.743519
6.0,329,4740.036736
8.0,475,4807.734702
5.0,329,4844.444506
6.0,360,4897.141764
5.0,292,4931.998472
6.0,336,4985.089558
12.0,481,5053.229371
5.0,307,5092.724588
8.0,463,5146.703743
6.0,352,5199.396336
5.0,348,5250.368764
3.0,248,5272.957963
1.0,174,5304.917355
11.0,444,5358.74563
4.0,263,5391.241037
0.0,129,5407.312669
9.0,497,5477.621279
3.0,250,5496.728746
8.0,424,5566.311592
3.0,230,5586.688214
3.0,275,5624.342881
5.0,326,5675.283658
6.0,397,5730.157206
7.0,432,5780.662758
5.0,348,5832.257583
7.0,425,5881.870403
11.0,596,5951.692514
5.0,323,6003.429132
15.0,559,6078.336176
9.0,486,6147.9815
6.0,375,6203.68391
7.0,421,6260.040758
5.0,310,6295.703185
6.0,365,6350.213537
5.0,333,6387.165988
4.0,280,6422.760364
8.0,423,6491.034028
9.0,511,6563.377079
2.0,180,6582.333174
5.0,310,6618.486829
14.0,396,6674.298626
3.0,270,6709.330202
3.0,217,6745.982892
6.0,324,6783.325497
5.0,292,6822.142704
6.0,359,6873.289506
6.0,399,6928.139277
3.0,214,6961.718638
8.0,467,7017.701441
6.0,363,7068.340883
10.0,428,7124.07157
8.0,484,7195.64512
10.0,428,7249.119253
12.0,544,7322.991417
4.0,278,7358.321543
4.0,262,7396.12588
8.0,438,7449.598634
14.0,629,7538.18831
4.0,298,7575.962223
2.0,203,7608.992135
4.0,277,7644.809667
3.0,225,7679.502752
10.0,539,7752.896767
3.0,216,7772.897642
5.0,291,7808.07931
4.0,303,7861.097046
2.0,220,7880.711493
2.0,186,7913.529327
7.0,428,7969.453096
11.0,271,8003.656267
13.0,413,8058.544707
9.0,466,8128.493897
5.0,363,8166.950543
7.0,443,8236.264307
2.0,202,8254.93814
4.0,299,8291.508759
5.0,349,8345.658254
9.0,380,8400.569692
4.0,302,8436.32253
1.0,155,8454.310011
11.0,460,8524.776748
1.0,159,8542.842172
13.0,541,8614.766599
8.0,429,8668.457567
7.0,406,8723.117617
12.0,593,8810.01038
6.0,362,8848.005847
10.0,468,8919.215546
6.0,321,8958.866794
5.0,352,9010.100752
1.0,153,9027.983691
6.0,397,9083.390903
3.0,252,9117.607417
6.0,376,9172.201802
9.0,442,9227.790353
8.0,476,9295.984433
6.0,364,9335.624151
8.0,354,9386.49223
18.0,612,9475.645272
5.0,311,9514.308404
7.0,398,9566.433244
8.0,447,9637.042082
4.0,255,9658.135074
4.0,281,9698.369937
3.0,253,9733.151915
5.0,310,9784.626848
3.0,252,9823.927636
5.0,350,9869.112126
7.0,362,9944.95705
11.0,492,10048.481964
10.0,500,10129.846338
8.0,477,10231.261397
6.0,395,10311.317453
9.0,441,10387.517215
3.0,273,10443.252602
4.0,281,10494.48883
4.0,296,10569.141556
4.0,277,10620.485275
3.0,232,10650.526647
1.0,157,10698.448522
5.0,299,10750.163963
10.0,456,10830.016296
9.0,487,10930.986285
6.0,400,11010.073998
4.0,261,11060.962129
8.0,439,11140.494833
1.0,157,11165.804366
5.0,329,11237.746819
5.0,312,11287.745197
9.0,490,11385.53478
9.0,453,11459.858751
7.0,415,11536.804511
9.0,484,11636.326329
5.0,309,11688.815117
5.0,325,11760.884998
4.0,285,11811.195764
6.0,365,11885.741814
11.0,547,11987.897253
6.0,367,12061.040821
6.0,375,12117.497284
2.0,220,12163.377657
6.0,355,12237.354857
3.0,228,12265.18302
3.0,223,12311.09546
5.0,328,12366.283974
11.0,528,12464.674354
5.0,288,12535.901749
2.0,184,12561.027481
8.0,403,12637.857539
3.0,232,12684.555428
10.0,541,12786.699025
4.0,331,12839.069015
4.0,277,12890.225379
5.0,349,12962.107734
6.0,377,13037.26756
5.0,352,13090.436359
4.0,296,13163.53367
6.0,336,13215.054747
2.0,187,13244.056026
3.0,238,13292.669913
8.0,427,13371.665388
4.0,278,13420.315326
2.0,206,13467.583941
10.0,487,13566.330837
7.0,368,13621.270921
3.0,235,13670.662178
5.0,349,13745.071566
6.0,348,13797.485366
2.0,204,13844.250988
3.0,232,13894.800356
2.0,185,13921.796476
8.0,430,13998.413117
5.0,349,14071.723833
5.0,309,14124.939882
3.0,269,14175.580272
7.0,401,14250.920625
10.0,416,14326.060575
4.0,266,14376.99853
5.0,312,14448.306778
5.0,348,14501.114089
7.0,369,14573.871265
8.0,444,14653.226396
7.0,394,14726.091688
12.0,511,14827.008718
6.0,357,14901.277695
5.0,326,14952.024312
7.0,405,15029.229808
4.0,296,15079.208162
6.0,335,15153.500872
8.0,427,15226.16466
4.0,262,15278.11128
4.0,280,15328.121049
11.0,461,15426.533
5.0,350,15479.671607
7.0,370,15556.935749
5.0,340,15629.379567
6.0,372,15686.001199
5.0,320,15757.22073
11.0,394,15834.222616
9.0,479,15913.598694
4.0,260,15962.220417
6.0,349,16038.194996
1.0,156,16063.873536
6.0,363,16136.687485
0.0,129,16164.421851
0.0,129,16188.202843
4.0,296,16238.551076
4.0,283,16292.498242
2.0,187,16318.981543
4.0,267,16368.849385
2.0,224,16419.063592
6.0,337,16471.400732
6.0,367,16547.600537
2.0,203,16595.359888
4.0,279,16645.14007
4.0,278,16698.574587
4.0,245,16746.736669
5.0,313,16801.869929
5.0,294,16850.954033
6.0,400,16927.686789
5.0,329,16999.494941
4.0,244,17027.935811
8.0,294,17100.950669
2.0,203,17128.457022
7.0,388,17206.424079
6.0,359,17276.966009
3.0,217,17307.783141
5.0,309,17378.458171
4.0,262,17430.130316
7.0,387,17482.940935
5.0,290,17556.022757
6.0,340,17607.92572
5.0,351,17684.264595
5.0,292,17734.937397
7.0,394,17810.945855
4.0,270,17860.013222
5.0,327,17910.505509
12.0,483,18010.491435
5.0,311,18064.665147
8.0,437,18159.739998
10.0,426,18237.895298
9.0,320,18291.292896
1.0,157,18320.192981
9.0,426,18414.503823
3.0,230,18446.233192
1.0,173,18491.915924
10.0,346,18545.21044
5.0,328,18620.677239
3.0,250,18650.496505
4.0,263,18703.304865
6.0,399,18778.668913
2.0,205,18827.608138
10.0,412,18899.03385
4.0,302,18951.985293
3.0,276,19000.219112
4.0,301,19073.823674
4.0,291,19123.588046
5.0,312,19174.916687
6.0,361,19250.142238
5.0,310,19300.729503
5.0,296,19356.062305
8.0,331,19427.559229
3.0,220,19457.687665
3.0,230,19505.006584
2.0,202,19532.8335
2.0,221,19584.054084
6.0,353,19657.374193
3.0,249,19710.166761
5.0,326,19762.473165
4.0,258,19810.810356
4.0,305,19863.666
3.0,258,19912.237503
6.0,388,19988.645283
6.0,376,20063.113214
4.0,285,20116.654981
4.0,279,20166.063476
2.0,203,20216.859589
5.0,296,20266.244729
5.0,330,20317.541173
10.0,435,20394.378814
4.0,282,20466.984682
4.0,284,20516.674214
1.0,174,20543.703528
4.0,284,20598.067772
6.0,342,20668.505809
5.0,374,20724.147737
8.0,435,20817.505249
6.0,359,20872.106423
11.0,406,20946.379956
2.0,203,20995.197914
0.0,129,21019.119357
5.0,331,21071.598321
7.0,424,21167.422081
3.0,232,21194.915018
7.0,387,21269.035458
7.0,423,21346.286717
5.0,310,21416.249206
7.0,407,21493.066281
8.0,448,21570.695752
5.0,299,21623.40442
7.0,399,21696.940662
9.0,427,21793.508086
3.0,233,21822.228155
4.0,258,21873.612533
3.0,257,21921.823681
3.0,249,21969.968492
13.0,453,22048.277061
5.0,306,22121.236749
4.0,261,22170.632855
2.0,207,22198.893194
8.0,415,22274.67672
4.0,290,22324.526396
9.0,514,22426.537997
4.0,276,22478.408386
5.0,306,22549.0235
5.0,296,22599.356798
8.0,469,22677.607182
10.0,437,22773.436661
2.0,186,22799.454211
4.0,257,22848.960088
4.0,280,22900.754015
4.0,256,22950.526416
3.0,232,23001.744392
3.0,212,23028.532405
4.0,283,23077.423059
4.0,297,23129.844736
11.0,409,23225.618627
4.0,264,23256.087983
5.0,350,23326.95263
3.0,229,23377.696597
9.0,328,23428.824736
3.0,209,23474.85286
5.0,297,23529.581957
7.0,410,23604.052631
3.0,247,23656.676585
5.0,311,23707.908481
4.0,259,23760.41708
4.0,299,23809.562165
5.0,335,23883.209133
3.0,235,23930.450353
4.0,266,23978.644345
4.0,281,24031.138283
7.0,384,24104.41219
5.0,307,24158.2395
4.0,299,24207.22232
4.0,249,24258.150978
4.0,298,24308.067285
3.0,255,24356.135133
6.0,378,24432.749381
4.0,260,24480.83172
4.0,264,24532.841529
6.0,377,24606.118171
4.0,282,24659.224008
2.0,187,24685.69102
7.0,412,24763.358431
4.0,277,24812.59091
7.0,404,24888.688537
3.0,250,24936.645468
5.0,327,24988.041399
5.0,334,25062.533748
1.0,175,25088.096739
5.0,331,25163.180295
3.0,249,25210.551345
7.0,411,25288.810569
5.0,327,25341.141524
5.0,313,25395.873291
4.0,301,25467.197454
4.0,252,25520.329111
3.0,252,25549.624746
5.0,350,25622.428813
3.0,247,25674.925292
4.0,273,25724.777403
5.0,308,25780.121819
8.0,407,25854.372679
6.0,381,25930.649454
5.0,288,25980.520942
2.0,206,26031.25669
7.0,382,26104.846019
2.0,188,26129.963931
4.0,278,26182.907282
3.0,251,26231.173299
2.0,186,26258.237337
7.0,388,26337.189286
6.0,404,26414.381838
6.0,359,26487.220884
9.0,498,26587.738486
3.0,233,26616.186635
1.0,165,26665.31835
7.0,444,26741.868158
2.0,181,26767.309071
3.0,251,26820.208204
4.0,302,26871.142781
5.0,328,26944.801796
4.0,279,26995.633238
3.0,218,27024.175189
7.0,391,27099.443303
5.0,312,27171.794546
3.0,236,27199.928783
4.0,262,27249.209728
6.0,376,27325.685165
5.0,313,27398.024524
5.0,326,27451.284543
11.0,499,27553.093349
7.0,392,27627.446267
11.0,441,27706.227177
4.0,279,27756.651734
11.0,434,27835.500562
8.0,454,27933.998884
10.0,485,28030.764691
4.0,299,28082.662754
4.0,280,28131.216584
6.0,342,28186.406982
3.0,234,28233.908281
4.0,277,28284.670257
10.0,506,28387.065046
4.0,302,28440.285604
7.0,387,28514.387747
7.0,404,28591.316328
3.0,250,28639.683268
12.0,509,28740.812048
1.0,171,28766.992913
7.0,369,28841.584419
5.0,313,28892.926611
5.0,294,28945.993206
4.0,297,29017.021432
2.0,185,29043.72819
9.0,475,29141.810735
13.0,556,29244.315724
4.0,318,29295.357433
3.0,233,29344.748155
4.0,295,29394.348183
11.0,625,29518.951961
2.0,204,29545.992555
7.0,405,29622.487837
6.0,348,29698.174411
8.0,418,29772.107986
5.0,285,29824.463116
2.0,201,29871.022857
6.0,329,29923.930111
6.0,375,29999.455808
8.0,388,30075.319453
13.0,581,30176.086376
4.0,300,30247.725098
6.0,363,30300.967547
9.0,444,30398.195951
9.0,486,30479.070965
6.0,381,30552.612335
5.0,327,30625.234186
4.0,260,30675.194052
6.0,378,30731.79552
9.0,398,30806.992723
5.0,311,30881.188446
4.0,260,30932.43494
7.0,398,31007.176123
4.0,280,31059.178182
6.0,381,31134.368794
12.0,465,31213.201796
7.0,376,31286.978336
5.0,311,31341.096718
6.0,403,31414.982091
6.0,324,31486.806031
5.0,296,31536.772729
4.0,287,31589.067308
7.0,416,31663.609098
5.0,304,31737.035269
5.0,324,31789.032809
4.0,282,31841.586193
3.0,235,31890.72527
8.0,439,31968.50065
5.0,310,32019.199089
4.0,297,32090.824825
6.0,329,32140.815631
5.0,302,32190.519192
4.0,277,32241.601005
7.0,379,32316.129063
7.0,365,32392.10359
5.0,323,32443.567425
8.0,443,32542.484704
6.0,347,32597.400979
4.0,274,32646.907853
9.0,404,32723.983663
5.0,313,32794.190546
13.0,494,32893.21743
2.0,200,32919.740371
4.0,300,32972.597155
7.0,390,33046.606767
5.0,293,33099.997091
4.0,281,33150.519472
3.0,248,33199.383363
6.0,323,33272.112256
3.0,216,33300.317015
4.0,275,33351.831655
4.0,252,33401.459024
5.0,338,33476.68353
2.0,222,33504.636207
5.0,312,33576.412099
10.0,448,33652.515895
4.0,257,33704.044355
13.0,543,33804.356596
7.0,403,33879.081989
4.0,279,33929.062686
6.0,342,34003.074138
9.0,452,34079.443051
8.0,427,34155.426265
9.0,482,34254.605619
13.0,539,34355.586745
5.0,276,34403.527862
14.0,536,34502.442987
13.0,532,34605.513587
10.0,529,34704.180181
6.0,356,34777.303614
5.0,273,34826.170959
8.0,382,34904.157253
9.0,325,34956.400819
10.0,433,35052.703382
11.0,454,35130.386768
8.0,458,35208.84106
7.0,248,35259.305348
6.0,342,35332.951071
4.0,297,35384.588003
5.0,322,35456.564771
5.0,288,35507.496473
7.0,388,35585.025279
9.0,433,35660.500847
4.0,276,35712.492982
7.0,378,35784.873072
6.0,360,35842.485192
3.0,246,35889.875898
4.0,302,35939.457654
3.0,245,35990.769995
2.0,225,36036.289198
6.0,381,36114.998285
10.0,426,36190.463352
7.0,399,36268.805687
3.0,232,36317.351252
3.0,218,36349.059046
5.0,285,36398.493793
7.0,395,36475.762289
4.0,263,36526.029415
6.0,357,36601.354913
4.0,307,36652.529896
3.0,254,36701.025071
4.0,283,36755.379575
6.0,377,36829.323541
8.0,443,36928.126701
2.0,184,36954.179084
3.0,250,37007.104694
5.0,291,37057.82786
7.0,426,37136.949457
5.0,310,37187.468718
10.0,431,37284.87801
5.0,328,37335.963911
6.0,375,37412.245365
5.0,331,37464.629605
3.0,234,37516.641984
8.0,449,37615.608311
4.0,300,37667.831613
5.0,301,37718.173064
6.0,359,37793.536833
8.0,441,37871.766062
4.0,282,37921.190522
5.0,345,37996.627578
5.0,309,38048.796546
3.0,212,38093.831356
5.0,303,38148.525273
4.0,297,38198.279173
4.0,292,38252.032598
6.0,326,38322.259993
3.0,253,38351.60378
5.0,303,38424.404822
5.0,319,38475.829035
5.0,332,38552.113448
12.0,634,38659.487721
4.0,279,38728.442578
3.0,269,38780.471263
6.0,402,38854.338074
6.0,341,38909.5717
7.0,378,38982.551419
10.0,520,39084.253768
6.0,361,39159.796178
9.0,308,39210.744259
7.0,396,39288.631652
8.0,445,39365.177803
8.0,470,39466.318105
2.0,224,39495.234118
4.0,262,39547.476064
4.0,278,39598.260867
3.0,232,39649.797798
7.0,378,39721.390059
7.0,406,39799.778261
6.0,403,39873.625637
8.0,410,39952.352342
6.0,342,40025.987276
4.0,302,40077.263491
5.0,330,40128.414834
5.0,349,40203.602198
9.0,441,40282.127948
2.0,206,40328.130517
7.0,414,40405.407459
12.0,492,40498.992665
5.0,310,40552.937918
8.0,297,40603.394608
10.0,392,40680.943181
6.0,327,40753.428204
9.0,440,40831.168151
8.0,437,40910.910573
4.0,301,40980.706134
1.0,177,41005.25485
9.0,478,41084.036771
7.0,398,41160.420872
9.0,470,41255.657157
12.0,456,41355.797792
6.0,354,41412.452926
5.0,289,41461.432773
5.0,286,41511.068631
9.0,452,41611.282652
5.0,353,41686.581109
9.0,348,41738.56655
11.0,406,41817.42938
9.0,476,41919.029814
8.0,427,41993.745393
7.0,445,42071.394758
7.0,425,42172.164921
15.0,475,42249.333879
9.0,382,42326.399938
10.0,391,42399.324761
5.0,308,42454.697222
4.0,260,42504.475279
6.0,398,42583.217402
5.0,309,42653.802234
6.0,352,42710.193802
6.0,360,42783.334349
3.0,232,42836.151966
7.0,440,42910.819849
15.0,514,43012.284633
9.0,487,43112.968728
16.0,538,43216.056292
1.0,157,43240.518704
7.0,409,43317.690725
7.0,350,43370.731403
6.0,377,43447.078411
8.0,420,43521.127588
11.0,460,43619.041618
4.0,299,43667.865884
3.0,252,43719.178505
6.0,355,43789.776229
5.0,275,43842.765282
5.0,346,43894.44416
3.0,215,43944.549839
8.0,408,44019.856331
5.0,311,44073.871997
5.0,313,44144.540013
4.0,259,44196.716534
10.0,485,44274.878804
7.0,398,44351.338313
6.0,359,44424.325543
17.0,521,44527.03885
7.0,410,44604.063666
5.0,331,44654.679617
13.0,549,44776.748432
12.0,473,44856.140134
9.0,455,44956.055791
6.0,337,45007.452353
8.0,442,45102.912729
7.0,385,45156.73877
4.0,298,45229.923187
4.0,322,45281.214368
7.0,411,45357.999071
7.0,365,45431.073647
4.0,269,45482.254582
3.0,231,45530.994146
4.0,282,45582.208916
3.0,226,45610.858868
4.0,300,45679.681247
4.0,288,45733.065361
6.0,350,45785.623551
4.0,285,45839.187683
7.0,371,45910.844898
4.0,264,45962.707281
6.0,396,46036.05495
5.0,324,46110.259621
4.0,297,46160.061749
9.0,451,46239.132142
6.0,337,46308.970613
5.0,288,46361.737519
7.0,428,46438.097061
4.0,281,46490.424956
4.0,266,46538.301601
9.0,398,46615.141745
5.0,311,46667.521248
7.0,423,46765.808927
4.0,264,46813.231317
12.0,520,46912.852823
5.0,291,46965.279424
6.0,363,47016.79741
8.0,411,47110.741822
12.0,496,47186.121236
8.0,446,47282.215031
19.0,635,47402.857445
10.0,522,47501.139026
10.0,533,47599.475869
6.0,351,47648.458329
4.0,261,47699.12249
8.0,440,47771.862512
7.0,378,47846.600835
5.0,310,47919.152596
7.0,401,47990.947612
5.0,329,48044.516021
7.0,250,48090.226204
7.0,423,48164.921904
5.0,310,48215.168982
5.0,327,48285.157632
10.0,526,48381.10755
9.0,459,48456.744587
4.0,304,48526.357706
4.0,300,48575.841028
2.0,188,48601.878164
7.0,394,48675.374103
8.0,425,48749.707819
7.0,394,48819.360526
9.0,485,48916.010401
7.0,413,48991.090756
4.0,260,49038.558957
12.0,615,49159.300956
11.0,549,49258.003284
8.0,408,49328.977515
8.0,457,49423.086724
9.0,458,49501.283437
6.0,343,49570.854943
7.0,367,49624.970552
6.0,377,49695.889508
9.0,382,49769.311521
7.0,357,49841.381272
12.0,627,49962.914593
11.0,575,50061.527198
9.0,475,50155.214001
1.0,159,50182.639742
6.0,402,50253.089037
3.0,253,50304.780803
8.0,426,50377.685996
8.0,424,50454.744111
16.0,676,50577.045011
7.0,426,50650.717089
7.0,451,50744.124836
8.0,293,50795.016948
9.0,508,50892.08592
9.0,522,50990.635733
7.0,373,51063.009746
9.0,389,51137.579415
9.0,434,51213.253136
4.0,276,51267.692799
3.0,268,51317.908461
7.0,402,51396.242208
8.0,419,51468.494592
10.0,463,51563.836648
5.0,306,51612.592036
6.0,356,51666.840817
8.0,426,51759.573269
10.0,532,51855.329158
9.0,492,51933.209739
3.0,227,51980.939572
4.0,259,52030.278036
5.0,307,52079.594755
3.0,249,52129.330418
1.0,176,52154.757323
6.0,381,52226.965844
3.0,233,52274.335811
8.0,401,52348.269702
11.0,507,52441.614745
5.0,320,52492.91507
8.0,298,52560.377252
9.0,478,52638.424724
5.0,325,52711.397013
8.0,443,52786.108244
10.0,471,52864.558707
8.0,427,52959.65844
2.0,183,52985.422914
11.0,514,53082.740362
7.0,407,53154.049643
9.0,457,53231.51491
11.0,276,53301.324308
3.0,249,53329.390948
15.0,441,53424.163929
8.0,414,53495.820494
2.0,180,53523.51532
4.0,281,53575.24805
5.0,289,53622.897497
6.0,389,53693.606874
7.0,389,53762.097133
4.0,278,53808.700557
9.0,382,53878.435497
6.0,338,53942.686107
3.0,248,53969.241755
4.0,275,54032.282603
7.0,394,54099.442499
11.0,587,54191.692617
13.0,569,54283.343591
9.0,479,54370.906157
6.0,327,54417.797549
12.0,476,54506.061085
2.0,191,54530.308921
7.0,370,54596.939606
5.0,330,54662.204427
1.0,157,54685.116277
5.0,300,54731.060835
5.0,314,54777.412623
6.0,341,54843.023299
8.0,409,54910.449246
10.0,527,54999.403728
4.0,263,55043.914714
11.0,407,55111.769687
7.0,397,55179.3232
8.0,426,55247.595437
8.0,487,55335.992168
7.0,367,55405.37916
8.0,471,55485.218861
4.0,245,55539.177467
7.0,383,55616.161281
5.0,306,55672.768285
3.0,236,55725.618321
8.0,436,55807.623155
7.0,427,55888.564599
8.0,405,55990.620189
7.0,430,56072.91348
5.0,312,56128.450881
12.0,475,56231.424491
10.0,467,56315.596223
10.0,480,56423.297501
5.0,310,56480.979975
2.0,203,56532.447191
4.0,274,56587.716835
5.0,325,56644.491619
9.0,408,56729.243948
12.0,540,56838.201409
9.0,494,56947.801975
7.0,444,57032.97958
5.0,330,57112.01124
12.0,502,57222.123689
5.0,350,57280.79285
9.0,447,57385.957381
12.0,521,57494.927113
9.0,464,57577.528083
6.0,381,57657.084924
8.0,381,57734.951787
5.0,275,57789.068843
7.0,420,57872.328142
8.0,445,57953.645155
4.0,292,58031.324164
13.0,585,58147.121967
7.0,410,58233.92203
5.0,331,58313.385236
10.0,403,58391.932313
5.0,311,58448.249802
6.0,364,58526.271789
4.0,270,58580.001921
6.0,357,58636.302322
4.0,250,58690.329684
3.0,230,58741.803457
4.0,303,58796.667084
4.0,319,58872.881937
5.0,293,58930.140161
5.0,307,58986.633909
4.0,279,59041.940001
6.0,358,59120.619511
6.0,323,59178.665042
4.0,272,59234.793255
2.0,223,59285.833886
9.0,364,59367.788633
6.0,365,59427.482236
7.0,398,59507.101398
8.0,461,59609.538746
10.0,469,59691.906946
6.0,333,59770.129037
5.0,269,59823.784531
4.0,262,59874.718719
6.0,356,59952.933942
4.0,283,60009.332917
5.0,328,60064.733201
6.0,365,60142.32286
4.0,247,60195.875616
10.0,479,60281.757267
5.0,323,60358.494363
8.0,281,60413.416984
10.0,508,60518.988035
8.0,444,60607.070452
7.0,387,60685.900557
5.0,310,60741.069856
6.0,339,60818.671274
5.0,348,60876.371199
5.0,289,60955.440125
6.0,358,61015.364723
6.0,377,61096.818692
8.0,408,61176.547204
5.0,296,61229.882585
8.0,498,61340.35839
5.0,312,61392.645362
6.0,378,61471.338969
6.0,358,61549.939032
6.0,377,61629.484335
8.0,426,61711.199887
8.0,421,61795.867736
8.0,409,61876.136166
9.0,460,61982.892788
7.0,246,62036.255988
6.0,347,62094.566677
3.0,249,62147.778753
6.0,326,62205.225811
5.0,309,62284.521992
5.0,319,62339.701797
8.0,421,62423.915508
4.0,304,62503.762627
4.0,300,62560.88141
4.0,264,62615.281163
12.0,431,62697.636664
11.0,560,62805.020909
7.0,392,62885.680239
8.0,424,62967.67988
7.0,391,63046.370009
7.0,393,63125.850959
9.0,469,63232.991164
3.0,235,63287.699897
8.0,422,63372.910977
7.0,424,63456.140338
11.0,522,63565.037317
12.0,483,63671.265103
4.0,244,63700.260519
7.0,361,63778.003853
11.0,400,63861.139887
6.0,331,63940.614689
12.0,571,64051.442963
2.0,188,64080.62146
2.0,225,64129.745937
12.0,537,64237.25222
6.0,325,64317.099268
10.0,504,64400.821854
6.0,361,64479.176704
15.0,450,64585.264906
15.0,412,64669.478896
9.0,421,64749.284569
5.0,310,64808.290895
6.0,339,64885.070207
5.0,311,64943.85655
10.0,546,65053.636539
8.0,449,65155.136824
8.0,429,65237.313374
9.0,451,65319.832957
9.0,494,65425.1404
11.0,520,65533.895917
6.0,367,65618.163189
10.0,504,65707.961133
16.0,496,65816.649969
12.0,561,65952.547594
4.0,256,65985.279185
8.0,451,66092.166797
7.0,411,66174.421858
8.0,424,66255.118641
2.0,206,66306.188617
10.0,420,66386.077517
3.0,234,66439.813328
4.0,271,66494.006093
8.0,393,66554.84529
4.0,282,66633.956651
9.0,449,66714.99481
5.0,352,66795.346497
8.0,438,66883.140738
10.0,433,66967.433287
6.0,326,67049.687361
13.0,571,67163.375923
9.0,312,67220.753786
7.0,385,67300.599278
8.0,458,67402.042141
14.0,663,67533.873177
14.0,502,67636.843246
7.0,404,67713.706717
6.0,366,67771.824642
5.0,355,67850.859744
7.0,367,67930.262652
11.0,568,68039.909839
13.0,534,68150.040596
8.0,412,68229.499729
8.0,449,68332.780495
5.0,349,68388.236794
7.0,395,68470.632955
10.0,518,68580.823308
5.0,300,68633.79234
6.0,382,68715.044137
9.0,478,68820.64823
12.0,457,68909.632141
8.0,457,69020.879613
7.0,367,69103.811809
9.0,479,69185.995906
5.0,352,69266.672988
11.0,563,69376.667484
8.0,460,69475.53848
6.0,329,69531.044614
5.0,310,69590.326254
7.0,401,69672.50389
6.0,349,69750.107918
10.0,560,69859.187419
12.0,440,69963.167732
9.0,456,70047.199665
9.0,478,70154.315426
5.0,312,70208.011333
6.0,369,70290.052185
10.0,483,70397.351688
8.0,409,70478.506597
8.0,408,70560.656605
9.0,423,70642.809314
12.0,553,70748.795077
10.0,361,70828.694388
14.0,555,70936.553723
8.0,423,71019.164037
4.0,282,71072.99437
10.0,339,71152.265789
11.0,560,71255.887262
10.0,492,71355.840786
9.0,420,71436.290851
7.0,348,71514.534107
11.0,574,71617.782605
9.0,455,71692.863529
11.0,428,71796.089849
6.0,378,71876.79477
6.0,342,71930.832529
19.0,598,72059.18684
4.0,265,72110.257974
7.0,389,72188.189415
17.0,642,72297.108219
10.0,395,72376.419327
8.0,438,72474.321788
12.0,563,72580.811312
5.0,293,72635.005614
6.0,378,72714.112977
8.0,432,72794.974613
5.0,311,72867.628237
6.0,326,72922.874032
12.0,526,73025.023589
9.0,501,73128.266378
9.0,492,73233.305544
11.0,514,73334.928557
6.0,348,73391.356516
8.0,407,73471.518875
6.0,353,73548.942742
4.0,266,73600.126451
8.0,454,73681.065885
8.0,450,73784.835486
10.0,380,73858.947096
12.0,472,73939.316483
9.0,462,74039.122808
9.0,484,74123.435619
6.0,375,74202.649915
5.0,289,74256.114824
10.0,534,74356.527094
17.0,581,74478.954812
9.0,461,74558.264738
8.0,452,74656.969503
9.0,499,74737.202578
14.0,383,74812.568947
5.0,307,74883.662454
8.0,463,74961.092457
14.0,644,75083.623346
12.0,318,75135.18322
10.0,534,75234.461673
3.0,223,75283.681841
12.0,449,75382.320773
7.0,389,75439.37511
11.0,495,75541.322631
4.0,262,75591.198503
8.0,441,75666.380195
2.0,184,75713.754915
6.0,357,75766.599927
4.0,262,75817.295678
13.0,482,75918.254318
8.0,399,75991.887504
9.0,476,76091.008802
10.0,359,76144.546597
10.0,488,76244.113499
4.0,280,76294.857165
9.0,460,76392.307081
10.0,492,76469.562064
8.0,441,76565.827681
6.0,354,76618.800459
9.0,402,76694.980975
14.0,660,76819.709936
6.0,327,76890.340393
5.0,274,76940.523449
9.0,505,77042.573308
4.0,285,77092.018566
8.0,429,77169.342814
8.0,426,77245.46471
9.0,449,77343.81437
6.0,374,77415.113632
9.0,480,77491.989025
9.0,472,77591.825002
8.0,412,77666.5562
6.0,352,77744.443408
8.0,435,77827.208899
8.0,439,77906.875733
12.0,487,78010.780259
11.0,290,78064.676968
6.0,377,78138.494321
8.0,396,78215.072142
4.0,281,78267.169731
3.0,249,78321.424048
10.0,532,78425.111986
7.0,340,78480.758538
12.0,479,78579.207425
16.0,627,78712.463679
14.0,383,78789.300283
14.0,664,78917.109471
11.0,446,78999.232109
6.0,332,79074.01141
3.0,214,79101.625481
7.0,379,79178.551465
13.0,479,79276.437011
10.0,483,79354.600608
15.0,668,79480.990757
6.0,343,79552.596987
8.0,463,79632.13744
12.0,467,79734.795506
5.0,329,79788.613344
5.0,298,79863.14931
9.0,345,79919.142402
3.0,251,79968.018121
5.0,307,80021.297969
7.0,399,80096.468604
11.0,520,80196.33276
17.0,532,80294.546041
11.0,464,80395.197181
4.0,283,80446.257658
10.0,508,80541.308348
9.0,348,80607.322822
4.0,273,80652.173301
11.0,554,80739.168033
13.0,495,80822.279537
12.0,423,80888.403824
19.0,581,80975.784873
11.0,535,81057.572247
21.0,647,81161.495437
11.0,551,81246.289059
6.0,381,81308.11968
10.0,551,81391.067772
11.0,502,81473.581191
11.0,521,81554.86986
9.0,453,81632.782808
7.0,390,81694.803692
10.0,523,81777.319997
9.0,481,81843.678189
8.0,426,81906.67282
17.0,538,81991.927902
9.0,419,82071.38094
13.0,381,82131.847664
16.0,581,82215.591996
6.0,362,82275.150149
8.0,446,82339.406347
15.0,572,82423.726102
11.0,401,82485.099907
7.0,399,82547.986745
1.0,157,82585.531593
10.0,413,82650.264603
5.0,326,82695.224794
4.0,264,82738.374373
9.0,455,82818.162641
12.0,463,82883.741296
7.0,411,82946.160055
4.0,241,82986.646683
6.0,396,83050.245875
11.0,425,83114.626045
5.0,301,83156.547505
4.0,323,83218.289691
6.0,342,83266.231692
8.0,438,83348.689381
10.0,531,83432.322815
7.0,426,83497.252248
17.0,492,83582.381027
17.0,554,83670.835845
10.0,499,83759.757958
7.0,398,83823.886611
10.0,522,83911.741512
6.0,378,83956.527786
11.0,432,84034.635989
8.0,390,84095.735079
6.0,378,84140.682281
8.0,437,84220.435428
14.0,535,84304.661581
10.0,479,84371.528182
8.0,423,84450.699089
9.0,474,84517.266328
7.0,411,84581.450212
11.0,552,84680.712279
6.0,312,84722.47881
7.0,376,84783.360112
10.0,516,84866.198237
10.0,566,84952.988977
9.0,474,85038.858751
6.0,335,85086.115426
9.0,449,85151.627007
10.0,507,85237.149047
12.0,315,85296.662848
3.0,253,85338.878237
11.0,477,85405.464754
7.0,419,85470.167315
9.0,471,85551.126135
10.0,499,85629.511699
5.0,328,85671.301572
7.0,368,85729.970051
9.0,457,85791.791636
11.0,452,85867.744109
7.0,420,85928.999818
7.0,422,85989.153395
9.0,451,86061.10867
13.0,335,86099.943737
15.0,513,86172.216034
3.0,253,86208.130074
5.0,328,86246.626761
8.0,401,86301.576944
12.0,594,86390.473973
8.0,457,86446.991956
5.0,312,86499.010831
10.0,519,86571.609636
16.0,627,86648.256623
7.0,364,86701.491954
12.0,562,86775.800807
10.0,518,86848.421179
9.0,308,86900.819457
10.0,545,86974.702968
7.0,423,87030.219131
12.0,584,87105.698711
9.0,443,87177.121934
9.0,479,87235.290486
6.0,328,87288.549687
12.0,542,87363.291606
16.0,560,87438.082342
5.0,319,87490.473193
10.0,499,87548.415344
10.0,530,87621.586656
4.0,263,87658.170241
8.0,458,87729.227799
11.0,520,87802.872538
9.0,461,87859.722697
8.0,426,87929.514288
7.0,412,87985.169121
4.0,300,88022.609067
7.0,450,88079.450494
11.0,477,88151.379277
9.0,459,88208.185831
7.0,384,88262.326192
8.0,394,88316.455891
7.0,431,88372.172054
13.0,504,88443.867448
18.0,573,88531.911313
9.0,473,88588.781523
6.0,347,88642.123844
5.0,307,88680.26126
7.0,386,88735.138434
12.0,488,88807.158102
11.0,570,88882.155296
8.0,417,88937.83847
9.0,456,89008.802452
9.0,417,89064.215611
15.0,571,89138.72324
14.0,536,89212.482859
10.0,515,89285.268235
7.0,428,89341.056296
9.0,445,89412.463615
6.0,319,89450.568909
7.0,419,89506.093229
9.0,435,89575.624206
13.0,504,89632.49023
9.0,472,89704.211
9.0,439,89760.330966
7.0,408,89815.495504
6.0,338,89868.369497
16.0,598,89958.876549
7.0,404,90014.324809
10.0,453,90071.312066
11.0,565,90171.447302
6.0,349,90262.376886
6.0,377,90353.350753
6.0,402,90443.655224
5.0,309,90508.100139
9.0,374,90598.373122
7.0,358,90694.010629
15.0,558,90821.228037
7.0,250,90881.46775
0.0,129,90911.992035
4.0,264,90975.306084
7.0,247,91009.163866
3.0,268,91072.709101
11.0,564,91224.449602
8.0,494,91321.549677
19.0,747,91511.988932
13.0,645,91675.509967
8.0,403,91769.055175
6.0,339,91864.396313
5.0,309,91929.319723
13.0,528,92057.739044
10.0,522,92181.248137
6.0,360,92278.189216
6.0,345,92347.109365
4.0,261,92409.08527
20.0,679,92568.157322
7.0,410,92664.042336
7.0,367,92758.539633
13.0,599,92914.787285
10.0,492,93011.703485
8.0,432,93131.32978
7.0,407,93228.830445
13.0,603,93360.351434
11.0,550,93518.043523
8.0,401,93611.48372
14.0,550,93737.140146
9.0,527,93861.511122
7.0,425,93956.130329
16.0,507,94081.211039
8.0,457,94178.034018
5.0,305,94268.999306
12.0,562,94398.13995
12.0,606,94556.922664
13.0,653,94712.401893
16.0,498,94810.755136
16.0,561,94967.519892
14.0,558,95093.904416
7.0,333,95161.02031
15.0,604,95320.816934
14.0,500,95449.218713
9.0,422,95543.278693
13.0,348,95635.364485
4.0,281,95699.191442
14.0,673,95856.211449
7.0,408,95951.666368
10.0,417,96049.378992
8.0,379,96145.478606
3.0,233,96209.252178
9.0,479,96311.330645
10.0,487,96436.130561
15.0,572,96563.82531
9.0,476,96689.25227
8.0,475,96787.676003
11.0,551,96944.262877
6.0,361,97010.869662
10.0,519,97136.683827
11.0,540,97264.357997
3.0,214,97324.472417
9.0,480,97450.429583
12.0,554,97580.325459
6.0,369,97672.561734
7.0,433,97771.298367
8.0,392,97868.449799
14.0,534,97996.395615
13.0,609,98157.391747
11.0,418,98252.286435
5.0,328,98316.992454
8.0,453,98444.938036
20.0,633,98577.562065
13.0,600,98739.270979
10.0,502,98867.411912
13.0,505,98995.165271
9.0,485,99093.182719
7.0,389,99188.138937
7.0,421,99280.633066
11.0,535,99434.805243
7.0,386,99503.236898
16.0,627,99657.628269
10.0,493,99782.152563
5.0,291,99845.282956
13.0,587,100003.119348
13.0,603,100135.05271
6.0,370,100227.802864
6.0,322,100295.099459
10.0,473,100416.779109
9.0,454,100518.64721
10.0,499,100644.003295
7.0,428,100739.473598
1.0,173,100801.394086
14.0,560,100929.505027
12.0,524,101057.377837
6.0,326,101124.882196
7.0,368,101218.848116
17.0,603,101378.631621
9.0,440,101479.335479
11.0,493,101605.033472
14.0,525,101732.126433
14.0,633,101887.281205
8.0,383,101953.056302
20.0,782,102141.721139
18.0,581,102296.676198
7.0,392,102393.394133
12.0,473,102488.576814
10.0,499,102613.527005
10.0,524,102741.204272
10.0,464,102861.484701
10.0,507,102984.466929
7.0,393,103081.257653
10.0,397,103175.53837
10.0,461,103275.072022
17.0,652,103432.086964
9.0,314,103499.167587
9.0,468,103622.237107
8.0,499,103747.112116
9.0,431,103847.547947
8.0,442,103944.412819
13.0,487,104068.119178
8.0,422,104168.554402
10.0,464,104294.026172
5.0,280,104361.156095
8.0,420,104458.888448
11.0,479,104588.651121
13.0,687,104746.530382
14.0,595,104883.821057
8.0,430,105004.342794
26.0,779,105188.70842
4.0,294,105253.808036
4.0,299,105322.150505
8.0,420,105417.196265
19.0,649,105573.590849
7.0,352,105669.937681
10.0,500,105792.340144
4.0,238,105827.472486
4.0,279,105888.453417
11.0,421,106012.135403
9.0,450,106114.585295
12.0,545,106239.456987
8.0,443,106360.259592
18.0,605,106492.453176
8.0,381,106586.625503
8.0,439,106683.648111
16.0,618,106842.876801
15.0,585,106975.634466
12.0,320,107069.886839
18.0,586,107198.682711
18.0,631,107357.113881
9.0,488,107481.579615
11.0,525,107610.520887
8.0,440,107708.652823
9.0,423,107803.886705
12.0,627,107957.498437
9.0,435,108053.343996
10.0,477,108179.994288
5.0,332,108272.828984
14.0,524,108397.72298
7.0,360,108465.073153
10.0,507,108591.779217
17.0,652,108751.40867
13.0,593,108907.82206
9.0,467,109004.012741
9.0,497,109128.419178
12.0,470,109228.148135
14.0,513,109357.088414
22.0,754,109544.492077
16.0,442,109669.743099
10.0,482,109769.99171
19.0,670,109929.075283
7.0,408,110025.024342
10.0,497,110155.043183
15.0,516,110282.335967
9.0,507,110406.901001
11.0,569,110534.70479
8.0,428,110629.612946
8.0,440,110753.512694
12.0,530,110880.826508
11.0,555,111006.142898
16.0,659,111165.827444
12.0,464,111291.700644
7.0,413,111386.915833
5.0,284,111451.537535
10.0,482,111574.76823
15.0,516,111678.295361
9.0,456,111803.538584
13.0,648,111962.55295
7.0,425,112064.177629
8.0,391,112165.676158
5.0,340,112259.824596
13.0,480,112358.6617
9.0,439,112482.160589
12.0,552,112610.399768
17.0,695,112765.197182
17.0,617,112920.917875
12.0,493,113020.877414
10.0,498,113152.016699
8.0,389,113247.483571
14.0,645,113399.927902
15.0,567,113529.831626
11.0,511,113659.980759
8.0,410,113756.418621
6.0,357,113847.840105
10.0,485,113976.459087
24.0,810,114168.915518
7.0,358,114261.816912
7.0,361,114331.862896
8.0,388,114425.508171
9.0,489,114548.749918
15.0,671,114706.720716
7.0,426,114805.232955
6.0,365,114901.009567
11.0,571,115034.030931
6.0,345,115132.336909
15.0,599,115291.14627
7.0,395,115390.005693
7.0,392,115489.473356
11.0,521,115615.673653
6.0,324,115680.810747
10.0,375,115773.784584
9.0,493,115893.454894
12.0,612,116026.261413
7.0,420,116124.799059
11.0,427,116246.527783
7.0,388,116340.948151
5.0,309,116403.965546
3.0,229,116437.726125
7.0,390,116533.126874
5.0,308,116624.710735
11.0,557,116751.943667
25.0,686,116908.546691
10.0,504,117033.322923
12.0,612,117194.705712
19.0,791,117383.259731
8.0,406,117477.494733
11.0,541,117606.883043
10.0,473,117734.216569
9.0,497,117832.935115
13.0,583,117984.245486
11.0,537,118109.605024
12.0,545,118236.762727
21.0,631,118391.808199
9.0,441,118490.42312
8.0,434,118584.31655
11.0,530,118710.948421
14.0,640,118866.640905
12.0,492,118992.044958
10.0,472,119113.421692
16.0,609,119244.161848
11.0,519,119366.836013
9.0,493,119495.008852
15.0,642,119651.052939
16.0,752,119843.089828
10.0,525,119970.454356
7.0,378,120064.831882
11.0,506,120166.162949
8.0,406,120260.520975
10.0,516,120391.976892
11.0,543,120519.747161
11.0,545,120682.52465
9.0,428,120787.105425
15.0,436,120885.857067
17.0,517,121015.515476
11.0,493,121139.504421
9.0,488,121262.60937
5.0,296,121327.842818
10.0,513,121453.742256
9.0,458,121551.530578
9.0,502,121677.905526
13.0,608,121833.656332
16.0,743,121999.923827
16.0,578,122159.065875
9.0,454,122255.3828
14.0,651,122413.392115
13.0,617,122571.357565
5.0,277,122638.418947
9.0,486,122770.679248
7.0,429,122869.55102
14.0,640,123030.919224
11.0,589,123163.374978
7.0,403,123264.665862
16.0,699,123456.153299
8.0,391,123525.704541
16.0,575,123683.579214
9.0,442,123787.099534
13.0,515,123921.09745
13.0,523,124051.605276
9.0,441,124152.623659
11.0,578,124311.532837
14.0,642,124472.713961
15.0,682,124632.938624
10.0,517,124762.912867
23.0,765,124953.278669
12.0,630,125105.653681
7.0,405,125203.622344
15.0,444,125298.299259
14.0,534,125424.124077
9.0,428,125521.193568
29.0,664,125681.115061
9.0,427,125805.637795
7.0,364,125872.277524
11.0,496,125996.696188
11.0,533,126119.837526
11.0,514,126243.313998
13.0,634,126396.016874
9.0,327,126462.023186
9.0,462,126588.209013
11.0,496,126713.427979
11.0,554,126840.428227
11.0,541,126965.162236
4.0,286,127030.292566
12.0,613,127186.445762
12.0,525,127306.852308
9.0,504,127431.332014
22.0,671,127590.124566
10.0,502,127711.700235
12.0,549,127833.412483
8.0,385,127921.93045
10.0,515,128044.441229
5.0,313,128105.53664
17.0,615,128255.26436
16.0,616,128384.091938
24.0,718,128561.887663
9.0,432,128653.060776
13.0,607,128804.54479
8.0,443,128898.79273
10.0,499,129019.823813
12.0,540,129139.415454
21.0,787,129324.296378
10.0,515,129443.68778
14.0,538,129569.429848
12.0,562,129690.095776
17.0,659,129843.815879
12.0,570,129989.96721
15.0,681,130142.084477
15.0,591,130270.146025
23.0,772,130454.84656
21.0,695,130633.223406
10.0,464,130728.815262
11.0,542,130850.106235
8.0,459,130974.451644
10.0,529,131096.724865
19.0,601,131219.512008
17.0,633,131373.680874
14.0,625,131520.818062
9.0,475,131640.921898
16.0,717,131794.296996
12.0,513,131915.934018
11.0,523,132038.173865
12.0,563,132163.660775
7.0,425,132256.209479
15.0,643,132409.646684
7.0,383,132499.447059
11.0,519,132620.678356
10.0,513,132742.632555
19.0,602,132891.628818
15.0,662,133044.198329
11.0,539,133166.431378
8.0,403,133258.223476
13.0,580,133378.636759
6.0,351,133469.024285
14.0,620,133619.172154
3.0,233,133653.541943
6.0,327,133744.199799
8.0,467,133839.128707
10.0,499,133961.665945
5.0,347,134051.046149
12.0,446,134141.323417
19.0,647,134293.907809
12.0,524,134414.511982
14.0,590,134536.137072
17.0,723,134723.011951
11.0,571,134850.382725
14.0,527,134973.728398
7.0,381,135064.937445
12.0,555,135189.199014
35.0,790,135401.462508
22.0,764,135552.628525
3.0,247,135614.361727
14.0,653,135765.457847
9.0,486,135885.303608
9.0,406,135978.120998
18.0,631,136131.068058
19.0,649,136284.876989
27.0,797,136469.475034
11.0,564,136596.934782
18.0,721,136779.185445
16.0,572,136901.911105
18.0,707,137062.84663
10.0,545,137210.611563
6.0,342,137275.27088
18.0,638,137428.544808
8.0,410,137523.016751
13.0,616,137674.813946
22.0,743,137855.129706
18.0,714,138010.799781
7.0,391,138103.248405
16.0,702,138259.376341
16.0,629,138411.120847
30.0,785,138592.322186
21.0,712,138773.81431
16.0,553,138899.362443
14.0,628,139054.238828
17.0,659,139207.272167
9.0,490,139300.29926
15.0,731,139477.70533
23.0,827,139665.996412
16.0,657,139822.44419
20.0,743,140004.254396
16.0,666,140156.263377
20.0,719,140337.59231
9.0,478,140432.717988
11.0,571,140585.100892
16.0,600,140711.653404
8.0,431,140804.489738
7.0,394,140896.019114
13.0,602,141044.488911
8.0,417,141134.545377
10.0,548,141255.740919
15.0,577,141402.456162
9.0,443,141493.921518
11.0,516,141613.98672
18.0,569,141738.578894
11.0,493,141855.208121
9.0,461,141974.468515
14.0,670,142127.350298
11.0,481,142224.977324
12.0,550,142372.28816
13.0,594,142494.56202
11.0,479,142616.755613
23.0,892,142830.59754
19.0,792,143014.125504
26.0,871,143201.568413
13.0,584,143350.958217
14.0,662,143505.386815
17.0,648,143654.159739
7.0,393,143742.190819
11.0,536,143863.999949
14.0,511,143989.816542
13.0,616,144109.299458
13.0,603,144245.643864
12.0,502,144352.125388
13.0,671,144487.349959
21.0,683,144620.403511
6.0,323,144696.732206
21.0,683,144834.518357
7.0,371,144915.301701
15.0,701,145051.891479
13.0,591,145181.714353
16.0,652,145294.283203
16.0,527,145426.580841
9.0,481,145509.752788
9.0,425,145592.50303
13.0,618,145723.697135
21.0,726,145881.902146
16.0,688,146017.159282
19.0,835,146181.527808
17.0,738,146344.962461
10.0,486,146452.886508
22.0,686,146591.085405
6.0,378,146671.813128
15.0,683,146809.452081
10.0,475,146915.639997
14.0,527,147023.225863
24.0,809,147180.506921
16.0,448,147260.108269
13.0,544,147365.900836
9.0,475,147467.910961
24.0,775,147623.859621
21.0,681,147753.816827
10.0,478,147857.948157
13.0,613,147965.457417
10.0,545,148092.891402
8.0,493,148173.851238
18.0,637,148302.568486
10.0,448,148406.927849
18.0,675,148541.237643
18.0,746,148673.800826
17.0,392,148752.68176
9.0,455,148857.448869
25.0,754,149017.46428
11.0,527,149126.11018
21.0,704,149261.381554
8.0,436,149344.669305
14.0,544,149453.315665
13.0,559,149583.621609
16.0,658,149713.213778
17.0,620,149820.339344
10.0,472,149926.698411
21.0,652,150061.612365
18.0,647,150199.705251
10.0,453,150289.297418
11.0,406,150377.200905
14.0,517,150493.827183
23.0,895,150697.788003
8.0,405,150786.260728
11.0,579,150929.772891
17.0,637,151075.542953
20.0,675,151221.519685
14.0,525,151337.424874
9.0,404,151425.638059
21.0,632,151571.300927
11.0,514,151686.990448
10.0,505,151778.297395
12.0,547,151921.662101
10.0,473,152009.386693
17.0,644,152157.268816
15.0,560,152276.059513
26.0,750,152449.304494
14.0,576,152566.695835
19.0,661,152735.6968
19.0,712,152883.779671
26.0,965,153090.477244
19.0,607,153234.16791
18.0,678,153383.212797
22.0,765,153570.458635
14.0,657,153735.470387
15.0,635,153878.618599
39.0,896,154080.006952
24.0,619,154223.137777
13.0,481,154313.301839
16.0,674,154460.97477
13.0,537,154579.211335
13.0,672,154748.792014
12.0,576,154868.354439
9.0,468,154983.395414
17.0,409,155071.688907
17.0,699,155220.469789
19.0,743,155396.687682
14.0,597,155514.651882
27.0,884,155718.078323
11.0,495,155834.428825
9.0,468,155925.137221
26.0,803,156126.014724
11.0,402,156213.417129
5.0,333,156272.258249
16.0,548,156380.920503
13.0,636,156512.614319
22.0,829,156671.431192
10.0,527,156776.940653
19.0,729,156936.111384
23.0,809,157100.383449
16.0,569,157232.521695
16.0,623,157342.640778
14.0,619,157474.209752
23.0,742,157634.015024
24.0,772,157792.609426
12.0,505,157896.882667
17.0,517,157983.205158
14.0,611,158115.154244
14.0,578,158249.997518
20.0,807,158428.028054
13.0,654,158573.807315
14.0,594,158694.238829
11.0,396,158779.697542
19.0,738,158954.822586
24.0,974,159164.069135
13.0,481,159279.464858
22.0,710,159425.67495
19.0,594,159571.27687
30.0,1053,159809.993674
