# {"t_start": 1552429634.0535266, "env_id": "BreakoutNoFrameskip-v0"} 
r,l,t
1.0,155,35.678529
1.0,172,59.084324
2.0,198,83.307642
5.0,350,149.941996
4.0,276,197.580264
3.0,249,242.786872
7.0,434,312.612828
3.0,248,359.419761
3.0,216,385.423813
7.0,426,471.953135
7.0,425,540.355074
10.0,508,629.992372
10.0,525,719.525571
10.0,481,792.300098
15.0,598,904.99781
12.0,441,975.664486
6.0,363,1044.559051
2.0,184,1070.935853
1.0,156,1094.003587
7.0,374,1165.750082
7.0,406,1233.066044
4.0,244,1278.680246
3.0,254,1322.765128
4.0,300,1371.268425
9.0,449,1458.453393
2.0,201,1484.278928
2.0,201,1529.560724
3.0,254,1556.98377
3.0,225,1600.228737
3.0,230,1646.080478
0.0,127,1666.391481
3.0,250,1693.455973
9.0,508,1784.166491
3.0,248,1827.748516
12.0,534,1919.737645
6.0,363,1987.513636
2.0,220,2033.990022
4.0,277,2079.209937
5.0,325,2126.407196
6.0,352,2193.045714
4.0,283,2237.635994
5.0,327,2286.408417
4.0,259,2329.216166
4.0,242,2375.024236
1.0,178,2400.02672
5.0,331,2465.378245
6.0,341,2513.075096
7.0,379,2581.853781
8.0,402,2648.787955
1.0,173,2673.805901
10.0,376,2739.795264
5.0,274,2782.959132
1.0,155,2808.432386
6.0,377,2871.445001
12.0,498,2953.603458
8.0,448,3012.042738
2.0,224,3050.199246
5.0,329,3087.584247
3.0,256,3124.531144
5.0,304,3171.707005
7.0,415,3223.373126
9.0,474,3274.487558
7.0,389,3325.423051
8.0,412,3374.743349
6.0,374,3425.562733
6.0,358,3477.343175
5.0,298,3510.758883
11.0,413,3562.95038
3.0,251,3594.99896
9.0,477,3661.045047
3.0,231,3680.118597
5.0,326,3727.59731
3.0,233,3761.45982
4.0,262,3780.40585
3.0,273,3813.411599
6.0,358,3864.455858
5.0,310,3897.963128
6.0,400,3963.01403
6.0,376,4001.243971
3.0,251,4033.054478
4.0,279,4066.337548
4.0,277,4100.822236
7.0,371,4148.962117
6.0,401,4199.948692
13.0,452,4266.976755
4.0,263,4286.452077
10.0,378,4334.299815
7.0,404,4386.249852
5.0,328,4435.230566
8.0,419,4485.407243
8.0,407,4536.635422
11.0,527,4602.071233
7.0,346,4651.954604
4.0,281,4684.9121
11.0,566,4754.995257
7.0,413,4808.208811
7.0,425,4861.137505
7.0,395,4915.177216
7.0,362,4965.684665
5.0,350,5019.068834
8.0,402,5074.775244
12.0,471,5128.88367
6.0,397,5183.542533
7.0,357,5234.603734
5.0,328,5272.957123
10.0,402,5324.004563
13.0,457,5391.006594
5.0,292,5424.430023
6.0,352,5477.885144
2.0,201,5495.627569
10.0,402,5550.724506
12.0,448,5621.173473
7.0,390,5674.18342
3.0,204,5693.099901
9.0,468,5762.184061
9.0,476,5817.289632
4.0,299,5851.064302
9.0,309,5899.987105
8.0,414,5949.390676
8.0,417,6003.794387
7.0,376,6055.659838
4.0,283,6095.369236
9.0,455,6149.914519
6.0,371,6205.577441
11.0,450,6276.871414
4.0,257,6296.81142
10.0,409,6365.960014
6.0,357,6404.24262
6.0,372,6458.27584
5.0,326,6494.103276
9.0,453,6564.660171
4.0,299,6600.655704
3.0,237,6637.828893
11.0,462,6692.720435
9.0,329,6746.377918
3.0,216,6766.203732
3.0,239,6800.504384
2.0,203,6837.372547
2.0,203,6856.50426
8.0,335,6909.7181
8.0,449,6963.469048
7.0,385,7016.953045
7.0,377,7067.957626
6.0,356,7107.739653
5.0,295,7157.408594
2.0,201,7176.588297
3.0,230,7213.781299
3.0,269,7248.212731
1.0,155,7266.231236
8.0,448,7323.388634
5.0,332,7376.973917
4.0,247,7411.419845
4.0,275,7446.286704
5.0,310,7484.603243
7.0,426,7537.749337
3.0,235,7573.653495
10.0,425,7626.763464
2.0,203,7662.237185
5.0,321,7697.768303
5.0,366,7752.661794
4.0,321,7789.793009
6.0,379,7844.468928
6.0,370,7895.833815
3.0,250,7933.000473
5.0,330,7969.82652
15.0,533,8041.676659
5.0,312,8077.215403
3.0,247,8112.203187
8.0,409,8166.972353
2.0,181,8198.48956
2.0,205,8220.66491
5.0,326,8270.671312
13.0,475,8328.567168
3.0,271,8363.626002
3.0,245,8401.072839
6.0,374,8452.752158
6.0,375,8506.644048
2.0,183,8525.70414
9.0,526,8597.240261
5.0,326,8633.173167
3.0,272,8669.203237
5.0,331,8721.704174
4.0,245,8755.543752
8.0,415,8810.147527
2.0,203,8829.433181
5.0,290,8867.722039
5.0,309,8918.07871
15.0,593,8993.497073
3.0,218,9026.843213
6.0,358,9081.180612
4.0,296,9116.701628
3.0,221,9138.849994
6.0,374,9190.681247
10.0,511,9261.956679
11.0,462,9332.205341
6.0,323,9368.422225
11.0,577,9441.724548
5.0,328,9492.584396
9.0,501,9564.515472
13.0,480,9622.44274
5.0,345,9674.423501
4.0,299,9714.160478
4.0,301,9749.916131
8.0,341,9805.682829
7.0,403,9867.895228
5.0,294,9919.979947
4.0,298,9973.03819
10.0,589,10101.593389
10.0,503,10204.051763
3.0,210,10231.878664
2.0,201,10281.025373
7.0,425,10360.393259
8.0,453,10442.722862
3.0,277,10493.73229
5.0,294,10568.369112
1.0,157,10594.967993
6.0,403,10672.383341
14.0,553,10775.876306
5.0,331,10830.630301
4.0,261,10882.303373
10.0,483,10985.27001
8.0,439,11063.131323
13.0,527,11165.707935
2.0,203,11213.732418
3.0,254,11261.403805
1.0,156,11286.105736
2.0,227,11312.859151
15.0,617,11435.159183
4.0,265,11486.928123
2.0,203,11532.793032
6.0,368,11586.662905
4.0,267,11637.630925
7.0,384,11712.362226
7.0,379,11787.446329
7.0,431,11864.873411
8.0,479,11960.526505
5.0,349,12036.155606
11.0,566,12137.95596
5.0,355,12207.985316
12.0,463,12287.678899
6.0,340,12362.076238
6.0,358,12414.762998
4.0,281,12464.24762
10.0,500,12562.321546
10.0,489,12661.826507
14.0,551,12764.231846
8.0,426,12839.279783
6.0,327,12912.319447
2.0,204,12939.148419
9.0,449,13036.523338
9.0,367,13090.339674
9.0,364,13166.319762
9.0,505,13266.879741
5.0,299,13317.396917
8.0,447,13415.37383
9.0,454,13494.856391
4.0,242,13542.92299
5.0,308,13592.637037
3.0,234,13643.942189
11.0,495,13743.787781
8.0,377,13797.26898
3.0,231,13845.167977
4.0,299,13898.182025
4.0,279,13948.258903
8.0,404,14025.147323
1.0,170,14070.762666
4.0,300,14123.731135
7.0,248,14173.530359
9.0,474,14251.737652
5.0,296,14303.09409
7.0,397,14378.28407
9.0,455,14474.681796
7.0,425,14550.399621
4.0,278,14601.392557
6.0,320,14674.046497
14.0,491,14752.19122
8.0,492,14851.456602
4.0,280,14902.674125
8.0,457,14998.068657
8.0,433,15075.940165
5.0,303,15127.287576
15.0,606,15247.377869
4.0,324,15303.253411
10.0,511,15403.669411
5.0,315,15454.779698
7.0,389,15533.604974
9.0,441,15629.074455
5.0,318,15683.646831
8.0,476,15783.721888
6.0,379,15857.359372
6.0,368,15912.352551
7.0,445,16008.008713
5.0,324,16063.36544
10.0,401,16137.641757
3.0,255,16189.574988
3.0,254,16238.30989
3.0,235,16290.325552
1.0,157,16315.811007
7.0,390,16388.743116
4.0,258,16442.697192
3.0,230,16470.070312
1.0,155,16496.000371
3.0,250,16547.159258
2.0,203,16594.972581
4.0,277,16644.683471
6.0,397,16722.363614
6.0,338,16774.247997
5.0,327,16848.420688
9.0,454,16927.203195
4.0,242,16976.096188
10.0,490,17077.05705
3.0,234,17104.388508
6.0,344,17180.210363
2.0,186,17207.360297
5.0,309,17276.060566
6.0,336,17331.461947
4.0,262,17380.465755
7.0,389,17456.426386
4.0,304,17506.356899
8.0,439,17604.821842
4.0,276,17654.399044
3.0,216,17686.033863
13.0,551,17784.427949
11.0,447,17883.326235
7.0,391,17959.410663
4.0,284,18009.11825
8.0,391,18085.825024
5.0,352,18138.819773
3.0,229,18189.101039
12.0,321,18240.480527
6.0,378,18319.526939
2.0,224,18366.529634
4.0,282,18416.341331
2.0,200,18446.975659
1.0,177,18492.827935
6.0,359,18546.649646
3.0,250,18599.627935
5.0,319,18671.085159
2.0,205,18701.97568
5.0,352,18775.559919
2.0,207,18802.029955
1.0,175,18849.119948
2.0,204,18875.650601
2.0,186,18900.934085
1.0,175,18949.055533
4.0,324,18999.065283
4.0,299,19049.790048
4.0,301,19122.744506
5.0,320,19174.314789
1.0,177,19203.827188
1.0,169,19228.616001
4.0,274,19278.190307
11.0,472,19381.064175
4.0,280,19429.324194
7.0,417,19506.141059
8.0,419,19585.438765
4.0,277,19635.83508
5.0,348,19712.478704
7.0,423,19788.427622
5.0,314,19860.555891
10.0,431,19935.176136
6.0,355,20010.91083
1.0,153,20036.58212
2.0,187,20063.500569
4.0,251,20115.810041
5.0,297,20165.915838
5.0,303,20220.588609
8.0,417,20294.653496
7.0,445,20391.107163
3.0,250,20439.585531
4.0,245,20471.288168
3.0,249,20519.604276
6.0,342,20597.011756
3.0,234,20643.682652
5.0,311,20694.053708
2.0,187,20723.171848
7.0,430,20797.711494
5.0,331,20870.023426
7.0,412,20944.418975
7.0,427,21021.27231
3.0,255,21070.844881
1.0,173,21098.916925
7.0,434,21192.43494
3.0,233,21220.952446
3.0,232,21268.887423
3.0,217,21316.744956
7.0,408,21392.05873
7.0,431,21469.097907
6.0,357,21544.035292
5.0,329,21597.216686
1.0,176,21623.919374
2.0,202,21669.891773
7.0,408,21747.039236
1.0,158,21771.585818
11.0,540,21873.792027
8.0,295,21923.481464
5.0,332,21996.521639
7.0,398,22070.777842
6.0,359,22145.730856
9.0,493,22224.740353
5.0,306,22296.435915
6.0,350,22350.281047
5.0,308,22422.834294
6.0,362,22478.119088
5.0,310,22548.914251
7.0,427,22626.357194
6.0,357,22678.230265
8.0,408,22772.954517
3.0,274,22822.583024
4.0,299,22875.1694
7.0,383,22949.693395
5.0,351,23005.747936
10.0,480,23101.308182
6.0,357,23176.341232
5.0,306,23227.722955
4.0,297,23279.045736
10.0,484,23377.885698
4.0,265,23426.470509
3.0,216,23454.056967
6.0,347,23529.560007
2.0,182,23555.805338
6.0,312,23630.381711
4.0,275,23680.215061
3.0,250,23709.326885
6.0,398,23785.967903
6.0,358,23856.953402
2.0,204,23906.393998
0.0,119,23910.602471
9.0,467,24008.51001
8.0,387,24082.542349
4.0,299,24135.879337
1.0,157,24160.50037
3.0,245,24207.446306
7.0,386,24282.534057
6.0,355,24354.349022
3.0,252,24407.611517
15.0,518,24484.261971
3.0,230,24534.871754
6.0,358,24607.563964
3.0,233,24658.738781
5.0,329,24709.505514
3.0,232,24761.494929
5.0,313,24812.067299
3.0,211,24857.173664
2.0,201,24887.887689
4.0,279,24936.979187
6.0,357,25012.251804
3.0,275,25061.784261
6.0,359,25137.332654
8.0,333,25188.53661
10.0,533,25290.871444
5.0,279,25341.348359
5.0,289,25395.099554
8.0,430,25491.683795
2.0,198,25522.567449
6.0,324,25575.165946
2.0,187,25620.99809
3.0,256,25673.943839
14.0,521,25777.46808
3.0,249,25806.526589
2.0,201,25852.744998
3.0,248,25903.574354
4.0,277,25953.588658
8.0,419,26032.347423
5.0,274,26081.177964
4.0,263,26129.680858
8.0,454,26208.990532
6.0,322,26284.350087
4.0,278,26335.47927
5.0,330,26386.571246
6.0,332,26461.915398
6.0,357,26514.387666
10.0,396,26591.513194
1.0,175,26637.496148
4.0,260,26690.234519
5.0,350,26743.385943
6.0,358,26819.496597
10.0,563,26922.531478
4.0,262,26971.964793
7.0,405,27049.766717
5.0,333,27119.888677
7.0,412,27196.546903
1.0,174,27223.23308
20.0,601,27348.058583
4.0,281,27398.804518
3.0,246,27449.139844
4.0,282,27500.077122
4.0,295,27553.342152
7.0,377,27627.141133
8.0,404,27704.272259
5.0,350,27757.668903
6.0,344,27832.93714
9.0,453,27910.473901
6.0,379,27984.911357
16.0,522,28084.759903
7.0,423,28158.089507
5.0,329,28232.525018
4.0,324,28285.017027
7.0,426,28363.861513
7.0,406,28461.241194
5.0,313,28512.791472
3.0,229,28563.970228
5.0,335,28614.70533
5.0,309,28668.134914
1.0,155,28694.414381
7.0,432,28789.801629
2.0,201,28818.20267
6.0,342,28890.154718
4.0,265,28942.345736
2.0,219,28969.785956
3.0,234,29018.772414
13.0,378,29094.052686
7.0,446,29170.095155
4.0,302,29242.567622
9.0,479,29320.604288
7.0,431,29395.487997
3.0,232,29445.755204
4.0,278,29495.164326
12.0,496,29594.82759
6.0,356,29668.367333
7.0,366,29724.117292
9.0,440,29821.305312
7.0,406,29896.434648
4.0,277,29948.499527
9.0,523,30048.377813
6.0,329,30100.742828
6.0,375,30174.224606
9.0,463,30272.903541
9.0,463,30350.054391
9.0,461,30449.544006
6.0,385,30503.457751
6.0,378,30579.827583
7.0,401,30653.57758
3.0,231,30704.106537
4.0,300,30754.966708
7.0,371,30832.0834
6.0,321,30884.574734
6.0,362,30960.114128
5.0,304,31010.344375
13.0,528,31112.374627
4.0,247,31161.076612
10.0,474,31260.976597
6.0,346,31316.007562
7.0,406,31410.470173
4.0,260,31439.984149
5.0,294,31510.104482
4.0,254,31559.928276
10.0,388,31614.303009
6.0,346,31687.99247
5.0,303,31740.646993
6.0,378,31816.421044
5.0,304,31868.077507
3.0,254,31917.514934
4.0,294,31969.927117
9.0,327,32041.2368
9.0,521,32139.466131
6.0,322,32189.943386
5.0,344,32263.43608
10.0,396,32340.244732
4.0,265,32390.859878
6.0,399,32467.189902
6.0,324,32519.412223
10.0,473,32618.868118
4.0,298,32668.781304
5.0,348,32744.449448
12.0,510,32843.775056
6.0,323,32895.110461
4.0,280,32944.567135
5.0,325,32997.900868
3.0,231,33046.291536
8.0,459,33146.23034
4.0,283,33196.379299
6.0,350,33250.904229
4.0,278,33300.947154
5.0,331,33374.891026
9.0,467,33455.353529
6.0,376,33528.122694
3.0,219,33577.228542
8.0,285,33627.774364
3.0,217,33674.874335
4.0,300,33727.807073
5.0,310,33779.330384
3.0,250,33830.901708
3.0,233,33876.711713
13.0,487,33956.383266
8.0,399,34029.907433
6.0,340,34103.070754
15.0,422,34178.367558
6.0,360,34253.271199
6.0,377,34328.094331
8.0,457,34402.83076
11.0,511,34500.864392
9.0,429,34578.247441
6.0,383,34653.299191
5.0,335,34726.99203
4.0,242,34755.159144
6.0,338,34825.338271
4.0,243,34877.593604
14.0,552,34979.743409
5.0,289,35029.472313
5.0,305,35081.644823
5.0,343,35154.176962
4.0,260,35205.099626
12.0,510,35305.296543
8.0,418,35383.00732
7.0,389,35457.718557
3.0,232,35486.459062
3.0,215,35534.876443
5.0,330,35610.309599
5.0,295,35659.677276
6.0,376,35734.52966
9.0,455,35811.459303
6.0,356,35886.797986
2.0,226,35913.975295
6.0,364,35989.305278
9.0,480,36089.147458
5.0,335,36141.165886
13.0,531,36244.865445
7.0,390,36319.3358
4.0,283,36372.167446
7.0,390,36445.86975
7.0,397,36525.01644
8.0,486,36625.393929
5.0,328,36677.134703
8.0,426,36775.629438
2.0,225,36804.597553
6.0,341,36879.746665
8.0,454,36955.747568
4.0,281,37010.013472
4.0,265,37059.647307
3.0,245,37111.20672
4.0,297,37162.083283
7.0,420,37239.205479
4.0,278,37289.170461
5.0,350,37364.432982
4.0,262,37412.745103
4.0,299,37463.96332
5.0,304,37537.497247
7.0,407,37616.046118
4.0,276,37667.293099
5.0,330,37718.66763
8.0,389,37795.553932
9.0,492,37894.985192
5.0,353,37947.637379
11.0,558,38071.002999
4.0,244,38098.003741
7.0,390,38175.814589
5.0,345,38250.996612
10.0,546,38349.967261
2.0,186,38399.131197
3.0,228,38426.54213
3.0,245,38475.027778
2.0,205,38506.302273
6.0,397,38581.04583
3.0,277,38654.901221
8.0,427,38729.39067
4.0,260,38781.098876
14.0,539,38883.77071
9.0,500,38980.718697
7.0,405,39057.990216
6.0,354,39111.665725
3.0,234,39161.582669
8.0,467,39262.380675
3.0,231,39290.247556
5.0,293,39341.953647
6.0,338,39416.523776
5.0,353,39490.511611
8.0,299,39544.530489
4.0,262,39594.654946
5.0,328,39649.892543
7.0,398,39722.346692
6.0,367,39799.042856
9.0,519,39901.039309
8.0,454,39976.36917
4.0,258,40028.330102
4.0,286,40078.963914
3.0,248,40127.063254
4.0,279,40179.963029
10.0,505,40280.372252
5.0,302,40330.079895
13.0,551,40449.341589
9.0,343,40500.463311
6.0,325,40575.38142
5.0,311,40625.712577
4.0,237,40677.496298
5.0,310,40728.962862
3.0,254,40782.089506
6.0,385,40853.166817
11.0,394,40931.493393
8.0,443,41006.020363
5.0,309,41058.462216
8.0,435,41156.00553
4.0,277,41204.796329
3.0,235,41232.478552
7.0,414,41331.904128
3.0,231,41359.212084
4.0,306,41433.08968
4.0,280,41481.915192
9.0,434,41560.808758
5.0,320,41613.261896
14.0,553,41715.464463
5.0,313,41791.079255
9.0,326,41841.562864
7.0,349,41919.261506
10.0,407,41993.159987
5.0,293,42046.276156
4.0,294,42097.108625
5.0,301,42171.767834
5.0,311,42223.483143
7.0,405,42301.073451
4.0,282,42349.662958
5.0,310,42400.88542
5.0,299,42475.80099
4.0,261,42505.495063
2.0,225,42557.451911
11.0,480,42654.725745
6.0,379,42732.825017
8.0,415,42811.346617
8.0,460,42887.80383
3.0,266,42939.71008
9.0,344,43011.890043
3.0,225,43039.408037
1.0,157,43089.227579
9.0,473,43165.293004
5.0,329,43239.691769
5.0,307,43290.554844
5.0,329,43345.223001
9.0,479,43445.436947
4.0,281,43494.346965
5.0,329,43568.017208
6.0,358,43620.28682
6.0,362,43694.638546
4.0,257,43742.616256
5.0,311,43792.002779
8.0,429,43869.74716
5.0,336,43944.593807
6.0,379,44018.606226
9.0,479,44099.211276
5.0,328,44170.435786
7.0,355,44246.177758
7.0,350,44298.259287
9.0,475,44398.267046
8.0,460,44479.240645
8.0,438,44577.472919
6.0,339,44627.743197
6.0,324,44702.461181
4.0,258,44731.231634
9.0,454,44830.033614
6.0,344,44882.219132
5.0,372,44958.688658
10.0,501,45052.929367
7.0,408,45130.550466
14.0,600,45254.194973
4.0,279,45303.807556
3.0,234,45335.466339
6.0,323,45406.004157
16.0,649,45532.265765
7.0,374,45607.304801
11.0,435,45681.45981
4.0,285,45734.731418
3.0,250,45783.086081
6.0,364,45858.848424
6.0,383,45931.803881
5.0,327,45985.443411
4.0,296,46035.956737
6.0,316,46109.801882
8.0,432,46184.700647
7.0,352,46240.12787
6.0,330,46309.621198
7.0,377,46386.461806
4.0,275,46436.246013
7.0,398,46512.321408
5.0,308,46562.140653
12.0,444,46642.082902
8.0,430,46742.198205
7.0,362,46793.249015
6.0,339,46867.204117
5.0,307,46915.752999
4.0,298,46968.516203
3.0,248,47015.730977
10.0,481,47112.260981
7.0,404,47184.205623
9.0,481,47281.568937
5.0,329,47334.399551
7.0,421,47405.940452
5.0,306,47476.931936
4.0,280,47524.94896
11.0,441,47600.988423
5.0,287,47647.662155
2.0,221,47696.931377
3.0,232,47724.473906
10.0,481,47821.49566
9.0,346,47891.718097
10.0,511,47990.097178
4.0,297,48042.534961
5.0,330,48091.269876
4.0,273,48138.464086
5.0,332,48211.44585
7.0,400,48284.121117
7.0,397,48355.577377
8.0,462,48432.49839
8.0,439,48525.647936
5.0,308,48575.413554
18.0,607,48676.444411
9.0,438,48770.282964
9.0,448,48842.661597
6.0,327,48913.667401
5.0,318,48962.628777
12.0,481,49058.74535
4.0,282,49111.437202
11.0,417,49182.734916
12.0,610,49302.8829
8.0,386,49357.379409
10.0,509,49450.167476
6.0,343,49524.333611
7.0,398,49598.953811
12.0,315,49648.158173
5.0,326,49719.621882
7.0,398,49791.047943
5.0,329,49843.321906
9.0,373,49914.198206
7.0,416,49988.845139
12.0,601,50108.090119
4.0,304,50157.240499
8.0,415,50231.55395
6.0,355,50305.616696
9.0,497,50400.711667
1.0,156,50428.648607
0.0,127,50452.520168
10.0,504,50527.19828
9.0,506,50625.188461
5.0,287,50676.416365
8.0,427,50766.684652
10.0,467,50843.213669
9.0,489,50943.00702
6.0,320,50992.42438
7.0,426,51066.941579
7.0,381,51141.025767
6.0,332,51212.934775
11.0,498,51316.287788
11.0,489,51397.942717
6.0,367,51468.281289
7.0,376,51542.345717
8.0,423,51613.470602
9.0,423,51688.87274
7.0,369,51760.831493
8.0,409,51832.42094
8.0,408,51908.075624
14.0,380,51980.219848
4.0,304,52031.180572
9.0,482,52128.076202
10.0,517,52224.767861
9.0,456,52299.774452
8.0,424,52392.551261
9.0,469,52468.317577
7.0,408,52539.288691
5.0,353,52612.533136
7.0,378,52683.80278
4.0,280,52736.416254
1.0,174,52761.660288
6.0,340,52835.341182
9.0,525,52931.415014
1.0,153,52958.989033
7.0,376,53011.574347
4.0,302,53081.448214
10.0,470,53155.124835
3.0,271,53205.661399
7.0,353,53277.21439
3.0,253,53326.512787
5.0,342,53377.336626
8.0,447,53470.919493
6.0,382,53548.342306
10.0,422,53620.191609
9.0,489,53694.423159
17.0,603,53807.754994
8.0,432,53879.155605
2.0,183,53920.752274
6.0,338,53967.734971
7.0,352,54033.548
13.0,512,54122.9274
9.0,460,54192.625202
6.0,363,54258.9741
5.0,289,54304.524733
8.0,418,54372.071791
8.0,448,54459.217582
5.0,276,54504.49793
16.0,607,54597.479443
14.0,553,54706.421258
10.0,502,54777.340203
10.0,451,54864.628519
5.0,318,54910.95321
9.0,439,54979.061593
5.0,322,55043.471788
5.0,330,55090.524596
5.0,310,55155.327177
11.0,500,55226.136076
9.0,441,55312.542385
4.0,286,55359.131168
5.0,302,55407.621432
7.0,360,55483.048413
14.0,607,55593.037835
9.0,509,55700.702818
3.0,216,55753.583556
9.0,409,55833.115751
7.0,411,55915.034057
4.0,245,55964.920539
9.0,501,56072.557278
2.0,208,56102.00908
5.0,322,56178.157554
4.0,253,56230.199225
6.0,342,56286.706172
4.0,244,56340.74914
6.0,380,56422.351636
2.0,205,56452.417154
7.0,348,56533.211092
2.0,207,56562.753114
4.0,279,56619.421637
9.0,503,56729.340167
13.0,512,56836.913664
13.0,528,56948.133109
9.0,484,57058.675654
13.0,609,57169.764843
9.0,469,57278.943838
3.0,237,57330.50097
9.0,411,57413.173276
8.0,300,57470.042223
5.0,309,57524.702007
5.0,350,57602.770849
12.0,443,57684.22589
10.0,579,57815.432236
7.0,421,57899.07307
6.0,379,57976.654473
5.0,311,58034.375039
4.0,282,58090.819428
8.0,449,58203.894102
7.0,417,58285.245506
8.0,437,58366.54471
8.0,456,58471.057397
6.0,375,58529.027072
10.0,500,58634.382122
6.0,379,58715.13354
11.0,467,58820.079359
6.0,362,58876.156402
5.0,313,58955.454995
4.0,276,59012.245528
5.0,331,59068.65976
8.0,452,59174.416291
9.0,504,59262.261926
3.0,264,59317.478611
4.0,301,59395.775723
5.0,370,59453.993819
2.0,186,59502.747215
3.0,251,59553.029514
4.0,294,59608.314689
7.0,363,59665.201989
9.0,458,59769.865246
6.0,338,59826.62971
8.0,400,59905.976509
4.0,265,59957.790615
6.0,344,60037.047743
5.0,310,60092.496215
9.0,434,60195.407544
8.0,424,60278.891483
7.0,375,60357.772163
10.0,357,60416.089202
3.0,212,60468.221805
8.0,443,60551.42776
7.0,457,60658.601086
6.0,358,60714.89278
3.0,233,60766.513997
5.0,326,60844.807633
10.0,480,60931.459062
10.0,375,61013.322987
11.0,399,61096.128086
8.0,424,61176.62021
9.0,495,61282.945366
5.0,306,61340.810201
8.0,457,61440.802121
6.0,338,61497.006117
7.0,398,61578.291564
1.0,157,61607.123676
12.0,456,61709.490662
4.0,279,61765.287694
6.0,351,61824.18693
3.0,256,61876.342318
8.0,461,61983.216707
7.0,386,62063.724753
6.0,344,62123.522748
8.0,413,62205.010269
6.0,340,62285.856973
7.0,431,62367.56535
7.0,372,62449.330528
9.0,442,62536.521964
8.0,477,62643.137316
7.0,409,62725.584494
6.0,382,62802.926408
9.0,477,62906.826473
12.0,466,62990.343471
2.0,188,63041.389155
10.0,536,63148.959039
6.0,347,63206.415195
6.0,356,63288.902637
7.0,426,63374.128827
11.0,591,63506.778866
12.0,459,63591.900565
6.0,375,63672.278749
8.0,426,63751.286699
6.0,358,63830.350499
8.0,381,63911.532955
6.0,369,63971.438941
6.0,325,64050.083167
8.0,422,64129.533716
7.0,408,64209.184503
8.0,437,64293.749786
9.0,478,64398.804023
9.0,475,64503.973904
7.0,378,64564.907813
10.0,518,64673.564007
6.0,343,64750.255653
5.0,312,64809.287374
6.0,324,64885.609506
14.0,543,64997.864275
10.0,361,65077.760558
9.0,438,65157.085897
6.0,341,65215.637513
7.0,347,65290.469864
7.0,415,65375.773533
10.0,505,65479.303978
4.0,264,65534.298733
13.0,504,65647.558768
2.0,185,65677.925917
10.0,526,65788.497332
13.0,583,65924.684751
9.0,450,66010.995712
6.0,335,66089.796246
9.0,450,66174.288374
8.0,458,66256.282674
6.0,338,66334.575993
8.0,417,66415.897246
8.0,423,66498.21358
7.0,357,66579.32526
7.0,384,66661.948678
7.0,454,66743.939298
7.0,380,66826.997164
7.0,415,66912.169225
14.0,546,67023.726929
8.0,449,67134.429162
8.0,471,67221.045331
6.0,379,67300.562804
13.0,525,67405.440877
5.0,299,67456.49006
9.0,476,67560.067895
24.0,546,67665.794587
8.0,436,67766.346261
3.0,245,67798.801117
17.0,701,67958.39566
11.0,508,68065.34251
8.0,293,68120.934377
13.0,527,68226.172152
13.0,557,68334.340093
4.0,300,68387.646499
7.0,432,68471.484904
5.0,296,68551.9697
8.0,429,68630.327406
8.0,402,68712.868413
8.0,459,68795.703489
8.0,426,68905.098683
12.0,505,68995.454085
14.0,551,69130.300927
6.0,352,69186.23385
6.0,377,69267.81724
10.0,502,69375.330156
7.0,352,69449.179993
6.0,345,69503.882345
9.0,433,69590.361598
6.0,374,69671.222279
16.0,593,69803.192512
10.0,535,69910.877028
8.0,418,69993.474188
6.0,327,70048.828891
7.0,446,70154.66375
4.0,261,70206.157146
6.0,325,70265.175411
7.0,418,70349.533537
10.0,543,70477.775291
9.0,448,70561.451831
9.0,450,70644.650279
8.0,464,70747.200193
6.0,341,70804.118399
10.0,507,70910.539427
4.0,270,70963.163263
8.0,413,71045.782957
8.0,438,71150.87622
9.0,450,71228.693525
14.0,579,71335.189701
10.0,481,71436.689963
9.0,433,71518.254828
9.0,445,71616.163848
9.0,453,71691.328052
6.0,375,71770.273858
8.0,445,71853.974417
7.0,374,71931.174994
6.0,357,72008.942673
10.0,491,72109.940411
10.0,477,72191.239998
19.0,640,72322.41058
14.0,650,72449.712173
11.0,496,72552.523211
8.0,471,72635.726072
12.0,492,72741.882867
6.0,411,72820.037055
8.0,419,72898.08759
3.0,250,72949.548474
6.0,343,73023.222689
9.0,483,73105.6378
6.0,341,73179.765535
8.0,406,73262.36094
10.0,358,73336.011472
8.0,296,73390.167852
6.0,362,73468.70453
10.0,392,73547.764853
6.0,321,73601.302587
9.0,496,73706.377854
5.0,316,73761.385289
9.0,507,73861.575441
6.0,358,73937.112599
6.0,397,74011.994052
7.0,382,74091.954683
7.0,425,74174.74163
7.0,359,74251.984055
7.0,378,74306.592786
8.0,436,74403.449149
7.0,388,74477.773561
8.0,419,74555.487561
6.0,323,74607.483843
6.0,338,74681.888345
7.0,369,74737.053593
12.0,539,74858.622307
4.0,263,74887.919967
9.0,457,74984.444294
9.0,546,75083.843613
9.0,308,75134.922367
7.0,363,75208.295983
13.0,477,75307.060112
8.0,426,75384.926815
5.0,331,75439.237484
6.0,322,75512.367
5.0,349,75567.828713
8.0,424,75662.22293
8.0,397,75737.486228
9.0,495,75817.148114
11.0,469,75917.457346
10.0,505,76014.453669
9.0,362,76089.696274
14.0,536,76189.514367
11.0,434,76268.631968
8.0,426,76343.634531
5.0,311,76395.919587
8.0,440,76491.402954
6.0,376,76565.023126
6.0,367,76618.406428
8.0,455,76715.576942
18.0,688,76842.063821
6.0,374,76914.419624
3.0,214,76942.997732
12.0,463,77043.182664
9.0,474,77141.254327
1.0,176,77167.397012
5.0,314,77218.55464
7.0,411,77296.349881
6.0,347,77368.099059
4.0,297,77417.617286
9.0,466,77512.769271
9.0,472,77593.563588
6.0,357,77666.053312
7.0,407,77746.467295
4.0,255,77801.251181
12.0,301,77854.064342
4.0,256,77905.772056
6.0,339,77962.576601
5.0,330,78037.94814
6.0,351,78111.996849
7.0,378,78166.272009
7.0,409,78264.920794
7.0,390,78325.004165
11.0,458,78425.615393
11.0,430,78503.169584
5.0,325,78577.246552
11.0,561,78687.043046
10.0,506,78789.472558
3.0,230,78818.753151
11.0,542,78942.321147
7.0,372,79000.399774
9.0,455,79099.746921
16.0,534,79201.559339
15.0,514,79302.378677
15.0,562,79402.593632
10.0,523,79503.326201
10.0,376,79577.158036
9.0,474,79656.916978
10.0,505,79760.970839
15.0,622,79891.113478
10.0,503,79992.140106
6.0,353,80046.384716
4.0,267,80096.446302
8.0,444,80193.027933
9.0,408,80268.844312
15.0,555,80368.62334
7.0,437,80448.203985
9.0,458,80541.025877
4.0,305,80588.692251
4.0,282,80633.219124
10.0,387,80697.383748
5.0,313,80742.960465
7.0,392,80804.944891
14.0,576,80910.47346
12.0,432,80975.461048
8.0,316,81018.305499
6.0,339,81076.929659
19.0,572,81162.533961
8.0,464,81243.873032
8.0,428,81307.499749
13.0,509,81388.906232
5.0,374,81450.376731
5.0,325,81494.719412
10.0,504,81574.335196
7.0,413,81635.26833
14.0,553,81719.471902
9.0,448,81797.939331
9.0,446,81864.271865
14.0,515,81947.864568
7.0,400,82010.140187
6.0,346,82071.292051
9.0,424,82133.309635
13.0,652,82235.469659
9.0,466,82299.005305
13.0,504,82381.478721
6.0,403,82442.99836
16.0,561,82543.169602
6.0,339,82587.919485
5.0,323,82631.723985
3.0,234,82674.09085
6.0,322,82735.997377
8.0,451,82799.617266
8.0,408,82863.751755
8.0,385,82924.353043
7.0,388,82986.645974
9.0,459,83052.863578
20.0,566,83153.189204
5.0,347,83200.683647
8.0,422,83267.012534
10.0,466,83350.564595
8.0,294,83392.213212
9.0,464,83475.712123
10.0,414,83539.987859
10.0,358,83603.709259
6.0,359,83650.95832
23.0,642,83761.972754
12.0,593,83867.340104
9.0,474,83935.641659
11.0,542,84016.685485
10.0,492,84097.832977
9.0,457,84177.838018
8.0,471,84242.981362
11.0,561,84328.08832
9.0,327,84388.946604
14.0,435,84452.973966
11.0,535,84536.509025
4.0,267,84580.587562
8.0,469,84660.530376
14.0,553,84742.555713
14.0,580,84827.391901
8.0,453,84908.996167
6.0,378,84972.867831
5.0,310,85018.800242
7.0,388,85085.068093
7.0,387,85148.303653
7.0,407,85212.682631
8.0,426,85278.192353
9.0,440,85342.911545
9.0,487,85427.891664
11.0,493,85509.188989
4.0,282,85551.33487
15.0,644,85650.528503
11.0,572,85731.333539
4.0,277,85771.499756
11.0,569,85866.902254
8.0,432,85928.60588
7.0,399,85987.90933
13.0,516,86062.013134
8.0,418,86118.024847
16.0,614,86207.289637
6.0,322,86245.628352
10.0,502,86317.86549
12.0,592,86392.774079
8.0,438,86462.710939
9.0,477,86519.856351
4.0,277,86556.612887
4.0,295,86608.421898
5.0,348,86647.433808
15.0,559,86721.315457
9.0,482,86793.069601
10.0,465,86864.170755
11.0,516,86937.225229
13.0,630,87013.428329
7.0,350,87067.045662
3.0,252,87103.290732
10.0,497,87176.358654
8.0,456,87233.836703
12.0,597,87324.455766
16.0,603,87401.412494
11.0,425,87456.839461
10.0,538,87544.848557
15.0,703,87637.589025
8.0,442,87694.175143
12.0,643,87785.715316
10.0,493,87858.117306
13.0,621,87948.346636
8.0,455,88005.355135
6.0,376,88059.937705
12.0,447,88116.706265
10.0,550,88204.444592
6.0,322,88242.763986
5.0,287,88279.53905
7.0,431,88334.866853
7.0,360,88388.462183
11.0,399,88442.690835
9.0,451,88498.7477
11.0,576,88586.6594
7.0,400,88641.876599
7.0,359,88695.784814
6.0,342,88735.221158
9.0,463,88806.386069
11.0,535,88880.063944
12.0,606,88956.412783
9.0,474,89028.005347
6.0,332,89066.278504
16.0,607,89156.027934
17.0,627,89247.099519
12.0,601,89322.767257
12.0,469,89394.610049
12.0,550,89468.33487
8.0,383,89522.787711
6.0,358,89575.766265
4.0,243,89596.648942
5.0,312,89647.742547
9.0,486,89719.897656
12.0,493,89777.999974
8.0,448,89848.662434
17.0,602,89924.700515
7.0,387,89979.837456
8.0,441,90036.527476
9.0,452,90110.843859
7.0,379,90200.339122
10.0,552,90323.582296
14.0,568,90446.165351
9.0,362,90537.931312
8.0,422,90631.099881
10.0,497,90758.16043
2.0,183,90792.225151
1.0,156,90824.006074
1.0,157,90880.44014
9.0,451,90977.192107
11.0,478,91100.170882
5.0,350,91164.145788
5.0,307,91228.65902
15.0,440,91348.942138
7.0,429,91447.387721
15.0,581,91578.803796
10.0,488,91706.724446
11.0,571,91863.567164
10.0,381,91931.604278
9.0,458,92057.060965
4.0,295,92119.986876
13.0,661,92280.51312
5.0,316,92348.597441
7.0,408,92469.099821
13.0,587,92598.257497
6.0,357,92692.051137
11.0,460,92790.102981
10.0,497,92915.788847
10.0,460,93011.210532
7.0,363,93101.313109
3.0,253,93164.749668
8.0,409,93262.120036
4.0,242,93325.283456
17.0,539,93454.464628
9.0,447,93554.538764
13.0,597,93706.170364
17.0,507,93830.65651
9.0,431,93926.203548
11.0,508,94049.34744
20.0,655,94206.741671
15.0,599,94337.247723
6.0,342,94430.139558
9.0,468,94557.11011
10.0,539,94683.03581
10.0,480,94776.483454
14.0,549,94934.417141
7.0,393,95003.604169
12.0,461,95127.439548
7.0,425,95224.229262
9.0,458,95349.907057
16.0,452,95451.163981
13.0,526,95576.042384
3.0,234,95636.621801
7.0,452,95735.329934
7.0,353,95826.914965
5.0,344,95890.736854
17.0,686,96080.657772
19.0,612,96213.531604
15.0,607,96372.255691
5.0,353,96468.49137
16.0,712,96624.346573
7.0,418,96723.590646
12.0,593,96881.730663
4.0,301,96946.075555
6.0,381,97039.197594
9.0,505,97164.405183
6.0,349,97229.235193
6.0,371,97325.142076
7.0,426,97421.967759
13.0,525,97551.067177
16.0,603,97707.47991
7.0,432,97805.311315
18.0,669,97967.908731
22.0,717,98158.738527
9.0,454,98255.055122
14.0,588,98412.574028
11.0,482,98514.656245
8.0,486,98641.392512
5.0,292,98707.746481
9.0,484,98836.702424
8.0,413,98930.603768
11.0,581,99061.962999
4.0,288,99154.668961
3.0,244,99188.962086
5.0,314,99277.183412
5.0,314,99342.602274
6.0,321,99406.948484
8.0,302,99499.642809
8.0,432,99594.113512
4.0,306,99658.076617
10.0,506,99783.084211
12.0,511,99909.551378
8.0,478,100035.905545
11.0,572,100166.389228
17.0,650,100325.795866
12.0,562,100452.415438
8.0,454,100577.015761
14.0,555,100704.485556
13.0,494,100832.250134
15.0,578,100962.483935
13.0,495,101089.5384
6.0,402,101184.599271
16.0,692,101348.23973
9.0,478,101477.810435
6.0,326,101543.244408
16.0,581,101700.511086
5.0,325,101762.765888
3.0,216,101824.307375
11.0,518,101948.58045
14.0,588,102075.183777
7.0,351,102168.200725
7.0,388,102262.478771
5.0,291,102327.324234
9.0,451,102425.769391
7.0,354,102513.785678
16.0,610,102676.812259
6.0,355,102740.756651
7.0,408,102833.396198
22.0,564,102984.107336
6.0,375,103053.356414
19.0,620,103208.940402
10.0,506,103337.335593
16.0,649,103496.547073
15.0,545,103622.967252
10.0,372,103718.232357
8.0,458,103817.513675
10.0,393,103912.181468
7.0,407,104006.232078
10.0,539,104136.633956
8.0,428,104261.968318
7.0,350,104330.194559
10.0,382,104427.753956
17.0,667,104592.279987
8.0,414,104685.684558
9.0,469,104813.751104
14.0,533,104941.935943
23.0,637,105096.8995
7.0,422,105191.440702
9.0,537,105322.918798
18.0,633,105479.31826
11.0,520,105605.150985
11.0,452,105702.157498
11.0,507,105826.769624
7.0,405,105918.465405
13.0,490,106048.261429
12.0,432,106147.267736
12.0,579,106299.75379
11.0,542,106428.294815
12.0,544,106554.66315
6.0,378,106648.767914
19.0,550,106777.632674
7.0,427,106876.345208
11.0,539,107006.409275
12.0,446,107131.860335
13.0,629,107289.768994
4.0,298,107354.323741
21.0,669,107513.105172
7.0,350,107581.076873
12.0,491,107708.423864
6.0,356,107800.634891
9.0,479,107899.176293
16.0,624,108052.104119
7.0,429,108176.534418
10.0,497,108276.533479
9.0,489,108399.698888
28.0,809,108592.157007
11.0,527,108720.445164
6.0,373,108813.054377
16.0,618,108969.796211
15.0,570,109096.753961
11.0,530,109226.044905
15.0,573,109357.392529
8.0,472,109479.37155
13.0,565,109610.990784
20.0,801,109830.21925
13.0,459,109927.227556
9.0,351,110020.782658
13.0,618,110156.165997
11.0,536,110284.153131
12.0,494,110407.900715
13.0,578,110561.376611
10.0,546,110690.492282
16.0,657,110847.422254
10.0,501,110970.980976
9.0,421,111069.022614
10.0,457,111166.101741
9.0,476,111292.4392
8.0,443,111388.648387
5.0,346,111482.285113
6.0,323,111547.198459
10.0,499,111675.332767
11.0,533,111803.96508
7.0,406,111898.200357
5.0,323,111965.899778
9.0,463,112097.39212
6.0,323,112167.388269
9.0,466,112293.845761
10.0,538,112421.205334
7.0,374,112516.023445
13.0,537,112642.836075
27.0,650,112794.6139
14.0,546,112922.538943
18.0,649,113086.209239
10.0,361,113181.997508
16.0,664,113335.688932
6.0,359,113401.863681
16.0,621,113559.087112
15.0,669,113724.196348
6.0,357,113815.966012
3.0,230,113878.289918
15.0,528,114007.495548
13.0,573,114138.464582
14.0,511,114263.468978
9.0,327,114331.867652
12.0,567,114485.152488
10.0,443,114580.967818
17.0,653,114738.553054
13.0,513,114865.048432
8.0,301,114934.545108
9.0,470,115064.205206
7.0,381,115161.531792
7.0,431,115260.107886
10.0,493,115390.111319
12.0,490,115493.351379
5.0,331,115585.209324
12.0,473,115683.687957
15.0,412,115802.264013
10.0,489,115897.133828
7.0,385,115994.640015
8.0,454,116120.658572
7.0,368,116188.368203
17.0,651,116345.237072
2.0,201,116403.825856
13.0,628,116559.689441
9.0,450,116659.499165
7.0,399,116752.162568
10.0,492,116876.111587
8.0,447,116971.2792
13.0,575,117127.342643
7.0,403,117225.924634
15.0,594,117353.21797
7.0,373,117445.853453
9.0,464,117543.899095
10.0,514,117672.451246
7.0,383,117767.987431
17.0,642,117925.426401
15.0,587,118077.473185
18.0,718,118237.134418
21.0,647,118392.652155
17.0,638,118549.063483
14.0,593,118677.695212
12.0,605,118833.167358
7.0,331,118924.466343
12.0,572,119054.017638
18.0,658,119208.54586
13.0,478,119331.622652
12.0,538,119459.851376
12.0,480,119558.056396
23.0,588,119716.065308
16.0,597,119846.690446
10.0,435,119969.911919
12.0,625,120102.365037
19.0,729,120290.45542
12.0,533,120422.486811
10.0,466,120548.843638
8.0,422,120649.485631
9.0,491,120756.870756
8.0,423,120882.879857
11.0,504,120983.524624
6.0,357,121078.669898
16.0,588,121231.325021
13.0,669,121390.802002
18.0,684,121550.793032
12.0,594,121707.030137
11.0,550,121834.312729
15.0,612,121968.682691
24.0,790,122163.217345
5.0,308,122253.486734
12.0,629,122410.221902
7.0,381,122478.017743
16.0,625,122640.277184
11.0,537,122774.751457
9.0,474,122900.76747
10.0,463,123003.123384
12.0,565,123160.703888
11.0,494,123266.27228
23.0,732,123458.779085
8.0,417,123556.749907
9.0,469,123682.70449
4.0,263,123750.613661
11.0,568,123888.049431
19.0,632,124049.973528
10.0,459,124151.89139
19.0,671,124314.934757
12.0,555,124472.029322
14.0,524,124599.09426
11.0,544,124730.804484
11.0,613,124864.748162
14.0,643,125014.966906
14.0,595,125171.912773
16.0,515,125297.326185
20.0,652,125453.792714
9.0,446,125552.68208
22.0,785,125744.978782
13.0,656,125903.822961
23.0,526,126028.83319
10.0,373,126119.238603
17.0,449,126214.772119
9.0,438,126333.992511
10.0,475,126429.823234
12.0,428,126556.399036
8.0,389,126649.362425
9.0,327,126715.408114
16.0,592,126844.047347
16.0,629,126998.047926
15.0,601,127156.520921
12.0,502,127275.201986
14.0,627,127405.600025
9.0,475,127530.390224
14.0,545,127653.620116
11.0,516,127776.252999
9.0,443,127890.617868
16.0,692,128046.063878
11.0,579,128167.051463
10.0,502,128289.660671
11.0,536,128414.000292
13.0,672,128564.2306
2.0,185,128619.918135
22.0,770,128776.032304
13.0,631,128931.03982
12.0,558,129078.443353
34.0,893,129266.436732
12.0,554,129411.817241
25.0,841,129601.624409
12.0,448,129717.501707
14.0,626,129843.81091
8.0,419,129936.466555
14.0,540,130081.338427
12.0,552,130204.981025
6.0,380,130297.197557
18.0,571,130422.639576
11.0,538,130543.428081
19.0,719,130726.134301
11.0,521,130846.736611
9.0,409,130942.190022
12.0,549,131068.150345
8.0,419,131158.177644
14.0,533,131278.032949
20.0,736,131458.527707
13.0,678,131611.196188
5.0,327,131675.169852
17.0,514,131795.264861
13.0,585,131945.893322
16.0,680,132100.679751
5.0,287,132162.539449
7.0,403,132254.284334
8.0,436,132346.718971
8.0,422,132465.245326
9.0,475,132560.667165
8.0,475,132680.170923
11.0,488,132775.617466
12.0,580,132922.41423
7.0,388,133014.140395
6.0,342,133077.172403
9.0,445,133196.057294
9.0,501,133315.417139
14.0,650,133442.656579
4.0,294,133527.713791
11.0,476,133622.543159
14.0,652,133775.601366
10.0,463,133897.729329
6.0,346,133962.803525
8.0,381,134053.617993
27.0,835,134261.484214
10.0,472,134354.310081
9.0,418,134445.175729
5.0,343,134533.212325
19.0,717,134693.491328
12.0,563,134846.613004
5.0,317,134911.075
10.0,480,135031.861006
4.0,293,135093.866683
11.0,529,135217.076452
19.0,632,135373.199376
8.0,407,135460.464447
22.0,783,135642.560689
14.0,631,135791.98596
13.0,588,135917.32467
10.0,509,136038.439277
10.0,476,136159.357828
12.0,552,136285.164726
19.0,608,136412.761481
23.0,689,136594.406293
25.0,832,136781.396504
8.0,397,136871.864528
13.0,559,137000.950158
17.0,630,137151.89891
16.0,638,137307.112216
16.0,477,137426.633293
9.0,487,137524.097643
10.0,488,137645.71483
15.0,605,137794.351308
15.0,630,137947.852156
15.0,577,138072.352266
27.0,796,138257.672486
29.0,897,138470.585702
17.0,676,138622.975554
7.0,367,138714.005487
11.0,530,138837.128961
8.0,399,138930.840008
9.0,429,139026.178243
10.0,522,139145.966043
13.0,471,139265.598172
5.0,289,139328.919146
14.0,694,139478.516373
9.0,400,139571.222473
12.0,493,139694.498068
10.0,515,139819.306229
23.0,755,140001.447392
14.0,529,140121.956815
13.0,577,140249.01996
15.0,645,140400.998356
18.0,581,140526.361042
16.0,686,140708.486273
11.0,521,140829.558933
12.0,495,140925.411648
9.0,444,141042.748378
26.0,764,141221.324868
13.0,623,141346.296019
6.0,353,141433.78524
18.0,650,141581.739479
11.0,558,141706.227825
14.0,675,141856.316711
10.0,464,141975.789777
22.0,530,142097.798644
8.0,416,142191.937827
6.0,375,142283.239226
11.0,512,142404.491753
12.0,536,142523.556596
18.0,807,142711.561564
13.0,610,142861.813793
10.0,536,142985.007113
10.0,493,143080.1146
11.0,493,143200.741294
20.0,594,143350.58869
13.0,540,143474.827113
17.0,622,143623.637019
13.0,510,143740.695236
18.0,648,143867.030835
14.0,665,144047.321692
13.0,650,144190.151214
7.0,354,144246.029902
15.0,697,144404.822753
11.0,443,144486.696463
9.0,443,144569.344448
19.0,629,144698.087815
12.0,554,144808.582527
11.0,502,144916.686874
21.0,768,145077.881331
14.0,537,145183.579733
14.0,674,145320.522965
11.0,503,145428.23499
19.0,612,145562.166151
18.0,842,145723.755976
15.0,667,145857.698738
14.0,603,145988.992519
21.0,803,146152.895324
31.0,983,146370.388015
14.0,657,146507.345911
9.0,451,146591.267026
17.0,718,146752.838532
9.0,449,146836.065529
12.0,595,146945.716851
23.0,730,147103.050251
13.0,479,147205.319366
21.0,818,147364.342009
8.0,402,147441.559173
12.0,550,147546.466879
8.0,455,147648.897886
6.0,362,147702.583357
27.0,828,147883.7279
13.0,602,147990.324462
12.0,568,148119.413795
11.0,525,148223.931695
11.0,503,148303.374445
10.0,518,148409.72041
16.0,694,148567.668861
18.0,636,148696.648419
19.0,746,148831.844247
5.0,327,148909.665833
12.0,569,149018.845666
10.0,477,149126.112072
28.0,816,149288.228032
14.0,622,149423.832327
21.0,854,149585.315876
11.0,575,149712.602703
23.0,744,149845.927439
16.0,727,150007.197688
19.0,685,150144.788801
17.0,689,150289.151923
14.0,571,150432.159659
13.0,554,150549.258225
17.0,633,150695.45293
13.0,621,150840.157792
24.0,750,150991.405839
10.0,509,151107.359277
17.0,624,151250.665155
10.0,499,151366.177013
18.0,785,151542.168042
11.0,544,151659.159285
24.0,695,151806.987612
13.0,589,151951.150946
16.0,574,152068.874261
16.0,641,152214.997388
13.0,412,152304.116948
15.0,536,152420.956448
8.0,422,152507.91662
19.0,772,152681.961196
4.0,240,152737.992817
16.0,662,152884.270605
6.0,349,152969.888582
14.0,649,153116.549736
10.0,484,153207.15254
17.0,617,153352.605645
20.0,769,153532.686673
14.0,641,153705.279175
9.0,493,153819.503708
16.0,698,153964.805589
18.0,666,154109.519603
14.0,641,154254.512324
20.0,714,154402.587263
11.0,452,154516.865807
15.0,499,154632.390791
15.0,636,154752.603893
15.0,584,154897.237467
15.0,751,155071.74329
13.0,460,155161.503154
10.0,509,155279.303365
7.0,428,155369.087764
10.0,518,155485.14272
12.0,575,155628.392401
14.0,636,155749.700399
18.0,701,155922.260951
13.0,429,156011.274507
13.0,491,156127.20958
17.0,753,156297.242926
10.0,453,156380.01588
20.0,574,156487.260434
19.0,818,156668.577215
27.0,805,156826.585615
24.0,778,156990.095732
14.0,529,157098.811014
21.0,711,157234.877527
8.0,416,157316.06355
13.0,647,157448.097589
17.0,708,157607.562953
9.0,408,157686.862272
19.0,648,157819.414933
8.0,410,157898.298313
14.0,593,158010.422166
14.0,613,158142.590849
9.0,453,158250.00124
19.0,614,158371.858929
18.0,779,158546.487976
18.0,711,158720.011027
19.0,552,158836.436174
28.0,775,159013.209807
19.0,588,159134.110009
12.0,454,159248.387077
15.0,741,159396.397248
18.0,752,159571.934343
14.0,549,159692.230776
23.0,761,159869.339675
