# {"t_start": 1547545189.8608701, "env_id": "TutankhamNoFrameskip-v4"} 
r,l,t
56.0,1669,64.117221
57.0,3477,180.732902
63.0,2060,252.078359
79.0,1975,321.287635
107.0,2118,394.361954
101.0,2096,466.138881
120.0,2145,539.72641
118.0,2194,612.979088
125.0,2160,685.624135
120.0,2193,756.865049
127.0,2153,830.350433
123.0,2139,903.132739
118.0,2122,974.334005
122.0,2148,1048.098185
107.0,2107,1118.674508
125.0,2125,1189.385732
119.0,2137,1260.702367
114.0,2196,1336.371559
123.0,2125,1405.419657
83.0,2109,1479.08056
124.0,2099,1550.01212
116.0,2240,1628.503052
120.0,2172,1703.134268
131.0,2143,1774.719762
127.0,2220,1849.42447
129.0,2056,1920.296253
121.0,2060,1991.740468
134.0,2162,2068.310153
128.0,2111,2143.757382
124.0,2127,2218.971755
128.0,2114,2292.420897
133.0,2100,2366.536845
136.0,2125,2440.100023
136.0,2126,2510.177249
126.0,2162,2583.011879
127.0,2083,2651.91907
115.0,3395,2764.36842
128.0,2129,2830.210093
117.0,2121,2897.959431
114.0,2102,2967.519911
106.0,3584,3084.968979
101.0,2003,3148.262882
99.0,2170,3218.778539
106.0,2393,3296.371362
134.0,2124,3366.460326
119.0,2129,3434.545051
130.0,2111,3505.117371
139.0,2110,3574.973902
133.0,3149,3678.693596
109.0,2119,3751.398103
99.0,2039,3816.292644
122.0,2283,3890.885646
118.0,2122,3961.16542
104.0,2543,4046.801738
6.0,2082,4115.9797
2.0,391,4129.941058
10.0,832,4156.882261
106.0,2048,4223.74736
112.0,7656,4475.3337
117.0,2121,4546.498597
107.0,2084,4616.933168
125.0,2185,4693.268783
125.0,2139,4762.284936
129.0,2149,4831.529963
117.0,2115,4899.718742
115.0,2570,4985.692921
96.0,1998,5049.080103
115.0,2050,5117.118203
119.0,2102,5184.359665
43.0,921,5213.851851
111.0,2064,5281.275969
128.0,2113,5351.127462
114.0,2104,5420.503043
118.0,2096,5491.23287
122.0,2115,5563.371492
115.0,2100,5631.563734
126.0,2231,5704.395823
0.0,216,5711.957246
23.0,14617,6187.259751
8.0,394,6200.150812
96.0,5028,6365.539475
133.0,2003,6432.501037
140.0,2160,6508.092318
76.0,3030,6615.15893
120.0,2108,6693.308248
134.0,2213,6770.427622
136.0,47168,8467.785571
21.0,77018,11230.321919
71.0,6891,11477.744411
23.0,6896,11725.999986
63.0,2461,11818.634973
43.0,1163,11859.082371
105.0,2156,11934.277471
36.0,759,11960.257858
118.0,1697,12019.927807
110.0,2251,12102.286946
129.0,2128,12175.887176
78.0,2542,12268.616444
115.0,2108,12344.590951
128.0,60164,14502.2862
113.0,2133,14578.291068
176.0,38473,15951.90412
53.0,1309,15998.693594
107.0,2080,16073.156129
86.0,1620,16132.985623
89.0,1295,16178.104719
43.0,11427,16585.775379
146.0,2366,16672.510644
132.0,2076,16748.1245
115.0,2132,16824.84642
132.0,2095,16900.346534
114.0,2094,16975.575099
117.0,2105,17054.579139
119.0,2189,17133.943383
112.0,2148,17209.201923
111.0,2120,17286.355442
116.0,2155,17363.974986
109.0,2003,17436.155772
0.0,99994,20997.070259
0.0,77028,23739.067757
1.0,491,23757.173095
7.0,981,23794.051973
13.0,830,23822.632665
102.0,2690,23919.276816
117.0,2151,23998.319199
119.0,2815,24098.685153
128.0,4683,24265.821492
138.0,2423,24351.285954
124.0,2273,24432.118014
125.0,2405,24518.573625
126.0,5864,24728.981842
119.0,3697,24860.483099
122.0,2207,24939.239448
133.0,2148,25018.307714
127.0,2116,25093.882677
137.0,3540,25218.232588
132.0,2644,25309.887095
130.0,2208,25390.783497
123.0,2136,25466.536959
130.0,2235,25547.058749
116.0,2149,25625.647434
126.0,2151,25701.79846
122.0,3217,25814.57627
126.0,2306,25898.4634
124.0,2510,25989.778325
132.0,3079,26098.984202
132.0,3325,26217.466429
126.0,2174,26298.6227
131.0,2188,26376.741588
126.0,2164,26453.38117
125.0,2183,26533.741186
125.0,2797,26630.844079
133.0,2335,26713.164379
87.0,4038,26858.375695
123.0,2162,26932.862316
122.0,2184,27009.802895
123.0,2122,27085.637778
122.0,2130,27160.205132
123.0,2216,27238.009717
122.0,2160,27317.347023
129.0,2196,27393.821566
122.0,2450,27476.430507
121.0,2137,27553.981707
120.0,2135,27629.738628
128.0,2137,27703.267571
137.0,2150,27783.175211
136.0,2198,27861.362319
126.0,2176,27940.481269
128.0,2201,28017.693782
136.0,2816,28118.693082
133.0,3726,28251.023247
133.0,2816,28352.100146
126.0,2381,28438.260448
137.0,2437,28523.204698
112.0,2226,28602.232249
111.0,2690,28701.580106
124.0,2311,28785.035219
121.0,5325,28973.015114
122.0,2408,29057.617408
126.0,2170,29132.546731
127.0,2185,29210.304203
117.0,2190,29289.54573
116.0,2133,29364.869402
123.0,2491,29452.963298
124.0,2173,29532.955317
113.0,2057,29608.849142
113.0,2610,29700.673248
120.0,2186,29775.850892
116.0,11482,30182.889387
118.0,2283,30267.214513
115.0,2590,30361.115499
112.0,2136,30436.366907
116.0,2143,30512.430351
116.0,2097,30587.972968
120.0,2090,30664.124542
118.0,2456,30749.393555
122.0,3477,30876.881006
118.0,2186,30952.897814
123.0,2239,31031.772988
133.0,2198,31112.234919
120.0,2233,31191.931549
120.0,2250,31272.730823
124.0,2242,31350.792777
134.0,5609,31554.9372
119.0,2443,31642.694118
117.0,2197,31720.408452
125.0,2172,31799.673248
116.0,2159,31877.641445
118.0,2108,31951.567335
121.0,2120,32026.942533
123.0,2143,32102.645288
124.0,2108,32178.051145
118.0,2173,32256.491193
129.0,2330,32342.44563
118.0,6477,32574.578405
124.0,2468,32659.62955
115.0,2035,32731.993788
134.0,2159,32805.420348
134.0,2216,32883.698077
122.0,2160,32961.429543
137.0,2135,33034.824584
123.0,3458,33159.81126
119.0,2182,33238.922336
122.0,2244,33316.939145
124.0,4546,33476.792681
122.0,2134,33555.696966
137.0,3401,33677.426951
115.0,2119,33755.129344
112.0,13997,34251.711169
152.0,78757,37063.447599
118.0,2884,37169.151685
123.0,2334,37253.94752
143.0,3050,37363.201651
127.0,2250,37441.364635
123.0,2238,37523.523177
113.0,2583,37616.828274
141.0,4682,37782.366871
125.0,2130,37858.404883
155.0,3207,37977.626073
136.0,6397,38210.472307
124.0,2012,38282.653137
127.0,2259,38364.419457
138.0,1893,38433.397983
137.0,15631,38991.81526
119.0,2215,39069.546422
120.0,2157,39146.601877
136.0,2169,39224.323977
123.0,2266,39303.73817
135.0,3799,39436.177193
139.0,2218,39517.706119
137.0,2173,39594.567124
120.0,2367,39679.138802
136.0,2170,39756.580225
125.0,2133,39833.113791
123.0,2155,39910.092018
107.0,2138,39990.563437
134.0,2173,40068.47025
125.0,2167,40146.218944
152.0,2772,40243.344868
125.0,2155,40321.591279
125.0,2242,40401.165002
129.0,2170,40477.381295
127.0,99993,43957.714068
61.0,1892,44021.048004
5.0,795,44049.747654
110.0,24593,44879.822052
117.0,31739,45956.858473
21.0,1954,46025.494376
16.0,925,46057.781782
96.0,2076,46129.601022
125.0,2323,46208.383437
110.0,3052,46313.667526
110.0,2602,46398.939476
123.0,2670,46485.239645
111.0,2199,46555.706152
114.0,2148,46627.351861
91.0,2204,46700.23341
112.0,2187,46770.537677
112.0,2185,46841.340634
124.0,2246,46910.987183
123.0,2245,46979.184187
119.0,2187,47045.024302
118.0,2206,47116.205261
120.0,2186,47178.941825
128.0,2252,47245.26645
133.0,2226,47307.280751
127.0,2355,47371.6856
122.0,2433,47438.651207
137.0,2169,47499.776519
140.0,2284,47562.916115
133.0,2630,47634.042454
105.0,2493,47703.275401
123.0,2203,47764.583016
117.0,2234,47824.573482
130.0,2180,47884.992102
112.0,2134,47946.256537
134.0,2148,48005.715961
133.0,2123,48064.981088
114.0,2110,48121.960012
118.0,2182,48182.550387
117.0,2111,48239.636191
137.0,2171,48300.480806
119.0,2180,48360.169199
127.0,2169,48417.644414
120.0,2269,48479.841928
116.0,2142,48535.88694
127.0,2169,48593.760118
129.0,2189,48651.670617
131.0,2179,48707.789622
129.0,2220,48766.141526
116.0,2190,48823.109736
120.0,2169,48877.816905
122.0,2150,48933.515382
113.0,2189,48991.869203
117.0,2224,49049.414785
113.0,2093,49103.546277
120.0,2206,49161.2758
129.0,2169,49218.194892
124.0,2187,49277.534879
114.0,2171,49334.337043
124.0,2089,49388.175807
129.0,2208,49445.281566
130.0,2141,49500.907899
133.0,2126,49554.610054
131.0,2189,49611.155645
137.0,2176,49668.82805
126.0,2071,49724.342422
143.0,2679,49795.102858
120.0,2143,49851.169861
112.0,2190,49909.011738
134.0,2346,49969.690042
122.0,2451,50034.243376
121.0,2444,50100.866354
115.0,2385,50163.618183
114.0,2428,50226.634799
149.0,2290,50286.456382
138.0,2166,50342.837447
132.0,2202,50401.371727
152.0,2194,50457.175483
135.0,2191,50516.086463
128.0,2287,50574.384893
159.0,2177,50632.134199
157.0,2354,50693.886762
127.0,2165,50751.179335
156.0,2138,50807.180156
157.0,8841,51036.756551
138.0,2135,51092.911615
155.0,28460,51836.689929
125.0,21360,52389.769934
134.0,2107,52444.181631
147.0,4874,52572.314896
153.0,99994,55859.922238
127.0,37507,57317.636869
143.0,3203,57445.293101
124.0,2133,57525.506192
128.0,2134,57608.311564
129.0,2172,57695.741711
140.0,5222,57896.127817
131.0,2103,57974.653923
138.0,2320,58062.556847
138.0,2926,58175.74663
126.0,2041,58251.260779
144.0,2245,58336.48669
132.0,2406,58427.392488
129.0,2192,58510.045399
127.0,2265,58598.301405
135.0,2133,58679.191113
132.0,2126,58759.933882
133.0,2098,58840.047414
123.0,2275,58927.216248
137.0,2113,59009.621903
137.0,2417,59097.788308
148.0,3622,59243.859179
126.0,2154,59326.075199
138.0,2154,59408.724094
124.0,2250,59491.227033
153.0,2437,59583.011707
142.0,2309,59672.722256
134.0,2169,59759.182061
137.0,2259,59843.170246
128.0,2138,59921.140243
135.0,2318,60010.147283
126.0,2138,60093.631621
61.0,2143,60176.274006
139.0,2164,60257.173273
139.0,2181,60337.30533
139.0,2165,60419.774841
127.0,2267,60510.005717
132.0,2173,60592.093722
148.0,2198,60674.417927
134.0,2158,60755.426544
129.0,2211,60842.182032
135.0,2146,60924.599274
134.0,2179,61006.695609
121.0,2192,61091.518608
121.0,2175,61173.523078
120.0,2160,61257.899227
126.0,2181,61339.493819
118.0,2263,61426.352618
128.0,2139,61511.665652
126.0,2228,61598.126196
129.0,2671,61699.01198
128.0,2292,61787.853233
129.0,2314,61874.856244
128.0,2355,61964.227064
138.0,2660,62064.783155
133.0,2246,62149.342677
139.0,2186,62236.181409
127.0,2193,62317.393808
126.0,2516,62413.192304
137.0,2177,62495.539504
131.0,2494,62593.048126
132.0,2817,62700.934478
139.0,2287,62790.982703
137.0,2302,62880.145273
127.0,2645,62982.139338
148.0,2364,63071.606545
128.0,2503,63166.302729
138.0,2231,63253.863653
145.0,2247,63340.206605
129.0,2176,63424.152674
150.0,2311,63514.051666
129.0,2201,63597.454422
136.0,2161,63676.162375
144.0,2173,63757.06583
143.0,2266,63843.022851
148.0,2224,63930.715097
152.0,6304,64171.951562
136.0,2211,64256.090977
136.0,2249,64340.793808
133.0,2318,64425.811764
133.0,2176,64511.40971
123.0,2429,64609.005032
129.0,2252,64693.777617
125.0,2188,64780.825696
137.0,2138,64860.340472
133.0,2181,64942.017735
138.0,2234,65027.777426
126.0,2323,65118.941273
133.0,2176,65202.522643
143.0,3844,65350.851271
147.0,4037,65507.865176
128.0,2198,65592.746608
134.0,2183,65674.897805
133.0,2132,65758.6604
148.0,2498,65854.956526
136.0,2127,65936.082446
156.0,2170,66018.670964
158.0,2763,66125.828082
153.0,2041,66200.60429
135.0,2153,66282.040581
126.0,2139,66364.363808
148.0,3286,66489.433007
129.0,2145,66570.099695
153.0,2166,66651.595587
138.0,2183,66735.022244
137.0,2184,66818.31656
156.0,2332,66906.598356
135.0,2194,66988.962323
137.0,2199,67072.376026
134.0,2218,67153.617389
134.0,2097,67232.47444
149.0,4203,67389.139841
144.0,2842,67497.733389
146.0,2805,67606.335896
152.0,4039,67764.566038
139.0,3755,67904.32105
146.0,2146,67983.775767
159.0,2167,68066.871746
139.0,2992,68180.258655
155.0,2158,68259.003685
128.0,2176,68338.174544
158.0,2165,68419.226049
122.0,2158,68500.340502
122.0,2184,68581.981707
147.0,2175,68662.513224
136.0,2149,68742.405043
147.0,2140,68824.731602
147.0,2701,68931.129895
128.0,2175,69013.236341
128.0,2164,69095.083633
155.0,2139,69175.601156
129.0,2230,69258.17144
134.0,2180,69335.84347
146.0,2164,69419.434489
156.0,2360,69509.245747
132.0,2224,69591.729654
146.0,2619,69686.843622
152.0,2189,69766.77126
151.0,2282,69854.3947
145.0,2144,69937.948158
148.0,2228,70018.906607
159.0,2123,70099.997714
126.0,2219,70184.305125
147.0,2150,70265.978042
138.0,2145,70345.468325
147.0,2218,70427.95264
149.0,2363,70516.820112
156.0,2173,70601.315889
134.0,2184,70686.018592
148.0,2179,70770.690009
152.0,2154,70851.15563
157.0,2162,70935.022346
155.0,2158,71017.689884
167.0,2438,71111.249375
155.0,2202,71196.918216
154.0,2347,71283.737024
128.0,2163,71366.344163
147.0,2418,71456.962824
157.0,2152,71537.387566
132.0,2214,71619.185791
149.0,2150,71702.237141
154.0,2728,71809.044571
154.0,2190,71891.780446
156.0,2475,71985.734013
155.0,2203,72071.740887
156.0,2269,72157.710393
144.0,2808,72264.344544
152.0,2122,72347.238199
157.0,2166,72426.696216
154.0,2109,72507.911684
132.0,2149,72588.620521
157.0,2292,72672.786213
152.0,2197,72757.432266
166.0,3369,72885.752527
192.0,2402,72976.283966
169.0,3213,73099.660183
156.0,2371,73192.405051
147.0,2332,73277.120788
132.0,2118,73357.882741
157.0,2493,73454.955921
153.0,2627,73551.99603
147.0,2145,73634.394177
157.0,2312,73720.216776
128.0,2166,73803.093992
156.0,2478,73897.290052
169.0,3599,74030.264467
137.0,2186,74113.130572
157.0,2251,74197.43549
148.0,2147,74279.264863
139.0,2179,74366.276132
156.0,2210,74450.889846
157.0,2226,74535.729145
156.0,2207,74620.696447
157.0,2203,74703.163161
157.0,2169,74782.6322
156.0,3150,74899.231213
157.0,2576,74989.849812
154.0,2152,75067.9247
152.0,2280,75152.578154
145.0,2203,75234.878041
149.0,2184,75316.628209
143.0,2151,75395.217091
147.0,2196,75478.511622
156.0,2768,75585.428304
157.0,2477,75672.918985
156.0,2420,75758.844979
158.0,2175,75843.140345
136.0,2171,75922.405498
148.0,2219,76003.725509
154.0,2155,76084.471243
156.0,2247,76166.518954
154.0,2139,76248.850061
158.0,2182,76330.816848
147.0,2177,76411.863475
154.0,2169,76492.001549
156.0,2205,76572.226678
140.0,2256,76661.209005
155.0,2146,76741.349463
179.0,3021,76851.278957
154.0,2139,76930.417289
145.0,2256,77011.108572
148.0,2314,77094.292195
154.0,2334,77178.195393
158.0,2188,77256.123801
139.0,2147,77335.494126
154.0,2335,77422.176524
150.0,2191,77499.977563
157.0,2184,77580.464117
158.0,2143,77658.303341
155.0,2159,77738.798296
153.0,2147,77820.483175
156.0,2227,77904.719044
150.0,2158,77985.85075
156.0,2489,78075.703411
148.0,2209,78159.20377
156.0,2295,78240.586766
157.0,2160,78319.280691
156.0,2155,78397.895903
156.0,2205,78482.067893
148.0,2186,78560.799717
134.0,2136,78641.373464
147.0,2168,78719.216793
154.0,2851,78824.151157
157.0,2189,78904.894348
153.0,2171,78985.133814
158.0,2937,79094.27045
151.0,2145,79172.588119
156.0,2170,79251.033958
156.0,2375,79333.686699
157.0,2209,79411.770195
157.0,2469,79501.526153
149.0,2192,79579.31247
156.0,2183,79656.960616
157.0,2149,79734.171616
157.0,2199,79809.30865
154.0,2152,79883.09026
157.0,2189,79961.117991
136.0,2184,80035.225549
158.0,2399,80120.028075
157.0,2138,80196.078698
137.0,2166,80272.40299
157.0,2201,80350.352557
156.0,2432,80438.652442
155.0,2240,80515.298015
142.0,2206,80590.111489
154.0,2353,80669.516793
150.0,2171,80746.20431
155.0,2217,80821.988405
157.0,2271,80894.611105
138.0,2197,80971.391035
134.0,2215,81050.268291
128.0,2222,81133.450524
157.0,2178,81210.357945
125.0,2183,81286.897196
133.0,2147,81362.315857
159.0,2245,81442.608068
157.0,2208,81517.974878
138.0,2253,81593.023107
154.0,2368,81667.019023
157.0,2168,81740.190263
134.0,2162,81814.641797
148.0,2155,81885.600348
158.0,2146,81957.680188
158.0,2150,82028.412154
137.0,2175,82098.520702
148.0,2150,82170.609776
143.0,3118,82279.7444
157.0,2156,82349.467963
157.0,2147,82424.410192
158.0,2227,82502.770887
158.0,2152,82576.229709
148.0,2330,82654.449284
135.0,2169,82724.178844
157.0,2179,82802.644625
137.0,2150,82875.035023
147.0,2135,82945.141145
156.0,2340,83018.743887
144.0,2211,83090.16473
156.0,2120,83156.070792
157.0,2180,83218.71875
156.0,2178,83281.657179
145.0,2150,83343.303468
154.0,2204,83407.790459
134.0,2145,83466.957404
155.0,2154,83528.811307
155.0,2128,83590.054945
157.0,2144,83651.846248
157.0,2407,83719.703482
146.0,2159,83780.689647
157.0,2181,83841.566901
148.0,2232,83902.68309
156.0,2203,83961.793976
156.0,2202,84023.14099
152.0,2134,84084.313597
134.0,2153,84145.697287
148.0,2215,84210.445634
157.0,2182,84271.226422
158.0,2144,84330.437598
126.0,2146,84391.91462
154.0,2223,84453.961878
157.0,2127,84513.847453
152.0,2295,84578.769389
136.0,2171,84639.820565
157.0,2174,84701.405878
148.0,2424,84767.42558
137.0,2162,84829.362882
153.0,2147,84891.068472
155.0,2201,84952.374536
138.0,2159,85014.209453
134.0,2164,85072.597828
157.0,2186,85137.00571
148.0,2172,85196.257052
137.0,2164,85256.029659
134.0,2177,85316.465627
136.0,2148,85380.270168
157.0,2156,85440.709827
125.0,2151,85501.574211
136.0,2169,85565.415027
147.0,2176,85630.037969
136.0,2175,85694.586274
138.0,2192,85763.681641
159.0,2146,85840.197029
158.0,2148,85922.185551
159.0,2166,86006.775385
157.0,2174,86096.066231
152.0,2204,86184.178617
153.0,2180,86272.832416
155.0,2192,86357.983704
152.0,2188,86444.942883
157.0,2140,86530.248121
157.0,2180,86618.821815
158.0,2190,86707.898962
136.0,2135,86790.064232
147.0,2160,86873.072742
136.0,2160,86959.308534
152.0,2134,87047.458738
