# {"t_start": 1547320442.7344239, "env_id": "AsteroidsNoFrameskip-v4"} 
r,l,t
1300.0,1488,43.245467
230.0,313,52.253155
580.0,682,74.642199
680.0,469,90.425042
1350.0,953,125.749153
1620.0,585,147.002792
1320.0,1139,188.156626
1640.0,1093,227.634335
1180.0,623,250.494113
830.0,375,264.544862
1590.0,843,298.026963
1880.0,1049,340.123883
1420.0,963,381.351712
880.0,418,398.890571
1980.0,785,435.61666
1580.0,898,477.12309
1400.0,1436,539.9166
1320.0,683,570.146833
1800.0,801,605.585734
1710.0,870,642.718212
2450.0,1162,691.166137
1580.0,812,727.831566
1680.0,1051,774.672071
1660.0,956,815.590225
1510.0,930,856.273835
1470.0,579,880.882823
1450.0,990,924.192539
530.0,313,937.966162
1080.0,503,960.086564
780.0,592,985.143844
980.0,557,1008.635059
1320.0,1573,1079.421064
1180.0,764,1112.797381
1780.0,1015,1156.268458
830.0,370,1173.032634
1800.0,890,1213.936114
1830.0,816,1248.093728
1730.0,730,1279.225125
1300.0,673,1307.943399
1780.0,894,1348.07345
1280.0,743,1379.127202
1370.0,841,1416.278198
1080.0,600,1442.924024
580.0,387,1460.944412
1180.0,900,1500.842405
1980.0,839,1538.779441
1180.0,551,1560.949857
2380.0,1442,1625.515936
2850.0,1345,1683.920085
1700.0,1369,1742.629969
1180.0,564,1765.685574
930.0,512,1788.336406
1300.0,839,1825.91814
780.0,418,1843.536316
1950.0,866,1882.04595
1300.0,1214,1934.387331
730.0,424,1951.579517
1540.0,1285,2008.00689
1980.0,1687,2083.744281
1280.0,965,2126.737367
830.0,404,2143.912898
1880.0,1169,2196.175421
1300.0,667,2226.565371
880.0,599,2252.107116
1320.0,1470,2316.344571
1810.0,895,2354.905676
1180.0,887,2394.880938
580.0,365,2410.614712
1080.0,865,2450.042431
930.0,508,2472.31914
1350.0,1160,2523.659619
1300.0,1110,2571.866829
1180.0,1473,2634.343774
980.0,614,2659.198616
2080.0,1272,2715.398295
1340.0,864,2750.640556
2300.0,837,2786.308825
2400.0,1177,2837.878623
980.0,447,2857.225791
1350.0,975,2899.793793
1280.0,1265,2955.796603
2200.0,1415,3017.177969
1300.0,1061,3062.250633
1180.0,728,3092.719383
530.0,405,3110.505435
2200.0,935,3149.465797
1930.0,1092,3198.479843
680.0,337,3212.339022
1180.0,682,3241.323176
1180.0,784,3275.555623
1080.0,634,3302.638592
1300.0,1686,3373.305928
1180.0,562,3398.108956
2300.0,690,3428.487893
1900.0,1270,3483.008792
1320.0,799,3518.784165
1280.0,705,3550.394379
1660.0,942,3594.341859
1420.0,869,3632.495225
1760.0,696,3663.947489
1590.0,658,3693.764802
1300.0,880,3732.448549
1130.0,506,3752.856205
980.0,470,3773.444765
1030.0,511,3795.26007
1080.0,474,3816.556957
1360.0,1127,3865.072615
1080.0,566,3890.863872
1320.0,964,3931.877314
730.0,231,3942.155529
1080.0,659,3970.869812
1300.0,803,4005.214567
1510.0,773,4038.955435
730.0,407,4056.877142
1350.0,583,4082.063814
730.0,362,4097.012746
1520.0,638,4123.770685
530.0,318,4137.412479
880.0,735,4167.259683
1080.0,559,4192.012274
630.0,408,4208.35625
1540.0,887,4246.339525
1180.0,456,4266.250063
1280.0,659,4295.008854
1320.0,1247,4348.493558
930.0,485,4368.600339
1280.0,1101,4416.371192
1730.0,1515,4484.014318
830.0,338,4499.610564
480.0,430,4518.851616
530.0,356,4534.172351
1080.0,827,4571.745718
2050.0,1891,4652.29231
1630.0,971,4695.435359
1560.0,1060,4741.631934
1180.0,624,4769.745478
580.0,236,4779.902755
1410.0,643,4808.211387
1450.0,992,4852.068611
930.0,676,4879.116593
1080.0,588,4906.209287
1300.0,1314,4962.220068
2100.0,921,5000.93005
630.0,548,5025.109303
1370.0,1069,5074.266325
830.0,419,5091.642569
1030.0,334,5104.855651
1650.0,1158,5154.876425
1300.0,1393,5215.613234
1510.0,1156,5267.572711
1730.0,731,5300.957345
1390.0,994,5343.773384
1710.0,1093,5392.994585
2650.0,1128,5441.276515
1280.0,1061,5489.525155
1440.0,1175,5540.301413
1130.0,597,5564.284987
1710.0,807,5600.765046
730.0,285,5612.098161
1540.0,916,5650.907844
1530.0,1171,5701.089601
1030.0,429,5719.50725
1180.0,557,5742.028363
1280.0,605,5768.765691
1180.0,756,5802.716469
780.0,439,5822.426592
1300.0,595,5848.453923
1390.0,1750,5925.990006
1740.0,990,5967.028043
2050.0,1067,6015.45673
1710.0,1024,6060.635072
1180.0,798,6096.792558
580.0,278,6108.355645
1370.0,545,6132.102714
1180.0,862,6167.811021
780.0,397,6186.56889
3000.0,908,6228.122752
1080.0,751,6259.072506
1130.0,488,6280.934032
1030.0,436,6300.390321
780.0,370,6315.879301
1660.0,910,6352.966331
980.0,448,6372.973025
1930.0,674,6402.174175
530.0,415,6419.967482
680.0,348,6433.979644
1080.0,628,6460.472289
630.0,326,6473.430679
1300.0,878,6512.425287
680.0,384,6528.701342
980.0,481,6549.126455
1490.0,890,6587.887887
1180.0,629,6614.347776
780.0,475,6634.066568
1280.0,800,6669.256101
1640.0,1163,6720.813152
630.0,283,6733.129446
1390.0,537,6757.71528
1180.0,602,6782.503527
2130.0,834,6819.935934
880.0,390,6835.162724
1340.0,606,6862.521956
1180.0,1113,6912.1452
1280.0,681,6942.615237
1570.0,882,6983.523229
1480.0,1061,7031.512707
1680.0,1271,7087.271426
580.0,606,7112.627141
1080.0,746,7144.218743
1650.0,1351,7201.710485
980.0,409,7219.479207
880.0,622,7245.822307
1320.0,867,7284.835652
1580.0,811,7319.723273
1280.0,509,7341.264639
1280.0,930,7384.239803
1180.0,619,7411.604265
1370.0,768,7444.868804
1080.0,491,7465.618203
1280.0,859,7503.515789
980.0,597,7526.898371
830.0,422,7545.016375
780.0,531,7569.728485
1540.0,692,7599.579405
1300.0,1102,7646.155056
1460.0,1150,7698.063832
2750.0,1073,7744.596424
1130.0,1049,7790.631915
980.0,433,7809.18796
930.0,534,7831.710353
780.0,287,7844.878068
1180.0,1019,7890.159631
1320.0,612,7916.11183
880.0,367,7932.026103
730.0,418,7949.661717
1690.0,758,7983.086594
2160.0,1019,8025.978706
1980.0,1114,8073.759142
1280.0,641,8102.021501
2030.0,668,8130.295585
1280.0,829,8167.280663
830.0,505,8188.581792
1610.0,970,8231.742846
1300.0,600,8256.59004
1400.0,1236,8309.049509
1710.0,991,8352.227315
1490.0,1395,8414.590712
1280.0,723,8446.08667
1180.0,649,8473.179765
1530.0,783,8505.925725
1590.0,567,8529.836576
980.0,397,8547.390123
930.0,372,8563.105283
1570.0,944,8605.755691
1510.0,906,8642.807905
1280.0,960,8684.839707
1790.0,905,8725.094048
2050.0,563,8749.366347
480.0,327,8764.108269
1080.0,494,8785.30264
1280.0,522,8808.515143
1390.0,675,8838.971336
1560.0,957,8882.362566
1390.0,1101,8930.846419
2750.0,1400,8992.087818
1390.0,881,9029.300828
1080.0,879,9066.222499
1320.0,593,9091.161257
2050.0,719,9121.054357
1710.0,1077,9169.501062
1810.0,986,9212.519368
1420.0,864,9251.169112
630.0,397,9267.352419
1370.0,851,9304.809188
1180.0,687,9335.466825
1660.0,753,9366.536677
830.0,484,9387.748681
1910.0,931,9428.49172
2000.0,848,9464.984388
1080.0,540,9487.532498
1470.0,932,9527.064404
1300.0,728,9559.784798
1560.0,391,9576.520986
1030.0,526,9597.975609
1080.0,731,9630.761678
1470.0,999,9674.822562
1470.0,1163,9724.668166
1560.0,766,9757.373601
730.0,282,9769.02623
1300.0,1009,9812.933286
1080.0,527,9835.975183
1300.0,561,9859.280653
780.0,568,9883.417829
1080.0,394,9899.396113
980.0,502,9920.04945
880.0,596,9946.242216
660.0,441,9964.722079
780.0,364,9979.717214
2060.0,776,10013.408837
1320.0,663,10042.956977
1800.0,1026,10089.003432
780.0,340,10102.650028
1300.0,742,10133.687077
1540.0,641,10161.655447
730.0,240,10171.402499
680.0,251,10182.535223
930.0,440,10201.775385
830.0,385,10218.484191
560.0,305,10231.259474
1350.0,773,10262.946986
680.0,412,10282.481502
1180.0,857,10319.558343
930.0,368,10335.646542
1680.0,750,10367.431246
1080.0,571,10391.21398
1180.0,612,10420.604453
2100.0,905,10460.195168
1440.0,617,10488.066719
980.0,471,10508.296787
1590.0,665,10538.654038
1560.0,726,10571.759937
1320.0,1146,10622.290473
830.0,334,10636.199804
930.0,478,10656.741384
1030.0,529,10681.155107
730.0,509,10704.205774
1560.0,709,10735.948349
780.0,329,10749.307161
610.0,191,10757.158062
1300.0,868,10795.173481
1510.0,695,10823.91654
1180.0,421,10842.531876
2250.0,1232,10896.73867
1300.0,883,10936.937594
2050.0,744,10970.615743
530.0,348,10985.519258
2400.0,887,11024.482527
1180.0,852,11060.590009
1690.0,1101,11108.672318
1560.0,680,11138.901756
980.0,408,11155.436261
2450.0,1016,11198.30309
2030.0,1303,11254.970779
1390.0,939,11296.389854
1180.0,650,11324.562895
880.0,448,11344.742148
1540.0,1172,11395.712784
610.0,450,11415.297698
1320.0,979,11457.117368
1080.0,786,11489.718611
1180.0,554,11514.093856
1390.0,807,11550.049842
980.0,356,11564.498589
1280.0,1774,11642.342901
680.0,279,11654.928469
780.0,523,11677.564574
1610.0,805,11712.623676
1350.0,828,11752.204328
1850.0,872,11789.232497
880.0,370,11805.646551
1300.0,781,11841.251478
1280.0,530,11863.879095
580.0,236,11873.84507
830.0,303,11885.41736
1080.0,510,11907.245955
1980.0,1114,11955.536987
1300.0,1230,12008.841048
580.0,298,12021.574735
1280.0,1038,12065.516108
330.0,303,12079.289569
1850.0,920,12116.730578
1300.0,624,12142.252955
630.0,284,12153.803219
1080.0,384,12171.021913
1320.0,934,12211.483444
1570.0,819,12245.586998
980.0,393,12262.26516
1300.0,711,12295.312986
980.0,367,12311.727813
610.0,370,12327.066411
1780.0,855,12363.475727
2100.0,1004,12409.301234
1470.0,694,12439.034599
1560.0,924,12478.328985
1540.0,1032,12525.848404
780.0,524,12548.1546
1130.0,454,12568.07735
480.0,416,12585.565177
1370.0,919,12625.581943
980.0,455,12644.124091
780.0,286,12656.68988
1370.0,959,12697.560206
1830.0,862,12733.034104
580.0,271,12745.400765
930.0,499,12765.402624
1280.0,699,12795.061919
1280.0,510,12816.670901
730.0,475,12835.738971
1080.0,607,12861.636965
580.0,292,12875.479077
680.0,365,12891.736119
930.0,351,12907.692412
930.0,444,12927.067941
1030.0,346,12942.301109
1530.0,977,12987.255991
1370.0,579,13011.825872
1390.0,519,13035.058254
1650.0,610,13062.467241
980.0,529,13085.753668
1030.0,525,13110.395389
730.0,286,13123.467375
730.0,346,13138.30277
1300.0,638,13165.301856
780.0,440,13184.682168
1300.0,629,13212.652358
1780.0,611,13238.326357
530.0,283,13249.792262
1350.0,820,13285.91785
880.0,316,13299.274083
1300.0,1053,13345.690042
1320.0,566,13369.784291
1590.0,725,13400.74694
830.0,368,13416.273977
1680.0,557,13441.058074
1410.0,471,13461.577827
1320.0,859,13500.458929
1370.0,1031,13545.027308
1180.0,477,13564.584959
1280.0,539,13586.944177
1980.0,842,13622.15487
980.0,461,13643.687927
780.0,387,13659.875648
3580.0,1257,13714.240267
1580.0,773,13746.748716
1630.0,653,13774.143127
830.0,334,13788.073084
780.0,356,13803.178657
1280.0,1001,13844.982167
1390.0,808,13880.63703
930.0,485,13901.752843
1300.0,642,13929.538673
1680.0,993,13975.782361
1480.0,825,14011.600962
1300.0,879,14050.013437
1440.0,915,14090.114934
1540.0,679,14118.777878
830.0,275,14129.855043
530.0,275,14141.632655
680.0,381,14158.049446
480.0,242,14169.413509
830.0,545,14194.185277
1080.0,625,14221.657243
1950.0,1209,14275.535113
1420.0,849,14312.558742
1590.0,1069,14359.035205
1660.0,965,14400.522124
1300.0,820,14436.820067
1850.0,729,14468.884326
1420.0,778,14502.600473
2650.0,1079,14549.705392
930.0,464,14569.570207
680.0,466,14588.202265
830.0,360,14603.097243
1300.0,775,14636.250641
830.0,439,14653.12174
1180.0,567,14675.777493
1280.0,583,14703.578132
2100.0,898,14742.4499
1180.0,756,14776.186143
1030.0,277,14787.916726
1560.0,694,14818.508306
1660.0,746,14849.510669
1640.0,917,14890.438602
1680.0,667,14919.93648
1530.0,581,14945.804129
980.0,618,14971.320421
1180.0,679,14999.074006
1030.0,396,15016.380604
1130.0,418,15036.239163
1510.0,771,15069.384753
1320.0,690,15100.230512
930.0,395,15117.506334
2130.0,924,15156.365102
1080.0,670,15185.913115
1130.0,534,15207.805884
1180.0,823,15243.961903
980.0,358,15258.754847
1780.0,1612,15328.15063
980.0,292,15340.179207
680.0,515,15360.930413
1300.0,1027,15407.288565
1520.0,735,15439.192787
1130.0,384,15453.666943
1180.0,750,15485.089702
1180.0,730,15514.838081
930.0,586,15539.718422
1300.0,447,15558.991488
1520.0,1270,15614.503505
1760.0,992,15658.747857
930.0,505,15680.996349
2700.0,1238,15734.438345
1540.0,616,15760.003595
830.0,366,15774.524114
1680.0,847,15812.343352
980.0,412,15830.041392
1280.0,1297,15884.808999
1780.0,527,15907.888136
880.0,490,15930.823494
830.0,332,15943.802694
1080.0,677,15973.178623
480.0,287,15986.176709
1080.0,710,16015.723291
1370.0,896,16055.114457
1030.0,490,16076.911151
1030.0,483,16095.995147
1840.0,1044,16142.236317
1300.0,808,16176.997896
730.0,313,16189.83418
1980.0,655,16218.013977
1610.0,645,16245.106025
1180.0,782,16277.238856
1420.0,868,16315.467259
1340.0,680,16344.416467
2200.0,1283,16399.262901
1680.0,775,16434.354461
1180.0,1161,16485.243519
780.0,323,16498.640261
2230.0,714,16528.659657
1710.0,1067,16574.973443
1950.0,895,16613.54063
2800.0,1509,16680.419494
1780.0,1458,16744.019584
780.0,372,16760.378397
1420.0,494,16782.265746
1710.0,1152,16832.372851
1640.0,1162,16882.232195
1410.0,936,16921.401926
2150.0,1467,16984.872993
1180.0,653,17013.942718
1370.0,758,17046.698032
1660.0,867,17084.112355
1880.0,690,17113.474124
1280.0,694,17142.516224
1300.0,847,17177.450957
1180.0,634,17203.789452
1080.0,555,17228.375365
1080.0,516,17251.224343
1280.0,840,17288.269631
1510.0,768,17321.32685
1340.0,929,17361.584021
1180.0,587,17386.715393
1080.0,492,17406.568973
1420.0,869,17444.638551
3200.0,1770,17522.435752
1750.0,1069,17567.748161
2080.0,816,17604.519356
1480.0,456,17623.625133
1080.0,474,17644.830707
830.0,648,17672.920126
1580.0,1164,17721.809908
1320.0,1317,17778.655905
2450.0,1835,17861.639906
1300.0,1051,17907.449138
1540.0,928,17947.334923
1490.0,787,17980.59708
1490.0,1066,18025.943024
760.0,459,18045.577259
2400.0,867,18082.528703
930.0,369,18098.937281
2200.0,1144,18146.480964
1680.0,1178,18197.878333
1080.0,428,18215.278459
1030.0,599,18240.206615
1180.0,815,18274.48207
1370.0,625,18301.799459
1590.0,779,18336.465616
1180.0,427,18355.078769
1080.0,532,18376.917994
880.0,338,18391.288001
1370.0,799,18427.810444
1420.0,436,18445.712788
1030.0,412,18462.940319
1180.0,937,18501.347062
980.0,485,18522.658139
1030.0,496,18544.026983
980.0,752,18577.546455
1280.0,466,18596.774681
1350.0,1031,18643.272323
880.0,500,18665.503054
830.0,325,18679.041004
930.0,470,18698.588381
1080.0,455,18718.659178
1690.0,683,18748.640496
1080.0,500,18769.095677
2300.0,1584,18835.433612
1640.0,799,18870.738446
1810.0,1102,18920.358283
1560.0,618,18947.15901
1300.0,765,18981.827822
1650.0,523,19004.730741
2250.0,892,19043.337756
1080.0,542,19066.929799
1320.0,779,19101.482877
1980.0,1347,19160.465558
1080.0,296,19173.042426
1300.0,708,19203.517629
930.0,412,19221.832286
830.0,371,19237.782823
1320.0,818,19272.588476
1280.0,917,19310.794156
830.0,318,19323.49215
1280.0,768,19356.57366
1130.0,396,19373.889996
530.0,239,19384.151345
730.0,339,19397.135473
980.0,413,19415.860641
930.0,311,19428.545135
1030.0,509,19450.997427
1280.0,580,19475.596085
730.0,457,19494.183642
1300.0,485,19515.24804
1300.0,894,19552.315576
1080.0,379,19568.576956
1180.0,589,19593.60546
1130.0,506,19616.194693
1320.0,521,19638.449916
1560.0,626,19665.461668
1180.0,764,19697.759381
930.0,510,19720.329803
1320.0,1141,19769.062785
1520.0,588,19793.091479
1750.0,809,19830.314739
780.0,430,19849.350361
1630.0,962,19891.577266
1560.0,823,19928.045484
730.0,243,19938.32656
330.0,326,19952.764649
580.0,324,19966.956099
1740.0,1035,20011.633854
2300.0,833,20048.141994
780.0,395,20064.78657
1180.0,557,20088.536588
680.0,323,20103.301769
930.0,323,20116.762565
1300.0,590,20142.307121
1300.0,507,20164.311875
630.0,527,20187.956378
730.0,297,20201.08946
1080.0,597,20224.642411
1030.0,574,20250.165697
1680.0,1513,20315.116104
830.0,508,20337.279365
1180.0,692,20369.023269
1180.0,541,20393.652607
1030.0,422,20411.717899
1030.0,471,20431.138804
1370.0,666,20461.725158
1850.0,708,20492.280155
1180.0,724,20525.70999
2600.0,1320,20582.294589
1180.0,642,20609.232705
1610.0,567,20635.263049
1320.0,1270,20692.140104
1280.0,670,20721.747833
1490.0,720,20753.034681
1180.0,894,20792.72273
1280.0,567,20816.82675
830.0,422,20834.43227
1180.0,467,20853.850781
1560.0,778,20886.133366
780.0,419,20903.104577
980.0,571,20927.517171
1510.0,740,20959.382156
1660.0,730,20991.719104
1180.0,546,21014.762568
1680.0,804,21048.149918
1700.0,675,21078.422716
1610.0,828,21115.74716
1180.0,450,21136.990659
680.0,343,21151.408618
930.0,459,21172.055441
1780.0,966,21213.701389
1320.0,633,21240.670469
1750.0,1060,21287.130371
980.0,433,21305.789208
1180.0,605,21332.0728
1590.0,657,21359.376196
330.0,361,21375.446478
1600.0,736,21406.217742
1430.0,1004,21449.607147
930.0,458,21467.867178
730.0,495,21488.877324
1350.0,556,21513.533411
1520.0,600,21539.564351
1640.0,839,21575.738587
930.0,534,21599.343167
1440.0,680,21627.670888
1540.0,570,21651.20208
1610.0,466,21671.021107
930.0,360,21686.577832
1180.0,430,21704.89873
1490.0,508,21726.666781
860.0,459,21747.988692
930.0,563,21771.927088
1930.0,1082,21820.614561
1280.0,581,21846.110352
1560.0,702,21876.073704
680.0,232,21886.33045
1280.0,755,21918.370954
980.0,300,21931.139242
1640.0,888,21967.702268
1320.0,963,22008.629086
780.0,392,22024.41301
1660.0,745,22059.306028
1580.0,950,22100.701453
930.0,438,22119.782157
1730.0,788,22154.452402
1080.0,448,22175.134406
1180.0,912,22214.190495
2300.0,1706,22286.800945
1280.0,956,22328.115427
1390.0,843,22364.661134
1350.0,623,22391.466332
1280.0,767,22424.124634
1640.0,972,22466.062023
1130.0,698,22496.072467
1430.0,715,22526.998825
1080.0,421,22545.268444
1680.0,1165,22595.42424
2000.0,641,22622.616698
1390.0,611,22647.244615
1180.0,389,22663.19839
830.0,343,22677.762534
1180.0,418,22695.577861
830.0,305,22708.441383
1180.0,611,22734.647082
2100.0,780,22767.380183
1180.0,497,22789.796612
1540.0,1147,22838.987586
1030.0,526,22862.404136
980.0,457,22880.81066
1680.0,814,22917.145824
1660.0,620,22943.829741
1080.0,422,22964.344354
1320.0,703,22995.070632
1880.0,638,23021.948449
830.0,480,23042.931583
380.0,268,23054.172245
880.0,354,23068.717823
780.0,304,23080.788275
830.0,340,23095.826115
880.0,245,23105.967063
1080.0,566,23130.076351
1300.0,929,23170.187651
1440.0,736,23201.3589
1410.0,674,23231.751207
1680.0,974,23274.084848
1180.0,971,23315.498378
1300.0,936,23355.402835
1080.0,532,23379.454288
1280.0,750,23411.687609
980.0,368,23426.670708
1810.0,674,23457.258733
1420.0,504,23478.668572
1300.0,617,23505.382878
1370.0,561,23528.830104
1280.0,483,23548.531597
1320.0,693,23579.03184
1320.0,444,23598.610071
1350.0,947,23639.876812
830.0,367,23655.343307
1370.0,474,23675.857754
1280.0,563,23700.265501
1800.0,565,23724.960784
2030.0,715,23755.8437
2250.0,1313,23813.538736
1180.0,557,23837.939383
980.0,458,23857.394003
980.0,512,23879.056296
1180.0,535,23900.631103
980.0,285,23911.817236
1280.0,728,23943.605129
1630.0,826,23978.86631
1180.0,642,24005.295308
1280.0,748,24037.846606
1300.0,556,24062.638375
730.0,415,24081.12252
1180.0,560,24106.562473
980.0,454,24125.152291
780.0,312,24139.241376
1450.0,548,24164.46923
1510.0,783,24196.653617
1350.0,568,24219.246696
780.0,318,24234.011007
1460.0,552,24256.132238
880.0,351,24272.319937
1080.0,589,24297.760642
980.0,641,24324.224445
1080.0,419,24341.437599
1080.0,510,24363.355534
1900.0,592,24387.240294
1280.0,769,24418.490158
1490.0,497,24438.516877
1180.0,363,24454.641142
480.0,196,24462.154117
1080.0,331,24474.9268
930.0,319,24488.1771
830.0,288,24500.638633
1080.0,329,24513.855333
1180.0,492,24534.57286
1280.0,748,24565.949815
1610.0,718,24595.809815
1840.0,778,24626.691337
1520.0,670,24654.490063
1280.0,643,24680.840815
1600.0,897,24717.714315
1370.0,606,24742.835789
780.0,378,24758.166423
2400.0,944,24797.411073
1640.0,614,24822.97694
980.0,311,24834.630519
1300.0,728,24863.658253
1280.0,444,24881.201941
680.0,336,24893.972084
1540.0,1045,24937.438956
1780.0,679,24966.36252
780.0,515,24988.050564
1630.0,754,25018.410249
780.0,417,25034.584284
1180.0,639,25060.461563
1350.0,1002,25103.234106
1280.0,495,25123.694791
1540.0,775,25156.186293
1280.0,527,25178.532066
930.0,327,25192.13359
1980.0,719,25221.090005
980.0,409,25237.596879
1180.0,700,25266.042579
1340.0,374,25280.993235
1280.0,892,25319.131334
1180.0,601,25343.962307
1450.0,665,25370.739787
1370.0,821,25404.451339
1610.0,616,25429.564485
830.0,440,25447.090702
1180.0,693,25477.313695
1750.0,589,25501.241356
980.0,400,25518.174356
1130.0,494,25539.648173
1520.0,398,25555.651881
1690.0,522,25577.570365
1300.0,596,25602.896863
1610.0,615,25627.80186
980.0,433,25646.155326
530.0,382,25661.294113
1030.0,414,25677.325178
1390.0,1046,25721.133061
1370.0,705,25749.902819
780.0,297,25762.37703
1300.0,878,25798.30049
1350.0,858,25834.801929
1080.0,473,25854.663597
2150.0,857,25888.35458
980.0,607,25912.742428
1280.0,797,25945.751063
1350.0,809,25980.573496
1300.0,642,26006.911276
1080.0,458,26025.026349
1300.0,574,26048.339112
1180.0,612,26074.253396
1130.0,481,26094.490071
530.0,348,26109.742467
1660.0,769,26141.195199
980.0,505,26161.814768
1180.0,611,26186.193959
780.0,292,26199.247794
1300.0,540,26222.090278
1470.0,643,26249.148892
730.0,363,26263.536066
630.0,301,26275.658338
730.0,409,26291.713711
1560.0,1185,26342.261891
530.0,231,26351.346029
680.0,277,26362.173236
1300.0,1097,26407.880257
930.0,328,26421.94239
1080.0,443,26439.474874
1300.0,755,26469.909741
980.0,376,26485.455214
1030.0,411,26502.359901
1180.0,546,26523.861319
830.0,299,26535.053288
1760.0,875,26572.112679
730.0,302,26584.945581
1790.0,761,26616.551045
1080.0,330,26629.531702
1610.0,970,26668.971501
1320.0,769,26701.183323
2900.0,1065,26744.616459
1280.0,510,26765.412616
980.0,296,26777.551454
1300.0,632,26803.885924
1300.0,815,26837.540061
1570.0,893,26874.915401
980.0,377,26889.492069
1410.0,573,26913.955217
630.0,283,26925.178466
1080.0,410,26942.105586
2210.0,671,26971.247165
1850.0,999,27013.784863
880.0,415,27031.122676
1860.0,705,27060.503338
930.0,363,27074.776382
1280.0,560,27097.782685
1280.0,894,27133.855918
1980.0,1043,27179.511785
2300.0,766,27211.948021
1180.0,335,27225.466281
1080.0,513,27246.211726
1540.0,905,27282.774524
1590.0,559,27305.845754
730.0,373,27320.848467
730.0,401,27337.02724
1880.0,632,27362.714941
1280.0,718,27392.116501
1080.0,578,27416.040072
1180.0,548,27438.910161
1130.0,409,27455.569362
1540.0,847,27490.853091
1470.0,639,27516.598437
730.0,438,27534.379286
830.0,304,27547.351361
1080.0,660,27574.291216
1660.0,697,27603.955366
1180.0,599,27628.179361
1300.0,505,27649.293379
1370.0,501,27671.159875
1500.0,1109,27717.449667
1540.0,579,27740.477942
1680.0,714,27769.581954
780.0,338,27783.435668
1280.0,746,27815.582242
2450.0,1297,27867.961648
2030.0,1005,27910.124558
2100.0,663,27940.378488
1300.0,956,27980.329878
1280.0,827,28013.016625
1300.0,858,28048.916272
880.0,405,28064.758718
1180.0,541,28087.772601
930.0,404,28105.111375
1560.0,535,28125.830955
1980.0,691,28153.90107
1130.0,346,28166.797924
1080.0,473,28186.758191
1300.0,739,28216.872482
1350.0,918,28254.032692
630.0,333,28267.496427
1180.0,535,28288.187213
1790.0,463,28307.127698
1410.0,494,28326.841557
930.0,380,28341.40303
1300.0,562,28364.662231
980.0,515,28386.599917
1410.0,636,28412.923171
930.0,370,28426.761548
730.0,488,28446.764122
1300.0,637,28472.43662
1180.0,687,28500.287841
1300.0,561,28524.23973
880.0,302,28536.514415
1910.0,942,28575.787142
1580.0,679,28602.512517
1030.0,472,28622.073833
680.0,292,28633.690965
1280.0,503,28656.184767
1300.0,768,28687.35359
930.0,654,28715.104123
1460.0,656,28742.295179
1180.0,448,28760.175418
1080.0,293,28772.507717
1560.0,636,28798.736406
780.0,240,28808.700483
1410.0,595,28833.677678
1430.0,1079,28880.626641
1280.0,598,28907.050683
1280.0,994,28947.37425
1670.0,819,28983.706964
1280.0,891,29021.36079
880.0,423,29037.815392
1350.0,905,29074.841457
1340.0,861,29109.910215
1470.0,573,29134.000341
1180.0,544,29156.001855
1490.0,892,29192.532341
980.0,598,29216.774832
780.0,271,29227.444409
1600.0,701,29257.17356
1180.0,574,29279.679877
830.0,378,29295.128537
1180.0,688,29322.734793
830.0,231,29331.917424
1300.0,1383,29388.45077
1300.0,440,29404.703447
1320.0,861,29439.793317
1590.0,847,29474.792819
1610.0,579,29498.798736
1030.0,723,29528.446594
1350.0,892,29566.566681
1510.0,921,29605.224916
1080.0,415,29622.557259
1300.0,606,29647.076257
780.0,272,29658.252698
1030.0,354,29672.9303
1300.0,789,29706.394365
680.0,247,29715.891333
1030.0,463,29734.103731
630.0,290,29746.90133
1280.0,699,29776.494236
1300.0,1133,29823.834573
1300.0,498,29843.875714
1710.0,566,29866.703079
1350.0,701,29895.01644
2050.0,805,29926.998749
1660.0,737,29957.698802
930.0,373,29972.529999
1280.0,513,29994.019233
880.0,322,30007.285478
1080.0,459,30026.346084
1390.0,678,30054.957141
1030.0,490,30074.959157
1280.0,945,30114.49825
1710.0,740,30145.718818
1430.0,582,30169.658373
980.0,469,30189.26719
1280.0,870,30224.753555
830.0,325,30238.141469
1980.0,620,30264.934833
1320.0,668,30293.052271
1740.0,936,30331.688129
1180.0,426,30348.847261
2450.0,1067,30396.183991
1410.0,489,30416.369941
1350.0,833,30451.277962
1180.0,409,30468.059806
1180.0,423,30485.287372
1710.0,1354,30542.51813
1360.0,1457,30604.366602
1180.0,382,30619.745992
1370.0,1025,30661.209829
2500.0,1358,30715.826331
1420.0,719,30745.909462
930.0,450,30764.262897
780.0,414,30780.622468
1180.0,725,30809.672378
2030.0,583,30833.696793
1280.0,807,30867.578419
880.0,388,30882.990437
2650.0,1300,30937.928876
1300.0,801,30970.244177
930.0,346,30983.089384
880.0,439,31002.117273
830.0,406,31018.575612
780.0,506,31039.831722
1550.0,1277,31092.904191
480.0,285,31104.423346
480.0,418,31122.094836
780.0,361,31137.827914
1180.0,562,31161.135837
680.0,295,31172.7032
2000.0,1122,31221.522547
1030.0,356,31235.330637
1660.0,628,31261.965155
1300.0,1037,31305.051355
1180.0,491,31324.474786
1910.0,896,31362.124806
880.0,328,31375.287289
1550.0,879,31411.440984
660.0,328,31424.759146
430.0,307,31436.712381
880.0,365,31451.752195
1590.0,713,31480.963857
1320.0,716,31510.971637
1930.0,548,31533.696306
630.0,333,31546.645078
2450.0,1056,31591.652672
710.0,370,31606.315961
1180.0,545,31629.660912
1930.0,793,31664.243448
1400.0,1342,31720.487211
1320.0,447,31738.447145
2200.0,721,31768.145803
830.0,389,31783.994139
480.0,241,31794.002034
1080.0,537,31814.750875
1540.0,1083,31858.672704
980.0,619,31884.859067
630.0,461,31903.400889
1280.0,554,31926.346072
1680.0,736,31958.188405
1710.0,795,31990.875942
1180.0,526,32011.937323
1080.0,422,32028.905798
2130.0,983,32068.844399
1980.0,594,32093.70697
1180.0,415,32110.611048
1480.0,938,32148.661377
730.0,427,32166.770243
930.0,273,32177.310827
580.0,339,32190.628798
530.0,340,32204.77105
1680.0,1687,32273.727087
1280.0,724,32302.125755
1080.0,473,32321.184638
1490.0,650,32348.996987
1590.0,967,32389.420273
1360.0,911,32426.878647
1180.0,456,32444.10146
1280.0,418,32461.294793
580.0,344,32475.538282
2130.0,792,32507.810223
1080.0,329,32521.213492
880.0,343,32535.114938
1850.0,897,32571.289478
1180.0,409,32588.946524
1390.0,726,32618.667379
880.0,337,32632.662984
1440.0,796,32664.7267
880.0,433,32682.853854
1750.0,755,32712.991636
580.0,357,32728.779329
1080.0,387,32745.526623
1810.0,1385,32803.070992
1460.0,521,32825.32585
3000.0,1285,32878.641346
1180.0,683,32906.235524
830.0,320,32918.40508
1300.0,637,32944.169864
1530.0,1029,32988.440119
1780.0,1096,33033.806683
880.0,436,33051.691635
1080.0,538,33075.806612
780.0,454,33095.791039
730.0,349,33110.004961
980.0,336,33123.724304
1460.0,655,33151.005205
2000.0,725,33182.351489
980.0,643,33209.142206
830.0,461,33229.168873
930.0,590,33253.535212
1180.0,598,33279.759167
730.0,536,33301.988221
730.0,320,33314.639735
1660.0,491,33335.413885
1300.0,856,33371.967473
630.0,399,33388.295468
830.0,376,33404.648207
1900.0,924,33444.301826
1320.0,777,33476.493717
1680.0,760,33509.454328
680.0,272,33520.452408
980.0,339,33533.783719
1320.0,537,33556.355319
1280.0,468,33575.149211
1300.0,500,33596.436616
460.0,287,33608.691287
1480.0,831,33642.581855
980.0,487,33662.830651
1280.0,406,33678.97825
1300.0,506,33699.993195
1030.0,507,33720.417644
1180.0,549,33742.863301
930.0,240,33752.614264
1660.0,680,33782.217536
1030.0,360,33797.347651
1280.0,544,33819.802524
2350.0,790,33853.988518
1440.0,1259,33906.928509
1560.0,748,33938.787169
1610.0,1240,33992.653538
1610.0,733,34022.241093
780.0,374,34038.731334
1690.0,641,34065.529531
1300.0,988,34107.437509
1900.0,1119,34155.695199
830.0,548,34178.665859
1080.0,802,34213.031806
1280.0,888,34249.318812
1580.0,856,34287.114079
830.0,297,34299.64454
980.0,342,34315.30851
980.0,371,34330.265017
1370.0,908,34368.477493
980.0,353,34382.290478
1390.0,629,34408.899348
1300.0,1069,34452.920792
880.0,435,34469.863245
1080.0,675,34498.730347
2100.0,718,34527.994934
1180.0,665,34555.957304
1510.0,827,34592.45354
1320.0,758,34622.861985
930.0,524,34644.97221
680.0,282,34656.326064
1180.0,440,34673.938716
2050.0,999,34716.318966
1280.0,866,34752.726405
1030.0,367,34768.368311
1300.0,688,34796.673943
1280.0,460,34816.745651
1280.0,778,34849.604299
1510.0,899,34889.18868
1350.0,1084,34935.856712
580.0,236,34945.828728
780.0,315,34958.567231
1540.0,537,34981.014667
480.0,341,34994.117723
2650.0,1085,35038.758831
930.0,410,35055.183826
1080.0,308,35066.851209
780.0,412,35083.417155
1350.0,891,35120.771249
680.0,350,35136.205251
1180.0,549,35159.259416
1180.0,616,35184.317792
780.0,624,35211.336742
1280.0,635,35237.532911
1080.0,452,35256.216101
580.0,210,35264.392665
1810.0,792,35298.049914
1030.0,508,35318.652583
1080.0,474,35338.745716
1130.0,440,35357.61811
780.0,307,35370.327955
1510.0,819,35405.553281
2100.0,986,35446.201013
1530.0,1338,35502.538391
580.0,349,35516.625447
1080.0,348,35532.019214
1860.0,872,35567.916849
1470.0,804,35601.285969
1370.0,638,35627.645817
1590.0,707,35657.249127
1300.0,882,35694.547637
1590.0,793,35728.263592
780.0,395,35744.839442
1410.0,572,35769.253455
1590.0,608,35795.313436
930.0,544,35818.568754
1770.0,1373,35878.279855
1730.0,628,35905.798713
1340.0,690,35933.754681
1490.0,1046,35977.648586
730.0,378,35994.505531
1300.0,685,36023.239845
1830.0,1024,36067.070142
2250.0,945,36106.159692
1420.0,1030,36149.07741
1130.0,726,36179.221302
880.0,407,36195.667342
1590.0,659,36224.502279
1320.0,456,36245.355951
580.0,297,36257.52878
1370.0,1096,36302.662568
1830.0,997,36346.009242
730.0,412,36362.664998
1370.0,914,36402.107583
830.0,674,36431.256326
880.0,380,36447.178738
2030.0,1301,36503.514308
310.0,315,36516.559864
930.0,332,36529.755336
1300.0,710,36559.91462
630.0,314,36572.869585
2030.0,1445,36635.393974
630.0,235,36644.497356
980.0,322,36658.3682
2350.0,1094,36701.873131
1180.0,540,36723.882991
1180.0,725,36754.466451
1780.0,976,36794.829284
530.0,374,36810.706906
1760.0,820,36844.403572
630.0,450,36864.270544
1470.0,842,36899.151534
1750.0,802,36932.359587
480.0,363,36947.540114
1080.0,595,36970.908226
1300.0,1149,37020.840589
1620.0,891,37056.974418
1450.0,594,37082.761917
1080.0,568,37106.599784
980.0,648,37132.51831
830.0,433,37150.471676
1460.0,1012,37193.126843
1540.0,978,37233.746611
1890.0,599,37259.031672
1650.0,879,37297.005679
1830.0,775,37330.261083
1630.0,1337,37387.423871
1030.0,445,37406.714725
1350.0,719,37437.590497
1080.0,600,37463.000461
1300.0,660,37491.202865
780.0,516,37513.341698
1560.0,1026,37555.369556
1490.0,746,37586.831316
1980.0,867,37621.978901
1280.0,1012,37664.754841
1180.0,672,37693.630578
2600.0,1641,37762.850136
430.0,235,37771.610413
1550.0,698,37801.963928
1520.0,799,37834.928799
1730.0,972,37875.954765
1130.0,429,37893.450095
1280.0,1128,37939.872844
880.0,386,37955.865647
1080.0,386,37971.464638
1730.0,829,38006.402435
1530.0,545,38028.654775
880.0,454,38047.114486
980.0,584,38071.452874
1280.0,641,38098.672628
1180.0,646,38124.543072
1080.0,320,38137.490464
2900.0,1737,38209.766373
980.0,408,38226.100451
1530.0,706,38256.2824
1610.0,1138,38302.749774
580.0,240,38312.387341
1630.0,1150,38358.924921
580.0,323,38372.496247
980.0,386,38388.611715
1300.0,621,38414.114586
2100.0,927,38453.056668
830.0,471,38472.401028
1340.0,1006,38515.959283
1390.0,783,38548.172568
680.0,291,38560.193262
1030.0,665,38587.007825
1480.0,977,38627.873529
980.0,602,38653.67614
880.0,390,38670.259184
1080.0,384,38685.035963
1350.0,1014,38729.390614
1490.0,372,38744.34767
2700.0,1211,38794.177387
1300.0,585,38818.358127
1430.0,784,38850.21801
2450.0,830,38882.558509
1300.0,532,38903.940694
1280.0,1376,38959.786317
1730.0,664,38987.118467
930.0,433,39004.760476
1080.0,311,39016.610636
1280.0,887,39052.847404
1390.0,534,39074.717632
1460.0,590,39098.945146
1080.0,482,39119.896704
1370.0,704,39148.718698
1510.0,730,39180.01012
730.0,472,39200.046852
1300.0,640,39228.47589
1560.0,910,39266.848996
780.0,373,39281.882684
1710.0,802,39316.045879
3260.0,1973,39396.115532
830.0,466,39415.194817
1680.0,947,39454.529164
1180.0,1041,39496.792204
930.0,556,39520.415033
1850.0,628,39545.893082
780.0,474,39565.125573
1800.0,594,39589.224406
1280.0,584,39615.09388
1760.0,1020,39657.81741
1410.0,615,39684.585549
630.0,518,39706.404938
510.0,282,39717.713765
1180.0,641,39744.905779
1800.0,1090,39790.017874
1780.0,1010,39830.242927
630.0,430,39847.972041
1180.0,616,39873.513491
2130.0,960,39914.811335
1080.0,627,39941.808262
880.0,279,39953.169725
1560.0,569,39975.75023
1690.0,1140,40022.830896
780.0,376,40038.63757
1790.0,478,40056.552974
1320.0,604,40080.906437
1180.0,777,40113.162608
2100.0,1143,40161.480748
1800.0,529,40182.223019
1080.0,571,40205.225347
830.0,415,40222.619602
1490.0,569,40246.093962
1280.0,1227,40298.002448
880.0,379,40313.915152
1080.0,550,40336.254177
1540.0,529,40358.571522
1130.0,535,40381.533356
880.0,313,40394.666721
1280.0,791,40426.429504
1400.0,982,40468.869857
1440.0,613,40493.627331
1300.0,446,40512.907491
1080.0,559,40535.280268
630.0,326,40548.953796
1540.0,1151,40599.837224
1180.0,733,40629.962605
1180.0,676,40657.910832
1490.0,944,40696.752572
1900.0,717,40726.788556
980.0,568,40751.101431
1080.0,457,40771.201374
1180.0,679,40800.891764
2250.0,1258,40853.975292
930.0,454,40872.020195
1660.0,709,40902.323161
1390.0,956,40943.975935
1510.0,792,40977.160366
1280.0,596,41001.909081
1500.0,1090,41045.782421
730.0,361,41060.780521
730.0,196,41068.524147
1180.0,728,41098.173321
730.0,291,41110.081734
980.0,378,41125.006489
1300.0,735,41155.35147
780.0,313,41167.107517
980.0,374,41182.826754
980.0,428,41199.834486
830.0,315,41212.264726
930.0,322,41225.825149
830.0,424,41242.712541
1580.0,971,41284.751606
1300.0,773,41318.080377
1180.0,290,41330.215214
1080.0,317,41343.612566
880.0,372,41359.553001
1300.0,374,41374.739906
1660.0,433,41393.925357
310.0,343,41408.753862
1440.0,617,41433.894185
1080.0,466,41454.354679
2030.0,1287,41508.049664
1610.0,794,41542.208698
1130.0,361,41557.146438
730.0,270,41569.180591
1030.0,497,41589.50054
1300.0,490,41609.058576
1400.0,486,41629.757507
1950.0,1260,41684.222182
680.0,479,41703.83038
980.0,385,41720.042636
1730.0,529,41741.632582
1280.0,1129,41791.66368
1280.0,1032,41835.193197
630.0,353,41850.449547
880.0,694,41880.565634
1180.0,541,41904.143176
930.0,329,41918.833901
1630.0,602,41944.188768
1030.0,363,41958.972431
1830.0,1034,42001.197187
1300.0,768,42033.941155
1320.0,430,42052.6634
1880.0,995,42096.259822
1030.0,381,42112.009239
1930.0,1106,42158.333476
2110.0,1002,42201.790565
1580.0,888,42239.625272
930.0,296,42251.953398
1470.0,477,42271.431557
3100.0,1408,42329.988743
1390.0,574,42354.289138
1300.0,1049,42398.686579
2650.0,1294,42452.359379
1540.0,1062,42496.733386
1930.0,1328,42552.544613
930.0,283,42563.746056
1300.0,803,42596.832689
1580.0,880,42633.45626
1520.0,698,42660.611913
1320.0,462,42681.009563
930.0,457,42699.18869
980.0,484,42719.656589
980.0,563,42742.053225
1560.0,1004,42783.057269
3610.0,1899,42860.114768
2050.0,851,42895.235123
1460.0,537,42918.002329
1180.0,559,42939.939605
1840.0,996,42981.607175
1180.0,353,42995.321805
1390.0,955,43033.434641
1400.0,616,43057.74804
1080.0,426,43075.961085
1760.0,1078,43120.320525
2750.0,834,43154.14257
1630.0,933,43193.422639
530.0,230,43201.944009
1350.0,566,43224.565208
1280.0,432,43241.419057
730.0,310,43253.842918
1390.0,498,43274.302368
1280.0,881,43309.352332
1280.0,458,43327.272837
1510.0,927,43365.392898
1540.0,709,43395.384497
2550.0,1908,43474.047178
780.0,512,43493.909915
1730.0,709,43523.619082
1900.0,756,43555.64739
1080.0,703,43584.99615
1030.0,413,43602.057001
630.0,320,43615.569624
1300.0,593,43639.507198
1080.0,536,43661.147414
1300.0,546,43684.137107
980.0,552,43707.061007
1080.0,373,43721.770999
930.0,464,43741.216879
1370.0,578,43764.841174
1280.0,519,43785.069671
1660.0,645,43811.070552
1650.0,622,43837.156977
2200.0,804,43870.397491
2110.0,1902,43949.083987
1030.0,355,43963.938932
1080.0,515,43984.104813
1350.0,781,44017.723166
1710.0,913,44055.217983
1560.0,771,44087.694114
2600.0,1005,44129.700513
1320.0,762,44161.187847
930.0,485,44180.265182
1080.0,402,44195.775444
1080.0,516,44216.688681
930.0,424,44234.2738
1830.0,810,44267.300116
1930.0,623,44294.121826
1180.0,977,44335.128157
1320.0,568,44358.886317
1280.0,541,44381.022281
680.0,414,44397.259325
1030.0,592,44420.717522
1900.0,835,44456.308411
1180.0,740,44485.917481
1080.0,319,44498.815748
980.0,384,44514.414837
1910.0,633,44541.097194
1080.0,329,44554.002346
930.0,399,44569.82042
880.0,320,44582.823388
1950.0,1703,44656.647604
1830.0,671,44684.718851
1900.0,957,44723.877415
580.0,293,44735.134048
1280.0,926,44774.013832
1930.0,983,44813.983293
530.0,407,44829.620284
1590.0,617,44855.638112
1300.0,724,44886.357658
1080.0,497,44905.093086
980.0,372,44919.822565
1180.0,970,44960.423131
1530.0,687,44988.561312
930.0,408,45004.921516
1280.0,885,45041.475161
980.0,294,45053.243493
1680.0,1130,45099.56334
1810.0,1132,45146.731363
880.0,422,45163.22862
1710.0,932,45199.917861
1550.0,657,45226.167136
1410.0,1258,45278.983202
3630.0,1539,45344.991766
1370.0,1068,45389.382721
1300.0,531,45411.38354
2250.0,1343,45468.223524
2100.0,1000,45507.966963
1080.0,431,45526.044745
1890.0,649,45553.803447
2180.0,944,45590.991801
1030.0,429,45608.415213
1300.0,579,45633.399196
1880.0,643,45659.08337
1180.0,716,45688.573322
780.0,306,45700.552948
1030.0,549,45723.841504
1910.0,899,45760.356905
1460.0,1136,45805.971846
680.0,249,45815.954238
1130.0,503,45836.524989
1080.0,415,45853.37375
1680.0,739,45884.704503
630.0,276,45895.439384
2150.0,1351,45949.79849
1320.0,1650,46017.279436
1910.0,884,46052.381611
980.0,390,46068.90964
480.0,204,46075.929077
1520.0,570,46099.009386
930.0,419,46115.216959
780.0,322,46127.40986
630.0,345,46140.768129
930.0,372,46155.459832
680.0,518,46176.085783
1390.0,690,46204.267999
1280.0,610,46228.250295
780.0,426,46244.726877
1180.0,387,46259.920349
1320.0,664,46285.623731
980.0,435,46301.38433
1300.0,836,46334.975518
1370.0,713,46362.458713
1460.0,557,46384.917773
1460.0,574,46405.585239
1300.0,691,46431.35098
880.0,503,46450.242673
1850.0,776,46481.81508
930.0,322,46494.699416
1180.0,516,46515.439883
580.0,287,46526.911306
830.0,456,46544.964151
1300.0,658,46571.547081
880.0,354,46585.488344
1350.0,590,46607.490815
780.0,391,46621.88524
630.0,305,46633.00691
1350.0,725,46661.353785
630.0,326,46673.468943
1470.0,535,46693.636142
1710.0,927,46728.979969
980.0,375,46743.714893
1130.0,474,46761.443511
1080.0,519,46781.150127
1410.0,661,46805.736895
1080.0,470,46823.808989
1080.0,374,46838.215276
1280.0,515,46858.886907
1300.0,624,46883.063175
980.0,535,46904.193442
880.0,298,46915.840995
1520.0,1065,46954.310425
2450.0,1158,46999.046816
1580.0,632,47024.171678
1860.0,1424,47078.693752
1280.0,918,47113.616395
980.0,582,47135.929744
1390.0,705,47163.517576
1390.0,624,47187.346411
1490.0,672,47214.898397
730.0,236,47224.228013
1440.0,488,47241.978259
980.0,341,47255.079922
1740.0,824,47287.272959
1180.0,651,47312.516072
1610.0,857,47345.014849
1280.0,1281,47394.616033
930.0,243,47403.34923
1930.0,934,47437.857024
1760.0,831,47469.533642
730.0,350,47482.417858
1660.0,1726,47548.51254
960.0,454,47565.014353
730.0,382,47578.875723
730.0,364,47592.359407
980.0,427,47607.535827
880.0,378,47622.350234
1030.0,410,47637.798484
780.0,371,47650.857082
1080.0,427,47666.809819
1030.0,428,47682.863535
630.0,306,47694.807618
780.0,244,47704.098786
1300.0,745,47730.70745
1610.0,615,47753.576889
1280.0,433,47768.989371
1790.0,870,47800.639175
1640.0,874,47832.296185
1280.0,663,47857.267579
2800.0,1145,47900.631989
1300.0,627,47923.921129
2200.0,890,47956.243101
1080.0,450,47972.220295
1460.0,680,47998.405006
1850.0,756,48026.83866
1340.0,806,48056.041092
880.0,365,48069.309162
680.0,336,48082.236823
1300.0,730,48109.224107
1800.0,676,48133.121163
1520.0,609,48155.155993
780.0,311,48166.351671
1180.0,606,48189.701128
980.0,580,48210.187603
1180.0,666,48234.441952
1280.0,712,48260.656435
1300.0,637,48285.533042
1730.0,532,48305.625811
1420.0,930,48338.44165
1080.0,352,48351.136876
1350.0,511,48369.257319
2380.0,927,48402.943157
780.0,416,48417.642004
1080.0,415,48432.437368
930.0,347,48444.545515
1080.0,413,48459.490416
1180.0,763,48487.834395
1510.0,1001,48525.173347
1660.0,861,48556.571775
1180.0,618,48576.601117
1730.0,566,48596.905493
1300.0,619,48617.417012
1540.0,636,48639.074064
1750.0,676,48662.809846
1580.0,768,48690.596163
1300.0,789,48716.862279
1630.0,465,48733.128649
1340.0,1223,48776.116266
580.0,369,48789.269088
1030.0,371,48802.165929
2100.0,1577,48860.364308
580.0,325,48872.034734
1480.0,640,48894.766543
730.0,257,48902.957163
1490.0,639,48925.346352
1080.0,494,48941.947788
1080.0,721,48967.123414
2060.0,1100,49005.256081
1780.0,762,49034.071069
830.0,369,49047.483162
930.0,290,49057.132247
1500.0,1061,49097.747185
1420.0,602,49118.330359
1340.0,789,49146.410402
830.0,293,49157.115433
1460.0,818,49186.516124
1580.0,776,49213.775955
880.0,287,49223.485647
630.0,351,49234.846526
1180.0,646,49258.230569
1300.0,802,49287.455686
1770.0,507,49306.27869
1180.0,396,49320.870622
680.0,364,49334.056237
2250.0,872,49364.683137
1370.0,796,49393.142879
1350.0,1040,49429.441802
1300.0,1018,49465.85278
1080.0,409,49481.553614
2400.0,1198,49523.675795
1640.0,809,49553.661216
980.0,360,49565.478785
1180.0,430,49580.826925
2750.0,1077,49621.571038
1180.0,382,49634.791183
1580.0,544,49653.440803
1080.0,423,49667.717709
980.0,390,49682.200754
1300.0,1082,49721.24472
1080.0,271,49731.180255
2200.0,805,49759.395384
1300.0,453,49774.18525
980.0,376,49787.699552
1780.0,945,49821.810257
2180.0,1326,49868.101063
1080.0,342,49879.102052
1540.0,1165,49921.76439
1860.0,811,49951.76375
680.0,302,49962.446492
2280.0,855,49991.994934
1030.0,400,50006.960748
880.0,428,50020.808179
1080.0,619,50042.250154
880.0,459,50059.225833
1280.0,1559,50114.947645
730.0,411,50129.736515
1450.0,737,50155.751713
980.0,285,50165.949645
1300.0,703,50190.491881
1180.0,805,50220.138105
1300.0,548,50238.633017
1830.0,1079,50278.491155
1540.0,431,50293.352209
1080.0,435,50309.121303
1080.0,432,50324.524789
1180.0,972,50358.353723
1370.0,645,50380.927296
1280.0,412,50395.553687
1710.0,947,50429.218286
1440.0,437,50444.337056
830.0,315,50456.22102
1690.0,540,50476.49146
1300.0,1261,50521.417388
1180.0,389,50533.786354
880.0,479,50551.22524
1080.0,654,50575.137624
1540.0,484,50591.905254
1300.0,705,50616.58287
1300.0,915,50648.559988
1560.0,1032,50687.468444
1390.0,1406,50738.846537
1180.0,779,50769.738242
1080.0,472,50787.316909
1280.0,440,50802.502098
1760.0,890,50834.301927
1080.0,582,50855.03269
830.0,363,50867.873169
1030.0,470,50884.675089
630.0,245,50893.328798
2250.0,1094,50933.598573
1510.0,696,50959.471128
1280.0,557,50979.634331
1960.0,885,51009.026287
1610.0,813,51038.01102
1560.0,1014,51073.642863
1340.0,1646,51132.927343
1030.0,486,51151.458991
1300.0,904,51184.868708
680.0,243,51193.845619
830.0,405,51207.34034
1280.0,630,51228.999425
2150.0,862,51258.339164
1300.0,531,51278.674704
2050.0,1178,51320.225607
1280.0,630,51341.457135
1680.0,597,51361.671265
1370.0,631,51381.973322
1450.0,441,51395.459471
830.0,427,51409.764882
880.0,373,51421.927305
1030.0,450,51437.071693
2010.0,645,51457.038917
730.0,337,51468.081545
1660.0,653,51490.272579
1180.0,832,51519.869873
830.0,410,51532.625778
680.0,277,51541.283947
780.0,294,51551.65597
1410.0,726,51575.831214
1750.0,1156,51616.504769
930.0,351,51628.385522
630.0,326,51639.044676
2030.0,1077,51676.154489
1700.0,883,51707.573159
2400.0,1180,51747.218395
980.0,443,51761.401557
1080.0,361,51773.695251
1080.0,591,51793.011493
1320.0,799,51820.747596
1030.0,428,51835.728495
1490.0,1140,51876.586533
980.0,635,51898.742512
1280.0,899,51927.439752
1440.0,726,51952.47664
1030.0,519,51969.863553
1300.0,646,51992.229562
1510.0,778,52020.456666
780.0,312,52030.610817
1980.0,1068,52064.298598
980.0,502,52081.550703
1960.0,984,52112.234048
1300.0,771,52138.776154
2650.0,1139,52178.646739
1350.0,900,52209.146512
730.0,420,52223.045574
1700.0,717,52249.521583
1540.0,590,52269.962778
1280.0,1035,52306.044205
1460.0,606,52326.292651
3200.0,1755,52387.03334
2080.0,1154,52424.849681
1280.0,1014,52459.524614
1300.0,565,52479.888722
1700.0,790,52506.300402
1490.0,622,52526.724333
1180.0,768,52554.6282
1800.0,1133,52595.608039
1080.0,682,52617.902722
1030.0,297,52627.910295
1180.0,455,52643.213643
780.0,420,52655.530694
730.0,378,52668.339394
1370.0,695,52692.846597
1610.0,983,52725.938854
1280.0,712,52749.078836
830.0,335,52759.830006
1570.0,892,52790.911093
1080.0,404,52804.163183
1880.0,1793,52865.338358
1080.0,333,52876.454507
1850.0,944,52909.669131
880.0,310,52919.372085
2060.0,903,52949.605455
880.0,612,52969.741356
1180.0,498,52985.715027
2010.0,956,53018.228046
1300.0,642,53041.257699
1520.0,787,53067.031313
1130.0,380,53079.156412
930.0,384,53091.80553
1440.0,510,53108.761194
2550.0,1100,53145.111622
830.0,319,53156.115541
2350.0,1215,53196.569738
1180.0,688,53222.217178
1490.0,948,53254.882526
2030.0,637,53275.561039
430.0,236,53283.02177
1700.0,776,53308.435714
1600.0,690,53332.201414
1180.0,470,53347.252932
1300.0,789,53374.639182
1510.0,812,53404.347624
3610.0,1656,53460.689093
1390.0,774,53486.093545
1180.0,607,53506.987205
1860.0,1358,53553.939405
1340.0,426,53568.369015
1810.0,630,53589.673026
980.0,288,53598.70407
1300.0,1030,53633.527629
830.0,381,53646.314127
1680.0,674,53668.28301
1680.0,516,53685.154102
730.0,500,53701.84256
1280.0,776,53727.85861
1320.0,700,53752.637658
930.0,318,53763.019175
1680.0,1159,53804.12726
930.0,292,53813.981149
1080.0,386,53826.3317
1300.0,623,53847.382426
1710.0,796,53875.243479
1830.0,876,53904.794657
1590.0,800,53932.229228
980.0,316,53944.476295
2000.0,838,53973.404226
1610.0,1873,54036.301469
1930.0,917,54068.282893
1130.0,363,54080.715384
1510.0,599,54100.978667
1390.0,528,54119.064586
1370.0,911,54149.614293
1690.0,1102,54187.417742
1560.0,832,54215.230262
930.0,378,54229.260239
2100.0,1103,54268.202773
1490.0,946,54300.251157
1180.0,648,54322.371945
1500.0,717,54346.287902
980.0,463,54362.67506
1680.0,1113,54400.964414
1490.0,745,54427.328529
1410.0,1134,54465.962954
1420.0,669,54488.711839
1730.0,680,54510.436866
1180.0,570,54531.36679
1440.0,948,54562.371723
2700.0,1180,54601.289518
1130.0,358,54613.728073
1490.0,1062,54648.627367
1540.0,991,54683.186185
980.0,330,54694.258935
1300.0,709,54718.176988
1930.0,1317,54764.58863
780.0,344,54775.029074
1300.0,895,54803.610018
1610.0,856,54832.292533
1460.0,1169,54871.733786
1680.0,997,54906.562093
1610.0,767,54933.070561
1080.0,411,54947.560379
1180.0,574,54967.548581
1950.0,735,54993.134819
980.0,399,55005.920317
1510.0,771,55032.506999
1610.0,807,55059.808212
1750.0,719,55085.07566
2180.0,1301,55128.616528
1470.0,911,55159.405116
1280.0,494,55177.069467
1370.0,790,55203.827153
1680.0,1002,55237.874048
930.0,347,55249.506108
1280.0,795,55278.052258
2700.0,1137,55318.530518
1390.0,799,55346.415498
1300.0,816,55374.634376
730.0,372,55387.114765
1450.0,656,55409.311859
1810.0,481,55426.320803
1420.0,797,55453.477937
1730.0,1022,55488.617077
1180.0,464,55503.430995
2450.0,916,55535.353441
1030.0,490,55552.038565
880.0,567,55571.124439
1080.0,334,55582.266479
2180.0,587,55602.333151
980.0,352,55614.234519
1370.0,729,55641.043697
1280.0,522,55658.63072
1280.0,1378,55704.84957
1420.0,313,55715.531315
830.0,389,55728.783763
1980.0,679,55751.663422
1740.0,735,55777.848892
530.0,278,55786.443465
1340.0,827,55814.028267
1830.0,852,55843.693505
1130.0,473,55859.552246
1520.0,893,55891.053906
2380.0,1288,55935.041874
2230.0,834,55962.327111
1180.0,477,55978.365582
1640.0,540,55996.97998
1350.0,929,56030.367051
2450.0,1552,56083.57558
830.0,402,56097.279601
1370.0,1042,56134.314347
480.0,204,56139.807163
1880.0,1089,56176.271678
1300.0,609,56197.672759
1440.0,513,56214.406475
2130.0,1163,56255.689485
1930.0,844,56285.557555
1470.0,1024,56319.664161
1180.0,357,56332.107858
1900.0,848,56361.108771
1180.0,504,56378.48081
730.0,426,56391.378518
1630.0,788,56418.008392
1280.0,485,56434.325421
680.0,286,56443.691204
680.0,324,56454.850969
1830.0,987,56488.352129
1130.0,714,56512.150236
1410.0,1207,56555.590913
1450.0,578,56574.562766
1370.0,1299,56618.389337
1180.0,495,56635.62065
1440.0,531,56654.140341
1350.0,856,56681.955009
2280.0,1269,56725.648927
1180.0,670,56747.549782
980.0,284,56755.240251
1710.0,749,56780.258638
1300.0,598,56800.891303
2650.0,1053,56837.878926
1320.0,710,56862.136633
1760.0,572,56880.536847
1540.0,884,56910.700737
1280.0,487,56929.129415
2400.0,783,56954.749732
1490.0,1464,57004.856423
2450.0,953,57037.030799
1130.0,401,57050.995616
1080.0,403,57065.740601
980.0,378,57078.587813
1610.0,504,57095.412805
1410.0,1025,57129.551009
1480.0,921,57160.19872
1350.0,516,57178.534854
1930.0,707,57201.406678
1080.0,330,57212.166413
1490.0,1140,57251.185577
880.0,341,57262.338889
1850.0,607,57282.63827
1490.0,678,57304.417027
1580.0,903,57334.790402
1300.0,1458,57385.37072
1180.0,356,57397.228198
1340.0,1741,57457.488383
1660.0,964,57489.8586
1130.0,420,57504.324175
1430.0,661,57526.134523
1730.0,833,57555.136082
2130.0,935,57587.603973
1180.0,534,57603.99439
1950.0,1139,57644.328081
1640.0,1038,57679.131081
1680.0,1308,57722.526323
980.0,405,57736.633128
1700.0,736,57762.88946
1630.0,990,57796.964355
1420.0,549,57815.45122
1450.0,316,57826.520687
1080.0,485,57843.071205
1130.0,491,57859.965031
980.0,361,57872.194381
1300.0,1208,57913.290025
780.0,377,57926.360374
2080.0,1282,57970.105913
1760.0,936,58000.070433
1590.0,1142,58038.829451
1360.0,725,58063.766367
1080.0,372,58075.998552
1950.0,647,58098.421393
1180.0,392,58112.058382
1680.0,1057,58148.638043
1730.0,863,58178.798643
1320.0,542,58197.627519
1280.0,1361,58242.660205
980.0,439,58257.6934
3220.0,1611,58316.586282
680.0,278,58325.64022
680.0,404,58339.433445
1830.0,837,58370.41911
2500.0,1078,58407.082451
1600.0,1078,58445.347558
1740.0,799,58472.910028
1030.0,395,58486.111988
1560.0,868,58517.702409
1350.0,1096,58555.580208
1300.0,562,58575.032717
1080.0,481,58591.064352
1680.0,727,58616.418304
1080.0,623,58638.073201
1640.0,762,58665.447892
1780.0,927,58695.064211
1300.0,1002,58727.835303
1280.0,988,58761.403908
1640.0,604,58780.428735
1500.0,860,58810.224649
1180.0,417,58824.14527
1520.0,1643,58879.762051
1780.0,1144,58919.156512
630.0,341,58931.127808
1690.0,751,58957.876257
1370.0,437,58972.853123
1300.0,593,58992.971047
1960.0,791,59020.351251
880.0,307,59030.317009
980.0,328,59041.36708
1300.0,654,59064.284056
1520.0,1254,59108.845323
2250.0,974,59142.93336
2080.0,628,59164.504057
1280.0,806,59191.337011
1300.0,865,59220.332042
1640.0,894,59250.784688
1640.0,772,59277.34972
530.0,442,59291.43721
1680.0,788,59318.666819
1520.0,674,59342.091601
1350.0,983,59375.956336
1390.0,591,59396.50836
1300.0,776,59423.12257
1690.0,643,59444.78351
1320.0,624,59465.229299
980.0,282,59474.641818
1610.0,1199,59515.069049
1850.0,706,59538.917791
1710.0,501,59555.182845
1300.0,640,59576.548425
1590.0,543,59596.240214
1420.0,439,59609.718875
980.0,288,59619.114602
1300.0,645,59641.268244
680.0,329,59653.149174
1910.0,600,59672.064512
1540.0,656,59693.60245
1630.0,731,59719.326956
1980.0,563,59739.044874
1030.0,314,59749.885283
980.0,643,59771.100452
1300.0,627,59792.684749
1300.0,890,59820.95859
1890.0,688,59846.078883
1560.0,1238,59888.850107
1780.0,974,59920.748023
1300.0,499,59937.941316
980.0,499,59955.268728
1650.0,814,59984.463343
1030.0,248,59992.074602
1520.0,861,60020.895221
1350.0,948,60054.820282
980.0,378,60066.872737
1490.0,520,60083.772936
1130.0,572,60103.812684
1420.0,487,60120.755469
1420.0,731,60144.558568
1930.0,810,60171.848935
980.0,378,60184.16709
1830.0,1584,60237.079474
930.0,537,60255.163511
1030.0,515,60273.359426
1540.0,1147,60313.231255
1300.0,650,60334.954544
1080.0,571,60353.950567
680.0,421,60368.380352
880.0,287,60378.0137
1030.0,434,60392.827068
1180.0,652,60415.230636
2030.0,581,60435.507093
1030.0,457,60451.350499
1300.0,692,60475.291116
1280.0,1045,60510.859398
1300.0,569,60530.180175
1180.0,487,60547.072775
780.0,323,60557.572694
1030.0,426,60571.874487
630.0,285,60583.438204
2300.0,1031,60617.797074
1730.0,717,60642.271876
1360.0,849,60673.663383
2250.0,695,60696.726882
1710.0,1071,60733.541615
1410.0,715,60758.622762
1420.0,771,60786.246184
1350.0,420,60800.531015
1790.0,1182,60842.105627
2000.0,1270,60886.606847
1300.0,879,60917.344849
1280.0,639,60939.217034
2200.0,724,60964.251204
2550.0,1053,61000.086207
1540.0,729,61025.07446
1690.0,668,61047.493941
1480.0,908,61079.403174
830.0,354,61091.113225
1520.0,1095,61128.476685
980.0,279,61137.922407
880.0,548,61154.805971
980.0,306,61165.556983
1180.0,624,61187.473926
1520.0,817,61215.021093
1280.0,517,61232.047726
980.0,283,61240.886577
1280.0,780,61266.238571
1580.0,574,61286.191487
1080.0,490,61303.233891
1640.0,633,61324.66524
1080.0,410,61338.010284
1540.0,801,61365.718497
2200.0,995,61401.093011
2150.0,1272,61443.449194
930.0,367,61456.160849
1080.0,778,61481.785078
2600.0,1459,61533.11218
2200.0,753,61559.75429
1680.0,943,61589.362147
1300.0,730,61614.130682
1660.0,675,61638.258521
1460.0,900,61668.750835
1980.0,1006,61702.357237
1540.0,959,61734.604433
1560.0,767,61759.670638
930.0,687,61782.65006
1180.0,476,61798.64485
1370.0,801,61826.670207
1660.0,756,61853.365778
1180.0,522,61871.260605
1300.0,571,61888.143408
880.0,527,61906.266113
930.0,522,61924.111125
1510.0,535,61941.292577
1830.0,684,61964.05195
1080.0,339,61975.907039
1950.0,1476,62025.76632
1480.0,984,62062.23809
1320.0,546,62081.938999
1490.0,1067,62115.822599
1180.0,535,62134.745095
1320.0,1196,62173.946843
1440.0,653,62196.105998
1440.0,643,62217.453785
1880.0,787,62243.744036
780.0,427,62258.153173
1830.0,1280,62302.02082
1860.0,841,62331.925064
1300.0,545,62351.306209
1880.0,961,62384.390927
730.0,530,62401.817746
1730.0,688,62425.691101
1470.0,703,62450.460741
1700.0,898,62481.422561
1280.0,485,62497.009652
1280.0,960,62531.563922
1300.0,1118,62571.456507
1180.0,386,62584.199379
1350.0,1090,62623.109684
1460.0,1099,62661.249296
1460.0,636,62683.465863
1080.0,577,62702.934296
880.0,595,62722.585429
3220.0,1926,62787.480872
1610.0,1094,62827.944201
1460.0,1067,62866.703256
3200.0,1550,62922.238465
1560.0,1042,62960.253869
3240.0,1345,63006.446389
1320.0,848,63036.773323
1180.0,826,63066.052
1860.0,711,63089.377673
1880.0,1075,63127.283812
1680.0,539,63145.306803
1680.0,705,63170.607377
1340.0,588,63189.250368
1180.0,777,63215.829152
1030.0,362,63229.652529
1350.0,854,63257.589172
780.0,279,63268.035524
1080.0,388,63280.437973
1590.0,480,63297.246454
1390.0,652,63319.557839
1610.0,1455,63366.504007
2150.0,1052,63403.322147
1080.0,413,63418.129139
1950.0,695,63442.329418
1520.0,1166,63483.403074
1180.0,383,63496.994026
1280.0,806,63523.591557
1560.0,513,63542.091577
1280.0,660,63564.857488
1630.0,936,63596.05363
1840.0,713,63621.001245
2150.0,718,63645.048787
1510.0,509,63661.819999
1180.0,302,63671.928731
2300.0,1037,63707.733925
1560.0,877,63736.206542
830.0,245,63743.368783
1660.0,760,63767.115139
1980.0,482,63785.012957
1080.0,379,63797.129112
1080.0,287,63806.479269
1810.0,684,63829.761143
1180.0,749,63854.866611
1900.0,1376,63902.329237
1640.0,758,63927.831853
1910.0,520,63945.364877
3240.0,1265,63989.943014
1570.0,603,64009.445873
1510.0,487,64025.860193
880.0,333,64037.765243
1570.0,717,64062.699794
1180.0,424,64078.09519
980.0,313,64088.537422
1540.0,740,64113.547849
1880.0,693,64137.5665
1180.0,610,64157.415962
1730.0,725,64182.596792
1460.0,805,64209.55333
980.0,444,64224.781507
980.0,330,64234.590815
1510.0,929,64268.091955
1600.0,559,64286.737626
1080.0,519,64304.19224
1080.0,433,64319.499485
2150.0,1091,64357.352453
1580.0,666,64379.336963
1530.0,630,64400.675963
1780.0,1133,64440.330976
1470.0,706,64464.723141
1080.0,417,64477.253671
960.0,520,64494.266094
1080.0,322,64504.745865
1570.0,526,64522.717755
1180.0,573,64542.943143
2100.0,992,64575.152714
1030.0,374,64588.543493
930.0,347,64600.228982
1300.0,1001,64634.340331
1490.0,619,64654.936282
980.0,360,64667.673641
2300.0,1021,64702.485638
1080.0,383,64714.895322
1280.0,1025,64751.37669
1180.0,766,64775.768795
1630.0,877,64804.22514
1510.0,886,64835.620107
2200.0,1196,64877.13376
1300.0,871,64907.91259
1700.0,753,64933.535117
1340.0,923,64967.168241
2100.0,726,64992.160413
1180.0,506,65009.344346
1300.0,680,65032.429024
1800.0,868,65062.55614
1460.0,985,65096.964135
1180.0,338,65108.185897
1300.0,444,65122.410042
2230.0,1625,65177.313981
1950.0,650,65200.180883
730.0,296,65209.938432
1300.0,519,65228.754412
1560.0,577,65247.48513
1180.0,506,65265.444999
730.0,429,65279.83212
1180.0,631,65302.693869
980.0,596,65322.328779
1470.0,613,65341.240109
1030.0,332,65353.502059
2700.0,973,65386.881586
1390.0,598,65408.33444
1730.0,693,65431.326689
1660.0,417,65445.220298
1300.0,672,65468.196328
1080.0,326,65478.865208
1300.0,524,65495.963635
1380.0,661,65519.019716
1560.0,940,65551.735482
930.0,321,65562.146577
930.0,341,65572.51807
1370.0,355,65584.785859
1370.0,937,65615.93532
880.0,412,65629.796031
1080.0,689,65652.712783
1520.0,735,65677.868751
1980.0,832,65705.617817
1080.0,483,65722.638425
1390.0,1401,65772.258291
1410.0,479,65788.751276
1180.0,991,65821.899153
1030.0,284,65830.800424
1540.0,615,65851.39074
1180.0,813,65880.352066
1920.0,1111,65920.761226
980.0,426,65934.013318
1590.0,625,65955.613003
1440.0,633,65976.286545
1660.0,712,66002.080974
930.0,287,66011.754164
1180.0,615,66031.754289
1180.0,441,66047.806868
880.0,409,66061.164595
1860.0,967,66093.976414
1300.0,349,66104.850926
1880.0,882,66135.874366
1710.0,447,66151.884385
880.0,369,66164.190727
1430.0,776,66189.91821
1180.0,599,66209.237348
1370.0,1009,66242.404747
1180.0,615,66262.303787
1080.0,583,66283.80402
1460.0,510,66302.154392
930.0,366,66314.500598
1530.0,1459,66363.964244
780.0,235,66371.658172
1590.0,802,66399.090051
980.0,518,66417.959391
1350.0,1457,66470.515379
1180.0,386,66484.034652
780.0,281,66493.0163
1530.0,1137,66531.030497
880.0,478,66547.346233
1350.0,769,66573.858314
1560.0,1277,66614.901767
1410.0,419,66630.663837
2080.0,511,66648.931148
1320.0,790,66674.985493
1300.0,525,66692.324056
1280.0,671,66715.729524
1080.0,535,66733.319355
2300.0,905,66764.535254
1850.0,730,66789.096358
2000.0,753,66816.345612
1860.0,672,66841.121083
2350.0,798,66870.486303
1130.0,383,66882.890488
730.0,292,66892.607368
1370.0,1056,66928.385534
1590.0,588,66949.036751
1280.0,291,66959.362848
1180.0,484,66975.731638
1980.0,932,67008.79442
1800.0,1667,67067.90865
1300.0,579,67088.014568
2600.0,800,67115.622492
1180.0,292,67126.16899
2650.0,1398,67177.388684
1760.0,637,67199.388348
1620.0,778,67225.278697
1510.0,867,67256.400345
980.0,377,67269.397802
1880.0,870,67297.826886
630.0,420,67311.543658
1350.0,419,67326.147911
1760.0,548,67345.643977
1280.0,853,67375.774851
1080.0,512,67392.408731
1320.0,1084,67427.611658
1490.0,735,67452.438172
1300.0,600,67473.525743
1350.0,596,67493.692657
1790.0,653,67514.892537
2250.0,1353,67561.799361
2000.0,876,67590.069052
360.0,244,67597.707315
780.0,474,67613.982928
1180.0,633,67636.975122
1850.0,653,67659.445671
1830.0,947,67693.246923
1300.0,565,67711.546902
2100.0,605,67731.91284
2250.0,697,67756.839373
2130.0,944,67788.056309
1320.0,602,67808.255042
1300.0,508,67825.717321
980.0,686,67849.175402
1080.0,310,67860.367774
930.0,379,67873.805732
1880.0,870,67903.887298
1080.0,585,67924.517419
1760.0,674,67948.495535
1300.0,617,67970.450027
1440.0,702,67994.342977
2150.0,1040,68031.257447
1630.0,1085,68066.877289
1390.0,1147,68106.196675
1280.0,905,68137.193286
1350.0,572,68155.204545
1830.0,416,68169.64406
1370.0,372,68182.582846
1300.0,682,68205.96475
1730.0,967,68238.986648
2800.0,1029,68274.984581
1320.0,667,68295.321487
1490.0,761,68320.594724
1180.0,515,68338.365882
2030.0,925,68369.654541
930.0,430,68383.262139
2300.0,968,68416.877871
1280.0,421,68430.857095
780.0,316,68441.178739
1350.0,861,68470.799812
2300.0,1143,68510.605722
1300.0,777,68537.658725
1370.0,461,68553.522449
1300.0,518,68571.552821
2150.0,947,68603.912977
1490.0,1085,68639.742988
1390.0,562,68659.37205
2100.0,1368,68706.93137
1610.0,460,68722.390175
980.0,362,68735.012682
2280.0,1247,68779.32638
2100.0,752,68805.037402
2550.0,1125,68844.627664
1320.0,531,68862.953186
1810.0,1018,68897.112844
1440.0,1146,68936.935546
1910.0,1128,68977.377226
1490.0,713,69002.026877
1630.0,1228,69044.957077
880.0,377,69056.959095
1180.0,404,69071.414896
1680.0,847,69099.95302
1760.0,695,69124.705383
1280.0,648,69147.187951
1180.0,390,69160.014539
1280.0,389,69172.916625
1950.0,655,69194.327904
1860.0,944,69228.467494
1080.0,481,69244.284629
1340.0,684,69267.843561
1410.0,976,69301.751289
1300.0,1043,69337.87621
1630.0,608,69359.324841
1280.0,802,69386.167427
1580.0,1524,69437.889056
2030.0,976,69472.156003
1730.0,914,69502.488503
880.0,410,69516.028743
1460.0,1253,69559.808143
2600.0,716,69585.20796
1540.0,496,69602.004198
2250.0,824,69630.184808
880.0,412,69644.630087
1080.0,366,69656.154728
1560.0,795,69682.12198
2110.0,1148,69721.474026
2350.0,1053,69757.611311
630.0,287,69767.321844
1510.0,890,69799.381755
780.0,393,69812.426644
1800.0,1125,69851.584078
2150.0,732,69876.468808
1300.0,1242,69918.095879
1350.0,396,69932.158067
1710.0,689,69955.330676
2650.0,1598,70011.221191
1780.0,1002,70044.132548
1560.0,877,70074.85369
1570.0,502,70092.35666
1400.0,1103,70132.060538
2050.0,901,70163.427954
1660.0,913,70194.964418
1490.0,757,70221.851397
1630.0,522,70241.092142
1810.0,919,70272.94243
1730.0,808,70300.849669
2550.0,880,70331.082562
1180.0,376,70343.287134
1410.0,1012,70378.355698
1610.0,1216,70420.388113
1080.0,370,70432.638891
1930.0,984,70468.945822
1180.0,421,70483.722882
1180.0,620,70506.518019
1620.0,1108,70544.873351
1030.0,580,70565.637062
1950.0,854,70594.119418
1180.0,332,70606.294271
1900.0,641,70628.543634
2230.0,717,70651.613935
2200.0,1002,70687.994244
1880.0,683,70710.489777
1320.0,939,70743.167306
1510.0,1239,70786.420443
2000.0,889,70817.173141
1380.0,496,70835.730617
3100.0,1279,70881.415449
1320.0,542,70901.762348
1390.0,486,70918.858845
1560.0,885,70949.0487
1830.0,810,70977.115149
1030.0,377,70989.056354
1950.0,672,71011.91193
1080.0,546,71030.916256
1180.0,470,71046.744631
1750.0,808,71075.891178
1320.0,658,71097.704861
780.0,511,71114.649003
1880.0,400,71127.163392
3220.0,2832,71226.747349
1660.0,2036,71296.669971
1320.0,1045,71331.944808
1030.0,375,71344.343632
1960.0,1098,71381.958622
2050.0,855,71411.820413
1880.0,887,71440.735942
1540.0,1190,71481.396218
1930.0,909,71511.831383
1180.0,498,71528.089044
1750.0,608,71549.264421
1300.0,2025,71619.520132
1080.0,361,71630.638089
1620.0,1248,71673.711922
1880.0,1035,71709.799822
1810.0,867,71738.632044
2130.0,1010,71773.369115
1810.0,830,71803.346923
1730.0,485,71820.499346
1660.0,598,71840.458669
1810.0,1453,71891.573384
2030.0,1095,71928.327295
1760.0,674,71952.116693
1350.0,639,71974.521368
1280.0,502,71989.371653
1790.0,513,72006.057725
1430.0,1177,72046.152612
1490.0,1184,72086.757307
2100.0,851,72116.566974
1280.0,635,72138.386974
1930.0,851,72168.286845
1350.0,1200,72209.53563
2180.0,713,72232.909611
1470.0,536,72251.713686
2100.0,1091,72291.856967
2200.0,704,72316.304826
1730.0,799,72343.825588
1320.0,457,72358.926813
1610.0,675,72381.566882
930.0,428,72396.471372
1780.0,1026,72432.009931
1180.0,553,72450.155108
1880.0,1002,72484.380956
1350.0,900,72514.614345
1370.0,732,72540.732174
1300.0,560,72559.543078
1580.0,857,72589.533755
1400.0,1029,72628.609608
930.0,285,72638.565699
1130.0,507,72655.187017
2050.0,971,72687.924256
1410.0,715,72712.440346
1440.0,553,72731.273623
1300.0,696,72754.779854
2010.0,552,72772.240259
1610.0,534,72790.417918
1800.0,553,72810.051994
1030.0,617,72830.312316
1910.0,660,72852.880191
2050.0,766,72878.382526
1490.0,684,72903.359373
1180.0,406,72916.422124
1300.0,620,72938.310669
1300.0,620,72960.179255
3000.0,1318,73005.511599
1570.0,764,73032.669694
1080.0,563,73053.398439
1490.0,710,73077.702334
1300.0,1326,73125.240421
1760.0,717,73150.190843
2300.0,945,73183.508077
2350.0,1135,73222.897265
680.0,424,73236.300979
1900.0,1312,73283.897914
1350.0,809,73312.716575
1280.0,356,73324.778792
1300.0,751,73352.293463
1300.0,759,73379.854363
1710.0,1029,73416.111013
930.0,361,73427.858943
1510.0,560,73448.197992
1280.0,808,73477.172738
1180.0,553,73496.379912
2500.0,743,73521.152655
1580.0,1175,73564.242698
3220.0,1394,73612.052508
1280.0,683,73634.855532
1500.0,866,73664.903446
1810.0,596,73685.168505
3100.0,1578,73739.28045
1450.0,778,73767.670086
1710.0,884,73797.076231
1950.0,763,73821.590327
1180.0,975,73856.302398
1470.0,610,73877.797374
1660.0,1031,73913.741215
2000.0,819,73941.894871
2130.0,1072,73979.283311
1780.0,906,74011.277215
1080.0,637,74033.672572
2080.0,792,74060.856025
1460.0,731,74085.566196
980.0,423,74099.630015
2200.0,1270,74143.62157
1900.0,1073,74180.124449
2100.0,1257,74222.190086
2050.0,1199,74264.028831
1080.0,345,74275.238837
1780.0,1047,74312.669073
1760.0,1141,74353.112876
1530.0,789,74380.881307
1180.0,541,74400.203699
2130.0,804,74428.343445
1480.0,724,74453.618718
1080.0,455,74469.462556
1510.0,618,74491.370799
980.0,337,74503.233485
1300.0,909,74535.008279
2350.0,832,74563.604493
1030.0,322,74574.628806
1530.0,697,74599.029106
1950.0,982,74633.035398
1680.0,1586,74688.349126
1620.0,669,74711.600187
1900.0,737,74736.909801
1560.0,1332,74783.181828
1420.0,478,74799.605584
1880.0,1041,74834.652495
1510.0,926,74866.995205
1280.0,978,74901.274482
1370.0,556,74919.014263
1660.0,612,74939.963077
1470.0,712,74963.520874
2380.0,833,74992.189843
1730.0,761,75018.600462
1390.0,489,75033.577785
1440.0,537,75051.681263
1370.0,1074,75086.782449
2650.0,944,75118.317261
1370.0,898,75150.506382
1460.0,549,75169.506737
1300.0,672,75193.674126
1320.0,772,75219.615932
1080.0,470,75235.368629
1180.0,482,75252.257253
1350.0,1056,75287.969334
980.0,349,75300.070561
1280.0,728,75326.973513
2200.0,878,75359.03268
830.0,304,75367.676729
1760.0,951,75398.594045
1900.0,765,75425.767634
980.0,632,75448.498089
1440.0,812,75476.948847
980.0,436,75493.216699
1320.0,917,75525.621664
980.0,315,75535.804662
880.0,523,75552.373485
2450.0,1138,75592.509307
1080.0,366,75604.823743
1980.0,1706,75661.660857
1880.0,821,75688.737764
1630.0,1246,75734.027516
2450.0,676,75757.464258
1610.0,611,75779.09458
1420.0,643,75800.812385
1300.0,894,75830.143651
1280.0,461,75845.696168
1490.0,1046,75881.213826
1510.0,1400,75931.565768
1320.0,488,75948.027194
2230.0,962,75980.686668
1280.0,599,76003.000249
1930.0,1123,76040.193836
1950.0,1278,76084.362283
730.0,312,76093.692743
1780.0,849,76122.015586
980.0,275,76132.434904
2350.0,796,76158.811986
1030.0,449,76173.939818
1390.0,549,76191.99947
2500.0,946,76225.140059
1180.0,379,76237.296108
1300.0,854,76266.619421
1850.0,570,76286.766328
1080.0,583,76307.105238
1590.0,1096,76345.107231
1540.0,445,76359.076429
1350.0,750,76386.081593
1830.0,808,76412.454805
1340.0,1655,76467.685868
1420.0,551,76485.433447
1520.0,761,76511.801358
1490.0,663,76533.22963
980.0,324,76544.559602
1280.0,967,76578.241608
1960.0,924,76610.120321
1370.0,678,76633.618884
1850.0,849,76661.372063
1480.0,1157,76701.481538
1030.0,585,76721.12603
1180.0,464,76735.922597
780.0,272,76744.818703
2130.0,758,76770.196297
980.0,476,76786.014142
980.0,613,76808.730926
2100.0,699,76832.325964
1490.0,521,76849.692042
2200.0,891,76880.764011
780.0,425,76895.041795
2100.0,804,76921.377422
1530.0,656,76944.315326
1280.0,718,76969.411706
880.0,559,76987.848446
1950.0,652,77011.906747
1280.0,376,77024.653736
1300.0,365,77037.482865
1800.0,997,77070.967101
2250.0,1012,77105.601183
980.0,365,77118.934819
1080.0,488,77136.674361
1450.0,401,77149.283953
2600.0,720,77174.381285
1540.0,909,77205.709752
1640.0,788,77233.524131
1180.0,382,77245.9336
1810.0,1419,77294.375229
1300.0,432,77308.217635
2100.0,912,77339.037978
1080.0,541,77357.910355
1750.0,978,77390.73864
1300.0,547,77408.931478
1550.0,560,77427.402756
980.0,347,77438.805722
1180.0,426,77452.951303
1280.0,582,77473.174652
1180.0,718,77497.5749
1490.0,558,77516.554552
2000.0,893,77547.329818
1320.0,616,77569.106991
680.0,287,77578.77227
2150.0,564,77597.467776
1080.0,313,77608.200626
1830.0,1018,77642.843238
2130.0,670,77665.815896
1780.0,874,77693.300201
1760.0,739,77718.386658
1810.0,958,77752.207695
1080.0,389,77765.899638
2400.0,832,77797.031791
1300.0,1017,77830.616674
1390.0,783,77858.567577
1300.0,761,77886.895241
1340.0,637,77908.628511
1470.0,1016,77946.893541
2450.0,931,77979.78822
1280.0,960,78012.218356
1390.0,1147,78052.008276
1030.0,472,78065.900785
930.0,408,78079.865344
1320.0,534,78098.692702
1700.0,1035,78135.008503
1540.0,1273,78179.447708
1660.0,735,78206.472235
1390.0,867,78236.59567
1180.0,608,78257.213878
1370.0,1045,78293.418369
1030.0,449,78309.5348
1280.0,827,78335.949238
1490.0,623,78356.283644
1880.0,1050,78392.255967
1300.0,711,78417.494039
2030.0,818,78445.520652
1080.0,276,78453.969283
980.0,370,78467.228842
1510.0,785,78491.920456
1350.0,844,78520.55748
2300.0,1737,78581.14509
1180.0,422,78594.812092
780.0,450,78610.08603
3290.0,1585,78664.469557
1340.0,549,78682.404382
2130.0,797,78709.327907
1680.0,1267,78753.451571
1680.0,566,78772.298968
1030.0,320,78783.850881
1180.0,809,78810.438724
1180.0,733,78836.367089
1630.0,829,78864.548226
980.0,386,78877.673555
1810.0,992,78911.474832
1180.0,517,78929.274278
2550.0,1025,78964.781062
980.0,339,78976.024999
930.0,457,78991.252341
930.0,351,79004.332113
2680.0,1067,79043.273699
1640.0,625,79064.847016
1080.0,547,79082.58382
780.0,247,79091.359767
1680.0,953,79122.74089
1530.0,600,79142.507
1130.0,329,79154.648802
1300.0,653,79177.472534
1740.0,788,79204.77443
1440.0,881,79235.410519
1450.0,735,79260.617645
2180.0,938,79293.459635
1780.0,860,79322.935167
1280.0,590,79342.880733
2280.0,1043,79380.364373
2010.0,755,79406.631868
1540.0,1193,79447.37731
1730.0,715,79472.566157
1980.0,1277,79517.645997
1300.0,826,79546.700228
930.0,426,79560.979647
1560.0,451,79575.375886
1180.0,463,79590.953421
2550.0,1142,79630.811819
2150.0,1142,79670.60939
1550.0,408,79684.860596
2300.0,763,79711.455963
1470.0,526,79729.15324
1370.0,1050,79764.708719
1640.0,634,79787.064959
2300.0,924,79818.723024
1390.0,807,79847.619951
1710.0,1362,79895.345906
1650.0,786,79920.568786
1580.0,745,79947.328931
2650.0,873,79977.038679
1280.0,550,79995.43508
1850.0,699,80020.552008
1300.0,718,80044.16202
1610.0,1333,80089.262127
780.0,335,80101.133561
2060.0,951,80133.401176
1470.0,1104,80171.121395
2450.0,954,80203.677781
2650.0,827,80231.473147
1080.0,375,80242.657561
1350.0,502,80260.208815
1810.0,934,80291.696523
1300.0,1085,80327.833455
1610.0,755,80351.660759
1780.0,690,80375.581792
2100.0,944,80407.698843
2250.0,705,80432.059648
1280.0,416,80447.79496
1180.0,649,80469.511079
1880.0,899,80498.684742
1660.0,714,80522.96487
780.0,332,80534.627143
880.0,443,80548.465084
2350.0,610,80569.894045
1360.0,591,80589.689876
1440.0,558,80608.868531
930.0,408,80621.836792
1560.0,941,80655.230008
1830.0,1087,80693.845951
1280.0,532,80712.480063
1370.0,574,80732.084043
2110.0,1129,80769.845013
1300.0,1354,80817.991161
2100.0,686,80840.779525
3200.0,1501,80892.185574
980.0,406,80906.596237
2050.0,1237,80947.958971
1850.0,1120,80985.880114
1080.0,381,80998.299819
1440.0,813,81025.274731
1300.0,808,81054.389619
1300.0,761,81081.544868
1280.0,501,81098.026626
2230.0,843,81127.272893
1080.0,413,81140.958483
1430.0,825,81167.618783
1460.0,696,81190.444128
1550.0,668,81212.846733
3000.0,1590,81269.31208
830.0,366,81281.626619
1080.0,681,81303.299827
1480.0,740,81328.786457
1350.0,788,81354.891891
1360.0,739,81379.588603
1180.0,433,81394.936229
1180.0,686,81419.750474
1580.0,1250,81463.448951
980.0,285,81473.860785
2850.0,1069,81511.349306
1560.0,661,81535.736524
980.0,583,81555.463772
1180.0,564,81574.576479
1300.0,458,81591.200692
1830.0,967,81627.294737
3200.0,1520,81678.516287
1800.0,1266,81721.840349
1390.0,688,81745.356383
1280.0,607,81765.712766
1080.0,330,81777.461456
1510.0,1142,81818.647937
1690.0,956,81851.60955
830.0,365,81863.418338
3220.0,1587,81917.592823
1280.0,938,81950.129095
1280.0,940,81981.856034
1880.0,720,82006.606654
1950.0,603,82027.230716
1660.0,813,82054.797266
830.0,410,82067.473586
1180.0,665,82091.916156
1560.0,717,82116.589934
1490.0,395,82130.009122
2150.0,1111,82166.0095
1080.0,328,82176.784319
1410.0,988,82210.621445
2200.0,1408,82257.400036
1740.0,1021,82289.04074
2750.0,1391,82337.743021
1180.0,839,82367.34849
2150.0,819,82393.363487
1280.0,525,82410.873552
1370.0,720,82434.71074
1030.0,316,82445.612421
1080.0,494,82463.515654
1710.0,926,82495.628363
930.0,379,82508.239225
1180.0,798,82536.576456
1980.0,630,82558.017821
830.0,301,82568.137111
3870.0,2348,82647.154738
1080.0,343,82657.86079
2350.0,765,82681.482233
2200.0,865,82711.101703
1470.0,597,82732.684105
1180.0,653,82754.603322
1700.0,509,82771.145338
1390.0,783,82797.842465
1630.0,798,82825.039233
1810.0,997,82858.365993
1340.0,759,82884.79892
2400.0,1350,82930.970312
1760.0,1077,82966.689647
930.0,342,82978.75454
1610.0,689,83001.152868
2530.0,1224,83043.662334
1340.0,466,83059.392354
1460.0,921,83094.743032
1660.0,900,83127.408584
2450.0,783,83155.695617
1080.0,370,83168.656566
2150.0,942,83199.954037
1610.0,987,83233.712544
1350.0,1309,83277.227085
1320.0,739,83302.767092
2350.0,887,83334.82391
2450.0,939,83366.038923
1490.0,620,83386.739223
1900.0,782,83412.894344
1690.0,542,83430.723364
1030.0,528,83448.324283
2400.0,824,83475.566519
2000.0,654,83497.641217
980.0,455,83513.236335
730.0,422,83528.048749
1850.0,1070,83564.378731
980.0,449,83579.396132
580.0,417,83592.255459
1510.0,759,83618.035116
2400.0,1180,83658.99958
1700.0,725,83683.688768
2150.0,1056,83721.06653
1340.0,827,83749.313163
2700.0,1099,83787.343777
1880.0,1113,83824.496094
1340.0,939,83856.274609
1980.0,793,83883.622733
1660.0,1380,83931.816854
2450.0,1038,83969.399953
1710.0,757,83995.066083
1580.0,745,84018.704917
1440.0,1047,84053.625122
1280.0,992,84087.925563
1660.0,1265,84131.072834
1580.0,729,84157.721381
1750.0,625,84178.439082
1320.0,508,84195.142298
1830.0,761,84221.743521
1750.0,1670,84277.268401
3050.0,1691,84336.867746
980.0,329,84346.27237
830.0,355,84358.4532
1950.0,771,84385.585425
1180.0,464,84400.163014
1620.0,900,84430.164769
1580.0,613,84451.469741
1660.0,574,84470.422149
2650.0,1023,84504.505399
1440.0,584,84524.02738
1490.0,502,84540.010553
630.0,394,84553.459453
1180.0,464,84569.670659
1470.0,684,84593.858024
2450.0,1185,84632.937274
2060.0,1162,84673.645124
1600.0,1423,84724.456909
1510.0,846,84752.099715
1740.0,951,84784.376736
1280.0,430,84799.412826
1280.0,897,84831.54762
1950.0,1657,84888.04586
930.0,465,84904.578628
1660.0,934,84936.629067
930.0,365,84949.968922
1300.0,622,84970.877726
1280.0,1059,85006.710589
930.0,376,85019.236309
1080.0,849,85048.07118
2500.0,685,85072.019783
1180.0,507,85088.959304
2080.0,776,85115.417943
1490.0,753,85142.475321
1460.0,513,85160.837856
2200.0,869,85191.586413
1680.0,813,85217.870086
2550.0,913,85249.06432
780.0,361,85262.533111
1400.0,833,85290.628685
2130.0,900,85321.092007
1660.0,1546,85373.189263
2080.0,583,85394.369149
1490.0,1173,85433.497211
1460.0,993,85466.842315
1950.0,1152,85506.107184
2150.0,762,85531.582373
1580.0,884,85562.633129
1580.0,737,85588.353783
1400.0,501,85606.360309
2330.0,1375,85653.323949
1950.0,914,85684.629931
2300.0,992,85719.906543
1850.0,947,85752.018715
2100.0,743,85777.434347
1950.0,1163,85817.440491
1610.0,732,85842.774183
1510.0,682,85867.56854
2700.0,749,85892.983239
1180.0,474,85908.981166
1660.0,820,85937.465379
2130.0,1123,85974.404349
1030.0,405,85987.923579
1980.0,796,86014.827553
2280.0,640,86035.301666
1080.0,418,86050.015372
2200.0,843,86080.168085
1300.0,567,86099.02066
2000.0,1017,86134.121997
1830.0,799,86161.726944
3000.0,1516,86214.401437
2080.0,847,86244.509046
1280.0,1272,86287.552222
1630.0,661,86309.616051
2100.0,1097,86347.353712
2450.0,760,86374.859158
1560.0,790,86401.426387
1660.0,636,86422.600911
1450.0,890,86451.391595
1180.0,621,86473.744462
1550.0,643,86495.381686
1320.0,588,86515.552307
1780.0,736,86540.742249
2650.0,1430,86590.98399
2950.0,1496,86638.899297
1900.0,602,86659.79104
1450.0,662,86682.914487
1980.0,953,86714.313665
1280.0,387,86727.055289
880.0,415,86740.089599
1470.0,422,86754.562335
1470.0,939,86785.073226
1710.0,1141,86822.890308
1460.0,584,86843.344741
1320.0,903,86873.618721
1300.0,543,86891.156791
1350.0,635,86913.807989
1080.0,377,86925.942823
1960.0,644,86947.617731
2250.0,894,86977.98338
1640.0,730,87003.700025
1180.0,381,87016.286966
2350.0,1618,87074.077349
1980.0,1178,87112.898973
1690.0,931,87144.08674
1560.0,1295,87187.684663
1030.0,457,87202.67626
1180.0,590,87222.545009
1540.0,739,87248.57692
1640.0,670,87271.139091
2150.0,1005,87308.086747
1440.0,1192,87351.942383
1180.0,623,87374.261436
1980.0,584,87394.404521
1280.0,962,87430.916914
1590.0,745,87457.582974
1370.0,1125,87498.527145
1800.0,935,87533.839568
2550.0,1282,87582.441663
1980.0,975,87621.01762
1520.0,816,87651.538857
1030.0,380,87666.400461
2600.0,1261,87716.972306
1080.0,313,87728.903873
2180.0,1054,87767.65059
1860.0,960,87805.312153
1470.0,783,87834.020152
1300.0,704,87860.747559
1300.0,886,87894.934081
1680.0,807,87925.016621
1560.0,1151,87969.582975
3580.0,1622,88032.943345
1880.0,703,88060.41579
1520.0,942,88096.862724
1280.0,811,88128.10042
1370.0,746,88157.66793
1880.0,957,88195.081509
1640.0,983,88233.816748
1830.0,1075,88275.823875
1080.0,465,88292.246137
2350.0,719,88320.606624
1560.0,1147,88363.330433
2180.0,818,88395.336646
2050.0,537,88416.007177
2100.0,891,88451.618949
930.0,431,88468.836853
2200.0,1151,88512.590801
1640.0,583,88535.044705
1760.0,552,88554.872246
1460.0,798,88585.253429
1420.0,724,88612.882579
1540.0,1324,88665.017998
3970.0,1395,88718.034145
1750.0,935,88753.599936
1930.0,1588,88815.160687
1350.0,1064,88854.36778
1950.0,920,88888.404297
1410.0,1070,88929.008253
1280.0,731,88956.983185
3100.0,2266,89045.317412
2000.0,1350,89096.215671
1800.0,1071,89136.838028
1660.0,700,89162.960915
3460.0,1601,89225.629977
1850.0,733,89253.737506
1300.0,958,89290.388307
2110.0,723,89318.982264
2900.0,1126,89363.236584
1660.0,1317,89413.274225
1750.0,1187,89458.186286
2100.0,1492,89516.556127
1830.0,1056,89558.95111
1080.0,465,89576.520818
1730.0,620,89599.78719
1910.0,847,89633.613329
1700.0,837,89666.004441
3000.0,941,89702.433077
2650.0,1102,89745.124123
2500.0,871,89777.924166
2450.0,1005,89816.954459
2300.0,630,89840.578836
1180.0,719,89868.6894
1620.0,490,89888.602789
2550.0,1124,89934.466384
1320.0,740,89963.321251
2030.0,851,89999.012494
2380.0,847,90032.285519
2550.0,1165,90078.064611
1390.0,1383,90136.106696
2100.0,779,90167.057605
2850.0,951,90207.580171
2200.0,1478,90270.849733
1830.0,1111,90315.838242
2700.0,883,90352.169678
1940.0,824,90388.453486
2700.0,1159,90437.770892
1130.0,887,90473.545312
1780.0,695,90502.912668
1490.0,1064,90547.706342
1740.0,1110,90593.576233
2500.0,761,90623.627365
2300.0,1296,90677.168502
1540.0,778,90710.256172
1880.0,1284,90763.034531
1300.0,630,90789.507293
1180.0,601,90814.161814
1560.0,701,90841.698753
1570.0,418,90858.754176
1080.0,388,90874.438589
2300.0,989,90915.689075
1880.0,1357,90972.854064
2450.0,916,91009.552683
980.0,429,91025.992315
1750.0,809,91058.101161
1860.0,1191,91105.502749
1360.0,1077,91149.304578
1660.0,507,91169.283283
2200.0,746,91199.786916
1730.0,895,91236.217858
1180.0,429,91253.420096
1900.0,1196,91303.56699
2300.0,715,91330.811038
1930.0,1082,91374.22819
1730.0,834,91408.098694
1180.0,710,91437.505818
1780.0,692,91466.540046
1080.0,587,91489.665202
2200.0,1049,91531.781921
2700.0,1065,91578.414206
1300.0,2467,91679.915539
2900.0,1067,91725.304467
2200.0,750,91756.682559
1800.0,705,91784.979357
3780.0,2449,91887.292236
2750.0,2541,91994.537872
1580.0,1327,92049.408864
2450.0,1164,92097.16828
2450.0,789,92129.970025
2030.0,1445,92190.243803
2400.0,1040,92233.459229
980.0,427,92251.201608
2230.0,880,92287.410773
880.0,372,92302.062518
1180.0,764,92335.730332
2250.0,1821,92410.823928
1440.0,833,92445.289833
1760.0,871,92480.623046
2230.0,909,92518.342571
1180.0,502,92538.472188
1540.0,896,92576.371204
2350.0,943,92615.630549
2000.0,640,92642.053779
3200.0,2720,92754.30733
1780.0,1518,92816.774955
1580.0,746,92847.120798
1830.0,943,92888.55586
1950.0,961,92927.748943
1540.0,1133,92974.858762
2150.0,1260,93025.990703
1500.0,713,93054.564405
1740.0,979,93094.436999
1460.0,599,93118.397357
1750.0,1306,93171.239671
930.0,435,93189.90043
1730.0,919,93227.642604
1320.0,885,93263.463009
1780.0,1270,93313.731626
1490.0,1032,93354.189357
2000.0,815,93388.210439
1530.0,1039,93429.966529
1300.0,1064,93470.766358
1320.0,820,93502.653488
2000.0,1060,93543.262722
1950.0,1633,93609.827914
4120.0,1718,93677.890428
1730.0,458,93694.904262
2350.0,815,93726.247043
2450.0,728,93756.089248
1850.0,1203,93804.616058
1930.0,886,93839.911539
2030.0,1029,93881.096941
2450.0,1145,93926.38266
2100.0,1273,93976.553913
1640.0,803,94008.336777
1880.0,1143,94054.489277
1950.0,980,94093.894423
1420.0,1807,94167.064117
1180.0,829,94199.842745
2500.0,1216,94248.065242
1680.0,1150,94296.062798
2700.0,1287,94348.914117
1400.0,872,94385.124247
1420.0,560,94406.250262
2800.0,1074,94450.308955
2150.0,647,94476.572503
2650.0,1335,94529.181594
2800.0,1164,94574.95844
3440.0,1437,94633.823058
1690.0,781,94665.251195
1590.0,933,94702.574348
1460.0,752,94732.966019
2010.0,873,94767.246528
1080.0,546,94789.271248
1180.0,502,94807.630742
1180.0,633,94832.641507
1830.0,863,94865.090956
1630.0,1045,94906.229469
1800.0,911,94942.439946
1480.0,690,94968.910033
3820.0,2262,95060.225681
2650.0,1230,95108.997107
2000.0,768,95140.353384
1280.0,693,95168.870141
3530.0,2356,95263.210333
2500.0,961,95300.117201
1340.0,566,95322.848226
1080.0,419,95338.893426
1800.0,1459,95397.804706
1300.0,645,95422.395043
2400.0,1206,95470.705703
1640.0,887,95505.007158
1810.0,805,95537.810447
1320.0,1074,95580.507228
2110.0,871,95616.518861
1980.0,1356,95670.127762
2050.0,520,95691.634474
2300.0,1070,95735.351712
2450.0,892,95769.842126
1300.0,958,95808.206741
3100.0,1857,95880.550813
2160.0,849,95914.012682
1590.0,913,95948.231875
1580.0,832,95978.969538
2800.0,1194,96023.214824
1860.0,678,96049.265384
2700.0,1363,96100.659571
1800.0,978,96138.337492
1900.0,818,96169.631231
2300.0,824,96200.552525
1810.0,1196,96245.97982
1980.0,922,96279.667371
1280.0,466,96296.800378
1900.0,729,96323.63926
4070.0,1376,96376.788606
1510.0,852,96406.614068
2080.0,535,96427.099723
1530.0,1537,96483.448795
2700.0,1005,96520.328954
1510.0,717,96547.176581
1710.0,1239,96592.543903
2010.0,1140,96634.410392
2200.0,1873,96702.604021
1500.0,773,96731.425
2100.0,972,96766.992822
1950.0,1154,96810.548751
2080.0,1353,96859.858115
1570.0,576,96881.612477
1280.0,1217,96924.652001
2430.0,829,96954.778997
980.0,418,96969.788083
2500.0,989,97003.867763
1300.0,580,97026.910512
2150.0,833,97057.176372
2130.0,825,97086.24507
3870.0,2139,97166.381863
1800.0,1152,97209.91947
1640.0,859,97242.470003
1780.0,638,97266.888859
3900.0,1535,97322.368643
1390.0,1222,97367.155796
1320.0,810,97397.74808
2250.0,734,97424.387446
