# {"t_start": 1547446690.1243954, "env_id": "RiverraidNoFrameskip-v4"} 
r,l,t
1900.0,790,37.251688
2330.0,834,65.606117
1460.0,683,88.892644
1890.0,759,114.745829
870.0,510,132.123659
1450.0,566,151.731828
1270.0,813,180.852
2670.0,943,213.759508
1880.0,757,239.824471
1900.0,674,264.493476
1370.0,551,283.771267
1310.0,556,303.769617
1630.0,540,323.080324
1600.0,690,347.626139
1670.0,743,373.781895
2130.0,667,396.948793
1470.0,505,414.237919
1590.0,575,435.045978
2080.0,709,458.374778
1930.0,757,483.316358
1800.0,727,509.184733
2220.0,707,537.045348
1740.0,825,565.909558
1590.0,632,587.252236
1810.0,625,609.061259
1330.0,537,628.399381
2200.0,553,649.618383
2260.0,587,671.314763
1690.0,460,687.68889
1840.0,554,707.920334
2650.0,579,728.636924
1560.0,574,749.526639
2090.0,533,769.055689
2500.0,566,790.329146
2550.0,614,812.193901
2310.0,606,834.588275
2950.0,679,859.075481
2320.0,591,879.451753
1290.0,487,897.589596
2420.0,535,916.229652
1620.0,431,932.400372
2180.0,707,956.922836
1970.0,497,974.695402
2100.0,571,994.827527
1650.0,410,1008.793694
3010.0,641,1032.298394
1720.0,415,1045.754744
2660.0,588,1065.828538
2130.0,507,1084.103096
2090.0,576,1105.212973
1670.0,465,1120.579701
1900.0,636,1142.932343
3160.0,599,1164.206297
2990.0,781,1194.869043
2660.0,723,1220.510727
3790.0,803,1251.730702
1450.0,389,1264.810012
3510.0,616,1287.430716
2260.0,825,1317.697274
2230.0,603,1338.855708
2280.0,805,1367.033166
2570.0,661,1390.688391
2530.0,843,1419.424963
3660.0,769,1448.999136
2420.0,826,1478.279231
2150.0,547,1497.234907
2480.0,527,1515.48953
3010.0,844,1546.232969
2410.0,575,1566.379146
2080.0,613,1587.113029
2990.0,704,1612.062442
2310.0,929,1644.867228
3380.0,711,1671.685955
2870.0,562,1692.278322
2320.0,720,1716.818098
2700.0,646,1741.205244
1910.0,399,1755.332017
1820.0,445,1771.477915
1630.0,412,1785.413848
2030.0,565,1805.881909
2450.0,712,1831.492244
1760.0,484,1847.86235
3810.0,744,1874.334756
2500.0,578,1894.186325
2320.0,598,1916.900465
1920.0,505,1935.991996
2410.0,593,1956.717848
2520.0,709,1983.038352
2390.0,651,2005.085052
1900.0,557,2023.887017
1610.0,462,2041.553558
2920.0,563,2061.279082
3230.0,598,2082.419375
2240.0,572,2103.344248
2970.0,564,2122.133057
3270.0,783,2149.8364
2840.0,816,2181.077305
2700.0,768,2208.998707
3580.0,775,2238.338394
2970.0,986,2274.426642
1970.0,645,2298.033847
3290.0,777,2326.450561
2060.0,591,2348.556286
3070.0,702,2375.151994
1910.0,527,2394.609927
2640.0,755,2421.220743
2010.0,489,2437.186789
3000.0,621,2459.741917
2500.0,465,2476.483404
3090.0,923,2509.309359
2730.0,903,2542.768913
2260.0,562,2563.850573
2500.0,713,2590.453474
2340.0,659,2613.138804
3240.0,810,2639.994706
3000.0,627,2660.100395
3240.0,577,2679.699003
2290.0,428,2695.338653
2690.0,696,2720.815318
2980.0,807,2749.638256
2970.0,972,2785.216036
2250.0,561,2805.240668
2420.0,590,2824.826963
2230.0,485,2840.797093
2430.0,626,2863.191798
4000.0,802,2893.325815
3780.0,796,2922.84724
2560.0,612,2946.121028
2940.0,612,2968.808327
2140.0,649,2990.966476
2280.0,616,3012.57178
3350.0,763,3040.63055
2060.0,509,3058.816464
2060.0,619,3081.349024
2370.0,554,3101.415171
2170.0,636,3124.764578
2560.0,743,3152.506544
3180.0,762,3181.289718
1990.0,552,3202.530709
2590.0,669,3226.967066
2260.0,604,3248.483433
2680.0,694,3274.849205
2340.0,619,3297.783365
3050.0,580,3317.804677
2250.0,630,3341.343568
2960.0,706,3367.007556
2340.0,676,3391.282922
2500.0,714,3417.498454
2460.0,629,3441.121583
2890.0,651,3463.653933
2620.0,561,3483.932219
2740.0,566,3503.181069
2640.0,702,3527.90596
2210.0,484,3545.058171
3480.0,830,3574.990813
2230.0,604,3595.621468
2140.0,589,3615.72787
2430.0,592,3637.648811
2660.0,817,3666.524491
2680.0,705,3691.518292
2750.0,925,3724.262211
2730.0,966,3759.724567
2760.0,719,3786.082134
2510.0,585,3807.71912
2550.0,698,3833.689803
3760.0,662,3859.829812
2530.0,863,3891.391567
2600.0,744,3918.609961
2020.0,563,3938.402059
2140.0,580,3958.716516
2370.0,620,3979.832096
2200.0,666,4005.12081
2470.0,905,4036.442771
2080.0,653,4060.843554
2520.0,634,4085.299079
2540.0,696,4110.174356
2760.0,665,4135.340262
2530.0,682,4157.645436
2610.0,587,4177.724237
2540.0,624,4200.401769
2620.0,734,4229.290781
3810.0,825,4260.33562
2580.0,658,4282.883389
2770.0,696,4307.485
2680.0,834,4336.768559
2280.0,635,4360.394078
2460.0,712,4384.550235
2490.0,647,4407.811081
3140.0,765,4435.640806
2110.0,693,4461.20831
3000.0,630,4484.059539
2340.0,584,4506.824464
3320.0,640,4529.830096
3200.0,691,4555.157983
3590.0,741,4579.996171
2180.0,493,4597.606583
2370.0,546,4617.486401
2500.0,648,4640.291506
2030.0,488,4657.5349
2920.0,693,4683.668754
2520.0,553,4703.94739
2410.0,657,4729.104882
3190.0,743,4755.234829
2210.0,708,4781.148417
2380.0,586,4801.310508
2960.0,702,4826.376749
2730.0,650,4850.510875
3130.0,630,4871.802375
2140.0,657,4895.938198
2290.0,631,4918.901595
2480.0,816,4948.54555
2990.0,836,4979.197349
2190.0,745,5008.217139
2920.0,869,5038.762087
2040.0,466,5055.188101
2340.0,695,5080.091661
2410.0,782,5109.714687
2800.0,776,5138.720179
2980.0,992,5174.589311
2150.0,614,5195.424353
1680.0,457,5211.742658
2870.0,843,5242.887301
2800.0,816,5273.785254
1800.0,412,5288.839227
2630.0,717,5314.084679
2230.0,479,5331.340893
2530.0,682,5354.379838
2300.0,607,5377.265607
2290.0,689,5402.283498
2340.0,606,5424.923714
3700.0,644,5450.130648
3160.0,784,5481.433114
2270.0,457,5496.8905
2040.0,455,5513.595833
2570.0,662,5538.83422
2930.0,895,5572.239356
2850.0,909,5608.101445
2130.0,581,5630.13693
2370.0,476,5648.086048
2590.0,609,5670.152665
2890.0,642,5695.696017
2220.0,735,5724.666239
1910.0,413,5739.959614
2350.0,534,5760.430375
2700.0,870,5792.471695
3020.0,870,5823.21807
2510.0,696,5847.898136
2720.0,641,5870.938623
3150.0,915,5902.801237
3480.0,884,5934.402983
2090.0,462,5950.363632
1860.0,423,5966.662273
2740.0,846,5996.528358
2850.0,684,6020.628407
2660.0,878,6053.495046
2130.0,591,6074.928545
3230.0,1144,6113.78272
2940.0,902,6144.927394
2550.0,856,6174.241687
2930.0,904,6208.311476
2730.0,737,6235.566155
2240.0,650,6259.252351
2840.0,586,6281.657169
3010.0,711,6309.310211
2680.0,806,6339.389347
2400.0,734,6366.841153
3130.0,825,6397.283211
2740.0,642,6422.258251
3080.0,855,6454.104072
3450.0,968,6490.955861
2350.0,773,6520.169349
3330.0,812,6549.473795
2750.0,834,6578.47314
3300.0,980,6614.070158
2400.0,651,6639.214576
2300.0,470,6657.188962
2700.0,684,6682.968728
2050.0,458,6699.972959
2590.0,560,6721.233194
2760.0,799,6751.182554
2320.0,568,6771.875598
2290.0,525,6790.867319
2350.0,579,6811.473662
2480.0,609,6834.448005
3210.0,590,6856.043057
2040.0,521,6876.418521
3140.0,707,6900.6845
2920.0,819,6930.130557
3250.0,868,6961.947771
3120.0,816,6993.429024
3260.0,558,7013.81965
2670.0,623,7035.86302
3200.0,960,7071.456775
3220.0,896,7104.060326
3210.0,897,7136.913935
2660.0,668,7162.301196
2320.0,520,7182.170474
2820.0,669,7206.309889
2120.0,508,7225.337309
3620.0,728,7251.117338
2570.0,630,7273.84562
3250.0,822,7303.144231
3540.0,650,7327.995897
2590.0,661,7350.848834
3490.0,702,7376.155262
2400.0,580,7397.129967
2810.0,606,7420.134251
3200.0,724,7447.358852
3100.0,893,7479.922974
2970.0,554,7500.270244
3870.0,818,7529.602152
2690.0,662,7553.397918
2510.0,705,7578.813139
2710.0,809,7608.180629
2820.0,699,7633.731556
3270.0,878,7666.804281
3240.0,804,7696.865237
3490.0,708,7723.365083
2250.0,480,7741.077242
2870.0,671,7766.014677
2650.0,667,7791.025463
3870.0,666,7815.384556
2590.0,650,7838.337078
2910.0,637,7861.652067
2990.0,660,7885.795582
3330.0,579,7907.385097
2590.0,585,7927.917154
2330.0,658,7950.601041
3200.0,864,7981.184954
3220.0,763,8008.595379
2380.0,621,8030.954534
3240.0,920,8066.350539
3970.0,794,8094.794824
3740.0,667,8119.898176
2970.0,652,8144.700547
3180.0,646,8169.24044
3150.0,733,8197.430169
2230.0,464,8214.222325
2940.0,846,8244.770501
2970.0,683,8269.629128
3020.0,589,8290.803303
2410.0,655,8313.784734
2230.0,483,8331.799654
2430.0,599,8352.930171
3190.0,848,8383.514067
2430.0,646,8406.228488
2000.0,459,8421.700782
2990.0,574,8442.12234
1980.0,486,8458.780696
2700.0,724,8486.085681
2950.0,885,8518.270808
3740.0,708,8543.38562
3480.0,804,8574.087563
3260.0,842,8604.317554
2890.0,702,8629.220774
2560.0,612,8652.274213
3200.0,833,8684.657358
2670.0,668,8708.118894
2610.0,724,8735.407176
3500.0,678,8759.866503
3420.0,949,8795.371964
1900.0,550,8815.844974
2540.0,662,8839.964876
2300.0,525,8859.183744
3000.0,645,8882.95395
2650.0,707,8908.716051
2350.0,619,8930.803934
2970.0,684,8955.495986
2970.0,790,8985.686578
2890.0,697,9010.182139
2930.0,711,9036.801426
3040.0,657,9062.350713
4070.0,829,9093.257508
2990.0,720,9118.719395
2760.0,631,9142.640029
2660.0,572,9164.41082
3290.0,739,9190.701953
3590.0,888,9222.362897
2510.0,786,9251.308625
3710.0,793,9281.122448
3750.0,798,9311.406343
3000.0,748,9337.508662
3610.0,898,9370.130432
3500.0,970,9406.554201
2460.0,591,9427.722629
3190.0,774,9455.209032
2730.0,789,9485.404613
4440.0,992,9520.91137
3490.0,827,9552.386005
3580.0,810,9581.090977
4060.0,736,9608.134456
2790.0,644,9631.629937
3340.0,712,9658.888329
2690.0,648,9683.420034
3340.0,879,9714.915238
3500.0,730,9743.020276
3340.0,1041,9783.561959
3850.0,867,9815.061259
2610.0,698,9840.670274
3130.0,824,9870.776325
2770.0,590,9890.896225
2970.0,710,9916.446301
3440.0,978,9953.119786
2340.0,643,9975.951307
3010.0,684,10001.751912
1950.0,495,10020.017926
3390.0,728,10047.326239
2760.0,518,10066.114182
2880.0,635,10089.9211
2990.0,840,10121.536969
3090.0,517,10140.825396
3510.0,723,10168.184773
2400.0,498,10185.546732
3130.0,571,10204.022841
3270.0,730,10231.897072
2820.0,593,10252.830516
2140.0,473,10270.289274
2700.0,648,10292.84735
3230.0,649,10316.326339
2860.0,687,10340.980824
2490.0,607,10362.119808
3290.0,868,10394.096572
2700.0,645,10417.890818
3600.0,583,10440.636353
2490.0,546,10460.916278
3410.0,810,10491.269848
2980.0,562,10511.088321
2980.0,689,10537.008373
3130.0,609,10557.942941
3120.0,695,10582.975523
2680.0,600,10606.06382
3280.0,779,10635.7393
3100.0,861,10668.810293
3000.0,650,10692.535139
2980.0,591,10714.172481
2990.0,647,10738.586401
2330.0,493,10756.304518
2990.0,715,10782.534775
2990.0,607,10805.872567
2820.0,653,10829.398235
3790.0,766,10858.820772
3670.0,647,10882.149468
3970.0,912,10915.55597
3050.0,715,10941.56569
2960.0,671,10967.029144
3980.0,762,10992.975094
3150.0,662,11019.036704
2870.0,693,11043.86545
3670.0,995,11081.046976
3410.0,712,11105.759173
3100.0,787,11134.378873
2310.0,487,11152.088383
2940.0,681,11176.515118
3130.0,666,11201.35199
3790.0,908,11234.381343
3240.0,706,11261.619608
3450.0,649,11286.994163
3890.0,807,11315.567355
3600.0,741,11342.103313
3390.0,745,11366.465901
5100.0,959,11401.995654
3490.0,818,11432.422161
4090.0,989,11468.729604
3390.0,773,11498.083459
3000.0,624,11520.959583
2870.0,676,11546.618098
3180.0,810,11577.343514
4260.0,662,11602.428369
3640.0,702,11629.348397
2760.0,583,11651.262664
2580.0,606,11673.143132
3240.0,748,11700.959358
3400.0,759,11729.039365
2730.0,571,11749.754212
3230.0,715,11775.765694
3630.0,751,11803.791412
3350.0,796,11832.982107
2880.0,713,11861.136431
3720.0,811,11891.367016
2820.0,722,11916.350311
3100.0,651,11940.620315
4000.0,789,11970.26349
3280.0,754,11999.353021
3460.0,705,12024.612108
3330.0,684,12050.960248
3780.0,840,12081.273051
3470.0,625,12104.366515
2480.0,533,12122.447494
3110.0,633,12145.305926
3270.0,646,12169.193708
2720.0,593,12190.616403
3170.0,701,12215.658094
4190.0,808,12246.069643
3250.0,736,12271.837378
3560.0,778,12300.485376
3850.0,861,12330.652757
4210.0,787,12358.697942
4230.0,859,12389.591952
3060.0,676,12416.043191
3120.0,627,12437.554796
3950.0,846,12469.081791
4240.0,913,12502.423356
5000.0,1096,12543.090551
2010.0,415,12558.073888
3630.0,836,12588.083639
4610.0,967,12623.095015
4100.0,816,12653.440321
4800.0,970,12688.251919
3540.0,805,12718.028472
3190.0,680,12743.90801
2900.0,593,12765.879521
4890.0,1126,12807.805713
3790.0,647,12831.880745
3210.0,628,12855.22875
2830.0,603,12876.1159
3410.0,682,12899.094782
3080.0,556,12918.546983
3120.0,621,12942.019209
3370.0,637,12964.995748
3960.0,817,12995.249479
5460.0,1210,13039.005181
4660.0,902,13072.316128
3130.0,648,13096.635678
4620.0,961,13130.220326
3760.0,681,13155.419839
2910.0,620,13178.645688
3730.0,668,13204.762844
3970.0,883,13237.059395
4220.0,840,13269.35779
4010.0,764,13297.0275
3390.0,642,13320.9426
3470.0,724,13349.958472
3750.0,847,13380.544497
2940.0,539,13399.763515
3390.0,883,13431.85166
3250.0,753,13459.379117
3120.0,694,13484.454548
3040.0,671,13509.841783
3630.0,817,13539.656249
4230.0,911,13571.784758
3490.0,737,13597.913663
5170.0,1133,13637.882686
3420.0,701,13663.324723
3760.0,811,13692.919561
3900.0,577,13713.550354
3580.0,713,13738.822032
2780.0,605,13761.943079
3320.0,758,13791.525859
4110.0,778,13818.396547
4070.0,737,13845.472808
3780.0,748,13874.269921
4280.0,824,13905.013607
3400.0,648,13928.888116
3830.0,781,13957.537745
5310.0,1155,14000.719028
3040.0,704,14026.500031
4390.0,846,14058.507184
4770.0,1015,14095.310071
5300.0,1077,14136.197047
5920.0,1291,14181.473743
5510.0,1207,14225.473935
5590.0,1154,14267.752498
5910.0,1314,14315.994253
4830.0,1136,14357.97036
2950.0,625,14380.854907
6000.0,1298,14428.485133
4320.0,762,14458.365244
4010.0,748,14485.958246
2890.0,662,14510.184507
3120.0,623,14531.722242
4510.0,995,14567.095868
3990.0,828,14596.623213
3800.0,783,14624.626218
5480.0,983,14661.858464
2980.0,633,14684.153947
4430.0,777,14713.033289
5310.0,1083,14751.837031
5690.0,905,14784.62109
6040.0,1148,14826.126728
4140.0,825,14857.969584
5220.0,865,14889.230437
4180.0,892,14922.734492
4070.0,735,14950.08358
4790.0,870,14980.859452
2980.0,572,15000.329317
3790.0,648,15024.82269
4670.0,902,15058.890522
4340.0,806,15089.483144
3540.0,706,15114.513985
3130.0,642,15136.680093
3060.0,657,15161.329294
4000.0,733,15187.202035
5390.0,1025,15223.264282
2390.0,506,15240.830762
3720.0,792,15271.289099
5500.0,1081,15310.833401
3970.0,757,15337.796058
2960.0,607,15359.107159
5050.0,1127,15400.870969
3470.0,622,15423.815827
5400.0,966,15457.452308
3280.0,708,15483.942348
5370.0,1005,15520.268604
5120.0,1042,15556.256261
5440.0,1246,15601.805295
4560.0,881,15634.158163
3560.0,692,15659.038526
3110.0,695,15685.288776
3370.0,631,15708.395619
3100.0,687,15734.006564
5290.0,1077,15773.382709
5530.0,1128,15816.76387
5680.0,1295,15865.874381
3730.0,686,15890.834042
4410.0,762,15919.118826
4640.0,848,15949.75793
5840.0,1178,15993.26797
3290.0,684,16018.607883
4020.0,692,16044.705729
4950.0,1057,16085.342582
4440.0,834,16116.45418
5080.0,972,16152.001098
3900.0,805,16182.623077
4320.0,917,16216.027595
4300.0,861,16245.873842
2950.0,590,16267.492024
3270.0,663,16293.572188
5230.0,1140,16333.541422
2910.0,603,16355.25106
3050.0,614,16378.781108
3230.0,718,16404.753184
2970.0,536,16424.531663
3730.0,696,16448.360306
2900.0,597,16469.11736
3260.0,715,16495.067609
4480.0,728,16520.755808
3520.0,668,16544.533039
5620.0,1025,16581.427308
5540.0,1025,16620.106507
5270.0,1009,16657.567739
5260.0,1033,16697.162596
4020.0,758,16726.150264
2490.0,498,16745.097024
5130.0,1143,16788.260647
4950.0,1102,16827.825641
5750.0,1033,16866.085042
5040.0,859,16897.354071
4850.0,1096,16937.86904
5180.0,1018,16975.915158
2830.0,625,16998.964382
5380.0,1227,17043.971622
5480.0,1039,17082.400257
4840.0,1039,17119.223662
4220.0,748,17144.476547
5170.0,1110,17185.303515
4840.0,1013,17223.15093
3690.0,720,17249.118218
2990.0,531,17268.032268
4180.0,845,17299.037772
5380.0,1021,17337.456542
5150.0,976,17372.76248
4860.0,1066,17411.96355
5630.0,1043,17448.669489
3860.0,699,17473.524236
4240.0,706,17499.996452
4030.0,704,17526.890433
2640.0,568,17546.9872
4170.0,680,17572.053014
5110.0,1015,17610.861937
3430.0,663,17634.923542
3680.0,749,17662.681921
3650.0,607,17684.494235
3340.0,652,17708.52906
3170.0,575,17728.756304
3030.0,622,17750.360882
6010.0,1328,17797.990322
3430.0,675,17825.534524
4910.0,950,17861.723711
4210.0,751,17889.863519
5910.0,1077,17929.598848
5430.0,944,17965.266511
3320.0,616,17987.709307
5020.0,1039,18024.30461
3800.0,662,18046.642414
4500.0,860,18079.0764
5400.0,967,18114.362569
3740.0,730,18142.1134
4440.0,809,18171.918103
3030.0,611,18193.363434
4340.0,706,18219.028085
3230.0,618,18241.694767
3740.0,604,18264.477271
3350.0,648,18288.214523
4420.0,762,18315.815202
5070.0,1017,18354.66715
5480.0,1043,18391.532615
2930.0,548,18411.05841
5110.0,1062,18449.91991
4950.0,903,18482.363623
3350.0,681,18507.09136
4240.0,780,18535.002439
4170.0,709,18560.84161
5370.0,838,18590.183152
3320.0,662,18614.459867
5620.0,967,18649.230021
2810.0,538,18668.050055
5230.0,972,18703.121423
5430.0,1012,18740.662667
3390.0,745,18767.369543
4660.0,777,18794.169478
3100.0,682,18818.941294
3420.0,679,18843.252963
4230.0,775,18871.410418
2890.0,552,18890.796024
3450.0,667,18913.981041
3630.0,823,18944.519554
2840.0,540,18964.428183
3160.0,572,18984.496569
3300.0,576,19006.850682
3990.0,748,19034.335447
4600.0,1055,19073.445101
5100.0,1114,19112.142112
3830.0,837,19142.558309
4020.0,910,19176.394052
4950.0,892,19207.927202
5090.0,868,19239.46165
2940.0,621,19263.010244
4920.0,1002,19300.615828
5270.0,865,19331.024371
5210.0,1035,19369.825133
5070.0,1020,19406.499638
4640.0,814,19435.765384
5440.0,996,19472.771471
5290.0,1005,19512.119572
5350.0,1153,19555.558042
4700.0,846,19588.193111
4790.0,978,19623.984391
5420.0,982,19659.270305
4610.0,885,19690.701391
5700.0,1179,19733.848379
5600.0,911,19764.157912
4590.0,913,19797.784312
4890.0,952,19833.457908
5020.0,1257,19879.017271
5030.0,1182,19922.186462
3460.0,594,19942.98525
5080.0,977,19979.600225
5480.0,1087,20019.835021
5690.0,907,20053.712172
2560.0,483,20072.265628
3550.0,777,20101.350597
4260.0,889,20132.885252
2550.0,597,20153.466355
4310.0,820,20186.111475
4290.0,820,20216.763419
4100.0,747,20244.535649
4070.0,760,20270.783391
5320.0,1039,20308.148897
3270.0,620,20331.079514
3890.0,677,20355.73516
5340.0,1145,20399.005802
3560.0,700,20424.858845
4210.0,729,20452.046126
5520.0,1262,20498.835191
5610.0,1060,20539.026669
2400.0,495,20557.405564
4460.0,882,20588.694742
5500.0,1131,20632.581555
5630.0,1110,20672.416011
5850.0,1124,20713.758422
5210.0,958,20749.584375
3370.0,621,20771.599855
5000.0,987,20808.650592
3690.0,729,20835.759869
3900.0,767,20863.758955
4640.0,905,20897.154243
4600.0,812,20928.371349
3380.0,597,20950.465737
2770.0,557,20970.63367
3290.0,560,20990.143665
5510.0,938,21025.503277
5730.0,1009,21063.45516
6430.0,1107,21102.888111
3380.0,637,21124.761359
7470.0,1341,21175.829885
5930.0,1063,21216.491849
4920.0,829,21247.131076
5250.0,853,21279.165659
5160.0,981,21314.920256
4890.0,982,21352.285562
5050.0,839,21383.264196
3200.0,647,21407.716755
4660.0,852,21438.693486
5640.0,1277,21484.278376
4070.0,726,21509.674815
5090.0,1008,21546.580108
5280.0,1040,21586.274839
6980.0,1339,21635.232316
3680.0,631,21658.564049
4150.0,789,21687.034433
4320.0,794,21715.006188
5720.0,986,21748.780683
5300.0,1059,21788.394704
2520.0,448,21804.619794
7020.0,1170,21847.93409
4780.0,765,21874.774603
4900.0,966,21910.783585
4570.0,752,21936.323842
5640.0,903,21968.927272
5030.0,807,21999.087361
5180.0,937,22034.131625
6330.0,1087,22073.079817
4920.0,970,22109.793708
2270.0,466,22125.71072
5170.0,972,22160.440158
4830.0,1078,22199.434694
2850.0,557,22218.56843
3590.0,622,22242.147912
4860.0,1115,22282.644654
4500.0,864,22314.466643
5730.0,1158,22357.258848
5140.0,946,22391.682461
4950.0,1039,22429.102184
4320.0,735,22454.103776
7550.0,1157,22497.935509
4780.0,993,22534.939566
6480.0,1260,22580.348111
6240.0,1074,22617.963738
2810.0,531,22637.380864
4550.0,826,22669.319753
5350.0,1035,22707.853137
5330.0,1045,22743.971354
4770.0,980,22778.64877
4990.0,806,22807.371752
6500.0,1099,22846.797398
5550.0,1052,22885.187557
5100.0,944,22919.075328
4360.0,795,22949.25502
5580.0,944,22982.158694
5680.0,1097,23023.022892
5380.0,1058,23060.93154
6200.0,1148,23102.262011
5750.0,1041,23140.769996
6340.0,1090,23181.822736
5200.0,873,23212.253356
4620.0,876,23243.690563
5400.0,902,23277.303275
6960.0,1190,23318.830019
5940.0,1049,23358.297061
4610.0,751,23386.450215
5080.0,886,23418.824901
6500.0,1255,23465.111919
4990.0,1033,23502.539425
4460.0,943,23538.508503
5500.0,938,23572.794939
5140.0,845,23603.076231
3860.0,788,23631.302245
5120.0,1101,23669.817417
6560.0,1259,23715.232299
4550.0,932,23748.709246
5450.0,1036,23787.946004
3360.0,633,23810.507824
6010.0,960,23845.37764
5710.0,1083,23885.782254
3270.0,609,23908.771148
3660.0,722,23933.603722
4020.0,747,23962.025403
4040.0,728,23988.494926
3740.0,720,24014.607963
3540.0,699,24040.323211
6980.0,1233,24087.995883
5390.0,1102,24127.005034
6080.0,1015,24165.400144
5600.0,1066,24204.380876
6400.0,1088,24242.688149
6030.0,1086,24284.039821
5820.0,1043,24321.191333
6190.0,1138,24362.17531
3290.0,596,24385.162333
5130.0,911,24419.942237
6330.0,1147,24459.953295
4190.0,722,24487.214766
3570.0,602,24508.730894
5050.0,985,24543.023503
4540.0,813,24573.866015
6120.0,1096,24613.021435
4900.0,803,24642.301376
4660.0,806,24672.442874
7050.0,1224,24716.263815
5260.0,947,24751.351587
4900.0,841,24784.200019
5060.0,1040,24823.064757
7680.0,1361,24871.311934
5770.0,927,24904.634243
5010.0,926,24936.537669
5500.0,932,24971.306286
3060.0,543,24990.242449
5790.0,864,25021.65807
6910.0,1200,25065.317348
5850.0,867,25097.16816
3260.0,606,25118.260642
4710.0,899,25153.037968
4190.0,807,25183.716072
5740.0,938,25218.183747
5840.0,964,25252.660353
5210.0,1007,25289.465612
5500.0,961,25325.111154
5600.0,941,25360.138419
6700.0,1098,25400.166198
3530.0,667,25423.498237
3740.0,681,25449.331747
2940.0,523,25468.750551
5480.0,946,25503.812629
5370.0,909,25536.092075
5640.0,976,25571.832117
5510.0,926,25605.380566
3620.0,629,25627.739661
6040.0,1033,25669.122487
6360.0,1090,25709.038515
3210.0,620,25732.450947
5300.0,877,25765.738663
2880.0,526,25785.009401
7380.0,1183,25828.092369
5070.0,864,25859.18636
5590.0,1041,25897.537103
6080.0,1106,25938.265597
6040.0,1086,25978.027846
7000.0,1030,26015.387908
5540.0,927,26048.482936
3200.0,629,26070.31235
6750.0,1122,26113.988285
3390.0,617,26138.066045
7050.0,1168,26180.787652
7760.0,1338,26230.3504
2940.0,524,26249.305918
5310.0,847,26280.584727
7800.0,1239,26326.802129
5590.0,936,26361.058773
5570.0,1067,26401.006688
6210.0,1068,26441.562407
5660.0,984,26477.631041
6580.0,1140,26520.176535
5420.0,950,26555.73956
5130.0,876,26588.56497
6780.0,1158,26633.582523
3520.0,656,26657.899535
6700.0,1175,26702.270344
3510.0,700,26729.741403
6780.0,1246,26777.715301
5260.0,949,26815.050443
3810.0,660,26840.942476
6040.0,1058,26878.912961
6360.0,1118,26922.039491
5480.0,881,26956.40294
4720.0,828,26988.306236
4040.0,702,27014.795461
6670.0,1172,27059.41645
7120.0,1137,27103.140052
5920.0,951,27139.344226
6110.0,1022,27177.860848
6750.0,1041,27218.674343
6410.0,1071,27258.252651
4120.0,728,27285.574656
5580.0,1012,27322.396341
3850.0,725,27350.295663
5520.0,897,27383.512149
5030.0,926,27417.885777
5130.0,755,27446.342204
5060.0,840,27478.603223
7180.0,1143,27522.230343
7280.0,1139,27564.782258
7390.0,1112,27605.496525
5530.0,844,27637.45581
5970.0,1015,27675.677897
5160.0,878,27705.390476
6000.0,950,27740.091536
5510.0,1021,27778.980797
5210.0,851,27809.297201
6130.0,1079,27848.987534
4570.0,822,27878.352921
2600.0,460,27894.041758
6020.0,1131,27937.070854
6020.0,1060,27974.775502
5400.0,998,28012.791315
5390.0,844,28044.008794
5780.0,1071,28084.958114
5310.0,938,28118.594515
5710.0,1069,28158.474191
5490.0,861,28192.879178
6920.0,996,28230.064384
5100.0,903,28265.091488
3140.0,572,28286.987707
5500.0,878,28321.228977
5610.0,1056,28361.535029
6630.0,1140,28403.404716
6120.0,890,28437.215677
6200.0,969,28469.379615
5410.0,902,28504.442636
5370.0,834,28535.857121
4820.0,879,28569.25062
5250.0,959,28606.308591
6250.0,1073,28645.451635
6860.0,1065,28685.940287
5600.0,871,28717.160139
3370.0,600,28739.396745
3060.0,518,28758.817105
4570.0,806,28789.405037
6890.0,1041,28828.815482
4650.0,791,28857.981021
3320.0,640,28882.168342
6100.0,1027,28920.781649
6580.0,1079,28962.101593
6130.0,989,28998.506483
6110.0,952,29034.480129
5740.0,1099,29077.322602
6100.0,973,29113.627467
6670.0,1108,29156.326391
6300.0,996,29193.976699
3680.0,603,29216.391805
6360.0,1053,29256.814991
5930.0,1030,29295.958358
4170.0,684,29320.763822
4340.0,742,29348.303374
5650.0,886,29380.190315
5510.0,932,29414.398839
6720.0,1132,29456.314063
6440.0,1040,29496.6139
6420.0,1144,29539.783373
7160.0,1136,29583.29764
5920.0,927,29617.441151
6170.0,1040,29656.988488
4330.0,747,29685.569134
4590.0,734,29713.131439
6030.0,962,29750.136036
6680.0,1208,29795.644597
5640.0,867,29828.474839
6400.0,1006,29866.874507
6550.0,1137,29908.52968
7510.0,1178,29954.66645
6470.0,888,29988.789859
5650.0,930,30022.747179
6060.0,915,30056.392874
3550.0,643,30079.991898
6770.0,1027,30119.628906
6280.0,981,30154.633143
5820.0,926,30188.515844
4990.0,781,30217.65808
6320.0,1005,30256.487723
6780.0,1128,30301.047143
4110.0,670,30326.024284
5500.0,926,30360.913135
3450.0,623,30384.499484
5790.0,1063,30424.272969
6780.0,1226,30470.62485
6880.0,1283,30519.139559
5830.0,1009,30557.541035
5870.0,975,30594.245854
5330.0,885,30626.289154
6370.0,1035,30666.012163
3480.0,615,30687.321616
2930.0,558,30707.825083
3600.0,628,30731.993576
4390.0,729,30759.946595
6030.0,1037,30797.125613
4340.0,695,30823.013856
2810.0,633,30844.543768
3820.0,634,30867.735545
5790.0,1015,30906.381652
2620.0,486,30924.057318
6520.0,1045,30961.33704
6040.0,1016,30997.897166
5520.0,927,31033.554168
5390.0,855,31066.991793
6270.0,1081,31107.487696
6530.0,1114,31148.26219
4390.0,660,31172.607725
3200.0,602,31194.932636
6400.0,1075,31233.675947
5820.0,1027,31271.740359
6390.0,1063,31309.472796
5220.0,851,31341.78357
6090.0,1020,31380.103661
6220.0,1024,31417.894059
5630.0,1071,31457.392909
3460.0,660,31482.213886
6130.0,971,31518.636605
5730.0,911,31553.148578
6400.0,1121,31592.382458
6590.0,1115,31633.281706
3210.0,634,31657.083544
5570.0,1049,31697.135249
5440.0,1028,31735.149375
6620.0,1154,31777.237022
6930.0,1195,31824.024527
5620.0,974,31861.855071
7130.0,1143,31905.820587
6100.0,1004,31944.030126
4740.0,721,31972.546408
2940.0,482,31990.457911
5460.0,908,32025.440015
4920.0,808,32055.794681
5450.0,900,32087.789858
6360.0,1092,32127.178871
6090.0,1030,32165.687446
6320.0,1022,32203.568065
6040.0,918,32237.313235
6060.0,1015,32275.398595
5450.0,926,32310.581157
4890.0,808,32339.525343
5400.0,878,32373.169498
6880.0,1254,32419.185126
4810.0,730,32446.101615
6570.0,1036,32482.674769
5900.0,969,32518.857949
3440.0,640,32543.04284
6190.0,1088,32583.470726
5570.0,878,32616.817911
5120.0,812,32643.547237
5500.0,972,32677.474747
6670.0,1079,32719.786773
5370.0,796,32748.035069
6070.0,1010,32785.333977
3840.0,678,32810.197485
6640.0,1080,32850.760233
6660.0,1066,32890.083957
7010.0,1156,32931.938999
5490.0,804,32962.747308
6060.0,1011,33000.044287
6740.0,1220,33048.538641
6560.0,1079,33089.614163
3640.0,602,33114.258054
5260.0,834,33144.517819
5360.0,1034,33181.753947
6350.0,980,33218.168365
5670.0,917,33250.636494
5610.0,918,33282.765685
5030.0,876,33314.347631
4100.0,611,33336.82246
5950.0,913,33370.99156
5370.0,1084,33411.360456
5530.0,902,33444.358034
6470.0,998,33481.54741
6630.0,1053,33521.24199
7060.0,1157,33566.888945
5140.0,938,33603.238309
6660.0,1130,33644.304128
6520.0,1071,33686.304218
5180.0,857,33718.47906
3730.0,646,33743.384801
3220.0,585,33765.639946
6530.0,1120,33808.501807
6350.0,1003,33843.148441
6480.0,1111,33885.967084
7230.0,1106,33928.758551
6670.0,1143,33968.974606
6200.0,958,34004.598253
6300.0,1072,34044.587927
6950.0,1213,34090.915112
5130.0,804,34119.4718
3390.0,521,34138.548819
6100.0,1047,34176.75862
4230.0,667,34201.011766
4970.0,883,34234.408326
6470.0,1064,34274.527133
6210.0,1016,34313.462613
5800.0,935,34347.832017
4830.0,756,34375.539335
7170.0,1132,34417.49509
6080.0,999,34452.624979
3530.0,649,34475.98909
6060.0,1090,34517.801865
5740.0,974,34555.165082
6340.0,1142,34598.774064
4300.0,736,34624.816941
6890.0,1310,34674.791587
3710.0,647,34697.394168
7270.0,1349,34746.935326
3390.0,601,34769.139695
3130.0,619,34793.383726
5170.0,979,34829.424984
5790.0,1280,34875.800282
6150.0,1079,34914.76242
5510.0,1098,34954.025592
6380.0,1191,34998.656771
5170.0,969,35036.380521
5330.0,965,35072.913148
6220.0,1142,35116.003047
5440.0,940,35149.789551
3690.0,581,35170.660702
5260.0,979,35205.945241
6130.0,1000,35244.112954
6000.0,1000,35281.61628
5650.0,947,35317.457653
5650.0,864,35348.190872
7860.0,1265,35392.560276
6040.0,885,35424.829786
6430.0,1060,35463.309202
6440.0,1046,35502.210287
3740.0,602,35523.392766
5040.0,920,35556.241175
7380.0,1217,35602.565027
5200.0,855,35634.915064
7110.0,1058,35675.061119
2320.0,431,35691.813393
6930.0,1093,35732.242931
5290.0,876,35764.618282
5420.0,959,35800.328104
4540.0,750,35827.399162
6930.0,1083,35868.360126
6340.0,980,35903.61558
7040.0,1090,35943.954922
6830.0,1060,35982.874262
6760.0,1087,36023.474397
6680.0,1061,36060.692923
6080.0,979,36097.524284
5060.0,813,36128.37088
6300.0,994,36165.368398
7730.0,1190,36208.852595
5720.0,996,36245.331831
6680.0,1021,36284.265767
6110.0,1064,36322.288969
7790.0,1151,36364.185905
7560.0,1293,36411.255403
6170.0,1037,36451.750013
8180.0,1202,36496.746605
7250.0,1094,36536.490306
8160.0,1409,36587.523833
6270.0,1133,36628.391219
6650.0,1119,36669.464981
6550.0,1020,36706.663264
3700.0,626,36730.674712
6860.0,1142,36771.869626
5280.0,861,36802.802144
4080.0,692,36826.90759
7130.0,1143,36868.321556
5070.0,887,36899.945518
6650.0,1021,36939.259277
6960.0,1127,36981.521442
5390.0,895,37012.734468
5910.0,917,37045.790906
6490.0,1015,37083.908584
6640.0,1137,37125.207779
5560.0,972,37162.121748
7130.0,1219,37206.197162
6640.0,961,37242.263205
6810.0,1045,37281.831532
6560.0,962,37318.1694
6100.0,934,37354.059736
6400.0,1029,37392.325482
6430.0,1156,37435.282136
5320.0,867,37464.929723
7540.0,1232,37509.730597
5040.0,835,37539.489448
5750.0,1095,37579.449943
7510.0,1262,37626.162592
6880.0,1176,37670.00546
7260.0,1252,37716.777079
7290.0,1064,37754.803157
6110.0,933,37789.002264
5000.0,922,37821.689391
7260.0,1204,37864.323337
6570.0,1136,37905.43281
6290.0,989,37941.966561
6770.0,1140,37983.879854
6960.0,1086,38024.265271
6030.0,884,38055.569332
6480.0,1018,38095.012181
5210.0,842,38126.869187
6630.0,1163,38169.413214
5020.0,822,38198.298502
7070.0,1058,38237.753645
6140.0,890,38268.974271
3280.0,552,38287.765144
6480.0,1079,38326.800906
6390.0,1051,38364.127531
6940.0,1192,38408.848006
6260.0,918,38443.487571
5670.0,1032,38481.826249
5690.0,837,38513.205956
7170.0,1227,38556.218924
7150.0,1193,38599.158371
6720.0,1217,38644.182543
3520.0,609,38666.188287
5990.0,1017,38704.659319
5300.0,913,38738.510941
7530.0,1139,38778.91923
5820.0,1116,38818.938117
6500.0,981,38853.093545
6850.0,1044,38890.230611
6430.0,974,38925.772792
7270.0,1165,38968.960108
5800.0,995,39005.680692
4020.0,600,39028.389123
7950.0,1188,39071.036591
8040.0,1226,39115.798494
3410.0,601,39138.651304
5960.0,1166,39179.522536
6620.0,1073,39219.578825
5340.0,996,39256.617551
6010.0,1020,39294.632985
5680.0,976,39330.425218
7270.0,1099,39369.6995
5280.0,925,39402.587039
6510.0,1024,39439.918611
5630.0,993,39477.54038
5750.0,1019,39517.264724
6900.0,1189,39563.017618
6750.0,1017,39601.23299
6220.0,943,39637.614085
6530.0,1027,39677.11535
7000.0,997,39714.858992
5720.0,974,39750.874372
6840.0,1122,39791.63467
6550.0,974,39828.696662
7410.0,1223,39873.740114
6580.0,997,39910.566264
7210.0,1159,39953.405314
5520.0,853,39984.43458
5710.0,889,40015.784733
7160.0,1059,40054.748375
7710.0,1272,40100.129818
7040.0,1215,40143.82995
3520.0,647,40167.499882
7200.0,1192,40212.172696
7150.0,1197,40255.019895
7680.0,1205,40299.255922
6770.0,1153,40342.41027
6610.0,1027,40380.200311
7060.0,1088,40422.896474
7290.0,1242,40467.017749
6790.0,1172,40509.80319
4200.0,662,40532.953753
5980.0,987,40568.121178
6550.0,1070,40607.517268
7200.0,1054,40645.256696
7550.0,1247,40692.388314
7100.0,1232,40736.540639
6290.0,936,40770.561871
4260.0,730,40796.494122
6470.0,1076,40835.649767
8070.0,1238,40881.108474
7270.0,1095,40922.386423
7240.0,1080,40961.727046
6910.0,1045,40999.347617
7400.0,1218,41042.812848
3830.0,644,41067.026642
3240.0,574,41087.106395
7460.0,1204,41132.736728
6560.0,950,41166.093486
7220.0,1081,41206.689044
5980.0,909,41240.450929
6660.0,958,41274.843583
5890.0,899,41306.796904
5210.0,924,41340.719724
6620.0,1161,41383.481388
3340.0,637,41407.281841
8330.0,1205,41453.200355
7510.0,1258,41498.792616
6260.0,1084,41538.046973
8710.0,1292,41584.444588
6940.0,1091,41626.757137
6840.0,1127,41667.462773
6710.0,1072,41706.864576
7210.0,1101,41748.477939
7010.0,1100,41789.757584
7220.0,1061,41828.654732
5290.0,938,41864.77914
7260.0,1055,41901.996141
5280.0,1003,41939.196063
8020.0,1219,41982.841511
6140.0,950,42016.726579
5340.0,825,42046.618923
7020.0,1265,42092.676251
7440.0,1072,42130.061931
8440.0,1265,42176.75747
6480.0,1060,42213.956167
5820.0,973,42249.990423
5350.0,875,42282.254525
3880.0,666,42307.397233
2750.0,504,42325.524382
5540.0,926,42359.262877
6700.0,1149,42398.881536
7040.0,1152,42441.443197
7440.0,1127,42484.010183
6800.0,1036,42521.790572
7060.0,1063,42559.789563
6280.0,966,42594.461799
5270.0,894,42626.444427
5550.0,857,42658.152094
4130.0,647,42684.15718
5350.0,812,42713.471362
6250.0,1045,42752.308389
4160.0,624,42775.478265
5770.0,1015,42811.273721
5410.0,921,42845.836025
5860.0,844,42876.278557
6610.0,927,42909.344256
6610.0,1049,42948.710124
7820.0,1144,42990.042271
3290.0,556,43009.924298
5570.0,811,43039.870703
7070.0,1118,43081.350258
5800.0,837,43112.107364
5960.0,1021,43148.898487
6410.0,998,43188.05299
5790.0,964,43223.215033
6670.0,997,43259.973237
5980.0,1030,43299.114703
6850.0,982,43336.465367
7760.0,1102,43375.333873
8210.0,1132,43416.196918
5960.0,948,43452.757915
7810.0,1152,43494.194564
5230.0,976,43527.945921
7190.0,1015,43565.059229
7380.0,1217,43609.458176
7280.0,1280,43656.823317
6680.0,1078,43698.010538
7360.0,1232,43742.471609
7230.0,1241,43790.1975
5170.0,962,43825.601036
7830.0,1116,43866.196666
7480.0,1108,43908.366857
6860.0,1138,43949.893158
7910.0,1096,43989.585419
7840.0,1334,44039.192695
7020.0,1134,44080.055085
7040.0,1100,44119.934358
8010.0,1146,44162.628658
9090.0,1345,44210.732033
7370.0,1048,44248.533981
5690.0,802,44279.354224
5890.0,1013,44316.891927
8320.0,1231,44361.193666
6890.0,1115,44403.166393
7280.0,1164,44446.319206
7300.0,1197,44490.981012
8370.0,1217,44532.724669
3870.0,681,44557.879672
6980.0,1217,44601.409936
7380.0,1265,44647.663747
6920.0,1191,44691.493921
6850.0,1018,44729.271455
7020.0,1104,44769.382618
7410.0,1143,44813.063864
7600.0,1187,44856.321936
5950.0,958,44892.054343
7590.0,1201,44936.632654
7450.0,1100,44979.11425
5660.0,909,45013.594167
6810.0,1112,45056.929008
7960.0,1218,45100.110583
3350.0,569,45120.565869
6340.0,1000,45156.920232
7480.0,1104,45198.366599
7250.0,1200,45246.658124
7390.0,1163,45289.915781
8190.0,1261,45334.681161
3230.0,567,45355.490522
3810.0,598,45377.614485
5770.0,973,45413.866649
7750.0,1202,45458.062526
5300.0,811,45487.417525
6830.0,990,45520.979926
7480.0,1129,45562.435565
7080.0,1022,45600.84653
4930.0,881,45632.714511
7050.0,1005,45671.261111
5200.0,911,45704.714557
5660.0,950,45740.736849
6740.0,1028,45778.275213
7630.0,1099,45818.172839
6360.0,979,45853.69454
5820.0,839,45885.377273
7240.0,1273,45931.754635
6620.0,974,45966.292563
5490.0,912,46001.141413
6950.0,1144,46042.861304
7670.0,1121,46082.887196
7340.0,1151,46124.809953
6680.0,999,46162.176155
6100.0,902,46195.74877
6830.0,979,46231.56556
5480.0,920,46263.180602
6520.0,1081,46303.9395
2920.0,489,46322.262183
7620.0,1160,46366.58628
7390.0,1040,46404.297495
7630.0,1121,46444.287789
7600.0,1136,46485.773902
6150.0,890,46518.979757
7140.0,1107,46558.202101
7470.0,1108,46597.244094
7430.0,1212,46641.35463
7490.0,1221,46686.584943
6240.0,986,46723.473339
8040.0,1170,46766.229656
7470.0,1192,46810.604337
5420.0,1054,46849.918272
4660.0,757,46878.715549
7330.0,1131,46921.236471
7290.0,1215,46966.095093
7340.0,1126,47008.114894
7310.0,1121,47047.809772
7920.0,1258,47091.581911
5790.0,923,47125.594639
6510.0,1068,47164.76729
6520.0,1054,47203.299423
8020.0,1340,47253.734732
7230.0,1050,47291.60615
7730.0,1148,47333.402143
7410.0,1160,47374.11085
6440.0,935,47409.559461
6760.0,1052,47446.594216
7260.0,993,47481.721902
7470.0,1264,47527.048061
2800.0,434,47542.145221
6370.0,951,47576.070655
6620.0,916,47610.965816
8520.0,1369,47663.104933
6270.0,924,47696.193721
7240.0,1133,47738.530519
7510.0,1224,47783.889541
8760.0,1396,47835.13602
7420.0,1219,47877.07439
5160.0,755,47904.531809
7900.0,1223,47947.86666
8920.0,1191,47989.870505
7300.0,1014,48025.491554
6920.0,1098,48065.07214
7320.0,1067,48105.099067
7540.0,1092,48145.273044
8530.0,1248,48190.255265
7710.0,1153,48233.886763
4980.0,707,48260.021841
6740.0,952,48295.698516
7510.0,1109,48334.786382
7710.0,1092,48373.619342
7810.0,1087,48412.820081
6890.0,1101,48453.682196
7520.0,1088,48495.033809
7390.0,1109,48536.332554
6840.0,1228,48581.176364
6680.0,1138,48622.696892
6270.0,1046,48659.542817
6810.0,1109,48698.97156
7150.0,1078,48737.8303
7200.0,1062,48776.830549
7900.0,1193,48819.582245
6870.0,1041,48854.543348
8110.0,1296,48901.537925
5880.0,955,48934.249383
7550.0,1151,48975.638235
7610.0,1166,49018.532298
7460.0,1082,49056.816802
8630.0,1318,49104.838229
6060.0,939,49136.860806
7420.0,1187,49178.291378
7730.0,1127,49214.881241
7710.0,1094,49251.660582
6990.0,1048,49286.920471
7430.0,1072,49321.053959
7890.0,1214,49360.637244
7030.0,1003,49392.718309
7450.0,1113,49426.314742
7840.0,1109,49459.13899
6960.0,1122,49495.816267
8070.0,1263,49536.085599
7210.0,1040,49571.080647
7630.0,1184,49606.199675
7870.0,1083,49640.883823
6380.0,959,49671.211147
7840.0,1192,49710.255943
8080.0,1312,49752.513269
7080.0,1092,49787.304996
5680.0,878,49815.315143
7160.0,1091,49851.981027
7730.0,1276,49889.4364
7560.0,1130,49923.928564
7130.0,1013,49955.103547
7870.0,1231,49992.910518
7310.0,1114,50027.585433
6930.0,1134,50062.409239
3680.0,637,50081.255461
7590.0,1155,50115.830177
7010.0,1156,50148.168199
7850.0,1192,50184.856063
7730.0,1224,50220.228344
7250.0,1132,50254.019979
6820.0,1024,50284.491914
2510.0,495,50299.211277
7450.0,1186,50333.429407
3330.0,547,50351.086299
6960.0,1084,50383.67995
6130.0,1022,50414.898258
3240.0,584,50432.385071
7460.0,1128,50464.395948
5220.0,718,50484.300403
7770.0,1226,50520.803222
5970.0,1068,50551.501813
7680.0,1156,50583.250316
7000.0,1155,50616.567263
7190.0,1115,50648.348268
7910.0,1306,50684.77462
8130.0,1141,50716.105321
7870.0,1230,50752.0997
7810.0,1309,50788.737485
7140.0,1060,50819.533691
7480.0,1132,50853.6066
8480.0,1278,50890.825773
4340.0,709,50914.069427
7210.0,1119,50948.867953
8000.0,1101,50985.15848
8270.0,1242,51026.334552
7220.0,1123,51065.926427
7520.0,1154,51105.312123
5910.0,939,51136.490224
6900.0,1114,51173.841933
8490.0,1230,51217.17719
6020.0,867,51246.404216
5820.0,1086,51284.952149
7320.0,1109,51323.70161
7080.0,1086,51361.882962
7050.0,1039,51397.286187
6740.0,947,51431.095064
7890.0,1205,51472.340366
5830.0,926,51505.951179
8560.0,1208,51549.282465
6820.0,1064,51588.585738
8390.0,1227,51633.951639
7610.0,1254,51678.417631
8110.0,1106,51719.718367
9090.0,1254,51762.800794
4890.0,721,51787.170211
7400.0,1037,51820.842877
7120.0,1135,51859.867899
7780.0,1143,51899.190732
7010.0,1192,51939.274168
8160.0,1241,51980.819026
7170.0,978,52014.708588
7450.0,1211,52056.740389
7160.0,1117,52094.220121
8150.0,1268,52135.715151
5160.0,749,52160.793946
7820.0,1121,52196.860046
8050.0,1388,52246.248736
8430.0,1245,52282.254086
8620.0,1248,52318.315365
6630.0,1064,52347.953385
3730.0,628,52365.034444
7960.0,1160,52398.379529
7640.0,1231,52431.654536
8190.0,1229,52463.644152
5930.0,1017,52490.134445
7170.0,1207,52521.366325
6900.0,1007,52547.974377
7520.0,1123,52578.07006
7220.0,1014,52606.077681
8000.0,1140,52636.033877
5150.0,811,52656.157714
7450.0,1150,52684.018143
7270.0,1017,52708.785877
7570.0,1144,52737.937375
7490.0,1101,52765.682988
4710.0,691,52782.914546
6700.0,1026,52809.132801
5310.0,768,52828.635435
6820.0,972,52852.834775
7470.0,978,52878.522966
8440.0,1106,52906.483893
6970.0,1081,52934.095285
7950.0,1109,52961.147223
6930.0,981,52985.478539
5490.0,808,53006.086015
7950.0,1182,53035.286103
6430.0,969,53058.349831
4060.0,667,53074.634107
6710.0,909,53096.333469
5530.0,852,53116.65229
6210.0,911,53137.737136
6150.0,926,53159.786684
2930.0,463,53172.825563
7230.0,1088,53199.79164
5660.0,1036,53225.114477
7750.0,1154,53254.041224
5110.0,813,53273.54879
7070.0,1115,53301.159083
4060.0,685,53317.630941
7160.0,1109,53344.668027
5740.0,901,53367.308878
6980.0,1049,53391.924356
7460.0,1153,53420.082371
6380.0,1168,53448.798659
7340.0,1122,53476.526267
8010.0,1206,53506.055665
7790.0,1188,53535.249959
8280.0,1364,53569.664439
3660.0,613,53584.709232
6830.0,1094,53610.485231
6780.0,959,53633.732069
7160.0,1145,53662.73719
8280.0,1220,53691.748529
9170.0,1267,53722.373664
7530.0,1124,53750.066987
3220.0,524,53761.870913
7020.0,1010,53786.378919
6470.0,925,53808.984281
7140.0,1005,53833.948073
3760.0,582,53848.710861
8530.0,1210,53877.971229
7420.0,1148,53905.272343
8330.0,1122,53933.129634
6810.0,1077,53959.716959
5460.0,892,53981.713307
6060.0,838,54002.243932
7370.0,1126,54029.824399
7570.0,1124,54057.56096
7610.0,1199,54087.042418
7550.0,1263,54119.309257
7510.0,1131,54146.899742
7400.0,1052,54173.067173
8320.0,1249,54204.339033
7090.0,1017,54229.756706
7350.0,1065,54255.659336
8750.0,1348,54287.219129
4200.0,642,54302.864191
7810.0,1112,54329.329597
7800.0,1228,54359.61371
5570.0,958,54383.762473
6330.0,1088,54411.477782
7700.0,1124,54438.259908
6900.0,996,54463.450084
6580.0,1057,54489.455641
6450.0,1133,54517.760483
7410.0,1094,54544.135529
8130.0,1074,54569.11931
7080.0,1015,54594.982991
8230.0,1234,54623.916238
7300.0,1152,54653.85905
7710.0,1140,54681.376243
7200.0,1131,54710.030892
8320.0,1183,54740.589752
7370.0,1157,54769.812298
7290.0,1096,54797.266845
4910.0,683,54813.358436
6980.0,1011,54837.62324
8510.0,1157,54866.807014
6600.0,1092,54894.585865
7240.0,1000,54919.227086
3930.0,607,54934.452361
7650.0,1082,54960.656762
7290.0,1063,54986.391259
7490.0,1080,55012.951266
7300.0,1163,55042.280642
7050.0,1037,55067.493397
8640.0,1160,55095.823092
7270.0,999,55119.917945
7670.0,1091,55148.404235
6430.0,898,55171.419976
7600.0,1093,55198.494767
8960.0,1311,55231.333901
8910.0,1248,55262.070169
8020.0,1099,55288.568346
7440.0,958,55312.701783
7600.0,1021,55337.692621
8310.0,1290,55369.491611
6970.0,1048,55395.394006
7700.0,1142,55424.091627
6990.0,949,55447.40149
7810.0,1009,55472.581596
8200.0,1084,55499.310014
4260.0,663,55515.37813
7900.0,1228,55546.42641
7140.0,1069,55572.669173
7420.0,1115,55600.506524
8150.0,1080,55626.756999
8610.0,1155,55654.115783
3850.0,606,55669.297749
3630.0,578,55682.80148
3170.0,534,55696.242376
3760.0,606,55710.351541
5280.0,789,55729.658767
7650.0,1151,55757.792131
8580.0,1294,55789.015318
7470.0,1140,55818.129226
8920.0,1323,55849.523669
3170.0,532,55862.639506
6220.0,935,55886.350223
7870.0,1183,55915.505416
7260.0,1099,55943.183051
6030.0,881,55965.883663
3980.0,631,55980.635402
8010.0,1251,56013.382601
7440.0,1129,56041.914653
7670.0,1130,56070.038998
7610.0,1264,56100.464882
8070.0,1159,56129.126536
6360.0,949,56151.988425
6780.0,1040,56177.765797
7060.0,951,56201.016072
7050.0,1121,56229.469935
6590.0,1001,56253.344431
6910.0,995,56277.314913
7770.0,1051,56303.014501
7870.0,1149,56331.114793
7610.0,1102,56357.653225
7320.0,1102,56384.756124
7480.0,1071,56411.820409
7460.0,1128,56439.438241
8230.0,1234,56468.967746
7610.0,1144,56496.156591
7400.0,1045,56521.742409
7860.0,1189,56551.623157
8510.0,1210,56582.083705
7430.0,1197,56611.432628
5810.0,939,56636.173808
7610.0,1044,56661.462256
7450.0,1134,56690.779095
8290.0,1107,56717.459755
7740.0,1085,56744.818971
7410.0,1193,56772.94464
7200.0,1025,56797.136713
6270.0,1012,56821.55565
8230.0,1339,56854.880646
7530.0,1038,56879.806946
7010.0,984,56903.54796
7860.0,1236,56934.253498
7810.0,1119,56961.850856
4600.0,626,56977.908414
6940.0,1089,57003.808824
8320.0,1240,57035.306896
7320.0,1042,57060.255792
7800.0,1171,57089.447649
7480.0,1063,57114.985016
7550.0,1041,57139.982165
7310.0,1049,57164.96237
7940.0,1066,57191.753812
8400.0,1239,57222.658878
5040.0,796,57242.377661
7580.0,1102,57269.473385
7370.0,1113,57297.100688
6410.0,974,57320.176111
7220.0,1044,57346.323885
6660.0,1149,57374.509612
5420.0,872,57394.851758
7310.0,1125,57422.837882
8580.0,1266,57454.544532
7220.0,1053,57479.914277
8440.0,1247,57511.119966
7520.0,1045,57535.750905
8060.0,1220,57565.192161
8370.0,1314,57598.292207
7740.0,1290,57630.371148
6760.0,1029,57656.892927
4980.0,729,57674.375896
7340.0,1099,57701.925826
7390.0,1040,57727.417915
7470.0,1025,57752.414739
8950.0,1250,57783.374017
5080.0,703,57800.135549
7890.0,1085,57826.628312
7710.0,1233,57855.850527
7490.0,1181,57884.304446
5730.0,845,57904.633642
8230.0,1237,57936.269591
7730.0,1073,57963.41624
3650.0,606,57978.75
8490.0,1291,58011.569179
7640.0,1037,58038.164314
7860.0,1194,58068.759942
5110.0,799,58088.063337
7280.0,1065,58115.723068
7440.0,1013,58142.395314
7620.0,1230,58175.524987
7840.0,1226,58209.173387
6960.0,1123,58241.167681
8340.0,1269,58275.231627
6700.0,1031,58304.584586
3540.0,645,58321.867026
7710.0,1295,58358.701548
7620.0,1209,58394.968252
6330.0,1033,58424.187502
8190.0,1210,58459.514648
8360.0,1112,58493.674142
7430.0,1040,58525.323084
7230.0,1074,58558.584286
6260.0,999,58592.830074
7620.0,1062,58627.597064
7360.0,1010,58661.154139
8340.0,1128,58697.223268
7600.0,1250,58740.005033
7560.0,1037,58775.556312
8060.0,1158,58812.146111
5850.0,837,58840.23196
9090.0,1235,58881.96976
7770.0,1107,58920.014241
7480.0,1132,58958.634127
7060.0,1128,58995.783465
8300.0,1147,59032.428059
8220.0,1240,59075.763429
8820.0,1239,59114.879269
7580.0,1095,59152.207657
8170.0,1237,59194.658364
6220.0,981,59226.363394
7060.0,1042,59263.486648
8600.0,1363,59309.778451
6100.0,1006,59343.673552
7910.0,1177,59384.973118
7400.0,1098,59419.45453
7640.0,1125,59457.574634
7150.0,1121,59496.13216
8210.0,1235,59539.080939
8160.0,1229,59580.165454
7620.0,1144,59619.289908
7370.0,1141,59658.214673
6950.0,1033,59692.152408
4720.0,701,59715.128472
7270.0,1218,59757.17296
5800.0,967,59788.240277
5520.0,801,59817.496512
7950.0,1149,59856.798685
7510.0,1149,59896.405954
7670.0,1070,59933.847894
6270.0,949,59965.338451
7900.0,1124,60006.355874
7660.0,1195,60045.325372
7740.0,1179,60087.483679
3300.0,545,60105.611509
6100.0,988,60138.607829
7510.0,1199,60179.803817
7760.0,1124,60217.032771
8470.0,1209,60259.004236
8590.0,1163,60300.890338
6750.0,996,60334.320068
7810.0,1051,60372.090547
5530.0,845,60401.795388
6320.0,971,60434.961181
7610.0,1121,60474.227659
7630.0,1187,60515.17822
8110.0,1255,60558.978245
7390.0,1058,60594.043649
7800.0,1101,60629.31807
8470.0,1390,60678.895169
7380.0,1152,60718.749227
7520.0,1190,60760.182215
7030.0,1017,60796.66472
7480.0,1120,60835.296287
7420.0,1229,60876.075983
5080.0,788,60902.004798
8100.0,1077,60942.192164
6610.0,947,60974.855397
7230.0,1151,61013.453641
7640.0,1206,61055.286725
7970.0,1239,61097.300075
7580.0,1128,61137.657979
7570.0,1123,61175.030181
7560.0,1037,61208.983012
7430.0,1081,61246.143392
7400.0,1076,61284.085717
8590.0,1056,61319.977989
7400.0,1112,61358.036171
7870.0,1121,61394.750247
7310.0,1112,61430.956841
7060.0,1013,61466.79353
7000.0,1008,61501.675908
7580.0,1004,61533.624725
7010.0,1089,61572.118503
7660.0,1141,61612.781235
7330.0,1037,61646.537334
8200.0,1072,61683.23491
7650.0,1106,61719.450589
5970.0,976,61753.259897
7310.0,1066,61788.995424
8320.0,1152,61827.615543
8070.0,1101,61864.950906
7580.0,1076,61902.703393
7810.0,1198,61943.609893
7270.0,1113,61982.795377
7630.0,1034,62017.321308
7300.0,1109,62055.808404
3740.0,630,62075.8069
8260.0,1175,62114.353226
8170.0,1280,62157.868402
8170.0,1199,62197.924855
8100.0,1124,62235.473856
7660.0,1090,62272.483435
7750.0,1076,62307.319229
7790.0,1025,62342.397485
8320.0,1226,62385.619544
3090.0,527,62404.921128
7500.0,1131,62445.420515
8440.0,1187,62485.307302
2930.0,509,62502.319073
4420.0,685,62524.947989
7070.0,1065,62561.194313
8490.0,1228,62601.609545
7420.0,1130,62639.343601
7730.0,1154,62677.55159
8070.0,1195,62717.900973
8140.0,1239,62759.409894
8290.0,1242,62801.135209
8250.0,1146,62840.893406
6960.0,1030,62875.38811
7020.0,996,62908.960594
4480.0,695,62932.792502
3420.0,551,62951.49229
7550.0,1016,62984.124725
7620.0,1092,63022.479352
7180.0,1206,63062.990343
8000.0,1197,63104.789331
7420.0,1123,63142.908303
7460.0,1123,63180.23737
7110.0,1098,63217.544501
7880.0,1275,63261.563974
7560.0,1155,63301.618257
7400.0,991,63334.214429
7360.0,1111,63372.846361
8150.0,1243,63416.353181
8330.0,1146,63455.557671
7810.0,1125,63492.184299
7250.0,1154,63532.978265
7750.0,1090,63569.195219
8490.0,1139,63606.663674
5890.0,935,63638.402975
7430.0,1082,63674.743289
7330.0,1045,63710.61416
7590.0,1057,63746.484166
7130.0,1154,63785.125736
7060.0,1120,63822.778331
7950.0,1237,63863.923257
8140.0,1157,63900.655883
8860.0,1279,63946.390804
8050.0,1161,63985.025989
8640.0,1214,64028.353594
8190.0,1169,64068.765887
8040.0,1193,64107.89495
8390.0,1234,64150.325193
7370.0,1095,64187.120525
8080.0,1233,64226.395769
7720.0,1117,64263.560013
8070.0,1128,64301.838185
7580.0,1019,64336.901517
6850.0,980,64370.764547
7620.0,1078,64407.027797
8390.0,1278,64451.877161
5980.0,1000,64486.264802
9020.0,1220,64526.157792
7800.0,1155,64566.443979
7600.0,1257,64609.345386
7570.0,988,64643.234734
8010.0,1155,64682.703039
7730.0,1233,64725.829465
7170.0,1035,64760.065979
8250.0,1189,64799.096567
6660.0,893,64829.62586
5780.0,818,64857.755043
8420.0,1242,64898.578576
7610.0,1079,64936.752579
8150.0,1213,64978.047353
8980.0,1326,65023.125182
7280.0,1093,65061.518417
7260.0,1117,65100.119706
7700.0,1232,65141.182753
7630.0,1057,65178.581493
7520.0,1157,65218.383265
7030.0,1128,65255.898194
7950.0,1154,65294.609623
7580.0,1113,65332.699
7670.0,1145,65372.587709
7980.0,1095,65409.598185
7780.0,1124,65448.140926
8340.0,1224,65487.55842
8360.0,1285,65529.502481
7910.0,1126,65568.294389
7250.0,1128,65606.816568
7440.0,1121,65644.04786
7860.0,1097,65679.976451
7460.0,1068,65716.48045
6730.0,982,65747.869901
8880.0,1252,65790.692178
7260.0,1142,65829.853563
7370.0,1121,65866.057561
7620.0,1149,65904.357902
8510.0,1229,65947.060789
7780.0,1118,65984.088094
7130.0,910,66014.916518
7790.0,1195,66053.425844
7690.0,1112,66090.385951
8340.0,1203,66131.046194
8400.0,1199,66171.877979
6540.0,899,66201.752491
7460.0,1133,66241.075772
7770.0,1126,66278.887658
7860.0,1183,66317.658384
8340.0,1233,66360.011781
6460.0,1038,66395.067142
8090.0,1136,66429.314804
7780.0,1204,66471.254984
8050.0,1198,66513.382323
8040.0,1125,66552.25173
7610.0,1093,66587.899506
7360.0,1128,66626.782984
8460.0,1210,66668.409316
7470.0,1126,66706.231609
7680.0,1124,66744.866031
7370.0,1152,66783.34003
8160.0,1218,66825.352013
8610.0,1164,66866.073652
9370.0,1311,66910.96917
7570.0,1076,66948.399979
4140.0,699,66972.677511
7730.0,1237,67015.170067
8340.0,1197,67057.180917
8050.0,1204,67099.865696
7270.0,955,67129.494547
7300.0,1058,67165.359147
7400.0,1134,67204.826058
8350.0,1163,67245.085063
8220.0,1156,67283.58134
8660.0,1259,67326.051286
7920.0,1079,67361.701903
7510.0,1060,67398.598697
3240.0,534,67417.473691
7870.0,1122,67455.322865
2960.0,486,67472.500734
3670.0,642,67493.399341
8380.0,1233,67535.280363
6490.0,962,67568.439983
6940.0,961,67603.880823
7710.0,1173,67644.400566
7290.0,1063,67677.038066
8100.0,1199,67717.201535
7480.0,1108,67757.26392
7190.0,954,67789.828954
7140.0,1012,67823.074727
7330.0,1040,67857.93537
7370.0,1078,67894.735123
7650.0,1078,67929.622508
8000.0,1100,67968.559313
8170.0,1200,68008.043106
7900.0,1071,68044.930032
7310.0,1037,68078.581135
7190.0,1124,68116.767862
8290.0,1190,68157.246449
6120.0,845,68186.377388
6070.0,850,68214.597886
8000.0,1173,68254.312577
7760.0,1065,68291.157157
6310.0,839,68319.654958
7510.0,1122,68358.876697
8340.0,1228,68400.662193
7840.0,1087,68437.045831
7740.0,1208,68478.365731
7120.0,964,68510.369393
7750.0,1059,68545.810037
8330.0,1322,68590.849298
7680.0,1086,68627.51821
8230.0,1128,68664.628246
7340.0,1121,68702.658882
7500.0,1067,68739.007865
6870.0,903,68770.183665
7390.0,1122,68807.078762
8060.0,1148,68847.248559
6410.0,925,68878.724524
6550.0,858,68908.202641
7570.0,1202,68949.936539
7260.0,1012,68985.170725
7790.0,1059,69020.577856
8110.0,1175,69060.479065
7560.0,1058,69096.470301
7690.0,1028,69130.991619
7450.0,1099,69167.998921
8570.0,1222,69209.468897
5790.0,977,69244.167357
7910.0,960,69277.298184
7330.0,1036,69314.068057
5150.0,877,69343.254302
5410.0,808,69370.468073
8100.0,1238,69408.809966
7790.0,1135,69448.141346
8070.0,1077,69484.223095
7420.0,1078,69523.620076
6280.0,978,69557.161809
7880.0,1114,69595.250696
8380.0,1251,69638.326507
7560.0,1068,69674.861955
7740.0,1156,69715.710079
8370.0,1152,69755.630272
7360.0,1016,69790.894869
7500.0,1042,69827.894189
7650.0,1029,69862.005035
6320.0,994,69896.72682
7900.0,1237,69938.954867
7640.0,1130,69978.889957
8030.0,1112,70016.195759
4740.0,692,70038.296727
7480.0,1131,70077.459652
8370.0,1130,70115.02367
7530.0,1128,70153.121178
7560.0,1009,70187.001948
7490.0,1140,70226.648186
7820.0,1181,70264.992191
5860.0,770,70290.079643
7690.0,1180,70330.74361
7260.0,1065,70366.501147
8510.0,1219,70408.263496
7360.0,1124,70444.922649
7170.0,1004,70478.74175
8030.0,1128,70516.900998
7160.0,1109,70554.214859
7060.0,1061,70589.629793
7640.0,1125,70628.044585
7170.0,1023,70663.472535
5380.0,905,70695.117793
4270.0,624,70716.622864
8590.0,1214,70757.43264
7730.0,1158,70795.964286
7660.0,1129,70831.19538
8020.0,1030,70865.328934
8180.0,1144,70904.152747
8350.0,1209,70946.333829
6420.0,896,70976.817733
7300.0,1010,71011.853908
8510.0,1197,71054.09099
7830.0,1063,71089.900397
7460.0,1097,71127.559566
7450.0,1093,71163.310912
7600.0,1128,71199.438606
8660.0,1280,71242.44629
5220.0,936,71275.187632
8470.0,1158,71314.606829
8530.0,1244,71358.541124
7210.0,1036,71393.827717
7390.0,979,71426.061955
7040.0,897,71456.525636
8390.0,1099,71494.184382
8440.0,1168,71534.94513
7870.0,1044,71570.951445
7650.0,1097,71609.789696
5050.0,668,71631.451487
7080.0,1022,71664.902161
8530.0,1213,71705.988703
5790.0,940,71736.579689
8050.0,1213,71776.752826
7610.0,1061,71813.58601
7790.0,1143,71852.414335
7520.0,1057,71888.697909
7380.0,988,71921.94765
8150.0,1138,71960.825177
7080.0,971,71992.35546
7530.0,1071,72029.341446
7980.0,1016,72065.398052
7030.0,984,72098.283459
7800.0,1140,72138.185268
7950.0,1099,72174.907849
7800.0,1154,72214.958603
7470.0,1023,72251.546274
8500.0,1095,72290.360857
6920.0,958,72321.729595
7890.0,1042,72356.713056
5000.0,667,72380.08144
7610.0,1016,72414.868523
7410.0,1032,72452.204048
7490.0,1092,72490.844955
7400.0,1037,72525.204996
6880.0,981,72557.136625
8420.0,1208,72599.875635
7810.0,1059,72636.848692
3570.0,510,72653.181262
7020.0,971,72684.639213
8190.0,1123,72723.168193
7900.0,1252,72764.781478
5000.0,686,72788.73765
4760.0,672,72812.229671
8440.0,1110,72849.064905
7870.0,1118,72886.890823
7630.0,1134,72927.058885
5740.0,825,72954.902518
6940.0,1009,72990.241725
7230.0,1084,73027.311951
8190.0,1038,73065.375192
7910.0,1094,73104.254044
8020.0,1127,73142.859509
6210.0,880,73174.145759
7760.0,1092,73215.062497
7950.0,1197,73256.158064
8040.0,1065,73293.764381
7630.0,1135,73334.326524
3380.0,533,73353.401937
5700.0,792,73380.910087
8180.0,1109,73421.846936
3940.0,650,73443.821164
7460.0,1155,73482.631152
8400.0,1132,73524.469292
7500.0,1157,73565.649395
8250.0,1189,73609.528878
8570.0,1220,73652.626268
7250.0,1046,73689.787394
7220.0,1146,73730.227854
8520.0,1255,73773.800704
8870.0,1231,73814.990837
7470.0,1040,73849.104408
7310.0,1180,73888.267957
7760.0,1134,73924.813138
7760.0,1061,73959.731442
8270.0,1158,74000.027113
5040.0,765,74026.124889
7740.0,1101,74066.88988
7660.0,1159,74106.002505
7700.0,1114,74141.732945
8120.0,1250,74185.594092
9010.0,1215,74224.03904
7200.0,1153,74263.529852
7310.0,1084,74301.163029
7650.0,1170,74340.550741
7470.0,1136,74379.744148
7390.0,1046,74415.877605
5430.0,768,74442.110164
8050.0,1209,74484.486489
7580.0,1220,74526.749113
7480.0,1175,74566.489678
7650.0,1182,74607.65604
8600.0,1357,74652.627944
7460.0,971,74684.475377
8100.0,1321,74729.005474
8600.0,1195,74768.941145
7680.0,1036,74803.903469
7810.0,1040,74839.061418
7510.0,1193,74880.975254
8050.0,1263,74924.594535
3250.0,555,74944.545231
5830.0,901,74974.874716
8020.0,1180,75012.837478
7500.0,1053,75047.681248
7960.0,1046,75084.022779
7580.0,1108,75120.283878
8290.0,1127,75159.745932
8230.0,1125,75196.58028
7760.0,1230,75236.762761
8410.0,1265,75279.323802
7770.0,1256,75321.755317
7810.0,1260,75364.296438
8160.0,1097,75402.650715
9110.0,1187,75445.352838
7310.0,1166,75484.163484
7920.0,1255,75526.711424
5150.0,809,75554.670508
8740.0,1292,75599.801602
8040.0,1129,75638.932393
8750.0,1202,75678.924971
7770.0,1136,75717.111871
7790.0,1256,75760.973964
8710.0,1135,75798.625454
9460.0,1212,75840.372692
7720.0,1127,75877.652156
8010.0,1236,75921.077492
7990.0,1232,75963.772612
8440.0,1270,76006.26031
6820.0,998,76041.560626
7660.0,1157,76081.938638
8070.0,1065,76119.284461
7470.0,1163,76158.937804
8040.0,1066,76195.944619
8300.0,1201,76238.580253
7560.0,985,76271.383626
8130.0,1209,76312.055855
2810.0,486,76326.801912
7830.0,1178,76368.497139
7790.0,1136,76406.000049
7140.0,1004,76440.821759
8030.0,1129,76478.001004
8610.0,1139,76517.663676
7860.0,1189,76560.163238
6290.0,940,76592.155552
7540.0,1178,76632.381278
8620.0,1386,76680.938018
8860.0,1224,76722.479809
6750.0,872,76752.924284
7670.0,1122,76789.660663
8000.0,1172,76829.813923
7450.0,1174,76868.155545
7610.0,1126,76909.058819
7390.0,1015,76944.105582
6560.0,1048,76978.678801
8330.0,1185,77018.317765
7670.0,1284,77061.870934
5540.0,857,77090.949284
8020.0,1135,77131.639868
7580.0,1127,77169.968715
7810.0,1046,77206.81568
8160.0,1173,77246.31179
7960.0,1248,77289.755496
8340.0,1248,77328.185864
8450.0,1257,77371.291661
7430.0,1121,77411.480372
8300.0,1032,77445.002947
8160.0,1142,77483.301859
7590.0,1026,77517.045809
8360.0,1265,77560.767435
7690.0,1106,77597.957268
7680.0,1148,77636.76781
8690.0,1210,77677.53289
8770.0,1223,77717.206697
5790.0,846,77745.175613
7500.0,1082,77783.18516
8420.0,1093,77818.397485
7940.0,1175,77861.284298
8420.0,1099,77897.401673
7990.0,1127,77935.69211
7280.0,1143,77974.277162
7670.0,1156,78011.543336
8080.0,1093,78048.884087
8350.0,1143,78088.934641
8770.0,1259,78131.680633
8060.0,1064,78167.47378
7650.0,1130,78203.792427
8600.0,1177,78244.385476
7670.0,1012,78278.895211
7590.0,1097,78314.529824
6520.0,1038,78349.758729
7910.0,1127,78391.111322
7710.0,1112,78427.418798
5640.0,836,78456.078971
7370.0,1148,78495.314962
8730.0,1253,78540.308639
5860.0,834,78568.545834
8250.0,1292,78610.979537
8180.0,1197,78652.606057
7670.0,1134,78691.08288
8570.0,1270,78736.792696
7920.0,1084,78772.546412
7090.0,996,78807.382598
7580.0,1130,78847.022995
3330.0,523,78864.53884
7670.0,1126,78903.750732
7290.0,1131,78941.313631
8790.0,1202,78983.916954
7270.0,1187,79024.986251
7600.0,1126,79064.898805
8110.0,1157,79105.290395
7840.0,1051,79142.422636
8850.0,1320,79184.393304
7300.0,974,79217.43806
8180.0,1128,79255.233634
8440.0,1192,79296.507607
6890.0,940,79326.40056
8910.0,1272,79370.254904
7990.0,1164,79408.965126
8010.0,1113,79446.42116
4070.0,633,79467.736188
7780.0,1229,79509.547506
3600.0,581,79530.094922
7500.0,1056,79565.027949
7790.0,1202,79605.288288
7650.0,1151,79644.4872
8440.0,1247,79687.128465
7300.0,1116,79725.311282
7610.0,1212,79764.98862
8020.0,1101,79803.145084
7850.0,1143,79844.239156
7890.0,1173,79884.026886
7390.0,980,79917.275083
7610.0,1135,79957.851296
7060.0,936,79990.51993
7620.0,1134,80030.582869
7260.0,1014,80066.577195
7600.0,1183,80106.314934
7510.0,960,80139.393828
7350.0,982,80171.496426
8820.0,1066,80207.670836
7840.0,1111,80243.543331
7790.0,1130,80284.761887
8130.0,1212,80326.187478
9450.0,1288,80370.185668
8690.0,1139,80410.540655
7630.0,1100,80448.787167
8260.0,1040,80482.651269
7890.0,1199,80525.606646
4830.0,665,80548.685178
7690.0,1183,80588.903835
7380.0,1065,80624.598728
8000.0,1040,80657.863134
8200.0,1081,80695.420166
8270.0,1163,80735.333846
7680.0,1012,80769.356054
8280.0,1231,80810.66768
4980.0,683,80833.393649
8310.0,1091,80869.666534
6820.0,992,80905.076537
9180.0,1293,80948.883517
7730.0,1064,80984.842498
7830.0,1092,81022.837076
8160.0,1192,81063.687375
8160.0,1178,81106.376001
7800.0,1131,81144.040418
8290.0,1237,81186.478798
8050.0,1096,81223.870017
8040.0,1245,81266.579318
7990.0,1060,81300.927495
7740.0,1109,81337.103093
7570.0,1047,81372.83193
8880.0,1128,81411.495631
7400.0,1022,81446.839762
7620.0,1126,81486.574404
7570.0,1067,81521.473995
8520.0,1365,81568.797826
7920.0,1243,81612.64999
7090.0,943,81645.541195
8320.0,1120,81682.853781
7910.0,1117,81720.503354
8890.0,1291,81765.171552
8890.0,1248,81808.371133
7550.0,1020,81845.263406
8250.0,1285,81889.526554
7790.0,1084,81925.810801
7300.0,1064,81959.597842
7860.0,1110,81997.659659
7860.0,1016,82030.965698
8330.0,1209,82072.206261
8480.0,1098,82110.994971
8040.0,1127,82151.015332
7980.0,1161,82192.63081
7930.0,1195,82232.326095
7620.0,1008,82265.387609
8230.0,1096,82302.539116
8240.0,1196,82343.675285
8520.0,1178,82383.971107
7880.0,1200,82423.589439
7730.0,1091,82461.248011
7810.0,1096,82497.584174
9220.0,1291,82543.44377
7350.0,1036,82579.932728
8170.0,1197,82622.73905
8780.0,1258,82664.821543
5700.0,843,82692.173744
7730.0,1249,82733.990269
7680.0,998,82766.351717
7780.0,1120,82802.844521
8310.0,1259,82845.672612
8420.0,1297,82889.729928
10160.0,1397,82939.196237
7610.0,1089,82975.433564
7850.0,1161,83016.589785
7670.0,1061,83052.529892
7620.0,1128,83092.400974
7830.0,982,83125.378591
5830.0,888,83154.764195
7290.0,923,83185.867208
8230.0,1096,83222.192338
8400.0,1239,83264.832581
8400.0,1299,83308.78363
8870.0,1202,83349.883621
8720.0,1163,83390.387737
7690.0,1143,83431.693257
8770.0,1257,83470.622045
7630.0,1010,83503.406879
8880.0,1207,83545.111403
9910.0,1387,83593.482584
8120.0,1151,83632.536366
7880.0,1160,83672.387543
8350.0,1180,83714.30503
8140.0,1144,83752.259366
7720.0,1155,83791.718932
8560.0,1212,83830.559349
9210.0,1252,83872.958608
9040.0,1227,83914.730312
7800.0,1049,83952.442409
7410.0,1168,83991.83028
8180.0,1171,84028.568618
8290.0,1220,84068.468271
8780.0,1256,84108.59242
8010.0,1149,84148.317826
8180.0,1201,84186.118862
7770.0,1075,84220.371412
8010.0,1170,84256.049387
7990.0,1135,84288.128765
7030.0,981,84317.379229
8630.0,1064,84350.368849
8500.0,1312,84386.93693
3210.0,546,84403.802551
8510.0,1133,84437.598392
8240.0,1075,84471.261002
7460.0,1018,84503.090636
8210.0,1182,84539.682267
8910.0,1159,84574.638675
3550.0,600,84591.637246
8250.0,1295,84629.599819
7710.0,1009,84659.966922
7720.0,1061,84690.485967
7760.0,1093,84720.046934
8150.0,1266,84756.231061
8030.0,1179,84791.223792
8010.0,1103,84822.554845
5860.0,904,84849.753475
7900.0,1144,84883.78567
7500.0,985,84913.164055
7870.0,1061,84944.296643
8170.0,1035,84975.701964
7560.0,1128,85008.211486
7650.0,1046,85040.411067
8050.0,1259,85075.238278
8290.0,1156,85110.210926
7620.0,1226,85147.351478
7600.0,1148,85182.846933
8080.0,1200,85220.16091
8140.0,1318,85259.620121
8100.0,1143,85294.085556
8040.0,1253,85331.909803
7800.0,1124,85364.861411
8470.0,1097,85398.112183
8050.0,1116,85432.214759
7140.0,921,85461.075809
8000.0,1264,85500.596364
8620.0,1156,85534.857822
7920.0,1017,85564.784285
7600.0,1084,85597.719158
8000.0,1079,85627.810394
7550.0,1060,85658.200418
8480.0,1143,85691.441216
7710.0,1093,85722.9208
7320.0,925,85748.383548
8560.0,1105,85777.194862
7830.0,1063,85805.87155
7480.0,1039,85835.27151
8000.0,1151,85868.938596
7720.0,1129,85900.66301
9240.0,1406,85942.306341
8040.0,1102,85969.871743
8370.0,1202,86001.101093
8210.0,1316,86036.343712
8000.0,1112,86065.230161
6940.0,936,86091.576409
8070.0,1018,86121.348734
7440.0,1146,86152.78424
8380.0,1285,86189.134936
7510.0,1096,86219.556946
7870.0,1043,86247.298079
8060.0,1244,86280.157523
7960.0,1241,86312.830574
7630.0,1041,86341.368283
7650.0,1043,86370.61256
7870.0,1005,86398.220096
8900.0,1243,86432.604603
8110.0,1312,86469.146904
7040.0,906,86493.221178
8990.0,1125,86526.008053
9480.0,1206,86558.407462
8320.0,1122,86591.386297
8100.0,1210,86623.472322
7910.0,1056,86650.824998
7480.0,1152,86681.359081
8190.0,1065,86708.673252
