# {"t_start": 1547446691.2740214, "env_id": "RiverraidNoFrameskip-v4"} 
r,l,t
1790.0,973,43.188376
1240.0,678,66.653105
1260.0,638,88.281085
1810.0,949,121.106379
1500.0,774,147.754764
1370.0,699,172.07956
1280.0,603,193.118986
1310.0,692,217.699558
2260.0,822,246.762239
1290.0,517,265.04618
960.0,477,282.103706
960.0,558,301.731898
1900.0,720,326.990091
1710.0,694,351.490072
1760.0,584,372.298741
1010.0,518,390.367079
2470.0,741,415.999371
1360.0,572,437.104338
1350.0,512,453.492672
1680.0,617,474.677488
2020.0,706,498.010751
2410.0,856,531.296324
1430.0,584,551.420449
1120.0,475,567.50022
2300.0,705,592.380702
2370.0,719,617.052815
2290.0,710,644.11178
1710.0,592,666.517212
1780.0,551,685.93776
2380.0,587,707.830782
1410.0,395,722.420056
2090.0,665,746.232844
2620.0,623,768.827096
2190.0,506,788.203661
1710.0,486,804.844077
1960.0,503,823.389207
2130.0,500,841.80385
1460.0,427,855.849659
1510.0,403,871.177785
1560.0,480,887.988279
1630.0,460,903.245138
1530.0,519,923.670279
2250.0,463,939.757534
2860.0,574,959.56392
2320.0,639,982.780228
2300.0,503,1000.41133
2450.0,523,1018.75691
1750.0,526,1037.72935
2360.0,673,1059.312875
1510.0,407,1074.262638
2000.0,578,1095.371128
1690.0,435,1109.521044
1540.0,385,1123.043811
2020.0,566,1143.157224
2060.0,612,1164.729654
2330.0,814,1196.356346
2420.0,750,1223.235261
3110.0,610,1246.609734
2740.0,598,1267.936883
2160.0,445,1284.905028
2350.0,666,1308.95262
2930.0,553,1328.723335
2330.0,512,1346.143129
2520.0,807,1374.398287
1960.0,535,1392.772308
4070.0,666,1416.017672
1890.0,468,1433.710283
2110.0,578,1455.315614
2870.0,557,1474.989372
2220.0,545,1494.413153
2320.0,495,1510.933191
3430.0,816,1540.47156
2190.0,595,1561.870652
2420.0,821,1590.497296
2210.0,698,1614.281603
1970.0,640,1636.534713
2070.0,704,1663.49279
2470.0,813,1693.050695
2230.0,680,1716.249367
1690.0,450,1733.011372
2480.0,581,1754.518138
2500.0,527,1773.023492
2450.0,533,1792.346861
2650.0,739,1819.325567
2150.0,452,1834.085026
2360.0,524,1852.698783
2130.0,454,1868.403488
2290.0,553,1887.627308
2550.0,546,1907.038015
2710.0,617,1931.213461
2480.0,729,1957.134267
2580.0,586,1979.057467
2880.0,724,2003.518806
3490.0,591,2023.618601
2250.0,506,2042.966985
2830.0,732,2068.711088
2330.0,521,2087.106681
3470.0,793,2115.46344
2820.0,849,2144.377266
2100.0,457,2161.377434
3580.0,795,2192.307414
1870.0,590,2213.503812
2080.0,580,2235.405408
2570.0,796,2264.061944
2650.0,558,2284.266221
1790.0,456,2301.294283
2440.0,791,2329.745758
1840.0,445,2346.995296
2780.0,882,2380.106864
3270.0,617,2402.982834
2350.0,646,2424.985393
2340.0,770,2451.700258
2340.0,521,2470.212117
2240.0,515,2488.185559
2660.0,604,2510.145353
2540.0,747,2537.450137
3000.0,587,2560.245341
2300.0,565,2581.215689
2320.0,669,2604.654497
2450.0,800,2632.021855
3950.0,594,2650.616738
2740.0,652,2672.020199
2040.0,540,2692.034061
2040.0,527,2711.795291
2540.0,589,2731.504308
1950.0,521,2750.455183
2460.0,708,2776.921154
2350.0,753,2803.190326
2690.0,572,2823.103115
2400.0,703,2845.962853
2310.0,602,2867.726266
2480.0,679,2893.49071
2710.0,859,2925.779029
1980.0,499,2944.205657
2320.0,556,2964.739589
2250.0,576,2984.528723
2130.0,673,3008.2265
1870.0,433,3024.207722
2970.0,672,3048.926885
2260.0,552,3068.224185
2050.0,624,3090.717676
2400.0,617,3114.017834
1890.0,593,3135.963778
3230.0,627,3158.597858
2230.0,575,3180.632026
2750.0,630,3204.651921
2820.0,597,3226.585101
2650.0,730,3252.987049
2770.0,637,3276.700695
2360.0,579,3298.202808
1850.0,463,3313.779791
2920.0,645,3337.716919
2340.0,524,3356.776948
2250.0,546,3377.05025
2670.0,521,3395.373667
2060.0,520,3414.352343
2310.0,571,3435.366121
2440.0,633,3458.054291
2340.0,586,3478.76388
2430.0,626,3500.465225
2850.0,836,3530.001082
2410.0,566,3550.510514
2240.0,700,3575.387868
2330.0,580,3594.727914
2150.0,708,3619.603049
2290.0,620,3642.824592
2800.0,952,3675.729214
3100.0,747,3702.998248
2710.0,874,3733.962743
2630.0,553,3753.94286
2740.0,919,3788.212844
2640.0,591,3809.76518
3090.0,937,3845.595278
2320.0,547,3866.691493
3240.0,625,3889.544473
2530.0,708,3914.706008
2880.0,796,3943.386395
2690.0,646,3965.31428
2340.0,772,3994.152154
2170.0,710,4019.029446
2020.0,557,4038.302912
1950.0,609,4061.050059
2020.0,578,4083.669974
2600.0,713,4108.645172
2370.0,676,4134.411947
2930.0,665,4156.212805
2990.0,924,4189.204601
2510.0,632,4212.784508
2860.0,768,4242.383967
2520.0,655,4266.79495
1800.0,511,4283.510971
2710.0,589,4304.047525
2730.0,769,4331.482512
2880.0,828,4361.874992
3090.0,709,4385.949369
2320.0,653,4409.618769
2450.0,664,4434.337389
3110.0,666,4458.513938
3120.0,673,4482.6859
2900.0,558,4503.867473
2580.0,767,4531.955145
3010.0,766,4560.048241
2710.0,537,4577.86813
2880.0,877,4608.919594
3250.0,664,4633.49736
2820.0,643,4655.170074
2610.0,620,4679.150933
2310.0,708,4705.304836
2360.0,680,4731.228398
2140.0,552,4750.530275
3200.0,939,4784.982411
3300.0,619,4806.270792
2720.0,938,4840.731569
2690.0,667,4863.917843
2310.0,515,4882.019589
2400.0,663,4905.827078
2930.0,666,4930.201053
3190.0,784,4959.484443
3020.0,865,4991.620854
2400.0,647,5016.102251
2660.0,876,5046.046265
2890.0,925,5079.718581
2380.0,527,5099.633544
3380.0,962,5135.570344
2830.0,865,5167.473709
2840.0,925,5199.432494
2870.0,950,5234.178794
2300.0,608,5257.111839
2400.0,522,5276.08634
2510.0,784,5304.592724
2790.0,842,5334.971899
2470.0,605,5355.082209
2690.0,824,5386.235033
3130.0,824,5416.057302
2190.0,428,5432.29422
2190.0,690,5459.951248
4380.0,867,5492.502263
2540.0,665,5516.374246
2600.0,854,5549.963373
3090.0,792,5579.348191
2410.0,695,5606.333847
2480.0,526,5626.725249
2170.0,537,5647.127215
2230.0,479,5663.828121
2930.0,796,5695.231205
2420.0,624,5720.11701
2350.0,588,5742.557861
1920.0,540,5763.304309
2840.0,511,5781.701668
3060.0,679,5804.517884
2840.0,907,5838.147178
2900.0,864,5869.023475
2210.0,622,5891.018017
3110.0,573,5911.309551
2850.0,892,5942.27461
2430.0,765,5970.888747
2960.0,715,5995.939562
3060.0,936,6030.124851
2470.0,697,6056.040444
2450.0,672,6080.140349
2770.0,1032,6114.554358
2720.0,745,6140.157258
2290.0,675,6164.6194
2690.0,849,6194.474459
2270.0,697,6220.88089
3180.0,604,6242.26892
2210.0,646,6266.195331
2960.0,1096,6309.07631
1930.0,534,6329.660725
3320.0,761,6357.120545
2610.0,679,6382.75341
3040.0,710,6408.891934
2960.0,975,6446.416206
2670.0,744,6474.749836
3050.0,905,6507.369181
3150.0,767,6536.36846
2240.0,631,6558.959353
2890.0,694,6583.06299
3000.0,873,6614.994207
2430.0,682,6641.682707
3030.0,631,6665.213991
1950.0,414,6680.790902
2630.0,604,6703.902277
3020.0,780,6733.162752
2930.0,714,6759.565131
3660.0,721,6785.746613
3430.0,729,6812.147641
2310.0,572,6833.926706
2780.0,666,6858.094425
3350.0,759,6886.559823
2800.0,606,6907.38924
2590.0,648,6930.913026
2400.0,579,6951.590943
2520.0,612,6975.915996
2320.0,563,6996.315109
3140.0,698,7022.348625
2690.0,621,7044.70014
2730.0,812,7074.107121
2640.0,646,7098.13273
3510.0,851,7128.180176
2310.0,666,7153.888511
2580.0,774,7183.174615
2760.0,622,7205.65214
2170.0,487,7223.881338
2790.0,664,7246.631057
2860.0,576,7267.488709
2730.0,864,7298.76788
2340.0,595,7320.601078
2850.0,788,7349.52852
3170.0,956,7384.424282
2880.0,609,7406.791239
3330.0,610,7429.176172
2370.0,827,7459.322883
2570.0,573,7480.852365
3480.0,1079,7519.926968
2860.0,640,7543.275523
3650.0,680,7567.415322
2900.0,810,7596.984425
2740.0,638,7619.950695
2200.0,556,7640.911397
3350.0,868,7673.265959
2200.0,615,7695.21466
2540.0,622,7719.644496
3480.0,800,7748.85164
3030.0,649,7773.288521
2150.0,476,7791.125631
3180.0,660,7815.207614
2050.0,461,7831.252364
1970.0,507,7850.317312
3090.0,845,7880.607711
3110.0,587,7902.346831
3270.0,823,7932.14947
2510.0,645,7953.659398
2310.0,503,7972.165346
3160.0,724,7997.121954
2090.0,498,8014.864545
2710.0,616,8037.470845
3180.0,586,8060.563174
2430.0,597,8082.162118
3070.0,677,8106.223619
3560.0,903,8141.087469
2480.0,609,8164.244397
3370.0,856,8197.07269
2140.0,587,8218.350019
4100.0,766,8246.284508
2980.0,738,8272.467683
2550.0,659,8296.802049
3190.0,810,8325.95891
2710.0,675,8350.07358
3720.0,952,8384.508853
2170.0,555,8403.694581
2350.0,571,8423.941334
2470.0,736,8449.448103
2860.0,867,8480.827324
2790.0,779,8510.523817
3030.0,663,8533.405626
3610.0,630,8556.754316
2300.0,627,8580.429613
2350.0,510,8598.875165
2760.0,817,8627.500633
3160.0,803,8657.468635
3820.0,697,8685.360502
2450.0,645,8706.918654
3470.0,676,8732.893324
3150.0,850,8764.236773
3400.0,912,8798.232511
2700.0,735,8825.448956
3190.0,743,8852.487808
3040.0,789,8881.633329
2670.0,795,8911.06146
2910.0,737,8937.169469
2410.0,589,8958.734668
3340.0,811,8988.918889
2890.0,800,9017.422078
2220.0,513,9036.808017
2150.0,515,9056.307287
2340.0,516,9076.514432
1860.0,439,9092.315929
2790.0,728,9118.051552
3080.0,587,9140.197559
3100.0,787,9169.763598
3670.0,1032,9207.041626
2760.0,792,9235.120674
2790.0,645,9259.393369
3520.0,982,9296.410373
3650.0,938,9331.39942
2730.0,648,9354.043775
2930.0,855,9385.596858
3200.0,989,9421.305616
2220.0,534,9440.210162
3120.0,792,9469.156533
3100.0,765,9498.3415
2990.0,936,9532.585743
2890.0,877,9564.738329
2830.0,677,9589.381102
4510.0,854,9620.727426
3280.0,859,9652.114035
2800.0,821,9684.00471
3470.0,888,9715.958693
3440.0,908,9750.886125
2340.0,544,9772.318691
2790.0,790,9802.403759
2450.0,608,9822.681278
2620.0,689,9849.021509
3440.0,1017,9885.238124
3630.0,917,9918.407826
2810.0,640,9941.733953
3010.0,1005,9978.170964
3390.0,635,10002.349499
2990.0,794,10031.8707
2200.0,485,10050.292787
3210.0,878,10081.603141
2880.0,644,10106.638177
2920.0,734,10133.149919
3640.0,1040,10173.484701
3010.0,819,10201.144541
2730.0,605,10222.798147
3150.0,799,10252.309033
3340.0,795,10281.325202
2360.0,580,10301.526375
3240.0,737,10327.982347
2990.0,662,10351.493499
3590.0,808,10381.860996
3460.0,729,10407.618321
3400.0,682,10433.782882
3290.0,795,10464.116044
3670.0,664,10488.738635
2900.0,594,10510.052508
3200.0,580,10531.569445
3300.0,664,10555.2128
3530.0,856,10586.127437
2050.0,444,10602.379031
3690.0,916,10637.810198
3240.0,773,10667.032519
3230.0,712,10693.283798
2940.0,747,10720.934872
3410.0,854,10752.71643
3660.0,789,10781.8212
2170.0,554,10802.996952
3500.0,737,10829.914995
3240.0,781,10859.681122
3090.0,727,10885.940994
3170.0,704,10911.554453
3640.0,734,10938.899362
3470.0,728,10965.760553
4540.0,993,11001.13244
3270.0,601,11024.615912
3090.0,858,11055.697925
1840.0,458,11072.674156
3440.0,812,11101.435778
3300.0,761,11129.144273
3680.0,715,11154.558596
3400.0,824,11185.273111
4140.0,829,11215.850376
5650.0,1102,11257.509275
3580.0,738,11285.443755
4350.0,890,11317.409868
2950.0,649,11341.101922
3730.0,707,11363.84374
2510.0,565,11384.561272
2420.0,666,11408.808076
3040.0,666,11433.4888
4760.0,999,11470.191146
3800.0,767,11499.354294
3410.0,762,11527.917303
5450.0,860,11560.124948
2430.0,496,11578.958597
4350.0,795,11609.084443
3110.0,668,11634.094903
3250.0,726,11661.904252
3090.0,651,11684.821046
3950.0,747,11713.920935
3960.0,826,11743.838103
3370.0,637,11767.142447
3070.0,696,11793.038437
3270.0,614,11815.483641
3500.0,696,11841.085813
3660.0,829,11873.49306
4300.0,855,11904.198571
3440.0,840,11934.469255
3660.0,753,11963.609977
3330.0,727,11990.881861
4010.0,871,12023.150363
3020.0,648,12047.227055
3120.0,681,12071.935619
2870.0,584,12093.698557
2950.0,628,12115.745053
3730.0,749,12142.303861
3430.0,679,12167.321893
2960.0,610,12189.776622
3770.0,829,12219.467851
3500.0,653,12243.818156
3710.0,745,12269.850525
4100.0,836,12300.844431
3780.0,756,12327.30863
3800.0,825,12356.764566
2990.0,745,12383.957402
3090.0,744,12411.76504
3010.0,665,12434.483236
4870.0,977,12471.507193
3830.0,905,12505.310847
4990.0,1153,12547.58163
3450.0,696,12572.3426
3450.0,702,12598.410903
3640.0,725,12623.804699
3530.0,704,12650.633606
3490.0,806,12678.793431
4250.0,803,12708.968343
3690.0,685,12734.100163
4830.0,1207,12779.747114
3660.0,730,12806.60271
4140.0,907,12840.298424
3680.0,711,12866.462978
3910.0,813,12894.479661
3970.0,879,12925.599088
4280.0,1019,12963.214253
2980.0,617,12985.546128
5050.0,1113,13026.668274
3940.0,909,13059.028421
3100.0,599,13081.122652
4860.0,901,13114.221217
2990.0,577,13133.533671
2620.0,557,13154.941412
4140.0,781,13184.107638
4120.0,836,13216.913192
2320.0,434,13232.099256
2740.0,491,13251.061046
4100.0,764,13279.22949
3850.0,736,13306.026477
2800.0,597,13329.109296
3530.0,738,13357.965239
3320.0,636,13380.628453
3260.0,679,13405.654216
3690.0,837,13435.249649
3960.0,956,13470.377882
3750.0,853,13502.119167
2860.0,614,13524.522998
3360.0,746,13551.512723
4210.0,909,13583.444674
3480.0,684,13608.087886
5830.0,1238,13652.023869
4610.0,982,13687.030509
3520.0,807,13716.874291
3430.0,669,13740.376281
3230.0,634,13764.271157
4710.0,943,13800.462691
6120.0,1227,13844.803258
2770.0,446,13862.23355
3890.0,682,13887.930557
3630.0,643,13912.242857
4500.0,826,13942.136001
4350.0,776,13969.613814
4150.0,820,14000.995745
3650.0,866,14033.44412
5960.0,1153,14076.319516
3940.0,803,14105.468792
5180.0,995,14142.437595
4850.0,872,14173.248273
3970.0,735,14198.945221
2650.0,604,14221.283278
4320.0,776,14249.416121
5380.0,1106,14289.728944
4990.0,872,14322.088444
3720.0,792,14351.650313
4050.0,847,14382.63285
3760.0,679,14407.911433
4060.0,715,14433.528644
2710.0,534,14454.125562
5400.0,1053,14493.615624
3710.0,801,14522.185307
3980.0,823,14550.790058
4640.0,951,14585.543636
6540.0,1230,14630.043771
4130.0,765,14658.002846
3190.0,599,14679.418793
4480.0,882,14712.3624
3720.0,724,14738.401661
4220.0,952,14772.796461
3670.0,785,14801.362961
4290.0,882,14832.90526
3860.0,743,14861.382261
3980.0,879,14892.871336
3760.0,726,14920.466445
3560.0,710,14947.004376
5620.0,1175,14988.541584
3310.0,636,15011.826805
3550.0,734,15039.600379
4190.0,840,15071.104117
4560.0,932,15105.851366
4340.0,895,15136.496825
3790.0,792,15166.432762
3790.0,700,15190.868116
3030.0,551,15210.334274
5520.0,1017,15245.606475
3910.0,713,15274.010585
4020.0,814,15302.779673
3690.0,814,15332.717486
5090.0,1046,15369.612857
2060.0,393,15383.624229
4540.0,903,15417.197192
2860.0,532,15435.458972
3460.0,654,15458.898105
4700.0,963,15494.100904
3350.0,704,15519.913345
4360.0,918,15551.553782
3870.0,766,15577.942123
4000.0,753,15606.60293
4600.0,1018,15644.162812
5180.0,1046,15682.622616
3320.0,766,15711.435184
3720.0,752,15739.364338
4620.0,829,15769.797254
3480.0,587,15791.672316
3780.0,677,15817.359646
5040.0,871,15850.259703
2600.0,501,15868.683187
3230.0,635,15892.021277
4020.0,726,15918.837929
5210.0,863,15950.016795
4140.0,887,15982.37544
3860.0,797,16011.977188
5050.0,904,16046.476941
5980.0,1182,16092.061555
5000.0,1042,16129.832083
3690.0,720,16156.79723
3300.0,663,16181.831631
3570.0,667,16205.946135
4030.0,663,16228.648432
5460.0,1068,16268.002996
2360.0,541,16289.120578
3890.0,762,16316.201751
4320.0,871,16347.269594
3410.0,734,16374.543014
3300.0,676,16399.173098
5290.0,1076,16438.599195
3990.0,759,16464.97835
3240.0,674,16489.058642
3950.0,683,16512.859516
3220.0,578,16533.26246
3640.0,687,16558.272811
3620.0,746,16584.694973
5450.0,946,16620.722593
4620.0,1039,16659.996821
3740.0,681,16685.700806
5440.0,910,16720.647769
3570.0,613,16743.822115
3760.0,682,16769.962323
4720.0,861,16800.463326
4720.0,924,16834.963189
4430.0,800,16863.808795
4240.0,781,16892.168796
3140.0,598,16914.026729
3650.0,823,16944.889788
2550.0,529,16964.03008
3410.0,664,16988.766443
5170.0,1065,17028.07485
3290.0,680,17052.749585
5330.0,1206,17097.967117
3100.0,733,17122.032276
4170.0,808,17150.546689
3410.0,670,17175.481831
3190.0,633,17197.360665
2900.0,599,17219.779256
2450.0,540,17239.759157
3660.0,642,17262.719108
3390.0,706,17288.698955
4650.0,915,17322.670183
3790.0,657,17346.551846
5130.0,1004,17383.183819
4430.0,862,17414.243602
4330.0,833,17443.748844
4340.0,826,17473.294382
5400.0,1192,17518.268723
5140.0,974,17554.43602
4070.0,779,17584.284769
3080.0,605,17606.561007
5120.0,897,17638.68267
2980.0,522,17658.338286
5480.0,1069,17698.800693
4380.0,761,17725.203658
4580.0,1097,17763.734456
5140.0,969,17798.570436
5200.0,1100,17842.942558
2980.0,624,17865.928405
4940.0,926,17900.002833
4620.0,1046,17940.191502
5980.0,1211,17984.366478
3500.0,630,18006.640621
4810.0,802,18033.84759
2670.0,469,18050.640224
4600.0,1016,18089.002053
3120.0,618,18111.090034
4390.0,836,18142.785712
5070.0,874,18174.562078
4580.0,774,18203.416545
3430.0,641,18226.028522
3620.0,614,18248.529365
4700.0,878,18280.820706
4080.0,720,18308.06262
5450.0,1040,18347.013589
5230.0,910,18379.326886
5090.0,1062,18417.195667
4270.0,699,18442.874843
3070.0,617,18466.036297
3720.0,711,18490.185414
4030.0,745,18517.355334
4700.0,895,18549.711567
2620.0,479,18566.862916
3660.0,708,18591.513952
3760.0,624,18614.728128
3750.0,701,18639.949984
5550.0,1036,18676.614963
3130.0,630,18699.271988
4890.0,831,18730.959814
4690.0,936,18763.72822
4830.0,924,18795.981803
5670.0,1131,18837.249201
5150.0,1022,18874.516455
3580.0,768,18901.786761
3770.0,732,18927.865766
5190.0,964,18963.804315
2990.0,575,18984.072757
5320.0,1124,19026.330689
5010.0,971,19061.664636
5630.0,973,19096.99667
4950.0,911,19129.486378
4880.0,1003,19166.902193
2870.0,548,19186.67354
5370.0,1037,19223.635265
5200.0,1060,19262.890443
5040.0,1083,19303.342422
5460.0,1044,19340.369295
3050.0,623,19364.434978
5740.0,1015,19401.154843
3370.0,618,19422.766677
4660.0,834,19453.869672
4500.0,806,19484.146186
5770.0,1065,19525.558378
4950.0,992,19562.945693
6070.0,1134,19605.176432
5800.0,1006,19641.558023
3520.0,695,19667.232006
5310.0,1023,19703.562788
5450.0,976,19738.292803
5080.0,982,19771.757895
4880.0,786,19800.303565
5370.0,1079,19841.62222
3330.0,599,19862.55701
4710.0,936,19896.054296
4620.0,927,19930.141052
4050.0,743,19957.134129
4510.0,788,19986.28777
3600.0,692,20011.980911
5640.0,1198,20056.875519
4490.0,841,20088.070502
6380.0,1353,20137.834765
3600.0,757,20165.669284
3890.0,661,20190.701569
4200.0,906,20225.154752
6120.0,1141,20266.868588
5290.0,1137,20306.547417
2980.0,537,20326.989
3900.0,761,20354.261284
3410.0,681,20380.035484
5130.0,1033,20418.868992
4340.0,806,20448.547186
5470.0,1349,20498.785307
4830.0,953,20535.111912
2520.0,525,20554.931312
5100.0,1010,20590.662649
5590.0,1182,20636.610421
3000.0,610,20658.397135
5290.0,1148,20699.932536
5730.0,1162,20743.097817
3550.0,669,20767.528805
4870.0,849,20798.674146
5240.0,982,20835.222434
5190.0,948,20870.486828
4030.0,749,20898.152305
3870.0,671,20923.399679
5010.0,934,20958.758112
3020.0,579,20978.411575
3190.0,570,21000.741619
3190.0,612,21021.875823
5810.0,1067,21062.593207
6440.0,1110,21102.46241
5080.0,972,21137.558631
5460.0,981,21174.123881
5590.0,1067,21214.782769
4240.0,727,21242.254039
3230.0,673,21266.974796
3710.0,646,21291.230608
2660.0,529,21310.111249
4660.0,903,21343.374085
5020.0,1202,21389.185714
5960.0,1066,21428.827883
4510.0,908,21460.865341
5180.0,904,21493.200978
4290.0,822,21522.049768
5160.0,1024,21560.317731
4580.0,775,21590.168564
5140.0,970,21625.622505
2920.0,529,21643.74846
2970.0,537,21664.251264
3270.0,627,21686.603513
3910.0,713,21711.896213
3190.0,609,21732.639737
3640.0,680,21756.183006
3820.0,673,21781.245127
2860.0,479,21798.771714
5220.0,841,21830.121917
5910.0,982,21864.729236
5620.0,1048,21904.074514
5340.0,1034,21939.923146
5440.0,937,21974.009757
3810.0,705,22000.335513
2960.0,571,22021.072727
5440.0,1025,22058.025073
2810.0,561,22079.075376
4840.0,828,22110.404974
3350.0,570,22130.057297
4880.0,812,22158.600901
5330.0,1066,22197.22929
5450.0,1044,22235.405115
5570.0,921,22269.235454
4740.0,997,22305.900923
4770.0,1003,22341.077278
3670.0,723,22368.485859
5600.0,968,22404.001801
3440.0,635,22426.509694
5220.0,880,22457.21861
5520.0,958,22493.276549
4700.0,943,22528.044811
5400.0,950,22563.720186
2940.0,565,22582.438736
6980.0,1413,22633.474701
3630.0,624,22657.286886
3410.0,646,22681.778011
3520.0,645,22705.170998
5870.0,975,22739.072049
4930.0,860,22769.446824
7220.0,1248,22814.060902
3490.0,638,22835.910696
3750.0,738,22862.554715
3800.0,649,22886.870354
3340.0,723,22912.983174
5120.0,1036,22951.739004
3110.0,578,22971.195454
4160.0,826,23001.783575
3800.0,719,23027.907902
4290.0,791,23056.429781
6950.0,1220,23100.361625
5770.0,1014,23137.223325
6570.0,1121,23179.345524
5100.0,935,23212.490151
5470.0,901,23244.915807
5180.0,1062,23283.949853
4030.0,698,23309.693956
3340.0,694,23333.666357
3950.0,681,23358.767229
5410.0,970,23394.82535
6360.0,1260,23441.457178
6010.0,1052,23479.494449
3850.0,808,23509.61239
4720.0,873,23542.739853
3050.0,494,23560.738927
6800.0,1228,23604.274503
5870.0,1158,23647.04607
5480.0,987,23681.222246
5420.0,978,23716.122626
5020.0,899,23748.425298
5500.0,1080,23789.342121
4990.0,855,23819.938844
4280.0,805,23849.65264
3290.0,632,23872.489901
6110.0,1079,23912.26725
5200.0,903,23945.250341
6230.0,1101,23986.340566
5580.0,1205,24030.287118
5770.0,1041,24070.155216
6470.0,1219,24114.955344
3630.0,764,24142.843611
3050.0,628,24166.340435
3660.0,682,24192.290533
6560.0,1086,24230.264326
6280.0,1279,24278.217308
6490.0,1291,24324.651673
5500.0,1113,24364.834024
4350.0,853,24397.34532
6570.0,1154,24440.195103
5140.0,807,24467.833569
6990.0,1236,24513.976108
4840.0,967,24547.65736
5350.0,877,24580.850664
3830.0,689,24604.971654
5260.0,875,24636.460745
6250.0,1193,24680.801441
6370.0,1052,24718.971618
6320.0,1031,24757.323122
3820.0,658,24783.364642
5100.0,896,24816.786965
5050.0,873,24847.793061
6860.0,1099,24886.371423
5210.0,1041,24923.919093
5010.0,850,24952.910712
4470.0,689,24978.61934
5950.0,960,25013.768934
7670.0,1325,25061.565553
5710.0,1006,25098.625635
6280.0,963,25134.518361
4740.0,864,25166.304842
4930.0,878,25199.831157
6050.0,1050,25237.662187
6220.0,994,25273.69154
5970.0,925,25308.694176
5680.0,973,25343.130427
5740.0,1005,25380.853575
4830.0,827,25410.758379
4680.0,813,25440.595844
7050.0,1111,25481.885875
6230.0,1043,25519.520857
6950.0,1105,25561.178934
3920.0,637,25582.714974
6200.0,1147,25625.157039
5210.0,857,25658.862325
5800.0,1010,25696.203659
3920.0,727,25723.781364
5660.0,1239,25771.177093
3420.0,623,25793.430255
6470.0,1124,25834.594091
4950.0,958,25869.612637
5700.0,1102,25910.679356
4470.0,777,25938.412787
6280.0,1027,25975.829932
3350.0,604,25997.386755
3510.0,688,26022.979005
8070.0,1317,26069.051618
4400.0,738,26097.164435
3490.0,604,26121.34691
5400.0,942,26156.602351
6290.0,1037,26194.102838
6140.0,1077,26234.49617
5300.0,887,26267.266227
6210.0,1043,26305.953686
5450.0,915,26339.415143
3100.0,533,26358.823093
7180.0,1281,26405.90061
6370.0,1121,26448.532725
5440.0,994,26485.999598
5620.0,1036,26524.539443
3880.0,796,26553.798923
3530.0,642,26578.244443
4810.0,795,26608.861067
3660.0,645,26633.359054
5970.0,1083,26675.040281
6290.0,998,26712.104025
4620.0,808,26743.534804
3130.0,606,26766.261307
5600.0,890,26800.801873
6450.0,1040,26842.01043
6570.0,1200,26885.589974
6380.0,1285,26934.631038
4450.0,750,26964.717098
6540.0,1246,27012.653195
5780.0,941,27048.264457
7160.0,1085,27088.588632
7150.0,1103,27132.477476
6240.0,994,27170.194931
4520.0,755,27198.64421
6360.0,1024,27237.2058
4990.0,961,27273.523362
5310.0,865,27304.813999
2840.0,563,27325.891343
7480.0,1208,27371.540346
6350.0,1148,27413.930753
3970.0,673,27440.346173
5250.0,851,27471.644617
5930.0,958,27508.521882
3580.0,654,27533.65295
7460.0,1149,27576.017089
5700.0,837,27606.498701
6670.0,987,27643.852139
3380.0,578,27666.001041
5010.0,902,27696.23052
6370.0,1155,27738.386804
6580.0,1160,27782.492937
5560.0,978,27818.187368
5810.0,882,27850.233379
3740.0,637,27872.872108
6410.0,1134,27914.684092
5200.0,1043,27952.413498
5760.0,1128,27993.423525
3670.0,637,28018.089841
6830.0,1150,28060.432369
4400.0,701,28087.49952
2980.0,607,28109.033026
6040.0,1013,28147.9968
5410.0,880,28181.170571
6870.0,1181,28225.921432
5080.0,864,28258.941554
3580.0,623,28282.944681
4040.0,676,28309.307594
4360.0,751,28337.273413
3130.0,595,28360.70668
5300.0,966,28395.896749
5330.0,890,28429.41923
5000.0,844,28459.138003
6390.0,1070,28498.595115
5380.0,880,28531.291374
3260.0,561,28553.834726
5780.0,954,28589.235392
5600.0,926,28625.26796
4010.0,688,28649.691927
6010.0,1131,28692.843309
5410.0,953,28726.26534
6090.0,1020,28764.659509
5830.0,1102,28807.215556
5880.0,914,28841.283574
5560.0,918,28875.626039
6210.0,1059,28915.762947
3990.0,713,28942.292306
5420.0,831,28973.49662
6680.0,1052,29013.291225
2820.0,475,29030.84249
6270.0,1056,29071.533367
5440.0,958,29107.659939
6730.0,1066,29148.693111
5960.0,1009,29186.994218
5420.0,864,29219.698259
3970.0,770,29248.410943
4880.0,806,29280.173792
5830.0,934,29313.604663
2600.0,476,29332.289647
3880.0,637,29354.433319
5660.0,969,29390.637635
6370.0,1093,29429.591066
7120.0,1224,29476.616583
5280.0,812,29507.770262
6380.0,1058,29547.737305
6000.0,911,29582.113773
4020.0,636,29605.438418
5290.0,901,29638.86699
5230.0,849,29672.166174
7060.0,1082,29712.992151
7590.0,1342,29764.055212
6410.0,1001,29802.257104
7350.0,1279,29850.908075
6160.0,1011,29888.759453
6860.0,1067,29929.149357
5280.0,902,29964.361812
5160.0,817,29995.064481
6360.0,1085,30035.243136
5170.0,896,30068.819783
7360.0,1241,30115.131095
7170.0,1124,30156.01793
5770.0,1147,30198.298362
6580.0,1288,30247.314906
7690.0,1287,30298.447353
4770.0,784,30327.535158
5360.0,956,30363.251094
5190.0,944,30399.479778
4780.0,784,30428.587943
3410.0,665,30453.525204
4860.0,1004,30491.336585
6670.0,1315,30542.032629
5390.0,879,30575.113619
3340.0,571,30595.51663
6390.0,1041,30633.599799
6270.0,969,30670.905708
2710.0,522,30688.679987
3280.0,639,30712.268523
6590.0,1125,30756.016685
5690.0,965,30789.985445
3450.0,603,30812.983215
4180.0,735,30839.225801
3900.0,641,30862.146541
3720.0,670,30886.703929
6530.0,1040,30926.684098
5240.0,953,30959.789712
5110.0,792,30987.5527
6090.0,1030,31027.242158
3010.0,538,31048.499958
5580.0,955,31085.185136
6350.0,1018,31122.38102
3250.0,550,31142.21998
3700.0,636,31166.685687
5210.0,798,31195.358585
4460.0,785,31224.338498
5360.0,960,31257.983434
6360.0,1191,31301.804895
5850.0,1080,31342.208667
6610.0,1069,31381.864648
5710.0,902,31415.328376
4180.0,682,31440.709176
5220.0,792,31469.487803
5020.0,882,31502.864785
2430.0,419,31518.598482
3850.0,754,31546.851316
2850.0,498,31564.621414
5950.0,981,31599.192187
5920.0,963,31634.547451
6070.0,1198,31680.89524
5880.0,1055,31719.422016
5290.0,997,31755.655389
7420.0,1201,31802.466955
5090.0,754,31830.149485
6280.0,1112,31874.60779
5460.0,764,31903.934279
5890.0,846,31936.011694
6750.0,1061,31976.884013
3250.0,527,31997.251454
7000.0,1026,32035.901718
5730.0,909,32068.734043
6350.0,1116,32109.450316
5990.0,1010,32146.847193
6720.0,1183,32190.459729
6050.0,900,32224.824952
7370.0,1409,32276.771711
4180.0,726,32303.73274
3870.0,628,32327.62905
6470.0,1078,32368.471845
5940.0,942,32402.89099
6990.0,1141,32444.618644
6260.0,1081,32482.85852
4260.0,735,32510.13409
5670.0,912,32544.541669
3350.0,613,32567.520037
6790.0,1003,32605.102351
5480.0,954,32637.496454
6080.0,898,32668.828683
6100.0,1064,32709.853512
6730.0,1062,32748.363342
4020.0,643,32772.189093
5970.0,931,32806.131028
6240.0,1097,32847.693187
5660.0,823,32878.071933
6160.0,1011,32915.04967
5660.0,858,32946.654711
7250.0,1166,32989.438287
6550.0,1137,33034.401062
6880.0,1154,33079.68148
6410.0,1114,33123.396745
6280.0,1052,33160.711208
6070.0,961,33195.34598
5190.0,814,33226.436238
6960.0,1145,33267.558454
5380.0,899,33298.061356
6910.0,1138,33339.957642
5810.0,1067,33380.132577
5040.0,720,33406.644357
6000.0,926,33440.832288
6300.0,975,33476.553482
6710.0,1096,33518.199396
7190.0,1156,33563.775807
6630.0,1069,33605.10604
6850.0,1127,33646.229723
5890.0,991,33684.902894
6160.0,953,33720.514702
6720.0,1028,33760.910095
6620.0,1055,33800.814024
3440.0,605,33821.626879
6030.0,917,33855.87379
4770.0,873,33889.373899
2770.0,527,33909.462219
5500.0,906,33942.674696
6170.0,998,33978.143468
4650.0,691,34004.133897
3540.0,571,34024.416408
6510.0,955,34060.781868
5900.0,1017,34098.56907
7020.0,1131,34139.954126
6200.0,1001,34176.787406
6460.0,997,34213.468217
5300.0,898,34247.40466
6190.0,1191,34292.32899
6550.0,1055,34332.910536
5960.0,932,34366.635788
5810.0,1003,34403.915225
3240.0,552,34423.948254
4800.0,849,34453.663193
3720.0,639,34476.373492
3500.0,637,34502.218337
5150.0,987,34539.272815
5270.0,947,34573.627368
6410.0,1163,34619.022065
5850.0,1111,34660.861923
6320.0,1192,34702.800893
3620.0,632,34726.136868
6890.0,1275,34773.595197
5120.0,979,34810.735433
5310.0,1031,34847.877276
6040.0,1057,34886.174754
6280.0,1183,34929.280708
5480.0,913,34962.413067
4290.0,698,34988.156228
6480.0,1035,35028.578839
6880.0,1275,35077.141713
5470.0,847,35108.811704
4590.0,711,35134.465506
5600.0,944,35168.073427
6190.0,1083,35208.045959
6040.0,1178,35252.44868
6250.0,1051,35291.637717
5050.0,973,35328.296694
6580.0,1144,35367.876173
6510.0,1055,35406.478559
7600.0,1284,35452.802968
5190.0,906,35485.759524
6700.0,1121,35526.878284
5480.0,945,35560.423391
5830.0,894,35594.393114
6240.0,983,35632.625853
7170.0,1174,35676.390301
7350.0,1136,35719.423074
6770.0,1042,35758.269356
6490.0,1025,35796.621042
6250.0,973,35832.178322
6170.0,1154,35874.887848
6980.0,1179,35918.64055
6190.0,1143,35960.312042
6600.0,1063,35999.920626
6590.0,1126,36040.35517
5280.0,939,36075.400095
8050.0,1148,36117.638935
5830.0,977,36154.747594
6270.0,1033,36192.659539
5480.0,899,36226.027217
5600.0,834,36255.909315
6200.0,921,36290.246863
6560.0,987,36326.232656
7470.0,1093,36365.986345
5440.0,846,36396.433532
6520.0,972,36433.308222
5460.0,910,36468.797138
6430.0,1013,36506.850123
6160.0,924,36539.619595
2930.0,525,36558.42103
7120.0,1190,36601.343021
7140.0,1050,36639.78711
5180.0,905,36672.749789
7110.0,1233,36718.534285
8110.0,1243,36763.878239
7160.0,1229,36807.687279
6140.0,1188,36849.696248
6910.0,1160,36891.449064
6720.0,1017,36929.563267
5580.0,962,36966.567281
6450.0,1078,37005.22256
6720.0,1033,37042.24916
6420.0,1058,37082.118328
7130.0,1253,37127.896781
5500.0,863,37160.737493
7400.0,1223,37205.147187
5320.0,837,37236.582267
5820.0,1026,37275.248395
6740.0,1153,37318.643575
7890.0,1293,37367.892069
4990.0,825,37399.292841
7360.0,1283,37444.886049
5290.0,940,37477.535328
6360.0,979,37513.887218
5560.0,1044,37550.949559
6340.0,1130,37592.999414
7270.0,1305,37641.071077
7200.0,1122,37683.883258
7150.0,1232,37728.393176
4160.0,635,37750.688123
6520.0,1133,37792.324747
7860.0,1196,37833.75784
7190.0,1027,37870.440055
5590.0,999,37907.284718
6610.0,992,37944.703971
7070.0,1169,37987.402469
3230.0,532,38006.752994
6370.0,1009,38043.564192
6920.0,1202,38088.706342
5580.0,930,38124.432527
6780.0,1114,38165.024204
5790.0,1053,38202.821545
5590.0,905,38236.487499
6740.0,1044,38272.630687
6320.0,1063,38310.796965
6280.0,968,38346.315499
7150.0,1226,38390.403034
5130.0,867,38423.054813
6410.0,1086,38463.855054
3980.0,645,38487.370304
7180.0,1052,38525.153519
6890.0,1167,38567.831284
5490.0,945,38601.622982
5830.0,944,38635.238181
7270.0,1064,38675.581709
7690.0,1287,38723.629231
6860.0,1181,38765.91054
7570.0,1243,38809.397879
6450.0,952,38843.792193
6800.0,1085,38883.247497
6070.0,1004,38919.075522
4010.0,694,38944.205395
5110.0,1104,38984.262927
6970.0,1080,39026.072638
6970.0,1140,39067.036706
6050.0,880,39098.309161
5990.0,1036,39137.54979
7140.0,1190,39178.911177
7650.0,1138,39221.801361
6800.0,1156,39264.708088
6480.0,1123,39307.041326
5160.0,866,39338.739353
7100.0,1156,39379.59272
5760.0,1082,39418.18095
5690.0,985,39455.474692
5830.0,934,39490.972893
6970.0,1164,39536.044174
5360.0,946,39571.467896
6950.0,1097,39614.128734
7190.0,1061,39654.189213
6850.0,990,39691.679114
6110.0,993,39730.093868
6980.0,1024,39767.434427
6190.0,1077,39805.765833
5300.0,902,39841.135581
5820.0,894,39873.571338
7290.0,1077,39913.206755
6930.0,1027,39951.183359
7670.0,1126,39991.806948
7590.0,1118,40032.711247
7770.0,1271,40079.156222
7360.0,1118,40118.470682
7210.0,1122,40159.042155
5800.0,883,40192.087144
7400.0,1207,40236.515293
6930.0,1216,40280.687422
6530.0,1088,40320.215555
7030.0,1228,40366.086273
7730.0,1193,40412.221203
5350.0,1011,40449.477606
6570.0,1073,40487.410165
7180.0,1166,40528.456919
6760.0,1123,40569.909544
5920.0,893,40601.234692
6950.0,1173,40643.939912
8200.0,1365,40696.295839
6330.0,976,40730.89168
6910.0,1131,40771.887722
6790.0,1087,40810.568314
8220.0,1120,40851.96349
7660.0,1125,40892.709757
6250.0,903,40927.263336
7080.0,1068,40965.975172
5440.0,882,40998.083244
7480.0,1182,41039.957464
6870.0,1044,41077.970593
5300.0,850,41109.798354
7980.0,1217,41154.722726
6540.0,976,41189.672545
6340.0,1140,41233.258627
5400.0,730,41259.127055
6990.0,1153,41299.787339
6910.0,1121,41341.377576
7480.0,1226,41386.400904
6460.0,1065,41426.980999
3570.0,711,41453.905888
7700.0,1295,41500.284073
6540.0,965,41535.682302
6850.0,1108,41575.112154
7120.0,1249,41623.443844
6340.0,998,41659.980026
8010.0,1236,41704.861165
6360.0,962,41741.760105
7160.0,1135,41783.298388
7340.0,1118,41824.771551
5840.0,885,41858.995766
6580.0,1045,41896.407057
7410.0,1153,41938.635914
6870.0,1099,41977.824237
6250.0,1136,42018.671322
7220.0,1125,42059.95261
4850.0,799,42088.53711
7880.0,1197,42130.551951
7120.0,1185,42173.926754
6330.0,1011,42209.361879
5230.0,939,42243.644677
7730.0,1154,42287.387265
7060.0,1105,42328.230625
5550.0,968,42363.153908
7770.0,1157,42403.573146
6740.0,1101,42444.716038
8770.0,1263,42492.806964
8290.0,1203,42535.03301
3700.0,620,42557.595449
6480.0,1063,42595.384658
5960.0,911,42627.870594
4810.0,763,42656.506064
2680.0,479,42675.405401
5350.0,925,42710.049038
5190.0,819,42739.272723
5290.0,789,42769.041285
8150.0,1186,42811.498591
4910.0,824,42842.82451
7330.0,1040,42879.954625
7270.0,1049,42918.906443
6070.0,1015,42955.489941
7130.0,1068,42994.4461
3550.0,644,43017.646281
5780.0,913,43050.975186
3890.0,664,43075.59587
7060.0,1075,43115.462562
9140.0,1208,43160.50523
3160.0,554,43181.551134
5850.0,1060,43220.370633
4890.0,778,43248.597093
5350.0,877,43282.363212
8570.0,1182,43326.883999
7840.0,1188,43369.40971
8600.0,1120,43410.153637
6200.0,987,43448.232213
7110.0,1042,43485.412001
6940.0,1068,43523.188921
6770.0,1037,43560.484861
3120.0,603,43581.196621
8130.0,1224,43627.381411
6490.0,1067,43667.104269
6530.0,1061,43707.671795
7250.0,1091,43746.701909
7210.0,1147,43790.639015
7440.0,1127,43832.043032
6830.0,1130,43873.567819
3910.0,730,43901.191263
7460.0,1271,43947.740405
6150.0,1037,43985.448117
7290.0,1169,44028.779995
7570.0,1163,44071.179278
7190.0,1201,44113.924857
5090.0,783,44142.717301
6190.0,1338,44192.562174
5380.0,797,44220.482273
5850.0,958,44255.370191
5400.0,1029,44294.376587
5730.0,946,44328.707697
7530.0,1196,44372.320462
5660.0,915,44406.513786
7850.0,1100,44447.551846
7060.0,1027,44485.826789
7630.0,1129,44525.375583
5490.0,1013,44560.925415
8460.0,1256,44607.142869
6190.0,941,44640.543181
6920.0,1150,44683.805772
7420.0,1204,44727.958666
7110.0,1099,44768.242084
8070.0,1271,44816.229892
7240.0,1068,44855.405761
6250.0,1147,44897.869445
6270.0,1188,44942.497578
4890.0,818,44974.26881
6330.0,973,45010.877127
6520.0,999,45049.484523
7650.0,1219,45093.601668
6780.0,1055,45131.337634
7620.0,1140,45173.284366
6250.0,982,45212.095224
5130.0,858,45245.442555
7750.0,1067,45285.840619
8490.0,1219,45329.073951
6100.0,906,45362.361569
7860.0,1169,45406.184516
4570.0,727,45432.36915
7570.0,1165,45475.578285
7070.0,1026,45510.82592
7100.0,1026,45547.827923
6990.0,1192,45591.78046
8010.0,1183,45635.3012
3050.0,492,45654.64451
6550.0,1035,45693.283546
6500.0,1148,45736.107195
3680.0,641,45759.655126
6770.0,974,45795.475875
6460.0,1045,45832.610705
7000.0,1101,45874.11174
3590.0,624,45896.509944
8200.0,1233,45941.630177
6690.0,1054,45981.119707
7560.0,1132,46022.386226
7720.0,1165,46064.354363
6010.0,912,46097.078228
7340.0,1083,46136.322668
3150.0,552,46157.213038
8420.0,1336,46207.70333
7590.0,1098,46246.340145
4340.0,724,46272.288531
6110.0,994,46309.619144
6870.0,969,46346.382725
7330.0,1050,46384.991415
7310.0,1083,46424.249081
7420.0,1084,46464.117807
7140.0,1043,46501.29463
7210.0,984,46538.299033
6010.0,882,46568.161253
7270.0,1015,46604.713175
7950.0,1270,46651.304473
7270.0,1154,46693.875518
3430.0,618,46716.589946
8050.0,1191,46760.112378
7510.0,1131,46802.151091
5660.0,900,46835.18969
7830.0,1142,46879.289043
7450.0,1151,46922.824393
7760.0,1097,46962.669522
7080.0,1026,47000.972629
6720.0,1179,47042.995414
5820.0,884,47073.873451
7600.0,1135,47114.043003
7430.0,1118,47155.458974
7400.0,1153,47198.440112
7820.0,1152,47240.513149
8080.0,1152,47283.244594
7890.0,1196,47326.743475
7570.0,1069,47365.313339
4010.0,631,47387.686491
7840.0,1073,47427.334748
7160.0,1013,47462.97655
7490.0,1149,47504.576075
8430.0,1334,47551.820871
7130.0,1097,47591.337945
4750.0,704,47618.361847
7750.0,1194,47663.652273
6780.0,954,47697.714731
6740.0,1124,47739.943313
8210.0,1290,47787.862254
7100.0,1087,47827.20919
6820.0,1023,47863.745453
7580.0,1113,47902.994277
5590.0,951,47936.240723
7960.0,1140,47977.162686
5590.0,948,48010.251602
7300.0,1008,48046.073336
8220.0,1235,48091.372972
7730.0,1102,48131.843274
6860.0,1101,48173.066058
6080.0,878,48203.585931
7380.0,1140,48246.992982
6820.0,943,48282.353341
7020.0,1126,48322.609637
7190.0,1101,48362.758938
7120.0,1067,48401.134994
7250.0,1074,48439.173513
8250.0,1274,48487.710417
6970.0,1032,48525.984875
8130.0,1208,48570.387611
7570.0,1164,48613.119321
3210.0,592,48634.093413
2660.0,465,48650.072481
6290.0,986,48685.227065
7140.0,1032,48722.32245
5340.0,872,48753.998211
6300.0,1009,48791.813013
6860.0,1039,48828.301355
6660.0,1121,48867.020262
7420.0,1022,48902.525179
8440.0,1431,48952.739844
7570.0,1230,48998.178947
3030.0,525,49017.099395
7150.0,1142,49057.39801
7370.0,1312,49105.035563
6510.0,959,49137.833083
7810.0,1235,49181.312957
2990.0,590,49199.873287
7330.0,1061,49235.939972
6340.0,1060,49270.340663
7480.0,1104,49307.122605
7730.0,1286,49348.019245
6900.0,1117,49383.563586
7320.0,1017,49415.164047
7790.0,1189,49450.496343
2870.0,559,49467.397021
7450.0,1125,49504.844751
7640.0,1160,49541.57899
8350.0,1297,49583.86477
8050.0,1278,49623.87957
7500.0,1241,49662.891179
7730.0,1233,49703.254514
7200.0,1092,49738.647176
7520.0,1043,49771.04845
7040.0,1213,49809.742902
7820.0,1199,49849.585789
7560.0,1136,49882.859588
8110.0,1234,49921.031293
6460.0,1066,49953.970898
7010.0,1055,49986.356117
5650.0,985,50016.928291
7200.0,1046,50048.631505
6210.0,967,50077.619321
7380.0,1171,50113.025286
7550.0,1155,50145.562247
7560.0,1281,50184.943575
7480.0,1221,50220.152265
7720.0,1155,50254.830597
7070.0,1065,50286.761142
7910.0,1279,50323.553767
8020.0,1310,50364.527249
7640.0,1144,50398.983738
6970.0,1089,50432.184188
7960.0,1155,50464.844579
3640.0,605,50481.562313
5170.0,812,50504.74402
2710.0,484,50519.78448
6340.0,1045,50549.704456
7310.0,1155,50581.538878
6980.0,1040,50611.87589
7320.0,1021,50640.575704
8180.0,1306,50676.898909
7910.0,1191,50709.611918
7050.0,1077,50740.587953
8110.0,1168,50774.555405
7640.0,1077,50805.132122
7390.0,1044,50835.429297
5280.0,815,50859.647834
7790.0,1091,50891.550127
6030.0,938,50921.884459
3010.0,524,50937.712132
3370.0,524,50955.034185
7040.0,1037,50989.140867
6520.0,1015,51022.692091
7070.0,1057,51059.687162
9090.0,1237,51102.678103
8280.0,1248,51143.546124
7320.0,1273,51187.162881
3740.0,629,51209.256405
7140.0,1099,51246.540109
7120.0,1048,51283.083702
7660.0,1132,51323.442618
7730.0,1216,51365.553163
6750.0,1111,51404.170854
6650.0,977,51438.90029
7550.0,1093,51476.031471
7680.0,1145,51518.359028
7110.0,1049,51555.292307
7110.0,1094,51596.361024
4560.0,754,51624.381868
7940.0,1232,51667.742987
9100.0,1388,51719.194864
8680.0,1268,51762.795228
5610.0,822,51791.19995
7010.0,1011,51823.646975
7380.0,1037,51859.304153
6700.0,1048,51895.045147
7300.0,1288,51938.461416
8330.0,1386,51985.104968
7290.0,1150,52023.991248
6710.0,1034,52061.193665
6620.0,1011,52094.664956
5680.0,878,52122.1711
7280.0,1093,52159.263367
2990.0,520,52176.811661
7320.0,1025,52211.1425
8180.0,1196,52252.15473
7050.0,1039,52281.725202
7210.0,1123,52313.744828
7720.0,1159,52346.256691
7120.0,1077,52377.551106
8120.0,1194,52410.528529
7320.0,1182,52441.994636
7590.0,1175,52472.886757
7430.0,1112,52502.038958
6610.0,997,52527.506642
8000.0,1116,52557.313352
8130.0,1221,52588.933325
5710.0,874,52613.201914
7950.0,1140,52642.941552
6800.0,1021,52668.519165
7450.0,1119,52694.902536
6970.0,1037,52721.679727
6770.0,980,52746.247571
6940.0,1021,52772.163543
5410.0,1009,52797.902028
8070.0,1230,52828.716806
5480.0,880,52850.587229
6890.0,1098,52879.618469
7670.0,1017,52904.453663
7790.0,1115,52933.441701
5240.0,855,52954.502556
7750.0,1114,52981.528691
5220.0,814,53002.938924
9350.0,1223,53032.835915
7090.0,959,53055.712861
7170.0,1053,53081.507473
7110.0,1070,53107.11486
3090.0,535,53119.386682
7820.0,1113,53146.259332
7660.0,1087,53173.722185
7570.0,1126,53201.659457
6690.0,1056,53227.345569
7280.0,1150,53256.112147
7460.0,1066,53281.338306
7080.0,1053,53307.683564
5000.0,848,53328.376291
6660.0,969,53352.0952
6740.0,1054,53377.727625
7050.0,1112,53403.67277
6850.0,1054,53430.248998
7640.0,1283,53462.104399
7510.0,1138,53491.014275
7690.0,1210,53519.920425
5010.0,749,53538.659086
8910.0,1426,53573.703792
7130.0,1137,53601.402638
8510.0,1232,53630.831431
7370.0,983,53655.785989
6800.0,963,53678.875375
7520.0,1204,53708.62997
5570.0,880,53729.314006
7080.0,1140,53756.914832
7890.0,1123,53783.934238
5110.0,836,53804.356881
7240.0,1003,53828.96326
5800.0,950,53852.687914
7520.0,1179,53881.121102
7180.0,990,53904.828628
6200.0,1026,53930.001045
6570.0,944,53953.299425
7420.0,1160,53982.190722
7210.0,1240,54012.652799
7690.0,1236,54043.733745
5610.0,1024,54069.134292
7720.0,1302,54101.013149
7760.0,1127,54129.27376
7790.0,1235,54158.838217
7820.0,1320,54192.847427
6980.0,1016,54218.003922
7450.0,1236,54248.559101
5810.0,1020,54272.456732
7490.0,1100,54299.252834
7710.0,1205,54327.661684
7510.0,1139,54355.605583
7890.0,1244,54387.035363
7570.0,1130,54415.733127
7270.0,1128,54442.681071
7150.0,1023,54468.118475
6210.0,1072,54494.673924
7870.0,1061,54520.908647
7640.0,1183,54549.39617
7450.0,1215,54578.531386
7750.0,1043,54604.594463
6930.0,987,54627.722793
7450.0,1221,54659.492875
4780.0,744,54677.258675
7400.0,1009,54701.818655
7230.0,1090,54730.332864
7690.0,1145,54759.582996
8950.0,1338,54792.821656
7960.0,1093,54819.386581
7620.0,1106,54846.855625
7270.0,1076,54873.379157
7360.0,1039,54900.147645
8120.0,1150,54928.188828
7830.0,1102,54955.20434
7080.0,1070,54981.267471
7310.0,970,55004.582225
5130.0,737,55023.221195
7420.0,1018,55048.343622
7150.0,1027,55072.823089
7090.0,1131,55100.570242
7530.0,1094,55128.304686
7020.0,973,55153.520318
8510.0,1226,55185.497028
7550.0,1060,55211.252891
7030.0,948,55234.988234
7500.0,1100,55261.733326
7060.0,1020,55286.546766
9540.0,1272,55317.600794
7930.0,1143,55345.809934
4880.0,782,55365.12489
7440.0,1028,55390.598217
7470.0,1014,55415.576015
7700.0,1019,55440.762974
8590.0,1207,55471.034049
7800.0,1035,55496.807508
8040.0,1169,55525.299123
7830.0,1105,55552.979803
6730.0,1036,55578.477367
7550.0,1096,55605.803172
8500.0,1126,55633.458504
6570.0,1008,55657.328055
5920.0,939,55680.214683
7030.0,1143,55708.046372
7270.0,1075,55734.798294
7120.0,1008,55759.006702
6960.0,1029,55784.006026
4230.0,664,55799.385912
7950.0,1233,55830.7191
7030.0,1119,55857.540294
8290.0,1270,55889.698605
7660.0,1136,55917.881008
8390.0,1208,55948.200073
3510.0,637,55964.69997
6890.0,1129,55993.238495
7450.0,1128,56022.799566
6700.0,1100,56050.212282
8090.0,1233,56080.572193
8000.0,1248,56109.91673
7640.0,1130,56137.551823
3990.0,610,56152.607877
7420.0,1131,56180.507012
7630.0,1060,56206.982329
7230.0,1069,56233.660647
5860.0,894,56255.177533
7550.0,1118,56281.95585
7580.0,1165,56310.77985
8300.0,1268,56342.016006
7960.0,1143,56369.50494
6630.0,951,56393.418947
7290.0,1066,56419.438804
8290.0,1214,56449.056041
7880.0,1244,56478.941976
6940.0,1045,56504.01504
7880.0,1217,56533.922423
8500.0,1236,56565.453224
7070.0,1037,56590.470128
7200.0,1063,56617.739621
7300.0,1133,56646.561371
7150.0,1049,56672.355683
8110.0,1128,56700.878191
7650.0,1013,56725.730509
7780.0,1127,56752.572546
7440.0,1068,56778.617347
7680.0,1102,56804.754297
7250.0,1025,56830.25438
8470.0,1128,56858.009691
7130.0,1045,56883.030307
6240.0,882,56904.501096
8040.0,1120,56931.698155
7630.0,1039,56957.02283
8030.0,1210,56987.707017
5730.0,1024,57012.945198
7200.0,1092,57039.638473
9010.0,1301,57071.53862
7250.0,978,57096.2685
8430.0,1232,57125.70284
7270.0,1010,57150.023158
3700.0,585,57163.389674
7640.0,1182,57193.260989
7560.0,1127,57220.62492
5760.0,848,57242.197948
6500.0,913,57264.305527
8600.0,1352,57297.95149
6920.0,920,57319.882414
7330.0,1137,57347.963016
7990.0,1191,57377.286508
8380.0,1247,57406.606663
7370.0,1064,57433.591292
8110.0,1269,57465.159328
7690.0,1220,57494.837317
8060.0,1228,57525.161315
7990.0,1264,57555.182451
7200.0,1043,57581.057591
6200.0,867,57603.098122
7320.0,1133,57631.468213
7100.0,1103,57659.43295
8840.0,1319,57691.614209
7660.0,1177,57720.931891
7450.0,1112,57747.996825
7900.0,1319,57780.825904
7580.0,1177,57808.357014
7600.0,1165,57837.235864
7010.0,1106,57863.871948
7410.0,1065,57889.334232
8420.0,1328,57922.457169
8310.0,1163,57951.76801
7610.0,988,57977.058613
7220.0,1117,58004.731112
8400.0,1143,58034.578345
3650.0,581,58049.403547
7220.0,1016,58075.346863
7550.0,1062,58102.171723
8510.0,1198,58132.883206
6820.0,1040,58160.767306
5370.0,779,58181.236454
8450.0,1316,58218.147928
7080.0,1127,58249.106716
6980.0,1228,58283.199115
7830.0,1399,58322.330843
3290.0,624,58339.260809
7350.0,1127,58372.214185
8130.0,1296,58410.359311
8080.0,1191,58444.976994
7490.0,1130,58478.569707
9140.0,1319,58518.983056
7850.0,1223,58556.823574
9070.0,1198,58597.730635
8700.0,1392,58643.56513
8080.0,1063,58678.466999
8370.0,1097,58715.088534
5890.0,898,58746.14197
7090.0,1021,58779.384097
3720.0,571,58796.946635
7930.0,1141,58835.296749
7320.0,1020,58870.12572
8210.0,1152,58909.541358
7660.0,1147,58948.187878
5780.0,868,58976.495265
7790.0,1090,59012.888627
7280.0,1127,59050.132643
7730.0,1192,59090.398777
7350.0,1127,59126.757316
7650.0,1130,59165.201811
7630.0,1077,59202.35055
5560.0,730,59225.058296
7950.0,1236,59268.175521
7470.0,1131,59307.411042
7140.0,1154,59346.049593
7960.0,1289,59390.608481
3070.0,529,59406.817147
6420.0,915,59438.535698
9160.0,1267,59480.192405
7890.0,1093,59518.945179
8210.0,1242,59560.451318
6650.0,1071,59596.467799
7650.0,1166,59636.877459
8150.0,1232,59678.151828
3260.0,551,59695.514649
7100.0,1123,59734.493326
7410.0,1137,59771.923453
8860.0,1267,59815.883273
7850.0,1268,59859.40437
7400.0,1016,59894.903774
7650.0,1096,59932.475068
7240.0,1092,59969.822432
6940.0,1048,60007.824173
5490.0,896,60036.694728
7480.0,1114,60075.842034
7640.0,1228,60117.031877
6250.0,891,60148.117335
7650.0,1112,60186.180534
8010.0,1212,60226.982495
8300.0,1148,60266.279467
7220.0,971,60301.38232
8200.0,1170,60340.919124
8300.0,1231,60384.916839
7410.0,1135,60424.168355
7790.0,1114,60462.614836
7550.0,1178,60502.785584
7490.0,1123,60542.545288
8480.0,1266,60585.598341
7490.0,1115,60621.937621
7550.0,1243,60665.221821
7360.0,1074,60702.852752
7070.0,1078,60741.194396
8050.0,1194,60782.307319
7760.0,1159,60822.99497
6120.0,981,60856.559014
3180.0,555,60874.299381
7250.0,1092,60911.474265
8320.0,1149,60954.221025
7870.0,1187,60992.977221
7800.0,1113,61032.30668
6860.0,953,61064.716788
7620.0,1231,61106.044304
7540.0,1115,61145.914575
7420.0,1117,61182.991647
8080.0,1160,61221.764765
7380.0,1080,61258.733498
8760.0,1260,61302.940039
5280.0,863,61331.862542
7300.0,1125,61369.495268
7710.0,1089,61406.420149
5230.0,728,61429.653826
7650.0,1076,61467.422924
6560.0,896,61498.214435
7750.0,1249,61539.116468
7930.0,1190,61581.346487
7610.0,1077,61618.385922
8100.0,1150,61656.361311
7830.0,1187,61697.133541
7820.0,1023,61732.12686
7350.0,1124,61770.360627
7390.0,1016,61804.20221
7190.0,1062,61839.50396
7300.0,1114,61877.985463
6730.0,1063,61914.200878
7400.0,1140,61954.064147
7420.0,1155,61993.850367
7600.0,1141,62033.016036
8150.0,1147,62070.805548
7490.0,1063,62105.785622
7700.0,1172,62144.799059
7730.0,1118,62182.672594
7760.0,1114,62220.209841
8680.0,1150,62258.684776
7390.0,1020,62293.467282
3890.0,595,62311.566987
7260.0,1169,62352.902669
8570.0,1322,62399.120477
7590.0,1143,62440.458534
7320.0,1127,62478.670624
7580.0,1192,62517.821854
6920.0,1139,62556.982311
7600.0,1039,62592.027605
7930.0,1149,62629.537103
8100.0,1207,62669.416434
7590.0,1122,62707.917035
5140.0,812,62735.150959
7410.0,1166,62773.800201
8120.0,1240,62816.36246
7800.0,1125,62854.095186
7610.0,1121,62892.473737
8240.0,1226,62934.394603
6250.0,953,62966.706435
7810.0,1059,63000.809359
8620.0,1143,63039.718665
7650.0,1159,63079.108857
7550.0,1124,63118.783804
8070.0,1194,63159.512472
7610.0,1199,63199.924769
5980.0,1021,63234.375064
8610.0,1274,63277.65961
6760.0,946,63310.970929
7990.0,1181,63350.795267
7430.0,1127,63390.980719
7420.0,1126,63429.099068
7410.0,1122,63467.689768
3600.0,607,63486.059482
8050.0,1144,63526.732136
7440.0,1044,63561.01507
8220.0,1232,63602.217946
7670.0,1112,63639.570938
6440.0,845,63667.381461
7440.0,1128,63706.797707
5400.0,846,63734.587179
8030.0,1242,63777.816514
7280.0,1006,63810.516565
7800.0,1148,63849.083271
3600.0,650,63869.984523
8350.0,1188,63908.678982
4800.0,695,63934.174219
7390.0,1119,63971.484476
7740.0,1060,64008.30912
8250.0,1129,64047.453033
7780.0,1151,64087.108383
7800.0,1012,64119.708557
6900.0,1076,64157.709205
8320.0,1234,64197.720165
7900.0,1178,64236.901319
7750.0,1099,64273.213015
7780.0,1155,64312.557949
7260.0,1039,64348.39671
7200.0,1069,64385.113312
7990.0,1202,64425.790179
8380.0,1234,64469.583732
8030.0,1095,64504.848474
7010.0,1019,64539.822673
7600.0,1233,64583.106807
7510.0,1081,64619.335859
7390.0,1116,64657.67167
7620.0,1158,64697.796258
8860.0,1244,64740.285037
7720.0,1176,64779.399155
8040.0,1241,64820.140154
8280.0,1070,64857.434725
7350.0,1045,64890.953028
8480.0,1279,64936.463701
8110.0,1238,64978.708087
6900.0,932,65009.235599
7180.0,1030,65045.917614
8440.0,1238,65088.798018
7470.0,1092,65125.891116
7580.0,1224,65168.195725
8330.0,1122,65206.748457
6710.0,981,65239.980676
7690.0,1120,65278.251615
8470.0,1194,65318.47595
8040.0,1123,65356.86864
7770.0,1128,65395.026248
7510.0,1144,65434.15515
7760.0,1192,65473.016041
7610.0,1145,65511.312759
7470.0,1041,65545.305931
8260.0,1145,65585.188376
6960.0,1098,65622.076372
7660.0,1057,65657.057302
8290.0,1149,65695.46047
7440.0,1092,65731.859691
7180.0,1161,65770.979141
7480.0,1091,65807.297659
8090.0,1122,65844.467978
8010.0,1268,65886.019681
7390.0,1196,65927.51796
6450.0,885,65957.671448
7790.0,1125,65994.414183
7490.0,1113,66031.011499
7330.0,1144,66069.590149
6540.0,819,66097.227999
7770.0,1123,66134.459799
7630.0,1107,66172.438565
9050.0,1241,66213.224894
7480.0,1103,66251.87875
7490.0,1123,66289.942281
8870.0,1175,66328.201019
8090.0,1238,66370.822083
8220.0,1197,66408.204599
7480.0,1053,66443.450202
7650.0,1116,66481.572548
7750.0,1115,66521.21085
7780.0,1130,66559.545085
8590.0,1247,66600.888663
7760.0,1089,66638.709612
7650.0,1127,66676.575458
7990.0,1236,66718.056541
7970.0,1228,66760.302927
7600.0,1029,66796.007759
8730.0,1233,66837.867061
7650.0,1120,66877.466148
7590.0,1122,66915.382881
5480.0,862,66946.093224
8580.0,1296,66990.301963
7180.0,1063,67027.109691
7590.0,1115,67065.897901
8050.0,1162,67106.349434
7960.0,1140,67142.347472
7770.0,1097,67181.684801
7460.0,1207,67222.624412
7950.0,1232,67263.703204
7920.0,1125,67300.895067
7520.0,1131,67340.822991
7540.0,1015,67375.040359
7920.0,1218,67416.892197
7610.0,1106,67454.326633
7580.0,984,67488.260984
7270.0,1080,67525.298886
3270.0,606,67544.704347
5650.0,877,67576.787961
7470.0,1086,67615.74592
8860.0,1355,67660.068131
8070.0,1063,67695.219331
7350.0,1114,67731.981456
7560.0,1127,67771.402372
8120.0,1245,67815.68229
5950.0,813,67839.172541
7310.0,981,67873.948007
7070.0,1150,67913.13323
8220.0,1244,67955.51039
9570.0,1342,67999.709427
5500.0,734,68025.415965
7100.0,1011,68058.18472
6970.0,1129,68096.605703
6610.0,1034,68131.665075
7530.0,1156,68171.754119
3870.0,598,68191.33023
8660.0,1191,68231.108702
6180.0,857,68259.848354
5790.0,855,68289.826147
7700.0,1127,68327.616349
7570.0,1110,68367.73868
7210.0,1022,68401.869416
6010.0,856,68429.412629
7570.0,1120,68467.440157
8120.0,1236,68509.736406
5150.0,794,68536.092413
8320.0,1159,68575.554951
7460.0,1151,68614.366308
5470.0,813,68640.749127
7610.0,1060,68675.906871
8540.0,1372,68723.683398
7800.0,1092,68761.641556
8020.0,1063,68796.773476
7420.0,1064,68833.364625
5370.0,775,68858.859383
7490.0,1044,68895.306212
7260.0,1080,68933.536736
8430.0,1128,68971.923349
7150.0,1117,69009.300727
7510.0,1060,69045.073482
7260.0,1040,69081.014082
7440.0,1104,69117.285954
4850.0,725,69142.19205
7820.0,1097,69180.474962
7480.0,1047,69215.425089
5140.0,722,69241.324214
7520.0,1109,69279.316544
7170.0,1023,69315.397316
8160.0,1157,69354.096433
7670.0,1061,69387.613473
7800.0,1060,69423.105814
7270.0,1040,69458.046469
8750.0,1309,69503.988786
7960.0,1231,69547.819914
7580.0,1135,69586.602372
7370.0,1100,69624.582765
8320.0,1093,69660.576574
7180.0,1041,69697.655798
8520.0,1223,69741.283224
8330.0,1202,69782.384715
7940.0,1098,69821.458796
5220.0,817,69848.369828
7770.0,1065,69885.153068
7730.0,1099,69922.151421
7840.0,1150,69962.828728
7530.0,1039,69998.602605
7820.0,1069,70033.331092
7310.0,1014,70068.925717
7810.0,1198,70107.890072
5620.0,864,70136.996506
7220.0,1020,70172.958362
8500.0,1162,70211.831236
7490.0,1211,70251.846205
7490.0,1020,70285.287204
6080.0,854,70314.94315
8030.0,1157,70354.122343
7260.0,1116,70392.796827
7480.0,1096,70427.743158
7480.0,1126,70466.052068
7190.0,1140,70504.72971
8190.0,1099,70541.266051
6830.0,930,70572.429513
7490.0,1020,70605.547612
9110.0,1355,70654.219676
8860.0,1272,70698.236842
7690.0,1157,70737.860269
8370.0,1275,70781.182996
7850.0,1114,70815.824476
8850.0,1211,70853.947095
7520.0,1126,70893.775951
7680.0,1064,70928.347099
8230.0,1139,70969.379376
7430.0,1063,71004.920514
7740.0,1153,71045.621104
7910.0,1151,71085.932412
6400.0,874,71115.077374
7700.0,1130,71153.572568
5660.0,845,71179.910684
7520.0,1130,71217.910592
7590.0,1039,71252.039652
6710.0,1137,71291.636873
7210.0,1060,71328.668238
7800.0,1009,71363.490618
6930.0,964,71396.512378
5400.0,824,71423.43206
7960.0,1290,71467.382368
8970.0,1168,71507.688468
7430.0,962,71541.38471
7520.0,1038,71576.615694
8670.0,1291,71622.585261
7400.0,1003,71655.122813
7540.0,1034,71690.175359
6150.0,841,71716.122308
8390.0,1083,71752.971184
8030.0,1052,71788.436572
7610.0,1041,71824.802175
8220.0,1224,71865.783003
7740.0,1014,71899.893061
7930.0,1233,71942.448941
7300.0,1011,71976.703756
7630.0,1131,72014.398286
6190.0,979,72048.599971
8010.0,1083,72085.358016
7640.0,1008,72120.601108
8890.0,1263,72163.330418
7800.0,987,72196.744174
7650.0,1038,72233.048951
8990.0,1201,72276.745532
7680.0,1117,72314.029867
6940.0,939,72346.715631
7710.0,1097,72383.945726
7730.0,1133,72422.625032
6210.0,847,72453.203039
5830.0,812,72482.648765
7820.0,1214,72522.486003
7490.0,1096,72558.680989
8210.0,1156,72598.963691
4660.0,652,72621.449066
8020.0,1070,72657.841244
7310.0,926,72687.792048
7550.0,1178,72728.075732
7740.0,1098,72764.524377
5710.0,808,72793.086038
7920.0,1072,72830.01294
7170.0,1042,72863.911574
7440.0,1085,72901.870801
7590.0,1098,72939.867953
7600.0,1107,72979.135265
8460.0,1177,73018.119294
7430.0,1097,73058.577157
7670.0,1041,73095.912134
8250.0,1177,73136.708018
8880.0,1232,73180.297747
7540.0,1128,73221.624292
6470.0,893,73251.988228
7870.0,1184,73294.573601
7980.0,1188,73337.554996
8080.0,1137,73377.348888
7120.0,1128,73418.738475
7580.0,1060,73455.568363
6990.0,1063,73491.363474
7760.0,1049,73529.646878
7830.0,1041,73566.68189
8320.0,1138,73608.994345
7180.0,1043,73645.037382
7510.0,1151,73686.240725
7850.0,1065,73724.946432
3030.0,493,73741.120485
8020.0,1133,73779.653154
8330.0,1135,73817.747074
8290.0,1159,73856.534872
7750.0,1203,73894.616146
8050.0,1150,73934.00003
7940.0,1042,73966.999393
7240.0,1065,74004.627507
7680.0,1114,74044.472421
7720.0,1072,74081.914649
7400.0,1065,74119.047947
7750.0,1095,74153.798428
7620.0,1013,74189.664287
7480.0,1149,74225.46103
5240.0,747,74250.518647
6270.0,911,74282.942435
6810.0,886,74313.220234
8140.0,1071,74349.116344
7120.0,1014,74384.082135
7280.0,1111,74422.124791
6660.0,988,74456.425226
7940.0,1264,74500.373383
7990.0,1229,74542.463058
6970.0,1066,74580.190321
8010.0,1159,74618.110902
8260.0,1188,74658.496569
7560.0,1097,74694.491566
5340.0,708,74717.922189
8530.0,1261,74760.742794
7460.0,1129,74798.376786
7770.0,1036,74833.503376
8030.0,1195,74875.382579
7530.0,1115,74913.025967
7390.0,1066,74950.75415
7960.0,1264,74993.636869
7940.0,1203,75032.15673
8140.0,1130,75071.248172
7330.0,1124,75108.407678
6810.0,881,75138.694414
7880.0,1213,75179.606232
7630.0,1170,75217.374835
8390.0,1238,75258.586835
7600.0,1129,75297.218634
7640.0,1191,75336.390531
8330.0,1201,75379.235714
7670.0,1163,75419.462831
8050.0,1145,75459.957926
8270.0,1124,75497.294982
8170.0,1148,75535.705252
5600.0,811,75564.233575
8160.0,1283,75606.657276
8770.0,1172,75649.733102
5920.0,807,75675.651054
7740.0,1116,75713.470782
7450.0,1024,75749.167709
7940.0,1278,75792.083088
7950.0,1213,75833.090019
3210.0,533,75851.286908
9420.0,1286,75894.689048
6270.0,814,75922.971838
6380.0,935,75954.926912
7410.0,1131,75993.520882
8210.0,1209,76034.926823
8230.0,1159,76076.165909
7150.0,975,76109.680087
7460.0,1162,76149.837564
3360.0,552,76169.371339
5870.0,930,76201.26562
8390.0,1190,76243.961744
7930.0,1217,76283.778607
9250.0,1241,76323.80004
7670.0,1216,76367.180718
8250.0,1133,76404.823871
8670.0,1203,76446.086718
7740.0,1161,76485.301601
7940.0,1186,76526.388302
8650.0,1261,76570.498836
7960.0,1207,76612.138189
8490.0,1200,76652.577905
7710.0,1158,76693.848032
7960.0,1234,76735.49355
7100.0,908,76767.436195
7810.0,968,76798.560735
8070.0,1290,76842.299654
8200.0,1209,76883.79872
8440.0,1271,76929.318213
7750.0,1097,76965.406337
7530.0,1201,77005.000695
8040.0,1273,77048.639924
7650.0,932,77080.161818
8470.0,1240,77123.211606
8080.0,1250,77167.256427
8680.0,1259,77210.815063
7810.0,1192,77250.822825
7480.0,1043,77287.746894
8440.0,1160,77323.133332
8880.0,1295,77367.306619
8290.0,1293,77413.551696
7680.0,1167,77452.116253
8190.0,1114,77489.066856
5330.0,726,77512.287005
8300.0,1182,77552.741171
8320.0,1233,77595.095423
7790.0,1194,77635.348079
7520.0,1012,77668.789837
8820.0,1173,77707.105018
8130.0,1171,77746.300103
7870.0,1166,77787.766581
7840.0,1159,77825.334977
6330.0,827,77854.673737
8550.0,1232,77896.628908
8230.0,1106,77933.23059
7740.0,1064,77969.32666
8190.0,1091,78005.444858
7870.0,1140,78043.397694
7540.0,1180,78085.112395
8570.0,1241,78126.800553
8410.0,1264,78169.671051
7570.0,1129,78206.06851
8440.0,1141,78245.614692
6250.0,868,78275.25366
8250.0,1144,78312.730893
8010.0,1039,78347.681424
7840.0,1096,78387.882039
7860.0,1144,78425.596811
8030.0,1216,78467.592886
7670.0,1054,78503.288723
7710.0,1040,78540.83051
7870.0,1154,78580.166542
7750.0,1134,78616.838337
8580.0,1163,78657.071297
8230.0,1197,78698.437497
8400.0,1095,78737.720969
8890.0,1308,78781.201851
2940.0,513,78798.19201
7680.0,1153,78839.996632
7350.0,1144,78879.226512
8090.0,1126,78917.48813
8030.0,1271,78961.412641
5960.0,957,78995.022912
7500.0,965,79028.227543
8640.0,1293,79074.171047
7560.0,1038,79110.427281
7770.0,1094,79147.864769
8170.0,1159,79185.284933
8030.0,1230,79226.728039
7830.0,1132,79265.304845
7970.0,1099,79302.52277
7590.0,1064,79336.324211
7980.0,1132,79376.292738
9090.0,1234,79416.994584
8200.0,1129,79454.660356
8010.0,1126,79493.801378
8270.0,1271,79537.271487
7920.0,1103,79572.926712
8440.0,1306,79618.084562
9060.0,1365,79664.254847
7300.0,1132,79703.272183
7710.0,1165,79743.056881
7870.0,1173,79780.875154
7720.0,1171,79822.489621
8200.0,1047,79860.670796
8020.0,1214,79901.244439
8120.0,1264,79945.722521
6960.0,922,79977.818197
7770.0,1098,80016.145178
7880.0,1129,80056.360426
7540.0,1128,80095.117114
8090.0,1158,80134.24771
7720.0,1012,80167.578773
8000.0,1064,80203.412221
7570.0,1167,80242.284369
9040.0,1228,80286.381924
8570.0,1096,80324.332625
8630.0,1129,80363.040488
8060.0,1171,80403.675146
7630.0,1085,80440.766203
7870.0,1138,80478.840209
7690.0,1193,80520.960305
7850.0,1195,80561.81845
7730.0,1147,80601.691978
7880.0,1063,80637.005026
8850.0,1260,80678.134477
7870.0,1233,80721.657046
7750.0,1113,80758.563562
7750.0,1003,80791.628135
7510.0,1116,80830.432144
6850.0,859,80857.423876
7970.0,1159,80898.594839
8210.0,1230,80941.126431
7700.0,1114,80977.975563
8860.0,1259,81022.371231
7680.0,1080,81059.389878
8690.0,1190,81101.864722
8370.0,1112,81139.554543
7930.0,1144,81178.35993
7680.0,1048,81213.508879
7660.0,1099,81252.75323
7910.0,1097,81288.967334
8150.0,1185,81325.882933
7030.0,928,81357.934451
7960.0,1166,81398.984346
8370.0,1183,81439.395911
8210.0,1205,81481.337146
8160.0,1210,81521.373867
8940.0,1180,81562.426769
8270.0,1161,81602.093611
7820.0,1102,81641.484426
8720.0,1217,81681.757953
7850.0,1093,81719.157356
9210.0,1261,81762.681694
7790.0,1042,81798.90789
7940.0,1094,81838.281998
8400.0,1230,81880.684166
7770.0,1160,81920.464935
8670.0,1204,81958.172589
7610.0,1020,81992.67739
9500.0,1268,82035.173834
7790.0,1091,82072.341363
7410.0,1123,82111.859009
7930.0,1279,82157.87796
8250.0,1129,82197.879303
8610.0,1322,82241.09739
9360.0,1251,82282.943619
7980.0,1161,82323.190691
6530.0,865,82353.442651
8440.0,1276,82395.650267
5320.0,722,82419.442639
8500.0,1095,82456.551684
9100.0,1267,82499.897057
8850.0,1168,82541.089071
8430.0,1091,82579.202115
7900.0,1104,82618.727691
7570.0,1096,82655.778929
8350.0,1240,82696.881177
8270.0,1184,82735.337513
7790.0,1212,82774.79623
7590.0,1183,82814.076637
8250.0,1262,82856.340828
7470.0,1049,82892.316828
7350.0,958,82925.651359
8820.0,1188,82966.296234
8170.0,1160,83006.762825
7910.0,1063,83043.501333
8000.0,1063,83081.147288
7670.0,1003,83114.910079
8210.0,1269,83158.311962
9470.0,1407,83205.679573
8010.0,1251,83248.833658
3330.0,524,83265.166276
5180.0,725,83289.302976
9070.0,1318,83333.821774
7680.0,1099,83372.79744
7470.0,1007,83408.277651
7970.0,1100,83445.509207
7590.0,952,83474.9172
8790.0,1176,83514.382267
8150.0,1115,83552.840691
7420.0,1065,83589.978765
8410.0,1187,83630.213277
7740.0,1128,83669.384172
8100.0,1064,83706.454564
9390.0,1208,83747.199362
5770.0,859,83775.26704
9680.0,1211,83815.724951
8230.0,1305,83859.09105
8690.0,1217,83900.423118
7960.0,1213,83942.550542
8820.0,1204,83984.169447
7760.0,1070,84019.302401
8500.0,1318,84062.112646
5930.0,858,84089.113185
7140.0,1055,84123.475563
8430.0,1061,84159.882424
8030.0,1201,84197.884616
8900.0,1244,84235.789229
8240.0,1123,84270.291844
8200.0,1317,84308.098555
8200.0,1091,84340.645029
8110.0,1332,84378.556918
7790.0,983,84407.878855
7760.0,1051,84440.539859
8200.0,1120,84475.2523
8450.0,1158,84511.422442
8010.0,1096,84545.746126
8730.0,1233,84582.043535
7420.0,1049,84613.14924
8940.0,1280,84650.965952
8570.0,1171,84685.062606
8250.0,1292,84720.023529
8280.0,1158,84752.609984
8060.0,1091,84785.137674
7900.0,1053,84815.851058
7910.0,1063,84847.057011
8340.0,1168,84881.825004
7760.0,1163,84917.366616
7770.0,1103,84948.718565
8350.0,1210,84986.076961
7820.0,1212,85021.620663
7950.0,1081,85053.33997
7910.0,1066,85082.864569
8470.0,1368,85125.769018
8070.0,1062,85156.257557
8720.0,1199,85194.5232
8260.0,1248,85232.308743
8120.0,1191,85268.110117
8110.0,1033,85298.864211
8490.0,1105,85332.402663
8360.0,1133,85365.63599
8170.0,1147,85400.623157
7860.0,1176,85436.36064
8790.0,1234,85475.238273
8100.0,1184,85511.305407
8360.0,1333,85552.130325
8120.0,1084,85583.139061
7940.0,1067,85614.191028
7880.0,1083,85645.671095
8130.0,1017,85675.027924
8430.0,1273,85711.264298
8650.0,1169,85744.649541
7460.0,1210,85776.202848
7450.0,1006,85803.157331
7690.0,1126,85834.590811
8190.0,1129,85867.688207
7610.0,1338,85905.914025
6150.0,941,85933.799619
8000.0,1064,85961.457598
8050.0,1097,85988.9452
7320.0,976,86014.771295
8920.0,1238,86047.804409
7860.0,1037,86076.102004
8030.0,1051,86105.698153
9070.0,1364,86144.516728
7890.0,1208,86177.747604
8360.0,1225,86212.646971
8190.0,1060,86241.798078
7890.0,1273,86274.35956
7900.0,1037,86301.659085
8080.0,1284,86337.303302
7790.0,1019,86366.05486
7550.0,1020,86393.637588
8560.0,1222,86427.254721
7600.0,1015,86456.060717
6880.0,936,86480.975562
8050.0,1130,86513.837036
8040.0,1235,86547.837409
7540.0,1128,86578.704774
8470.0,1280,86613.988844
8630.0,1242,86646.340202
6410.0,915,86669.85915
8190.0,1165,86701.092371
8000.0,1040,86727.271223
