0.113080084
0.10054002
0.104438536
0.10223305
0.09003299
0.091206506
0.11074217
0.09757949
0.09579935
0.09744481
0.087439835
0.10617895
0.098541655
0.101178214
0.093768425
0.10041914
0.09806092
0.09902297
0.0963786
0.097450316
0.09608119
0.090377055
0.10233803
0.096531056
0.09551552
0.09483814
0.09850512
0.101023726
0.10201757
0.09947782
0.0927861
0.098499164
0.09571299
0.09399174
0.093359284
0.09426388
0.097014226
0.0911998
0.101314284
0.09491368
0.107291855
0.10745412
0.096233174
0.110144086
0.09656565
0.09632633
0.0940513
0.10088633
0.10422724
0.104992315
0.09579925
0.09829583
0.089915
0.10074006
0.10075754
0.10205423
0.08822905
0.09012497
0.09483597
0.10379352
0.09847415
0.11250697
0.10030848
0.106263414
0.087747656
0.09531427
0.10598029
0.10570941
0.09653532
0.103381224
0.0855664
0.08538481
0.098264225
0.095411524
0.0902411
0.08191529
0.09636183
0.10084377
0.1006846
0.10756068
0.10880662
0.09138545
0.10570931
0.09564951
0.09986376
0.11210498
0.10152585
0.09793635
0.10311725
0.09621927
0.0909935
0.09656843
0.0844554
0.09243469
0.0952675
0.09084024
0.08599331
0.09634412
0.09247429
0.105972454
0.09008077
0.09174772
0.09815164
0.09423288
0.10240497
0.09565132
0.08160006
0.11145077
0.09371287
0.10446956
0.094987184
0.093308285
0.099899836
0.08995602
0.116844855
0.094785444
0.091015615
0.09019186
0.08196107
0.08940888
0.09457443
0.10668296
0.100336626
0.10925729
0.0884103
0.0918631
0.096904874
0.09769355
0.093796365
0.101176515
0.08544408
0.105873
0.109064616
0.09710001
0.09792916
0.10530276
0.1040437
0.104064405
0.105956964
0.09306849
0.090699516
0.08807874
0.0996201
0.09547589
0.09230844
0.08868839
0.11180406
0.1016749
0.10132195
0.10114661
0.09164244
0.09223044
0.09610942
0.105830684
0.1034325
0.09428212
0.09768854
0.100636885
0.08326246
0.080477715
0.10083363
0.10520936
0.10517959
0.093992166
0.08999887
0.0800397
0.095141724
0.09362007
0.10218133
0.096301846
0.104515076
0.08584406
0.088348314
0.10681849
0.10795202
0.10209823
0.096849054
0.098769285
0.11527399
0.093418114
0.11664233
0.09071973
0.10784167
0.104461595
0.09093072
0.09765537
0.11178557
0.10192894
0.12172987
0.09575684
0.09083571
0.09115747
0.09205549
0.09319556
0.09681635
0.09483973
0.098092385
0.087978356
0.10487896
0.091462195
0.09623761
0.0918721
0.1089354
0.09882888
0.09927404
0.09750571
0.10688676
0.09130859
0.09589346
0.10144694
0.09743744
0.09599347
0.09289171
0.09776088
0.09090034
0.098038144
0.09916128
0.083380364
0.084240176
0.10075606
0.108493045
0.08819092
0.10212063
0.10097695
0.098214015
0.10040933
0.1031777
0.09973327
0.091996804
0.10124725
0.09971451
0.094814256
0.09233742
0.09217981
0.09933528
0.08758826
0.10328064
0.10109725
0.08706984
0.098957546
0.110242024
0.10507662
0.09421757
0.09557156
0.09418198
0.091213316
0.095925845
0.10037096
0.09453095
0.09493387
0.10593186
0.09266798
0.08532592
0.09901796
0.10458022
0.10631107
0.10483019
0.11114912
0.10172374
0.10301975
0.09469357
0.09004164
0.10269045
0.10621746
0.10546154
0.09571456
0.10543402
0.08686235
0.09989993
0.09839036
0.10542642
0.09038661
0.09259035
0.091338344
0.09347551
0.09955918
0.10322034
0.11013605
0.10116914
0.096578956
0.09239683
0.10509732
0.09951981
0.08949045
0.09479967
0.09262929
0.10551084
0.09682353
0.08207955
0.10183617
0.10238861
0.0952583
0.08827648
0.087237656
0.09369433
0.090444475
0.09575387
0.09509669
0.09545429
0.08906384
0.09636957
0.09941976
0.08902373
0.099397376
0.09589878
0.09234655
0.09485119
0.103402056
0.08785455
0.10202655
0.09889428
0.09640784
0.09797072
0.102091864
0.10841154
0.093478955
0.08503937
0.104889065
0.10291272
0.10195568
0.11039786
0.09806325
0.10459841
0.10751208
0.10117091
0.095957085
0.11541651
0.098128825
0.10907032
0.09700004
0.097178325
0.093361825
0.09854739
0.0972458
0.088486634
0.08947667
0.09489539
0.09938685
0.09808511
0.090403244
0.08113809
0.10567796
0.095304996
0.09352218
0.09097026
0.0964313
0.08710515
0.103926934
0.09975033
0.096648775
0.095834106
0.09220226
0.10954492
0.10001689
0.10354905
0.09661543
0.09691918
0.087064825
0.098475836
0.09497168
0.095922366
0.09373388
0.09648591
0.097875975
0.09116288
0.10016258
0.102938026
0.103203975
0.108558424
0.09317656
0.09871568
0.10162399
0.08784578
0.08279995
0.105297476
0.10192901
0.09604892
0.09393827
0.098050185
0.08943994
0.100039825
0.09922871
0.0977571
0.09396674
0.10133737
0.10637444
0.10233504
0.099646956
0.09833203
0.10426722
0.10303184
0.09473933
0.09184156
0.08652002
0.08825138
0.09642823
0.09394888
0.092480436
0.10103123
0.09407407
0.09267885
0.099048615
0.093690574
0.08238661
0.07839142
0.08677102
0.096752524
0.116252206
0.09783423
0.093976855
0.08219295
0.09598735
0.104910925
0.10051544
0.10177832
0.09174066
0.10454226
0.09552599
0.11245691
0.09710757
0.09524311
0.11989183
0.08955311
0.094607115
0.100358255
0.10212828
0.09192758
0.086571276
0.110730484
0.09541636
0.08895559
0.098243415
0.10078439
0.08341323
0.095638335
0.09430245
0.084103085
0.09939498
0.10070135
0.10414039
0.103149526
0.109518476
0.089713
0.09307568
0.09675875
0.10406956
0.08341705
0.10188979
0.09800391
0.09845179
0.09194931
0.09946709
0.084775664
0.09282738
0.10010192
0.09474066
0.0969106
0.102873854
0.093589805
0.09162748
0.09069013
0.09874169
0.09434867
0.096012674
0.089218974
0.11450773
0.09870911
0.097358234
0.104440436
0.10225617
0.10556754
0.10143235
0.090708286
0.09677334
0.09513167
0.08655896
0.10095149
0.10043302
0.10133925
0.10251674
0.097432435
0.09247118
0.101933464
0.1086766
0.10707483
0.092876285
0.086223565
0.10905687
0.09586398
0.095983855
0.095047496
0.10053941
0.097278036
0.1101021
0.10616571
0.10269598
0.10653674
0.09896635
0.09365324
0.097992346
0.09139658
0.095481955
0.08848285
0.10444725
0.09676897
0.08699384
0.093576595
0.09231939
0.089999296
0.10166288
0.089404605
0.08713309
0.09448031
0.10295206
0.09923867
0.09225169
0.09810714
0.097472124
0.09970699
0.09791062
0.10249564
0.101155825
0.09208958
0.10496789
0.101386435
0.1078721
0.101178214
0.09429533
0.10377912
0.10245082
0.103949994
0.10684937
0.11184402
0.10075677
0.09299398
0.09552315
0.095467255
0.0957026
0.11100157
0.114580914
0.08412835
0.10038574
0.09543928
0.11012344
0.09567886
0.10415826
0.098941766
0.09519263
0.09959203
0.11322532
0.09905721
0.10609233
0.103275545
0.09243195
0.09531765
0.08739933
0.09411693
0.09223149
0.10022615
0.112538554
0.09210665
0.09058431
0.09081451
0.092463724
0.09507515
0.09698894
0.095829405
0.107273206
0.0979431
0.09531741
0.10062291
0.091449685
0.09310977
0.11401339
0.092973694
0.1113438
0.100929916
0.10403694
0.08781628
0.09553862
0.097990684
0.09268834
0.09207352
0.09492113
0.10156439
0.09434375
0.09332834
0.107177444
0.09363591
0.09412988
0.084707975
0.10017149
0.09705369
0.09607012
0.08945949
0.09254815
0.08551528
0.09623531
0.1163295
0.083552405
0.09956077
0.09408085
0.10682743
0.09272343
0.12201337
0.105727695
0.10641266
0.10932506
0.09403096
0.101176925
0.10358421
0.098498546
0.100922234
0.109361835
0.100023195
0.10265936
0.10897243
0.084888905
0.09255387
0.109163105
0.092097
0.10690546
0.086774655
0.09523675
0.08912378
0.09752794
0.1064353
0.09632512
0.10096618
0.08860291
0.08822765
0.1026481
0.085186265
0.08926568
0.09129488
0.09266192
0.0763051
0.09803202
0.097754665
0.08790968
0.105419636
0.09716431
0.10197256
0.098605685
0.101998076
0.09105939
0.099262804
0.08819602
0.096543565
0.08242254
0.0969085
0.10604388
0.10547843
0.082790285
0.097016305
0.10332479
0.09881151
0.10011194
0.1034034
0.11057683
0.09692559
0.099742554
0.09336597
0.08661358
0.099430054
0.11297731
0.09299548
0.09140046
0.099646404
0.1024076
0.09384807
0.110096216
0.088514246
0.08640371
0.09534951
0.09801014
0.10091301
0.11415228
0.09833972
0.092669
0.1011099
0.10247384
0.093515046
0.10301823
0.09699032
0.105064906
0.11355059
0.1137726
0.094804026
0.081823885
0.0901503
0.09052737
0.09160552
0.089855604
0.092253834
0.0937938
0.094229
0.088849135
0.07596983
0.08783143
0.09602448
0.10459615
0.09999517
0.09510294
0.08790315
0.10537099
0.10495104
0.1076885
0.087904625
0.09846835
0.1119784
0.104942046
0.10586528
0.09320354
0.099942565
0.09652621
0.09400981
0.10448827
0.09533657
0.095303535
0.10283041
0.103229195
0.09925774
0.09268899
0.1009052
0.09815781
0.10175958
0.0898734
0.10254658
0.10042376
0.08986574
0.09485247
0.10900016
0.09343457
0.091905504
0.09053851
0.08354691
0.106583856
0.0923434
0.10137777
0.10559442
0.09803236
0.0990747
0.097144134
0.1048751
0.08442862
0.11379731
0.11662713
0.09270299
0.10178308
0.0909667
0.08664739
0.09329399
0.09320079
0.09597789
0.09677338
0.091097824
0.09852149
0.08686774
0.09371928
0.106647864
0.106592886
0.08770418
0.10969438
0.09509458
0.09278691
0.09711275
0.09995659
0.09514552
0.083467
0.10238931
0.10418886
0.10091526
0.096338354
0.097013086
0.097957894
0.090530574
0.09854899
0.0903731
0.09422838
0.103868276
0.105897985
0.09988493
0.102268115
0.10067841
0.10730925
0.09645179
0.10805087
0.10619457
0.102678515
0.08137036
0.09423663
0.08769491
0.10010468
0.100658536
0.097283475
0.0976597
0.10810132
0.07993181
0.09449263
0.09973708
0.10255052
0.08251964
0.09365987
0.09305839
0.082637675
0.08673607
0.098333746
0.088973254
0.090879574
0.09639563
0.09902751
0.09771592
0.09864844
0.10152895
0.09575167
0.1025925
0.09297385
0.09911151
0.097410746
0.094835654
0.09725547
0.08963079
0.08776988
0.108502716
0.10440781
0.10793017
0.10500126
0.087249294
0.10767204
0.09986291
0.090549655
0.092484824
0.1039634
0.10146034
0.094327174
0.09293484
0.110660076
0.10367986
0.09565689
0.09176619
0.10341547
0.09742584
0.09361485
0.09668946
0.09341723
0.10587288
0.09620833
0.09974152
0.10039585
0.09437879
0.09674323
0.10274404
0.1024491
0.09069662
0.09230184
0.09592214
0.08878606
0.09260586
0.097218946
0.10210448
0.10029067
0.09924926
0.09789934
0.10392145
0.09649056
0.08634333
0.09232645
0.089539245
0.09129558
0.0882064
0.10155276
0.10042498
0.09212725
0.095909834
0.08872017
0.0985752
0.09404206
0.11605571
0.10269675
0.09241537
0.09565774
0.08897783
0.09464245
0.100195974
0.096547775
0.09693516
0.09417042
0.091751926
0.10124159
0.09769768
0.107017644
0.11154338
0.095802404
0.0966405
0.09478586
0.10480331
0.09532285
0.09600954
0.09299491
0.09629802
0.10019756
0.09455478
0.09436506
0.102102965
0.10531415
0.09225282
0.089142054
0.10096492
0.08871041
0.11029966
0.09588907
0.09790483
0.096692204
0.09765566
0.092770346
0.0975556
0.09119825
0.09962207
0.094756335
0.104401186
0.097510256
0.091568254
0.095972426
0.09759584
0.09586236
0.1181811
0.09527864
0.0904246
0.09180896
0.087570615
0.08060329
0.088349864
0.10655692
0.105677016
0.08883776
0.097415894
0.0902763
0.08486959
0.09384684
0.10956139
0.109430425
0.08968655
0.115075536
0.11413791
0.08273136
0.108951844
0.09968064
0.10175964
0.10471437
0.09251497
0.10007159
0.09895668
0.10549962
0.09353475
0.10053382
0.099600054
0.10021364
0.09635766
0.08152011
0.097266436
0.10297819
0.107351825
0.11482857
0.09601547
0.09091797
0.094236866
0.098553896
0.09798754
0.102290474
0.10219125
0.10667037
0.09401201
0.089814976
0.09211369
0.103101246
0.103744686
0.08985497
0.108789004
0.096720874
0.09622133
0.0965718
0.10825731
0.10937609
0.1020478
0.0917677
0.10641454
0.09279756
0.098809525
0.086348526
0.09325407
0.10460594
0.09696147
0.107941955
0.09809212
0.095926665
0.09843365
0.103058584
0.091622375
0.0932359
0.09416459
0.1014783
0.1038969
0.08944973
0.10344337
0.103638165
0.098026425
0.094610654
0.1035204
0.1054219
0.10589687
0.099336155
0.098590076
0.102003485
0.098117016
0.107431166
0.096499585
0.10426623
0.098612875
0.09425212
0.10590253
0.09329436
0.108198605
0.11589539
0.10123642
0.09506111
0.10405984
0.095920235
0.10995217
0.098648585
0.10244546
0.09135773
0.089073636
0.11710068
0.09931209
0.086607344
0.09315697
0.09458399
0.10239274
0.09652613
0.10986919
0.095462926
0.10235358
0.10406935
0.09694676
0.104312755
0.098603755
0.09816052
0.10492508
0.09749451
0.08988116
0.08726142
0.086780965
0.09655834
0.09070023
0.089257196
0.08064568
0.09519821
0.10098058
0.0880471
0.084053166
0.10019811
0.094561055
0.08882633
0.08731657
0.09684924
0.09438205
0.088687204
0.10046225
0.08651943
0.09721525
0.10216575
0.09275586
0.09062661
0.085185185
0.08491685
0.1000706
0.10561427
0.08500136
0.098114386
0.1027285
0.09216249
0.10146685
0.09477135
0.103025936
0.099695235
0.1072859
0.097417414
0.0977032
0.105498396
0.08774711
0.090476185
0.0901331
0.09325945
0.08826001
0.07929996
0.08679752
0.09094425
0.087443836
0.09903101
0.099976934
0.0998033
0.09891627
0.099608004
0.089587525
0.09139327
0.098456524
0.10540793
0.10009779
0.0928215
0.096327156
0.084773935
0.10705189
0.08755808
0.098924
0.085031524
0.0942947
0.083006434
0.09405937
0.09686675
0.090554684
0.10307774
0.112277046
0.094451286
0.088576205
0.096661694
0.0996018
0.092420146
0.10131309
0.12046634
0.092660576
0.08568478
0.09898788
0.08912811
0.091887094
0.0964785
0.101379715
0.09520944
0.086795464
0.092221566
0.09194544
0.09764612
0.08819751
0.095375136
0.0959392
0.09945923
0.091915056
0.08453035
0.090809554
0.09120276
0.09042278
0.09605491
0.10460453
0.10061661
0.10103243
0.09838393
0.098064356
0.10195747
0.09960694
0.09380603
0.09763919
0.10220846
0.09832918
0.101826124
0.094852425
0.10040498
0.09762646
0.08376106
0.10409099
0.08892458
0.0944083
0.09778836
0.10275537
0.09987332
0.09864889
0.086510256
0.09201533
0.08837622
0.1021319
0.09099043
0.10039392
0.1101793
0.10494631
0.10073529
0.09574903
0.096112125
0.09877104
0.091720946
0.09069203
0.09423429
0.09937958
0.10057337
0.0906303
0.08779171
0.08802237
0.101944596
0.086827435
0.09871776
0.10747689
0.101543814
0.099267036
0.09831576
0.104611725
0.09301998
0.10100793
0.09892513
0.08903558
0.08150888
0.097198926
0.09290448
0.09864439
0.10476263
0.08492839
0.09115313
0.097441025
0.09070508
0.09876782
0.08950251
0.096873194
0.09368645
0.095520645
0.1040882
0.09347726
0.10141331
0.10063844
0.08414081
0.10298491
0.09291478
0.08755955
0.09699323
0.09513505
0.09096319
0.10172016
0.09720358
0.10225178
0.09051253
0.08583609
0.09343852
0.09405787
0.08763361
0.10249156
0.09164612
0.09059596
0.10466598
0.09820927
0.0930313
0.09071923
0.10227376
0.09176678
0.08943301
0.10261972
0.10486249
0.106235504
0.09978087
0.101378776
0.09409348
0.09723814
0.08334157
0.091018215
0.09923521
0.09755887
0.09527883
0.10266934
0.104959
0.09543654
0.111378476
0.09759216
0.0947475
0.10932104
0.09655413
0.09034943
0.084966086
0.09929692
0.09764541
0.09801101
0.10051661
0.09041426
0.09096221
0.106306545
0.09688931
0.108886205
0.1069461
0.09476568
0.10731754
0.09978209
0.10601077
0.096821606
0.094726846
0.10235892
0.0919477
0.08930565
0.09434952
0.10350019
0.10446467
0.102952085
0.09879653
0.11823405
0.102860674
0.08956007
0.098159544
0.108391285
0.10656771
0.09050582
0.103311926
0.104962885
0.094343744
0.10072532
0.09581818
0.09843574
0.090350695
0.10206547
0.084128626
0.084482014
0.10414794
0.09651959
0.08781088
0.09473138
0.09391804
0.09173588
0.08391732
0.08712492
0.09840978
0.09305682
0.0909989
0.09647324
0.09239849
0.09266714
0.08395558
0.1012565
0.09350705
0.10883512
0.11003625
0.10136375
0.10247444
0.09859514
0.110899284
0.095553786
0.10076287
0.09980737
0.09971891
0.09238815
0.09959479
0.10172981
0.09596822
0.10787673
0.09164
0.10815265
0.0951158
0.099542126
0.10613377
0.0978554
0.09537656
0.09607911
0.09471489
0.1042419
0.1083278
0.08370293
0.09724537
0.09037809
0.08988549
0.09824377
0.08399979
0.106755525
0.10138069
0.095677815
0.09146411
0.096653745
0.101353705
0.100830086
0.098324314
0.08925356
0.08917566
0.10261257
0.10353437
0.10464203
0.10068835
0.09427856
0.091602914
0.095907055
0.109025
0.09567092
0.103820585
0.10955586
0.10446639
0.10110838
0.098736785
0.102118395
0.085051976
0.09861918
0.09221113
0.104729846
0.09298399
0.105387114
0.10339312
0.09453718
0.104304515
0.105797514
0.102762036
0.09480161
0.1043742
0.094419554
0.10084662
0.09877903
0.09350119
0.10144981
0.11299753
0.110575646
0.10079976
0.088882565
0.103208154
0.095481485
0.10457757
0.09131754
0.08873323
0.10225177
0.104898416
0.113567226
0.106740825
0.10113893
0.09853545
0.11202117
0.10753006
0.107262656
0.10344945
0.09635386
0.10319553
0.10573821
0.09321039
0.09335611
0.09514174
0.09286183
0.09072053
0.09544554
0.09024926
0.10458838
0.09201703
0.09872605
0.09137132
0.093757905
0.10054452
0.08792863
0.09105361
0.102378495
0.09571637
0.09859776
0.10229487
0.090029255
0.10987551
0.09931659
0.11336997
0.089791566
0.10526904
0.1035819
0.10165587
0.091629684
0.08728757
0.10079629
0.10124113
0.10845511
0.0924744
0.08805839
0.109029524
0.093862854
0.100217514
0.09452629
0.09251935
0.10602009
0.09695377
0.104550734
0.09633726
0.09100397
0.08549797
0.096804425
0.09272194
0.09850931
0.093069255
0.09648231
0.11171258
0.09597086
0.07999623
0.0826437
0.09476714
0.09448742
0.09841025
0.09119305
0.09330402
0.10415607
0.09767393
0.09447032
0.09478768
0.092885055
0.09873388
0.09244009
0.1037886
0.09829651
0.08860075
0.10075084
0.09687298
0.09045662
0.0969787
0.10175635
0.08871483
0.08690304
0.10952789
0.09950056
0.092851415
0.092220254
0.09915482
0.09831349
0.09691598
0.106380306
0.10055364
0.099224485
0.102667846
0.102102205
0.095839866
0.0985612
0.09861423
0.089782834
0.10752658
0.08968183
0.10023341
0.088902436
0.088141106
0.08913611
0.09242064
0.09394312
0.088110834
0.08971075
0.10103795
0.09559139
0.099957936
0.098147176
0.09520763
0.087227374
0.099469185
0.09788696
0.08763859
0.084236376
0.08979809
0.09350402
0.1050777
0.09295507
0.090716794
0.103035726
0.097887546
0.09377994
0.09824561
0.09713089
0.09680805
0.10282845
0.10989424
0.0975565
0.10902985
0.09753133
0.10529202
0.10138735
0.09204025
0.09535726
0.086621255
0.10150254
0.111842416
0.09744627
0.10165416
0.104589075
0.098252915
0.10353987
0.10031931
0.102363296
0.10909331
0.100580685
0.09841108
0.097966485
0.09890145
0.10042164
0.0947877
0.104925916
0.10301023
0.102527134
0.09788096
0.10222775
0.105854444
0.10412946
0.09837811
0.09203788
0.101547316
0.08886383
0.0987607
0.083328806
0.0955837
0.09772192
0.10359324
0.10071741
0.091150254
0.10010734
0.08639773
0.09695622
0.090059675
0.09500703
0.1083018
0.10609068
0.10447211
0.11033546
0.10859188
0.09600564
0.1140345
0.087716155
0.090692
0.098937206
0.10286521
0.10201513
0.101501375
0.09404593
0.08741083
0.09542352
0.08896827
0.09856601
0.09568375
0.094194055
0.09361642
0.09132913
0.09983774
0.093397476
0.109757975
0.08645918
0.117515974
0.09689271
0.107009284
0.10025106
0.093604386
0.103351854
0.10488606
0.10376462
0.10401508
0.08402725
0.10272373
0.09419972
0.093036205
0.09327365
0.100371614
0.094468035
0.1060355
0.08652561
0.08951015
0.08869621
0.09997705
0.084488004
0.09695971
0.098349266
0.094895616
0.09573527
0.09608923
0.09777651
0.09474403
0.0977421
0.1007656
0.10492816
0.08703872
0.10822445
0.0930502
0.10028252
0.09899093
0.108236164
0.102169536
0.08883863
0.10772867
0.093958475
0.103462644
0.10116762
0.08741011
0.09403999
0.08287296
0.09836073
0.104412176
0.08788772
0.09532259
0.091823205
0.0968551
0.083073944
0.09437047
0.09371505
0.08423152
0.08746294
0.093078695
0.09206042
0.09164925
0.10320182
0.10282082
0.10535562
0.09024756
0.08869927
0.106159896
0.10109955
0.09040613
0.09227269
0.09832381
0.09488537
0.09547679
0.099642545
0.09570842
0.09669171
0.09231751
0.092558555
0.08910122
0.09811637
0.08940675
0.10250719
0.09257847
0.08789562
0.08211806
0.09693581
0.09494044
0.092751555
0.09101775
0.082011715
0.093313836
0.0942845
0.10107412
0.088908136
0.094049305
0.08972432
0.09132551
0.09850818
0.10538683
0.09611754
0.10671855
0.083780296
0.08967743
0.09642929
0.103356555
0.0950159
0.097494856
0.104436845
0.101340145
0.09953877
0.09136129
0.09805704
0.097829714
0.11238794
0.099766314
0.092273206
0.10859397
0.101041235
0.1099286
0.099153
0.102357104
0.089878894
0.09678103
0.0990266
0.10530232
0.09065904
0.09238676
0.089809746
0.10675862
0.08869623
0.097488366
0.09521091
0.097259134
0.085291214
0.09962429
0.092365235
0.09220447
0.08694148
0.100687094
0.10887066
0.09216206
0.10507891
0.09203133
0.102530494
0.09442245
0.10098771
0.09473266
0.09914849
0.104901925
0.116097115
0.09844407
0.094159335
0.09458132
0.09802962
0.09444872
0.099491276
0.08667499
0.108174615
0.093918
0.088122934
0.08953276
0.08884286
0.10179763
0.094351865
0.10171077
0.08636377
0.0939614
0.09762817
0.100063995
0.09519622
0.09418418
0.10295798
0.099886164
0.095124684
0.10226275
0.096187316
0.09305432
0.092159
0.10813853
0.102081314
0.09444988
0.108265065
0.10052171
0.09011763
0.0973891
0.093269646
0.09843649
0.103231244
0.09882523
0.11060832
0.100852594
0.09700369
0.097864546
0.09653224
0.08996077
0.09990864
0.10737988
0.09988681
0.09898379
0.105004765
0.11296421
0.10094253
0.11267475
0.08848435
0.090243116
0.09367051
0.10108169
0.083197355
0.102320835
0.09733271
0.097139284
0.1013683
0.09856332
0.102727525
0.082784355
0.0956255
0.0851493
0.0928086
0.10076191
0.0926474
0.09599927
0.09106078
0.08888808
0.10410423
0.08252125
0.108141765
0.091786064
0.090740256
0.094886325
0.09116417
0.08937178
0.10836616
0.083302446
0.0982877
0.08093251
0.09716348
0.09960453
0.10620592
0.10657245
0.11116597
0.08571222
0.09921405
0.09021622
0.09435954
0.096058466
0.091331124
0.092618026
0.086346254
0.10394407
0.09643445
0.09898195
0.09750005
0.09188418
0.094641194
0.09629289
0.08703533
0.08737698
0.09816507
0.08444318
0.110105395
0.09835003
0.093683116
0.10720469
0.09878602
0.1119088
0.10489167
0.104873024
0.08389496
0.097043134
0.096488565
0.09503602
0.092672184
0.10003223
0.09050043
0.09838156
0.09156943
0.09277061
0.0956652
0.09049519
0.09626974
0.10487637
0.098447144
0.09992015
0.09690563
0.0910043
0.10311041
0.102512635
0.09825856
0.105437025
0.0959325
0.08759524
0.096745856
0.09923846
0.10388579
0.098573744
0.10889952
0.09920167
0.09183062
0.10166754
0.0981402
0.09970933
0.1064483
0.0847689
0.088242084
0.08516567
0.09660706
0.08317583
0.09568042
0.09627942
0.094268866
0.10190144
0.1040757
0.10245589
0.11274481
0.09684113
0.09801933
0.09008464
0.09782418
0.088114925
0.101888984
0.0882238
0.094601
0.10031384
0.0910125
0.112372674
0.09743127
0.09857474
0.09376298
0.10537921
0.09626073
0.09730995
0.09551628
0.09828196
0.0968212
0.104515195
0.0933574
0.10100256
0.10565372
0.09995973
0.09842467
0.10641398
0.0946584
0.096751355
0.094698824
0.097420305
0.1038557
0.089916416
0.09600897
0.10594571
0.09169831
0.10542373
0.10506918
0.09408125
0.09881589
0.0918165
0.10353372
0.10270812
0.0798894
0.1054201
0.0907081
0.08123113
0.0958937
0.100243546
0.08925152
0.09418456
0.09450666
0.09707283
0.08749102
0.09477694
0.09843112
0.09386121
0.093020566
0.09841941
0.10501973
0.08710703
0.10393994
0.10629063
0.10014612
0.09725118
0.105195686
0.092132114
0.09715927
0.09214736
0.093096174
0.10696592
0.08694292
0.10707837
0.10851839
0.10335936
0.097782895
0.09460226
0.10584206
0.10678201
0.10819716
0.10099309
0.10140996
0.096796624
0.100874215
0.09198086
0.09858172
0.098519735
0.106964245
0.09517501
0.09783563
0.10688717
0.097018585
0.1042501
0.09794798
0.096965045
0.09108239
0.10180114
0.10723736
0.09871955
0.10376506
0.09561106
0.10300962
0.10223474
0.10625204
0.08769879
0.1052001
0.097447865
0.099857375
0.104455076
0.1139296
0.10217616
0.09655579
0.10118146
0.098618425
0.08928782
0.102038555
0.09377674
0.09187674
0.10153522
0.08909304
0.09506506
0.09568398
0.081880815
0.081335425
0.090582155
0.0898026
0.09299071
0.09432119
0.10515884
0.09748044
0.09172334
0.10445053
0.1040546
0.097295284
0.106114544
0.093370326
0.09468617
0.100566916
0.09385678
0.10141687
0.09249867
0.0841428
0.09148069
0.085882306
0.08951783
0.10310246
0.09523825
0.095477924
0.10365727
0.098684855
0.09324024
0.101908945
0.104601175
0.10392597
0.09283921
0.09880603
0.09761164
0.08870023
0.09199414
0.10057922
0.09660655
0.09836345
0.097116455
0.0973596
0.11036433
0.102122776
0.101626284
0.10953125
0.08271941
0.08973638
0.09049276
0.09618736
0.09657512
0.10364221
0.10111631
0.092987195
0.09232969
0.097058505
0.099987954
0.0914936
0.08301426
0.10512807
0.099411495
0.09163015
0.104695626
0.10015876
0.096856534
0.09165537
0.099655114
0.0957247
0.10162137
0.10172927
0.10258171
0.10320257
0.108092576
0.109952025
0.091121666
0.113611445
0.10279022
0.10006666
0.091159075
0.08576743
0.103238806
0.10301324
0.093944415
0.100517884
0.10696498
0.10151752
0.0968033
0.10583709
0.08622144
0.094966725
0.097611524
0.10041606
0.10430916
0.09394322
0.090199046
0.10252946
0.09283542
0.09098344
0.09093485
0.087567806
0.0950734
0.10989149
0.10771335
0.08484432
0.09430806
0.081885144
0.09733627
0.096238606
0.094281085
0.11127643
0.10631158
0.110347696
0.09629715
0.102074206
0.10432326
0.10639241
0.090739675
0.102574386
0.090904586
0.08658658
0.095569395
0.09021809
0.09584286
0.09960881
0.09541649
0.09033769
0.10410206
0.08370741
0.09646777
0.10663858
0.11107788
0.09803657
0.1122038
0.10276562
0.10122717
0.10295624
0.09062687
0.09794139
0.09280133
0.09721275
0.09875922
0.097352974
0.09115377
0.11093627
0.08936731
0.091226496
0.0832606
0.099859685
0.098233394
0.09789044
0.09802267
0.09562421
0.10795097
0.09825645
0.09941539
0.08833918
0.09199798
0.093233936
0.09322954
0.09070445
0.097096674
0.10301532
0.0936804
0.100695655
0.0860288
0.08415065
0.1079145
0.094145596
0.09254451
0.10270025
0.0939395
0.097466536
0.10010103
0.1004619
0.09707923
0.09090614
0.10129354
0.09387575
0.10089916
0.09274848
0.10091185
0.10113876
0.1059489
0.0960061
0.1004186
0.09002709
0.09631093
0.085832335
0.10075849
0.09426987
0.09221229
0.102795266
0.10138722
0.102975585
0.09613894
0.09172371
0.1055216
0.09391207
0.11097017
0.10661954
0.08939042
0.09771299
0.10182543
0.09645
0.09376377
0.10277851
0.09463748
0.10947359
0.106124155
0.09235853
0.082443476
0.09852661
0.08826976
0.092095345
0.09640344
0.094550245
0.10561222
0.08949113
0.10825103
0.10860504
0.09928661
0.09873438
0.096208714
0.09083898
0.08137765
0.091609694
0.10433673
0.10149866
0.106016316
0.097307086
0.09682698
0.0974343
0.10325134
0.10029426
0.09488335
0.096834585
0.102074355
0.102546304
0.10296124
0.105214246
0.10888421
0.10071295
0.09807852
0.100097395
0.10547183
0.10090549
0.09681973
0.0916457
0.09261003
0.09971663
0.0946858
0.099004686
0.10368401
0.10110549
0.08964045
0.1080007
0.08685037
0.107925944
0.10897826
0.09567467
0.09649098
0.108358175
0.09675018
0.10783103
0.10545043
0.10549388
0.10159283
0.10000687
0.10391357
0.098988414
0.0993517
0.10498471
0.10206764
0.081700735
0.09920422
0.10196866
0.10403594
0.09927987
0.08101808
0.096715175
0.09525319
0.09368489
0.09824381
0.0972957
0.0946262
0.10093978
0.10363788
0.09057254
0.09784208
0.09968925
0.09763582
0.10059845
0.10019495
0.10397349
0.10694188
0.08264349
0.0891471
0.09012849
0.0923541
0.086287856
0.08841559
0.09388068
0.09688377
0.09490886
0.09068649
0.093036026
0.0941695
0.0835088
0.0948163
0.096537255
0.09691691
0.10081032
0.10064733
0.100586094
0.09268948
0.09335591
0.10181057
0.09053313
0.10192167
0.09190607
0.11074909
0.09512787
0.095031425
0.09310435
0.09768159
0.104310334
0.091672584
0.092204146
0.092156745
0.09776951
0.09977291
0.09577169
0.10576142
0.104756504
0.10328372
0.09113502
0.09359028
0.101306565
0.09839068
0.107155874
0.10387204
0.09731171
0.09275952
0.10403617
0.08941048
0.08679443
0.09561602
0.09887249
0.10491604
0.09042776
0.09432403
0.08525953
0.08272649
0.105725
0.099957146
0.08945652
0.098592505
0.09065879
0.096659526
0.085468605
0.09288989
0.09933847
0.08494432
0.0960642
0.11385191
0.08340425
0.08995835
0.095396794
0.09795293
0.094838366
0.0939121
0.094499335
0.088759534
0.10592663
0.09394036
0.088299304
0.09749982
0.09126926
0.0876933
0.10226392
0.092866234
0.092659794
0.1102878
0.0996467
0.10233782
0.09129485
0.09631645
0.08806448
0.09617706
0.09899787
0.08929281
0.09231493
0.09736957
0.09184701
0.097733304
0.08794314
0.10084375
0.0994125
0.101559006
0.093715616
0.087479755
0.08822141
0.08437219
0.09120792
0.10334133
0.08903901
0.098346815
0.086744
0.10019729
0.085672475
0.101397164
0.09710682
0.08607923
0.08933658
0.10469614
0.09755562
0.089282624
0.09809064
0.09568008
0.08645115
0.09026315
0.10850026
0.09803558
0.09943775
0.103055164
0.09003522
0.10363249
0.09858893
0.0824384
0.098875485
0.100383006
0.095147856
0.09912055
0.09100271
0.09578801
0.09033981
0.10053952
0.10409078
0.09190901
0.0973427
0.08812914
0.09941916
0.093652025
0.09536597
0.10378905
0.09925373
0.105932
0.10369171
0.09353357
0.09909506
0.09952174
0.09603256
0.097560965
0.09996736
0.10607128
0.09949989
0.10530994
0.10521268
0.09953115
0.10517025
0.086613886
0.09628172
0.10184044
0.09418163
0.098209366
0.09662366
0.087918945
0.105167605
0.094780214
0.10009497
0.101431035
0.10353178
0.09513843
0.10704239
0.091294184
0.10757081
0.107962325
0.098697715
0.095390044
0.09065754
0.096415415
0.09809249
0.1111072
0.0970925
0.09235069
0.106595516
0.09732203
0.095885895
0.10147835
0.10116753
0.09260193
0.0827417
0.09711647
0.09540466
0.096845694
0.10561988
0.08835487
0.089011304
0.09883666
0.08180698
0.09129974
0.10792355
0.08913867
0.088701375
0.1014386
0.09910715
0.10137773
0.093336836
0.098297715
0.097555205
0.10524954
0.09688305
0.092258625
0.09838241
0.09800929
0.09132446
0.09079475
0.10998401
0.09911795
0.09032031
0.09305641
0.09019526
0.090294205
0.10449736
0.104481064
0.09940045
0.1009034
0.09374037
0.08992447
0.09867833
0.10387678
0.1096315
0.09922886
0.097878695
0.106008366
0.110123225
0.10602066
0.10159292
0.09876354
0.108932346
0.09741165
0.10563925
0.104064815
0.09104856
0.09954275
0.10306941
0.09142968
0.092740275
0.108452596
0.09152318
0.10184585
0.09621687
0.086909406
0.09688273
0.10096955
0.096266024
0.10150879
0.09387933
0.099538036
0.1055071
0.08593163
0.097031675
0.079990216
0.10378082
0.10563995
0.10948596
0.10045465
0.096427865
0.093255706
0.10103577
0.10127987
0.10131264
0.10180219
0.09582593
0.10733706
0.095384344
0.09951192
0.107984036
0.101903014
0.10927352
0.10807957
0.10146338
0.10533157
0.12360725
0.10522147
0.088608794
0.09496237
0.11103355
0.107326955
0.11060617
0.093076415
0.09202508
0.10143658
0.09020135
0.110982865
0.09834863
0.09976104
0.10363404
0.09439026
0.09400051
0.08878226
0.08916766
0.086215645
0.09322967
0.088097885
0.09781846
0.087402456
0.09422483
0.09375623
0.107166275
0.09156515
0.09740048
0.10163903
0.10154685
0.09771157
0.09352013
0.08818607
0.10482606
0.10721418
0.10962278
0.0898958
0.09947164
0.08474385
0.09772019
0.09763359
0.108388744
0.10245639
0.09863861
0.10057652
0.0999618
0.10319887
0.089286394
0.09649848
0.08098494
0.10565744
0.09653612
0.09178171
0.08791551
0.08447869
0.09581271
0.08854822
0.09709755
0.09058177
0.10218673
0.10579248
0.091392994
0.08335836
0.099528566
0.11074283
0.10225194
0.09377957
0.098680645
0.09034296
0.09628667
0.09500514
0.10741555
0.09369728
0.091413684
0.085184455
0.08528231
0.091668196
0.090942346
0.1032231
0.09973461
0.09230964
0.090393215
0.09572684
0.09660186
0.105430156
0.09210337
0.10532533
0.10220146
0.11613359
0.09911888
0.101838134
0.10788937
0.10629764
0.092713855
0.104455315
0.10105256
0.0844143
0.09175761
0.09687588
0.10250235
0.09794364
0.097822174
0.10933967
0.11218018
0.09938782
0.095324814
0.10667166
0.09906978
0.10013871
0.1068647
0.10196903
0.099628076
0.10664237
0.10573451
0.10315436
0.092312455
0.10511968
0.09948729
0.10118536
0.095570244
0.101139545
0.09128979
0.09228405
0.10432721
0.10246546
0.0920001
0.099100456
0.090461135
0.113357514
0.11346333
0.099046186
0.10132809
0.10083597
0.103608705
0.10127305
0.098263234
0.09862196
0.10829007
0.099135146
0.110797234
0.09711874
0.111127414
0.102950804
0.09965996
0.10034971
0.09957608
0.0966275
0.09555826
0.09980414
0.100908786
0.09557631
0.10132591
0.08550825
0.09381842
0.096638575
0.09784186
0.09303577
0.093143426
0.09682201
0.08925615
0.09708473
0.0893101
0.10739506
0.0947892
0.09399774
0.10668041
0.10267955
0.10416045
0.10144296
0.095685646
0.104197875
0.09652468
0.09791112
0.091355145
0.08959187
0.09266973
0.098872446
0.11321946
0.083809726
0.099259704
0.09679987
0.09783561
0.10438306
0.108606905
0.103843406
0.09936121
0.09541741
0.09546589
0.101012014
0.09338046
0.09715738
0.10679828
0.09255093
0.0915118
0.09847771
0.08611053
0.08781616
0.089988805
0.08887645
0.10373976
0.097039916
0.08906466
0.09563321
0.09466706
0.099556915
0.10206306
0.09632331
0.09095105
0.086003445
0.099965215
0.09756104
0.09269301
0.09555844
0.08312671
0.097068675
0.102900885
0.09841544
0.095160134
0.09930082
0.10202142
0.098210536
0.097427316
0.09945691
0.113604516
0.09570297
0.101677515
0.09281698
0.10285819
0.10690886
0.10092052
0.108380824
0.10505291
0.10242126
0.1077969
0.1030965
0.09151817
0.10142026
0.10395168
0.10274515
0.0973727
0.09595981
0.0879847
0.096876524
0.09271491
0.10499548
0.09703487
0.09415156
0.09634842
0.10420603
0.093948945
0.103356615
0.09208392
0.08867616
0.09172992
0.11177579
0.0933398
0.0797513
0.106279634
0.10854692
0.097524084
0.0920515
0.10462302
0.097824514
0.103661165
0.097920015
0.0964986
0.10123416
0.095237
0.10406705
0.10414628
0.09655647
0.090992294
0.08944259
0.09373641
0.09851158
0.10755026
0.10762609
0.08582143
0.095635146
0.094910726
0.10953646
0.10647236
0.08827358
0.10736942
0.107087076
0.08971227
0.097163126
0.11004585
0.084814996
0.076295696
0.09142367
0.090879805
0.08205798
0.08679187
0.09264386
0.10349932
0.0972257
0.08416111
0.101225786
0.10356257
0.099619925
0.09518738
0.09306413
0.104046494
0.10402154
0.09938943
0.08943718
0.09318883
0.0855829
0.09466057
0.08441848
0.09741501
0.09873957
0.09983593
0.0970369
0.078313105
0.09566785
0.10196612
0.08807332
0.10071262
0.09344562
0.09994957
0.09322373
0.09053924
0.095108144
0.09232097
0.094144166
0.11944986
0.09794357
0.104528666
0.1042468
0.10997617
0.10304012
0.100685276
0.09824314
0.10059398
0.10514241
0.09880579
0.11212131
0.09328128
0.10149727
0.108385086
0.097988956
0.10370898
0.08884657
0.09773469
0.104441665
0.106603436
0.103536874
0.093479946
0.100902006
0.1015678
0.09175812
0.09655953
0.08833884
0.10283644
0.1107229
0.100996904
0.09046134
0.1001864
0.10006607
0.11195183
0.1025294
0.09639305
0.091066234
0.10547722
0.1059491
0.09436365
0.10167635
0.09080901
0.10218388
0.099857375
0.092763774
0.085664496
0.09777964
0.09824923
0.09553747
0.09588001
0.09389551
0.0925378
0.10149929
0.094566256
0.08736241
0.0919173
0.09234287
0.09119755
0.1015114
0.090540834
0.11511007
0.09771749
0.11883223
0.1038966
0.09216681
0.10131196
0.10853213
0.095345184
0.098443925
0.09232296
0.08262757
0.09568577
0.09274136
0.09986381
0.10422012
0.090817824
0.10561205
0.09696693
0.08036894
0.08775409
0.096754104
0.09545723
0.107683025
0.098165385
0.083757676
0.08230925
0.08512771
0.09687468
0.08547377
0.107783765
0.10435802
0.097502746
0.086026475
0.07926179
0.09938022
0.087975785
0.09679426
0.09762865
0.08755312
0.1033307
0.10754442
0.099575125
0.10889934
0.093561746
0.07920393
0.09519495
0.0946412
0.09211185
0.09208704
0.10426099
0.087584496
0.08529419
0.099861175
0.09226219
0.106273144
0.101199165
0.09361902
0.09870669
0.09582639
0.10488305
0.101658896
0.09461104
0.11121799
0.099196464
0.095088825
0.08607156
0.108093135
0.09502277
0.103909455
0.10248884
0.09774493
0.10153754
0.09714175
0.08910523
0.098844476
0.100209266
0.09047191
0.0955067
0.10577996
0.100275464
0.09007285
0.10572068
0.11726698
0.09387427
0.0995331
0.09431481
0.09392196
0.09757623
0.09552512
0.10463175
0.09529956
0.08894759
0.10140938
0.09120947
0.093150325
0.09124377
0.0954976
0.10228933
0.10841356
0.103397176
0.10989767
0.09239872
0.09208799
0.09224744
0.09256178
0.09560164
0.088871285
0.116597526
0.10384297
0.10575509
0.10768034
0.09780198
0.10160982
0.09227614
0.10220641
0.09497114
0.10443972
0.10371609
0.09996436
0.10016135
0.108136445
0.10188596
0.07981236
0.095325366
0.116921954
0.11085518
0.098342985
0.094119534
0.09257725
0.094037205
0.10051668
0.10018838
0.083768204
0.10311269
0.10095161
0.104980744
0.1016534
0.10772139
0.10022547
0.09161498
0.09685185
0.09969325
0.093935914
0.079257846
0.1049059
0.093218535
0.11173792
0.10639559
0.11237374
0.10795466
0.089483656
0.10939913
0.10322134
0.0951049
0.100269124
0.115120456
0.095293425
0.10725497
0.10466453
0.09451928
0.094341084
0.09637554
0.10616146
0.09541795
0.10788937
0.09783514
0.09442297
0.095761254
0.09414923
0.10011748
0.10431766
0.09384751
0.10872219
0.115139075
0.10639588
0.08799962
0.104118556
0.10119661
0.096588545
0.112624444
0.08815364
0.09997157
0.0953244
0.10202325
0.09131426
0.091243595
0.092754364
0.099166065
0.09131705
0.09549476
0.09603833
0.106301494
0.1022043
0.105211966
0.11076995
0.10433301
0.09322475
0.10131219
0.096556425
0.09467442
0.11339333
0.09685217
0.10521803
0.08899127
0.088019945
0.103303745
0.10052683
0.10429743
0.0888414
0.08956427
0.10091445
0.102152556
0.09786374
0.100985825
0.094660126
0.10362244
0.09399406
0.1071974
0.10458896
0.098750725
0.10298764
0.115958676
0.09061102
0.10593101
0.09566715
0.09779774
0.09007478
0.09733255
0.09134798
0.09400302
0.097075805
0.101019785
0.10312182
0.10299635
0.08754128
0.09958442
0.10013594
0.094704434
0.112878196
0.104053
0.09199787
0.10229931
0.09772676
0.09517984
0.102292165
0.09365135
0.10236229
0.08869541
0.11131441
0.09397553
0.092975006
0.09329331
0.10768284
0.08272678
0.0935806
0.08113964
0.093696654
0.0947874
0.10031136
0.09995765
0.09375404
0.11061042
0.09073373
0.09765026
0.10936143
0.1010956
0.10699212
0.0815823
0.09510196
0.091477156
0.08734602
0.09886855
0.09664861
0.09949637
0.09985493
0.103774756
0.08363728
0.0912914
0.10547823
0.092839114
0.09815763
0.097479954
0.102296114
0.084577955
0.10318122
0.08563108
0.10300209
0.0976913
0.11161437
0.1019221
0.10272756
0.095443316
0.09420526
0.097022615
0.0975298
0.09524668
0.10117219
0.09703601
0.08454547
0.093990214
0.0920945
0.10033374
0.09929277
0.09952888
0.10440067
0.08787275
0.089020625
0.09870696
0.10849236
0.09919708
0.10246273
0.10390595
0.103885554
0.10077524
0.08613233
0.0914428
0.09915273
0.10708108
0.09332106
0.09822234
0.11062959
0.09424023
0.102053404
0.095292486
0.07583765
0.11349031
0.09922537
0.10196191
0.09373562
0.10008541
0.09190781
0.10662291
0.10810927
0.10471475
0.10240757
0.09750448
0.096396044
0.09300593
0.09959559
0.10579158
0.09626584
0.1046755
0.09190508
0.10333861
0.09007934
0.09470745
0.09549037
0.096395396
0.10143228
0.10364152
0.10288908
0.09396274
0.09069671
0.09761639
0.09860473
0.101982206
0.10105466
0.10146589
0.09461661
0.10217629
0.08741824
0.10365661
0.103156604
0.09576187
0.102961116
0.10835798
0.09237461
0.08820143
0.10399959
0.08678958
0.09784779
0.09576136
0.10510295
0.1018477
0.0863052
0.098933354
0.0859082
0.09712238
0.08703866
0.104389496
0.09506287
0.09058147
0.100901395
0.09354836
0.09569716
0.111573875
0.10456449
0.10085368
0.09244161
0.089104705
0.08515638
0.093971685
0.08817695
0.08695567
0.08937603
0.09560588
0.086555265
0.08175198
0.099901624
0.11627828
0.10377312
0.101075344
0.09675912
0.09681099
0.09557702
0.090006456
0.093465656
0.110165946
0.10597187
0.10370003
0.108641624
0.10054371
0.10619826
0.09509621
0.10014067
0.107462175
0.09976858
0.114586696
0.102863155
0.09893826
0.10076774
0.112477094
0.09101103
0.10756423
0.108633436
0.11584537
0.10136646
0.1011599
0.104170546
0.08294988
0.08557201
0.09677907
0.09176443
0.09937511
0.10217529
0.088987075
0.09992248
0.09927516
0.102899514
0.09761284
0.09512752
0.0866208
0.097809054
0.08374699
0.09672974
0.10086446
0.10016621
0.09857878
0.10313012
0.10666312
0.08784332
0.09325049
0.099431545
0.10059772
0.09591748
0.0997964
0.09675311
0.099693805
0.1026344
0.09775315
0.08480314
0.09521623
0.10403339
0.093300454
0.09304062
0.0915372
0.092979945
0.086587384
0.09515165
0.0906453
0.098927274
0.0874098
0.09517225
0.0862566
0.084881514
0.09031768
0.08718395
0.10677999
0.09176603
0.1041782
0.12028833
0.11000378
0.08576973
0.08819417
0.09564267
0.10473616
0.09396887
0.09970501
0.08766845
0.09719913
0.10010096
0.094856195
0.090833254
0.09769659
0.09780973
0.09234175
0.09518756
0.09556187
0.09828722
0.10186835
0.09313997
0.08620307
0.10462161
0.08195173
0.09446857
0.09623088
0.08996697
0.087887384
0.09954768
0.09461003
0.09968228
0.09438307
0.10944861
0.09268776
0.09380564
0.099515945
0.0993372
0.09226408
0.08997793
0.1002429
0.09263914
0.089230046
0.09907653
0.0956606
0.09274326
0.098944604
0.09162842
0.09507536
0.106655546
0.100245714
0.09325436
0.10969576
0.09602495
0.09733337
0.10616702
0.10030726
0.09537702
0.102896914
0.098481834
0.08905757
0.1100905
0.07936269
0.0980203
0.09707776
0.0960324
0.0962817
0.09623861
0.101795115
0.11700596
0.09555382
0.10441251
0.10071197
0.0857393
0.10846146
0.10469715
0.12059648
0.09335302
0.100208975
0.09387349
0.07764102
0.08542641
0.097144
0.099877074
0.08331407
0.09319748
0.09288055
0.0938505
0.103799835
0.09453203
0.09316564
0.08932218
0.105222516
0.10259755
0.099370144
0.093316995
0.09150518
0.093364105
0.090918586
0.09900219
0.094847254
0.10399478
0.102817655
0.09194895
0.095452785
0.09567678
0.09582382
0.07959024
0.0988317
0.08938406
0.08495426
0.10626578
0.089726664
0.09190152
0.0897353
0.095375754
0.08777897
0.0840873
0.101172864
0.09283584
0.10539728
0.09508097
0.09700535
0.09960456
0.09789602
0.09236263
0.09812591
0.10911621
0.08823089
0.09679385
0.09971597
0.09367378
0.09776233
0.095545575
0.07850489
0.10636074
0.08948351
0.088358134
0.10741503
0.09588994
0.09888599
0.09906717
0.1082777
0.10423505
0.109547965
0.10290462
0.09667966
0.10107204
0.0867655
0.095442414
0.10187168
0.10051268
0.08416091
0.10495148
0.10050083
0.10285747
0.108824484
0.0901971
0.103175946
0.10121484
0.096813604
0.088715315
0.09917149
0.10469184
0.09341649
0.10292507
0.11325807
0.10324152
0.0954376
0.10240645
0.10008178
0.10781777
0.09481699
0.09924312
0.09826529
0.10390329
0.093839996
0.08820472
0.098609306
0.087600335
0.10407029
0.09924863
0.09545939
0.100226626
0.09977245
0.0989185
0.10091577
0.10395318
0.0886521
0.097606435
0.09789437
0.098851845
0.08923209
0.0876139
0.0883957
0.10250163
0.10214171
0.10075102
0.10076548
0.106222056
0.107442304
0.10237385
0.102386534
0.08846188
0.105339974
0.091470644
0.10990663
0.098775014
0.09442897
0.096041925
0.08954502
0.08819438
0.10334026
0.08926718
0.0905031
0.09662
0.08795001
0.09759091
0.08987813
0.10060776
0.10617901
0.105651
0.10054337
0.09712133
0.10357058
0.10480651
0.11690577
0.09807031
0.09785955
0.0909925
0.09278179
0.098547086
0.09294112
0.101104796
0.103784606
0.10269136
0.08357524
0.10380338
0.10334351
0.09883941
0.08935642
0.09820597
0.08399957
0.0899964
0.09421486
0.104489684
0.1067696
0.089922644
0.09942322
0.09804756
0.10047313
0.0876379
0.09952822
0.10199086
0.10046305
0.1009602
0.09759498
0.099870116
0.088145494
0.08717397
0.10041595
0.098193794
0.10599082
0.09088131
0.10200884
0.09771982
0.1105924
0.095016986
0.10462488
0.11120612
0.091545984
0.1063542
0.104630314
0.10653245
0.101769574
0.09386024
0.098950766
0.10005546
0.11030687
0.099043794
0.10795343
0.104492255
0.11452713
0.10490423
0.0990908
0.102166705
0.11411069
0.09874898
0.090822995
0.10126126
0.098624095
0.090357155
0.08831532
0.09361121
0.09154916
0.09658666
0.088849075
0.088788584
0.097943656
0.08943019
0.08766732
0.09796616
0.088634625
0.11042421
0.09825683
0.09645233
0.11780032
0.0839856
0.09953994
0.09837112
0.09757461
0.1033147
0.09272408
0.09283745
0.08719228
0.097645566
0.10765323
0.09390445
0.10482765
0.09901518
0.09513321
0.09813414
0.09432873
0.09456215
0.09735492
0.09072813
0.093072
0.09563494
0.10042743
0.0904661
0.10903037
0.100732
0.10614771
0.09539095
0.122091584
0.098757885
0.0957014
0.09567695
0.09487944
0.09161757
0.11354666
0.093974225
0.10037332
0.10268991
0.10418213
0.11366143
0.10648566
0.101010755
0.09726466
0.09429957
0.09554609
0.08933074
0.09155282
0.09220085
0.101402596
0.10056568
0.09020963
0.09416597
0.09404671
0.09348867
0.10617425
0.10951073
0.08619261
0.09835145
0.09190579
0.09436795
0.104365185
0.09721462
0.09609095
0.0977751
0.11589242
0.09873638
0.09888422
0.09802791
0.096378736
0.10251177
0.114007786
0.09227045
0.087894835
0.09313118
0.0888505
0.09048336
0.09691525
0.093487695
0.09099847
0.08297427
0.09372697
0.09699413
0.08881993
0.104069464
0.09572483
0.1047365
0.10928425
0.095346294
0.10815513
0.09667575
0.10540492
0.09567004
0.10428181
0.09360293
0.10586752
0.09753434
0.09711698
0.079231516
0.09075249
0.09609178
0.09562654
0.1042267
0.08549543
0.0969308
0.08132678
0.09233591
0.097116426
0.088173985
0.08296118
0.102722354
0.09269155
0.09151394
0.08795967
0.08968442
0.0937256
0.10401888
0.09057463
0.097138286
0.09634315
0.09068104
0.08935247
0.09463618
0.09727283
0.09858679
0.1202205
0.10469517
0.0960197
0.099478014
0.09056776
0.092016876
0.09961792
0.08889469
0.095311046
0.084765665
0.092707895
0.09258284
0.0988483
0.09681846
0.1141722
0.08727616
0.104510374
0.098090194
0.09646453
0.10308537
0.09609648
0.09487571
0.109755896
0.09479725
0.089809574
0.09638234
0.091839924
0.092647605
0.088876046
0.09841241
0.101297796
0.08883613
0.09046891
0.08858207
0.07993322
0.090932176
0.10868098
0.09426028
0.089190125
0.09119392
0.08233815
0.09028641
0.11125736
0.09895799
0.0882206
0.09221293
0.099868484
0.103612475
0.08161193
0.08403445
0.10259216
0.099754006
0.1039694
0.100654095
0.098582566
0.09867282
0.10216733
0.09418897
0.09603352
0.10467991
0.103082314
0.100558296
0.10424654
0.099432886
0.106010444
0.10315248
0.106867366
0.10803256
0.094454855
0.097554184
0.09439749
0.09889016
0.08673026
0.09414411
0.10278062
0.092740014
0.10575885
0.104460396
0.09794746
0.092676274
0.1027677
0.09826016
0.10156682
0.101044685
0.10525046
0.10108142
0.09560134
0.09392478
0.08932562
0.11605148
0.12066973
0.09044989
0.1023184
0.10788134
0.10261258
0.108481675
0.10835738
0.09927797
0.0803265
0.09974837
0.10391061
0.090015456
0.096726775
0.102292225
0.100674145
0.095793076
0.086868435
0.09481165
0.100763835
0.09549599
0.09030096
0.09580439
0.09035301
0.10721922
0.10167864
0.10203906
0.095832355
0.10729519
0.10346097
0.103559375
0.105380416
0.10055485
0.10859527
0.08776018
0.10780375
0.111646615
0.100759126
0.110701516
0.104911216
0.08597263
0.10908683
0.09934311
0.09234919
0.09749288
0.099283814
0.08776733
0.09336857
0.10584251
0.09284859
0.094797835
0.09754046
0.07975836
0.09938557
0.102125816
0.09232303
0.09901511
0.09303779
0.09317587
0.08612572
0.0909571
0.09196754
0.08715256
0.08903326
0.10008411
0.09428973
0.09268312
0.09344088
0.0881961
0.09617888
0.0936036
0.08952888
0.085904166
0.095599994
0.09210928
0.090882555
0.09766089
0.10396846
0.0861407
0.090256065
0.0965441
0.08966043
0.100670926
0.09616434
0.108952805
0.09769076
0.09947466
0.10035587
0.09072051
0.09708004
0.099416405
0.09567769
0.085768975
0.098703824
0.099109516
0.093301564
0.09833564
0.08788322
0.09352537
0.10642782
0.10385046
0.113748826
0.09747057
0.0977112
0.09314544
0.09894164
0.08235065
0.09546989
0.0933955
0.09124303
0.093857735
0.094185516
0.10266471
0.08906102
0.099090986
0.09121236
0.098104075
0.110207744
0.09495488
0.09059385
0.09071624
0.09989193
0.09533405
0.10926064
0.09006261
0.10815131
0.089490354
0.0855845
0.08495369
0.10333221
0.112874895
0.10585721
0.09924807
0.10014893
0.10641838
0.085416235
0.10442881
0.08708004
0.09261465
0.0915321
0.095617265
0.093481794
0.10336572
0.10684532
0.087405846
0.096553735
0.09799778
0.09669492
0.11026897
0.09252417
0.08802389
0.103289746
0.09663616
0.100808084
0.08723395
0.09768348
0.08152367
0.09412157
0.09680278
0.101168856
0.10462787
0.08986091
0.09728004
0.10304121
0.10040813
0.09406495
0.099343844
0.096201606
0.0955958
0.08530286
0.09243208
0.09180784
0.09675909
0.08848618
0.097553596
0.08209021
0.08326625
0.091827594
0.09192728
0.10472067
0.10977189
0.09949487
0.102182865
0.09196253
0.09799572
0.10214322
0.09758803
0.09716128
0.10594409
0.09711368
0.11382357
0.11269968
0.098624
0.10789822
0.10237656
0.09939958
0.10059479
0.102929235
0.10029422
0.09164737
0.108695626
0.1053251
0.08919388
0.097097725
0.10598963
0.09498155
0.10031471
0.08481234
0.09501546
0.09870425
0.114549525
0.09622362
0.10143156
0.10606179
0.087242536
0.08938132
0.09714919
0.10841197
0.10080852
0.10381427
0.088235155
0.09925373
0.10231168
0.09802562
0.09723852
0.101086
0.10264455
0.09653118
0.09092169
0.1069477
0.08801283
0.10600572
0.09496933
0.0954744
0.084714234
0.09907034
0.09653236
0.093942404
0.09428658
0.09042538
0.0941524
0.108001515
0.09809707
0.09823444
0.10313937
0.101407155
0.10158198
0.10566785
0.100275695
0.09440973
0.094556294
0.1037277
0.10185354
0.085800245
0.09160626
0.10212167
0.09872528
0.08534156
0.09991033
0.08827813
0.0979388
0.09002181
0.11174978
0.11191562
0.09826676
0.091082335
0.08621316
0.103890166
0.08634901
0.09832455
0.10325616
0.09504857
0.097676456
0.09967301
0.097736046
0.10311866
0.10064189
0.102207385
0.104010746
0.105642445
0.09297611
0.10182189
0.112006254
0.09923218
0.09156326
0.093758345
0.08541532
0.10001824
0.093920596
0.09416636
0.10254563
0.105224386
0.08780679
0.09792347
0.08752121
0.10703336
0.10130446
0.105468094
0.095261596
0.10768795
0.09011559
0.10264591
0.0922368
0.10544944
0.09831721
0.11581299
0.11859458
0.10410306
0.105621636
0.096481845
0.10890655
0.11361028
0.0933016
0.09777858
0.101607084
0.09962405
0.09358243
0.10806059
0.09289712
0.10302923
0.08834519
0.10947042
0.09712508
0.111425556
0.098015964
0.10302505
0.11076864
0.10783436
0.10049266
0.09209078
0.08952988
0.083233126
0.08749338
0.0916661
0.10042578
0.09770867
0.092796855
0.09061343
0.08134522
0.10180727
0.098339714
0.11215727
0.08945611
0.09337682
0.09358302
0.110245615
0.09149461
0.09683359
0.09845913
0.10496699
0.11651584
0.09769878
0.101288065
0.09908483
0.08323706
0.09396919
0.10174497
0.105835415
0.10398715
0.10704936
0.1076144
0.09625001
0.09042867
0.08975175
0.09814154
0.09192354
0.09838625
0.09779808
0.08660061
0.091602005
0.0962051
0.09632922
0.10178626
0.10674788
0.09717408
0.09385238
0.09561646
0.110116385
0.10698442
0.09263751
0.09880606
0.08916156
0.09920266
0.097165406
0.098831154
0.093879424
0.08694167
0.10552734
0.10397643
0.096168
0.089295745
0.099256
0.097651266
0.09857721
0.10445518
0.10088832
0.092716895
0.084653385
0.09634624
0.1054814
0.097576104
0.09285731
0.1007207
0.09524682
0.0892188
0.08879555
0.09411888
0.09779388
0.09771382
0.09781509
0.1004634
0.09626549
0.0887046
0.09751705
0.101146586
0.11128885
0.10710572
0.10108389
0.09912743
0.0929153
0.10743091
0.095268466
0.08683465
0.09533593
0.089771725
0.1012205
0.094119444
0.09925861
0.089598894
0.09108434
0.10524259
0.08968134
0.08875592
0.093065746
0.09724139
0.09105757
0.09940828
0.09089213
0.09982431
0.09492783
0.094207995
0.0935596
0.10457923
0.08647316
0.089072526
0.10809495
0.100707635
0.09425161
0.10022963
0.089523435
0.087020695
0.097045146
0.09684396
0.100883834
0.095032915
0.09034268
0.1034631
0.08860357
0.09655476
0.10835384
0.09404588
0.101695254
0.086715445
0.110209875
0.09752208
0.0945591
0.09730204
0.11234658
0.09798023
0.10803803
0.08931695
0.10097699
0.09571467
0.09609233
0.10345794
0.09641709
0.09521905
0.094431564
0.09835336
0.08865419
0.097638905
0.09310163
0.0912025
0.09111596
0.09075332
0.08981243
0.094817735
0.098047264
0.08091294
0.09983245
0.09535383
0.101949394
0.100050166
0.09312189
0.091107115
0.0871187
0.092046976
0.10174695
0.10341994
0.098565355
0.092298254
0.082041115
0.09713869
0.10345572
0.09981297
0.1014137
0.09522657
0.10816187
0.109691225
0.100736834
0.10834157
0.099395946
0.099776916
0.09946522
0.09237829
0.09801463
0.09804618
0.09576002
0.09040617
0.09426051
0.090025485
0.10179959
0.09141424
0.08560357
0.09989813
0.09420002
0.08907118
0.09150837
0.10248922
0.088195875
0.09217519
0.0932494
0.08925135
0.087919734
0.10226942
0.08995242
0.091582455
0.10079507
0.1012946
0.0969771
0.09045589
0.10055971
0.10311298
0.09793408
0.09693972
0.09452541
0.097969174
0.098136656
0.09985893
0.09794144
0.098260775
0.1108257
0.10251562
0.10602896
0.09924926
0.09407356
0.09119934
0.111554064
0.09447619
0.10918942
0.101112925
0.09367344
0.09248491
0.10603429
0.105242684
0.103778094
0.09396823
0.10245494
0.09085567
0.08880118
0.096172445
0.10926857
0.10650634
0.11073127
0.10227519
0.11265652
0.11229413
0.09267606
0.10062312
0.09548391
0.104888864
0.09705719
0.080480345
0.10614642
0.106804684
0.09766143
0.087011196
0.07641457
0.08794794
0.09621016
0.082703345
0.09176071
0.09505682
0.08753617
0.0998075
0.08602005
0.09488828
0.0955564
0.100127876
0.09296968
0.10068079
0.10525157
0.099899925
0.09617722
0.112502724
0.104074396
0.10319735
0.099518664
0.09536768
0.101614825
0.09485282
0.10111726
0.09630312
0.09858883
0.11699139
0.11114779
0.094639204
0.10223478
0.108414076
0.08740894
0.09108088
0.11159566
0.08507851
0.09344543
0.1027624
0.09090187
0.097546116
0.09681445
0.107002825
0.09441974
0.091943495
0.102955796
0.10524861
0.090092175
0.1084255
0.120106384
0.10281894
0.09974457
0.09247062
0.100068316
0.09220724
0.10954838
0.093756095
0.08723371
0.10361209
0.10650782
0.10926778
0.09436742
0.095146656
0.10188811
0.11088894
0.088820726
0.10036832
0.10137206
0.09797411
0.10917167
0.09990924
0.10184381
0.08829884
0.08872135
0.09400803
0.08159919
0.075421445
0.1029281
0.089509994
0.095145166
0.09061108
0.09266532
0.10052812
0.092151985
0.10192624
0.09729238
0.10118495
0.10000107
0.10121174
0.09833635
0.09176446
0.10104844
0.08781609
0.0963797
0.10506023
0.10662098
0.09423333
0.103635624
0.10585877
0.09307273
0.092164576
0.08999568
0.10143816
0.098808974
0.087200984
0.09249455
0.106772505
0.10878579
0.08611654
0.097486675
0.094114296
0.11189815
0.10313788
0.101223096
0.09867283
0.098664135
0.106496364
0.102364026
0.10276398
0.11012101
0.10993528
0.09396002
0.101231776
0.10324436
0.10503989
0.11000627
0.10295059
0.09321513
0.10103913
0.09274976
0.09817112
0.09784931
0.09371006
0.099661104
0.10062985
0.09376932
0.0926929
0.11390509
0.09568863
0.098804906
0.093165144
0.10428756
0.10013342
0.09649824
0.09936389
0.09669303
0.08802428
0.09224016
0.085269414
0.09466237
0.096724
0.09050542
0.09946952
0.09474372
0.09469281
0.10255936
0.08923905
0.09277774
0.09295394
0.08926534
0.08813513
0.10229649
0.09391993
0.10257632
0.09076651
0.1124966
0.09675147
0.10067402
0.10018594
0.10275956
0.101094745
0.09156584
0.10099526
0.094821915
0.10034405
0.0992882
0.09180542
0.09566493
0.09524978
0.09624751
0.09677705
0.0912693
0.10715957
0.09926207
0.08998122
0.09430082
0.08971657
0.098071344
0.10319961
0.09867952
0.08962811
0.083748646
0.09540781
0.09535328
0.087020606
0.09141966
0.093439676
0.09378745
0.092019126
0.08796401
0.08838007
0.097926214
0.09155424
0.09328828
0.09015122
0.09390302
0.09481911
0.08854208
0.100772075
0.10180663
0.0900768
0.09577374
0.102976784
0.10039261
0.09064664
0.10762974
0.09982582
0.09465137
0.095174044
0.09334578
0.0992281
0.09434364
0.1100948
0.101562776
0.09725583
0.10875384
0.10215112
0.10706738
0.10443409
0.09771704
0.10558708
0.09571916
0.09342672
0.09534576
0.097908124
0.09148917
0.10797811
0.11176892
0.08884206
0.09664876
0.09815194
0.09816528
0.09934242
0.10149245
0.10719782
0.10548717
0.09294262
0.10480688
0.0999157
0.09964647
0.09949775
0.09476794
0.10405784
0.10581288
0.10070067
0.094980046
0.095313095
0.10050615
0.10438878
0.10243444
0.108093806
0.10176493
0.09871323
0.10158237
0.0985513
0.10071849
0.096767716
0.08528205
0.09780259
0.10132089
0.10644083
0.101550184
0.09325432
0.09799681
0.09936615
0.091557026
0.11001868
0.10348894
0.09343124
0.101136744
0.1156392
0.1034304
0.087507896
0.09857095
0.09870394
0.09606465
0.09337848
0.08970866
0.092850536
0.09404487
0.08865782
0.09562817
0.09756403
0.09162791
0.10412753
0.08670382
0.09602605
0.09614924
0.097106926
0.091018416
0.09713234
0.09584634
0.090581164
0.09182298
0.10537163
0.09952485
0.10967401
0.09223214
0.09177982
0.10197709
0.09571749
0.09273947
0.0930823
0.10580373
0.10293281
0.09412047
0.10100754
0.09376134
0.10264541
0.08893339
0.07751835
0.102412485
0.10438848
0.092532605
0.10442607
0.0785906
0.095916286
0.08187571
0.096479096
0.09464295
0.08735024
0.09501757
0.08483497
0.09694361
0.10151121
0.09644763
0.10317837
0.109792285
0.10144726
0.10501653
0.09273924
0.11311941
0.10901217
0.09468428
0.111423664
0.10178652
0.08459008
0.10008271
0.09942168
0.1026973
0.104424484
0.09192799
0.089601226
0.09573972
0.086876035
0.09929839
0.097235695
0.09714653
0.09590071
0.10031873
0.102999255
0.09814933
0.09177536
0.106331
0.0875846
0.107202835
0.10066339
0.0896615
0.097780615
0.09039501
0.10394538
0.09335747
0.10853289
0.10246218
0.08944438
0.09863644
0.0905943
0.10041596
0.10596151
0.10257638
0.094041675
0.091039896
0.09475129
0.10247968
0.10522148
0.093021914
0.08840481
0.09959386
0.113230884
0.08499163
0.10192658
0.0898493
0.09922793
0.10650604
0.0956402
0.10952986
0.10080338
0.097370945
0.085515395
0.104840174
0.100015074
0.104679845
0.0969013
0.10003626
0.092961155
0.095089816
0.08946629
0.10075532
0.092554495
0.098907396
0.09313024
0.08260619
0.09700293
0.092724055
0.10967598
0.10311658
0.09186672
0.09474916
0.09670864
0.08658356
0.0935765
0.10703623
0.08948396
0.097964585
0.09093739
0.11337924
0.113603964
0.09233562
0.11358658
0.10661928
0.10811947
0.10108906
0.0957741
0.104435705
0.10760172
0.09386166
0.09903378
0.097191304
0.11695018
0.11728439
0.099078804
0.099307016
0.096377686
0.104489505
0.10488193
0.09438442
0.1008745
0.09740731
0.09462366
0.10767833
0.088647455
0.109881386
0.107559815
0.09109582
0.105374284
0.09285273
0.09652606
0.095133245
0.09224414
0.09776631
0.113292105
0.097754374
0.10134429
0.09727338
0.09277531
0.09768874
0.09495971
0.09085482
0.08501774
0.10666345
0.09871767
0.102767736
0.10605274
0.11161579
0.10344541
0.08596531
0.11254092
0.093062066
0.0951623
0.09231707
0.08994373
0.11193985
0.08940001
0.095584564
0.10083786
0.08299817
0.09567657
0.09428102
0.108975865
0.099870145
0.10395153
0.09409839
0.088169284
0.085889004
0.10415124
0.097562775
0.10721507
0.09918478
0.100275606
0.098918095
0.09170867
0.10559135
0.090893134
0.09754164
0.10316675
0.091099694
0.0926368
0.08738815
0.090793125
0.09960348
0.10311649
0.10076209
0.09339157
0.09358782
0.09633566
0.099817894
0.0974843
0.09881833
0.114476904
0.103560075
0.091040395
0.08993804
0.07411374
0.09871992
0.09457233
0.10567522
0.098098755
0.097514436
0.09394423
0.08813955
0.092321165
0.10610147
0.093654856
0.10572423
0.103162706
0.08512722
0.11592168
0.106448375
0.09878242
0.10320755
0.10116124
0.09892476
0.09596899
0.09921265
0.092425756
0.10842525
0.10406544
0.09543841
0.09543398
0.09558813
0.10128351
0.09622569
0.09491426
0.10185008
0.08923813
0.09779693
0.09322596
0.09991612
0.10643826
0.10233157
0.09207289
0.09913306
0.11205967
0.088861875
0.092882976
0.097262055
0.10144307
0.08738225
0.09641721
0.09330283
0.08784157
0.09190956
0.10632649
0.09901223
0.08619231
0.09967986
0.089087754
0.08924511
0.088248305
0.07868658
0.095918305
0.08073627
0.08798433
0.08802845
0.093149856
0.09677435
0.08489778
0.10374285
0.09456285
0.11482866
0.093901224
0.09172513
0.09168499
0.10434591
0.094079055
0.0844925
0.09125857
0.09412014
0.0968608
0.10292514
0.10401982
0.0927494
0.10576432
0.089166746
0.1157472
0.08862063
0.08643015
0.09161298
0.11029511
0.1011772
0.09901088
0.09962302
0.086434476
0.09947992
0.10682906
0.105369225
0.10601362
0.09626407
0.0921463
0.09958826
0.08970589
0.09224795
0.10167183
0.08753787
0.094066024
0.09260102
0.09560497
0.091213144
0.09787652
0.10691692
0.0988141
0.09448523
0.099815436
0.093708284
0.0941039
0.08788505
0.08622411
0.09465199
0.10513441
0.09992561
0.09442623
0.09657558
0.09758909
0.10918464
0.09391065
0.087996356
0.090633385
0.0985939
0.08765104
0.099214874
0.08655614
0.094983116
0.10095347
0.0897586
0.099213526
0.10467102
0.09331065
0.094776355
0.103761196
0.09636186
0.097788036
0.09688727
0.09199477
0.10152317
0.08542945
0.087925725
0.0953154
0.09209581
0.101372525
0.089907676
0.09743752
0.090598166
0.094823375
0.09979453
0.09612223
0.08671692
0.09443369
0.0911994
0.10554323
0.08821134
0.08843865
0.09581183
0.09869093
0.11102633
0.09073355
0.09411002
0.10370636
0.10877854
0.09185899
0.09461567
0.1067135
0.09076147
0.102448024
0.085896
0.09210636
0.09366617
0.08397252
0.093580194
0.09512736
0.091258384
0.091793835
0.10090291
0.080897406
0.10181451
0.089557454
0.09886089
0.08927751
0.09181747
0.10520548
0.108285464
0.09320111
0.11199184
0.101834305
0.09609747
0.103196874
0.114082746
0.099927254
0.090730205
0.10002489
0.09397678
0.10107545
0.099615134
0.09320479
0.09328012
0.09180474
0.11174825
0.10110042
0.099296816
0.08791146
0.09503359
0.091594346
0.100367226
0.101790085
0.096531674
0.105342
0.08121353
0.08435568
0.090771385
0.09991591
0.0882841
0.090880476
0.09178099
0.09670557
0.108408816
0.10741823
0.098742336
0.09588306
0.10414106
0.101948336
0.10014937
0.094281614
0.11456627
0.09172958
0.09105787
0.09085599
0.09570302
0.09764304
0.09799008
0.10363785
0.09717428
0.09765271
0.09918877
0.090250656
0.10643316
0.09936895
0.103039965
0.096575074
0.090443
0.09969548
0.08769062
0.09676704
0.086280204
0.102862
0.09410738
0.08378045
0.10054532
0.09220705
0.092591
0.09897945
0.09085778
0.10565865
0.090546764
0.100309595
0.11264878
0.10447841
0.09965421
0.09387892
0.09510763
0.08902197
0.09907717
0.10002774
0.093007535
0.09693499
0.0950163
0.08943417
0.09180696
0.103077665
0.1074264
0.11648204
0.08955833
0.1043639
0.0993654
0.099859275
0.09467294
0.090125
0.09726951
0.09706677
0.112461954
0.09833563
0.09274897
0.0962604
0.0966054
0.10175036
0.10648818
0.07819937
0.09073559
0.08572448
0.09641829
0.09630386
0.10050786
0.09814572
0.08527873
0.102743015
0.09331608
0.08421329
0.090507105
0.097934514
0.0857196
0.09468254
0.09878061
0.08018234
0.09567887
0.09442546
0.098393455
0.09709625
0.11416864
0.10890939
0.09923753
0.085104585
0.09526777
0.10130374
0.09732593
0.10199096
0.094642945
0.10055573
0.09532464
0.101748005
0.088975035
0.094721235
0.09636689
0.09507905
0.10447332
0.11224647
0.094150536
0.10144067
0.09650001
0.097436234
0.09922896
0.101464845
0.096360855
0.08992057
0.09901237
0.091541976
0.088404216
0.10016808
0.099297225
0.08972733
0.090954326
0.108282335
0.09779987
0.10527187
0.09952649
0.09146154
0.08698217
0.10346901
0.08871651
0.09215745
0.090664685
0.09171449
0.090035155
0.09388839
0.0940904
0.09350377
0.10702184
0.09650947
0.1108988
0.10000072
0.10393297
0.094336756
0.0989891
0.10145262
0.0920894
0.09256037
0.103708886
0.095308535
0.09922388
0.104517214
0.09998479
0.09331197
0.10545305
0.09353344
0.107531235
0.097869486
0.09331364
0.096105486
0.10062159
0.099295564
0.10621303
0.103542894
0.09676226
0.0972482
0.10029742
0.09371058
0.10439881
0.09960206
0.097289585
0.0898735
0.09225317
0.096039616
0.103593215
0.085115924
0.0923942
0.09126967
0.09444097
0.10913253
0.091982804
0.10411733
0.107634746
0.0907589
0.098835126
0.09085457
0.096452795
0.08861168
0.09695509
0.11371284
0.10341528
0.09058243
0.09932535
0.104555055
0.0975569
0.10305171
0.1183287
0.10236053
0.0946359
0.098281726
0.09628366
0.10833975
0.09644175
0.09278864
0.11118506
0.10227823
0.10744916
0.098023586
0.09876044
0.08973326
0.0998376
0.092340104
0.107898906
0.09128157
0.09421998
0.09788633
0.10775717
0.10383871
0.098002985
0.09985458
0.09398285
0.100306496
0.098374225
0.111554295
0.09677946
0.0939991
0.10248598
0.10040173
0.09436041
0.10645033
0.097993
0.10138926
0.09787839
0.105387986
0.09867409
0.11038375
0.10284129
0.10120469
0.10268499
0.096626125
0.10169007
0.10883257
0.09305672
0.1072692
0.0965889
0.09307482
0.10196876
0.107012324
0.09716843
0.096824236
0.08432492
0.10881416
0.09985808
0.098885596
0.09085731
0.10332138
0.10176373
0.105802044
0.099892445
0.10031825
0.102790244
0.11251104
0.09660622
0.09144617
0.09695219
0.09599479
0.109523125
0.093392245
0.087860286
0.10298703
0.088918835
0.10271992
0.105313785
0.09527298
0.096224464
0.103198595
0.10530807
0.09120209
0.093021676
0.10938477
0.09116937
0.1089608
0.10651482
0.10607066
0.09377795
0.10039199
0.09448734
0.104967035
0.11279808
0.104874
0.093867786
0.100558326
0.103819504
0.09462838
0.098549485
0.09697897
0.0953659
0.10007316
0.087799594
0.106754676
0.09558461
0.100048
0.10215269
0.0954415
0.10644533
0.09545147
0.088289864
0.09957815
0.09309908
0.09480368
0.091488525
0.09147983
0.08809685
0.10391608
0.09335202
0.088355154
0.09603453
0.099365674
0.107630804
0.10296464
0.095188476
0.104700804
0.089501984
0.10502016
0.10538137
0.0937037
0.10309028
0.102965355
0.08509701
0.100496
0.10465486
0.10338096
0.09628425
0.08804927
0.09192744
0.100479364
0.09757714
0.096129924
0.091040485
0.09266175
0.10022311
0.10071252
0.099468924
0.09814118
0.092580855
0.09452658
0.08894209
0.09605875
0.10367653
0.107256755
0.09494002
0.09890405
0.095387824
0.10169312
0.08412813
0.09790045
0.08951165
0.090830706
0.095704615
0.09793391
0.10073466
0.108602
0.10648386
0.102285884
0.09923145
0.114185706
0.10310808
0.097134575
0.08496582
0.11246657
0.099619366
0.0877383
0.10465492
0.09940006
0.106682524
0.11059971
0.102621086
0.10434017
0.0806391
0.087206095
0.09985006
0.09986149
0.093624376
0.108551115
0.10225718
0.09135625
0.112633504
0.10374732
0.1048187
0.11088702
0.10377016
0.09627255
0.09400512
0.10225032
0.09316848
0.09709542
0.08504684
0.0987976
0.10049206
0.09490207
0.107519366
0.0836078
0.103941165
0.094991945
0.09892936
0.103204936
0.10771718
0.09380962
0.09693329
0.08238837
0.10159373
0.09500957
0.099869095
0.0941885
0.09624678
0.098314025
0.1088009
0.094891444
0.0924985
0.08857133
0.08918043
0.09334369
0.093311936
0.086886086
0.089599766
0.088919185
0.10232376
0.0948059
0.08423187
0.09535331
0.09915869
0.098324314
0.10684004
0.10594135
0.107680924
0.10766064
0.08687118
0.1043708
0.09149919
0.117427796
0.1043873
0.098736644
0.09692243
0.10374593
0.09406045
0.09480849
0.11117229
0.10190816
0.08348016
0.10546991
0.09340008
0.094569415
0.0914457
0.092049174
0.09731991
0.09946689
0.09440809
0.091029204
0.10063618
0.10390939
0.08520419
0.09517901
0.10507509
0.07958906
0.09535041
0.091033995
0.10543901
0.106554925
0.08313022
0.08809649
0.09768727
0.09326161
0.09922762
0.09589345
0.0871716
0.10135843
0.0883012
0.09588722
0.081806645
0.08419861
0.0948553
0.085615106
0.09150301
0.09459888
0.098338455
0.10028657
0.09716455
0.07983246
0.10728345
0.10422375
0.09122526
0.084747046
0.10583317
0.09128315
0.10514008
0.10490382
0.09800604
0.10142652
0.106632516
0.08824207
0.096213326
0.090268835
0.10119244
0.090947255
0.09347448
0.09143247
0.09674368
0.10109124
0.09322409
0.08941285
0.09104121
0.082205184
0.09230389
0.10061282
0.104604654
0.09557381
0.09591391
0.09829352
0.100189194
0.0838859
0.09433658
0.09800684
0.08608354
0.10732007
0.10080451
0.09250641
0.09246568
0.08874272
0.09656373
0.09974396
0.09209256
0.09692509
0.10203245
0.092226475
0.10482134
0.10786553
0.09783834
0.09470126
0.084044844
0.09864697
0.10586781
0.094050854
0.09558648
0.0858604
0.0970796
0.09470155
0.11287083
0.09455221
0.105017774
0.096766494
0.09496171
0.105449
0.087641306
0.10795338
0.09183789
0.10665827
0.09971721
0.10551662
0.098788634
0.09352076
0.09338284
0.102753565
0.098908596
0.09971951
0.09581783
0.095670156
0.09358811
0.09385048
0.11182782
0.10437745
0.0909504
0.09958342
0.09781877
0.09446782
0.103161715
0.09135615
0.10438268
0.094826646
0.097925976
0.10241306
0.08712282
0.09519969
0.10053528
0.10257297
0.09255698
0.09358168
0.09790976
0.088855244
0.085796334
0.10478886
0.094085865
0.094273284
0.098693
0.09640516
0.08392434
0.095138706
0.10443177
0.10247219
0.09383372
0.089680836
0.10258187
0.10279506
0.090354525
0.09657175
0.0980228
0.09068958
0.09212562
0.109762415
0.09665034
0.10307811
0.09718503
0.08602289
0.09104555
0.09403461
0.09740771
0.097850785
0.096401796
0.0822879
0.09446924
0.091748424
0.09713276
0.1091012
0.105463885
0.08894706
0.09674508
0.09643334
0.09171949
0.09644651
0.09933717
0.0915959
0.09674259
0.108790375
0.1120264
0.11024223
0.10054788
0.09356224
0.10180605
0.09857301
0.09710238
0.11191995
0.09235501
0.11515849
0.090001546
0.10360046
0.10366497
0.086728826
0.08573722
0.09647751
0.10577704
0.117135406
0.10040292
0.10840096
0.10095473
0.10039042
0.10307221
0.09374974
0.09644779
0.11157614
0.11088237
0.093462385
0.0958579
0.09930267
0.09635837
0.08924988
0.10152793
0.09277181
0.096128896
0.103970595
0.08865666
0.08911883
0.09308995
0.09407614
0.10090312
0.10005646
0.09996626
0.09904497
0.104457505
0.09245221
0.09889914
0.103328004
0.095233716
0.104931965
0.09684403
0.10470787
0.09927927
0.09660155
0.09782707
0.10476949
0.09784809
0.10071046
0.108234905
0.10303206
0.102485776
0.10477066
0.089282095
0.08590687
0.09039826
0.09894027
0.090560436
0.10007226
0.094555095
0.099385925
0.09786936
0.105422705
0.0866759
0.095252275
0.089805126
0.09445522
0.0962788
0.10596747
0.10033307
0.102990866
0.097758725
0.09758704
0.10270689
0.10310593
0.10858492
0.09815194
0.11027747
0.09972865
0.10284405
0.10176463
0.10148589
0.10387756
0.092695326
0.10177144
0.10670801
0.10061692
0.099656746
0.0869909
0.09222841
0.09426271
0.08510377
0.08763694
0.07773948
0.09084464
0.09029354
0.09175253
