# {"t_start": 1552429568.3787982, "env_id": "BreakoutNoFrameskip-v0"} 
r,l,t
0.0,129,20.815868
4.0,323,56.165869
0.0,129,71.596007
0.0,123,86.629361
1.0,155,103.485101
2.0,200,129.494849
1.0,174,148.98817
2.0,202,175.994208
3.0,250,210.135219
5.0,349,256.117481
2.0,200,280.308325
0.0,127,295.629254
0.0,129,313.48948
2.0,200,331.852586
3.0,250,367.191784
2.0,204,396.172969
10.0,412,448.781717
2.0,202,476.352559
6.0,398,527.656022
0.0,125,545.121272
3.0,246,579.15098
1.0,177,597.077007
1.0,176,623.311491
3.0,246,650.497419
0.0,127,666.965546
4.0,297,710.571904
4.0,298,747.245499
3.0,213,774.161183
1.0,154,792.247581
9.0,407,846.74263
2.0,202,873.85778
3.0,232,905.736754
3.0,232,932.809847
2.0,202,961.450914
4.0,277,995.392351
2.0,203,1022.667203
6.0,339,1069.230261
7.0,427,1131.339708
2.0,202,1160.030728
9.0,402,1215.173059
1.0,174,1234.993157
11.0,451,1296.652734
7.0,247,1329.467275
5.0,329,1376.419597
9.0,490,1438.716731
4.0,275,1473.387393
6.0,364,1524.866182
4.0,297,1560.794863
5.0,352,1607.649463
3.0,236,1640.414048
6.0,341,1686.683462
5.0,330,1731.37136
6.0,338,1774.460575
5.0,295,1811.148761
4.0,299,1855.001304
5.0,348,1902.843473
3.0,216,1929.451677
3.0,252,1964.207292
7.0,398,2019.429996
4.0,279,2057.020991
5.0,324,2099.885072
6.0,358,2145.62227
7.0,387,2199.730038
1.0,157,2218.726681
9.0,316,2261.84597
5.0,309,2308.533154
5.0,276,2343.72574
8.0,501,2405.690098
8.0,388,2460.718985
14.0,560,2538.710048
4.0,274,2574.330432
5.0,327,2619.277265
6.0,358,2664.386973
8.0,497,2724.911881
10.0,514,2793.363368
7.0,380,2847.105756
9.0,526,2913.413205
6.0,362,2956.006832
7.0,408,3010.308659
11.0,398,3059.481767
12.0,508,3115.593623
10.0,429,3168.597028
6.0,363,3209.226244
9.0,479,3269.39477
6.0,359,3308.913669
6.0,321,3345.865342
11.0,614,3415.70275
4.0,282,3447.753031
9.0,491,3507.700005
8.0,466,3561.509183
9.0,448,3615.605135
4.0,325,3646.474516
13.0,552,3714.514393
10.0,549,3776.94623
8.0,419,3829.720006
7.0,389,3870.495003
7.0,422,3923.389753
6.0,378,3962.389025
8.0,427,4014.471428
10.0,493,4069.270585
10.0,464,4123.071326
6.0,408,4175.864985
5.0,312,4208.329135
7.0,368,4252.302768
8.0,390,4299.062854
9.0,468,4352.902387
11.0,271,4384.473175
9.0,528,4445.710379
15.0,546,4507.528613
10.0,376,4552.518644
8.0,427,4600.489635
7.0,250,4630.451529
11.0,412,4676.837724
10.0,450,4730.895664
9.0,524,4791.087386
9.0,457,4844.84052
12.0,520,4907.421098
9.0,478,4963.420935
9.0,482,5018.369467
9.0,527,5081.841061
17.0,530,5143.604764
7.0,427,5197.921184
10.0,477,5252.550152
11.0,566,5322.938972
4.0,260,5353.02225
8.0,442,5400.60072
10.0,468,5455.225323
11.0,571,5523.925932
10.0,520,5586.673885
6.0,361,5627.696764
8.0,457,5681.706193
18.0,615,5759.994928
11.0,573,5824.260181
11.0,598,5893.80869
11.0,557,5961.508238
8.0,432,6014.605386
6.0,380,6053.799978
6.0,323,6092.451965
7.0,386,6139.885071
12.0,606,6210.911794
5.0,316,6250.52134
9.0,503,6306.307392
12.0,619,6383.111683
14.0,675,6461.422524
18.0,699,6547.764265
4.0,264,6578.955352
8.0,394,6627.027492
13.0,509,6688.959548
10.0,511,6746.056741
10.0,375,6790.49756
15.0,473,6845.97207
10.0,517,6908.899627
17.0,587,6979.098081
12.0,646,7058.191356
13.0,556,7121.720779
6.0,360,7166.776349
4.0,280,7199.058747
10.0,444,7254.495647
14.0,547,7317.878677
10.0,406,7365.154443
8.0,296,7397.046092
10.0,508,7459.555292
10.0,490,7521.09287
6.0,416,7569.392055
11.0,526,7632.172351
10.0,556,7696.319472
10.0,483,7757.418552
7.0,250,7781.736916
11.0,538,7850.036793
10.0,497,7906.29932
12.0,493,7968.880385
9.0,484,8024.524877
11.0,601,8094.77484
11.0,572,8164.233417
11.0,599,8235.190181
23.0,658,8316.031688
14.0,671,8394.732293
9.0,475,8450.09223
9.0,523,8512.981187
8.0,428,8566.664077
13.0,641,8644.800454
9.0,519,8707.350183
8.0,442,8755.330596
21.0,733,8842.311899
9.0,481,8903.93275
16.0,575,8973.575551
8.0,471,9028.077319
10.0,545,9092.523703
11.0,553,9156.242402
6.0,340,9201.598644
12.0,513,9258.204707
9.0,480,9319.007832
11.0,563,9382.372687
7.0,370,9427.709299
13.0,605,9499.523725
20.0,684,9579.8976
9.0,502,9642.596549
15.0,605,9713.02615
14.0,434,9767.729169
10.0,556,9832.263056
10.0,508,9897.483024
15.0,561,9973.390995
14.0,597,10054.821957
12.0,652,10142.522885
7.0,471,10204.691919
8.0,402,10256.173689
11.0,540,10326.247284
10.0,557,10407.755785
14.0,601,10488.993341
11.0,583,10567.92711
15.0,650,10657.108569
15.0,569,10729.626372
10.0,549,10810.079199
9.0,518,10876.596091
13.0,368,10930.526748
10.0,547,11003.953983
7.0,431,11067.928689
8.0,455,11128.386235
7.0,376,11174.080778
7.0,399,11228.923809
16.0,635,11315.585822
9.0,468,11376.690484
12.0,480,11438.1666
9.0,476,11504.788929
4.0,292,11540.5182
14.0,570,11618.270022
8.0,443,11671.72546
8.0,439,11730.618439
6.0,373,11781.077101
12.0,520,11850.594166
13.0,507,11912.900649
18.0,561,11991.200464
11.0,554,12061.283786
13.0,537,12134.011796
7.0,424,12190.434424
10.0,527,12260.660373
14.0,586,12338.760123
15.0,501,12402.016966
10.0,480,12471.727806
6.0,343,12515.577659
7.0,391,12563.349754
10.0,529,12634.522996
13.0,603,12712.785653
15.0,512,12782.579241
16.0,577,12860.35706
7.0,374,12907.77187
15.0,590,12985.839216
11.0,562,13064.72066
12.0,531,13132.333015
25.0,715,13230.267118
10.0,516,13300.236793
19.0,799,13405.74804
12.0,562,13475.191346
10.0,525,13545.124537
11.0,558,13622.668191
18.0,602,13702.418507
11.0,518,13770.605165
9.0,508,13840.018611
22.0,755,13936.058177
10.0,523,14007.385112
14.0,661,14095.278823
8.0,427,14154.167542
12.0,427,14208.977907
14.0,698,14304.171993
3.0,253,14339.515744
11.0,407,14390.938155
8.0,444,14450.09777
5.0,312,14486.90345
7.0,434,14544.641896
14.0,373,14591.068231
14.0,507,14659.17796
8.0,436,14720.243743
16.0,635,14800.526692
9.0,492,14868.545733
7.0,353,14911.317901
11.0,529,14981.494062
7.0,375,15033.628748
6.0,364,15076.92162
7.0,435,15136.595408
10.0,483,15200.111074
9.0,518,15271.355999
10.0,531,15340.811248
11.0,527,15410.69546
10.0,540,15480.649443
9.0,404,15532.025735
5.0,354,15583.992429
10.0,486,15645.205333
7.0,405,15696.47381
9.0,483,15763.852328
6.0,342,15808.42231
8.0,428,15863.633886
6.0,367,15913.577553
17.0,534,15984.131148
14.0,552,16053.105196
5.0,372,16104.438895
9.0,491,16166.350044
8.0,403,16216.699234
11.0,581,16291.851766
15.0,622,16378.993109
12.0,575,16456.089583
13.0,651,16536.14298
11.0,547,16613.760602
12.0,602,16693.123956
11.0,478,16752.373489
8.0,456,16812.284505
20.0,775,16919.976369
14.0,611,16998.640887
9.0,477,17065.797269
18.0,614,17141.758346
16.0,608,17221.148238
9.0,489,17289.926204
13.0,541,17357.677987
9.0,497,17421.118571
7.0,423,17481.7616
17.0,680,17566.529721
9.0,473,17628.87775
16.0,588,17706.677083
9.0,455,17768.147248
9.0,458,17828.776999
12.0,549,17903.955104
11.0,555,17976.299081
11.0,540,18045.56208
7.0,371,18097.556508
11.0,518,18166.736889
8.0,477,18229.535084
21.0,727,18323.868964
8.0,459,18385.018911
11.0,394,18436.84342
10.0,494,18496.769474
13.0,630,18582.333426
11.0,432,18641.192617
10.0,465,18701.711565
8.0,421,18755.591244
6.0,340,18798.100313
5.0,323,18840.033632
10.0,374,18891.295068
8.0,444,18942.173595
4.0,247,18977.179704
11.0,541,19047.158739
11.0,556,19125.63111
3.0,229,19150.181192
14.0,390,19201.89104
6.0,359,19244.938841
8.0,444,19305.571055
6.0,365,19349.218634
10.0,522,19418.868946
10.0,468,19479.066805
15.0,575,19555.918244
10.0,515,19625.554744
5.0,277,19661.564745
17.0,639,19747.690789
17.0,622,19826.572356
7.0,372,19878.404055
13.0,666,19964.33709
6.0,305,20006.140589
15.0,639,20092.73731
7.0,389,20138.614683
14.0,659,20225.381728
13.0,562,20302.920553
7.0,374,20354.583085
17.0,517,20424.196347
14.0,576,20496.545429
18.0,703,20591.222456
10.0,529,20660.823004
9.0,367,20712.617808
18.0,800,20818.015856
6.0,365,20862.118504
14.0,496,20930.592596
5.0,326,20974.588392
15.0,591,21052.77465
15.0,688,21142.278595
12.0,498,21210.534763
12.0,553,21281.316828
15.0,658,21369.631822
13.0,619,21454.055239
39.0,926,21577.995461
20.0,739,21674.646958
14.0,543,21750.374539
13.0,575,21823.248169
13.0,634,21908.544055
16.0,639,21993.927841
12.0,582,22071.238078
14.0,520,22141.249228
19.0,717,22236.764611
14.0,670,22323.652288
16.0,611,22403.765879
14.0,651,22490.179055
10.0,532,22559.955954
11.0,513,22628.320013
12.0,527,22700.048949
6.0,401,22752.295524
13.0,590,22830.304115
8.0,465,22893.312012
9.0,482,22959.88098
23.0,807,23063.075156
14.0,511,23131.176822
17.0,677,23217.85124
13.0,463,23278.413603
12.0,582,23357.275268
21.0,759,23460.465812
10.0,466,23520.023026
10.0,501,23583.435142
11.0,515,23654.957467
7.0,354,23698.738657
10.0,484,23765.457526
11.0,547,23836.161628
7.0,414,23888.463181
8.0,429,23949.317454
14.0,669,24036.94208
13.0,629,24122.411044
12.0,572,24194.490322
14.0,535,24272.217683
12.0,520,24335.942497
8.0,444,24396.391203
13.0,472,24458.587072
19.0,768,24563.332667
11.0,405,24614.432252
11.0,568,24692.716364
7.0,414,24743.31306
13.0,576,24820.970881
25.0,728,24917.888798
11.0,569,24996.670583
11.0,552,25065.470076
16.0,685,25159.478273
12.0,541,25230.161074
9.0,454,25291.404973
12.0,492,25352.83163
9.0,483,25414.90687
12.0,430,25473.924459
16.0,573,25550.541278
10.0,550,25621.331134
16.0,559,25697.163648
23.0,775,25801.486114
6.0,396,25847.974139
15.0,694,25942.602938
29.0,895,26064.766297
17.0,788,26167.356248
14.0,666,26253.50875
17.0,499,26322.12392
11.0,572,26395.09805
14.0,657,26481.705596
13.0,676,26573.972038
11.0,509,26641.812454
11.0,271,26676.505328
8.0,420,26727.630934
15.0,667,26817.347234
25.0,814,26926.003452
19.0,730,27021.3189
7.0,412,27075.354076
6.0,380,27126.913872
22.0,729,27222.158598
20.0,617,27302.28399
19.0,686,27394.247582
19.0,667,27481.433891
13.0,591,27558.876872
18.0,806,27665.123008
21.0,802,27773.244536
10.0,473,27832.72166
16.0,736,27928.538604
14.0,556,28006.978015
18.0,725,28106.015539
15.0,613,28184.009267
10.0,576,28262.458518
8.0,448,28321.526182
11.0,538,28391.026141
22.0,665,28479.517442
18.0,557,28555.04499
24.0,774,28652.466359
25.0,749,28754.568259
16.0,552,28826.08562
25.0,816,28937.010258
18.0,594,29017.160769
11.0,521,29086.44305
17.0,610,29164.858548
17.0,573,29239.942868
17.0,545,29311.515334
16.0,616,29397.918681
13.0,594,29478.266416
16.0,546,29547.012995
15.0,576,29624.809878
13.0,657,29711.92138
9.0,513,29783.070838
17.0,736,29879.020281
20.0,750,29975.155095
6.0,354,30025.701207
15.0,384,30071.346557
15.0,519,30139.342565
19.0,599,30218.80512
8.0,423,30276.831924
14.0,557,30347.311018
17.0,603,30434.745852
20.0,728,30533.435
11.0,585,30611.334347
17.0,511,30673.981481
18.0,666,30768.253333
10.0,526,30836.836208
16.0,677,30924.080309
5.0,292,30957.651382
24.0,696,31054.144818
11.0,565,31131.180362
15.0,709,31222.177098
12.0,593,31301.527753
8.0,401,31359.284844
12.0,625,31441.209996
10.0,397,31491.261883
10.0,526,31559.764008
12.0,548,31630.534261
22.0,719,31726.288104
14.0,435,31786.863126
10.0,482,31848.877929
9.0,449,31911.210084
18.0,750,32012.418165
15.0,659,32100.85095
14.0,656,32188.12472
17.0,728,32286.292395
19.0,687,32373.459818
14.0,399,32425.968852
10.0,478,32492.817812
19.0,722,32589.342757
14.0,632,32670.116552
25.0,841,32779.658077
31.0,780,32884.827481
18.0,674,32981.854796
15.0,567,33052.625546
17.0,635,33138.628594
20.0,688,33226.308558
14.0,628,33311.994061
13.0,560,33388.958187
17.0,482,33450.916051
15.0,542,33521.014798
15.0,725,33617.325013
16.0,742,33717.497716
12.0,542,33786.539781
26.0,847,33898.221025
13.0,566,33975.060611
22.0,661,34062.777752
19.0,686,34150.231748
23.0,699,34244.957614
11.0,537,34314.386014
15.0,675,34402.399396
25.0,776,34507.598267
12.0,573,34584.429317
33.0,891,34705.957734
12.0,594,34785.573571
11.0,518,34854.937578
22.0,710,34944.031335
7.0,387,34994.926077
13.0,561,35071.860134
22.0,661,35159.115308
18.0,648,35245.59939
17.0,693,35335.050183
12.0,557,35410.917405
11.0,531,35479.898892
20.0,737,35574.062256
12.0,574,35651.831593
8.0,430,35711.442315
17.0,636,35793.384821
11.0,572,35871.136994
18.0,630,35956.55399
7.0,376,36003.69834
17.0,630,36089.168948
10.0,528,36158.173393
11.0,522,36225.855402
26.0,875,36340.777509
18.0,678,36434.200779
30.0,916,36556.7393
14.0,663,36643.900343
12.0,582,36723.066751
15.0,511,36794.145496
18.0,608,36873.72552
9.0,472,36935.229295
20.0,735,37031.163063
10.0,513,37102.010469
19.0,710,37196.604921
14.0,640,37282.129067
13.0,623,37362.827763
15.0,698,37460.624854
32.0,863,37575.31374
19.0,561,37652.510373
9.0,444,37707.017669
17.0,669,37800.950298
22.0,716,37897.084609
19.0,686,37987.165723
6.0,335,38028.546757
18.0,686,38122.463643
9.0,488,38183.344481
8.0,441,38242.459178
12.0,583,38321.038218
14.0,570,38393.813431
16.0,695,38486.52721
17.0,680,38573.624707
12.0,548,38653.231662
12.0,590,38732.207108
12.0,539,38801.400687
16.0,519,38869.381375
20.0,763,38973.823277
23.0,821,39080.4618
11.0,564,39157.731204
16.0,716,39253.916698
25.0,824,39360.782432
13.0,554,39436.117261
14.0,606,39514.386317
14.0,389,39564.100777
17.0,627,39650.113784
8.0,424,39703.699297
18.0,744,39798.028163
14.0,626,39885.084395
19.0,554,39955.48076
15.0,637,40040.017833
8.0,402,40092.3123
7.0,357,40137.377398
19.0,601,40223.910661
22.0,743,40321.51418
22.0,670,40409.684551
24.0,789,40514.040205
16.0,651,40599.77237
19.0,627,40684.19377
14.0,609,40762.103023
23.0,601,40840.28457
13.0,335,40884.071558
9.0,436,40943.275179
9.0,440,41003.122545
14.0,539,41072.451339
14.0,598,41150.504328
25.0,848,41264.835276
22.0,712,41361.636001
14.0,616,41439.761129
14.0,678,41532.129116
16.0,672,41618.111396
16.0,637,41703.040296
14.0,609,41782.690445
9.0,344,41825.990555
9.0,486,41893.713735
18.0,764,41989.635617
17.0,723,42083.528687
13.0,616,42170.607391
14.0,519,42240.383172
13.0,637,42319.791807
22.0,675,42412.918813
21.0,648,42501.676548
18.0,783,42606.398463
37.0,930,42731.147354
16.0,743,42824.820143
23.0,609,42909.164844
18.0,729,43006.019852
13.0,623,43085.787161
16.0,704,43180.217114
12.0,540,43248.230687
20.0,694,43341.930153
16.0,725,43436.85404
16.0,607,43515.107722
30.0,835,43626.396912
17.0,655,43714.405519
22.0,665,43801.617557
22.0,677,43894.336607
13.0,482,43958.083939
13.0,464,44017.662462
16.0,748,44121.628971
14.0,677,44209.551211
15.0,612,44286.721131
16.0,738,44388.39072
14.0,636,44468.527335
8.0,423,44526.802285
12.0,567,44598.533069
18.0,640,44686.360631
26.0,759,44790.353479
10.0,483,44851.941636
31.0,997,44985.70616
26.0,824,45097.138587
14.0,618,45175.53071
16.0,698,45270.777524
36.0,1104,45418.388051
19.0,691,45513.398795
13.0,496,45574.993889
14.0,604,45659.854081
13.0,484,45720.838006
20.0,647,45806.303286
18.0,715,45901.835234
12.0,610,45979.118633
14.0,647,46066.667578
15.0,665,46154.001654
17.0,689,46248.811501
18.0,521,46319.033409
15.0,729,46415.231202
13.0,599,46493.672217
25.0,853,46607.334136
23.0,985,46738.245289
31.0,1032,46873.374236
30.0,857,46984.348055
17.0,606,47060.752629
25.0,936,47186.805831
15.0,685,47274.078465
22.0,715,47366.36762
15.0,684,47459.394945
29.0,907,47576.193066
31.0,1010,47703.499972
12.0,559,47779.532467
12.0,538,47847.733229
26.0,940,47964.543402
21.0,559,48039.917263
19.0,792,48141.702672
25.0,858,48250.507298
13.0,649,48336.677973
17.0,622,48420.017511
23.0,768,48520.942552
31.0,943,48639.846565
22.0,864,48749.760795
33.0,912,48869.689013
27.0,795,48976.66102
16.0,564,49044.269019
21.0,884,49162.094713
13.0,570,49232.472769
27.0,809,49337.680022
20.0,698,49431.997612
11.0,585,49501.315677
15.0,623,49586.646487
17.0,673,49671.964789
20.0,712,49766.264061
23.0,885,49884.632859
14.0,639,49967.257295
23.0,794,50067.577522
14.0,675,50150.956418
14.0,680,50236.463798
38.0,995,50368.801497
25.0,863,50480.922506
14.0,610,50556.578639
21.0,652,50641.199645
15.0,649,50724.994441
18.0,641,50807.968058
25.0,868,50918.708094
27.0,886,51037.014919
19.0,751,51139.607923
24.0,938,51258.532369
30.0,937,51381.65397
33.0,994,51515.424504
9.0,448,51574.780327
30.0,856,51685.681123
14.0,647,51769.539547
26.0,768,51862.622144
24.0,727,51955.044403
23.0,948,52081.486135
32.0,1019,52215.557267
18.0,753,52310.549955
15.0,637,52394.581683
18.0,781,52493.877896
16.0,639,52576.348638
15.0,611,52652.719349
29.0,925,52771.371906
18.0,778,52872.428265
14.0,630,52959.625754
17.0,622,53037.274341
32.0,966,53161.371056
41.0,1038,53298.720166
30.0,842,53409.455289
26.0,964,53534.269025
26.0,739,53633.219599
18.0,675,53724.774534
20.0,681,53809.851082
26.0,790,53909.315355
9.0,391,53959.198479
20.0,723,54049.283279
23.0,689,54140.657688
23.0,852,54246.599515
22.0,718,54336.966739
17.0,619,54411.801375
14.0,597,54487.042652
31.0,951,54608.038996
9.0,426,54665.336223
20.0,859,54773.178139
14.0,402,54822.655302
18.0,647,54905.102779
32.0,968,55027.938169
19.0,621,55102.326249
8.0,413,55151.666434
25.0,805,55257.592716
21.0,813,55356.887193
29.0,886,55474.492469
19.0,710,55574.176451
20.0,730,55675.39738
45.0,1126,55841.386606
19.0,694,55948.284956
28.0,835,56072.30335
17.0,708,56176.715997
24.0,760,56283.028461
27.0,802,56404.972682
36.0,987,56549.890063
34.0,826,56665.494166
21.0,751,56775.62515
22.0,679,56871.600441
13.0,638,56966.544011
31.0,1044,57126.274173
8.0,389,57182.23159
23.0,879,57314.032016
16.0,667,57408.203538
14.0,584,57491.88307
24.0,681,57591.021497
22.0,942,57731.732307
23.0,699,57825.630357
16.0,599,57912.863807
29.0,1001,58061.952636
19.0,711,58165.30547
12.0,569,58244.052524
14.0,692,58346.648184
15.0,647,58438.59158
16.0,672,58533.452178
33.0,874,58661.616084
41.0,1120,58823.059114
13.0,627,58908.767095
34.0,1013,59060.901313
27.0,578,59144.430067
29.0,925,59277.395636
12.0,584,59360.4827
25.0,912,59490.939878
17.0,735,59597.926677
14.0,557,59677.725384
20.0,742,59784.753054
24.0,764,59897.043056
18.0,751,60000.877424
21.0,788,60114.446257
25.0,751,60225.012297
33.0,853,60350.538536
24.0,839,60472.268081
12.0,619,60559.341335
17.0,605,60652.535381
18.0,599,60738.137792
27.0,1017,60887.934062
13.0,451,60945.85476
9.0,452,61013.249265
5.0,300,61059.281498
20.0,828,61174.930739
11.0,540,61261.13808
14.0,486,61327.010905
26.0,808,61439.257483
44.0,1138,61604.282802
22.0,673,61699.520338
24.0,742,61807.24432
19.0,720,61910.701061
20.0,748,62018.375595
35.0,1064,62185.104627
26.0,821,62299.857727
24.0,715,62402.885172
12.0,538,62479.104106
34.0,1047,62629.112487
38.0,1058,62791.157215
27.0,641,62884.355289
22.0,800,62994.523888
10.0,454,63061.264104
29.0,876,63179.436635
15.0,586,63265.113267
29.0,862,63388.453044
18.0,695,63488.288684
18.0,670,63586.617895
29.0,967,63730.292263
21.0,740,63831.434728
23.0,794,63953.555175
6.0,309,63994.016752
21.0,750,64105.395342
18.0,750,64208.710274
17.0,738,64320.7249
19.0,717,64426.477615
30.0,929,64562.401596
16.0,726,64666.966415
23.0,874,64789.016758
15.0,573,64873.942812
48.0,1150,65043.796232
34.0,971,65188.258947
24.0,811,65307.331318
18.0,650,65405.868841
13.0,612,65499.671361
22.0,770,65611.3596
9.0,446,65681.302454
25.0,880,65813.506351
37.0,1026,65963.880629
24.0,749,66082.242083
22.0,695,66189.662508
10.0,487,66254.794316
21.0,651,66351.383357
24.0,753,66457.936833
39.0,1080,66614.526437
34.0,907,66747.816295
24.0,721,66851.682785
11.0,527,66929.100435
19.0,691,67033.788114
27.0,873,67160.038395
23.0,735,67265.583799
6.0,333,67313.778967
21.0,833,67434.520173
19.0,783,67547.239517
25.0,658,67640.159942
21.0,713,67742.996014
25.0,616,67833.963569
21.0,723,67942.746254
18.0,722,68051.483203
18.0,753,68155.130101
15.0,667,68255.656753
13.0,608,68340.301114
24.0,805,68457.149813
31.0,876,68589.247821
17.0,701,68687.943342
30.0,837,68811.891644
20.0,717,68918.096931
24.0,778,69031.519052
13.0,539,69111.12079
26.0,712,69216.346586
29.0,947,69357.450011
20.0,547,69431.163893
31.0,684,69533.860118
32.0,760,69640.645589
31.0,882,69772.684662
20.0,671,69864.80068
13.0,513,69938.623724
30.0,870,70060.370747
23.0,838,70183.978919
24.0,815,70305.078729
20.0,604,70392.036361
32.0,954,70531.366253
28.0,863,70652.764563
24.0,674,70748.189698
23.0,848,70867.858725
27.0,908,70995.338918
24.0,883,71124.290623
26.0,886,71242.32218
27.0,799,71367.887721
25.0,766,71469.245698
20.0,884,71603.102973
18.0,648,71695.860836
19.0,681,71792.021549
32.0,1041,71938.523556
27.0,848,72058.732347
20.0,654,72151.325754
45.0,1087,72304.487767
21.0,719,72406.828165
30.0,1001,72550.487237
30.0,911,72681.248056
9.0,434,72736.617296
37.0,982,72869.36459
14.0,647,72961.531193
17.0,597,73047.75958
26.0,905,73174.571538
21.0,602,73255.685891
33.0,929,73392.05964
26.0,837,73512.739219
18.0,789,73620.681473
16.0,726,73722.513576
17.0,623,73805.928848
48.0,1371,74000.033755
32.0,913,74136.229084
30.0,884,74255.407539
42.0,1057,74391.999386
25.0,799,74500.887576
32.0,952,74621.893057
38.0,989,74755.991631
32.0,907,74871.095745
28.0,867,74980.811976
28.0,930,75101.686748
44.0,1094,75246.943427
20.0,753,75347.981109
19.0,673,75434.780208
31.0,964,75559.768474
23.0,677,75648.085157
14.0,629,75731.221645
17.0,753,75826.439352
21.0,515,75894.940901
26.0,792,75997.992079
21.0,640,76081.602529
14.0,638,76166.540602
27.0,940,76287.660037
18.0,597,76363.819562
41.0,974,76491.625869
20.0,855,76601.518189
27.0,875,76719.782883
19.0,690,76812.911537
25.0,887,76924.673795
26.0,913,77045.213643
20.0,784,77147.417777
17.0,757,77249.846421
27.0,840,77361.754888
16.0,684,77448.210294
8.0,435,77507.101573
19.0,656,77589.671083
23.0,658,77674.094322
42.0,1067,77814.8093
15.0,682,77906.65276
23.0,973,78037.72517
20.0,824,78143.535603
24.0,872,78265.763514
27.0,865,78379.808285
27.0,891,78501.174894
29.0,791,78602.685653
35.0,1071,78747.206884
31.0,1007,78885.05357
35.0,1016,79023.257561
32.0,1003,79158.199154
22.0,852,79273.43523
16.0,561,79348.566873
33.0,903,79469.497749
26.0,814,79576.438655
30.0,785,79681.699294
24.0,791,79786.098577
42.0,1184,79952.934769
20.0,770,80056.326637
32.0,767,80159.450078
28.0,763,80262.373122
37.0,876,80372.541545
12.0,587,80451.532636
19.0,547,80529.157085
23.0,764,80617.04195
30.0,1056,80754.154795
12.0,613,80828.342612
20.0,828,80936.220286
40.0,973,81056.286183
29.0,857,81160.048375
42.0,1128,81299.085539
31.0,985,81420.302437
16.0,674,81505.378519
21.0,703,81592.480209
25.0,915,81704.60278
12.0,589,81775.163463
24.0,646,81850.502401
20.0,706,81942.398206
16.0,709,82031.242701
20.0,847,82136.534834
24.0,837,82241.358717
17.0,740,82332.535085
27.0,803,82435.372415
24.0,805,82532.105968
26.0,896,82648.555102
23.0,810,82750.552563
26.0,771,82845.487093
13.0,607,82919.283113
7.0,393,82967.146041
35.0,932,83087.558105
35.0,990,83210.038583
28.0,1090,83351.787971
19.0,742,83445.962739
15.0,664,83529.097372
29.0,831,83636.702942
39.0,989,83758.129713
26.0,906,83875.197232
32.0,1037,84003.811296
33.0,1014,84131.424344
43.0,1082,84262.259685
32.0,1068,84397.688972
37.0,1015,84527.606145
19.0,790,84626.730199
23.0,687,84709.885361
24.0,825,84811.842049
29.0,715,84901.536386
28.0,850,85006.304313
25.0,788,85106.985566
20.0,572,85183.426316
20.0,628,85258.751646
29.0,949,85382.039092
24.0,705,85470.33438
44.0,997,85592.394099
26.0,728,85681.444556
18.0,776,85774.870386
24.0,670,85852.727448
45.0,1167,85993.044337
35.0,966,86108.42585
24.0,869,86212.334979
51.0,1242,86355.404723
63.0,1357,86512.631563
32.0,1045,86632.831449
27.0,837,86730.2275
25.0,856,86828.612203
26.0,918,86934.22272
23.0,830,87032.007128
24.0,829,87128.57841
44.0,967,87236.08242
22.0,692,87318.356164
32.0,1011,87437.303868
45.0,1224,87573.716858
23.0,728,87662.125788
26.0,917,87766.941871
40.0,1153,87899.565293
18.0,707,87977.263533
28.0,737,88066.208606
34.0,1076,88187.803823
24.0,714,88271.240574
25.0,626,88344.6446
22.0,841,88441.836931
51.0,1259,88584.164161
30.0,936,88695.003828
35.0,989,88807.279556
46.0,1190,88943.730601
27.0,858,89042.292144
31.0,831,89139.055008
40.0,836,89235.783965
37.0,1172,89371.536029
53.0,1292,89521.638205
19.0,832,89618.112576
48.0,1115,89745.267488
77.0,1767,89949.619629
20.0,859,90052.441571
30.0,928,90160.155282
48.0,1271,90328.207392
29.0,932,90456.453712
26.0,924,90581.33742
23.0,720,90677.46123
33.0,868,90790.033062
35.0,1015,90928.722113
24.0,726,91024.481576
62.0,1273,91197.970703
25.0,914,91321.382515
25.0,910,91444.943466
54.0,1382,91628.633737
38.0,1055,91775.775219
22.0,939,91894.133206
24.0,846,92008.425613
18.0,737,92106.229896
36.0,788,92210.87103
35.0,914,92337.430038
28.0,862,92449.298012
53.0,1198,92608.158328
28.0,826,92722.58717
25.0,828,92836.378197
28.0,690,92925.71479
37.0,855,93042.853435
34.0,851,93156.930758
53.0,1211,93320.785493
50.0,1154,93473.570895
21.0,863,93590.923696
34.0,1078,93737.332139
45.0,1175,93893.745442
33.0,1048,94036.200462
30.0,764,94141.8414
50.0,1069,94282.791373
11.0,578,94361.210327
35.0,1055,94502.328314
32.0,981,94641.037807
54.0,1308,94811.156605
45.0,1006,94944.260775
30.0,977,95075.152137
27.0,845,95187.610846
39.0,1004,95324.67581
60.0,1341,95505.699365
30.0,811,95614.373621
55.0,1247,95782.825298
33.0,1040,95920.900096
29.0,949,96055.05282
20.0,581,96138.061207
42.0,1246,96299.602442
57.0,1315,96471.473614
13.0,577,96550.683666
58.0,1262,96723.301001
38.0,985,96855.439863
36.0,1161,97012.830606
34.0,1120,97159.780247
25.0,791,97262.16053
22.0,753,97365.7967
28.0,916,97493.191643
76.0,1611,97716.334913
58.0,1422,97907.941614
45.0,1203,98072.223768
45.0,1048,98215.525871
40.0,1056,98359.575538
24.0,756,98457.963124
53.0,1268,98633.211814
20.0,700,98730.94131
39.0,1035,98874.381058
43.0,1157,99027.829551
44.0,1309,99207.730935
38.0,888,99319.402962
56.0,1441,99520.129135
38.0,1084,99661.685477
44.0,1201,99826.109943
66.0,1441,100021.294375
52.0,1397,100206.919319
31.0,930,100332.420407
41.0,1038,100474.257538
39.0,1105,100626.209879
60.0,1171,100784.983997
44.0,1198,100944.898313
22.0,710,101041.681975
55.0,1186,101201.984396
18.0,770,101304.539447
40.0,1024,101441.19352
45.0,1173,101599.426384
33.0,891,101715.256817
18.0,698,101814.161265
21.0,719,101909.024841
16.0,641,101997.327523
40.0,1077,102137.938385
20.0,719,102230.985269
28.0,824,102344.397169
46.0,1290,102518.249694
40.0,1036,102657.146117
24.0,860,102771.111812
35.0,884,102894.018555
50.0,1325,103071.070958
51.0,1033,103210.797636
55.0,1274,103384.435014
17.0,609,103465.113079
36.0,934,103596.021598
41.0,1182,103753.526911
37.0,990,103882.638767
37.0,882,104003.189546
40.0,1179,104161.448457
27.0,1045,104301.485789
40.0,1077,104454.740836
69.0,1434,104647.239283
43.0,1033,104790.996029
28.0,760,104888.675311
22.0,764,104993.365396
46.0,1162,105152.710848
29.0,952,105286.643053
53.0,1220,105447.067288
30.0,1059,105593.70827
32.0,1109,105742.766784
31.0,942,105869.268232
24.0,834,105982.039056
47.0,1082,106128.968022
60.0,1373,106311.925859
19.0,783,106418.018799
45.0,1241,106587.544409
30.0,761,106690.35867
44.0,1062,106835.183043
35.0,705,106931.094804
50.0,1215,107096.638405
55.0,1313,107273.891188
53.0,1432,107464.629665
29.0,922,107593.566906
23.0,886,107710.718994
20.0,844,107825.555789
36.0,948,107954.498564
26.0,930,108078.094622
23.0,825,108190.0358
21.0,481,108253.708733
41.0,949,108385.748379
29.0,802,108491.601891
31.0,1140,108645.921058
41.0,999,108775.031915
22.0,661,108863.307707
30.0,878,108984.81686
58.0,1341,109163.642933
18.0,734,109265.563382
34.0,939,109386.771343
49.0,1189,109546.066588
59.0,1110,109699.023526
30.0,823,109803.651135
41.0,1171,109963.495579
35.0,1042,110103.342242
31.0,890,110225.505433
41.0,909,110351.090013
41.0,993,110487.370141
56.0,1220,110655.606131
29.0,1067,110802.830784
35.0,1124,110954.00922
43.0,1104,111105.35212
49.0,979,111236.472483
29.0,1001,111367.405336
47.0,964,111499.982109
32.0,918,111624.426415
39.0,998,111767.418371
48.0,1254,111939.267659
42.0,1144,112099.552747
32.0,967,112235.482868
17.0,692,112330.041422
48.0,1296,112508.428153
51.0,1065,112651.52506
29.0,807,112758.284726
23.0,633,112846.815771
65.0,1368,113032.323324
20.0,812,113135.790531
42.0,1013,113277.197139
58.0,1329,113457.832411
27.0,832,113567.818277
34.0,937,113705.156659
39.0,1043,113849.164375
43.0,1151,114006.725762
27.0,572,114082.894758
38.0,757,114187.851547
24.0,764,114295.088775
42.0,1131,114447.331376
34.0,894,114574.036675
36.0,991,114706.749937
47.0,1229,114880.011539
44.0,1070,115030.528498
32.0,986,115163.779742
43.0,1073,115313.72256
39.0,942,115449.080676
45.0,1164,115614.855372
45.0,1121,115765.671275
36.0,847,115876.897101
15.0,623,115961.278093
55.0,1362,116148.369725
72.0,1529,116354.474237
44.0,1169,116510.945252
33.0,922,116640.149261
51.0,1287,116813.810644
19.0,768,116915.229945
38.0,1010,117054.406572
31.0,950,117180.303314
68.0,1381,117368.738841
49.0,1122,117518.762132
42.0,987,117653.640956
30.0,1134,117808.828882
40.0,1086,117953.874996
53.0,1172,118111.127575
44.0,1121,118265.736655
47.0,1389,118448.06111
37.0,689,118541.486862
28.0,888,118663.582003
25.0,944,118789.01363
43.0,1032,118926.018406
64.0,1290,119097.898602
39.0,1062,119243.097879
39.0,1134,119403.380937
36.0,990,119535.62192
26.0,776,119640.272011
42.0,1019,119777.730744
53.0,1046,119920.687109
53.0,1315,120100.443428
23.0,816,120213.584843
69.0,1572,120433.330114
25.0,771,120539.123273
38.0,1004,120682.984459
45.0,1055,120833.263228
58.0,1513,121033.112815
38.0,1102,121182.074279
43.0,1077,121334.965157
59.0,1154,121494.318496
48.0,1199,121655.785219
53.0,1322,121835.663092
56.0,1381,122027.483473
54.0,1128,122170.468262
43.0,1112,122324.992506
43.0,909,122449.672395
38.0,1296,122627.380431
45.0,1311,122818.53058
36.0,809,122924.404303
40.0,917,123047.827676
36.0,1051,123195.734884
32.0,880,123317.878193
42.0,1113,123473.246425
43.0,1235,123641.629663
53.0,1314,123831.623588
43.0,919,123958.264554
38.0,904,124083.8784
18.0,769,124184.465599
50.0,1420,124384.942495
49.0,1178,124553.525334
25.0,826,124662.088916
66.0,1632,124891.182961
34.0,857,125013.997532
40.0,1017,125134.687814
36.0,961,125252.48828
66.0,1467,125435.180785
45.0,1150,125581.380055
56.0,1342,125743.933714
41.0,1124,125889.293402
59.0,1279,126044.71866
55.0,1282,126208.341232
52.0,1032,126337.861722
39.0,1033,126468.634481
63.0,1333,126633.378798
58.0,1398,126802.196689
72.0,1467,126989.525843
36.0,1221,127144.090698
61.0,1222,127299.814869
40.0,990,127422.077237
50.0,1134,127565.194513
27.0,822,127658.634795
47.0,1091,127791.15565
39.0,911,127900.237029
41.0,1129,128034.587896
36.0,963,128153.790603
46.0,994,128276.350618
68.0,1421,128446.302383
40.0,937,128557.183447
50.0,1317,128715.342928
48.0,1181,128859.966383
63.0,1238,129005.72475
49.0,1064,129131.780924
51.0,1364,129297.473974
71.0,1570,129483.751949
48.0,1235,129636.851801
34.0,975,129756.209892
39.0,1046,129883.395926
69.0,1518,130057.575281
55.0,1580,130251.384809
81.0,1608,130444.655954
33.0,960,130558.52341
35.0,987,130681.887323
47.0,952,130793.089474
51.0,1390,130964.897821
64.0,1255,131112.120361
37.0,996,131226.865913
55.0,1036,131351.835943
18.0,756,131443.550026
36.0,1026,131567.275116
51.0,1293,131721.685723
68.0,1550,131905.125371
41.0,1050,132026.12481
48.0,1096,132155.113895
45.0,1119,132291.601015
69.0,1387,132459.90047
34.0,1082,132584.446683
48.0,1198,132731.066307
87.0,1491,132904.584908
60.0,1270,133060.790734
74.0,1379,133225.453958
43.0,923,133336.628792
39.0,955,133454.678736
66.0,1265,133602.573299
29.0,778,133694.755801
82.0,1585,133886.474685
29.0,933,133995.733593
73.0,1599,134191.306126
38.0,960,134311.183422
38.0,942,134418.224772
66.0,1540,134606.33526
35.0,995,134726.056242
44.0,1201,134869.352507
85.0,1393,135033.724115
51.0,1241,135190.850895
60.0,1394,135355.816606
31.0,889,135462.150207
57.0,1231,135611.646925
34.0,932,135720.332955
38.0,1030,135843.456152
53.0,1214,135989.245959
42.0,1008,136104.711045
39.0,1068,136236.539298
58.0,1348,136400.711121
52.0,1173,136544.317695
66.0,1336,136699.038026
35.0,843,136799.941663
67.0,1580,136994.653173
61.0,1411,137166.529543
44.0,701,137246.186494
39.0,1049,137380.022239
40.0,976,137497.325791
37.0,946,137606.659504
46.0,1150,137747.733092
67.0,1334,137914.3144
48.0,1287,138062.80634
59.0,1276,138215.130879
45.0,1119,138345.417481
80.0,1423,138519.900845
48.0,1326,138687.203282
38.0,858,138789.9615
50.0,1429,138961.484365
34.0,659,139038.548828
68.0,1369,139202.796897
58.0,1258,139349.208074
65.0,1332,139510.842202
50.0,989,139627.321077
45.0,1091,139756.258709
46.0,1169,139896.555648
83.0,1650,140094.003722
55.0,1380,140260.78322
57.0,1365,140425.84122
90.0,1521,140609.51761
42.0,1061,140742.206613
45.0,1320,140897.934554
80.0,1556,141084.395183
55.0,1459,141258.718202
42.0,1050,141381.120565
67.0,1522,141564.529752
45.0,1126,141703.710868
56.0,1177,141844.306185
66.0,1317,142001.538024
35.0,1042,142122.500517
45.0,1194,142272.757575
56.0,1183,142410.49251
41.0,906,142523.140854
54.0,1363,142687.050252
39.0,962,142802.829079
49.0,1303,142959.853908
84.0,1753,143171.587498
53.0,1049,143295.381339
48.0,1137,143433.712584
80.0,1692,143636.839293
32.0,1045,143760.921
53.0,1229,143906.718617
53.0,1287,144062.812519
53.0,1327,144218.966586
40.0,1131,144337.417339
28.0,979,144438.398578
33.0,1183,144560.001125
76.0,1402,144700.537
45.0,1125,144811.779532
68.0,1433,144958.559081
51.0,1105,145068.469241
63.0,1545,145224.568364
31.0,713,145295.304945
46.0,1148,145406.217453
56.0,1303,145536.873276
55.0,1367,145676.791787
45.0,1140,145787.337084
54.0,1167,145903.368225
72.0,1639,146069.785118
52.0,1182,146186.88102
64.0,1309,146316.908944
83.0,1616,146478.75276
90.0,1412,146620.978183
46.0,650,146685.672978
94.0,1588,146838.437033
57.0,1337,146970.313994
73.0,1370,147103.260485
65.0,1426,147242.546794
79.0,1613,147398.368016
52.0,1125,147510.903823
72.0,1467,147650.153193
41.0,1060,147756.404842
52.0,1262,147876.055814
51.0,1203,147994.594206
67.0,1325,148121.199794
45.0,895,148208.667893
50.0,1280,148333.293196
71.0,1288,148457.972004
37.0,1034,148557.959809
73.0,1493,148702.17009
74.0,1451,148840.970094
78.0,1501,148989.918173
86.0,1265,149111.415587
39.0,1211,149230.768873
105.0,1760,149402.545688
28.0,742,149472.836595
60.0,1356,149605.01669
76.0,1364,149737.458556
51.0,1289,149863.079114
66.0,1405,150000.194218
53.0,1047,150102.323794
31.0,807,150183.526524
42.0,1025,150280.892169
51.0,1108,150411.233184
61.0,1269,150551.792264
80.0,1320,150703.89331
49.0,1320,150851.645486
39.0,951,150960.918962
87.0,1472,151122.748436
58.0,1207,151259.837309
40.0,721,151339.218395
96.0,1893,151552.054551
46.0,1257,151698.970068
106.0,1804,151902.116137
84.0,1461,152063.059068
87.0,1580,152245.213623
54.0,1174,152378.533743
64.0,1275,152523.840541
64.0,1385,152677.974313
70.0,1385,152839.285194
75.0,1398,152993.019791
71.0,1561,153168.994323
82.0,1483,153337.124254
82.0,1512,153513.054022
58.0,1397,153673.321551
59.0,1035,153793.011864
54.0,1126,153924.198652
95.0,1519,154094.104397
51.0,862,154189.552699
82.0,1235,154334.023448
49.0,1112,154458.972251
52.0,1342,154605.838438
87.0,1499,154781.179168
80.0,1492,154949.331454
70.0,1656,155133.859474
70.0,1517,155308.969271
48.0,1238,155448.382487
66.0,1280,155593.325675
58.0,1063,155712.038647
59.0,1163,155843.359413
60.0,1196,155980.061643
78.0,1300,156127.204337
189.0,1564,156303.754057
63.0,1243,156427.168257
57.0,1180,156541.330799
51.0,930,156634.42472
98.0,1591,156786.711892
74.0,1716,156955.373188
75.0,1508,157101.094904
43.0,1045,157202.714172
58.0,1420,157340.980971
54.0,1221,157462.432232
36.0,833,157545.774424
74.0,1507,157695.741891
86.0,1688,157860.848796
95.0,1481,158008.413237
99.0,1637,158176.042331
66.0,1317,158306.380834
72.0,1420,158469.455554
74.0,1519,158645.168582
71.0,1488,158813.860473
74.0,1430,158975.981896
78.0,1496,159144.967945
57.0,1274,159292.177497
81.0,1609,159470.458078
52.0,1090,159595.468707
97.0,1644,159785.417445
91.0,1673,159976.456715
78.0,1351,160132.313422
58.0,1227,160270.851411
101.0,1853,160478.374875
257.0,1077,160604.201442
50.0,1177,160739.336506
90.0,1553,160920.34713
49.0,1190,161056.082743
81.0,1426,161229.310833
73.0,1370,161387.155134
72.0,1377,161545.324926
42.0,1159,161680.530593
71.0,1503,161853.086327
77.0,1372,162012.753644
80.0,1280,162162.322981
52.0,1101,162292.393776
78.0,1509,162471.886464
78.0,1358,162628.701242
