# {"t_start": 1548027088.3640206, "env_id": "RoboschoolAnt-v1"} 
r,l,t-258.445289,1000,23.815758
31.037736,1000,44.745126
-184.415098,1000,93.170694
-125.277028,1000,113.654402
-207.498311,1000,161.56846
58.197231,1000,181.849674
43.912102,1000,229.446348
-62.56365,1000,248.947773
-22.71369,1000,293.053299
86.194016,1000,312.683128
-56.004355,1000,357.918626
76.272309,1000,378.50957
128.803355,1000,422.122708
82.571412,1000,440.972784
196.326915,1000,486.867391
130.080699,1000,509.222792
120.307545,1000,553.987017
154.569049,1000,573.658957
233.619019,1000,618.200418
25.414984,1000,638.036476
78.900415,1000,684.520751
77.054469,1000,704.248727
90.954799,1000,748.178992
147.844425,1000,766.336798
154.041644,1000,810.354244
234.390124,1000,828.893112
159.283326,1000,873.05114
377.79943,1000,892.551867
148.000887,1000,937.057048
202.849913,1000,956.316498
242.637942,1000,999.296988
97.622142,1000,1019.492453
276.353553,1000,1059.07964
252.118956,1000,1077.541127
263.016649,1000,1122.487717
205.896129,1000,1140.504793
298.997871,1000,1186.001585
307.608834,1000,1205.836111
218.516422,1000,1250.042513
375.833699,1000,1268.983233
317.528037,1000,1312.597938
322.149205,1000,1330.645625
351.365617,1000,1349.334103
249.418981,1000,1392.042228
396.817666,1000,1410.553423
178.684932,1000,1454.8141
342.492201,1000,1472.854128
262.274727,1000,1519.579344
153.187181,1000,1540.192182
293.126913,1000,1583.727063
124.600485,1000,1603.42656
368.456636,1000,1647.747936
335.46288,1000,1665.588176
157.795315,1000,1711.488978
376.67649,1000,1729.88478
420.396857,1000,1773.99873
347.166278,1000,1792.513287
362.462625,1000,1836.20988
279.338412,1000,1856.253899
439.566644,1000,1901.216344
225.42703,1000,1920.40432
323.330393,1000,1963.540143
336.519268,1000,1981.938388
434.566921,1000,2026.89022
308.069185,1000,2046.187819
421.619051,1000,2091.705888
357.811314,1000,2110.122923
354.808125,1000,2153.486995
360.589504,1000,2171.771165
359.172171,1000,2216.866073
338.443779,1000,2235.993752
431.383906,1000,2279.892878
517.346414,1000,2298.314559
382.163796,1000,2342.274657
394.652996,1000,2361.557165
409.323288,1000,2406.038
415.224151,1000,2424.544006
346.862631,1000,2470.062474
490.806486,1000,2488.774464
384.754324,1000,2533.021788
442.021452,1000,2552.452626
497.692649,1000,2597.93048
379.92368,1000,2616.327801
430.259345,1000,2661.849027
450.501924,1000,2680.159003
464.360774,1000,2698.648991
433.129387,1000,2744.689357
433.77936,1000,2763.971162
364.399384,1000,2810.80129
458.106546,1000,2830.188787
398.732457,1000,2874.777936
474.096482,1000,2892.88619
468.048084,1000,2938.726341
475.125866,1000,2958.151304
520.466797,1000,3002.742264
502.192958,1000,3021.686299
455.91253,1000,3065.662807
498.109911,1000,3083.751212
429.079971,1000,3128.619872
472.900443,1000,3146.078839
497.799924,1000,3188.559201
514.279229,1000,3206.35494
540.056095,1000,3247.338822
543.555539,1000,3264.300036
465.170161,1000,3304.256294
515.522307,1000,3322.32184
410.86105,1000,3361.497231
505.896823,1000,3378.091416
500.548311,1000,3419.869616
476.685675,1000,3437.425546
504.405152,1000,3478.588195
495.442995,1000,3496.868071
554.678957,1000,3538.68084
496.725936,1000,3556.379867
464.475007,1000,3597.468458
526.630361,1000,3615.841704
564.388682,1000,3656.626037
567.178111,1000,3674.261211
519.088502,1000,3715.196566
570.124162,1000,3732.526967
617.253412,1000,3772.915609
493.071573,1000,3789.041085
553.719661,1000,3827.479718
519.086227,1000,3844.039741
471.389458,1000,3883.500668
610.454799,1000,3900.46681
613.987959,1000,3937.586864
596.964971,1000,3954.140139
568.999372,1000,3971.215341
596.431542,1000,4009.85862
568.125853,1000,4027.873751
598.497133,1000,4066.049188
500.986855,1000,4082.755556
522.376101,1000,4119.420042
559.088248,1000,4137.87284
525.63363,1000,4175.566736
602.515624,1000,4191.793982
614.647912,1000,4229.676075
593.824071,1000,4246.395056
547.38004,1000,4284.766084
586.562576,1000,4302.189471
629.241104,1000,4339.635019
596.073639,1000,4355.893381
586.939755,1000,4390.636506
611.207791,1000,4406.184965
541.23384,1000,4437.776017
577.225108,1000,4453.1241
611.712366,1000,4484.902131
550.359494,1000,4500.470606
572.407403,1000,4533.661586
616.506416,1000,4548.676653
583.061343,1000,4581.432226
621.855492,1000,4596.729294
564.803769,1000,4628.906277
669.259853,1000,4643.969739
637.451839,1000,4676.796711
553.595158,1000,4691.869255
588.175334,1000,4723.760205
588.679676,1000,4739.280099
590.118074,1000,4771.163898
577.503193,1000,4786.990442
590.673483,1000,4818.871679
673.171966,1000,4834.154817
575.249164,1000,4866.52397
571.227732,1000,4882.641895
605.834942,1000,4915.684346
670.578122,1000,4931.100663
639.990481,1000,4964.555962
481.92609,1000,4978.817425
616.833663,1000,5011.516051
648.91267,1000,5026.340533
594.643396,1000,5042.459116
470.725313,1000,5073.35605
613.685094,1000,5089.021917
586.456304,1000,5121.646597
664.434839,1000,5137.960113
600.013339,1000,5171.262434
640.348746,1000,5186.692542
632.954084,1000,5218.783904
569.605367,1000,5234.13954
613.99814,1000,5266.458556
614.412156,1000,5281.964887
599.762747,1000,5313.689515
628.626297,1000,5330.032929
539.15137,1000,5361.012995
719.252388,1000,5377.497169
562.55786,1000,5409.752044
673.286362,1000,5424.846921
669.893496,1000,5456.896402
646.131807,1000,5473.247915
712.39917,1000,5504.240568
639.675115,1000,5519.082548
610.420798,1000,5551.755866
678.386448,1000,5566.71382
652.468831,1000,5600.242816
624.21083,1000,5615.507382
673.442184,1000,5647.768601
674.037829,1000,5662.935689
650.286473,1000,5697.406051
555.741249,1000,5712.886684
678.975199,1000,5746.362002
543.69388,1000,5761.346339
679.924718,1000,5794.200506
672.314662,1000,5809.864271
678.62226,1000,5843.059297
627.553815,1000,5858.572484
707.116056,1000,5891.137895
636.506929,1000,5905.793287
604.079819,1000,5938.496648
664.827747,1000,5954.095255
623.715805,1000,5986.590971
702.098439,1000,6002.190539
641.495333,1000,6036.23956
614.633374,1000,6052.117709
635.020145,1000,6066.729622
684.19197,1000,6099.174841
697.398173,1000,6113.782563
639.270744,1000,6146.451214
658.521719,1000,6161.420134
643.52909,1000,6193.72675
653.6305,1000,6208.862864
663.563203,1000,6242.36406
695.349733,1000,6257.976573
637.260697,1000,6291.531252
648.381107,1000,6306.946021
705.868052,1000,6339.490129
722.348502,1000,6354.742639
753.25084,1000,6387.081712
693.46466,1000,6403.436607
687.29375,1000,6435.372744
726.006299,1000,6450.703832
709.628521,1000,6481.355731
669.114972,1000,6496.752953
723.967878,1000,6528.615822
623.481779,1000,6544.135969
622.932616,1000,6576.898361
669.456352,1000,6592.468192
662.792196,1000,6624.416708
673.850002,1000,6639.856086
781.070984,1000,6671.907919
708.706776,1000,6686.652456
653.045142,1000,6719.004718
664.062251,1000,6734.346651
680.109986,1000,6767.505308
688.976448,1000,6782.507556
609.669169,1000,6815.63375
611.0131,1000,6830.531195
658.778487,1000,6862.795042
739.730649,1000,6877.468659
707.946691,1000,6909.727529
653.954549,1000,6924.886516
706.710047,1000,6957.441706
734.560527,1000,6972.501625
758.576294,1000,7005.786648
660.570741,1000,7020.645422
737.466797,1000,7035.382956
642.267217,1000,7068.233828
746.754569,1000,7082.956768
684.114279,1000,7115.710568
665.200778,1000,7130.605651
679.738227,1000,7162.423584
580.135629,1000,7178.475421
688.981097,1000,7211.858446
709.675821,1000,7227.358142
661.191268,1000,7260.913948
644.363758,1000,7276.151772
673.734905,1000,7308.598768
779.837885,1000,7323.273741
625.815923,1000,7355.294051
746.28541,1000,7371.644731
744.810223,1000,7402.833359
648.7603,1000,7418.214559
658.894567,1000,7451.066906
497.344095,1000,7467.316097
688.688492,1000,7499.550069
651.896868,1000,7515.870522
673.669216,1000,7547.872767
687.689412,1000,7562.84609
671.614758,1000,7596.316031
680.681805,1000,7611.558649
688.004576,1000,7644.166663
690.804667,1000,7659.700538
655.122708,1000,7692.65918
709.478942,1000,7707.756978
709.021574,1000,7741.772495
712.425062,1000,7756.258814
757.594832,1000,7788.582893
509.616769,1000,7803.121578
666.52369,1000,7836.167658
776.494548,1000,7851.996063
711.854952,1000,7883.86005
702.016457,1000,7898.10904
709.287392,1000,7930.204396
552.141384,1000,7945.76842
621.421145,1000,7977.034825
481.149679,1000,7993.12584
709.333701,1000,8025.890509
749.464221,1000,8041.175336
460.475551,1000,8056.424087
690.389642,1000,8087.378968
686.918448,1000,8102.756211
646.312707,1000,8133.540349
788.601796,1000,8148.787156
682.820604,1000,8180.219064
788.599411,1000,8194.457577
670.898221,1000,8225.347665
696.321408,1000,8240.718824
582.960044,1000,8270.650112
685.344599,1000,8284.440382
667.98063,1000,8316.638421
738.685473,1000,8331.668313
688.638674,1000,8361.337424
748.09553,1000,8376.312626
488.775651,1000,8406.108183
679.366797,1000,8420.31871
602.663766,1000,8450.624459
641.91661,1000,8464.886938
349.486796,1000,8494.456768
772.80042,1000,8509.111508
714.646494,1000,8539.287859
763.418298,1000,8553.643468
740.593831,1000,8583.794579
827.896291,1000,8598.260401
745.729275,1000,8629.109557
758.583139,1000,8643.682675
809.671077,1000,8674.076399
723.06686,1000,8689.641718
683.430207,1000,8720.173876
671.564566,1000,8734.005726
704.587659,1000,8764.917318
783.637932,1000,8780.927712
813.844205,1000,8811.456392
695.62591,1000,8825.454691
743.021368,1000,8855.95527
682.443568,1000,8870.363541
691.035724,1000,8901.15576
633.065159,1000,8915.208028
702.991789,1000,8946.326719
753.39213,1000,8960.96299
810.514366,1000,8991.395379
742.652782,1000,9005.436962
674.204955,1000,9019.622732
759.799888,1000,9049.264114
354.32659,1000,9064.361089
745.94254,1000,9095.452531
736.913306,1000,9110.432312
778.932008,1000,9140.770989
743.954711,1000,9155.230243
755.127821,1000,9185.031277
734.285735,1000,9200.39628
772.524304,1000,9231.158655
770.824524,1000,9245.33498
645.401122,1000,9276.055943
714.674798,1000,9291.999214
760.743126,1000,9322.145456
761.089314,1000,9336.104384
622.685635,1000,9366.986707
692.67471,1000,9381.319367
724.514537,1000,9412.408541
697.122395,1000,9426.65302
770.060067,1000,9454.026504
691.556114,1000,9468.16942
795.514845,1000,9496.483778
469.299015,1000,9510.25979
659.252609,1000,9538.498467
706.017778,1000,9551.992763
669.204625,1000,9580.16963
679.638525,1000,9594.470502
588.030399,1000,9622.970634
783.975931,1000,9636.565336
708.254475,1000,9665.314253
753.095467,1000,9679.304351
737.75894,1000,9707.801308
724.448136,1000,9722.016211
693.000757,1000,9750.25859
734.591519,1000,9763.895734
707.651194,1000,9791.847596
637.248717,1000,9805.994317
680.963996,1000,9830.924568
668.737406,1000,9843.260998
864.660683,1000,9868.396882
721.009732,1000,9880.714178
798.976747,1000,9906.506616
742.360188,1000,9918.985521
759.473426,1000,9931.49982
847.61956,1000,9956.587853
630.29459,1000,9968.817944
690.501565,1000,9994.238765
771.277935,1000,10006.731852
736.400886,1000,10032.126009
595.347156,1000,10044.273086
753.040736,1000,10069.347192
691.684946,1000,10082.277208
832.014955,1000,10107.64664
729.513969,1000,10120.150781
771.960938,1000,10145.866509
643.335022,1000,10158.765234
713.213382,1000,10184.500464
875.726514,1000,10197.12978
711.825439,1000,10222.285491
699.913045,1000,10234.67232
704.961621,1000,10260.108716
745.890866,1000,10272.510215
725.871301,1000,10298.845527
931.789709,1000,10311.426589
837.056985,1000,10336.366243
742.152212,1000,10348.993812
790.113081,1000,10374.217485
725.68534,1000,10386.562496
751.302099,1000,10411.213295
764.562807,1000,10423.41066
747.669926,1000,10448.640254
770.366064,1000,10461.195506
687.516445,1000,10486.569722
731.887887,1000,10499.19843
719.722803,1000,10523.635018
702.419968,1000,10535.511818
738.388888,1000,10561.502102
692.754237,1000,10573.689244
676.089579,1000,10599.050686
735.537345,1000,10611.503121
746.603887,1000,10637.06227
712.191867,1000,10649.893001
767.289747,1000,10675.696429
729.594016,1000,10687.780689
728.267086,1000,10713.270162
675.939893,1000,10725.494262
794.150492,1000,10737.418786
690.436729,1000,10762.280413
644.443817,1000,10774.513312
824.661949,1000,10799.881787
631.769807,1000,10812.314251
780.942516,1000,10838.195908
776.528956,1000,10850.162612
769.423275,1000,10875.208838
787.372196,1000,10887.594128
750.961513,1000,10912.782627
715.624229,1000,10924.88461
735.633492,1000,10950.932432
701.866012,1000,10963.322603
771.280768,1000,10988.193336
738.850722,1000,11000.672388
693.516075,1000,11026.041562
751.447844,1000,11038.116479
589.7349,1000,11063.797786
756.639737,1000,11076.226552
665.663652,1000,11101.926754
691.986892,1000,11114.300689
807.639576,1000,11139.28283
803.088584,1000,11151.357476
741.763935,1000,11176.127684
728.850232,1000,11188.24667
744.874469,1000,11213.690156
776.36921,1000,11225.733084
721.826583,1000,11251.315721
765.857425,1000,11263.350164
764.37567,1000,11288.069458
812.370121,1000,11300.746126
789.507088,1000,11326.507532
763.508828,1000,11338.99846
734.180354,1000,11364.576163
721.761243,1000,11376.410626
703.775061,1000,11401.48786
708.756822,1000,11413.667526
685.856202,1000,11438.819682
759.340727,1000,11451.444867
760.591227,1000,11477.340955
671.954817,1000,11488.959048
762.281676,1000,11514.156292
621.960943,1000,11526.498692
768.302207,1000,11538.564547
694.625003,1000,11563.919755
736.009633,1000,11575.878257
698.231772,1000,11601.773409
802.573856,1000,11614.182388
805.992573,1000,11639.235281
693.523122,1000,11651.655987
782.880777,1000,11676.921904
788.783702,1000,11689.576941
823.127144,1000,11715.368643
733.478566,1000,11727.227295
799.039078,1000,11753.363745
825.696194,1000,11765.714957
801.221907,1000,11790.915412
776.525389,1000,11803.62208
863.706142,1000,11829.472698
841.583579,1000,11842.00656
738.416766,1000,11868.430125
728.07655,1000,11880.392232
898.285335,1000,11905.798741
643.581363,1000,11919.18509
849.723295,1000,11944.540437
790.221893,1000,11956.723902
778.667585,1000,11981.962946
752.490367,1000,11994.294505
714.261322,1000,12019.683108
810.051145,1000,12032.158216
819.18921,1000,12057.320732
632.010708,1000,12069.797064
752.62612,1000,12095.171659
773.571543,1000,12107.72619
692.537897,1000,12133.777348
711.273233,1000,12146.126253
858.099756,1000,12170.916154
753.121465,1000,12183.224453
695.333767,1000,12208.005442
732.678119,1000,12220.691538
642.836328,1000,12246.089557
615.906889,1000,12258.313099
796.034566,1000,12284.314229
752.224734,1000,12296.781332
832.235383,1000,12309.202992
759.861404,1000,12334.476949
804.767487,1000,12346.678369
783.948482,1000,12372.62513
732.792361,1000,12385.030644
750.332095,1000,12410.626587
719.977126,1000,12422.907841
657.61206,1000,12448.716062
841.794687,1000,12460.856472
883.991269,1000,12486.516023
891.355698,1000,12498.554514
831.166239,1000,12524.304677
816.780152,1000,12536.784937
843.508093,1000,12561.951523
929.089677,1000,12574.615256
444.859551,1000,12599.711327
804.857514,1000,12612.025444
773.663268,1000,12638.006156
769.12161,1000,12650.811635
838.145371,1000,12676.810665
889.151719,1000,12689.479618
753.815184,1000,12714.134582
643.108398,1000,12726.292452
783.699385,1000,12751.835795
794.754783,1000,12764.13201
788.856348,1000,12789.324676
608.922466,1000,12801.722125
764.633357,1000,12827.131428
611.4891,1000,12839.875617
792.543973,1000,12864.827734
746.022127,1000,12877.2685
889.471236,1000,12902.871602
863.081457,1000,12914.952998
714.775563,1000,12940.17609
544.139636,1000,12952.827466
646.640752,1000,12978.370116
799.369408,1000,12990.765172
772.337232,1000,13016.498141
826.609548,1000,13029.33003
876.465249,1000,13055.170968
759.62291,1000,13067.322038
781.980003,1000,13092.559871
884.228126,1000,13105.59209
820.856366,1000,13118.34255
737.019992,1000,13143.886301
830.501084,1000,13155.978393
778.762198,1000,13182.032734
776.684227,1000,13194.488396
609.636992,1000,13219.311097
642.533086,1000,13231.854154
864.981219,1000,13257.053654
611.227126,1000,13269.734569
894.543379,1000,13295.474233
799.393187,1000,13307.78313
881.470302,1000,13333.248101
934.486425,1000,13345.63215
945.978335,1000,13370.62176
743.406517,1000,13383.265204
825.053982,1000,13408.655867
887.569563,1000,13420.915443
877.295025,1000,13446.863635
711.434582,1000,13459.424142
921.505991,1000,13484.691282
796.951541,1000,13497.486592
841.945475,1000,13522.649526
807.876457,1000,13535.111493
883.681523,1000,13560.694611
843.022919,1000,13573.161089
857.608807,1000,13599.327493
820.240137,1000,13611.008131
774.357478,1000,13636.061765
787.528228,1000,13648.355564
517.012904,1000,13673.327929
765.623947,1000,13685.419918
761.408447,1000,13711.208814
839.238215,1000,13723.09838
941.908735,1000,13747.320626
807.798658,1000,13759.506769
801.604402,1000,13784.53526
742.453285,1000,13797.268746
510.195902,1000,13822.858286
828.973844,1000,13835.786628
866.387462,1000,13861.774659
875.614014,1000,13874.844492
893.618681,1000,13900.182919
736.675037,1000,13912.252512
655.245277,1000,13924.65223
776.746929,1000,13949.898406
850.216851,1000,13962.746488
895.621308,1000,13988.143423
646.618921,1000,14000.564804
800.802562,1000,14025.738658
888.179101,1000,14038.747805
785.996742,1000,14064.334895
869.930268,1000,14076.648346
780.721239,1000,14102.643448
729.079536,1000,14114.639207
854.350338,1000,14139.850249
901.530318,1000,14152.042218
854.67914,1000,14177.097726
890.93989,1000,14189.766884
604.591101,1000,14215.558528
634.39828,1000,14227.845846
846.131693,1000,14253.561226
840.427597,1000,14265.761954
781.296167,1000,14290.773129
756.041936,1000,14303.467742
789.700742,1000,14329.598281
875.064721,1000,14342.678209
902.069719,1000,14368.686543
856.69966,1000,14380.699403
831.957538,1000,14405.782189
789.892937,1000,14418.152861
803.553407,1000,14443.176631
861.673844,1000,14455.230209
746.176408,1000,14481.52272
798.885826,1000,14493.932801
604.444751,1000,14519.075471
797.354067,1000,14531.833518
805.148573,1000,14556.951432
867.921079,1000,14569.002927
841.479943,1000,14594.408633
1000.471902,1000,14606.865273
829.056837,1000,14632.416719
852.415879,1000,14644.57416
687.72329,1000,14670.489453
914.362332,1000,14682.781636
989.150684,1000,14707.971775
912.131766,1000,14720.598456
888.280781,1000,14732.483735
635.639078,1000,14757.115175
772.999871,1000,14769.212385
673.443715,1000,14794.823936
540.005097,1000,14807.149293
848.654768,1000,14832.187629
765.388837,1000,14844.415821
868.319119,1000,14869.955186
753.27478,1000,14882.180852
662.036376,1000,14906.739027
833.860218,1000,14919.330596
634.081808,1000,14944.577383
851.612601,1000,14957.374899
918.003765,1000,14982.61988
971.429,1000,14994.928098
650.066941,1000,15020.281796
623.78294,1000,15032.323924
877.890311,1000,15057.615656
908.942167,1000,15070.407069
834.095368,1000,15096.024872
912.16395,1000,15108.691763
840.100659,1000,15135.110033
789.593604,1000,15147.262811
863.71439,1000,15172.913839
902.845229,1000,15185.373328
818.274598,1000,15210.329026
834.921571,1000,15222.927907
629.025472,1000,15248.233374
925.50253,1000,15260.067186
868.614189,1000,15286.683455
877.347699,1000,15298.895745
805.380844,1000,15324.191254
781.351049,1000,15336.71719
857.004482,1000,15361.977784
854.716403,1000,15374.351918
807.123414,1000,15400.436261
711.529523,1000,15412.508872
918.152311,1000,15438.156142
908.690955,1000,15450.23192
957.332811,1000,15475.492863
833.419635,1000,15488.017457
855.084869,1000,15513.604822
748.210204,1000,15525.886506
906.360338,1000,15538.218831
654.135204,1000,15563.41425
688.767112,1000,15575.810882
855.637695,1000,15600.613782
748.599373,1000,15613.242334
797.907891,1000,15638.553655
721.504514,1000,15650.679133
904.593937,1000,15676.579714
918.18299,1000,15689.227396
706.617875,1000,15714.758018
1011.045021,1000,15727.021767
975.294772,1000,15751.866159
872.285422,1000,15763.714262
784.073704,1000,15789.102591
834.785996,1000,15801.254327
1022.043187,1000,15826.5309
926.245298,1000,15838.75562
894.001879,1000,15863.906228
922.080834,1000,15876.279894
891.434184,1000,15902.361068
561.486128,1000,15914.766205
873.102543,1000,15939.555025
727.345465,1000,15952.255223
577.446022,1000,15977.131363
928.921066,1000,15990.165869
1027.357022,1000,16015.736415
617.00279,1000,16028.000263
776.19982,1000,16054.338479
840.777163,1000,16066.778386
911.890068,1000,16092.242649
965.736525,1000,16104.469496
691.829947,1000,16129.526553
842.081618,1000,16141.82406
888.939491,1000,16167.766339
947.588078,1000,16180.226098
824.978142,1000,16206.331193
763.695362,1000,16219.301546
882.569478,1000,16244.486001
875.114279,1000,16256.688087
804.719163,1000,16282.071607
705.206244,1000,16294.759509
590.132736,1000,16320.46129
840.489747,1000,16332.888615
930.408591,1000,16345.506865
847.130604,1000,16370.626112
681.287864,1000,16382.575045
932.234064,1000,16408.209746
893.82929,1000,16420.821873
852.167163,1000,16446.344121
798.202914,1000,16458.546257
825.564838,1000,16483.952452
546.750667,1000,16496.158211
923.82674,1000,16521.154857
784.019955,1000,16533.45593
1024.381665,1000,16559.801048
908.738102,1000,16572.227877
937.280808,1000,16597.915004
882.971129,1000,16610.149303
815.340051,1000,16635.255103
965.546006,1000,16647.853882
960.911083,1000,16672.938011
565.436768,1000,16685.246063
868.11467,1000,16710.965126
819.725615,1000,16722.822191
897.402964,1000,16748.565743
917.064575,1000,16761.120448
619.638651,1000,16786.417169
823.394084,1000,16798.644425
978.090399,1000,16824.192402
890.748738,1000,16836.640145
845.168273,1000,16862.595873
927.993084,1000,16874.727664
908.83594,1000,16899.77715
910.43213,1000,16912.289001
648.471268,1000,16937.444049
986.967788,1000,16949.648559
923.90875,1000,16975.14339
751.608256,1000,16986.905832
897.641484,1000,17011.752169
747.093222,1000,17023.687594
897.333945,1000,17048.818401
948.374091,1000,17061.451596
895.08926,1000,17085.55867
824.644408,1000,17098.140017
978.812072,1000,17110.610539
1030.423458,1000,17136.40749
971.946755,1000,17149.323339
850.297184,1000,17174.142017
934.495833,1000,17186.681835
932.025332,1000,17212.480814
796.740991,1000,17224.869851
903.256553,1000,17250.927733
981.973806,1000,17263.434517
944.685048,1000,17288.558859
1014.358653,1000,17301.191689
986.956814,1000,17326.644349
886.016084,1000,17339.092157
924.186392,1000,17364.265946
588.745674,1000,17376.163275
895.136492,1000,17401.347933
929.33832,1000,17414.039626
752.382665,1000,17439.646491
884.932419,1000,17452.637035
631.128795,1000,17477.919299
894.474362,1000,17490.019286
920.066149,1000,17515.790886
984.638393,1000,17527.882592
1035.021614,1000,17552.935269
528.947856,1000,17565.683915
603.851541,1000,17591.222597
1033.463572,1000,17603.658446
873.947788,1000,17629.483605
928.3526,1000,17641.770107
997.288446,1000,17666.789512
925.020717,1000,17678.617017
1089.544422,1000,17703.234571
1001.196848,1000,17715.93617
993.408646,1000,17741.359015
669.215669,1000,17754.148483
997.372492,1000,17780.222282
1025.887208,1000,17792.735555
986.08767,1000,17818.443228
937.493021,1000,17830.906251
921.481719,1000,17855.884729
824.648832,1000,17868.220111
942.102983,1000,17893.500817
1031.829463,1000,17905.980697
930.599101,1000,17918.369686
651.196082,1000,17944.172119
1063.923223,1000,17957.857251
710.430756,1000,17984.600687
839.849683,1000,17997.006456
574.470953,1000,18023.17146
909.486721,1000,18035.453184
977.217304,1000,18061.14233
915.168174,1000,18073.270566
803.99359,1000,18098.670533
652.350361,1000,18111.26084
909.238927,1000,18136.606154
745.598905,1000,18149.341736
883.762327,1000,18175.180838
747.241141,1000,18187.202534
891.497198,1000,18212.712433
946.073673,1000,18225.152609
948.410274,1000,18250.250313
827.189085,1000,18262.318661
1025.159218,1000,18287.890283
887.291823,1000,18299.744181
828.371361,1000,18325.613302
762.036635,1000,18337.419373
832.734342,1000,18363.112154
936.495245,1000,18375.846468
916.231714,1000,18401.153403
943.080321,1000,18413.553559
858.341196,1000,18439.042583
705.155377,1000,18451.807694
671.538053,1000,18477.522223
862.050403,1000,18491.021722
888.71523,1000,18518.261602
806.915243,1000,18532.479755
838.317557,1000,18560.305452
840.996798,1000,18574.710768
766.745156,1000,18602.247034
530.435883,1000,18616.146615
933.744701,1000,18642.969034
917.557571,1000,18657.041835
617.127128,1000,18684.135175
793.879021,1000,18698.029866
860.769369,1000,18725.588633
904.09691,1000,18739.180308
886.30196,1000,18752.939759
890.360992,1000,18780.546849
841.482558,1000,18794.131147
640.078253,1000,18821.152202
992.517492,1000,18835.35949
868.216162,1000,18862.223701
904.211002,1000,18876.113518
697.782383,1000,18903.861257
683.542888,1000,18917.946481
930.296387,1000,18944.978444
910.852673,1000,18958.687771
841.043869,1000,18985.784129
787.282485,1000,18999.845901
880.683982,1000,19027.970518
945.825058,1000,19041.927716
765.599004,1000,19069.083683
888.925552,1000,19083.051109
935.180258,1000,19109.178688
740.37954,1000,19123.436602
990.874625,1000,19150.51864
933.669435,1000,19164.699094
557.651331,1000,19192.299353
798.660358,1000,19205.792013
823.185012,1000,19232.965321
961.343115,1000,19246.89062
788.37318,1000,19273.141712
829.377659,1000,19287.346568
961.339385,1000,19314.404971
1003.605747,1000,19328.258343
1002.684482,1000,19355.702446
1014.259149,1000,19369.354249
898.833231,1000,19396.236633
949.745224,1000,19409.963414
535.596533,1000,19436.374128
542.896584,1000,19449.455073
971.339186,1000,19475.334424
870.60177,1000,19488.28938
952.616095,1000,19514.361854
1042.910457,1000,19527.202471
808.054403,1000,19553.394548
807.562904,1000,19566.340446
638.188708,1000,19592.453784
928.815773,1000,19605.187713
895.125602,1000,19618.258995
933.822819,1000,19643.66407
921.086886,1000,19656.667067
1027.332223,1000,19683.234053
818.325714,1000,19696.15674
1060.10648,1000,19722.026785
1052.120948,1000,19735.114542
611.32081,1000,19760.731734
913.518383,1000,19774.042298
1006.324612,1000,19800.277554
840.142207,1000,19813.084647
1110.761901,1000,19839.332361
1008.729388,1000,19852.392546
978.907212,1000,19878.670151
925.207093,1000,19891.822525
986.435492,1000,19917.39886
980.924465,1000,19930.106395
868.986314,1000,19955.617496
784.326284,1000,19968.864836
797.528848,1000,19995.710034
826.906365,1000,20008.799197
930.989104,1000,20034.361253
1054.944755,1000,20047.232199
955.153047,1000,20073.262078
984.504262,1000,20086.055014
721.70353,1000,20111.850279
928.28332,1000,20124.8575
937.197901,1000,20150.179017
809.639817,1000,20163.031629
818.841265,1000,20189.504493
946.803807,1000,20202.584651
984.991445,1000,20227.980419
1042.674395,1000,20241.255279
822.235789,1000,20266.630893
1082.617379,1000,20279.79529
844.533857,1000,20306.18897
862.995242,1000,20319.032108
899.473632,1000,20345.649497
974.594707,1000,20358.302236
945.21028,1000,20383.669041
891.28228,1000,20396.49855
924.934662,1000,20422.033928
1068.305559,1000,20435.430528
966.374309,1000,20448.550929
469.863249,1000,20475.033431
966.546719,1000,20487.691271
680.591866,1000,20513.846459
968.494851,1000,20527.061455
939.890509,1000,20553.313722
960.581238,1000,20566.589683
540.530837,1000,20591.9423
968.541519,1000,20604.591773
875.914171,1000,20630.211472
709.048454,1000,20643.466071
732.431344,1000,20669.88655
1015.268975,1000,20682.923463
661.207529,1000,20708.734156
904.675254,1000,20721.687643
1033.636301,1000,20746.688233
734.493653,1000,20758.708901
920.573178,1000,20783.346593
927.079669,1000,20795.387923
966.569972,1000,20820.792462
712.700023,1000,20832.592422
1084.815688,1000,20858.002393
862.407602,1000,20869.790809
953.563375,1000,20893.897941
999.677398,1000,20905.985121
998.476893,1000,20930.439859
805.535653,1000,20941.785783
947.067882,1000,20962.480914
835.513831,1000,20971.833253
896.012949,1000,20992.132285
891.527299,1000,21001.410521
725.815385,1000,21021.731285
687.351738,1000,21031.042972
920.317104,1000,21051.345411
1094.944952,1000,21060.53543
976.251241,1000,21081.124126
671.969148,1000,21090.157742
576.634191,1000,21110.543583
994.660731,1000,21119.743868
918.391844,1000,21140.160839
584.928029,1000,21149.251737
927.967532,1000,21169.42193
900.090713,1000,21179.080211
841.653048,1000,21188.185623
539.039266,1000,21208.451876
939.288512,1000,21217.690054
840.6368,1000,21237.966587
873.367538,1000,21247.066516
936.764343,1000,21267.471041
823.117129,1000,21276.638947
752.874787,1000,21297.236012
1055.135935,1000,21306.283361
829.747795,1000,21326.572125
810.142456,1000,21335.785069
564.647852,1000,21356.038407
912.562944,1000,21365.672525
979.059528,1000,21385.933655
942.150391,1000,21395.171119
574.341635,1000,21415.521195
825.0078,1000,21424.724514
932.683868,1000,21445.045505
577.731466,1000,21454.142604
513.996051,1000,21474.439513
872.016009,1000,21483.485447
984.269505,1000,21503.833689
960.378234,1000,21512.99113
1057.440497,1000,21533.377721
952.278795,1000,21542.426267
1040.650916,1000,21562.6212
1015.678758,1000,21571.671612
801.748598,1000,21592.015181
753.570342,1000,21601.194613
951.892356,1000,21621.498188
922.973326,1000,21630.539608
574.118975,1000,21650.938942
1002.002328,1000,21659.960747
868.982762,1000,21680.244379
837.874337,1000,21689.514348
848.108533,1000,21709.677335
635.225829,1000,21718.847828
954.586973,1000,21738.908727
730.282018,1000,21748.1327
610.598785,1000,21768.62506
959.77212,1000,21777.811941
554.076993,1000,21786.853811
1030.51134,1000,21807.141412
1072.286671,1000,21816.139882
947.325052,1000,21836.317969
916.272435,1000,21845.334715
813.959359,1000,21865.548729
969.123355,1000,21874.544867
966.543519,1000,21894.663818
1077.122725,1000,21903.694517
1071.170858,1000,21923.654076
950.685617,1000,21932.783463
890.120193,1000,21953.071954
910.372364,1000,21962.097607
870.249107,1000,21982.52616
980.357402,1000,21991.529896
636.858924,1000,22011.821756
765.487189,1000,22021.038146
990.151945,1000,22041.35924
908.945386,1000,22050.366221
1075.086054,1000,22070.493173
937.309256,1000,22079.618282
653.191748,1000,22099.43284
837.606449,1000,22108.797203
1018.441109,1000,22129.007788
957.802679,1000,22138.067986
708.700272,1000,22158.363757
712.683569,1000,22167.592567
942.121045,1000,22187.754172
969.604246,1000,22196.94739
954.415747,1000,22217.422307
616.902499,1000,22226.840641
1043.663681,1000,22247.129281
786.826151,1000,22256.226702
1017.218393,1000,22276.421489
771.768709,1000,22285.802159
848.712489,1000,22306.238115
1006.5477,1000,22315.287661
982.245651,1000,22335.590526
1003.474383,1000,22344.614133
1106.677268,1000,22365.025185
858.713721,1000,22374.037299
782.491519,1000,22394.142344
1126.508087,1000,22403.102259
879.496174,1000,22412.399387
726.669404,1000,22432.774542
995.211307,1000,22441.673244
993.817723,1000,22462.090615
867.445079,1000,22471.078259
945.784411,1000,22491.36546
899.290959,1000,22500.306513
1082.126949,1000,22520.418625
616.955105,1000,22529.609761
604.177614,1000,22549.822726
1054.333836,1000,22558.938563
581.21627,1000,22579.177899
957.40814,1000,22588.374207
966.833531,1000,22608.767988
1036.250282,1000,22617.982562
531.736491,1000,22638.239235
1006.188239,1000,22647.356893
574.252088,1000,22667.666505
995.493761,1000,22676.831313
820.561879,1000,22697.169166
1011.895602,1000,22706.286044
1041.932042,1000,22726.420305
801.612088,1000,22735.40668
963.543916,1000,22755.789004
1069.494809,1000,22764.742507
794.072166,1000,22785.175883
926.00255,1000,22794.252608
677.637534,1000,22814.550787
1071.800291,1000,22823.870418
963.722035,1000,22844.078442
930.073407,1000,22853.329767
1062.441149,1000,22873.664472
637.484986,1000,22882.84175
969.749755,1000,22903.144035
1070.327927,1000,22912.198456
1018.978342,1000,22932.432717
1015.919714,1000,22941.678316
1065.359821,1000,22961.90083
1012.872134,1000,22970.966645
595.822838,1000,22991.226428
1016.955766,1000,23000.451904
552.098895,1000,23020.255244
965.684107,1000,23029.498145
601.515079,1000,23038.754264
952.444002,1000,23058.810088
937.161914,1000,23067.99216
938.672582,1000,23088.271615
825.457355,1000,23097.455542
1031.18258,1000,23117.710594
876.340775,1000,23126.769129
1014.06802,1000,23147.425179
999.7636,1000,23156.636578
852.370282,1000,23176.699363
1087.86966,1000,23185.690362
1118.767517,1000,23205.767884
1110.577958,1000,23215.448736
869.846466,1000,23235.889689
766.979641,1000,23244.917185
854.550625,1000,23265.200381
1132.846173,1000,23274.252129
1002.206075,1000,23294.393836
906.593653,1000,23303.639671
967.317562,1000,23323.950754
1101.361578,1000,23333.055946
955.734128,1000,23353.260014
596.439193,1000,23362.458817
676.627837,1000,23382.687517
882.735247,1000,23391.805062
1055.952563,1000,23411.910671
1042.306936,1000,23420.842033
881.695387,1000,23441.242231
661.345353,1000,23450.373376
1009.471805,1000,23470.873346
1017.451166,1000,23479.930425
982.763092,1000,23500.177851
1014.402308,1000,23509.232902
1007.433715,1000,23529.605615
566.841012,1000,23538.612307
906.250837,1000,23558.847872
966.201946,1000,23567.878498
955.702476,1000,23588.193375
1044.566611,1000,23597.349147
1032.923994,1000,23617.666275
732.675413,1000,23626.641263
689.872958,1000,23647.046247
979.164778,1000,23656.037655
856.69409,1000,23664.986594
1013.841706,1000,23685.042531
969.033616,1000,23694.224313
942.889449,1000,23714.398633
1003.892923,1000,23723.537458
1034.359354,1000,23743.706861
968.414747,1000,23752.790172
978.696825,1000,23772.983626
791.012271,1000,23782.118482
916.483788,1000,23802.255077
814.941266,1000,23811.362333
840.689053,1000,23831.575089
751.926103,1000,23840.824934
929.887677,1000,23861.025881
1111.655868,1000,23870.012048
1072.237391,1000,23890.285254
952.416045,1000,23899.391656
931.70152,1000,23919.74517
989.43257,1000,23929.057084
1038.779886,1000,23949.586591
947.578964,1000,23958.546938
999.888564,1000,23978.616173
884.339217,1000,23987.533799
964.469588,1000,24007.783133
872.713953,1000,24016.85896
908.597467,1000,24036.911313
1008.736241,1000,24046.083665
1142.830332,1000,24066.710218
1042.93716,1000,24076.059072
1032.131534,1000,24096.338595
583.99968,1000,24105.494267
956.614851,1000,24125.861915
964.609913,1000,24135.107041
996.220891,1000,24155.777712
784.826624,1000,24164.63294
1048.814078,1000,24184.865318
843.74753,1000,24193.9014
1155.881608,1000,24213.93513
986.536637,1000,24223.060867
856.898889,1000,24243.335139
957.242887,1000,24252.321573
946.844929,1000,24272.46628
494.60003,1000,24281.410536
959.415263,1000,24290.65933
763.510276,1000,24310.895828
857.141799,1000,24319.843809
1055.520609,1000,24340.161429
909.874243,1000,24349.302438
1088.298749,1000,24369.513345
646.708471,1000,24378.615074
893.327753,1000,24398.655256
573.856238,1000,24407.775554
1033.260733,1000,24427.90796
1046.184949,1000,24436.953211
1002.586461,1000,24457.122767
641.520836,1000,24466.066828
1038.286451,1000,24486.286562
982.098854,1000,24495.44969
1027.410157,1000,24515.63396
842.001504,1000,24524.716506
755.966754,1000,24545.14792
1078.632579,1000,24554.098408
1000.02494,1000,24574.240215
750.433631,1000,24583.386841
807.70189,1000,24603.72256
1126.117419,1000,24612.807481
1026.095257,1000,24632.979453
1083.851973,1000,24642.11563
1044.96033,1000,24662.224898
995.587392,1000,24671.458685
1008.783732,1000,24691.690476
1027.093217,1000,24700.768222
773.992435,1000,24720.657252
1042.2714,1000,24729.734875
977.714319,1000,24750.101583
751.691168,1000,24759.217604
874.889369,1000,24779.638504
1105.992708,1000,24788.686369
759.979035,1000,24809.01564
1048.488697,1000,24818.270956
1016.144921,1000,24838.5139
720.98634,1000,24847.625741
997.604888,1000,24868.24117
997.082218,1000,24877.29195
864.16016,1000,24897.694504
1080.930258,1000,24906.825857
897.546293,1000,24915.898834
1014.707358,1000,24936.326104
792.894373,1000,24945.638475
1111.282354,1000,24966.023733
986.034689,1000,24974.930558
1064.898279,1000,24995.824637
694.673715,1000,25004.845563
1013.526055,1000,25024.949952
974.877898,1000,25034.027631
1092.549207,1000,25054.163679
830.093204,1000,25064.049035
