# {"t_start": 1548091966.8790727, "env_id": "RoboschoolHumanoidFlagrunHarder-v1"} 
r,l,t-5.211212,25,1.817056
-67.1618,170,3.601377
-32.949849,170,5.298932
1.609228,19,5.496503
-91.851884,170,1100.099484
3.173167,18,1100.273543
2.401001,20,1100.475851
-67.863896,170,1102.079744
-1.259906,19,1102.261736
-106.176836,170,1103.721578
3.909999,17,1103.859208
-66.929171,170,2199.488553
9.623047,19,2199.68496
9.672161,18,2199.862149
-73.721913,170,2201.613377
0.155721,20,2201.835192
8.461658,20,2202.056809
-97.14626,170,3295.297609
4.785302,19,3295.466921
-3.233368,15,3295.595592
-253.62525,266,3298.102525
9.929287,19,3298.268364
-1.336116,19,3298.427789
-57.438158,170,4394.283132
3.406354,19,4394.470398
-56.921239,170,4396.261225
-115.541338,170,4398.231629
-94.537595,170,5493.947907
-80.483059,170,5496.047611
-93.05948,170,5498.004707
-91.796931,170,6592.352648
-67.093136,170,6594.054476
-112.353239,170,6595.750177
-86.609381,170,7691.127651
-1.808115,17,7691.300244
4.479777,20,7691.504519
5.871898,19,7691.71017
-51.093509,170,7693.480735
-94.908312,170,7695.176408
-105.869845,170,8791.387341
-102.574813,170,8793.297568
-29.389044,170,8795.07457
-127.153733,170,9976.608924
-91.429898,170,9979.048052
-0.152636,19,9979.308195
-89.11589,170,9981.786628
0.969923,18,9982.027784
-3.181166,19,9982.268916
-107.066889,170,11114.663527
3.1894,18,11114.856315
-87.091199,170,11116.795559
-101.790534,170,11118.734625
-126.520919,170,12297.381791
-99.793473,170,12299.123004
-97.157745,170,12300.672318
-155.487613,170,13383.262864
-110.127695,170,13384.519508
-76.056777,170,13385.776957
-99.109242,170,14299.240502
-93.628747,170,14300.412235
-99.467316,170,14301.624488
-4.020598,18,14301.745664
-128.414357,170,15295.147545
-128.122525,170,15296.556343
-139.88637,170,15297.961729
4.474102,19,16212.166771
-103.293476,170,16213.384163
-3.139933,18,16213.503368
-152.973003,170,16214.66219
-86.448165,170,18345.998153
-3.095517,22,18346.342872
-130.892528,170,18348.797206
-8.404011,18,18349.051363
-3.492952,17,18349.322431
-8.746339,19,18349.631093
-117.007219,170,18352.028075
-124.658155,170,20539.83357
-147.641858,170,20542.080561
-134.337035,170,20544.868665
-5.830716,15,20545.104524
-76.116291,170,22721.425647
-173.946517,170,22724.075778
-13.287657,18,22724.184923
-172.825787,170,22725.693601
-5.285847,23,22726.027613
-128.569668,170,24892.965253
-127.618452,170,24895.239562
-137.583339,170,24897.970516
-5.87298,18,24898.284516
-139.695561,170,27056.811966
-139.507677,170,27059.040023
-134.404376,170,27061.3435
-10.315856,17,29206.409637
-11.86921,16,29206.655505
-9.171067,18,29206.954287
-10.463988,17,29207.208499
-104.324052,170,29209.030909
-18.982697,16,29209.146044
-9.719924,18,29209.294045
-184.126545,170,29211.364054
-144.548659,170,31357.740987
-240.370315,206,31360.858427
-15.38691,18,31361.1426
-150.906012,170,31363.226531
-13.05271,19,31363.345536
-9.715106,16,33496.273057
-182.955826,170,33498.769347
-164.349028,170,33501.389451
-10.60085,17,33501.496924
-156.494213,170,35614.215705
-14.533987,16,35614.34855
-189.526947,170,35616.53678
-201.479274,170,35619.123291
-14.403353,15,35619.373703
-146.232093,170,37750.785207
-110.148267,170,37753.222013
-138.314205,170,37754.656542
-190.93024,170,39883.136669
-18.067881,18,39883.267915
-17.874107,19,39883.40864
-190.375246,170,39885.681315
-9.001527,18,39885.866175
-9.603188,18,39886.171657
-180.429634,170,39888.347091
-192.650121,170,42013.30015
-354.836799,314,42016.58678
-190.94683,170,44129.759974
-205.342441,170,44131.973113
-234.815752,170,44134.130687
-15.824827,18,44134.41808
-17.953203,18,44134.596192
-181.08577,170,46244.269212
-134.014634,170,46245.754217
-27.223469,17,46245.963344
-216.039019,170,46248.180427
-18.250612,18,46248.474223
-271.824347,170,48352.791645
-22.660036,18,48353.119316
-232.737634,170,48355.131361
-251.375996,170,50450.727645
-259.886792,170,50452.928204
-261.698694,170,50455.253987
-30.838127,19,50455.595831
-162.125295,170,52523.181516
-29.83012,19,52523.395641
-20.510827,18,52523.652242
-194.495514,170,52525.841357
-216.556766,170,52527.906218
-232.532204,170,54587.823845
-25.263553,19,54588.111349
-262.898313,170,54590.763922
-23.190333,18,54590.918595
-288.363677,170,54592.115733
-233.336074,170,56668.462389
-246.78882,170,56671.247903
-31.167489,18,56671.414748
-21.042198,17,56671.721749
-287.638361,170,56673.283686
-284.852753,170,58726.490512
-329.101191,170,58728.673605
-292.757776,170,58731.191248
-326.458588,170,60793.503083
-352.442498,170,60795.681309
-346.573334,170,60797.949905
-30.09587,19,60798.268861
-37.393551,18,60798.591707
-30.58527,19,62858.725359
-266.660525,170,62860.316861
-326.513693,170,62862.071234
-326.12933,170,64914.587423
-247.674504,170,64916.799103
-366.564565,170,64919.023606
-288.982682,170,66962.894388
-44.253641,20,66963.235126
-398.645088,170,66965.711975
-385.054379,170,66968.145393
-30.178195,17,66968.267633
-28.290869,18,66968.394872
-41.430901,20,66968.530751
-316.316908,170,69012.622289
-49.256195,22,69012.825711
-31.316037,17,69013.138338
-382.949965,170,69015.767648
-411.777034,170,69016.980954
-354.034824,170,70266.81363
-406.722855,170,70267.878572
-418.798904,170,70268.940629
-386.584439,170,71024.918198
-408.385148,170,71025.970656
-34.421495,17,71026.082239
-412.293722,170,71027.177133
-37.736177,18,71027.294078
-511.307493,170,71782.279647
-460.544099,170,71783.327242
-499.058234,170,71784.386226
-43.157297,20,71784.517556
-49.272216,17,72538.805008
-451.697926,170,72539.895288
-460.284187,170,72540.969273
-441.584003,170,73296.111446
-62.096987,18,73296.232665
-42.817786,13,73296.317345
-56.750688,20,73296.448286
-59.821666,16,73296.553094
-449.77639,170,73297.64737
-504.693831,170,73298.718433
-499.941608,170,74053.976372
-564.151888,170,74055.038481
-585.243329,170,74056.105047
-488.83123,170,74810.274087
-623.242957,170,74811.34496
-511.778044,170,74812.395407
-602.001613,170,75568.045558
-105.897155,19,75568.163882
-627.143732,170,75569.23568
-625.234678,170,75570.326612
-50.890441,11,75570.394861
-76.263628,17,75570.503067
-619.781211,170,76326.901923
-652.497688,170,76327.987313
-652.421603,170,76329.070773
-695.532683,170,77082.896292
-661.778007,170,77083.964545
-65.420353,17,77084.069096
-676.258933,170,77085.168493
-68.195826,18,77085.277329
-75.172864,18,77085.389424
-796.708584,170,77841.997838
-109.351967,23,77842.147934
-725.282254,170,77843.23945
-702.391598,170,78598.439435
-825.67409,170,78599.485749
-805.644579,170,78600.543837
-1896.269124,296,79356.697978
-112.850841,20,79356.82631
-146.003153,23,79356.98552
-99.821762,18,79357.097591
-854.305618,170,79358.175304
-890.518457,170,80112.810802
-908.563195,170,80113.847102
-924.932297,170,80114.913961
-978.018087,170,80869.327596
-131.429028,20,80869.461312
-128.361443,19,80869.583824
-124.557125,18,80869.703218
-976.187092,170,80870.792032
-929.800244,170,80871.849486
-1051.188082,170,81627.168023
-147.760736,19,81627.295388
-1085.305146,170,81628.367777
-1049.494712,170,81629.452212
-1143.152846,170,82382.664508
-1130.085798,170,82383.721058
-1120.698527,170,82384.811048
-125.189743,14,82384.913089
-125.601325,18,82385.029756
-1235.854787,170,83139.79353
-1221.045766,170,83140.879249
-1202.060116,170,83141.971345
-161.291839,19,83142.098265
-177.837342,19,83142.220467
-1224.587918,170,83898.111774
-1363.218801,170,83899.181501
-1427.165349,170,83900.244758
-143.983355,16,84654.071208
-1395.51403,170,84655.14666
-1486.176345,170,84656.213099
-1385.253493,170,85411.052069
-1497.937296,170,85412.099283
-1588.171814,170,85413.170753
-180.801478,17,85413.27734
-1553.354488,170,86169.256421
-1600.547577,170,86170.332481
-199.323567,18,86170.444666
-1691.042632,170,86171.51384
-213.80077,18,86171.629047
-176.808676,18,86171.735977
-1771.663601,170,86927.334856
-215.968768,18,86927.450513
-1826.02089,170,86928.551241
-2288.396353,210,86929.888146
-2183.333925,198,87685.980454
-1832.785978,170,87687.056528
-1879.669769,170,87688.155885
-2077.003496,170,88443.01791
-2035.558124,170,88444.093891
-2145.788437,170,88445.174082
-340.531632,18,89257.084021
-2298.778111,170,89258.156286
-9908.647106,505,90026.588059
-2498.231944,170,90027.983048
-2452.483457,170,90029.380141
-2720.43249,170,90788.655787
-2657.143003,170,90789.718018
-307.644536,19,90789.850295
-2620.416765,170,91787.291655
-2670.51081,170,91788.645009
-2756.671402,170,91789.991656
-2907.308485,170,92605.462741
-3077.800402,170,92606.527835
-2997.64675,170,92607.574512
-2824.210237,170,93361.75057
-3280.867523,170,93362.805944
-3269.834264,170,93363.896526
-3171.628934,170,94120.336829
-470.056999,22,94120.476735
-3533.499084,170,94121.550286
-3360.289268,170,94122.611687
-3564.505935,170,94879.0689
-3647.652216,170,94880.135991
-484.826424,19,94880.259311
-3607.409215,170,94881.327914
-465.543189,18,94881.450726
-3821.142322,170,95636.566792
-4064.721495,170,95637.656009
-4568.474594,194,95638.88653
-424.461148,19,95639.01448
-410.755913,17,95639.133479
-4248.118739,170,96396.708893
-4347.691276,170,96397.78672
-4418.156654,170,96398.863505
-4524.17667,170,97153.404589
-479.826859,16,97153.511501
-4577.96233,170,97154.572083
-4514.729482,170,97155.651777
-4867.056447,170,97913.361927
-608.149115,20,97913.505461
-4677.631233,170,97914.595775
-4933.43421,170,97915.684318
-556.774443,16,97915.785554
-5255.787679,170,98671.842258
-5180.822374,170,98672.930189
-510.634149,18,98673.035832
-5184.371206,170,99429.855634
-5719.984768,170,99430.943167
-671.159902,18,99431.057991
-722.107878,21,99431.194491
-5672.655809,170,99432.269014
-5546.443197,170,100189.138676
-862.701409,21,100189.2684
-5647.434755,170,100190.352401
-900.084918,23,100190.507832
-702.27076,19,100190.636956
-567.521555,17,100190.751132
-5701.519273,170,100191.866681
-679.629647,17,100191.977628
-675.528129,19,100192.110731
-6427.923654,170,100947.967994
-654.582863,17,100948.079649
-602.553195,15,100948.173446
-6436.571683,170,100949.280076
-6244.565217,170,101704.823835
-6796.247618,170,101705.908055
-6696.206018,170,101706.956136
-7026.904688,170,102463.182437
-7456.716095,170,102464.254171
-839.273617,18,102464.372269
-10978.919069,250,102465.952257
-8127.452862,170,103222.606078
-876.951184,18,103222.720268
-829.394347,17,103222.833804
-948.546455,19,103222.952597
-8097.61371,170,103224.047546
-7941.722637,170,103225.149823
-8170.266743,170,103984.762365
-971.75454,17,103984.874335
-920.83266,18,103984.99431
-981.705414,17,103985.1115
-7998.304926,170,103986.297356
-8732.724274,170,104753.0094
-8733.227739,170,104754.181961
-9143.473092,170,104755.352712
-9165.529015,170,105520.771766
-9618.789912,170,105521.929009
-11188.595087,200,105523.281667
-781.401319,14,105523.37418
-9913.041538,170,106289.734113
-10191.567726,170,106290.922814
-1154.55337,19,106291.048827
-10114.637463,170,106292.243197
-10465.633558,170,107058.60404
-1045.408227,16,107058.711048
-11371.970097,170,107059.896628
-1362.292247,21,107060.050575
-10815.210185,170,107061.200324
-13913.195077,208,107826.237967
-11704.031693,170,107827.354512
-11567.969685,170,108585.436415
-15216.516709,218,108586.870616
-12158.582279,170,108587.983197
-1386.636757,18,108588.110555
-12435.397326,170,109345.451608
-13340.037091,170,109346.601271
-1403.6594,18,109346.729847
-1769.773821,19,109346.862038
-1385.5807,19,109346.989812
-13176.783252,170,109348.124452
-13726.037506,170,110106.726533
-13739.753022,170,110107.870979
-14148.256731,170,110109.023256
-1528.093554,19,110109.156797
-14376.932572,170,110866.289053
-14898.543388,170,110867.377224
-14699.516399,170,110868.435222
-15398.716214,170,111624.271565
-15813.165222,170,111625.340896
-15225.92151,170,111626.383767
-15678.890714,170,112382.34281
-16448.786225,170,112383.389488
-17195.315323,170,112384.457458
-17309.857159,170,113140.22195
-17353.634902,170,113141.294381
-17800.894891,170,113142.377063
-2146.55208,18,113142.486289
-17368.688787,170,113899.430303
-1971.702708,18,113899.546867
-18522.864429,170,113900.612844
-18864.193387,170,113901.693676
-1906.34401,16,114657.539473
-20126.762725,170,114658.604249
-18874.484163,170,114659.671512
-20217.564639,170,115415.46917
-20506.011507,170,115416.536017
-21019.35902,170,115417.58987
-20590.110104,170,116174.612385
-21333.854773,170,116175.754025
-2309.08792,17,116175.867622
-21511.914547,170,116176.986713
-22304.092942,170,116933.446743
-22667.428894,170,116934.522924
-23108.701834,170,116935.58725
-23797.832705,170,117690.772237
-2844.672775,17,117690.881549
-2641.569431,17,117690.98542
-25395.954661,170,117692.056666
-24860.650365,170,117693.13589
-25951.513954,170,118450.844192
-2710.224481,17,118450.957278
-26034.81061,170,118452.047331
-25622.711796,170,118453.148218
-2978.995414,18,118453.262143
-3353.63526,20,118453.389894
-28380.137024,170,119208.5479
-27626.290858,170,119209.63297
-29161.253038,170,119210.725147
-3228.113492,17,119210.828611
-2857.062362,18,119210.938843
-30655.256363,170,119965.147415
-29215.261702,170,119966.241145
-29957.490947,170,119967.317395
-30458.21118,170,120724.274803
-3393.956489,19,120724.399809
-39254.762162,208,120725.710802
-33014.835349,170,121480.994251
-3819.889785,19,121481.11624
-4018.603856,19,121481.23943
-3167.388508,18,121481.35569
-43150.769822,220,121482.76385
-4681.070414,21,121482.89765
-33699.339304,170,121483.977245
-37056.439774,170,122240.445312
-3558.868953,19,122240.564503
-35407.629505,170,122241.649808
-37488.897404,170,122242.728917
-37477.186161,170,122999.499474
-39673.975641,170,123000.579556
-4728.421084,19,123000.698723
-4340.283682,17,123000.802116
-37989.044741,170,123756.462515
-39394.243171,170,123757.536631
-4046.807905,17,123757.647295
-39553.939492,170,123758.730084
-39601.451532,170,124515.442956
-7379.006598,24,124515.598726
-6974.060128,25,124515.767387
-44022.159691,170,124516.843062
-42118.521556,170,124517.895035
-46320.672787,170,125274.175484
-45776.984994,170,125275.269312
-47953.971068,170,125276.349718
-46770.733979,170,126032.496098
-76404.416351,264,126034.169451
-48555.331596,170,126789.595278
-51221.424229,170,126790.644413
-53047.539396,170,126791.713628
-49337.486879,170,128255.39656
-7160.53035,21,128255.877853
-55637.059816,170,128259.385915
-6572.158722,18,128259.767433
-52315.035518,170,128263.267432
-58434.987981,170,131245.733176
-8097.353704,22,131246.20058
-55253.973221,170,131249.569043
-58337.456297,170,131253.16416
-5957.194413,18,131253.585253
-7327.365582,19,131253.951851
-59874.039023,170,134227.996148
-5953.951078,15,134228.298347
-63536.445341,170,134232.000699
-64275.788598,170,134235.414373
-60571.868423,170,137194.478999
-65103.902353,170,137198.048104
-65517.278047,170,137201.519696
-84599.242546,204,140178.712505
-65378.009782,170,140182.259588
-7661.382129,18,140182.614839
-7717.960475,17,140182.985415
-8686.906277,20,140183.386339
-67434.495063,170,143188.147603
-73295.138609,170,143191.730349
-74570.469877,170,143195.128189
-74736.621847,170,146203.016347
-80133.616098,170,146206.54204
-75843.553721,170,146210.233769
-8458.66743,17,146210.578381
-12029.015211,26,146211.080683
-78851.892539,170,149174.202994
-9315.987317,18,149174.655819
-81405.724122,170,149179.770929
-84736.340231,170,149184.905229
-86555.351177,170,152127.924167
-9571.873251,19,152128.372856
-8986.546363,17,152128.820531
-87633.866491,170,152132.873139
-8355.585802,16,152133.234731
-7846.624295,18,152133.677657
-87521.336182,170,152137.667435
-93012.013784,170,155090.803267
-10454.773701,19,155091.237831
-9264.424739,18,155091.628852
-13774.430702,24,155092.250724
-9819.559646,18,155092.630401
-91210.768861,170,155096.686002
-96612.748157,170,158041.472425
-96853.290353,170,158045.390454
-95278.714325,170,158049.517581
-101912.247352,170,160444.543472
-102704.652804,170,160446.677999
-99570.278066,170,160448.75733
-11903.8134,19,160448.989962
-105500.908548,170,162473.796625
-112230.506008,170,162475.871798
-12595.565193,19,162476.09504
-15795.651174,23,162476.374092
-108861.742614,170,162478.477687
-112310.126047,170,164496.807084
-114463.794558,170,164498.821233
-11665.875857,18,164499.036156
-13406.731556,19,164499.27015
-113784.373278,170,164501.555864
-10046.032783,17,164501.758253
-14500.259965,20,166497.037171
-127287.021261,170,166498.949637
-126885.277298,170,166500.946245
-119955.040132,170,168523.782069
-131278.184965,170,168525.662172
-129267.433708,170,168527.615629
-132889.41766,170,170543.046656
-132494.897028,170,170544.956862
-18305.53678,19,170545.187971
-145194.278699,170,170547.123452
-161775.386991,196,172559.88939
-145645.798352,170,172561.775388
-140914.023934,170,172563.666403
