# {"t_start": 1548091966.8900332, "env_id": "RoboschoolHumanoidFlagrunHarder-v1"} 
r,l,t
3.581776,18,1.642152
-66.393562,170,3.421717
-122.560182,170,5.124725
4.185716,20,5.34229
-53.936659,170,1099.947012
2.974139,22,1100.163787
3.170823,20,1100.361829
-42.606933,170,1101.970311
6.799332,19,1102.152445
-85.579592,170,1103.611578
3.315275,18,1103.759001
-107.550985,170,2199.386511
6.174817,19,2199.584259
4.131454,19,2199.772601
-77.16261,170,2201.521371
6.129092,22,2201.767841
4.903703,18,2201.965357
-91.119394,170,3295.20681
7.797126,18,3295.364792
1.502673,18,3295.525706
-55.926717,170,3297.140921
0.284795,16,3297.290473
8.86738,19,3297.472403
-95.080599,170,3299.021048
1.321656,18,3299.210672
-75.07165,170,4395.130548
-115.167807,170,4397.003075
-90.877214,170,4398.972532
-111.995785,170,5494.743626
-66.71714,170,5496.824337
-69.857238,170,5498.730041
-90.453913,170,6592.981254
-105.148019,170,6594.671721
-122.518764,170,6596.418634
2.913282,17,6596.606548
5.243402,18,6596.826816
-8.789204,16,6597.003471
-56.504239,170,7692.330881
-59.576525,170,7694.072925
-106.909085,170,7695.735258
-56.644573,170,8792.073302
-104.048639,170,8793.900996
-101.604219,170,8795.719383
-88.826409,170,9977.47112
3.535563,18,9977.726391
-95.414748,170,9980.235274
1.395155,18,9980.487939
-3.887051,18,9980.731066
-71.036771,170,11113.439065
0.55842,17,11113.613167
-102.010195,170,11115.475064
-79.169263,170,11117.439095
-145.838571,170,12296.099716
-67.545599,170,12298.02042
-117.897599,170,12299.601085
-117.416058,170,13382.371985
-99.049253,170,13383.635814
-98.58918,170,13384.912005
-117.285188,170,14298.416355
-93.33325,170,14299.599323
-129.158626,170,14300.769642
2.293844,17,14300.897915
-157.386265,170,15294.155546
-107.076448,170,15295.577106
-117.851555,170,15296.96611
0.276923,17,15297.115891
-107.301773,170,16212.528724
-9.808366,18,16212.662541
-99.987448,170,16213.840345
-107.2473,170,16214.999842
-1.587859,19,16215.160889
-110.109229,170,18346.947649
-8.806232,16,18347.169572
-9.805937,17,18347.406605
-18.009301,18,18347.653718
-126.191818,170,18350.483931
-126.72931,170,18352.297425
-128.087087,170,20540.423019
-123.519281,170,20542.849088
-7.507586,18,20543.1273
-127.9907,170,20545.762036
-111.841961,170,22722.275693
-9.307899,15,22722.50012
-185.953066,212,22724.807933
-2.443668,18,22724.947424
-101.351455,170,24891.858471
-144.47541,170,24894.124217
-183.238989,202,24897.173258
-7.95238,18,24897.45002
-158.658086,170,27056.124079
-176.066098,170,27058.39392
-115.709476,170,27060.637937
-7.361534,17,27060.935653
-6.107653,19,27061.105773
-6.416755,19,29206.16039
-4.454429,18,29206.4338
-125.960152,170,29208.625345
-8.142911,18,29208.762663
-11.967621,17,29208.890349
-159.193454,170,29210.775864
-176.470007,170,31357.167609
-155.379103,170,31359.5096
-17.022369,17,31359.744948
-160.990693,170,31362.595965
-8.521986,17,31362.729388
-16.037333,16,31362.841473
-164.398444,170,33497.402722
-210.899133,170,33500.147205
-12.351448,17,33500.465392
-164.817568,170,33502.063847
-11.11391,17,33502.193756
-155.333279,170,35615.48945
-123.883095,170,35617.769274
-13.043248,18,35618.102784
-131.775163,170,35620.778445
-132.518826,170,37752.217493
-258.518138,262,37754.734296
-178.795292,170,39883.166238
-12.328989,17,39883.292003
-12.751958,17,39883.430583
-180.617853,170,39885.728349
-11.808327,17,39885.960166
-12.465235,15,39886.142447
-123.078501,170,39888.376332
-190.883312,170,42013.277225
-211.693686,170,42014.737743
-176.190196,170,42016.94018
-182.284501,170,44130.167905
-181.750264,170,44132.384464
-26.316172,9,44132.514701
-14.875108,21,44132.773979
-193.770236,170,44135.040298
-223.692063,170,46244.376966
-24.400688,15,46244.475574
-173.157812,170,46246.253522
-11.745784,18,46246.561784
-185.617308,170,48350.399581
-27.34484,21,48350.753169
-211.563241,170,48353.456259
-225.421961,170,48355.268947
-233.399505,170,50451.05983
-261.356532,170,50453.189369
-38.0822,23,50453.435837
-194.728797,170,50456.109184
-22.727702,21,50456.45691
-20.421311,19,50456.784041
-191.891211,182,52524.259774
-210.389475,170,52526.330729
-225.433583,170,52528.638013
-22.136926,18,52528.851418
-233.999719,170,54588.833957
-28.913074,22,54589.200935
-257.515561,170,54591.166998
-254.48505,170,54592.649333
-263.693755,170,56669.276639
-31.248073,18,56669.507322
-31.56375,18,56669.801025
-232.739542,170,56672.392671
-302.097187,170,58724.950901
-292.20828,170,58727.167422
-363.400155,170,58729.313085
-292.168682,170,60791.931538
-310.569982,170,60794.174709
-334.974459,170,60796.37908
-40.991649,31,60796.64414
-37.548611,18,60796.941607
-34.239663,19,60797.138549
-286.712818,170,62859.514368
-399.412833,220,62861.255302
-351.855235,170,62863.493936
-346.046202,170,64915.974602
-372.087671,170,64918.164139
-329.791055,170,64920.766027
-33.555252,18,64921.043468
-352.708258,170,66964.779089
-351.658821,170,66967.461176
-39.153689,20,66967.793951
-42.73338,18,66967.935387
-33.636313,18,66968.053319
-321.121413,170,69011.640637
-43.20828,19,69011.937786
-40.186376,21,69012.250735
-327.315847,170,69014.88448
-365.261203,170,69016.479173
-366.825643,170,70266.382313
-386.096591,170,70267.453615
-375.878915,170,70268.507197
-448.442041,170,71024.484699
-489.375051,170,71025.547651
-45.933753,19,71025.658843
-369.971629,170,71026.747522
-41.655046,18,71026.862468
-507.885595,170,71781.849117
-460.972245,170,71782.908204
-655.074376,217,71784.263915
-53.946176,19,71784.388918
-53.978285,18,72538.680771
-452.632962,170,72539.770453
-470.881515,170,72540.844231
-484.983864,170,73295.985666
-139.19467,33,73296.203064
-50.419614,18,73296.322679
-62.834554,20,73296.453177
-60.844041,18,73296.583303
-489.276511,170,73297.661527
-474.330855,170,73298.731467
-525.877284,170,74053.993792
-480.354049,170,74055.059846
-1524.81847,399,74810.659437
-524.470217,170,74811.706188
-589.312836,170,74812.762992
-560.79713,170,75568.42094
-964.607767,238,75569.933571
-61.819778,18,75570.057981
-566.604119,170,76326.467198
-680.122715,170,76327.540227
-62.182433,17,76327.655174
-101.50217,20,76327.780894
-659.43268,170,76328.864558
-704.136721,170,77082.692359
-699.113197,170,77083.760757
-679.036632,170,77084.852094
-729.532824,178,77841.506858
-92.766841,19,77841.632187
-758.027397,170,77842.721389
-118.033054,22,77842.867154
-94.787865,18,77842.984079
-684.809024,170,77844.048413
-85.850451,18,78598.293164
-785.426321,170,78599.340439
-942.042667,227,78600.748445
-774.018139,170,79356.104736
-896.336152,170,79357.195557
-853.525299,170,79358.285782
-98.291319,18,79358.391526
-109.723851,18,79358.492157
-86.141719,19,79358.610541
-880.998108,170,80113.239559
-933.366872,170,80114.291668
-897.810275,170,80115.349569
-955.600354,170,80869.799566
-975.525457,170,80870.883182
-116.229653,18,80870.991157
-102.679748,14,80871.072259
-116.224397,17,80871.1737
-1022.028354,170,80872.246122
-1093.089673,170,81627.56481
-1115.467761,170,81628.651992
-116.692771,18,81628.772392
-1071.975352,170,82381.980542
-1099.680677,170,82383.050201
-1191.968648,170,82384.113265
-1138.617138,170,83138.9096
-1299.393663,170,83139.987545
-128.053666,19,83140.115873
-142.121992,18,83140.227786
-1239.334061,170,83141.310028
-1219.368129,170,83897.229918
-1342.228734,170,83898.295374
-172.927648,19,83898.413734
-164.495874,20,83898.538483
-1276.534174,170,83899.604931
-1419.003791,170,84654.410966
-1441.263683,170,84655.468189
-145.010304,18,84655.595084
-1532.787389,170,84656.670632
-1491.091301,170,85411.485966
-1507.837255,170,85412.5242
-1619.053061,170,85413.601321
-1690.759329,170,86169.600502
-225.475087,19,86169.722458
-1720.341829,170,86170.783087
-2289.675019,224,86172.215195
-205.138682,18,86926.840632
-1741.115975,170,86927.913792
-280.236726,22,86928.067149
-210.957038,18,86928.178982
-1824.530832,170,86929.274616
-280.883901,23,86929.425913
-1840.610403,170,87685.33266
-1910.588731,170,87686.416942
-2553.097795,222,87687.832462
-2126.171689,170,88442.694368
-2251.439321,170,88443.773297
-2019.070561,170,88444.849485
-2256.603957,170,89257.734389
-2388.378429,170,89258.804615
-265.505512,19,89258.917317
-2252.221736,170,89259.987007
-2557.318658,170,90026.254555
-2543.291215,170,90027.626754
-2432.953094,184,90029.155587
-2691.927658,170,90788.451655
-2575.427979,170,90789.515452
-322.437291,18,90789.643303
-2635.078834,170,90790.723102
-2663.982934,170,91788.426363
-2762.898909,170,91789.747516
-2739.213571,170,91791.109908
-3105.622347,170,92606.322852
-2957.49096,170,92607.375848
-2952.014729,170,92608.445986
-3216.832294,170,93362.592076
-3352.913248,170,93363.677794
-3211.78589,170,93364.742216
-393.427524,19,94120.258205
-3517.025153,170,94121.331899
-3392.92968,170,94122.398491
-3395.867265,170,94878.841707
-3699.580757,170,94879.908702
-450.971791,19,94880.034888
-3706.180518,170,94881.107699
-465.465503,19,94881.228097
-3814.012917,170,95636.349755
-4079.17515,170,95637.43841
-4018.894573,170,95638.500541
-565.420994,19,95638.632464
-440.926451,19,95638.75575
-4083.434605,170,96396.341089
-4540.333422,170,96397.42399
-4391.066407,170,96398.503002
-4376.379058,170,97153.035926
-606.220923,20,97153.170187
-4861.899161,170,97154.228773
-4904.931048,170,97155.31782
-4874.216003,170,97913.031365
-682.198193,20,97913.16205
-4769.598519,170,97914.259367
-5178.737404,170,97915.353502
-529.654865,18,97915.462192
-5369.517475,170,98671.52967
-5594.946921,170,98672.621099
-605.662976,19,98672.736013
-5133.602654,170,98673.829395
-5361.166563,170,99430.629461
-728.465761,18,99430.749573
-738.01372,19,99430.871218
-5716.240692,170,99431.950195
-5723.405911,170,100188.808542
-542.251507,17,100188.917496
-6011.20326,170,100189.992324
-624.982839,17,100190.10839
-983.663909,22,100190.252069
-687.103973,19,100190.385409
-5698.001508,170,100191.49863
-611.575939,19,100191.628459
-698.373652,19,100191.756869
-6324.76462,170,100947.612713
-870.4606,20,100947.747136
-792.670277,19,100947.875609
-6391.359212,170,100948.987336
-6594.495558,170,100950.067136
-6792.407221,170,101705.614054
-6860.825753,170,101706.670702
-6998.242591,170,101707.743157
-7299.279969,170,102463.949295
-836.190278,19,102464.079566
-7419.170934,170,102465.165722
-7547.468366,170,103221.801214
-884.005173,19,103221.925305
-770.457064,18,103222.042566
-899.89507,18,103222.158833
-8240.379245,170,103223.249102
-8124.046829,170,103224.353595
-8334.798021,170,103983.886626
-832.447121,18,103984.018164
-1032.43878,18,103984.148206
-1052.485922,18,103984.269545
-8528.686003,170,103985.447228
-8356.147508,170,103986.629297
-8750.04987,170,104753.349332
-8969.773972,170,104754.515336
-9282.019776,170,104755.685113
-9209.520076,170,105521.095448
-9026.663412,170,105522.251359
-1027.166003,20,105522.39197
-9294.366859,170,105523.545834
-10135.824031,170,106289.911957
-1670.154446,25,106290.09087
-10215.116931,170,106291.269169
-9827.367347,170,106292.442674
-1226.258371,18,106292.562217
-10734.602113,170,107058.936261
-1564.627694,20,107059.074886
-10691.372864,176,107060.300891
-11281.13975,170,107825.111464
-11856.300977,170,107826.236089
-11307.637329,170,107827.347749
-11149.208311,170,108585.435468
-12160.81266,170,108586.544869
-1658.422433,18,108586.660886
-11793.195841,170,108587.776225
-12704.261782,170,109345.124284
-1506.978826,19,109345.252127
-1344.430011,17,109345.368016
-1353.287084,18,109345.486319
-16674.392698,208,109346.906346
-13320.892513,174,109348.068055
-13261.889324,170,110106.673089
-14262.295308,170,110107.814046
-1095.790378,13,110107.901097
-14618.386381,170,110109.055841
-15021.041575,170,110866.18773
-14791.806564,170,110867.276978
-15659.482618,170,110868.334474
-15231.678379,170,111624.171274
-15072.465922,170,111625.241741
-17888.716522,194,111626.429232
-21353.863539,214,112382.668455
-15976.367795,170,112383.718396
-17732.788662,170,113139.500653
-17759.844585,170,113140.543716
-17999.605553,170,113141.606523
-1794.592066,17,113141.716604
-16944.187763,170,113898.682845
-2185.724787,19,113898.7979
-22653.337343,208,113900.114179
-18930.777219,170,113901.189392
-2323.230929,19,113901.312829
-18665.137689,170,114658.113517
-18435.33565,170,114659.190372
-19814.352778,170,114660.2745
-21218.958325,170,115416.062429
-20426.247367,170,115417.122622
-19870.75225,170,115418.176132
-21071.935484,170,116175.246029
-2376.0782,18,116175.36522
-20267.714106,170,116176.490443
-21860.890444,170,116177.609813
-22880.611264,170,116934.048807
-35870.814925,254,116935.637589
-23184.167415,170,117690.827239
-2572.476371,18,117690.939286
-2902.307827,17,117691.046465
-25906.768536,170,117692.115642
-24840.549338,170,117693.202134
-26583.223424,170,118450.909843
-3401.856138,18,118451.031234
-27598.908533,170,118452.111243
-27527.149905,170,118453.214657
-3273.748729,18,118453.332391
-3217.952656,21,118453.462512
-27964.886462,170,119208.614758
-27400.045727,170,119209.715745
-31683.722643,188,119210.903791
-3224.15492,18,119211.025147
-3962.731143,21,119964.277171
-30580.871528,170,119965.359663
-30616.082811,170,119966.449501
-30913.564333,170,120723.390892
-31833.019765,170,120724.497291
-3621.007462,19,120724.622704
-31471.469908,170,120725.680766
-33441.179519,170,121480.964971
-4354.033419,18,121481.080233
-3787.411084,18,121481.200784
-4124.204671,19,121481.319184
-33437.237426,170,121482.406815
-3584.459499,18,121482.527066
-34343.473385,170,121483.61707
-37096.238236,170,122240.065828
-4111.803675,19,122240.190817
-37496.833973,170,122241.266015
-37397.646647,170,122242.34584
-37999.841286,170,122999.123574
-39876.649897,170,123000.196076
-5076.467289,19,123000.31661
-4602.857942,19,123000.451854
-39712.401256,170,123001.513442
-39041.034942,170,123757.183451
-5763.345854,25,123757.333607
-39684.197745,170,123758.429706
-158546.898807,608,124517.896717
-5309.413018,20,124518.031758
-6581.334606,23,124518.177033
-43918.836583,170,125274.458027
-46612.298013,170,125275.554274
-43679.190948,170,125276.627919
-48937.125943,170,126032.773549
-50413.826531,170,126033.842523
-48383.459238,170,126034.91054
-49206.466823,170,126790.32069
-62746.813457,202,126791.589672
-51930.864089,170,128255.224265
-56847.104909,170,128258.814717
-55268.673603,170,128262.257893
-5484.035324,18,128262.629769
-56756.377626,170,131245.177772
-7680.665801,23,131245.590472
-54470.247406,170,131249.035924
-59771.813945,170,131252.623184
-6358.348939,18,131252.96363
-61343.398987,170,134227.019541
-64893.873191,170,134230.610298
-6829.266252,18,134231.003517
-7364.835383,20,134231.488168
-62543.750782,170,134234.916622
-6116.161242,19,134235.304473
-64696.137035,170,137194.366331
-60433.04939,170,137197.935859
-65096.488217,170,137201.410279
-67871.107223,170,140177.872836
-70560.529724,170,140181.437924
-68259.703728,170,140184.855554
-72147.005812,170,143189.680863
-10054.754725,19,143190.100065
-7583.706311,17,143190.467384
-9384.494109,19,143190.839191
-74441.065502,170,143194.314022
-73083.387382,170,143197.75565
-74525.645909,170,146205.711727
-79172.440288,170,146209.414599
-78840.987715,170,146212.822915
-85079.404083,170,149176.924281
-13095.124347,27,149177.688939
-10875.831518,18,149178.239575
-78793.084231,170,149183.268884
-16931.886508,36,149184.343464
-85221.919591,170,152127.457225
-88985.289079,170,152131.58674
-87399.416036,170,152135.53337
-7868.780018,16,152135.969978
-8335.274559,17,152136.32951
-87148.573,170,155089.493151
-11077.927626,18,155089.896323
-9308.933301,17,155090.27237
-86908.112687,170,155094.318447
-95676.343377,170,155098.290413
-10096.745007,18,155098.743933
-9403.178777,18,158039.927114
-10527.50756,19,158040.355629
-10082.308408,17,158040.80631
-97574.745195,170,158044.726616
-96223.247549,170,158048.783762
-100321.175708,170,160444.171893
-137165.680577,220,160446.910131
-102005.995609,170,160448.984035
-109821.697503,170,162473.789835
-112304.923073,170,162475.863802
-12451.187803,18,162476.079414
-108108.699276,170,162478.162652
-109927.601469,170,164496.512497
-10131.55077,16,164496.704029
-19170.950085,28,164497.025587
-118462.020446,170,164499.059164
-114651.817967,170,164501.348425
-132053.503387,170,166498.337078
-15007.93328,20,166498.560915
-13280.045435,17,166498.751856
-121547.071271,170,166500.740906
-12767.864951,20,166500.967842
-13143.302704,16,166501.148179
-130878.453145,170,168523.986916
-135860.515607,170,168525.864837
-131851.782129,170,168527.822754
-126844.546197,170,170543.244612
-142117.577591,170,170545.174122
-136859.676822,170,170547.115458
-141785.708373,170,172559.596053
-15813.533245,17,172559.775935
-154319.690931,170,172561.661305
-147554.951935,170,172563.549557
