# {"t_start": 1548219485.8563194, "env_id": "AtlantisNoFrameskip-v4"} 
r,l,t
19800.0,1464,75.256127
10500.0,1007,132.44672
18700.0,1470,222.254528
16800.0,1874,340.277514
13000.0,1526,441.092475
26300.0,1736,557.747592
42200.0,2578,720.501694
26900.0,1578,826.706528
31600.0,1856,945.24718
44600.0,2375,1097.233226
74500.0,3562,1333.152649
29900.0,1713,1443.000593
37500.0,2490,1602.251168
32800.0,2084,1739.491414
30100.0,2286,1888.306319
41800.0,2188,2029.103695
45000.0,2548,2195.706057
44800.0,2365,2349.29376
58800.0,2925,2536.057634
50800.0,2425,2693.339447
39700.0,2231,2835.501921
49800.0,2941,3030.495265
17000.0,1366,3121.43657
45700.0,2680,3290.696162
31200.0,2223,3442.547491
19300.0,1473,3533.421453
46300.0,2379,3685.763505
64100.0,3440,3911.473551
27300.0,1541,4011.587953
87200.0,4031,4272.565169
66500.0,3581,4507.069969
57300.0,2934,4695.630163
126800.0,5189,5039.251976
162200.0,6151,5435.604593
49900.0,2744,5613.449908
36800.0,1890,5738.2768
154400.0,6447,6159.202389
98000.0,3965,6415.10628
65200.0,3381,6641.20725
122100.0,5349,6987.92161
18000.0,1346,7072.382296
9000.0,1152,7150.253654
51400.0,2488,7309.844851
19000.0,1256,7394.616618
57800.0,3406,7620.787358
21500.0,1405,7708.901136
164400.0,6997,8164.095593
37500.0,2474,8329.89749
455300.0,17090,9444.251149
220200.0,9087,10039.475955
96000.0,3974,10300.544072
48100.0,2435,10460.833495
2860400.0,99998,16992.174978
2892700.0,99998,23573.891877
49800.0,2582,23741.865297
3064000.0,99993,30352.092509
34900.0,2459,30513.143514
12900.0,1200,30589.041391
47000.0,2746,30768.387778
