# {"t_start": 1552336341.3608608, "env_id": "KungFuMasterNoFrameskip-v0"} 
r,l,t
700.0,1020,210.593182
800.0,1098,417.34969
1700.0,1163,644.560562
600.0,1032,835.848081
1800.0,1123,1052.232857
4200.0,1764,1402.890028
7000.0,1941,1785.744042
7500.0,2043,2180.897561
5000.0,1651,2500.030744
4300.0,1654,2813.107827
6800.0,1976,3197.077766
5200.0,2000,3584.24037
7100.0,2152,4001.575503
8000.0,2357,4457.316921
4400.0,1694,4783.642102
6400.0,1744,5123.317872
5900.0,1724,5464.344886
9200.0,2660,5989.956445
9800.0,1910,6366.893298
10200.0,2123,6788.283811
13100.0,2368,7260.020854
7000.0,1653,7574.820451
4800.0,1545,7881.144836
16100.0,2201,8306.893058
11500.0,1721,8638.713881
8000.0,1685,8966.020687
4800.0,1329,9233.727607
13200.0,2063,9641.155435
12600.0,2253,10080.808148
13800.0,2341,10544.10678
15800.0,2630,11069.720159
16200.0,2618,11590.342776
6800.0,1903,11956.793271
16700.0,2364,12411.213801
6400.0,1493,12696.82032
11700.0,1929,13079.129449
12000.0,2317,13539.904876
10400.0,2024,13930.234735
16200.0,2635,14435.899851
11700.0,2350,14902.631658
6000.0,1513,15195.562775
14000.0,2331,15658.34899
7000.0,1854,16022.177303
14400.0,2680,16547.964983
11100.0,2200,16967.346226
8700.0,1931,17335.440742
9900.0,1960,17712.793707
5100.0,1471,17993.462533
6700.0,1825,18348.082572
7200.0,1930,18726.475817
7300.0,2147,19147.15297
12000.0,1982,19539.359551
15800.0,2724,20070.777268
9300.0,1605,20376.851445
10600.0,1767,20710.872684
8500.0,1855,21071.736748
14700.0,2090,21473.602242
11800.0,2132,21897.342469
10200.0,2018,22284.216926
9500.0,1761,22630.866091
13400.0,2270,23076.400514
14600.0,2293,23537.173512
10500.0,2032,23935.227536
13700.0,2277,24379.298772
13200.0,2014,24771.889129
15300.0,2128,25200.738205
9500.0,1554,25503.606966
19500.0,2541,26004.43274
14300.0,2273,26448.658865
15600.0,2406,26923.246853
14100.0,2100,27326.592905
9900.0,1791,27685.984032
10800.0,1836,28047.721558
21900.0,2550,28547.056415
18400.0,2494,29045.576795
13100.0,2416,29516.618795
16700.0,2313,29971.222808
14400.0,2237,30407.312064
11700.0,1984,30801.516918
15500.0,2315,31246.960983
15900.0,2506,31756.869296
19100.0,2502,32248.659343
13300.0,2210,32674.191367
20300.0,2690,33195.168887
10100.0,1941,33576.327633
11700.0,1822,33933.990678
12000.0,1855,34297.536144
14500.0,2273,34734.357527
12100.0,1926,35113.573478
13100.0,1915,35497.421965
8400.0,1637,35823.057524
15000.0,2197,36254.786548
5400.0,1294,36514.305058
16000.0,2279,36969.95585
12600.0,1940,37353.153358
17700.0,2414,37825.549994
12200.0,2018,38212.666046
11400.0,1894,38579.823124
18800.0,2565,39089.568212
12300.0,1935,39461.169608
13600.0,2063,39856.917882
9400.0,1748,40193.345103
19600.0,2634,40715.255794
12400.0,1963,41105.971559
14200.0,2114,41525.528131
17200.0,2414,41994.073136
6800.0,1701,42327.254337
8600.0,1891,42699.864583
15400.0,2349,43146.219144
9700.0,1871,43518.857991
19700.0,3068,44110.073449
10100.0,2089,44518.882248
9800.0,2118,44936.82446
9000.0,1836,45286.853105
11900.0,2299,45737.778692
10500.0,1885,46107.29733
8200.0,1790,46466.801714
8000.0,1883,46822.305519
9000.0,1907,47194.956875
12400.0,2316,47643.345784
9700.0,2131,48067.660772
14000.0,2539,48560.075656
8500.0,1988,48948.220421
14900.0,2592,49461.965547
11400.0,2032,49851.110282
7400.0,1565,50165.503589
11400.0,2398,50629.325823
6800.0,1804,50978.584081
9800.0,2286,51428.031432
12700.0,2404,51884.331365
13400.0,2600,52393.672964
10600.0,2199,52818.5286
19300.0,2714,53351.578701
17100.0,2776,53883.689294
17700.0,2884,54438.221417
9500.0,1787,54796.121627
7700.0,1585,55101.08077
16300.0,2080,55494.510257
18200.0,2489,55972.519857
20900.0,2786,56500.637066
15400.0,2136,56930.806377
11100.0,2052,57330.034284
12700.0,2245,57758.124262
10800.0,2185,58178.648021
7100.0,1558,58429.102163
16200.0,2286,58752.149619
23400.0,2830,59142.3232
12700.0,2111,59434.639179
11200.0,1651,59666.68715
20400.0,2630,60025.55881
20600.0,2562,60381.329666
18800.0,2331,60691.910054
11800.0,2038,60962.880861
9400.0,1710,61192.837945
25700.0,2984,61575.036685
22900.0,2892,61959.283082
28400.0,3006,62356.664268
19700.0,2584,62701.442646
21600.0,2705,63061.315053
23500.0,2946,63452.880065
13400.0,2025,63723.304478
12700.0,2246,64022.250828
15500.0,2201,64319.787477
22300.0,2894,64698.596919
10100.0,2064,64970.274002
12500.0,2182,65258.450236
18300.0,2668,65610.548807
12100.0,2218,65895.448835
16500.0,2524,66232.501787
7800.0,1603,66444.32274
11000.0,2089,66705.892655
16200.0,2666,67058.08944
12800.0,2015,67319.452827
21700.0,2887,67697.728246
27500.0,3228,68128.887264
13800.0,2195,68419.22883
22600.0,3235,68851.836846
12800.0,2204,69137.4353
14900.0,2068,69410.108112
16500.0,2340,69717.894735
15800.0,2238,70015.967959
20800.0,2762,70379.335353
15900.0,2233,70670.757714
6100.0,1307,70840.785843
26500.0,3042,71241.258912
8600.0,1743,71476.257688
10900.0,1769,71705.155513
18100.0,2456,72035.547569
9100.0,1427,72218.278942
9000.0,1685,72435.482032
20800.0,2848,72812.47695
17300.0,2486,73137.538512
9400.0,1880,73389.919696
16400.0,2340,73697.526446
19800.0,2550,74037.259074
10800.0,1733,74265.156694
9400.0,1554,74470.020791
9700.0,1980,74729.083086
19900.0,2720,75088.952728
14200.0,2310,75394.974209
9800.0,1792,75633.907074
12400.0,1905,75883.408064
21600.0,3323,76321.880422
14700.0,2528,76659.874712
12100.0,2126,76937.548578
12500.0,2146,77217.98158
19600.0,2853,77597.584107
8200.0,1678,77818.174728
17100.0,2633,78161.596809
24100.0,3009,78547.936091
12600.0,2118,78823.384901
22800.0,2843,79198.903122
14700.0,2225,79471.435027
27700.0,3150,79814.196294
16300.0,2214,80051.593667
18200.0,2518,80316.845394
15800.0,2173,80549.24145
15600.0,2056,80765.674231
21200.0,2719,81059.476264
22700.0,2749,81351.320728
18900.0,2501,81620.487823
17000.0,2418,81876.684363
18800.0,2578,82156.194166
25800.0,3018,82477.832251
15500.0,2226,82712.303684
16200.0,2333,82962.707185
15300.0,2168,83195.445843
25400.0,3104,83527.379701
8700.0,1984,83740.161043
29100.0,3225,84083.772795
14100.0,2205,84321.429119
19700.0,2595,84597.200498
12100.0,1962,84804.009422
26600.0,3251,85149.517595
16200.0,2440,85407.016361
20300.0,2454,85665.513769
11700.0,1732,85848.859731
11300.0,1847,86042.876373
5200.0,1469,86199.047659
15000.0,2341,86443.592395
14300.0,2276,86688.283397
21400.0,2661,86965.844802
15300.0,2334,87216.883291
21400.0,3148,87548.897418
21900.0,2667,87833.042217
12500.0,1841,88024.54889
