# {"t_start": 1546659020.1801093, "env_id": "PongNoFrameskip-v4"} 
r,l,t
-21.0,960,19.750117
-21.0,942,33.820129
-20.0,905,47.490587
-21.0,787,59.60234
-21.0,817,71.950473
-21.0,790,83.900694
-21.0,932,97.859871
-21.0,878,111.302216
-21.0,758,122.891446
-21.0,763,134.420329
-21.0,760,145.94503
-21.0,762,157.496422
-21.0,817,169.855152
-21.0,778,181.573775
-21.0,790,193.462417
-20.0,832,206.133002
-21.0,969,220.703035
-20.0,957,235.309141
-19.0,1185,253.183241
-21.0,763,264.84835
-21.0,757,276.319485
-21.0,881,289.629326
-21.0,926,303.545687
-21.0,761,315.118701
-20.0,1007,330.433564
-21.0,820,342.869185
-21.0,825,355.434826
-20.0,1036,371.03664
-21.0,783,382.850118
-20.0,959,397.35389
-20.0,838,410.130973
-19.0,1079,426.234578
-20.0,865,439.274815
-20.0,888,452.818329
-21.0,850,465.833221
-21.0,1046,481.630429
-21.0,808,493.789552
-21.0,758,505.356415
-21.0,758,516.891143
-21.0,764,528.380984
-21.0,758,539.669433
-21.0,760,551.241103
-21.0,760,562.883374
-21.0,758,574.262712
-21.0,758,585.796607
-21.0,758,597.299666
-21.0,761,608.947195
-21.0,760,620.482369
-21.0,762,632.087422
-21.0,758,643.532426
-21.0,757,655.014634
-21.0,764,666.624471
-21.0,760,678.167127
-21.0,758,689.697738
-21.0,763,701.368533
-21.0,760,712.893898
-21.0,761,724.635671
-21.0,758,737.110116
-21.0,760,749.241847
-21.0,762,761.479264
-21.0,761,773.927328
-21.0,760,786.262587
-21.0,760,798.40342
-21.0,762,810.839661
-20.0,835,824.179401
-20.0,836,837.523149
-21.0,849,851.14493
-19.0,1015,867.306149
-21.0,778,880.12025
-20.0,901,894.431977
-21.0,819,907.41739
-19.0,963,922.73948
-20.0,841,936.352685
-21.0,870,950.393847
-21.0,868,964.419637
-21.0,945,979.551258
-21.0,987,995.640424
-21.0,761,1007.888937
-21.0,909,1022.532601
-20.0,831,1035.681363
-20.0,891,1049.759773
-21.0,937,1064.880961
-21.0,780,1077.297881
-19.0,932,1092.314583
-20.0,892,1106.599566
-21.0,788,1119.118226
-20.0,871,1133.268984
-21.0,909,1147.736431
-21.0,760,1160.004294
-21.0,759,1172.165001
-21.0,820,1185.211871
-21.0,791,1197.907569
-21.0,760,1210.179245
-21.0,759,1222.290059
-21.0,763,1234.653421
-21.0,764,1246.960775
-21.0,763,1259.257521
-21.0,762,1271.473857
-21.0,901,1286.066983
-21.0,758,1298.099289
-21.0,759,1310.358426
-21.0,763,1322.454697
-21.0,760,1334.593342
-21.0,761,1346.877938
-21.0,761,1359.065416
-21.0,808,1372.211112
-20.0,944,1387.437007
-20.0,867,1401.536914
-21.0,810,1415.651761
-21.0,807,1429.168447
-20.0,928,1444.832712
-21.0,895,1459.888953
-20.0,838,1474.194752
-21.0,906,1489.550693
-21.0,872,1504.301835
-21.0,1005,1521.82708
-19.0,978,1539.320794
-21.0,825,1553.963328
-20.0,952,1570.789952
-21.0,821,1585.386051
-20.0,980,1602.949961
-19.0,1029,1621.306298
-21.0,818,1636.231725
-21.0,851,1651.751893
-21.0,898,1667.80185
-21.0,967,1685.373498
-20.0,938,1701.913033
-21.0,782,1715.855872
-20.0,985,1733.788669
-20.0,1036,1752.027712
-21.0,870,1767.358073
-21.0,910,1783.383868
-21.0,848,1798.656311
-21.0,883,1814.302579
-21.0,847,1830.405299
-20.0,838,1846.076046
-21.0,817,1861.775754
-20.0,836,1877.293611
-20.0,866,1893.728895
-20.0,978,1913.169016
-21.0,1001,1933.65047
-21.0,777,1949.168807
-21.0,759,1964.689689
-21.0,763,1980.028471
-21.0,759,1996.122355
-21.0,758,2012.677618
-21.0,763,2030.012125
-21.0,763,2047.064054
-21.0,764,2064.184784
-21.0,759,2080.813016
-21.0,759,2098.836262
-21.0,763,2117.453375
-21.0,757,2134.352453
-21.0,762,2151.265272
-21.0,758,2168.24648
-21.0,757,2185.114633
-21.0,763,2201.527504
-21.0,762,2218.514246
-21.0,760,2236.308942
-21.0,757,2253.543777
-21.0,762,2270.586329
-21.0,761,2287.323458
-21.0,760,2304.448136
-20.0,901,2324.033756
-21.0,760,2340.980145
-21.0,759,2357.964885
-21.0,763,2374.596869
-21.0,760,2391.708023
-21.0,758,2408.576823
-21.0,760,2425.35732
-21.0,950,2446.285165
-19.0,1069,2469.608207
-20.0,842,2488.675568
-21.0,940,2509.415369
-21.0,819,2527.372208
-21.0,914,2548.388405
-21.0,825,2566.249021
-21.0,1028,2588.816649
-21.0,880,2608.351985
-20.0,931,2628.735815
-21.0,944,2649.576473
-21.0,822,2667.956544
-20.0,974,2689.926492
-21.0,779,2707.65446
-20.0,976,2729.487778
-20.0,830,2748.676339
-20.0,1339,2779.240328
-19.0,974,2801.015209
-21.0,819,2818.867287
-21.0,877,2838.240891
-21.0,819,2856.045499
-19.0,979,2878.049028
-21.0,879,2897.710942
-20.0,1006,2920.807813
-20.0,944,2941.285584
-20.0,902,2962.37633
-19.0,1020,2984.986915
-21.0,805,3002.489954
-20.0,894,3022.36013
-21.0,779,3039.821559
-20.0,1048,3064.031278
-19.0,1011,3086.208249
-20.0,1096,3111.008937
-21.0,849,3130.381749
-20.0,839,3148.793534
-21.0,826,3167.132522
-21.0,822,3185.352501
-21.0,826,3203.702737
-20.0,981,3226.075725
-21.0,779,3242.974377
-19.0,1006,3265.119836
-21.0,943,3286.13947
-18.0,1034,3309.545618
-21.0,908,3330.016419
-20.0,942,3350.580295
-20.0,910,3371.314296
-21.0,849,3390.557731
-21.0,764,3407.190211
-21.0,757,3423.728198
-21.0,760,3441.160216
-21.0,758,3458.019989
-21.0,760,3475.157549
-21.0,759,3491.826758
-21.0,757,3508.465105
-21.0,762,3524.998241
-21.0,880,3544.622155
-20.0,1039,3567.67334
-21.0,823,3585.586025
-20.0,959,3607.319334
-21.0,998,3630.439227
-21.0,821,3648.579156
-21.0,820,3666.723209
-21.0,884,3686.013334
-21.0,825,3704.627867
-20.0,919,3725.108079
-21.0,1153,3750.488188
-21.0,818,3768.788281
-21.0,881,3788.409278
-21.0,837,3806.904372
-19.0,1169,3833.414306
-20.0,1007,3857.337962
-19.0,993,3879.618041
-20.0,917,3899.607224
-21.0,823,3918.439113
-19.0,990,3941.032633
-20.0,1113,3966.269545
-19.0,1284,3994.684922
-21.0,884,4013.913658
-20.0,1082,4038.575846
-21.0,864,4058.09796
-21.0,818,4077.110604
-21.0,879,4096.166525
-19.0,1106,4120.472184
-21.0,883,4139.648311
-21.0,1595,4174.989709
-19.0,997,4196.933222
-21.0,1548,4231.585071
-20.0,2041,4276.488373
-21.0,2097,4322.832514
-18.0,2198,4371.872371
-21.0,822,4390.381522
-20.0,914,4411.174605
-21.0,826,4430.688253
-19.0,1591,4465.771593
-20.0,1885,4508.26405
-21.0,2701,4567.61335
-11.0,3344,4641.564394
-21.0,2274,4692.086775
-21.0,3223,4764.185367
-21.0,2634,4823.410314
-21.0,2816,4885.965587
-10.0,3020,4954.078971
-21.0,2933,5019.996374
-17.0,3092,5088.318698
-21.0,3064,5156.468869
-21.0,3060,5225.687988
-21.0,2144,5273.921458
-21.0,1721,5311.805196
-21.0,2391,5364.513572
-8.0,3991,5453.478848
-21.0,1059,5476.956972
1.0,3892,5563.854095
-4.0,3392,5641.107941
-21.0,1721,5679.034638
-21.0,3795,5762.674332
-11.0,3307,5836.335544
-19.0,3739,5921.802471
-21.0,3238,5995.243618
-21.0,3242,6067.299513
-21.0,3475,6145.321078
-21.0,2870,6208.309913
-19.0,4347,6305.755288
-21.0,3387,6382.304202
-13.0,4988,6494.486336
-19.0,3986,6582.540936
-20.0,2428,6637.495193
-19.0,3155,6707.654122
-11.0,5475,6831.973994
-19.0,4710,6937.817629
-19.0,2753,6998.673074
-21.0,1602,7034.287296
-21.0,2357,7086.29363
-15.0,3888,7173.228873
-21.0,826,7191.484121
-21.0,822,7210.16606
-21.0,886,7229.774562
-15.0,3586,7309.405671
-21.0,4020,7399.525149
-21.0,2635,7457.138028
-11.0,3772,7541.12039
-21.0,3244,7613.47883
-12.0,4419,7713.38333
-21.0,4747,7820.223785
-19.0,3970,7908.083468
-12.0,4327,8005.513636
-21.0,4270,8100.08075
-21.0,5684,8227.311676
-21.0,3310,8301.273323
-21.0,3242,8373.265059
-16.0,3448,8451.528036
-21.0,3560,8530.096734
-18.0,2840,8593.013538
-16.0,2681,8654.843363
-21.0,3177,8726.168536
-12.0,3381,8801.204581
-21.0,3240,8873.321054
-17.0,3856,8959.056188
18.0,1985,9002.156206
12.0,2737,9063.355804
-21.0,3242,9136.678786
-19.0,2065,9183.036264
4.0,4172,9277.897989
-15.0,3452,9355.426466
-18.0,2959,9420.654054
-9.0,5139,9539.212911
-21.0,3242,9611.845508
-16.0,3699,9696.429327
-20.0,3057,9763.810763
-19.0,4481,9864.705823
-18.0,3333,9941.626533
-13.0,3099,10011.147686
-8.0,3431,10087.189282
-12.0,3054,10156.762418
-18.0,1995,10200.561346
-19.0,2818,10263.65699
-4.0,3162,10333.619494
-16.0,2818,10395.744264
21.0,1712,10434.587624
-2.0,4029,10524.274177
-16.0,2830,10588.440143
-15.0,3503,10667.104106
-18.0,2493,10722.350692
-15.0,3717,10805.845075
-20.0,2285,10856.791502
-19.0,3531,10935.069881
-21.0,3082,11004.017641
-7.0,3765,11087.806471
-11.0,4287,11184.500772
-13.0,4326,11280.331048
-19.0,1932,11323.020357
-19.0,3803,11406.859506
-21.0,3907,11498.150407
-18.0,4884,11605.967732
-19.0,3230,11677.857549
-18.0,3479,11755.5801
-18.0,2466,11811.863291
-19.0,2793,11873.059331
-17.0,3482,11950.89598
-13.0,3371,12025.923426
-10.0,6574,12173.406314
-8.0,5066,12285.361621
2.0,6333,12425.832994
-17.0,3387,12501.183733
-15.0,3976,12590.514656
-19.0,4149,12684.229249
-9.0,6297,12827.460552
-20.0,3605,12906.705481
4.0,4040,12995.911296
4.0,4149,13088.545635
9.0,3495,13168.065683
-15.0,3322,13243.59706
-5.0,5003,13355.683781
-19.0,3109,13425.456633
-13.0,3007,13492.052189
12.0,3473,13570.228651
-21.0,3431,13648.078948
-7.0,3972,13736.587678
-16.0,2568,13793.820775
-13.0,3412,13870.338871
18.0,2059,13915.971183
-12.0,3597,13996.622105
1.0,4278,14091.067952
-21.0,3078,14160.607162
14.0,2582,14217.760141
-9.0,3732,14300.744463
6.0,3800,14385.830201
-10.0,3347,14460.528156
-21.0,3290,14533.153215
12.0,3099,14604.384054
-21.0,3117,14674.055685
20.0,1815,14716.599557
5.0,3717,14798.566848
-17.0,3541,14877.215371
-21.0,3242,14949.978762
-20.0,3191,15020.618567
-6.0,4136,15113.615436
6.0,3829,15198.369225
-8.0,4049,15290.349452
-8.0,4469,15390.115144
-10.0,3676,15472.383479
-12.0,3620,15553.842487
15.0,2470,15608.558254
1.0,4495,15709.610311
-21.0,3243,15783.354078
-21.0,3243,15855.438344
1.0,5471,15977.661125
1.0,4449,16078.17091
17.0,2256,16127.661268
12.0,3087,16197.308737
11.0,2886,16261.88481
14.0,2582,16319.846681
7.0,3770,16403.784816
-8.0,4054,16495.059407
6.0,4102,16586.320209
1.0,4616,16690.539909
-6.0,4022,16781.230232
5.0,3826,16867.878993
-11.0,3246,16941.064527
-10.0,3369,17018.692638
17.0,2328,17070.664812
21.0,1731,17108.981407
9.0,3236,17180.059918
1.0,4677,17284.365634
4.0,4029,17374.286614
-15.0,3057,17444.821721
21.0,1713,17482.768566
5.0,4019,17573.340947
9.0,3172,17643.048705
4.0,4327,17740.464272
21.0,1692,17778.081358
19.0,1944,17821.854949
15.0,2436,17876.336687
-1.0,4862,17986.353822
4.0,4798,18094.003997
-8.0,4659,18197.332561
10.0,3191,18269.279536
-9.0,4625,18372.43332
18.0,2061,18418.746788
2.0,5271,18536.361557
-1.0,5784,18664.08549
7.0,4477,18764.614914
20.0,1987,18808.230863
9.0,3841,18893.38871
7.0,4150,18986.011362
19.0,1945,19029.165118
4.0,4563,19131.548001
20.0,1787,19170.921351
8.0,3886,19257.641222
-21.0,3240,19330.413561
-21.0,3240,19402.81779
18.0,2040,19449.108648
12.0,3579,19529.253255
-5.0,4625,19632.031199
-8.0,4018,19721.719094
-4.0,5144,19837.214775
21.0,1697,19874.798325
14.0,2602,19932.224961
21.0,1694,19969.648556
3.0,5317,20087.725414
8.0,4143,20179.786105
21.0,1691,20217.977962
12.0,3490,20296.488423
11.0,3558,20377.261807
2.0,4792,20483.318718
20.0,1819,20523.471235
-6.0,5399,20643.080757
9.0,3936,20729.69142
11.0,2974,20798.409853
21.0,1694,20836.142823
8.0,4536,20936.379497
13.0,3728,21020.5971
14.0,3704,21103.36996
-18.0,4336,21200.657897
-3.0,5623,21325.898618
17.0,2326,21378.967564
5.0,5343,21498.904993
3.0,6211,21638.447441
4.0,5623,21762.940895
19.0,1961,21807.425595
5.0,5488,21931.696074
7.0,5311,22049.290104
4.0,5967,22182.03817
20.0,1820,22222.040299
8.0,5406,22344.426506
6.0,5223,22460.647316
16.0,2449,22517.155947
-2.0,5858,22650.264238
14.0,2740,22711.069959
5.0,5878,22843.252033
21.0,1698,22881.236919
12.0,3760,22965.240746
6.0,4194,23057.631118
-3.0,5059,23171.453316
9.0,3910,23260.301379
-1.0,5649,23387.744796
15.0,3790,23472.285599
6.0,5018,23588.874394
9.0,3469,23667.348897
15.0,3578,23747.34918
20.0,1909,23789.552964
15.0,2986,23857.111353
16.0,2920,23924.978249
21.0,1691,23963.15882
20.0,1988,24006.897801
21.0,1890,24049.656131
20.0,1791,24088.687399
20.0,2804,24151.232011
16.0,3511,24228.805053
21.0,2791,24292.546087
20.0,2982,24358.283973
21.0,1697,24396.862252
17.0,3215,24467.861571
21.0,1892,24510.160771
20.0,2792,24572.052503
16.0,2528,24628.271012
19.0,2992,24695.313487
19.0,3197,24766.292954
20.0,2958,24832.496422
21.0,1694,24870.242696
21.0,2788,24932.994092
19.0,2045,24979.046103
21.0,1692,25016.237145
20.0,1947,25059.530483
21.0,2850,25122.798818
21.0,1695,25160.225051
20.0,1792,25199.907767
21.0,1692,25237.584003
16.0,2607,25297.246272
21.0,2850,25360.519714
20.0,3023,25427.233889
3.0,4611,25531.741765
15.0,3664,25615.037399
20.0,1941,25659.037965
21.0,2788,25721.102302
20.0,1938,25763.663436
21.0,2834,25826.24209
21.0,1697,25863.819787
21.0,2855,25929.052809
20.0,2845,25992.147777
21.0,1698,26030.732987
20.0,3162,26101.22103
20.0,3943,26191.143079
21.0,1693,26229.068386
21.0,2852,26292.704425
21.0,2787,26355.736783
18.0,3212,26427.525227
20.0,3409,26503.460186
19.0,2030,26548.249736
21.0,1698,26585.963454
21.0,1693,26623.265867
21.0,2855,26688.066193
20.0,6342,26829.930939
21.0,1697,26867.592968
21.0,1692,26904.750741
21.0,1694,26943.312321
21.0,1695,26982.037336
17.0,2407,27035.156179
19.0,1841,27076.403471
18.0,2219,27125.706781
21.0,1692,27163.779737
20.0,1811,27203.537681
