# {"t_start": 1546716372.7828138, "env_id": "AssaultNoFrameskip-v4"} 
r,l,t210.0,539,14.273156
357.0,757,27.122085
252.0,612,37.902762
504.0,783,52.301791
399.0,657,64.936803
252.0,443,73.644003
315.0,540,84.647823
357.0,507,95.467431
399.0,692,110.20418
336.0,734,126.776253
315.0,828,145.364303
378.0,600,159.052891
378.0,580,172.396427
399.0,662,187.186004
336.0,479,197.513097
273.0,476,207.750431
294.0,525,219.297128
294.0,687,234.520625
420.0,641,248.621216
273.0,524,259.960892
315.0,571,272.312073
420.0,583,284.836195
399.0,599,298.163375
525.0,800,315.795418
378.0,773,333.595414
483.0,799,351.378227
441.0,699,366.890201
378.0,525,379.016667
315.0,626,393.121708
399.0,605,406.286435
378.0,636,420.008942
609.0,1183,446.157588
441.0,595,459.14331
294.0,379,467.418149
399.0,509,478.679997
378.0,603,492.064866
273.0,508,503.591216
210.0,547,516.307973
462.0,643,530.463163
588.0,758,547.235153
399.0,596,560.551946
483.0,621,573.94164
378.0,793,591.34147
483.0,965,613.319662
252.0,555,625.508807
588.0,782,643.024622
714.0,1063,666.156567
357.0,581,679.418293
441.0,824,697.098884
315.0,465,707.269824
651.0,1006,729.305539
714.0,992,750.782877
672.0,1361,782.578515
693.0,1283,811.535062
567.0,1340,841.28822
546.0,677,856.529041
294.0,540,868.389242
567.0,782,885.799298
378.0,739,901.690503
588.0,925,922.11005
651.0,1222,949.311766
672.0,1247,977.262272
714.0,1136,1002.582762
504.0,926,1023.43852
756.0,1126,1048.57781
651.0,1091,1073.174835
693.0,1036,1096.196299
735.0,1254,1124.439921
378.0,701,1141.252462
672.0,1317,1170.375096
693.0,1165,1196.361583
777.0,937,1217.493361
2436.0,4253,1313.933465
714.0,1280,1342.08885
693.0,1023,1365.449645
735.0,1396,1396.829058
693.0,936,1417.715641
777.0,1012,1440.97081
651.0,1045,1464.945787
714.0,905,1484.954394
420.0,732,1500.791002
672.0,967,1522.490171
693.0,968,1543.564945
714.0,1065,1567.292978
756.0,870,1586.26809
693.0,906,1606.183424
693.0,952,1627.426615
714.0,1039,1650.203722
630.0,946,1671.153214
693.0,777,1689.250031
714.0,867,1709.296252
714.0,1028,1732.651424
735.0,1161,1757.943907
756.0,1062,1781.372903
672.0,1178,1808.236518
714.0,903,1827.981681
714.0,1314,1857.171659
714.0,1059,1880.835135
714.0,1047,1903.747286
714.0,1322,1934.138188
672.0,974,1955.643206
693.0,869,1974.604102
693.0,1045,1998.236071
735.0,986,2019.775585
714.0,978,2041.99184
798.0,932,2062.107099
714.0,995,2084.457147
567.0,807,2101.86128
567.0,612,2115.223083
693.0,779,2132.263668
1260.0,1727,2171.065716
798.0,942,2192.455416
567.0,706,2208.238752
630.0,1029,2231.803466
924.0,1249,2259.58356
819.0,1002,2281.29695
714.0,1039,2304.29349
714.0,1026,2326.797894
735.0,803,2345.354578
714.0,810,2364.108492
819.0,999,2387.405299
693.0,900,2407.749463
798.0,992,2429.892273
735.0,1065,2453.271154
777.0,920,2473.34288
693.0,895,2493.018745
672.0,931,2513.720433
672.0,990,2535.900929
756.0,1039,2559.077111
693.0,971,2581.617458
819.0,1163,2608.20033
735.0,1188,2634.35991
777.0,992,2656.728196
567.0,928,2677.19979
756.0,954,2697.836173
735.0,843,2716.725029
714.0,1068,2741.066682
735.0,920,2761.727293
735.0,1035,2784.891153
777.0,818,2802.651127
1575.0,2170,2851.733729
756.0,995,2874.189674
672.0,900,2893.991283
777.0,846,2912.433205
756.0,930,2933.380668
777.0,1025,2956.559139
840.0,850,2975.768691
819.0,1069,3000.002203
798.0,901,3020.105042
756.0,869,3040.134976
735.0,807,3057.467525
714.0,864,3077.238466
777.0,946,3099.210322
672.0,781,3116.608338
1029.0,1331,3146.703725
756.0,909,3167.156539
840.0,998,3188.876775
714.0,809,3206.864813
756.0,838,3226.078374
840.0,938,3246.68122
714.0,873,3266.303908
798.0,896,3286.000102
777.0,877,3305.699571
798.0,903,3325.189377
819.0,994,3347.511407
714.0,942,3368.844821
840.0,992,3391.28627
882.0,958,3412.153383
714.0,988,3434.959242
756.0,974,3457.071477
777.0,908,3476.92483
735.0,960,3497.918147
525.0,636,3512.321121
693.0,741,3529.356418
693.0,906,3550.037116
714.0,824,3568.063275
798.0,883,3588.87228
819.0,1057,3613.777994
798.0,845,3632.3741
777.0,914,3653.492178
756.0,842,3671.506235
735.0,1031,3694.319925
798.0,902,3714.271208
714.0,834,3733.120573
840.0,986,3755.199305
693.0,832,3773.196678
777.0,923,3793.750782
756.0,883,3813.407357
861.0,968,3834.511505
735.0,850,3853.290857
777.0,972,3874.952089
2793.0,3374,3951.6664
693.0,833,3969.832843
840.0,1065,3993.079628
1365.0,1595,4029.176633
756.0,944,4051.38769
756.0,907,4071.390451
819.0,897,4091.93856
1008.0,990,4113.909272
756.0,777,4131.796741
756.0,799,4149.980306
1596.0,2047,4196.606178
756.0,906,4216.776515
756.0,841,4236.262219
756.0,999,4258.239779
756.0,781,4276.157331
735.0,838,4295.198938
756.0,803,4312.769117
777.0,712,4329.160524
798.0,844,4348.062056
798.0,820,4366.195337
819.0,838,4385.153606
693.0,872,4403.981061
798.0,814,4422.462209
777.0,774,4439.720004
693.0,772,4456.644775
735.0,866,4475.531618
777.0,821,4493.998746
777.0,906,4514.142685
693.0,836,4533.237627
1302.0,1468,4565.37203
672.0,710,4581.833522
735.0,771,4598.504069
693.0,815,4616.441354
1575.0,2256,4667.677628
735.0,809,4686.057836
798.0,959,4707.650037
819.0,911,4728.234133
2583.0,2947,4795.542475
672.0,746,4812.32748
819.0,871,4832.523177
756.0,896,4853.198146
693.0,912,4873.542067
735.0,809,4892.031219
714.0,903,4912.084699
525.0,558,4924.427461
777.0,902,4944.614404
819.0,973,4965.936666
672.0,818,4983.63464
693.0,705,4999.130045
1218.0,1214,5026.800637
735.0,926,5047.865916
777.0,815,5066.076019
672.0,818,5084.791894
756.0,838,5103.507185
798.0,882,5122.642484
819.0,887,5142.271138
903.0,836,5160.728198
777.0,906,5180.898663
735.0,835,5199.503696
1659.0,2011,5245.565187
1050.0,1095,5269.988457
777.0,838,5288.683622
819.0,811,5306.228173
861.0,897,5326.529217
756.0,746,5343.615879
924.0,873,5364.01754
819.0,871,5383.135381
798.0,865,5401.960552
861.0,994,5423.895696
714.0,841,5442.478266
651.0,718,5458.39115
903.0,818,5475.946784
1008.0,1174,5501.762321
735.0,821,5520.203831
819.0,768,5537.336085
798.0,959,5558.46008
777.0,875,5578.613475
840.0,875,5598.033225
861.0,935,5619.231248
798.0,907,5639.859674
798.0,1200,5666.802014
735.0,833,5684.802207
798.0,809,5702.688668
714.0,837,5720.516625
756.0,829,5739.285993
798.0,866,5758.367637
861.0,1003,5781.600444
798.0,952,5802.019899
2856.0,3204,5873.370799
777.0,871,5893.188875
714.0,768,5910.241179
777.0,912,5930.218919
819.0,801,5947.936546
798.0,840,5966.213838
2877.0,3078,6034.133451
798.0,845,6054.500766
693.0,817,6073.481658
2667.0,2711,6134.791675
756.0,828,6154.056555
777.0,836,6172.398251
861.0,843,6191.288499
777.0,736,6207.133732
1596.0,1661,6243.860746
819.0,809,6262.421298
798.0,811,6281.18539
777.0,693,6296.632787
840.0,995,6318.925822
777.0,755,6335.542992
2247.0,2434,6390.529109
714.0,943,6411.213771
861.0,964,6432.590183
2835.0,3504,6511.020293
735.0,999,6533.631182
735.0,900,6554.168383
735.0,773,6571.641594
693.0,809,6589.794079
840.0,875,6609.965539
798.0,773,6626.730957
756.0,836,6645.17328
777.0,904,6665.540215
819.0,935,6687.276871
819.0,991,6708.767466
861.0,896,6729.230144
798.0,877,6750.586425
756.0,793,6768.513278
882.0,867,6788.066706
798.0,732,6803.986239
756.0,705,6819.463844
672.0,744,6836.027632
840.0,778,6853.279054
840.0,942,6874.449848
819.0,898,6894.584095
798.0,901,6914.477875
756.0,806,6931.981527
714.0,817,6950.276033
777.0,669,6964.991735
798.0,908,6985.742047
693.0,895,7005.931173
819.0,843,7024.772029
861.0,868,7044.06781
777.0,709,7060.612864
735.0,663,7075.860525
714.0,749,7092.169109
819.0,906,7112.324067
756.0,848,7131.732493
735.0,778,7148.629247
714.0,833,7167.171839
1407.0,1440,7198.700212
777.0,847,7217.835993
693.0,768,7234.736391
861.0,875,7254.488541
840.0,932,7274.534077
630.0,773,7293.044759
714.0,783,7310.537582
546.0,705,7325.931217
777.0,849,7344.182645
819.0,990,7366.110568
798.0,812,7384.365613
714.0,742,7400.975971
693.0,737,7417.160664
693.0,777,7434.143258
777.0,862,7453.342876
714.0,824,7471.651203
756.0,880,7491.263129
693.0,844,7510.36205
735.0,871,7528.859596
798.0,804,7547.131895
735.0,803,7564.385344
735.0,803,7582.56742
819.0,750,7599.620142
777.0,805,7617.186768
756.0,842,7635.805994
1491.0,1569,7670.986993
756.0,803,7688.476271
840.0,847,7706.997762
714.0,876,7726.770024
777.0,949,7747.449913
1239.0,1279,7776.573593
861.0,845,7795.99818
798.0,839,7814.970142
861.0,838,7833.537028
777.0,778,7850.48921
861.0,901,7870.943763
714.0,806,7888.278448
798.0,777,7905.568892
819.0,904,7925.836514
924.0,887,7945.093383
777.0,738,7961.261819
714.0,912,7981.687601
756.0,856,8001.03724
777.0,985,8023.275875
735.0,1033,8046.408061
756.0,911,8067.03108
840.0,834,8085.402425
819.0,809,8103.281082
777.0,787,8120.626192
756.0,882,8139.838011
672.0,900,8159.836773
735.0,744,8176.204518
777.0,1007,8199.128329
777.0,907,8218.976066
714.0,1015,8241.308494
819.0,936,8261.750909
693.0,877,8281.048425
819.0,853,8300.073144
861.0,878,8319.955822
819.0,910,8339.84061
819.0,909,8360.018443
714.0,853,8379.489472
735.0,770,8397.182142
756.0,769,8414.864677
819.0,841,8433.747607
714.0,822,8451.92031
714.0,899,8473.767513
819.0,978,8497.13059
840.0,839,8515.755379
735.0,840,8534.589495
819.0,809,8553.088905
798.0,781,8570.054482
756.0,808,8588.1174
735.0,746,8604.770309
2520.0,3229,8677.376845
756.0,802,8695.501895
777.0,751,8712.294598
756.0,839,8731.044244
714.0,876,8751.235492
1113.0,1279,8779.736919
861.0,779,8797.046268
756.0,918,8817.095478
798.0,976,8838.528844
756.0,744,8854.468063
840.0,809,8872.647397
756.0,868,8891.764812
735.0,812,8909.372763
798.0,797,8927.172906
798.0,780,8944.168756
882.0,934,8964.637568
798.0,933,8985.783722
756.0,917,9006.107658
714.0,805,9023.714069
861.0,1010,9045.885184
819.0,829,9064.674512
735.0,839,9084.007725
2184.0,2338,9135.214234
777.0,751,9151.849605
840.0,910,9171.770568
777.0,768,9189.523977
756.0,840,9208.572194
1155.0,1312,9237.642143
777.0,909,9257.970511
693.0,806,9276.233361
798.0,813,9294.489954
714.0,770,9311.583443
714.0,806,9328.94468
756.0,881,9348.469396
756.0,780,9365.450781
735.0,1065,9389.1399
861.0,998,9411.242939
840.0,850,9429.908198
777.0,790,9447.142892
861.0,875,9465.941142
714.0,765,9483.289293
882.0,948,9505.698006
756.0,904,9525.353867
672.0,791,9542.970424
630.0,735,9558.915348
609.0,834,9577.670885
672.0,865,9597.428072
756.0,969,9618.340592
735.0,838,9637.049377
798.0,906,9657.342512
714.0,909,9677.379216
777.0,911,9697.455374
819.0,780,9714.63203
798.0,990,9736.425885
840.0,967,9757.954963
735.0,964,9779.537796
840.0,848,9798.153541
672.0,941,9819.50374
735.0,847,9837.675158
714.0,839,9856.594818
2814.0,3021,9923.649897
756.0,800,9941.62034
735.0,811,9959.525517
2940.0,3527,10039.332578
840.0,930,10059.706323
2688.0,3044,10130.107224
714.0,896,10149.509778
819.0,808,10167.447837
819.0,834,10186.368618
756.0,899,10207.144581
819.0,831,10225.655046
798.0,877,10245.283859
1533.0,1889,10287.214516
798.0,914,10307.656564
651.0,749,10323.770795
819.0,1027,10346.509086
2583.0,2849,10409.980466
672.0,780,10427.244049
714.0,897,10447.376763
714.0,897,10466.869498
714.0,796,10484.612072
714.0,841,10502.846943
777.0,933,10523.396872
1449.0,1569,10558.257985
609.0,764,10575.119272
756.0,844,10593.753601
777.0,902,10613.808261
819.0,813,10631.788851
735.0,931,10651.878485
777.0,754,10668.741895
850.0,940,10689.085228
819.0,934,10710.043717
588.0,638,10723.832168
1081.0,1213,10751.902449
756.0,872,10770.615827
819.0,858,10789.484831
1134.0,1204,10818.496056
1638.0,1758,10857.306869
1113.0,1192,10884.098709
672.0,868,10904.692187
756.0,866,10924.00185
756.0,862,10943.078706
693.0,800,10960.959596
798.0,844,10980.11556
714.0,878,11000.304227
735.0,810,11019.223699
840.0,1018,11042.464886
735.0,864,11061.41024
819.0,960,11083.234504
756.0,904,11103.493565
756.0,772,11120.312682
819.0,807,11138.006888
819.0,1005,11160.19443
777.0,812,11178.377178
735.0,815,11196.044974
735.0,809,11213.940555
1785.0,1984,11258.401239
672.0,717,11274.095997
1323.0,1440,11306.064581
840.0,900,11326.885456
861.0,934,11347.206044
1176.0,1151,11373.493184
714.0,852,11392.242205
798.0,835,11410.711334
861.0,843,11428.983297
882.0,903,11449.135954
1302.0,1412,11481.684593
672.0,915,11502.022647
651.0,748,11519.473662
798.0,861,11538.500954
735.0,829,11556.838756
819.0,900,11576.34956
840.0,997,11598.489518
714.0,908,11619.167879
819.0,1067,11642.32766
840.0,1066,11666.011986
756.0,966,11687.203008
840.0,1031,11710.15993
819.0,971,11731.199722
756.0,809,11748.833496
819.0,907,11769.748861
798.0,940,11790.88396
1428.0,1566,11825.384458
819.0,1000,11847.349917
987.0,1135,11872.813302
735.0,743,11889.326376
861.0,902,11908.946545
819.0,806,11927.311544
735.0,842,11946.116919
777.0,800,11964.259448
756.0,872,11983.330815
777.0,716,11999.018571
1953.0,2462,12053.985428
798.0,824,12072.816565
861.0,883,12093.111007
861.0,868,12112.184714
1701.0,1730,12151.961804
861.0,908,12172.949637
1344.0,1345,12203.487881
819.0,966,12225.335967
777.0,774,12242.299212
1302.0,1216,12268.983783
840.0,776,12285.861731
840.0,952,12307.967982
735.0,839,12326.114242
735.0,797,12343.786618
903.0,932,12365.179222
1932.0,2260,12415.876149
819.0,877,12435.142278
756.0,875,12454.337837
798.0,962,12475.176893
714.0,964,12496.631077
840.0,888,12516.147329
840.0,783,12533.360161
798.0,972,12555.183316
798.0,771,12572.347824
2667.0,2890,12637.368756
798.0,889,12656.835192
819.0,926,12677.327575
819.0,869,12696.676782
735.0,900,12716.285035
840.0,899,12736.543328
2079.0,2401,12789.260893
714.0,839,12808.159991
672.0,748,12824.98484
1323.0,1442,12857.461093
672.0,707,12873.541507
819.0,841,12892.055591
840.0,931,12912.42507
798.0,864,12931.630512
2730.0,2915,12997.163359
735.0,744,13013.453451
1344.0,1397,13045.219605
840.0,800,13063.145531
1155.0,1168,13089.178439
756.0,924,13109.79195
777.0,777,13126.702706
735.0,802,13145.117468
861.0,886,13164.62238
756.0,843,13182.781957
735.0,847,13201.663749
777.0,938,13221.857182
840.0,871,13241.214763
840.0,875,13260.321115
2520.0,2591,13319.252305
756.0,705,13334.758835
693.0,796,13352.624288
819.0,800,13369.939475
777.0,810,13387.735536
882.0,837,13406.666692
735.0,839,13424.710958
693.0,707,13440.061004
735.0,803,13457.853284
819.0,832,13475.981057
819.0,935,13496.793217
819.0,805,13514.984179
714.0,809,13533.027964
693.0,847,13551.738648
735.0,966,13572.856521
798.0,772,13589.656268
777.0,777,13606.752451
903.0,877,13626.25667
861.0,808,13644.091614
798.0,799,13661.490901
819.0,876,13681.203081
861.0,823,13699.024561
777.0,834,13717.558
861.0,804,13734.942542
798.0,962,13756.149633
735.0,741,13772.273513
693.0,741,13788.909296
2856.0,3341,13864.16722
756.0,841,13883.197317
840.0,807,13901.271957
756.0,761,13917.844503
840.0,801,13936.237833
777.0,780,13953.218647
882.0,825,13971.32318
819.0,874,13991.966486
735.0,796,14010.025729
766.0,851,14028.523658
756.0,807,14045.980372
693.0,804,14064.061467
798.0,852,14082.572349
756.0,902,14102.409056
777.0,802,14119.84285
798.0,777,14136.850691
840.0,834,14155.606034
2268.0,2272,14207.185516
777.0,778,14225.134092
882.0,909,14246.526556
735.0,841,14265.25107
861.0,874,14285.279961
777.0,815,14302.903687
777.0,913,14322.77167
735.0,743,14339.244823
777.0,810,14356.679566
819.0,864,14375.719521
2058.0,2209,14424.853047
840.0,755,14441.255039
882.0,838,14459.481926
714.0,676,14474.583608
777.0,878,14494.713829
714.0,802,14513.353118
756.0,840,14532.777636
819.0,740,14548.889183
1879.0,1709,14587.220818
819.0,742,14603.26306
808.0,777,14620.098491
735.0,771,14638.204729
1071.0,1024,14660.537464
819.0,747,14677.054249
840.0,746,14693.46443
777.0,841,14711.838395
798.0,902,14732.236864
798.0,838,14751.110963
840.0,845,14770.1702
861.0,744,14786.512376
798.0,753,14802.776055
777.0,809,14820.521146
1470.0,1414,14852.30362
1018.0,1057,14875.64661
861.0,847,14895.249284
1134.0,1118,14920.14621
861.0,812,14937.591155
924.0,861,14957.575495
819.0,739,14973.998902
2877.0,2595,15032.400507
3066.0,3054,15101.230518
840.0,841,15119.753535
777.0,808,15137.610939
756.0,744,15153.974226
945.0,908,15173.755945
882.0,879,15194.097577
840.0,801,15212.211608
756.0,711,15228.448166
798.0,778,15246.022919
1974.0,1852,15287.833588
798.0,808,15305.616866
714.0,815,15323.261256
903.0,911,15343.857578
756.0,847,15362.049029
798.0,834,15381.052582
840.0,909,15402.041817
861.0,829,15420.006637
861.0,807,15438.288867
1470.0,1952,15481.080826
735.0,742,15497.589826
819.0,803,15515.034996
756.0,803,15532.473285
903.0,834,15551.090453
745.0,851,15570.097529
756.0,844,15589.103423
777.0,785,15606.443556
798.0,771,15623.371863
1953.0,1810,15664.077701
777.0,834,15682.30815
735.0,781,15699.301475
882.0,747,15716.50868
2856.0,2963,15782.200366
777.0,907,15801.897467
819.0,837,15820.216235
882.0,935,15840.964929
756.0,723,15856.956523
714.0,707,15872.947109
819.0,861,15892.073363
777.0,737,15908.627418
777.0,744,15925.159565
756.0,686,15939.847716
882.0,962,15961.503576
777.0,801,15979.035331
798.0,802,15997.326825
861.0,904,16016.950584
777.0,807,16034.944571
798.0,803,16052.28859
2835.0,3125,16122.73265
861.0,808,16140.382864
819.0,844,16159.703855
861.0,801,16178.831779
1302.0,1373,16209.326306
798.0,747,16225.523368
882.0,861,16244.991395
714.0,813,16263.741326
777.0,750,16280.15524
819.0,840,16298.731205
819.0,776,16315.776246
651.0,864,16335.551867
1932.0,1949,16379.301618
756.0,882,16399.546562
756.0,912,16420.076935
903.0,940,16441.637188
735.0,932,16463.116099
2331.0,2461,16517.490613
819.0,812,16535.623961
882.0,765,16551.913689
2982.0,3080,16620.751741
840.0,740,16636.934777
2436.0,2626,16697.038696
2814.0,2667,16755.825407
861.0,840,16774.30363
903.0,904,16794.35325
840.0,875,16814.186899
798.0,743,16830.526714
924.0,945,16851.747678
819.0,774,16868.971926
861.0,845,16887.34733
756.0,908,16907.533509
2037.0,1831,16948.109418
882.0,835,16967.508005
840.0,846,16986.111499
1239.0,1469,17018.703705
798.0,772,17036.307981
735.0,752,17053.093619
1386.0,1434,17084.87632
756.0,776,17102.589461
819.0,835,17120.757679
861.0,875,17140.675375
756.0,737,17156.991608
819.0,870,17176.694307
798.0,870,17196.926845
693.0,783,17214.467509
1281.0,1217,17241.145693
882.0,899,17261.142749
651.0,831,17278.913521
1974.0,1835,17322.4835
882.0,841,17340.84463
1785.0,1852,17382.364009
840.0,906,17402.546842
840.0,905,17422.398286
735.0,813,17440.547937
1029.0,1051,17464.224061
819.0,900,17484.789546
924.0,908,17504.649021
1281.0,1149,17530.127564
945.0,955,17550.841971
840.0,744,17567.130086
819.0,844,17585.647766
819.0,845,17604.338093
672.0,770,17621.587449
798.0,834,17640.094537
840.0,906,17659.702849
840.0,804,17677.292186
819.0,919,17698.19493
756.0,769,17715.833
777.0,832,17733.980317
798.0,935,17755.590414
714.0,805,17773.441566
693.0,742,17789.910897
861.0,887,17809.609393
735.0,872,17829.438366
819.0,866,17848.710974
777.0,800,17867.287604
714.0,797,17884.864706
882.0,1002,17906.544188
756.0,805,17925.739811
798.0,800,17943.632493
2919.0,2826,18007.141182
756.0,774,18024.074073
861.0,900,18044.403355
777.0,878,18063.925081
777.0,876,18083.232628
798.0,715,18099.427215
798.0,849,18118.066393
945.0,884,18138.187124
861.0,926,18158.602516
903.0,815,18176.549836
777.0,761,18193.42255
819.0,799,18211.145077
1827.0,1631,18247.596267
672.0,679,18262.204118
777.0,761,18279.354044
693.0,760,18296.745827
882.0,813,18314.228338
1050.0,961,18335.207288
903.0,780,18352.322019
2919.0,2991,18419.02389
756.0,882,18439.262818
714.0,808,18456.802302
1638.0,1754,18495.79397
756.0,810,18513.29632
819.0,926,18533.642838
840.0,849,18552.959997
714.0,774,18570.846651
798.0,716,18587.949207
2835.0,2894,18652.699073
777.0,820,18670.881523
819.0,780,18687.898986
924.0,939,18708.794052
1344.0,1439,18740.161832
2352.0,2561,18798.633525
819.0,932,18819.619335
861.0,839,18838.271428
798.0,863,18857.625721
819.0,753,18874.004344
924.0,860,18893.334564
777.0,745,18909.697216
882.0,841,18927.833525
672.0,678,18943.374888
819.0,842,18962.480638
1008.0,989,18984.514688
861.0,942,19005.731774
693.0,816,19023.42903
777.0,741,19039.896705
756.0,707,19055.155285
756.0,692,19070.886785
777.0,777,19087.911513
735.0,717,19103.954455
840.0,775,19121.657402
735.0,720,19138.102951
1197.0,1151,19163.943772
1449.0,1601,19199.504251
756.0,876,19218.87236
882.0,834,19237.573891
819.0,786,19256.428457
1029.0,903,19276.944291
819.0,911,19297.477464
798.0,712,19313.627704
693.0,836,19332.161784
777.0,775,19349.780285
861.0,907,19369.858317
798.0,839,19389.411129
798.0,778,19406.766001
861.0,951,19427.829093
756.0,770,19445.117224
1953.0,1787,19485.046505
2814.0,2787,19546.271203
2898.0,2701,19607.657755
756.0,772,19624.832971
2898.0,2759,19686.592078
819.0,822,19704.510397
1764.0,1758,19743.469665
903.0,818,19761.425794
2940.0,2881,19825.939333
798.0,847,19845.213239
777.0,833,19863.733311
2856.0,2863,19928.207855
756.0,768,19946.214739
777.0,841,19964.88252
882.0,818,19982.559297
882.0,772,19999.461916
882.0,869,20019.579422
1785.0,1696,20057.612736
882.0,874,20077.573121
861.0,844,20096.607451
819.0,852,20115.619599
840.0,750,20131.936707
1974.0,1946,20177.980292
819.0,789,20195.454859
882.0,827,20214.061155
777.0,757,20231.298307
798.0,775,20249.61392
777.0,813,20267.456933
2856.0,2551,20325.640545
882.0,778,20342.925097
777.0,716,20358.541183
735.0,766,20376.110218
756.0,777,20393.232701
903.0,782,20410.717337
756.0,812,20428.83077
2940.0,2737,20491.002752
2856.0,2858,20556.27632
819.0,806,20574.448354
840.0,798,20592.697116
819.0,787,20609.758435
777.0,848,20628.454088
777.0,779,20645.384702
735.0,827,20663.469233
798.0,721,20679.197062
735.0,706,20694.695889
2100.0,2017,20739.630602
840.0,871,20759.727205
777.0,808,20778.575723
1785.0,1629,20815.079057
1743.0,1759,20854.761217
840.0,901,20874.547088
693.0,802,20892.04426
777.0,777,20909.109746
735.0,785,20926.705436
777.0,874,20946.92935
861.0,923,20968.358948
798.0,953,20989.6855
756.0,902,21009.323442
756.0,818,21027.519999
756.0,746,21044.031466
924.0,948,21064.592548
1764.0,1732,21103.065964
714.0,707,21118.360507
777.0,861,21137.526462
1197.0,1084,21161.618683
2898.0,2875,21225.25328
777.0,801,21243.183391
903.0,961,21264.616672
840.0,813,21283.16121
840.0,823,21301.975741
840.0,784,21319.22876
777.0,802,21336.741054
756.0,832,21355.546953
840.0,912,21375.534603
840.0,851,21395.26496
861.0,764,21412.239001
903.0,918,21432.58628
819.0,814,21450.44068
840.0,844,21469.475565
2898.0,2820,21533.659649
861.0,876,21552.750945
819.0,842,21571.265334
819.0,823,21589.412442
819.0,873,21608.870953
798.0,812,21626.558657
756.0,817,21644.932483
840.0,870,21663.915398
714.0,771,21680.948942
798.0,808,21699.32532
756.0,773,21716.3693
882.0,928,21736.652047
798.0,773,21753.727779
903.0,812,21772.345779
861.0,886,21792.345653
756.0,846,21810.985518
1911.0,1797,21852.673438
798.0,912,21874.01924
840.0,877,21893.911156
693.0,750,21910.337581
966.0,992,21932.05885
819.0,933,21952.909814
840.0,820,21970.657924
861.0,897,21990.826909
903.0,950,22011.458409
1995.0,2049,22058.624037
861.0,843,22077.93398
693.0,829,22096.406793
861.0,871,22115.211618
882.0,773,22133.436903
777.0,687,22148.75044
756.0,772,22166.07855
777.0,898,22186.491814
798.0,908,22206.892512
714.0,746,22223.987967
1827.0,1701,22263.31384
777.0,815,22281.168756
987.0,927,22301.788812
1134.0,1068,22325.580724
714.0,811,22344.640326
735.0,755,22362.653361
882.0,865,22381.751633
777.0,725,22398.550986
819.0,700,22414.619196
777.0,766,22431.567309
777.0,703,22447.011376
882.0,785,22465.066299
777.0,778,22481.991619
2142.0,1952,22525.568791
714.0,734,22541.51954
1785.0,1597,22579.220412
840.0,799,22596.739779
735.0,723,22612.619945
819.0,867,22631.753946
2646.0,2455,22686.86517
840.0,846,22705.463959
798.0,779,22722.305555
798.0,811,22740.65035
735.0,751,22757.889781
672.0,717,22773.25647
882.0,845,22792.544996
756.0,715,22807.888305
840.0,717,22824.197444
798.0,673,22839.774729
756.0,781,22857.271012
756.0,792,22874.839896
777.0,774,22892.541187
777.0,758,22909.533295
798.0,806,22927.139247
777.0,743,22943.191638
819.0,825,22961.769274
756.0,791,22979.77265
819.0,802,22998.367837
903.0,831,23016.251459
819.0,865,23035.737925
798.0,749,23052.480448
735.0,835,23071.101372
1197.0,1116,23095.805735
882.0,783,23113.10845
2856.0,2751,23174.212538
777.0,818,23192.107475
840.0,826,23211.089176
2877.0,2608,23269.27641
735.0,713,23284.781943
882.0,778,23302.175247
1449.0,1376,23332.892998
882.0,811,23350.962922
861.0,875,23370.991332
756.0,778,23388.271367
882.0,850,23407.307637
1302.0,1185,23433.557526
798.0,807,23451.064091
777.0,810,23469.241169
903.0,874,23488.530197
735.0,760,23505.675303
756.0,745,23522.259243
840.0,822,23540.191243
714.0,708,23555.902542
861.0,801,23574.086942
903.0,850,23593.18826
840.0,753,23609.65693
756.0,843,23627.733836
777.0,747,23643.925768
1323.0,1217,23671.257941
840.0,851,23689.937525
1029.0,873,23709.593013
861.0,759,23726.53949
882.0,877,23745.529923
777.0,773,23762.491972
2352.0,2368,23816.407552
735.0,818,23834.709001
861.0,873,23853.815368
798.0,770,23871.000755
882.0,889,23890.606827
924.0,903,23910.224978
840.0,841,23928.429501
798.0,819,23946.565094
840.0,750,23963.616247
1491.0,1441,23995.560494
819.0,800,24014.165666
819.0,867,24033.944533
756.0,714,24051.056818
861.0,748,24067.731674
798.0,809,24085.630802
966.0,817,24104.599697
861.0,784,24121.82941
861.0,826,24139.563805
819.0,840,24158.338519
861.0,877,24178.346005
924.0,875,24197.038676
987.0,843,24216.075702
756.0,904,24235.918036
2604.0,2266,24286.390791
798.0,837,24304.757637
756.0,747,24320.99155
819.0,714,24337.07216
819.0,712,24353.172512
903.0,870,24372.238293
945.0,787,24389.97832
903.0,779,24407.868846
819.0,805,24426.140567
819.0,775,24443.332179
798.0,868,24462.883992
861.0,756,24479.935631
924.0,777,24497.573163
798.0,837,24516.362376
966.0,813,24534.103296
714.0,747,24551.047314
714.0,715,24567.176326
2205.0,2129,24615.400821
798.0,768,24632.8501
840.0,811,24650.615258
903.0,845,24669.968522
798.0,778,24687.179672
777.0,849,24705.657626
756.0,715,24721.78006
819.0,839,24740.371134
777.0,846,24759.001405
735.0,734,24775.029995
672.0,811,24793.32287
714.0,774,24809.976332
882.0,763,24826.407797
798.0,760,24843.735645
798.0,829,24861.739404
819.0,778,24878.869702
798.0,709,24894.452457
798.0,787,24912.032878
756.0,777,24929.229409
714.0,772,24945.972458
924.0,804,24964.400617
2688.0,2292,25016.814833
798.0,710,25032.345611
693.0,760,25049.540376
819.0,805,25067.104073
861.0,870,25086.179421
882.0,814,25104.054589
714.0,767,25121.02321
2688.0,2653,25180.910259
903.0,876,25201.186112
2037.0,1845,25241.760404
819.0,748,25258.568115
1575.0,1407,25289.991962
861.0,842,25309.280008
987.0,907,25329.536139
714.0,807,25347.600265
735.0,813,25365.65657
903.0,740,25381.961157
756.0,779,25399.446378
1932.0,1760,25439.232926
819.0,821,25456.962689
903.0,770,25473.886114
861.0,841,25492.865966
3129.0,2975,25559.431622
2205.0,1917,25602.373468
798.0,746,25618.796263
756.0,738,25635.506644
777.0,744,25652.21068
882.0,843,25670.468251
903.0,873,25689.608714
882.0,812,25707.267232
840.0,913,25727.63197
882.0,872,25746.884029
714.0,683,25762.200516
840.0,739,25779.39197
945.0,809,25797.54184
777.0,771,25814.585487
903.0,772,25832.016699
1113.0,958,25854.88215
861.0,821,25873.964247
693.0,738,25891.280612
798.0,777,25908.028169
840.0,903,25927.348507
1680.0,1597,25963.385033
819.0,702,25978.651791
903.0,881,25997.693825
1449.0,1282,26026.247987
798.0,820,26044.372846
861.0,813,26062.839779
819.0,778,26079.732118
777.0,749,26096.68067
819.0,744,26113.411123
735.0,750,26129.742197
756.0,682,26144.929083
777.0,810,26163.096158
861.0,784,26180.68027
861.0,816,26198.646194
2856.0,2734,26260.015712
882.0,799,26278.458935
840.0,743,26295.137223
756.0,823,26313.503182
756.0,811,26331.621408
819.0,765,26348.97188
798.0,681,26364.108575
1218.0,1083,26388.235967
924.0,784,26406.256452
840.0,748,26423.371135
861.0,742,26439.342627
756.0,800,26457.816722
756.0,809,26476.223239
798.0,777,26493.352469
903.0,781,26510.765918
903.0,804,26528.457867
819.0,829,26547.088031
840.0,867,26565.845412
819.0,774,26583.015449
945.0,877,26602.579409
2898.0,2482,26659.374988
861.0,775,26676.347044
966.0,870,26695.314789
924.0,878,26714.719337
819.0,849,26733.295756
798.0,747,26749.710999
756.0,741,26767.029925
1953.0,1979,26811.739437
861.0,886,26831.329205
882.0,841,26849.622358
819.0,750,26865.829518
840.0,682,26880.746018
777.0,784,26898.167213
2604.0,2368,26951.970137
1554.0,1309,26980.336668
840.0,918,27000.663327
1197.0,1120,27026.028199
756.0,746,27042.360328
861.0,793,27060.061589
1386.0,1247,27089.669188
735.0,747,27106.829088
924.0,783,27124.773989
777.0,771,27142.268511
819.0,758,27159.932641
840.0,909,27181.782164
840.0,750,27198.331307
840.0,802,27216.36336
819.0,734,27232.455438
819.0,817,27251.280596
2541.0,2399,27304.469852
861.0,772,27321.750933
798.0,738,27338.520077
840.0,776,27355.274765
798.0,774,27372.467587
882.0,809,27390.468756
1680.0,1556,27424.537517
798.0,850,27443.404557
777.0,748,27460.1524
1575.0,1438,27491.828907
2646.0,2453,27546.642747
882.0,869,27565.344153
777.0,713,27580.773242
3129.0,2809,27643.256966
861.0,762,27659.913884
2835.0,2522,27716.00987
882.0,764,27731.680513
966.0,851,27748.901972
1722.0,1820,27786.084017
1722.0,1653,27820.215296
882.0,782,27836.266636
819.0,743,27851.001732
819.0,710,27865.476697
882.0,820,27881.948815
819.0,804,27897.954156
756.0,780,27913.380909
819.0,703,27926.936382
2919.0,2793,27980.615
777.0,709,27994.794264
840.0,807,28011.069305
798.0,871,28027.939261
882.0,777,28041.485838
861.0,773,28055.20205
819.0,863,28070.56865
798.0,719,28083.697177
735.0,707,28096.282188
798.0,779,28110.415143
924.0,815,28125.610533
861.0,836,28140.130998
840.0,747,28153.164111
