# {"t_start": 1552336209.0979872, "env_id": "KungFuMasterNoFrameskip-v0"} 
r,l,t
1600.0,902,193.003147
600.0,898,417.048794
600.0,906,603.851331
1400.0,1080,839.638295
300.0,968,1078.397264
700.0,918,1307.612458
200.0,836,1490.883158
600.0,1215,1793.682737
1000.0,1058,2038.961581
500.0,1027,2287.355835
700.0,848,2476.130719
600.0,1009,2717.234134
900.0,1095,2961.854894
2000.0,1255,3261.838312
400.0,907,3496.638106
2300.0,1327,3808.839199
2000.0,1186,4063.828222
500.0,884,4300.804533
1700.0,1244,4604.854189
1200.0,1102,4848.643597
900.0,1029,5096.554941
1600.0,1082,5346.651538
2300.0,1290,5644.999568
2200.0,1146,5937.865972
3500.0,1311,6243.615668
2800.0,1440,6558.05179
2100.0,1099,6848.396513
5800.0,1411,7159.669236
2700.0,1014,7399.742604
6200.0,1517,7762.74941
8900.0,1836,8192.650729
5400.0,1504,8556.144276
10900.0,1775,8980.90366
7000.0,1488,9342.028024
11800.0,2165,9841.698272
10500.0,1902,10318.057821
2200.0,1123,10566.068179
4500.0,1391,10874.765279
6500.0,1624,11284.832659
10400.0,1770,11701.980942
13300.0,2079,12193.345938
11700.0,2152,12690.149715
5900.0,1471,13051.136018
8700.0,1947,13528.735617
10200.0,1891,13958.905571
7200.0,1695,14391.320713
8300.0,1543,14764.062279
15400.0,2313,15303.805604
20400.0,2585,15914.755769
22800.0,3018,16592.387912
8900.0,1572,17010.174712
16700.0,2366,17557.797377
11200.0,1747,17981.432073
11400.0,2052,18470.684565
11000.0,1982,18912.706003
12700.0,1981,19393.940158
7700.0,1639,19763.524738
12300.0,1951,20245.618451
19500.0,2510,20828.054923
13000.0,2079,21318.808873
13100.0,2200,21862.596022
9500.0,1878,22297.230099
19900.0,2427,22851.910728
12600.0,1904,23332.025401
15600.0,2350,23892.288972
4800.0,1301,24199.880204
12100.0,2075,24693.473129
15200.0,2216,25238.489773
10100.0,1903,25666.557403
15800.0,2293,26217.534988
12500.0,1850,26650.616891
6600.0,1467,27016.020497
7200.0,1515,27383.790853
11000.0,1687,27804.400195
14700.0,2092,28303.139003
9600.0,1716,28677.226819
10800.0,1981,29163.160985
8000.0,1554,29532.397568
9500.0,1719,29948.719132
9700.0,1636,30315.609863
9200.0,1949,30803.894919
15000.0,2249,31345.173406
8400.0,1760,31730.584053
9300.0,1815,32201.623639
12000.0,2056,32687.684936
11900.0,2148,33181.972963
12900.0,2033,33664.690056
13000.0,2148,34157.968524
8700.0,1582,34523.847984
13300.0,2322,35081.46629
4800.0,1514,35454.327106
11800.0,2051,35947.657545
8800.0,1643,36365.422735
9000.0,1703,36744.635615
5000.0,1424,37096.549195
11600.0,1980,37570.676612
15900.0,2510,38181.585013
7300.0,1549,38550.757936
19400.0,2799,39167.326656
14700.0,2314,39720.477558
4500.0,1511,40086.606568
18300.0,2371,40685.183597
13700.0,2321,41235.562247
11000.0,1973,41673.346679
16100.0,2508,42292.642183
12200.0,1732,42711.713618
10600.0,1770,43140.754024
12700.0,1776,43568.641991
19100.0,2454,44121.725339
12800.0,2121,44662.402294
16300.0,2383,45215.750428
10500.0,1802,45644.050444
8500.0,1901,46072.973382
3500.0,1173,46364.710155
6900.0,1625,46728.773821
9800.0,1769,47161.575715
13000.0,2023,47644.314756
4100.0,1232,47936.732605
4700.0,1328,48244.521213
11400.0,1945,48733.467014
9200.0,2093,49220.316337
15200.0,2239,49721.28295
14200.0,2162,50257.576692
6900.0,1469,50618.148122
13900.0,2275,51172.507093
7700.0,1635,51539.459713
15800.0,2642,52157.349996
17000.0,2504,52760.529653
10600.0,2042,53237.909733
16700.0,2396,53798.651496
14500.0,2348,54351.658959
12800.0,2185,54887.351213
10200.0,1804,55317.666989
12300.0,1935,55798.946907
10300.0,2038,56283.117764
5600.0,1489,56599.780515
10600.0,2035,57077.055469
9200.0,1547,57437.228925
5300.0,1310,57740.890964
11200.0,2011,58216.069885
14100.0,2241,58666.674926
11300.0,1953,59005.678276
12700.0,2072,59355.291584
15800.0,2436,59750.62905
6900.0,1702,60050.067692
14000.0,2053,60401.210129
12600.0,1932,60707.774864
10700.0,1910,61037.07303
9600.0,1573,61289.260858
9500.0,1794,61582.429741
14200.0,2218,61960.130409
18400.0,2713,62384.021904
14800.0,2382,62765.535231
14500.0,2521,63184.962672
6900.0,1654,63475.529045
7100.0,1461,63693.282236
15700.0,2462,64109.372551
6700.0,1727,64401.457677
10000.0,1857,64698.042569
11500.0,2126,65035.853812
9000.0,1663,65322.346868
16800.0,2359,65699.408788
13600.0,2241,66072.476215
9900.0,1729,66330.715344
9500.0,1766,66622.244527
18100.0,2656,67072.994984
20400.0,2633,67493.755425
6800.0,1604,67743.478409
6800.0,1627,68030.764651
12300.0,2198,68373.370665
14300.0,2190,68744.2761
15600.0,2293,69116.707042
13800.0,2280,69493.434662
12200.0,1876,69790.530288
16100.0,2390,70171.677086
18500.0,2703,70623.869825
13900.0,2417,71001.38285
15500.0,2419,71409.470029
7300.0,1587,71662.505358
10800.0,1925,71958.182539
7400.0,1470,72201.882235
20600.0,2915,72663.905111
3800.0,1118,72863.90443
10700.0,1925,73159.88693
6700.0,1438,73409.528319
10100.0,1693,73696.519122
9900.0,1942,73992.245386
7800.0,1738,74281.520501
7600.0,1576,74532.088921
7900.0,1894,74826.815898
14000.0,2213,75195.906724
17400.0,2430,75573.769918
15500.0,2253,75943.868789
18900.0,2940,76436.127824
5300.0,1305,76645.166892
11500.0,2135,76978.895559
19200.0,2810,77433.786481
14100.0,2247,77805.663047
13000.0,2074,78140.098513
6800.0,1589,78387.211724
13000.0,2027,78713.839182
15800.0,2453,79119.022791
6900.0,1527,79369.075593
13900.0,2008,79648.144765
11700.0,1954,79917.099274
13000.0,1990,80185.340526
11500.0,1949,80423.454346
11900.0,2174,80722.68521
7500.0,1601,80926.06717
9600.0,2020,81194.944087
14200.0,2070,81461.986991
3900.0,1360,81635.530746
11400.0,1910,81906.413448
7600.0,1819,82145.045702
22300.0,3195,82552.473354
14300.0,2214,82853.528561
10500.0,2058,83125.314913
7400.0,1809,83361.793951
18000.0,2772,83732.204999
13700.0,2140,84003.924297
8900.0,1902,84271.889208
9800.0,1907,84510.874485
8200.0,1768,84744.461825
5200.0,1468,84943.309325
14700.0,2454,85248.754358
10100.0,1931,85512.665916
12600.0,2230,85810.377712
8200.0,1776,86042.926661
11400.0,1895,86280.021001
16600.0,2941,86653.92128
20700.0,2960,87052.336195
7400.0,1771,87284.928324
16100.0,2741,87650.923498
12400.0,2194,87922.125434
8900.0,2111,88193.937891
8500.0,1917,88423.077385
14100.0,2323,88634.995169
9900.0,2073,88821.209227
12300.0,2174,89013.762621
7300.0,1917,89197.038867
10300.0,2183,89387.389965
10000.0,1729,89549.018648
11200.0,2133,89740.26342
13400.0,2241,89927.95891
9200.0,2133,90109.192717
8600.0,2064,90273.85227
10500.0,2014,90422.487782
11400.0,2252,90604.828097
5600.0,1446,90726.08252
12000.0,2658,90932.159743
12200.0,2849,91157.433543
11200.0,2124,91339.294276
7700.0,1823,91483.600031
13300.0,2374,91671.55267
6600.0,1834,91814.578627
10900.0,2271,91997.338213
11100.0,2236,92179.239141
12900.0,2422,92364.819518
4800.0,1702,92506.819403
9100.0,2195,92674.067894
4200.0,1411,92793.907555
8000.0,1867,92938.048595
8600.0,1709,93092.756201
7800.0,1893,93320.141776
4200.0,1469,93550.046945
5800.0,1689,93850.2145
9100.0,1905,94157.648094
9800.0,2017,94503.233773
10000.0,2075,94851.49765
2900.0,1241,95067.23678
7800.0,1800,95371.880441
6200.0,1532,95633.779583
12100.0,2278,96025.530282
10500.0,2018,96359.816992
7800.0,1747,96601.840209
7700.0,1581,96832.490003
12000.0,2233,97177.204469
11400.0,2298,97524.795349
10600.0,2051,97831.335113
10600.0,2125,98139.76322
9200.0,1820,98444.208035
13800.0,2466,98799.876931
6100.0,1458,99029.686452
11300.0,2222,99375.714208
12100.0,2254,99692.307537
9900.0,1975,100003.259335
10900.0,2099,100317.252612
13900.0,2496,100705.715675
10900.0,2125,101019.57449
11200.0,1878,101326.791888
6400.0,1521,101529.029447
10800.0,1929,101837.836334
15500.0,2714,102265.736047
11100.0,2512,102623.753725
16800.0,2719,103046.164926
9500.0,2088,103372.8903
7600.0,1817,103684.862995
14000.0,2508,104129.846927
9200.0,2034,104480.952098
21100.0,3474,105069.723196
12900.0,2384,105453.586965
8500.0,1908,105754.816545
10300.0,2215,106132.695251
12700.0,2318,106517.886193
15600.0,2804,106988.81668
13200.0,2541,107418.976356
10500.0,2391,107806.666188
8700.0,2160,108186.978771
6300.0,1801,108488.634477
13000.0,2462,108880.409055
10500.0,2112,109225.167844
11400.0,2131,109600.703158
11800.0,2349,109986.351295
8400.0,2012,110322.618654
11900.0,2364,110705.717494
4500.0,1565,110962.433606
13400.0,2755,111428.412409
10700.0,2293,111810.774563
11400.0,2314,112191.725841
18000.0,3086,112703.366625
12300.0,2358,113094.076885
10800.0,2252,113475.150771
11400.0,2211,113819.845899
12000.0,2384,114240.389054
12700.0,2826,114711.331908
4600.0,1485,114964.448421
11500.0,2340,115350.422949
3700.0,1671,115613.06066
11100.0,2279,115997.336644
11300.0,2090,116344.549069
9600.0,2292,116729.571975
12100.0,2605,117160.75719
6900.0,1841,117494.201525
10100.0,2398,117882.145195
7500.0,2149,118232.466474
8000.0,1925,118570.960248
7500.0,1805,118869.832235
5700.0,1623,119129.43247
8000.0,1922,119464.796429
6400.0,1801,119760.336678
4800.0,1378,119978.014468
15000.0,3071,120493.188581
8400.0,2036,120832.920559
7000.0,1787,121131.19804
17900.0,3450,121691.422893
13900.0,2710,122157.507403
14700.0,2690,122590.955484
13300.0,2577,123056.948132
6000.0,1671,123316.271444
12600.0,2248,123702.329206
8200.0,1745,123997.436111
16300.0,3011,124472.926412
11700.0,2276,124858.427653
8700.0,2037,125198.477481
11600.0,2509,125625.451568
10200.0,2212,126005.412465
11500.0,2300,126393.309365
10500.0,2256,126741.479869
14400.0,2694,127205.680196
13200.0,2676,127635.792758
10700.0,2073,127979.618909
6800.0,1881,128319.849817
10300.0,2292,128704.98711
9800.0,2124,129051.656732
8400.0,2093,129400.291306
13900.0,2822,129871.770131
14100.0,2779,130342.336011
9400.0,2172,130691.955925
12000.0,2499,131119.670782
6800.0,1871,131453.886698
15800.0,2606,131888.120165
9100.0,1862,132190.701314
7300.0,1819,132490.979333
9600.0,2090,132837.521948
15000.0,2551,133266.266819
13100.0,2097,133605.127092
12900.0,2595,134032.648079
6800.0,1643,134328.027348
19200.0,3236,134845.338724
13600.0,2344,135267.548314
10500.0,1933,135573.791796
13000.0,2417,135993.461566
14800.0,2273,136345.442222
6900.0,1898,136683.576719
18200.0,2889,137161.332676
8000.0,1860,137460.419735
6300.0,1466,137709.621556
14500.0,2443,138133.188497
11200.0,2117,138480.758377
15700.0,2799,138951.677403
7800.0,1726,139250.678397
11600.0,2453,139639.318183
13500.0,2293,140019.962752
11400.0,2453,140434.584016
10900.0,2563,140851.10306
7600.0,1696,141104.405981
11800.0,2674,141556.321027
18500.0,3418,142099.309958
8500.0,1812,142391.948165
5900.0,1756,142680.893831
10600.0,2128,143016.299308
11000.0,2119,143384.104571
6700.0,1716,143638.768849
15100.0,2638,144056.463114
11300.0,2131,144427.439302
13600.0,2408,144809.284202
6500.0,1913,145135.186158
11300.0,2104,145472.100592
17400.0,3376,146016.129226
6500.0,1452,146262.507033
8200.0,1762,146550.939932
12600.0,2686,146970.241567
16200.0,2829,147426.15841
15400.0,2916,147876.811281
10600.0,2114,148234.233318
13800.0,2514,148640.170722
5900.0,1280,148848.101145
8900.0,1870,149170.399731
10700.0,1915,149498.798441
17400.0,2939,150048.985
8800.0,1843,150373.302356
14900.0,2471,150850.60096
6300.0,1787,151171.831303
11800.0,2348,151593.749121
8700.0,1818,151924.191133
5400.0,1394,152164.958225
8400.0,1964,152544.949803
10000.0,2123,152912.884963
14300.0,2814,153432.791296
10000.0,2034,153811.983765
9800.0,2221,154227.84417
14200.0,2405,154653.533436
7300.0,2114,155031.11033
6500.0,1961,155411.688163
8100.0,1803,155737.218112
11500.0,2611,156204.290444
8400.0,1971,156582.262533
7600.0,1685,156907.029335
12500.0,2438,157330.108628
8100.0,1726,157654.648844
14500.0,2738,158127.101125
15500.0,2847,158681.479718
10600.0,2127,159061.395096
9000.0,1917,159404.514006
8400.0,2154,159820.05823
14300.0,3057,160392.314029
6200.0,1589,160676.565804
6600.0,1834,161001.522687
15300.0,2821,161509.977553
15700.0,2775,162024.524626
14300.0,2936,162547.074366
5600.0,1655,162874.431978
14100.0,2639,163339.81386
8600.0,1967,163709.366972
9800.0,2022,164079.513566
14700.0,3098,164647.127393
7200.0,1913,164975.145875
15700.0,2764,165467.081628
13400.0,2579,165923.736177
5300.0,1522,166199.885906
14000.0,2744,166701.941204
15800.0,2941,167203.938706
10600.0,2511,167651.387429
11600.0,2308,168035.993229
11200.0,2055,168369.799893
11700.0,2387,168754.281849
7300.0,1893,169081.658956
11400.0,2274,169419.855234
9600.0,1923,169749.843888
18200.0,2946,170213.162876
10400.0,2235,170593.296946
4700.0,1516,170837.569294
8900.0,2216,171211.962308
9500.0,2057,171560.778283
14200.0,2580,171999.746823
15400.0,3280,172558.480077
19700.0,3591,173143.47412
11600.0,2143,173490.325174
9300.0,2251,173857.649029
18600.0,3247,174358.326502
15300.0,2827,174826.239815
10900.0,2249,175146.330873
14900.0,2791,175581.896959
8000.0,1899,175886.9715
10900.0,2196,176209.66575
8300.0,2239,176566.87656
12000.0,2239,176930.318454
13000.0,2459,177301.859027
8900.0,1949,177614.083819
7700.0,1715,177885.22727
12700.0,2449,178250.077229
13800.0,2417,178625.985335
11200.0,2177,178983.480649
8400.0,2143,179293.910383
10900.0,2052,179595.259108
13400.0,2651,179995.401429
10000.0,2157,180294.751623
8000.0,1825,180557.810557
9200.0,2066,180855.762149
12300.0,2407,181221.178677
13900.0,2880,181633.078201
16100.0,2675,182006.610018
8300.0,1803,182267.003065
14100.0,2562,182636.712351
16700.0,2940,183077.51655
8600.0,1716,183335.449066
12500.0,2549,183701.839114
10600.0,2267,184091.96658
9700.0,2062,184436.065742
10300.0,2495,184862.215791
8000.0,1935,185207.502907
18400.0,2780,185639.523888
8700.0,1840,185975.139646
9400.0,2163,186320.402915
12900.0,2347,186708.78348
8900.0,1811,187009.457729
9700.0,2147,187383.293226
7800.0,2051,187727.855217
7000.0,1640,187988.453572
9700.0,2066,188332.180754
25500.0,4079,189015.356555
10800.0,2165,189399.105659
11300.0,2125,189746.613896
9800.0,2078,190091.2514
16300.0,3099,190607.093363
26400.0,4225,191335.19454
17900.0,3218,191856.465303
9700.0,2020,192202.957567
16400.0,3084,192721.832068
7800.0,1871,193019.065835
14700.0,2720,193492.443534
18200.0,3069,193999.517967
9000.0,2072,194338.515054
14000.0,2513,194768.393291
15200.0,2740,195208.347124
18600.0,2993,195718.158329
16100.0,2691,196184.105136
10500.0,2299,196571.409995
9400.0,2109,196915.016968
13700.0,2501,197342.530758
11600.0,2176,197695.164509
19100.0,3211,198245.045753
10000.0,2194,198597.083825
8000.0,2025,198942.986452
18500.0,3140,199461.283146
12800.0,2414,199880.993035
22500.0,3782,200489.231694
11000.0,2201,200871.123683
10600.0,2464,201292.61487
12200.0,2197,201639.322347
10900.0,2414,202064.586451
20600.0,3302,202625.897713
15600.0,2529,203029.045725
18200.0,3215,203594.037097
13400.0,2782,204061.377014
7100.0,1817,204359.990062
15600.0,2672,204791.628268
20300.0,3215,205358.598076
7900.0,1895,205671.881329
12600.0,2361,206067.323795
10500.0,2235,206448.915067
14000.0,2981,206958.857408
10100.0,2032,207312.803029
15100.0,2823,207793.790675
6700.0,1722,208054.08387
7200.0,1658,208349.008007
11200.0,2305,208745.735183
24300.0,3960,209406.782495
16300.0,2458,209833.10754
15500.0,2840,210306.743382
18600.0,2987,210817.40526
11500.0,2334,211205.285788
17600.0,2848,211680.760131
19300.0,3139,212203.449105
13400.0,2492,212628.35494
13100.0,2453,213021.344457
15800.0,2673,213490.10994
12300.0,2316,213882.621445
21200.0,3806,214531.253926
10600.0,2110,214880.254001
29400.0,4514,215657.339181
13400.0,2609,216099.350825
16500.0,3064,216628.683265
16900.0,2564,217079.9936
11300.0,2529,217528.194836
12900.0,2630,217972.977846
