# {"t_start": 1552336211.0328164, "env_id": "KungFuMasterNoFrameskip-v0"} 
r,l,t
500.0,999,198.294647
300.0,1162,482.287316
1000.0,808,661.262985
200.0,1037,896.520491
1000.0,1182,1191.586007
700.0,1052,1433.048968
200.0,936,1623.154633
100.0,1053,1914.181448
1000.0,1000,2113.791274
800.0,1050,2408.704993
300.0,1138,2657.692405
1200.0,1054,2901.079436
1200.0,886,3129.372332
1000.0,1053,3374.820653
900.0,820,3560.716118
900.0,1041,3809.743558
1100.0,1086,4058.194591
1300.0,1158,4357.076439
2200.0,1338,4668.756648
1100.0,918,4854.884142
3200.0,1218,5161.611519
2400.0,1226,5461.806323
3300.0,1105,5702.470978
2500.0,1217,6000.471948
2700.0,1067,6248.241785
5500.0,1438,6605.07127
3800.0,1202,6860.39042
5400.0,1590,7271.188758
4900.0,1598,7638.132505
8100.0,1930,8073.113885
2700.0,888,8309.968656
7500.0,1622,8677.476137
8300.0,1434,9033.816986
4900.0,1635,9405.424019
3900.0,1111,9656.013252
4400.0,1237,9963.139944
8300.0,1910,10438.244357
7600.0,1629,10803.492991
8000.0,1629,11173.345512
8400.0,1809,11594.56334
10400.0,1914,12071.859457
8600.0,1744,12501.101925
9500.0,1721,12874.17808
6700.0,1838,13343.791535
3100.0,1203,13597.620814
7100.0,1411,13956.864042
5600.0,1410,14276.152411
8400.0,1451,14642.763524
8200.0,1511,15008.04363
4700.0,1667,15376.674223
10900.0,1820,15806.689626
11300.0,2226,16340.748598
12300.0,2073,16834.27632
6900.0,1198,17137.014444
10800.0,1899,17565.118004
19400.0,2804,18235.433285
11700.0,1469,18600.041671
8500.0,1817,19027.354168
8500.0,1672,19444.047327
11800.0,1857,19875.921438
12700.0,2092,20364.622171
13600.0,1893,20772.481445
14300.0,2292,21323.425959
11400.0,1992,21808.256664
9100.0,1573,22180.881336
15500.0,2275,22726.842826
13900.0,2170,23267.943242
15400.0,2382,23829.538843
12600.0,1928,24263.215981
8300.0,1436,24626.371989
8400.0,1640,25000.551535
9300.0,1608,25413.87683
12800.0,2100,25910.741942
12000.0,1916,26343.186836
15200.0,2463,26950.515316
3900.0,1177,27204.441168
9700.0,1721,27628.967581
11000.0,1868,28064.508136
14200.0,2054,28557.610411
6100.0,1482,28921.764088
15200.0,2168,29464.250791
4100.0,1115,29710.751254
9000.0,1705,30125.05829
14800.0,2130,30624.472087
9700.0,2024,31109.365019
11800.0,2006,31591.161608
5400.0,1366,31909.829506
12200.0,1881,32336.25749
14200.0,2210,32877.565764
7500.0,1660,33250.96007
11000.0,1908,33726.595313
5300.0,1398,34039.97029
10500.0,1905,34513.662789
6600.0,1766,34946.260461
8700.0,1732,35330.932807
9600.0,1711,35756.174026
11900.0,2069,36250.399252
10200.0,1975,36734.678468
7500.0,1882,37159.220485
16100.0,2587,37760.99797
7100.0,1453,38126.149584
14200.0,2020,38613.812433
7200.0,1581,38982.490379
13100.0,2189,39519.404135
12100.0,2093,40013.237561
13300.0,2090,40506.024929
9500.0,1661,40880.99189
9400.0,1591,41297.109297
10000.0,1917,41733.728584
12300.0,2178,42281.890057
16700.0,2424,42835.591005
12200.0,2026,43328.396057
21200.0,2778,43991.168751
11000.0,1880,44423.700145
10700.0,1688,44847.846497
17300.0,2486,45407.20038
8800.0,1670,45825.440513
12200.0,2282,46361.715233
7300.0,1402,46668.160339
14300.0,2194,47216.307611
4700.0,1226,47515.257982
12200.0,1964,47942.043088
14000.0,2088,48439.647014
4200.0,1163,48737.47326
7900.0,1902,49166.043807
10400.0,2024,49655.147384
11400.0,1980,50133.674585
11900.0,2095,50625.966459
9400.0,1805,51060.924969
8700.0,1964,51537.587765
12700.0,2021,52023.972595
11500.0,1839,52455.232496
11300.0,1833,52883.726418
13900.0,2400,53429.98085
7200.0,1455,53794.340321
10400.0,2031,54281.035035
13700.0,2155,54772.55505
15200.0,2148,55313.338183
8700.0,1819,55742.574421
3300.0,1277,56047.279497
5100.0,1192,56296.704512
13700.0,2239,56838.514615
4100.0,1205,57133.872547
16000.0,2281,57670.510922
7900.0,1678,58037.173434
8800.0,1708,58449.44782
10100.0,1872,58755.127437
6200.0,1503,59010.940026
12100.0,1991,59357.625825
8500.0,1826,59663.184502
17900.0,2427,60090.993455
9600.0,1913,60402.235176
9800.0,1700,60700.219614
13900.0,2115,61037.072607
9800.0,1648,61292.023911
8200.0,1797,61585.186664
6600.0,1720,61879.825285
10400.0,1964,62209.353073
10900.0,1989,62509.15755
10500.0,1723,62802.439134
10300.0,1860,63100.193621
3800.0,1276,63310.075744
11800.0,1926,63644.657373
11100.0,2070,63982.826376
12400.0,2089,64319.767701
18900.0,2943,64819.034329
18900.0,2888,65279.045132
11400.0,1909,65576.363569
17500.0,2565,65992.346313
19700.0,2731,66448.610937
14100.0,2319,66826.206349
9100.0,1603,67077.394733
18000.0,2698,67530.659068
14900.0,2391,67908.947177
9200.0,1715,68199.102337
17700.0,2848,68661.435499
15400.0,2329,69036.704266
11000.0,2054,69370.950378
15100.0,2417,69755.242315
8700.0,1548,70004.61082
8100.0,1608,70291.741694
16400.0,2465,70669.370716
12700.0,2290,71041.282261
17900.0,2521,71456.29576
12700.0,2112,71792.042472
12700.0,2284,72162.668197
13500.0,2126,72531.953335
9700.0,1850,72824.167165
9100.0,1670,73078.104803
18700.0,2644,73531.784838
9900.0,1842,73823.157226
15200.0,2362,74198.958053
14200.0,2334,74572.493413
18500.0,2568,74988.232539
12600.0,2485,75400.846991
17700.0,2281,75771.929945
11000.0,1732,76026.963119
12000.0,2058,76389.3841
13400.0,2124,76726.857966
11200.0,2020,77055.657272
4900.0,1544,77305.513689
9600.0,1862,77598.759157
9600.0,1767,77888.102352
16400.0,2492,78298.028651
9800.0,1750,78553.3006
17500.0,2325,78921.518358
7500.0,1556,79200.971527
7300.0,1877,79490.962852
10100.0,1934,79751.436841
7300.0,1543,79953.832484
14700.0,2341,80283.889017
20100.0,2727,80624.760502
7300.0,1693,80856.377949
15600.0,2269,81158.203231
10600.0,1824,81392.572121
15400.0,2252,81696.99828
16900.0,2379,82005.335909
12400.0,2498,82342.716398
7100.0,1746,82551.635665
15100.0,2465,82888.320004
14200.0,2301,83189.863067
1200.0,925,83322.094739
11000.0,1929,83564.109886
8400.0,1804,83800.566164
9300.0,1820,84038.412359
11800.0,1979,84306.141356
12000.0,2225,84608.28908
11200.0,2151,84876.934672
10800.0,2069,85144.271031
16700.0,2728,85510.959174
12600.0,2078,85777.163283
3700.0,1327,85946.237123
10100.0,1826,86181.225292
10700.0,1822,86417.574509
8800.0,1998,86682.712902
10300.0,1935,86948.073543
10400.0,2111,87218.083149
9700.0,1850,87454.650414
9100.0,1800,87687.386467
16200.0,2564,88023.544825
15300.0,2854,88370.35044
9400.0,2089,88567.248143
7000.0,1613,88728.126245
14200.0,2346,88935.723562
8700.0,2023,89125.739611
6100.0,1602,89265.817675
5100.0,1458,89407.481469
6400.0,1459,89525.896817
11200.0,2937,89801.366696
8600.0,1912,89948.381243
14900.0,2889,90175.666747
7100.0,1871,90335.497518
11600.0,2294,90520.033573
11900.0,2110,90684.715368
6400.0,1532,90807.508658
11700.0,2389,90993.407318
14400.0,2719,91216.745918
8300.0,1779,91360.142502
9300.0,2040,91524.610627
7100.0,1770,91668.8162
7500.0,1611,91792.424512
16300.0,2719,92014.475306
9800.0,1927,92159.174461
8800.0,1876,92305.014376
6700.0,1701,92445.422395
4800.0,1425,92566.489233
15600.0,2845,92792.071048
5900.0,1642,92916.485721
12000.0,2346,93127.71954
9400.0,1936,93384.74784
7400.0,1800,93678.316523
7700.0,1974,93986.915322
8200.0,1732,94289.253154
12000.0,2293,94679.198484
13000.0,2329,95071.84823
9300.0,1960,95417.014926
5300.0,1561,95680.064466
16500.0,2776,96152.595945
9900.0,2014,96480.498806
7400.0,1841,96752.650772
8300.0,2275,97098.413768
6000.0,1523,97326.884551
14300.0,2583,97711.714479
8400.0,1787,97978.967793
6600.0,1645,98212.105087
13500.0,2457,98600.460474
15200.0,3051,99067.549426
15800.0,2601,99452.735998
14000.0,2506,99843.312986
3700.0,1346,100040.312643
13000.0,2258,100389.115515
13000.0,2377,100745.48496
12600.0,2242,101093.151151
10700.0,1996,101373.464571
16600.0,2715,101798.744148
11800.0,2414,102153.380461
9800.0,1933,102463.506403
13500.0,2340,102816.452878
14800.0,2546,103203.736431
7400.0,1696,103503.648578
13400.0,2470,103909.752816
7200.0,1691,104214.366075
6700.0,1762,104521.673044
10100.0,2168,104864.274417
8900.0,1764,105159.172844
7000.0,1531,105415.889879
10200.0,1866,105713.789495
12400.0,2412,106130.421844
9500.0,1966,106437.872202
10200.0,2205,106819.49386
11100.0,2282,107202.794297
7900.0,1739,107500.941193
8600.0,1947,107807.647171
9000.0,2137,108187.116235
10600.0,2323,108574.348971
10400.0,1918,108879.65093
3000.0,1141,109085.49016
14500.0,2922,109557.875517
18900.0,3222,110108.368316
8300.0,2029,110414.499942
9100.0,1999,110754.240656
11000.0,2248,111134.253211
3800.0,1300,111345.509222
10100.0,1962,111682.297971
15500.0,2605,112107.204349
11200.0,2776,112574.402743
7400.0,1818,112878.107597
8600.0,1734,113176.030323
9600.0,1862,113475.294552
13400.0,2417,113861.962427
11000.0,2522,114283.236765
14600.0,2746,114753.670819
8600.0,2061,115097.51079
9200.0,1961,115434.523188
5400.0,1578,115694.089901
8300.0,2212,116041.997422
4300.0,1622,116338.286226
2400.0,1139,116514.455173
14000.0,2670,116979.643847
6300.0,1823,117280.26883
7500.0,1856,117583.486753
13900.0,2467,117975.090565
5100.0,1809,118308.87885
12100.0,2340,118696.055241
6900.0,1512,118952.96193
7300.0,1807,119253.079834
8000.0,1943,119556.224296
3300.0,1407,119804.499527
7500.0,1913,120108.175236
14000.0,2453,120531.635698
8600.0,2129,120877.956535
5700.0,1747,121174.845511
6200.0,1845,121476.870753
10200.0,2204,121853.299938
13200.0,2525,122246.316375
11200.0,2447,122671.086691
12100.0,2368,123063.835146
6500.0,1717,123356.644866
13700.0,2493,123786.601856
9300.0,2126,124130.959761
5100.0,1485,124381.624512
10300.0,2020,124723.387399
9600.0,1860,125021.717224
8100.0,1929,125331.036576
15400.0,2850,125832.909075
7000.0,1855,126134.285931
15500.0,2795,126608.667698
12700.0,2437,126995.870231
13400.0,2604,127424.116017
10700.0,2479,127846.844398
9300.0,2316,128235.839514
9900.0,2198,128618.263479
9700.0,2016,128927.725124
6600.0,1631,129224.581529
11600.0,2343,129616.076459
9400.0,2263,129999.690412
9800.0,2477,130392.214403
12600.0,2629,130854.013697
6400.0,1626,131117.844189
9000.0,2040,131458.428957
2600.0,1090,131631.500886
9400.0,2125,132014.823622
11100.0,2339,132400.934433
17400.0,3000,132884.02002
7900.0,1840,133215.337507
12700.0,2346,133598.818801
9600.0,2157,133941.894644
7400.0,1651,134238.423694
8200.0,2071,134580.663781
6100.0,1724,134843.830518
10200.0,2203,135228.092454
7100.0,1825,135528.615423
9900.0,1974,135867.222903
12200.0,2336,136253.973795
11400.0,2086,136600.056432
6400.0,1797,136898.844987
12900.0,2367,137287.051093
15600.0,2523,137709.360328
13000.0,2685,138174.983663
14800.0,2434,138567.131915
10900.0,2252,138951.843979
8800.0,1890,139257.386772
14100.0,2532,139680.084835
6900.0,1870,139981.250445
12600.0,2309,140358.170695
7300.0,1745,140648.038678
16300.0,2838,141104.590357
11700.0,2243,141475.337697
12700.0,2289,141850.06097
16100.0,2743,142305.566523
8100.0,1856,142597.939101
8300.0,1950,142927.352842
13200.0,2650,143345.23804
10700.0,2309,143717.4962
7800.0,1881,144010.761454
6100.0,1794,144301.904216
16600.0,2816,144765.699016
7700.0,1797,145055.61801
13800.0,2576,145475.545546
11000.0,2397,145886.785269
17000.0,2851,146345.657538
12200.0,2470,146723.42465
11500.0,2264,147096.119817
8300.0,1715,147383.459525
16400.0,3119,147872.731564
8600.0,1976,148195.672571
3600.0,1417,148402.95805
13800.0,2369,148803.885873
6600.0,1907,149126.586402
8500.0,1968,149491.725092
11000.0,2342,149911.10464
12200.0,2589,150372.488989
10500.0,2349,150807.954134
12500.0,2290,151224.088272
11500.0,2370,151646.246362
6600.0,1550,151929.04597
9600.0,2020,152307.929261
6700.0,1899,152679.68357
12600.0,2485,153106.195073
8300.0,1665,153428.093173
8300.0,2122,153811.082144
5800.0,1862,154137.013808
11700.0,2235,154558.993279
5100.0,1611,154838.927011
12100.0,2584,155319.826582
7000.0,1765,155645.898756
12600.0,2672,156154.577636
11800.0,2146,156533.505056
6200.0,1600,156821.562486
9600.0,2123,157230.571654
12200.0,2432,157657.764097
11500.0,2137,158034.873188
15100.0,2852,158587.539071
8700.0,1982,158922.800753
10200.0,2268,159349.229628
13700.0,2998,159916.586533
13700.0,2546,160392.858039
12000.0,2455,160818.373405
8700.0,1853,161182.953166
10500.0,2396,161597.038427
9900.0,2126,161976.567926
10600.0,2163,162391.083822
10900.0,2111,162780.440362
11900.0,2397,163205.128372
13100.0,2714,163710.068023
14100.0,2561,164173.622399
12100.0,2296,164601.075798
6200.0,1643,164882.420882
12700.0,2502,165329.475638
6400.0,1545,165604.120265
7900.0,1982,165964.588667
10300.0,2092,166337.465455
8500.0,1794,166658.34402
10400.0,2126,167021.787881
13200.0,2373,167434.726437
7600.0,1803,167742.563803
9000.0,2176,168120.129152
6800.0,1811,168412.336004
8500.0,1945,168746.872054
6300.0,1274,168956.448785
15500.0,2567,169369.987394
11500.0,2417,169749.074157
17100.0,2810,170206.572859
8200.0,1852,170505.823554
16400.0,2917,170995.742733
5700.0,1810,171301.359054
10900.0,2334,171694.031554
9700.0,2144,172044.984829
10500.0,2091,172390.352188
12100.0,2720,172849.871511
8300.0,1938,173151.373953
16700.0,3235,173694.743547
16800.0,3012,174190.234736
9000.0,1776,174468.277945
12300.0,2277,174826.437486
13600.0,2287,175147.826256
17500.0,2735,175581.353418
15900.0,3159,176052.92743
11500.0,2341,176441.211587
7900.0,1906,176732.879404
9600.0,1859,177017.218117
11600.0,2327,177382.66908
12800.0,2362,177768.582098
16900.0,2690,178169.533015
12200.0,2467,178577.976304
11100.0,2293,178939.803732
9200.0,1955,179217.444336
6100.0,1640,179477.813822
10000.0,2040,179772.665436
7100.0,1641,179997.902356
8800.0,2068,180294.452799
12600.0,2343,180632.586794
9700.0,2327,180968.150081
10200.0,2336,181301.7202
9600.0,2231,181634.738775
17200.0,3026,182076.516968
12000.0,2282,182408.934729
8500.0,1946,182673.626635
5500.0,1376,182891.245692
6200.0,1821,183152.152427
7200.0,1818,183413.031569
12600.0,2454,183824.48432
17000.0,2704,184262.27614
12800.0,2425,184687.146087
9000.0,2225,185042.114256
10500.0,2238,185418.42486
9300.0,1875,185722.619315
10200.0,2364,186139.465051
12600.0,2348,186530.907446
11900.0,2705,186963.817873
13100.0,2762,187428.986416
18700.0,3379,187989.236976
9300.0,2132,188367.443937
11800.0,2291,188716.039026
13000.0,2240,189102.975567
15700.0,2901,189613.779889
16200.0,2825,190087.214837
16300.0,3046,190568.80846
6000.0,1760,190869.547261
10000.0,2287,191256.313826
10100.0,2196,191636.518867
10000.0,2103,191987.504157
15100.0,2527,192415.838649
9700.0,2131,192765.1652
15500.0,2797,193233.042196
10500.0,1907,193574.01144
11900.0,2560,193995.16489
13100.0,2562,194417.99503
19700.0,3373,194986.384004
19800.0,3377,195541.487942
15800.0,2775,196013.079948
13500.0,2423,196405.143006
14200.0,2577,196835.426775
11000.0,2238,197214.795991
11000.0,2418,197610.396675
10600.0,2290,197996.625738
20600.0,3447,198591.980317
8400.0,1686,198859.840321
10400.0,1943,199195.708166
14800.0,2565,199629.253444
11200.0,2234,200007.646889
14600.0,2594,200436.685896
9900.0,2119,200787.357707
21300.0,3337,201338.973356
19100.0,3295,201892.75837
17200.0,2779,202366.986885
10400.0,2194,202720.625808
11000.0,2009,203068.344514
12800.0,2468,203504.017812
14500.0,2733,203939.409012
12700.0,2289,204320.988571
10800.0,2088,204666.460458
18100.0,2948,205180.211198
8200.0,1846,205494.735083
16400.0,2803,205980.178543
12800.0,2512,206402.064436
13400.0,2591,206828.563435
14900.0,2557,207269.918707
18800.0,3498,207880.71286
22100.0,3427,208436.033218
23400.0,3541,209053.899485
18100.0,3139,209574.697436
6800.0,1645,209870.825481
22300.0,3888,210514.95226
9800.0,1868,210819.770868
14600.0,2726,211288.754934
9400.0,2034,211632.557522
17500.0,2969,212115.070305
12800.0,2640,212550.229695
10400.0,2083,212924.620908
15200.0,2557,213355.376348
15900.0,2902,213838.280243
23300.0,3574,214447.903287
10300.0,2235,214830.609221
16200.0,2787,215272.200566
16500.0,2948,215796.97498
14900.0,2478,216226.397074
15800.0,3032,216725.858629
12400.0,2365,217165.501595
14300.0,2533,217614.581028
12500.0,2497,218020.039451
