# {"t_start": 1552316278.8831074, "env_id": "KungFuMasterNoFrameskip-v0"} 
r,l,t
1500.0,1378,147.529057
400.0,797,233.462111
1300.0,1113,364.506167
7400.0,2030,593.146253
6300.0,1718,782.610821
3800.0,1313,927.277904
4300.0,1246,1055.714149
13900.0,2677,1353.773445
9200.0,2248,1605.551211
6700.0,1862,1811.669879
5500.0,1660,2001.624299
10200.0,2295,2251.187541
11900.0,2420,2531.474847
8900.0,2125,2771.166134
12800.0,3036,3106.415452
8800.0,2248,3359.818388
7800.0,2176,3602.25539
16500.0,3538,3993.649312
7300.0,2074,4228.99105
10000.0,2219,4474.852487
11500.0,2901,4800.6181
6900.0,1966,5025.903847
9100.0,2223,5268.088953
7900.0,2092,5506.384563
9300.0,2088,5735.29381
10800.0,2645,6022.423322
8100.0,2088,6256.121027
9800.0,2364,6507.471777
6600.0,1913,6718.264839
7500.0,2072,6954.543078
9700.0,2228,7209.230028
7900.0,2235,7453.484103
8900.0,2165,7692.752397
7800.0,2259,7949.76493
7900.0,2039,8174.587826
4900.0,1638,8345.797983
7000.0,1978,8575.488453
5100.0,1488,8731.053331
7400.0,1878,8943.959778
8300.0,2107,9174.801825
8600.0,2332,9440.165851
6900.0,1705,9618.351961
11700.0,2412,9886.849262
4300.0,1585,10060.933275
4800.0,1553,10235.727667
6800.0,1761,10437.110651
11000.0,2680,10735.981715
15600.0,2936,11063.092301
11700.0,2681,11367.961593
10300.0,2076,11598.933569
15500.0,2932,11925.468242
11200.0,2271,12161.678359
12400.0,2664,12465.868573
15800.0,2450,12737.360991
10000.0,2126,12980.199152
11300.0,2438,13254.841825
7600.0,1855,13451.241977
12400.0,2297,13710.704089
15800.0,2671,14004.899518
13100.0,2496,14287.5314
9700.0,2019,14504.724064
18200.0,3131,14867.297953
10600.0,2392,15131.989424
9600.0,2203,15373.657978
5400.0,1521,15539.397025
10700.0,2388,15801.61346
10700.0,2150,16042.253378
6100.0,1893,16266.083603
6500.0,1700,16454.572818
5900.0,1644,16637.076046
9300.0,2112,16871.600007
8200.0,2075,17113.664141
14800.0,2873,17433.006254
9500.0,2294,17680.699473
10000.0,2144,17934.7644
15900.0,2795,18239.356388
16600.0,3065,18583.363225
13800.0,2897,18902.079609
10100.0,2019,19136.765649
8000.0,2121,19376.080057
17600.0,3316,19788.041439
12600.0,2549,20098.934754
6200.0,1803,20329.68486
15100.0,2456,20650.497253
12400.0,2507,20982.983319
7500.0,1743,21212.362241
8700.0,1992,21483.671019
18100.0,3176,21909.432146
18400.0,3108,22333.050127
13400.0,2560,22674.496666
16900.0,3014,23084.790918
7200.0,1802,23329.688811
11300.0,2289,23641.539894
10600.0,2244,23944.269289
18200.0,3121,24369.968318
10600.0,2249,24678.088384
12600.0,2454,25005.05136
9800.0,2155,25304.132332
13100.0,2671,25660.311105
14900.0,2509,25989.75949
16500.0,2675,26362.181823
14300.0,2589,26705.026888
19500.0,3087,27113.634307
10400.0,2113,27402.797907
11600.0,2360,27711.944687
7700.0,2065,27980.50282
13500.0,2149,28264.059428
17500.0,2710,28628.26084
10700.0,2232,28944.142295
16700.0,3143,29363.689
13100.0,2628,29721.330824
11200.0,2309,30033.501468
21800.0,3370,30484.51357
15600.0,2768,30849.724123
13800.0,2291,31146.975238
10600.0,2199,31459.667441
11500.0,2172,31750.42987
20300.0,3102,32173.782965
10000.0,2074,32450.502195
16700.0,2827,32838.307798
20400.0,3108,33253.26411
11400.0,2026,33532.76873
15500.0,2558,33888.237612
9800.0,2067,34169.927274
9800.0,2065,34445.309525
10400.0,2502,34791.243734
17300.0,2925,35185.488792
14200.0,2961,35598.598701
16400.0,2827,35979.958002
17300.0,3136,36405.336602
9800.0,2098,36699.897861
16300.0,3046,37093.809753
16200.0,2905,37497.722216
18200.0,3146,37924.641156
17100.0,3082,38353.591342
15800.0,3205,38793.101926
14300.0,2994,39190.491962
13700.0,2797,39574.863758
10500.0,2063,39849.249
18700.0,3472,40318.082528
21400.0,3373,40763.9679
17300.0,3078,41175.350429
18200.0,2957,41577.362081
14500.0,2653,41920.856176
10600.0,2124,42205.882035
18900.0,3322,42651.119956
17800.0,3153,43066.538241
20700.0,3191,43511.18208
15000.0,2453,43852.197032
23700.0,3063,44259.237055
9300.0,1848,44516.143564
17900.0,2503,44846.745692
13200.0,2197,45137.561856
17200.0,2797,45512.270856
8900.0,1525,45716.894126
13100.0,2404,46041.411638
13000.0,2191,46333.830961
11600.0,2027,46613.056999
12500.0,2248,46905.870831
26000.0,3665,47401.122271
14900.0,2581,47753.811469
16900.0,2894,48144.357836
25200.0,3288,48577.488241
22100.0,3339,49028.158921
29200.0,3932,49562.46265
25400.0,3440,50026.845774
21400.0,3177,50447.550897
14600.0,2407,50761.957862
14100.0,2344,51074.272772
12500.0,2322,51382.099411
18900.0,2879,51766.281078
15300.0,2331,52087.230387
15800.0,2883,52472.701561
13800.0,2891,52868.516039
10700.0,2129,53146.375875
11100.0,2008,53411.695913
13000.0,2236,53710.098673
7000.0,1687,53943.667266
10900.0,2252,54249.39408
15300.0,2364,54577.75316
18700.0,2695,54940.346335
19100.0,2722,55306.462157
16700.0,2721,55665.91659
21800.0,3215,56097.253585
9200.0,1913,56355.301937
10700.0,2080,56629.437708
15900.0,2451,56957.025965
17600.0,2675,57315.879026
12100.0,2279,57623.262388
14900.0,2195,57918.027413
11400.0,2304,58226.683397
21500.0,3230,58669.864599
7400.0,1642,58891.43417
18000.0,2964,59296.742586
11100.0,2238,59608.52328
18000.0,2497,59936.143827
15200.0,2382,60262.599237
15400.0,2505,60604.793543
14100.0,2198,60919.335015
19500.0,2633,61267.064377
17800.0,2524,61613.819785
8100.0,1847,61861.00524
15400.0,2706,62229.30081
9800.0,1982,62504.409468
20400.0,3161,62914.567316
14700.0,2391,63239.007933
14000.0,2349,63547.592725
16700.0,2687,63918.833548
18500.0,2374,64230.86609
19600.0,2983,64627.1911
20400.0,3226,65059.593519
10100.0,2069,65341.540506
11400.0,1933,65600.008605
15100.0,2597,65939.681205
22100.0,3048,66355.143204
19400.0,2564,66695.698407
19100.0,3046,67103.75595
19700.0,2994,67511.893134
18100.0,2814,67886.62203
22400.0,3331,68334.484422
18000.0,2627,68681.173552
18500.0,2954,69077.452045
14300.0,2082,69362.453198
38700.0,5537,70096.335027
13400.0,2436,70428.218034
14600.0,2506,70759.323345
15300.0,2455,71098.869221
13100.0,2499,71429.872606
20500.0,3408,71903.417161
9300.0,2006,72166.621317
24600.0,3303,72602.79811
11900.0,2561,72941.821265
11400.0,2515,73286.329309
16900.0,3037,73686.995141
22900.0,3593,74168.114887
20500.0,3282,74611.381581
14600.0,2332,74919.517475
9700.0,1855,75171.393606
11000.0,2379,75488.810171
24400.0,3431,75936.925494
5800.0,1324,76113.717358
15600.0,2930,76502.631859
19600.0,3097,76918.420704
9800.0,1735,77150.637146
25400.0,3550,77616.562834
12800.0,2363,77929.43453
18400.0,3159,78341.660607
9900.0,2146,78476.630582
20300.0,3176,78671.792425
16200.0,2907,78858.207614
7100.0,1913,78981.149141
17100.0,2850,79156.254392
15400.0,2999,79348.408351
9700.0,2173,79480.011764
14100.0,2611,79646.193871
17800.0,3278,79847.45583
24500.0,3814,80086.430778
16300.0,2632,80254.650197
10400.0,2304,80396.444304
21900.0,3046,80588.703273
15200.0,2686,80759.127669
13900.0,2419,80901.760959
15800.0,3010,81082.251217
10400.0,2072,81206.496797
8700.0,2148,81336.638568
15600.0,3288,81535.014182
14000.0,2854,81706.857384
14200.0,2504,81857.048691
15600.0,2726,82016.723607
15700.0,2670,82185.059306
18600.0,3158,82380.627373
10800.0,2055,82502.893807
15200.0,2772,82668.355311
16700.0,2711,82826.723642
15700.0,2959,83000.468391
11100.0,2383,83139.098474
16100.0,2726,83310.652921
12800.0,2377,83451.84165
16000.0,2822,83621.247198
23800.0,3605,83840.097607
16300.0,2941,84017.338799
13400.0,2563,84174.525918
15400.0,2720,84340.756154
14500.0,2679,84502.626812
15500.0,2868,84674.371456
11300.0,2287,84810.213436
11000.0,2323,84950.886947
7100.0,1842,85056.709702
7100.0,2147,85185.668332
25600.0,3729,85408.740216
12100.0,2411,85556.863074
13200.0,2545,85710.518073
14600.0,2500,85857.527015
10000.0,2526,86007.63008
6600.0,1700,86106.414732
14400.0,2902,86282.754666
21800.0,3570,86493.941386
11200.0,2456,86646.941278
18600.0,2978,86839.6063
20300.0,3158,87047.106005
26300.0,4169,87303.026938
13700.0,2576,87452.195912
16300.0,2901,87626.516801
22300.0,3711,87847.17717
11900.0,2284,87986.194954
9200.0,2057,88108.982026
8100.0,1959,88222.776735
6400.0,1678,88325.221352
15500.0,2770,88490.930345
16100.0,2889,88663.29341
16100.0,2737,88828.712071
13100.0,2493,88972.319782
26100.0,3822,89201.622905
15700.0,2635,89359.610684
16900.0,3063,89549.520545
20700.0,3572,89763.166324
14600.0,2571,89921.520372
19300.0,3010,90096.584879
10300.0,2060,90223.61869
19100.0,3225,90423.570568
18200.0,3107,90629.121439
12600.0,2600,90796.207519
19900.0,3277,91006.071269
21900.0,3396,91227.88955
20600.0,3375,91435.045109
14300.0,2803,91603.430889
22600.0,3499,91813.782352
24300.0,3999,92058.799763
20400.0,3592,92279.400408
9100.0,2044,92402.285061
15300.0,2952,92575.772522
14200.0,2601,92734.460385
13900.0,2395,92878.339601
8400.0,2117,93003.662766
16700.0,3062,93184.320779
22700.0,3316,93383.15655
11900.0,2348,93521.401429
24000.0,3582,93735.631048
14600.0,2670,93895.613889
16700.0,2521,94046.310785
16600.0,2676,94212.092968
13800.0,2516,94358.055493
15800.0,2690,94513.939598
13300.0,2584,94666.435665
7200.0,1859,94781.688688
9400.0,2131,94910.717331
21000.0,3584,95122.70421
10600.0,2126,95251.630451
13700.0,2924,95424.716339
19300.0,3155,95612.159549
13700.0,2513,95763.566419
18300.0,3320,95962.052339
12500.0,2416,96106.976662
16800.0,2883,96276.291632
20000.0,3075,96466.74346
9800.0,2076,96595.910596
14600.0,2558,96748.76821
16800.0,2774,96914.989147
13000.0,2368,97061.809284
7900.0,1921,97174.683434
31500.0,4558,97441.717392
16000.0,3043,97621.852472
18900.0,2841,97788.297207
23700.0,3904,98022.58193
10300.0,2197,98149.529534
30500.0,4351,98409.29118
15300.0,2665,98575.082769
13400.0,2674,98728.829527
10000.0,2387,98865.189467
7300.0,1955,98986.779722
16900.0,2924,99166.605792
17800.0,3046,99341.698848
15400.0,2561,99485.132354
13900.0,2617,99624.308961
25000.0,4037,99840.098266
18400.0,3339,100016.179604
15700.0,2725,100160.096843
14800.0,2788,100310.119532
18900.0,3455,100494.011091
18500.0,3302,100670.466714
11200.0,2377,100794.410905
13300.0,2397,100925.492807
13500.0,2413,101064.641271
16800.0,2562,101203.13271
17900.0,2955,101364.337014
14800.0,2741,101516.568729
18400.0,2977,101685.264805
16600.0,3152,101866.300769
10700.0,2238,101993.395523
9300.0,2091,102107.794175
13600.0,2686,102253.537365
16400.0,3143,102424.897913
22700.0,3388,102612.873296
22100.0,3573,102807.498369
11900.0,2411,102937.078296
7400.0,1874,103038.815449
16700.0,2957,103201.215903
24000.0,3640,103405.059389
10700.0,2632,103544.92935
19000.0,3147,103724.075683
14600.0,2775,103875.242199
25900.0,4409,104115.751624
10800.0,2241,104233.628574
12000.0,2467,104364.527835
15500.0,2771,104520.611583
22900.0,3829,104736.830284
18600.0,3179,104918.742127
17500.0,3213,105107.930536
16200.0,3147,105284.608327
14800.0,3125,105470.111997
13700.0,2670,105620.548939
20500.0,3592,105834.109193
17100.0,3212,106014.176234
26500.0,3871,106232.50824
22100.0,3275,106421.902551
15000.0,2639,106565.077031
20900.0,3494,106758.397771
27700.0,4246,107004.314209
9100.0,2292,107128.355375
21900.0,3642,107331.334199
19200.0,3215,107518.382692
28200.0,4243,107754.559995
15200.0,2787,107917.017588
16600.0,3105,108094.806458
12200.0,2671,108244.819126
25200.0,4188,108481.962662
19300.0,3288,108656.266665
15700.0,2769,108812.956487
24400.0,3805,109023.853968
13300.0,2414,109154.981162
14400.0,2898,109320.908761
23800.0,3503,109520.215368
21300.0,3539,109719.312691
11000.0,2288,109840.893943
18100.0,3087,110006.072917
24200.0,3610,110202.550736
20100.0,3225,110372.155658
11000.0,2235,110495.102692
12900.0,2505,110627.028688
13200.0,2607,110769.483525
21600.0,3656,110961.230614
21600.0,3393,111142.879434
14100.0,2731,111276.881571
10500.0,2257,111389.051125
16300.0,2750,111533.69235
28700.0,4085,111750.706447
16500.0,3231,111927.965485
19900.0,3333,112121.547935
14500.0,2512,112259.812542
13900.0,2606,112396.680345
18100.0,3203,112562.382479
16800.0,2868,112715.438556
24900.0,4027,112921.00665
19300.0,3472,113151.61976
8900.0,2287,113307.282795
17300.0,3110,113521.586511
22500.0,3932,113807.550359
14200.0,2738,114008.340244
21000.0,3204,114236.759465
17600.0,3099,114461.732682
17400.0,3151,114694.007105
21500.0,3435,114946.147914
17800.0,3321,115198.125188
24800.0,4079,115503.488965
19900.0,3329,115743.516363
15400.0,2579,115925.232977
