# {"t_start": 1552316285.6384106, "env_id": "KungFuMasterNoFrameskip-v0"} 
r,l,t
1300.0,908,103.239426
500.0,900,200.30977
2100.0,1284,346.50956
2600.0,1335,495.100791
5000.0,1366,647.408566
5300.0,1516,811.7225
10700.0,1984,1023.733549
12900.0,2330,1281.817791
9600.0,2254,1532.709802
8400.0,1930,1752.191952
8400.0,2487,2030.953235
9400.0,2018,2250.261749
15000.0,3112,2605.779989
8700.0,2078,2835.344651
6600.0,1906,3050.079571
12800.0,2889,3375.386646
4700.0,1520,3542.330306
8400.0,2274,3800.76545
5900.0,2020,4021.087156
12300.0,2897,4347.51134
11000.0,2634,4631.551551
8100.0,2223,4891.694813
8300.0,2023,5115.952272
10200.0,2268,5370.181246
9000.0,2307,5624.151555
8200.0,2350,5882.481431
7900.0,2142,6120.128181
8400.0,2307,6371.219916
5800.0,1672,6551.129599
9000.0,2274,6802.941066
7900.0,2080,7042.800702
8700.0,2314,7297.206769
4900.0,1978,7518.527813
5000.0,1585,7693.537147
5300.0,1879,7905.649999
4600.0,1855,8108.778377
3900.0,1414,8263.269325
7100.0,1926,8474.445441
5200.0,1698,8664.240224
8300.0,2078,8898.555746
6500.0,1990,9117.959653
4400.0,1475,9285.334518
8700.0,2386,9540.369764
16600.0,3303,9903.616635
10500.0,2227,10151.159726
11000.0,2507,10438.308074
6600.0,1786,10636.684403
6700.0,2149,10879.765624
6800.0,1929,11090.502593
12400.0,2743,11398.352873
16500.0,3325,11772.333391
13000.0,2503,12046.132224
8000.0,1870,12252.813109
13000.0,2519,12535.699595
4900.0,1576,12709.221932
11300.0,2344,12969.897833
17300.0,3022,13310.231349
11700.0,2233,13550.879008
8800.0,1856,13762.219544
17000.0,2960,14090.906684
19800.0,3228,14446.328292
9900.0,2510,14737.491009
12700.0,2362,14996.595196
8600.0,2037,15220.711412
16100.0,3306,15586.545208
5500.0,1803,15787.765825
12600.0,2505,16070.301644
6100.0,1688,16266.340042
6900.0,2006,16485.282236
11800.0,2514,16767.011773
9200.0,2096,17007.227689
4200.0,1436,17171.355248
19800.0,3694,17573.676903
14900.0,2672,17880.019517
10000.0,1941,18098.061492
13800.0,2595,18392.422423
16200.0,2901,18713.567308
12500.0,2420,18978.290744
24700.0,3815,19424.541642
13600.0,2529,19744.290992
13500.0,2757,20066.723461
17200.0,3035,20466.063967
16400.0,2763,20822.732526
11900.0,2307,21129.820992
7700.0,2202,21430.889706
9900.0,2292,21738.722273
13000.0,2701,22101.748514
14900.0,2458,22433.51819
12000.0,2295,22744.36654
10200.0,2286,23060.108943
11600.0,2074,23339.921762
12300.0,2732,23704.485177
5600.0,1597,23914.815105
4100.0,1445,24115.064099
14800.0,2849,24505.853143
13500.0,2450,24831.276395
11400.0,2470,25169.146961
10600.0,2556,25510.380221
13400.0,2832,25887.880856
16100.0,2671,26257.607443
24200.0,3637,26753.228574
16700.0,2956,27142.50498
13100.0,2601,27489.895492
13100.0,2585,27825.495454
17800.0,2793,28195.413199
16900.0,2738,28561.015578
16500.0,2722,28943.940207
15900.0,2512,29277.326707
9400.0,1959,29542.780791
10000.0,2416,29866.921911
16900.0,2932,30259.530902
10100.0,2236,30570.11496
9900.0,1925,30815.507408
10900.0,2199,31108.569426
8200.0,1747,31341.20023
13900.0,2312,31653.402863
16200.0,2758,32037.387892
17500.0,2890,32429.787204
13300.0,2508,32767.999108
17000.0,2978,33166.830283
11100.0,2306,33482.903668
19900.0,3317,33942.521125
13900.0,2495,34281.995655
16900.0,2713,34654.407358
11100.0,2238,34949.163631
17800.0,2893,35350.181067
16300.0,2897,35757.29237
20700.0,3593,36240.527457
15100.0,2813,36629.399644
12900.0,2587,36972.762563
12200.0,2489,37300.074862
6900.0,1858,37562.761236
11100.0,2141,37843.829368
8600.0,2146,38141.325325
8900.0,2083,38431.320636
8900.0,2131,38728.359473
10300.0,2158,39014.91388
14000.0,2821,39395.726574
9500.0,2113,39680.194769
13200.0,2308,39991.154831
18900.0,3217,40426.739074
6800.0,1674,40647.309857
13900.0,2557,40985.442894
19400.0,3076,41397.128284
14500.0,2499,41734.672121
20400.0,3384,42176.78028
6900.0,1875,42435.735911
13300.0,2098,42710.853793
13100.0,2127,42995.929644
6000.0,1480,43186.863595
9800.0,1914,43458.609199
21200.0,3210,43901.479116
14300.0,2334,44220.365039
19100.0,2948,44617.120075
14000.0,2445,44943.824052
8300.0,1780,45183.828087
24700.0,3556,45649.803514
21000.0,3585,46134.982047
7400.0,1976,46402.362974
12500.0,2205,46702.171596
9900.0,2078,46975.182823
18800.0,3156,47400.621644
24200.0,3591,47888.114076
10800.0,2283,48195.533286
9900.0,1961,48454.742519
23900.0,3325,48905.626552
20100.0,3104,49320.197508
15200.0,2332,49632.830397
20200.0,2719,50006.067585
17900.0,2692,50364.306883
19900.0,3068,50762.391207
17400.0,2632,51108.823843
20700.0,3805,51623.944239
12600.0,2149,51910.287089
8900.0,1685,52139.594807
7300.0,1858,52391.020566
32400.0,4020,52935.973329
17300.0,2543,53266.582413
15200.0,2425,53590.79063
10300.0,2223,53895.035378
10200.0,2160,54191.560323
20300.0,3157,54617.972942
22800.0,3754,55122.667176
17100.0,2663,55479.9933
21400.0,3171,55911.112459
19300.0,2884,56290.6483
19300.0,2781,56664.539812
14000.0,2339,56975.9582
14700.0,2322,57291.884767
14900.0,2556,57635.497012
11500.0,1787,57871.583626
19400.0,2517,58209.507542
19300.0,2882,58612.164408
14900.0,2271,58911.224926
12300.0,1976,59179.65332
15800.0,2414,59523.017715
11500.0,2020,59786.061004
10100.0,2008,60054.905952
11400.0,2128,60351.910269
15400.0,2241,60656.641262
17400.0,2671,61024.28532
14100.0,2348,61338.462357
16900.0,2341,61657.589578
15500.0,2421,61977.953562
23500.0,2951,62390.4606
11900.0,2082,62673.921762
21300.0,2902,63048.962419
17200.0,2787,63423.576248
15100.0,2199,63722.822939
10400.0,2287,64032.414475
7000.0,1685,64249.891938
12600.0,2067,64525.657607
13200.0,2288,64838.671993
13000.0,2517,65176.294765
17500.0,2797,65549.549026
19900.0,3164,65960.671454
25500.0,3591,66448.911339
25500.0,3521,66920.139147
22300.0,4135,67481.887198
21200.0,2846,67855.548403
21800.0,3171,68283.295873
28800.0,4115,68835.703745
17700.0,2548,69174.040423
12000.0,2193,69466.764213
15700.0,2868,69857.740929
15100.0,2779,70219.71517
10600.0,2521,70573.255
18800.0,2821,70946.335433
9700.0,2147,71242.104289
18400.0,2994,71644.584795
16200.0,2370,71971.056829
15500.0,2629,72318.121763
19000.0,3280,72753.700095
15200.0,2674,73109.379586
15700.0,2469,73441.220397
25200.0,3711,73941.438274
20500.0,3338,74390.849101
24600.0,3653,74869.141609
14300.0,2680,75226.573524
6300.0,1658,75452.984589
13200.0,2325,75756.616238
11700.0,2304,76064.564288
10300.0,2123,76346.774022
19900.0,2887,76724.070984
9400.0,2042,77004.603332
17100.0,2981,77399.700244
25500.0,3589,77873.879412
9400.0,1910,78135.864456
19400.0,3106,78433.801494
10900.0,2289,78574.90119
14800.0,2995,78759.45618
8600.0,1673,78868.003087
26400.0,3888,79111.740636
14000.0,2996,79302.216621
11600.0,2349,79447.185077
17900.0,3204,79647.799988
26500.0,3661,79877.540642
25800.0,3643,80102.69451
19600.0,3248,80306.046222
14400.0,2344,80454.322849
9800.0,2031,80585.091285
12000.0,2626,80749.576922
25900.0,3590,80962.154687
17000.0,2830,81132.550834
9300.0,2056,81253.708868
18000.0,2989,81437.92345
20200.0,3212,81631.466826
14400.0,2411,81775.852486
15500.0,2708,81936.678443
25600.0,3792,82168.496095
20900.0,3172,82364.364192
14500.0,2417,82509.860769
7500.0,1798,82615.406722
6400.0,1769,82721.687706
21800.0,3153,82905.082241
21000.0,3145,83092.190563
10300.0,2144,83225.596397
10300.0,2283,83358.776638
18700.0,3104,83547.104484
16700.0,2670,83708.182671
9800.0,1979,83830.040966
12400.0,2436,83973.141808
14700.0,2675,84141.644324
18300.0,3000,84318.806155
8000.0,1908,84434.654464
17800.0,3045,84622.535458
15600.0,3096,84803.281637
12700.0,2342,84945.350519
17000.0,2853,85111.901947
19200.0,3307,85310.642706
15200.0,2685,85474.587671
17500.0,2995,85656.556445
18800.0,2985,85833.122289
17100.0,3206,86022.289083
14100.0,2578,86178.239287
8500.0,1909,86290.082038
20900.0,3215,86481.47296
17200.0,2828,86656.437332
13000.0,2291,86803.957129
20400.0,3213,87014.270769
29800.0,4449,87292.713694
11900.0,2486,87436.055605
18400.0,2935,87611.729371
19200.0,2991,87789.640887
17900.0,2939,87965.43389
17000.0,3007,88144.624478
17400.0,3016,88325.925937
18600.0,2994,88505.456048
18600.0,3347,88705.273215
14700.0,2650,88863.431208
12300.0,2630,89018.396849
14200.0,2666,89178.266934
19600.0,3159,89367.461194
17800.0,2778,89537.26274
19000.0,3176,89729.07038
14300.0,2522,89881.660569
10800.0,2291,90019.651867
6300.0,1737,90121.064943
9500.0,2022,90247.372788
11000.0,2031,90373.024215
7800.0,2181,90513.725948
12100.0,2451,90669.516329
9700.0,2364,90824.947979
19000.0,3197,91030.692692
16600.0,2943,91221.467878
20700.0,3450,91434.959124
17600.0,2938,91611.206788
10100.0,2076,91736.735711
12800.0,2503,91893.843293
14600.0,2508,92039.588316
11900.0,2279,92179.260993
16100.0,3066,92366.574346
19700.0,2960,92541.196585
20100.0,3155,92734.045476
19400.0,3226,92926.674066
14900.0,2675,93086.497221
12100.0,2503,93229.97337
10800.0,2331,93374.254699
10300.0,2423,93518.275545
9500.0,2066,93640.549045
20800.0,3605,93857.627031
15200.0,2364,93995.561219
17600.0,3000,94180.637451
25300.0,3427,94380.965548
16700.0,3068,94559.281867
15300.0,2781,94725.998834
14900.0,2243,94866.616329
28000.0,3873,95092.308532
19800.0,3449,95301.846676
13700.0,2664,95457.953438
19600.0,3226,95654.241277
19300.0,3045,95833.39887
18200.0,2960,96015.760567
13300.0,2471,96157.236123
14400.0,2798,96331.954878
15400.0,2728,96495.31723
15200.0,2770,96664.433092
17700.0,3170,96851.322373
14800.0,2719,97021.074374
15100.0,3056,97201.060617
17900.0,3338,97397.610928
13800.0,2610,97551.726543
14000.0,2532,97701.43903
20100.0,3283,97895.387973
13900.0,2562,98048.236686
17600.0,2990,98221.043868
21000.0,3449,98429.311689
14800.0,2773,98597.530815
15800.0,2592,98749.850465
16300.0,3162,98938.958553
21200.0,3440,99151.20346
14900.0,2597,99297.016879
14500.0,2640,99448.292785
23900.0,3620,99643.561109
21200.0,3459,99826.260417
19900.0,3316,100003.65597
17700.0,3011,100160.93903
15900.0,2886,100317.106461
24700.0,3390,100495.815302
15900.0,2781,100644.8572
22900.0,4250,100871.94153
22400.0,3508,101071.178903
12700.0,2286,101191.734373
16800.0,2689,101339.573462
17700.0,3141,101515.849188
9300.0,2034,101630.345512
10500.0,2511,101771.843318
21300.0,3423,101968.410132
10900.0,2612,102110.515463
14900.0,2904,102270.126005
12400.0,2718,102417.633196
15700.0,2795,102570.441477
13900.0,2609,102719.552356
15400.0,2984,102880.044439
16400.0,3172,103051.24047
21400.0,3322,103236.280885
11600.0,2308,103364.600179
15600.0,2623,103503.832588
13800.0,2780,103659.02232
9400.0,1912,103765.381835
20600.0,3332,103950.185221
13000.0,2624,104089.404835
19300.0,3232,104260.290033
12500.0,2413,104392.989612
24600.0,3761,104601.020272
15400.0,2511,104743.275537
18600.0,3101,104920.823874
20200.0,3578,105128.795923
20100.0,3423,105329.060344
17600.0,3170,105512.159364
12900.0,2451,105653.245784
16900.0,3174,105841.593093
16200.0,3219,106021.575706
20300.0,3384,106210.909209
31600.0,4639,106473.372743
22100.0,3614,106676.930358
14800.0,2899,106840.556241
19500.0,3378,107033.969908
20700.0,3280,107214.467193
26500.0,4014,107438.217556
10000.0,2363,107574.523709
14000.0,2667,107727.941877
16300.0,2957,107894.248531
13000.0,2711,108048.561815
26800.0,4206,108287.107368
19900.0,3233,108469.298343
20000.0,3504,108656.827233
17400.0,2844,108819.767522
24600.0,3975,109039.00221
19500.0,3283,109221.812014
19100.0,3696,109435.697122
13500.0,2730,109588.459789
7600.0,1872,109692.077542
9500.0,2111,109802.709986
24400.0,4248,110034.406695
15400.0,2996,110195.326516
17900.0,3042,110356.547888
16200.0,2947,110516.74734
26300.0,4684,110765.027855
23900.0,3715,110961.892333
17200.0,2976,111122.054805
25400.0,3858,111312.497098
22800.0,3592,111497.922821
12700.0,2292,111619.415069
10200.0,2350,111743.481047
17300.0,3713,111949.858035
30100.0,4566,112210.138474
30400.0,4679,112455.364043
12300.0,2560,112590.687501
20900.0,3204,112755.973053
22400.0,3735,112952.235239
21000.0,3647,113200.892873
18100.0,3173,113416.075254
14700.0,2891,113620.134355
30300.0,4910,113981.159717
3000.0,1517,114091.114969
18100.0,3211,114316.583508
20500.0,3207,114554.305391
13200.0,2939,114768.831795
15400.0,3192,115005.208945
11400.0,2247,115178.322972
16300.0,2637,115368.445844
18400.0,3061,115600.163744
13200.0,2717,115792.321826
25700.0,4015,116072.0191
