# {"t_start": 1547077856.0870435, "env_id": "TimePilotNoFrameskip-v4"} 
r,l,t
1100.0,1846,66.256998
800.0,1037,98.346693
600.0,1169,136.906474
4800.0,1979,206.18089
700.0,1110,245.365428
800.0,1185,290.587724
600.0,1124,332.2148
800.0,1164,375.224887
4000.0,1724,440.080026
4100.0,1254,488.226725
4400.0,1646,549.545466
4100.0,1382,602.293566
4200.0,1674,669.398713
4500.0,1311,722.569965
1500.0,2361,817.22672
900.0,1446,875.915898
4000.0,1268,926.178896
4000.0,1295,978.985546
1000.0,985,1020.389229
4000.0,1395,1077.250231
4700.0,1940,1155.838784
4500.0,2018,1237.476027
4400.0,1470,1297.003913
4300.0,1822,1369.371609
4200.0,1820,1442.725067
8100.0,2065,1526.285645
800.0,1081,1571.011286
4200.0,1792,1640.625362
900.0,1125,1686.750154
1200.0,1267,1736.852711
4200.0,1989,1818.956579
1100.0,1433,1875.601136
700.0,1219,1926.381368
4100.0,1815,1998.025914
4300.0,1828,2071.478396
4300.0,1445,2129.623285
4100.0,1756,2201.338961
4400.0,2209,2288.962402
700.0,1040,2330.141743
4200.0,1768,2399.764831
4700.0,2331,2492.928897
4200.0,2679,2599.989784
4000.0,1691,2668.917149
7700.0,1608,2734.522729
3800.0,1095,2778.767095
4100.0,1674,2844.384545
800.0,1186,2893.495484
3900.0,1523,2955.089489
4000.0,1511,3016.807709
4200.0,1806,3087.645945
900.0,1489,3147.02345
1200.0,1886,3221.949472
600.0,719,3249.719314
4400.0,1277,3300.746896
4300.0,1785,3371.945894
4400.0,1669,3439.256202
4400.0,1934,3518.060411
4100.0,1809,3591.557042
8300.0,2229,3680.964388
600.0,1077,3722.664431
3800.0,1217,3771.256244
3900.0,995,3811.483629
1000.0,1044,3852.960989
600.0,1051,3893.946083
4700.0,2218,3981.851333
500.0,1037,4022.850055
1000.0,1452,4081.08331
4300.0,1687,4148.586753
4500.0,1961,4226.37109
1200.0,1598,4291.613949
1000.0,1593,4356.702719
4100.0,1358,4408.410544
4400.0,1947,4487.864522
900.0,1301,4538.276999
4500.0,1941,4617.125252
4600.0,2077,4699.665442
3900.0,1511,4760.140553
700.0,837,4792.633725
4000.0,1620,4857.583853
4300.0,1916,4934.982081
4600.0,1979,5015.363969
4100.0,1571,5077.866851
4500.0,1659,5144.309254
4000.0,1478,5201.996662
4300.0,1698,5268.777618
4000.0,1266,5319.364593
4100.0,1401,5375.059142
800.0,985,5414.320105
4600.0,1591,5478.344331
700.0,1178,5525.40621
4100.0,1199,5573.893806
4400.0,1573,5636.40703
900.0,1002,5676.397628
3900.0,1471,5735.771876
800.0,989,5775.76098
3900.0,1203,5822.546073
1000.0,1610,5886.908773
900.0,1456,5945.693487
700.0,1176,5992.833777
4200.0,1923,6069.281415
4700.0,1739,6138.388507
900.0,1118,6184.302254
900.0,1294,6238.42969
4200.0,1952,6317.644093
3900.0,1087,6362.383484
4000.0,1261,6413.392407
1000.0,1280,6465.016121
4200.0,1767,6535.993392
4000.0,1408,6593.740142
700.0,852,6627.369506
4900.0,2097,6713.109183
600.0,894,6748.21713
800.0,1336,6801.477322
1100.0,1196,6849.465684
1200.0,1567,6912.969537
800.0,1357,6967.934426
4000.0,916,7005.729213
4000.0,1528,7066.169984
4000.0,1236,7115.544019
4100.0,1307,7166.890264
1000.0,1554,7232.625255
4700.0,1892,7308.551675
4600.0,1966,7387.32014
1100.0,1186,7435.011581
800.0,977,7474.625905
4200.0,1469,7535.332633
4700.0,2478,7635.039237
900.0,1493,7696.118849
3900.0,1340,7749.828009
4600.0,2419,7844.820154
800.0,1155,7889.825578
3900.0,1121,7935.164697
4000.0,1728,8005.111174
4500.0,2146,8089.71186
1400.0,2084,8174.070952
4600.0,1987,8255.601838
9000.0,3556,8398.948024
3900.0,1506,8458.50469
4700.0,2123,8543.653711
4400.0,1836,8619.314391
4100.0,1406,8675.862132
4100.0,1412,8733.347725
3900.0,1447,8793.481207
4100.0,1457,8853.343235
8100.0,2387,8948.496133
4100.0,1785,9017.484291
900.0,1374,9071.639947
4200.0,1192,9118.234597
3800.0,995,9157.128243
4700.0,2429,9255.312652
4700.0,1683,9323.50264
1000.0,1270,9373.594737
1100.0,1326,9425.112671
4100.0,1337,9479.494769
4700.0,2493,9581.039568
4300.0,1940,9658.814501
700.0,1120,9703.918573
1200.0,1178,9750.379274
3800.0,863,9784.716557
4200.0,1267,9834.6168
3900.0,1177,9882.613423
4300.0,1644,9949.086286
4000.0,1133,9992.620147
900.0,1525,10053.159925
8100.0,2744,10162.593024
3800.0,916,10198.862188
4500.0,1755,10268.959549
900.0,1121,10313.074672
800.0,1585,10375.837495
3900.0,1724,10442.172688
3900.0,1554,10503.267965
4100.0,1504,10562.25608
4800.0,1460,10618.853607
1000.0,1039,10660.284565
4300.0,2156,10748.47606
4400.0,1574,10810.599336
800.0,932,10847.017565
4200.0,1398,10902.874258
4400.0,1855,10977.511389
4000.0,1703,11045.31691
600.0,1143,11091.020853
1100.0,1634,11158.419883
4400.0,1863,11231.262237
4200.0,1443,11288.107607
4000.0,1352,11341.182585
4400.0,2448,11441.073077
4600.0,1965,11521.58928
1000.0,1441,11579.846093
4300.0,1609,11643.536644
900.0,1302,11696.708757
800.0,1344,11748.945381
600.0,1636,11815.679302
500.0,848,11849.816644
3900.0,1409,11906.440857
3900.0,1405,11964.387159
7700.0,2127,12050.545054
500.0,814,12082.775666
4100.0,1551,12145.687374
1000.0,1619,12211.605321
700.0,1316,12264.309641
3900.0,1609,12327.257
4100.0,1285,12379.13787
3900.0,1183,12425.912148
1000.0,1924,12504.2017
4000.0,1275,12556.298345
800.0,932,12592.13989
4300.0,2080,12675.71168
800.0,1321,12728.300336
4300.0,1369,12784.260714
4100.0,2060,12869.529363
4100.0,1642,12935.304135
800.0,1218,12983.512688
4200.0,1183,13031.925065
3900.0,1378,13088.259441
500.0,1076,13131.49168
4100.0,1786,13204.024037
800.0,1399,13261.856956
4500.0,2409,13358.529859
4500.0,2596,13464.637849
4700.0,2346,13557.558201
4200.0,1582,13620.602587
4400.0,1857,13696.120054
8000.0,2581,13800.900176
4000.0,1294,13852.481517
4300.0,1854,13927.25671
1600.0,1546,13990.493821
4200.0,1573,14053.403546
4600.0,1782,14126.321872
11900.0,4759,14316.67387
4200.0,1300,14368.566869
600.0,1003,14408.621596
800.0,1149,14454.385791
900.0,1287,14504.940561
3800.0,1401,14562.067533
900.0,1800,14634.047725
4700.0,2086,14720.127879
3900.0,1399,14777.908624
4700.0,1867,14853.121336
1000.0,1020,14893.2225
7700.0,2161,14980.815365
1800.0,1728,15048.384352
4700.0,2532,15150.368375
700.0,716,15178.563373
4000.0,1349,15233.521918
7900.0,2383,15329.641821
800.0,1236,15377.429452
700.0,915,15414.263363
3900.0,1382,15467.067076
3900.0,1094,15510.365216
4600.0,1818,15585.188878
3900.0,1414,15641.98044
4000.0,1345,15695.363238
400.0,1026,15735.954166
1100.0,1205,15783.347521
4500.0,1738,15853.946436
900.0,997,15893.067719
700.0,1100,15935.230559
4300.0,1617,16000.609192
900.0,933,16037.825156
4500.0,2119,16122.80097
4200.0,1295,16175.251546
4600.0,1720,16245.130821
4300.0,1903,16321.028929
1500.0,2238,16410.80034
800.0,1126,16454.802619
800.0,1078,16498.742095
1200.0,1175,16545.035865
4100.0,2037,16628.141831
4200.0,1613,16693.716536
4200.0,1595,16760.051193
500.0,927,16797.782334
4000.0,1032,16838.353698
4200.0,1714,16904.931885
900.0,1172,16951.645579
4100.0,1831,17025.287481
4500.0,1759,17096.087919
4000.0,1479,17155.267291
8300.0,2353,17249.273913
4300.0,1290,17300.864598
4000.0,1398,17357.575174
700.0,1085,17400.893155
600.0,1304,17454.281798
4300.0,1911,17530.682713
4900.0,2366,17626.613312
800.0,974,17665.764719
4000.0,1595,17730.850223
1000.0,993,17770.757807
7900.0,3168,17901.259606
4000.0,1633,17966.301674
3900.0,1098,18009.830466
700.0,986,18049.703911
700.0,999,18089.665019
4200.0,1481,18149.995343
4100.0,2029,18230.710764
4300.0,2074,18313.677431
800.0,1277,18366.822233
4100.0,1433,18425.094323
4300.0,1486,18483.417443
4200.0,1621,18547.230035
4800.0,1708,18615.644013
1000.0,880,18650.953114
700.0,1116,18695.890857
7900.0,1907,18772.215893
4100.0,1747,18840.765876
4000.0,1182,18889.233138
600.0,1195,18939.480035
4300.0,1366,18994.564231
4500.0,1781,19065.030703
700.0,922,19103.320296
1100.0,1605,19168.660608
1100.0,1199,19215.576072
4200.0,1639,19282.481873
4300.0,1690,19350.407754
700.0,918,19386.73752
800.0,1111,19430.854683
8400.0,2622,19538.001425
4100.0,1515,19598.259969
400.0,1018,19640.042463
700.0,1109,19683.681211
4300.0,1542,19744.945271
600.0,913,19781.600052
4100.0,1931,19856.949882
4700.0,1758,19927.651093
800.0,1268,19977.651708
700.0,942,20013.942255
4500.0,1637,20077.980644
4600.0,1611,20142.887974
3900.0,1069,20184.569558
4100.0,1157,20230.087299
4600.0,1685,20297.116971
3800.0,1246,20346.608606
900.0,1078,20387.622667
1000.0,1319,20440.17509
4200.0,1792,20513.529756
4400.0,1865,20590.87998
4000.0,1696,20658.595381
4000.0,1368,20714.355454
5000.0,2333,20806.174514
3900.0,1469,20864.843596
4000.0,1403,20921.889617
4800.0,1811,20994.712112
500.0,824,21026.86576
900.0,1348,21078.376676
4000.0,1526,21141.092944
800.0,999,21181.968541
4200.0,1453,21239.186256
4100.0,1433,21299.397528
4400.0,1467,21358.15093
4800.0,2223,21446.979818
1000.0,1405,21502.866897
900.0,1200,21550.808029
4400.0,1559,21613.024381
900.0,1182,21660.806856
4300.0,1792,21733.492726
800.0,920,21769.06415
700.0,1030,21809.254003
4900.0,2159,21897.547111
8100.0,2091,21979.649513
800.0,1041,22019.968662
800.0,1324,22073.041097
4000.0,1519,22135.203449
700.0,1154,22180.849063
4200.0,1717,22252.49221
4400.0,1475,22312.84607
4300.0,1509,22372.523124
4000.0,1465,22433.01774
4100.0,1449,22490.643315
500.0,919,22527.037512
700.0,1141,22572.618779
700.0,1310,22625.78535
900.0,977,22665.519829
4200.0,1553,22725.694499
4300.0,2073,22809.983852
700.0,1104,22853.626098
4100.0,1686,22917.900048
4200.0,1139,22963.752659
4300.0,1854,23038.366449
4700.0,2449,23137.760603
3900.0,1103,23179.741736
800.0,1088,23223.008537
1000.0,1067,23264.583192
3900.0,1389,23319.644712
4900.0,2485,23419.050073
4000.0,1093,23462.204223
4400.0,1660,23530.3447
4000.0,1185,23579.877901
1100.0,1802,23649.256908
4000.0,1237,23697.218151
4600.0,2199,23784.103786
900.0,904,23819.670118
4100.0,1667,23887.949614
4300.0,1416,23944.487648
4300.0,1734,24014.55867
7700.0,2021,24095.612756
4400.0,1812,24168.997826
3900.0,1824,24242.345906
4300.0,2356,24335.616744
4000.0,1313,24388.725426
4100.0,1253,24440.327806
4400.0,1597,24504.739177
4200.0,1892,24582.103122
900.0,1028,24623.050933
4300.0,1752,24694.480341
700.0,1073,24736.216466
3900.0,1215,24782.88163
8000.0,2530,24882.130148
4400.0,1780,24950.073834
600.0,982,24988.141664
4500.0,1324,25041.733278
3900.0,1307,25092.619432
500.0,711,25120.463722
8000.0,1917,25193.121731
900.0,1271,25243.816329
7600.0,1999,25321.586616
4200.0,1652,25385.206113
4500.0,2044,25463.546591
4800.0,1795,25533.813315
4100.0,2011,25609.315506
600.0,1155,25654.013833
8600.0,3276,25785.146183
800.0,1080,25825.605923
4000.0,1539,25885.737554
3900.0,1730,25950.849796
1000.0,1485,26006.182117
1200.0,1578,26067.882712
4900.0,2462,26164.378111
4400.0,1983,26242.106641
1000.0,1280,26293.445134
7700.0,1667,26359.514405
600.0,1227,26407.960495
3800.0,1619,26471.292374
4200.0,1818,26542.017847
600.0,782,26573.16352
400.0,1089,26614.258616
700.0,1090,26654.517488
4300.0,1672,26719.350266
4100.0,1771,26789.308069
4600.0,1665,26852.496869
4900.0,2315,26944.071324
900.0,1081,26986.974475
4100.0,1079,27029.689585
4100.0,1961,27105.539546
700.0,917,27141.605332
4300.0,1837,27212.562516
1100.0,1503,27270.234504
4300.0,2048,27348.157425
4300.0,1183,27394.515563
4400.0,1934,27470.217824
800.0,1048,27510.777066
4500.0,2073,27591.491505
4600.0,1762,27659.919624
4500.0,2035,27739.65664
4300.0,1737,27809.949596
4300.0,1650,27873.106199
700.0,859,27906.665532
3900.0,1022,27946.419286
4300.0,1831,28017.202136
4200.0,2093,28101.280993
700.0,1286,28152.068602
1000.0,1264,28201.920714
4000.0,1188,28248.809078
500.0,876,28282.163627
1300.0,1423,28337.808524
3900.0,1106,28381.012415
4000.0,1849,28454.116595
5100.0,2548,28554.723616
4400.0,1969,28633.356582
4700.0,2084,28714.857844
4400.0,1865,28787.052192
4900.0,2919,28898.698821
1000.0,1036,28939.40092
4400.0,1827,29011.16295
4400.0,2091,29090.967694
800.0,925,29127.595345
4500.0,1573,29190.071851
4100.0,2003,29272.2581
1100.0,1355,29327.828789
4600.0,2234,29416.33218
4000.0,1554,29477.240724
600.0,1451,29532.197616
500.0,790,29562.803308
1000.0,1474,29621.988808
4000.0,1581,29683.380969
4200.0,1648,29748.322136
4900.0,2047,29828.149257
3900.0,1213,29876.405169
800.0,981,29915.142222
4000.0,1068,29955.653339
700.0,1279,30005.832315
4000.0,1547,30066.082297
700.0,995,30103.901802
4500.0,1803,30174.90685
4300.0,2257,30265.888679
1100.0,1871,30337.350378
1100.0,1200,30382.644083
700.0,795,30412.412801
600.0,1115,30455.638224
900.0,1166,30501.065934
800.0,1002,30540.108222
4300.0,1470,30599.05727
4600.0,1975,30676.441402
700.0,837,30709.865171
4200.0,1441,30765.702374
800.0,1351,30818.467378
800.0,1775,30889.033742
3900.0,1125,30932.181338
4400.0,1951,31007.763915
4200.0,1865,31080.302839
4200.0,1614,31143.367759
4100.0,1687,31209.088943
1000.0,1184,31256.035897
700.0,1148,31302.030969
4700.0,2307,31389.617316
4000.0,1280,31441.49204
4300.0,1510,31500.628297
700.0,831,31532.265519
4000.0,1257,31581.900868
4200.0,1405,31636.905171
4300.0,1690,31703.493455
8000.0,2805,31813.582173
3900.0,1186,31861.153003
4000.0,1588,31920.942982
7600.0,1750,31990.458442
600.0,946,32026.044023
4300.0,1587,32086.059966
900.0,1192,32132.856776
1000.0,1273,32182.104962
4800.0,1779,32253.48115
1100.0,1190,32298.812098
4700.0,1871,32372.257209
700.0,828,32403.871609
4200.0,1291,32453.878664
4200.0,1396,32507.593701
700.0,908,32542.603071
700.0,1051,32585.23912
700.0,839,32618.554798
4200.0,1477,32676.861875
4600.0,1558,32739.122051
500.0,952,32776.069527
4100.0,1182,32824.148958
4300.0,1634,32888.957161
1000.0,1714,32957.415224
4300.0,1700,33027.82058
4000.0,1264,33078.237964
1000.0,1171,33124.07307
4100.0,1323,33177.87285
700.0,913,33213.956165
4200.0,1515,33273.780672
4200.0,1251,33323.68988
4300.0,1766,33394.389906
5000.0,1983,33474.477044
4500.0,1847,33547.271402
900.0,1296,33600.489001
800.0,1293,33652.174418
3800.0,1485,33710.797626
4000.0,1415,33766.663274
4400.0,2029,33847.675582
4500.0,1550,33910.36336
8100.0,2017,33990.62784
900.0,1083,34033.783224
900.0,1039,34075.710406
500.0,841,34109.35292
4400.0,1870,34183.548349
4400.0,1858,34260.724212
700.0,1096,34306.020037
4000.0,1178,34354.501095
4200.0,1459,34412.923514
800.0,1179,34461.066856
4500.0,1783,34533.8075
4900.0,1779,34602.36522
4300.0,1649,34667.336637
600.0,831,34701.673142
4000.0,1176,34749.244619
4200.0,1670,34816.920688
4500.0,1856,34890.788423
3800.0,918,34927.430087
5000.0,2945,35044.414404
4300.0,1201,35092.906441
3900.0,1706,35161.28041
4300.0,1337,35215.226227
800.0,1083,35258.879905
4200.0,1984,35339.439844
800.0,1321,35392.304037
8200.0,2129,35476.14373
4500.0,1719,35546.836054
4800.0,2481,35646.090365
3800.0,946,35683.015686
1100.0,1790,35755.855128
1200.0,1496,35817.16353
4300.0,1611,35884.028986
900.0,1407,35939.753657
4000.0,1330,35993.057987
4800.0,2427,36091.685104
4100.0,1811,36163.186292
4000.0,2065,36244.653907
700.0,1465,36304.325109
4000.0,1349,36358.78079
4500.0,2073,36442.779377
600.0,850,36476.171992
3900.0,1461,36535.441706
4200.0,1410,36591.236748
4000.0,1296,36641.052946
600.0,1033,36684.576976
4300.0,1670,36749.758607
4400.0,1357,36801.753279
4500.0,1938,36880.829156
4000.0,1784,36952.750276
900.0,1123,36996.445898
1100.0,1179,37044.407211
700.0,804,37076.516942
1700.0,2028,37159.273921
3800.0,1191,37207.800318
4600.0,2582,37310.050046
4000.0,1732,37379.72877
4800.0,1607,37444.500195
1800.0,1913,37521.334059
500.0,873,37556.279841
4200.0,1295,37610.094606
4300.0,1665,37674.34966
4200.0,1607,37737.07678
4000.0,1476,37797.738454
4000.0,1215,37847.360362
4500.0,1313,37900.073643
4000.0,1041,37940.349423
3900.0,1253,37991.864808
4400.0,1334,38044.697981
500.0,787,38076.037415
900.0,1156,38120.632482
4100.0,1471,38179.434943
4500.0,1507,38239.60641
4700.0,1981,38318.404857
4700.0,1959,38395.064354
4000.0,1201,38442.482091
4200.0,1494,38500.567471
3900.0,1088,38545.273009
900.0,821,38576.398885
4300.0,1599,38639.007664
600.0,898,38673.604899
4300.0,1815,38745.961842
900.0,1241,38796.943667
4300.0,1426,38851.331424
8000.0,2488,38947.065625
8100.0,2653,39050.396865
900.0,1177,39097.889526
1200.0,1932,39173.677639
700.0,1324,39226.627066
4100.0,1846,39300.278815
3900.0,1105,39343.332005
3800.0,1155,39388.23347
4200.0,1859,39460.932272
800.0,1064,39502.421777
500.0,973,39540.655611
7800.0,1770,39610.372734
4200.0,1657,39674.981467
4200.0,1287,39725.802529
4300.0,1563,39784.676993
4000.0,1209,39832.161463
800.0,842,39864.686337
4200.0,1714,39933.512103
7800.0,2088,40012.533158
400.0,890,40046.829368
3900.0,1171,40092.079635
4100.0,1318,40142.705846
1100.0,1330,40195.34916
3900.0,1150,40240.60381
4900.0,2380,40333.86408
3800.0,1170,40379.91926
8000.0,1990,40458.385545
900.0,1253,40507.463592
700.0,1350,40560.06482
500.0,634,40585.075373
7800.0,2501,40683.25865
4100.0,1716,40750.124984
4200.0,1395,40803.503927
4700.0,2213,40889.739949
1000.0,1102,40931.989837
900.0,1132,40973.885232
4000.0,1039,41014.745763
4200.0,1555,41074.675174
4300.0,1519,41133.448696
800.0,1132,41177.85768
3900.0,1120,41222.506428
3900.0,996,41261.460936
5000.0,2205,41348.813494
3900.0,1392,41402.908808
800.0,791,41433.762238
4700.0,2417,41529.23798
4800.0,1930,41604.023141
1100.0,1194,41650.70277
8000.0,2451,41745.867456
4100.0,1068,41787.341684
4200.0,1183,41831.634091
4800.0,1774,41900.625372
4200.0,1395,41955.949482
4100.0,1861,42029.406216
1000.0,1145,42074.730161
4100.0,996,42113.164052
4700.0,1840,42183.439246
1000.0,1929,42257.814108
4300.0,1627,42320.832652
4100.0,1465,42377.299303
4500.0,1422,42432.510782
900.0,842,42465.603546
4700.0,1674,42528.636831
600.0,1290,42581.783701
800.0,851,42615.417993
4200.0,1114,42658.114355
800.0,1020,42698.353193
4100.0,1511,42755.316708
4300.0,1532,42815.927147
7800.0,2039,42895.242533
4500.0,1825,42967.830363
700.0,1158,43012.804199
8100.0,2482,43108.955467
4600.0,1596,43172.760851
1300.0,1448,43230.556698
700.0,1399,43285.404169
1200.0,1562,43347.505756
4000.0,2125,43431.729369
600.0,1017,43470.554729
7700.0,1893,43543.662366
4700.0,2721,43657.94879
4400.0,1858,43732.632634
4400.0,1459,43790.621699
4200.0,1349,43843.874445
5000.0,1874,43916.580178
4000.0,1252,43966.248056
4300.0,1178,44011.884283
4400.0,1567,44074.67036
4400.0,1633,44139.241795
4500.0,1398,44193.801069
1500.0,1747,44260.933546
700.0,926,44297.56391
4300.0,2402,44392.89965
4300.0,1944,44468.974077
1000.0,1214,44515.349332
4000.0,1851,44590.405771
4000.0,1143,44633.71044
1000.0,1305,44684.873211
3800.0,1314,44736.03704
4000.0,1063,44777.350518
900.0,1244,44828.350526
4200.0,1622,44892.112165
1200.0,1410,44949.205066
1000.0,1169,44994.989578
4200.0,1438,45050.34881
4100.0,1668,45116.083612
900.0,1363,45170.705749
700.0,1264,45220.521049
4000.0,1619,45284.754505
4100.0,1427,45340.887833
800.0,1333,45391.870898
4700.0,1483,45449.687409
4300.0,1397,45503.979713
3800.0,1165,45550.383913
800.0,1257,45599.697328
700.0,908,45635.482025
3900.0,1134,45680.497134
4200.0,2045,45760.463305
800.0,1226,45810.234296
4200.0,1304,45862.404136
700.0,990,45898.718649
4000.0,1272,45949.048648
4000.0,1526,46009.356415
4500.0,2506,46106.455365
4200.0,1040,46146.233614
900.0,987,46185.45546
500.0,1303,46238.055652
3800.0,1055,46278.632819
4000.0,1124,46322.710676
4800.0,1733,46390.575038
4100.0,1519,46451.094231
8800.0,2666,46557.231867
4300.0,1779,46625.733244
4200.0,1059,46668.787951
800.0,968,46706.511995
4300.0,1978,46784.177021
800.0,1146,46827.814353
700.0,1156,46872.738846
1100.0,1223,46918.893439
4600.0,1575,46980.030893
4500.0,1681,47045.366925
500.0,686,47072.408379
900.0,1146,47117.251585
700.0,952,47153.981631
800.0,1120,47198.951241
4300.0,1459,47254.54456
4500.0,1653,47320.033365
400.0,774,47348.709527
800.0,919,47384.42292
4400.0,1716,47453.962345
700.0,1002,47493.450052
3900.0,1450,47550.622657
4100.0,1438,47608.313554
4800.0,2037,47687.951859
1200.0,1003,47726.768703
4000.0,1428,47782.958909
800.0,918,47819.288185
700.0,741,47848.139583
800.0,1465,47905.255968
3900.0,1041,47946.116819
3900.0,1548,48006.732674
4000.0,1313,48059.663105
3900.0,889,48093.44428
800.0,1025,48132.646268
4100.0,1575,48196.144677
4700.0,2297,48286.28429
4500.0,1517,48344.519236
800.0,1028,48384.412886
4300.0,1262,48433.038203
4400.0,1515,48491.676423
4100.0,1106,48535.673803
3900.0,1229,48583.553215
900.0,1045,48625.180928
4000.0,1445,48680.52899
4400.0,1695,48747.921916
4000.0,1143,48793.585211
7700.0,1928,48869.980944
7900.0,2700,48977.181104
500.0,902,49013.083115
4500.0,1923,49087.892707
4200.0,1905,49163.821968
800.0,1193,49210.581657
3900.0,1266,49259.553056
1500.0,1353,49311.797305
4600.0,2243,49400.544877
3900.0,1363,49454.63765
4600.0,2054,49534.337454
1200.0,1405,49590.076072
8000.0,2039,49671.922124
4300.0,1539,49732.25891
4600.0,2023,49811.481461
1200.0,1577,49873.847963
4800.0,2498,49971.549739
4500.0,1378,50025.89719
8100.0,1876,50100.427239
4000.0,1475,50157.867384
1000.0,1225,50206.095664
4100.0,1322,50258.626506
4100.0,1401,50315.279647
4100.0,2039,50394.342462
1200.0,1418,50448.624049
4300.0,1784,50518.033662
4500.0,1563,50579.001327
4200.0,1308,50631.357428
4600.0,1581,50693.923826
4400.0,1592,50755.61908
4400.0,1650,50818.911171
1000.0,1416,50875.333876
7800.0,1906,50950.946753
8200.0,2277,51039.854169
4400.0,1940,51115.291281
4600.0,1330,51168.320248
4600.0,1441,51223.11428
4200.0,1562,51284.024042
4500.0,1613,51346.421652
4400.0,1125,51389.388084
4500.0,1694,51455.844223
700.0,1145,51501.313386
1300.0,1411,51555.09798
1300.0,1838,51629.175058
700.0,760,51658.077585
4400.0,1600,51720.865212
4600.0,1709,51787.749727
4200.0,1346,51840.890565
4100.0,1334,51894.107743
1400.0,1379,51947.009375
4000.0,1792,52017.653259
4700.0,1557,52079.200172
4000.0,1589,52143.510868
3800.0,1178,52190.520561
800.0,1414,52247.981669
4400.0,1527,52308.904171
500.0,1169,52356.68685
7800.0,1671,52425.607225
3900.0,1073,52467.999398
4000.0,1094,52511.609203
4000.0,1291,52564.811097
800.0,923,52601.278792
4400.0,1440,52660.270494
7900.0,1753,52730.127579
4000.0,1212,52779.196977
4000.0,1401,52835.18739
800.0,1063,52877.420587
800.0,1190,52924.916799
4000.0,1553,52988.455405
4300.0,1384,53045.830038
4000.0,1299,53098.997802
500.0,1183,53145.875963
4200.0,1557,53209.334075
900.0,1306,53261.09478
4400.0,1572,53323.053229
600.0,1031,53364.170505
4900.0,1930,53441.552661
700.0,920,53479.074822
4000.0,1552,53540.928118
900.0,1297,53593.348841
3900.0,1135,53638.920876
3800.0,1301,53692.715437
4200.0,1538,53755.586838
4200.0,1764,53824.538566
3900.0,1155,53871.401445
4000.0,1289,53922.083869
4300.0,1187,53968.706556
4900.0,2016,54051.785298
3900.0,1215,54098.838069
4000.0,1164,54145.143223
4200.0,1562,54208.866881
700.0,823,54242.347712
3900.0,1289,54293.969204
1000.0,1234,54343.248589
800.0,1105,54389.000225
4200.0,1489,54449.006438
4300.0,1780,54520.971057
8300.0,2302,54613.498432
4300.0,1394,54669.382875
500.0,789,54700.442075
4000.0,1372,54754.277846
600.0,1137,54799.345853
1100.0,1080,54841.955798
800.0,1035,54885.132339
4500.0,1996,54965.684424
4300.0,1222,55013.999532
3900.0,911,55051.238034
800.0,1095,55094.160444
4300.0,1648,55161.852167
4200.0,2031,55244.424349
700.0,1098,55288.858029
4000.0,1374,55344.52964
700.0,744,55374.193888
4200.0,1751,55444.408124
1000.0,1148,55490.804635
1000.0,1390,55545.563772
4100.0,1464,55604.178936
4400.0,1281,55655.014609
900.0,1044,55695.31066
500.0,806,55726.765684
800.0,1109,55773.262696
4400.0,1517,55831.75657
500.0,875,55866.966102
4700.0,1706,55934.006634
3900.0,817,55965.796221
900.0,1337,56020.611514
900.0,1102,56063.548494
7700.0,2053,56143.738497
600.0,999,56183.526513
700.0,1091,56225.702292
4600.0,2192,56313.079797
4500.0,1881,56385.724925
500.0,788,56416.189464
1000.0,946,56453.120835
4000.0,1147,56499.205242
4800.0,1750,56567.898372
8000.0,1863,56640.835205
600.0,1101,56684.203631
4600.0,1813,56756.645416
3900.0,916,56794.065715
4600.0,1691,56862.642042
4400.0,1348,56914.812146
900.0,1140,56959.040885
700.0,1075,57000.786791
4500.0,2125,57082.914811
4700.0,2013,57162.241468
700.0,1047,57203.467951
4400.0,2559,57304.349924
7600.0,1861,57377.82091
7700.0,1643,57441.485387
4000.0,1480,57499.279622
3900.0,1324,57551.08842
800.0,1024,57590.819813
4000.0,994,57629.847554
4300.0,1187,57677.097501
1200.0,1171,57724.432143
1200.0,1766,57793.854333
4400.0,1674,57858.175819
600.0,858,57891.599058
3900.0,1460,57947.835165
500.0,1202,57995.584538
3800.0,1504,58053.185053
1000.0,991,58091.686109
4500.0,1898,58167.898487
8400.0,2412,58261.532772
4500.0,1480,58320.480457
4100.0,1350,58373.995323
4600.0,1754,58440.838753
900.0,1291,58491.607888
4000.0,1040,58531.984128
4400.0,1940,58611.764048
3900.0,1350,58663.277714
3900.0,1451,58719.489398
4100.0,1655,58783.273795
600.0,839,58815.597447
4500.0,1600,58878.309277
4200.0,1543,58938.070339
3900.0,1275,58987.272634
4400.0,1568,59050.277506
800.0,921,59086.788847
4300.0,1564,59148.262961
4700.0,1699,59217.821229
4300.0,2200,59302.588282
4500.0,1424,59360.905772
4300.0,1619,59423.89519
4700.0,1571,59484.690862
4000.0,1291,59535.780636
4100.0,1600,59598.134531
500.0,1175,59645.33965
4400.0,1228,59694.75011
4100.0,982,59732.495056
600.0,713,59758.798524
5000.0,2277,59847.43762
3900.0,963,59885.53154
7900.0,2096,59966.913993
800.0,1097,60009.479619
700.0,1017,60048.086466
4100.0,1110,60090.625992
4000.0,1341,60142.413847
4300.0,1738,60210.983329
800.0,1000,60249.516366
4900.0,1573,60311.23895
3800.0,743,60340.12109
900.0,1132,60384.753047
4500.0,1858,60457.562191
700.0,1069,60499.11936
700.0,1040,60539.462867
4300.0,1996,60616.790383
4100.0,1389,60672.216136
4700.0,1606,60735.103234
700.0,960,60772.200351
700.0,721,60800.117716
3900.0,1208,60848.345542
1200.0,1346,60902.142981
900.0,780,60933.40692
800.0,1176,60979.345434
4000.0,1486,61036.979659
4200.0,1449,61093.725619
4600.0,1557,61156.971523
4400.0,1571,61219.765649
4000.0,1185,61266.56443
600.0,768,61296.128934
700.0,839,61329.0148
4200.0,1556,61391.503185
700.0,854,61425.535759
4500.0,1608,61490.885566
4200.0,1574,61553.319639
4400.0,1876,61627.003291
4300.0,1461,61682.563743
700.0,855,61716.097085
800.0,784,61747.173313
4300.0,1505,61806.012301
4100.0,1168,61852.875286
4500.0,1829,61925.061144
3800.0,1066,61967.371393
4900.0,1666,62032.993022
4300.0,1355,62084.29301
4300.0,1721,62152.427559
4100.0,1727,62220.024171
700.0,949,62255.754506
4500.0,1515,62315.483785
800.0,1443,62371.955498
4300.0,1496,62429.889001
4500.0,1495,62489.280076
4400.0,1184,62536.610862
4000.0,1239,62586.379367
900.0,980,62625.323273
3900.0,917,62660.577256
4100.0,1391,62714.70414
3900.0,988,62753.567461
4400.0,1323,62804.161852
4100.0,1624,62867.713258
3900.0,1357,62920.076311
700.0,856,62952.000159
1100.0,1029,62991.754026
7700.0,2156,63078.70243
700.0,763,63108.013294
4200.0,1260,63157.54559
800.0,1415,63213.52315
8500.0,3113,63336.226349
4300.0,1203,63382.944396
8100.0,2046,63463.855161
4000.0,1427,63520.952013
800.0,860,63554.091367
4600.0,1772,63623.823555
4000.0,1226,63673.388576
700.0,946,63710.791203
4600.0,2390,63805.86624
1100.0,1152,63850.62794
4100.0,1408,63906.054047
4400.0,1412,63960.543561
4000.0,1245,64007.631142
4200.0,1498,64066.654569
4000.0,1551,64129.596287
700.0,1047,64171.291732
500.0,848,64204.411656
4300.0,1113,64247.689861
4400.0,1573,64310.751972
4900.0,2401,64404.661844
800.0,919,64440.997481
700.0,910,64476.481948
4300.0,1751,64545.399771
4600.0,1815,64618.736362
4300.0,1391,64675.244943
800.0,986,64711.754694
4600.0,1412,64769.181569
4400.0,1160,64817.277565
4200.0,1455,64873.723646
4100.0,1238,64922.027168
800.0,837,64955.555087
4400.0,1410,65009.021541
7800.0,1809,65078.656522
4600.0,1541,65137.161061
4400.0,1190,65181.327867
1000.0,1080,65223.1302
800.0,776,65253.743829
5100.0,1796,65324.83716
4500.0,1418,65378.848673
500.0,1182,65425.257127
4100.0,1217,65473.048466
4800.0,1994,65549.780829
3900.0,981,65587.411533
3900.0,1143,65629.340058
900.0,1067,65671.917487
3900.0,1110,65716.390851
4100.0,1773,65785.246689
3900.0,1192,65833.734968
4600.0,1762,65901.780319
3900.0,1242,65950.332202
4300.0,1393,66005.20124
4000.0,1166,66050.190318
700.0,1165,66097.528792
4100.0,1380,66151.735542
4200.0,1484,66210.97515
4100.0,1670,66277.298851
4600.0,1730,66348.113953
4200.0,1612,66412.15906
800.0,1150,66454.775173
4700.0,1622,66520.334032
1100.0,1181,66568.754128
4300.0,1673,66639.217501
800.0,682,66667.003811
4200.0,1344,66721.59159
4700.0,2399,66815.248894
800.0,1080,66857.852169
700.0,824,66889.589523
4100.0,1599,66951.999614
4100.0,1555,67014.904185
1400.0,1731,67084.546452
600.0,723,67112.018475
800.0,990,67153.123454
8300.0,2266,67244.123892
4300.0,1320,67296.824181
800.0,930,67333.548427
4000.0,990,67371.210985
4300.0,1129,67413.727485
4000.0,1091,67458.175195
600.0,975,67496.473071
4500.0,2231,67585.003728
400.0,688,67612.224975
4300.0,1721,67680.787844
4200.0,1706,67747.56281
4400.0,1794,67818.477929
4200.0,1128,67864.143473
400.0,777,67894.584995
4200.0,1658,67959.837128
4700.0,1762,68027.501051
4100.0,1480,68085.198271
4500.0,1288,68137.201313
1000.0,1123,68180.311036
4600.0,1506,68237.981016
4700.0,1478,68293.330313
4600.0,1679,68357.309802
800.0,1025,68394.709225
800.0,946,68433.138249
500.0,696,68460.808938
4100.0,1382,68514.340128
700.0,712,68540.47591
4100.0,1865,68613.507223
4000.0,1359,68667.621171
4000.0,975,68705.709627
500.0,791,68736.541335
1000.0,876,68771.436716
900.0,1066,68814.952246
4000.0,1179,68862.018163
4000.0,1140,68905.678044
1200.0,1264,68956.174054
4300.0,1650,69022.533435
4200.0,996,69061.153265
4500.0,1416,69117.576792
4300.0,1202,69164.67252
4500.0,1656,69228.419011
4000.0,1216,69275.6973
5000.0,1960,69352.867869
4800.0,1868,69424.925673
1000.0,1032,69464.261697
700.0,827,69496.433628
3900.0,1329,69549.039141
4600.0,1525,69608.857792
1000.0,990,69647.455709
4100.0,1428,69705.248381
7600.0,2381,69799.218918
700.0,894,69833.082382
800.0,746,69861.93459
3900.0,1135,69908.407359
4100.0,1465,69964.91163
4400.0,1547,70025.149046
600.0,955,70064.040159
4000.0,1139,70109.506845
3900.0,1060,70151.080937
4000.0,2044,70231.372134
4100.0,1173,70279.564312
4000.0,1420,70336.489058
700.0,1065,70379.217366
800.0,872,70412.988667
4200.0,1531,70472.793226
4000.0,931,70508.669608
4000.0,1163,70553.329954
800.0,1229,70601.192153
4000.0,1029,70641.108381
4500.0,1649,70707.654564
4100.0,1298,70760.248003
300.0,914,70796.9913
700.0,922,70832.595589
400.0,691,70858.926844
4600.0,2184,70944.6343
4100.0,1109,70989.394726
1100.0,1323,71042.072629
4300.0,1593,71104.094159
900.0,715,71130.758394
3800.0,978,71169.742366
8300.0,2428,71265.491756
4100.0,1398,71321.963551
3800.0,839,71355.224328
4000.0,1107,71400.048683
1200.0,811,71432.558623
600.0,714,71460.359339
600.0,690,71487.008356
4000.0,1367,71539.277791
800.0,924,71575.32883
4200.0,1249,71624.123637
800.0,712,71650.139189
4100.0,1208,71699.089474
4200.0,1546,71759.169641
4100.0,1203,71807.563138
4100.0,1163,71854.203923
3900.0,963,71892.500934
4100.0,1060,71934.856744
3900.0,1059,71974.9861
4400.0,1167,72019.387303
4400.0,1459,72076.411906
3800.0,1179,72122.72068
4400.0,1541,72184.444252
4100.0,1505,72244.235882
4300.0,1457,72299.857224
4400.0,1674,72366.84232
4200.0,1772,72436.886518
4500.0,2070,72521.198645
4500.0,2003,72599.471841
4100.0,1454,72658.073497
4000.0,1205,72705.991046
4500.0,1910,72780.871733
900.0,1056,72821.518655
900.0,1041,72861.191087
600.0,826,72892.524873
800.0,762,72921.924504
1100.0,1176,72969.83107
300.0,901,73004.747992
4000.0,1097,73047.650655
4600.0,1276,73096.112866
4400.0,1416,73148.622104
4600.0,1630,73213.150042
600.0,803,73244.653417
500.0,687,73270.948511
900.0,1134,73316.317266
4100.0,1190,73362.943517
3900.0,983,73402.511915
4300.0,1184,73449.141137
4000.0,1206,73497.148509
4000.0,947,73536.616082
4000.0,1022,73575.716185
700.0,1054,73618.834165
1000.0,857,73651.348373
3900.0,872,73686.643137
3900.0,1429,73742.107421
1300.0,1616,73807.479349
4700.0,1620,73873.53799
1400.0,1239,73925.353118
4400.0,1081,73968.939855
900.0,757,73999.49709
4000.0,1071,74042.180256
4100.0,926,74080.113669
4500.0,1685,74151.167742
4500.0,1411,74211.274097
3900.0,951,74251.10389
4300.0,1559,74318.452653
4100.0,1205,74368.128884
4000.0,1104,74413.919244
4300.0,1556,74476.84968
900.0,915,74514.010418
4000.0,1290,74568.621325
600.0,758,74601.09016
900.0,916,74637.416206
4400.0,1117,74683.942301
4100.0,1387,74739.888564
4300.0,1056,74783.245286
3900.0,961,74824.050825
4700.0,1912,74903.646614
3800.0,808,74936.073047
600.0,721,74966.575148
700.0,766,74996.90861
4200.0,1183,75046.777927
900.0,818,75080.40227
4400.0,1632,75148.270641
1100.0,1191,75197.216742
900.0,1318,75250.666235
4000.0,1219,75300.855808
800.0,1085,75345.994521
4300.0,1284,75398.936622
4300.0,1493,75459.55021
4300.0,1400,75516.089432
3900.0,982,75555.188201
1300.0,1480,75614.838018
900.0,1229,75665.100331
4400.0,1466,75723.818318
4400.0,1369,75780.726501
4000.0,1218,75832.146787
800.0,892,75868.825237
800.0,768,75900.016631
900.0,1343,75955.58101
700.0,924,75992.37432
4000.0,1080,76036.668076
900.0,1175,76083.581734
4400.0,1632,76150.693765
4100.0,1496,76211.744422
4300.0,1674,76279.584356
4300.0,1346,76334.698247
4100.0,1045,76376.044063
4100.0,1490,76435.161032
800.0,815,76467.837832
900.0,1038,76509.824741
4200.0,1184,76558.73847
4400.0,1697,76627.211064
4000.0,861,76662.572777
4300.0,1714,76733.802341
800.0,948,76771.99691
4200.0,1508,76835.167179
4500.0,1824,76910.44962
8000.0,2171,77000.283363
1000.0,834,77034.46012
4000.0,964,77076.073385
4100.0,1376,77132.256878
4300.0,1431,77193.198244
4400.0,1560,77258.593523
4000.0,1102,77303.795788
4700.0,1865,77384.105041
4500.0,1966,77466.490722
4100.0,878,77501.500218
4300.0,1611,77566.884837
4100.0,1625,77633.309753
3900.0,978,77671.203664
3800.0,791,77703.718915
7600.0,1651,77771.440084
4000.0,1060,77815.387638
4300.0,1921,77893.893393
4000.0,1200,77943.256287
4400.0,1233,77995.65993
4300.0,1620,78062.615885
1000.0,1193,78110.616333
4100.0,1413,78168.881464
4200.0,1461,78230.039178
3900.0,1259,78282.017152
900.0,790,78314.775972
4400.0,1778,78387.558304
4200.0,1224,78437.017657
4500.0,1589,78501.457245
4500.0,1232,78553.786047
700.0,1082,78598.899179
4100.0,916,78638.529682
4100.0,1105,78683.480023
4000.0,963,78723.966345
800.0,918,78760.203326
4000.0,987,78801.292506
4000.0,1084,78844.584181
600.0,1358,78900.318253
1000.0,727,78930.104366
3800.0,1130,78975.680528
4600.0,1777,79050.850548
4400.0,1842,79129.650906
500.0,838,79164.646135
3800.0,866,79202.784772
800.0,745,79232.774519
4400.0,1438,79293.110314
4500.0,1501,79356.293241
4300.0,1474,79419.243473
4100.0,1156,79469.479316
4600.0,1921,79547.742366
4200.0,1077,79590.385157
900.0,1176,79636.925329
900.0,715,79665.605191
4000.0,1320,79719.686484
4700.0,1861,79794.962033
3900.0,877,79830.639481
4000.0,1036,79872.339681
4000.0,954,79910.655721
4400.0,1111,79955.182071
4100.0,954,79993.944552
4600.0,1525,80057.149184
800.0,1073,80101.681482
4500.0,1388,80162.285313
4300.0,1189,80210.35588
4100.0,1057,80253.220552
4000.0,979,80295.464284
4200.0,1487,80358.567711
4300.0,1479,80420.32391
7800.0,2080,80506.340323
4000.0,1078,80551.093292
3800.0,757,80581.90315
4500.0,1571,80645.242051
4100.0,1105,80691.211781
3800.0,835,80726.413535
1000.0,743,80756.206749
600.0,867,80790.856861
800.0,682,80819.825807
800.0,991,80860.505626
4400.0,1366,80918.294955
8300.0,2116,81006.440896
4100.0,1185,81055.45079
3900.0,1149,81101.434169
4500.0,1941,81181.841608
4000.0,994,81222.313807
4100.0,1305,81275.722554
7600.0,2067,81360.597842
3900.0,862,81396.226951
4200.0,1233,81447.780128
4100.0,1061,81491.663122
4600.0,1253,81544.529387
7800.0,2313,81642.661938
4400.0,1190,81691.354324
4400.0,1339,81746.019446
800.0,886,81783.212761
800.0,1147,81827.741912
1200.0,1575,81892.377275
800.0,808,81924.057347
4200.0,1070,81968.301444
900.0,959,82009.015642
4100.0,1411,82070.027379
4500.0,1665,82138.207552
3800.0,750,82168.09164
4700.0,1557,82231.972184
4000.0,903,82268.824605
900.0,766,82301.956112
4100.0,1017,82342.56153
4600.0,1946,82422.457878
4300.0,1476,82482.624956
8200.0,1786,82556.260983
4300.0,1421,82614.43471
4000.0,1132,82663.052615
900.0,751,82694.300272
3900.0,1250,82744.408925
7900.0,2456,82846.312925
800.0,1013,82886.932696
7800.0,1743,82961.019278
4100.0,1186,83009.817296
4300.0,1395,83067.739014
4800.0,1738,83139.224456
4100.0,1294,83193.908663
700.0,949,83231.797222
4600.0,1181,83279.74292
600.0,880,83314.362098
4600.0,1306,83368.161937
1000.0,855,83402.79606
4100.0,1239,83454.273397
4300.0,1383,83509.821109
4500.0,1402,83567.509696
700.0,1094,83610.383932
900.0,888,83646.803408
4000.0,1106,83692.794867
4000.0,1079,83734.625459
4000.0,1225,83785.377596
4200.0,1046,83827.39012
800.0,1085,83871.790911
4200.0,1256,83922.042686
4400.0,2003,84003.720757
8000.0,2589,84109.031916
4500.0,1480,84168.704576
9100.0,3178,84295.648305
4000.0,1182,84341.704164
4200.0,1288,84396.047119
4200.0,1137,84442.949178
4000.0,1011,84483.589649
4000.0,1107,84528.967408
4300.0,1055,84570.566639
3900.0,1700,84641.747645
1000.0,1046,84683.48158
4100.0,1284,84734.783445
7700.0,1821,84808.582873
700.0,894,84844.405798
3900.0,931,84881.62121
4200.0,1041,84924.406981
3900.0,1233,84973.09046
4100.0,1098,85017.349333
4300.0,1475,85076.361624
4700.0,1464,85134.241223
700.0,768,85164.212013
4500.0,1692,85232.185424
4600.0,1329,85287.097111
4100.0,914,85324.323749
4000.0,1111,85368.505431
4000.0,1217,85416.280573
4200.0,1203,85464.419847
4200.0,1246,85513.956865
4400.0,1425,85570.800772
4200.0,1252,85622.366185
7700.0,1978,85701.450441
4400.0,1779,85773.195293
4000.0,902,85811.894328
4600.0,1714,85882.609467
4600.0,1768,85954.682168
700.0,739,85985.55807
1100.0,804,86018.063582
3800.0,776,86049.371348
4400.0,1088,86093.420824
4900.0,1751,86162.934602
600.0,899,86197.344281
4300.0,967,86235.431995
4100.0,1186,86281.618216
3900.0,979,86319.041623
600.0,682,86345.752197
7800.0,1505,86405.783777
3900.0,885,86440.073847
4900.0,2071,86521.403769
4200.0,1417,86575.497166
800.0,791,86605.749791
4000.0,1187,86653.553807
4100.0,1194,86701.111547
1000.0,1272,86751.921306
4800.0,1576,86815.2897
4000.0,1216,86862.06092
5100.0,2542,86962.125484
7700.0,1353,87016.214584
4400.0,1421,87071.658988
4200.0,1371,87126.443702
4200.0,1183,87173.816173
4000.0,1024,87214.386588
1100.0,730,87243.642222
4600.0,2041,87326.726089
4600.0,1513,87384.638631
900.0,778,87415.523956
800.0,983,87455.02297
700.0,827,87487.853678
4200.0,1584,87551.840838
800.0,751,87583.099338
4400.0,1264,87634.100133
4300.0,1327,87685.282913
4000.0,825,87717.001645
4800.0,2095,87798.671898
4700.0,1503,87860.201796
4900.0,1815,87933.849458
4200.0,997,87972.806526
3900.0,1082,88016.059708
3900.0,695,88043.902729
4600.0,2572,88145.216532
4000.0,983,88183.142901
4000.0,945,88220.071159
1000.0,920,88255.852388
1000.0,804,88285.936994
4300.0,1616,88348.708741
3900.0,979,88388.150625
4400.0,2185,88473.877888
4100.0,1399,88527.391607
4600.0,1294,88577.759129
800.0,920,88615.509451
4200.0,985,88653.791382
4200.0,1091,88694.801835
4000.0,1104,88739.016698
3900.0,1115,88783.575106
1200.0,1176,88830.556963
3900.0,1077,88872.416941
4200.0,1307,88921.857409
800.0,724,88948.742725
900.0,726,88977.417814
3900.0,900,89011.756058
3900.0,930,89047.13805
4100.0,1253,89094.662552
900.0,1266,89144.260814
1000.0,744,89173.298715
4500.0,1461,89230.664596
7600.0,1843,89302.883836
4100.0,1218,89351.080772
4100.0,871,89384.47033
4000.0,928,89419.336673
4000.0,1146,89463.227157
4100.0,1042,89503.933554
7900.0,2108,89584.643102
4100.0,983,89620.981036
3800.0,1494,89679.23894
4300.0,1289,89728.103818
4400.0,1692,89792.57049
4500.0,1265,89841.051443
4200.0,1063,89882.410074
4500.0,1260,89930.793615
3900.0,907,89964.664036
4700.0,1825,90032.169744
4000.0,984,90070.995808
4400.0,1532,90130.765472
4400.0,1715,90197.297192
4400.0,1489,90252.085664
800.0,672,90278.411925
7800.0,1557,90338.435791
900.0,725,90368.487412
8300.0,2320,90458.25284
4200.0,986,90495.354095
7900.0,1698,90560.932131
4100.0,1232,90608.103604
4500.0,1330,90658.879478
4000.0,939,90694.035171
4600.0,1278,90740.887719
900.0,985,90776.851812
4800.0,1696,90841.385434
4600.0,1331,90892.714118
4000.0,1016,90928.789188
4000.0,867,90960.920974
4200.0,1200,91006.267003
4000.0,1177,91049.150854
4200.0,1597,91107.574632
3900.0,1180,91150.831163
4200.0,984,91188.242851
4200.0,1088,91228.124269
4500.0,1441,91281.361355
1000.0,743,91308.031513
8100.0,1589,91365.764385
4100.0,837,91396.836045
4000.0,1067,91436.087115
4800.0,1964,91507.31669
900.0,763,91536.317683
1000.0,1047,91574.387051
4400.0,1481,91629.443937
3800.0,701,91655.227549
7600.0,1614,91714.562077
4000.0,932,91748.973004
4300.0,1072,91786.784542
3900.0,923,91821.064938
4100.0,1304,91869.581459
4300.0,1496,91923.888625
7700.0,1408,91976.955421
4600.0,1352,92025.740149
4400.0,1676,92089.362852
4500.0,1588,92147.648738
4800.0,1493,92203.25314
4300.0,1420,92255.655553
4100.0,1282,92302.547925
4100.0,1305,92351.098282
3800.0,783,92379.057856
4000.0,1021,92419.166605
4300.0,1276,92467.252049
3800.0,907,92500.587561
8000.0,2222,92583.999439
4700.0,1801,92649.380899
4600.0,1219,92694.627934
1100.0,1077,92734.699894
4300.0,992,92770.113469
4400.0,1250,92816.305632
4500.0,1608,92878.884261
4100.0,991,92915.835607
4400.0,1226,92961.134127
4200.0,1164,93004.408985
7800.0,1588,93063.473082
4100.0,1055,93103.819961
900.0,790,93133.30988
4200.0,1232,93180.198572
7700.0,1704,93242.805334
4500.0,1456,93299.86097
7800.0,2030,93376.114472
4300.0,1176,93419.833081
4300.0,1109,93459.827732
4100.0,1162,93503.569882
4100.0,1045,93541.285129
4500.0,1764,93606.511319
8700.0,2309,93690.106454
4000.0,1303,93737.665932
4700.0,1461,93793.053795
4100.0,994,93829.500381
4300.0,1445,93882.601403
3900.0,752,93910.58448
4100.0,1234,93957.710923
4400.0,1636,94021.811786
1000.0,742,94048.539421
4300.0,1445,94103.920921
4300.0,1106,94145.048022
4500.0,1296,94194.394971
4300.0,1697,94258.307902
4400.0,1173,94302.977664
4100.0,1163,94346.977739
3900.0,912,94381.014242
4200.0,1201,94426.557852
4200.0,1185,94470.507338
4600.0,1521,94523.746134
4400.0,1373,94574.080609
3800.0,838,94604.662298
4300.0,1653,94667.096533
1000.0,760,94695.90371
4800.0,1795,94757.631196
4600.0,1562,94815.292492
4100.0,947,94848.089581
3900.0,1221,94892.539567
4100.0,1044,94926.390271
4300.0,985,94963.11452
4500.0,1263,95010.727638
4300.0,1076,95049.241104
7700.0,1540,95102.717099
4700.0,1553,95155.527431
4600.0,1503,95209.701722
4100.0,1189,95251.927852
4000.0,1155,95291.799984
600.0,824,95321.19583
4100.0,837,95350.396168
4400.0,1487,95401.565146
4400.0,1111,95440.086627
4000.0,982,95474.608088
4100.0,981,95506.536688
4200.0,1191,95547.319972
4500.0,1560,95600.125138
700.0,668,95624.298542
4400.0,1468,95677.721287
900.0,908,95710.629474
4500.0,1365,95756.342875
4100.0,913,95788.687936
4800.0,1656,95847.416375
4100.0,1135,95887.615722
4400.0,972,95919.624651
8000.0,1922,95983.985316
800.0,714,96009.405063
7700.0,1257,96051.221552
800.0,990,96085.356258
4500.0,1642,96142.180599
8000.0,1658,96198.957465
11800.0,2882,96298.712219
4400.0,1373,96347.405174
4400.0,1527,96399.604074
800.0,917,96431.027259
4500.0,1461,96480.327048
4200.0,1140,96518.188576
4000.0,1119,96555.306604
4200.0,1473,96606.88339
1500.0,1203,96649.363669
4600.0,1279,96693.304713
4200.0,1205,96733.579229
4200.0,1198,96776.373922
4200.0,1094,96812.864267
4700.0,1399,96859.108004
800.0,1223,96897.473282
3800.0,761,96920.995765
800.0,696,96942.417592
4100.0,1021,96975.857466
7800.0,1388,97021.401147
4900.0,1497,97068.482364
4000.0,1183,97106.160035
7700.0,1325,97150.04779
4400.0,1064,97184.998984
4600.0,1477,97232.851337
4200.0,1082,97267.364462
4200.0,1463,97314.250458
3900.0,1185,97350.437379
4900.0,1520,97398.724362
4500.0,1426,97444.077623
8500.0,2345,97519.228283
800.0,664,97540.178078
4100.0,1054,97573.580525
4500.0,1145,97608.220028
4800.0,1897,97669.840614
4100.0,1088,97702.817465
4100.0,967,97731.166507
4400.0,1283,97769.60702
4600.0,1491,97815.684537
4400.0,1311,97856.936646
4000.0,979,97886.069164
4400.0,1014,97918.499899
3900.0,1067,97950.339388
4100.0,1069,97982.770285
4200.0,1071,98016.64584
8100.0,1821,98072.752566
4200.0,1256,98110.546242
4600.0,1460,98156.70105
4400.0,1095,98191.291888
4400.0,1447,98234.054149
4700.0,1489,98278.617798
3900.0,804,98301.015054
4200.0,1215,98337.131194
4100.0,1169,98373.781809
4300.0,1184,98410.575951
4700.0,1530,98457.100994
4700.0,1951,98517.733722
800.0,713,98539.123168
4500.0,1355,98581.091211
8500.0,2422,98654.31349
4200.0,1665,98703.974091
4200.0,1490,98750.968378
4200.0,1232,98787.961768
4600.0,1404,98830.079484
4200.0,1023,98862.47938
4600.0,1895,98918.192651
4400.0,1790,98969.923589
4000.0,1046,98999.118049
4300.0,1325,99036.817638
4000.0,1089,99066.693231
4400.0,1483,99106.733762
