# {"t_start": 1547505973.8783436, "env_id": "RoadRunnerNoFrameskip-v4"} 
r,l,t
0.0,149,15.393572
0.0,121,20.300427
0.0,86,24.102112
0.0,103,27.941513
0.0,144,33.714157
0.0,123,39.038041
0.0,121,45.172369
0.0,140,51.470048
0.0,99,55.327235
0.0,257,67.156941
0.0,124,71.615051
0.0,84,75.279873
100.0,338,91.156569
1300.0,408,110.171859
0.0,84,113.38642
0.0,92,117.564067
2200.0,652,148.806736
0.0,100,153.728842
400.0,309,167.25675
0.0,232,177.677999
1600.0,337,192.479519
100.0,360,209.586003
200.0,600,237.591218
0.0,153,244.209867
400.0,801,280.319371
300.0,445,301.547142
1200.0,793,336.980395
3700.0,805,375.617902
400.0,638,404.782495
2300.0,891,445.064415
1000.0,365,460.5444
2100.0,472,480.159113
1700.0,543,504.690789
2100.0,507,527.37712
2100.0,406,545.500461
1100.0,337,560.908108
1000.0,365,574.858303
2100.0,320,589.693203
2300.0,383,606.323218
1100.0,386,623.163815
1100.0,301,637.244552
1300.0,540,662.010721
2100.0,512,684.983135
3600.0,993,729.552986
2600.0,860,766.645803
2600.0,1178,818.442799
1300.0,389,835.773034
500.0,1038,881.134332
1200.0,508,904.291026
3300.0,1049,951.95526
1200.0,425,969.423144
1400.0,694,1002.153162
200.0,698,1034.143211
1600.0,978,1076.036525
1200.0,551,1101.820075
1500.0,478,1124.056405
600.0,838,1161.176447
1300.0,800,1198.912674
1300.0,1034,1247.064816
1100.0,405,1264.471539
1100.0,367,1279.215956
1000.0,347,1293.382511
100.0,461,1313.045011
2400.0,937,1356.503549
600.0,616,1382.791659
1300.0,522,1406.562447
1500.0,421,1424.813053
1400.0,440,1446.096572
1400.0,473,1466.712231
1300.0,338,1481.409161
1200.0,347,1497.300334
100.0,307,1510.965341
2300.0,455,1530.818839
1300.0,409,1548.999019
200.0,304,1563.573288
1100.0,364,1579.352706
1400.0,460,1601.125341
2100.0,450,1620.708045
1100.0,336,1635.578447
400.0,342,1650.676438
2300.0,508,1672.828737
1400.0,540,1695.277964
2100.0,488,1718.635711
2100.0,369,1734.233652
100.0,419,1753.093369
200.0,639,1782.091101
400.0,454,1802.482641
3200.0,844,1841.219543
3100.0,971,1884.924963
2200.0,395,1901.984723
4600.0,577,1929.359273
2300.0,508,1952.224533
2100.0,378,1969.195985
2300.0,473,1990.303482
1000.0,331,2003.725706
1100.0,270,2017.630684
1500.0,539,2042.850189
3100.0,536,2066.681492
2500.0,474,2087.990935
1200.0,524,2111.922392
2300.0,466,2132.558616
3600.0,651,2162.638238
2100.0,317,2176.08715
2300.0,474,2199.04222
3400.0,996,2242.731966
2400.0,590,2268.931897
3400.0,437,2288.694327
100.0,410,2306.056303
3300.0,542,2330.492403
3400.0,1078,2376.476118
4500.0,896,2415.96124
3600.0,770,2449.058703
4800.0,698,2480.898774
3300.0,858,2517.30588
1400.0,496,2539.464044
3100.0,365,2556.070495
2200.0,312,2569.63083
3100.0,801,2606.22127
2100.0,266,2618.128568
3500.0,518,2639.268356
5600.0,669,2672.469808
3900.0,907,2713.231024
4600.0,519,2737.395014
600.0,820,2774.178421
1900.0,1031,2820.289677
3700.0,1006,2864.525405
4100.0,849,2903.396558
4300.0,1059,2950.238977
4100.0,1083,3001.355583
3800.0,1060,3048.843476
1100.0,308,3064.295174
500.0,616,3090.274366
6600.0,1097,3136.605164
4000.0,652,3166.699988
4600.0,1013,3213.995561
3100.0,750,3246.563551
6800.0,1096,3296.073711
4600.0,802,3330.686648
5300.0,839,3370.204201
3200.0,396,3387.926517
1700.0,470,3409.269361
1100.0,366,3426.17038
6700.0,1034,3473.451473
300.0,505,3496.054944
5500.0,1058,3543.556848
7800.0,1101,3594.265737
4000.0,1105,3642.135504
4700.0,1041,3686.415925
7600.0,1045,3733.565166
500.0,1061,3781.856309
5500.0,986,3823.748457
8300.0,1123,3872.337324
7800.0,1026,3916.91345
3500.0,834,3954.207671
300.0,505,3976.847413
8700.0,981,4020.978266
7300.0,588,4048.050242
500.0,1058,4096.44832
2500.0,478,4117.487387
4500.0,1032,4164.383168
3200.0,543,4189.446604
2300.0,367,4205.761728
1200.0,480,4227.622756
4300.0,804,4264.406967
5600.0,973,4309.056477
6700.0,1173,4360.829155
9100.0,1049,4405.821081
6700.0,957,4450.093259
4600.0,959,4493.639646
5800.0,973,4537.702191
6900.0,1064,4584.927177
5000.0,991,4628.988837
4500.0,507,4651.439188
6600.0,977,4694.598366
400.0,508,4717.278726
6700.0,1036,4763.893556
2200.0,362,4779.953156
1100.0,315,4793.081662
6100.0,1000,4838.410465
4500.0,826,4876.192455
7400.0,1111,4926.383638
4300.0,691,4956.941595
9300.0,1049,5002.598477
3300.0,555,5026.29024
7800.0,1040,5072.644439
2300.0,471,5094.499188
10100.0,1058,5143.712775
10500.0,1222,5198.362828
6800.0,802,5233.798393
6600.0,1136,5286.103056
100.0,462,5307.309671
6700.0,1216,5362.353539
4300.0,837,5399.605377
4700.0,1114,5447.337962
9400.0,1124,5496.208409
1200.0,369,5510.992498
5000.0,1112,5562.231299
1200.0,476,5584.438635
9400.0,1087,5631.005729
6700.0,1140,5682.167452
6600.0,1029,5728.09378
6000.0,1051,5775.400868
2600.0,1005,5819.674101
3300.0,591,5843.815892
4700.0,1121,5896.262151
3100.0,360,5913.458141
6800.0,1158,5964.863905
6200.0,1075,6013.006207
2200.0,511,6036.946077
8500.0,1060,6085.310879
6700.0,1014,6131.217114
10200.0,1083,6181.5888
6100.0,968,6224.591777
8700.0,1034,6269.520554
9100.0,938,6311.080362
7600.0,1059,6358.958645
4400.0,595,6386.017211
7000.0,1036,6432.250292
8300.0,1063,6480.567226
8100.0,984,6526.237105
5900.0,1022,6571.868847
6000.0,996,6615.743901
6900.0,1027,6662.927111
2300.0,376,6679.618604
6000.0,966,6721.665602
8000.0,948,6762.057594
2400.0,438,6784.596051
6900.0,969,6826.546681
3700.0,904,6867.189843
6800.0,865,6906.383107
8000.0,960,6947.610053
10700.0,847,6987.124205
6800.0,952,7028.841392
7300.0,889,7068.493892
6400.0,882,7109.022987
8700.0,883,7148.012664
8800.0,883,7188.141114
8400.0,902,7230.915558
9900.0,947,7268.375768
6500.0,907,7309.555057
6900.0,891,7348.429182
7900.0,1055,7396.671669
8700.0,847,7438.367104
8200.0,906,7478.598001
7100.0,987,7523.542861
8500.0,895,7562.984072
7500.0,945,7606.502018
6200.0,893,7644.111289
10200.0,871,7683.791503
5700.0,895,7724.918041
11600.0,1073,7774.683152
12600.0,914,7815.777177
11400.0,1023,7860.578871
12300.0,950,7902.951096
10700.0,894,7942.911452
12100.0,871,7981.347415
14200.0,1016,8024.917317
10000.0,887,8068.221101
15300.0,862,8107.894263
11100.0,869,8145.148469
8900.0,861,8184.712005
11100.0,949,8228.278937
11100.0,883,8268.833483
14000.0,986,8309.755411
12400.0,875,8350.820504
12900.0,915,8391.927153
11200.0,1097,8440.304954
10400.0,869,8478.433709
9800.0,880,8516.946658
15300.0,926,8557.506565
14600.0,1035,8605.23051
13500.0,925,8644.84279
9700.0,906,8683.600178
13200.0,861,8723.03969
13200.0,929,8763.658645
15300.0,883,8803.917066
13500.0,953,8846.716871
15200.0,899,8887.069305
13800.0,974,8929.62801
15400.0,899,8968.746786
16200.0,946,9012.376981
13900.0,925,9055.384852
13900.0,900,9094.71073
12200.0,969,9139.622471
13000.0,877,9180.627517
13300.0,883,9220.21018
8900.0,862,9258.301469
14000.0,935,9300.651981
4700.0,935,9341.159463
13800.0,998,9384.418295
10300.0,907,9425.284392
10200.0,975,9469.216502
11400.0,1051,9517.203594
13400.0,934,9560.730599
15000.0,853,9598.945929
13600.0,952,9640.945021
14300.0,864,9680.118411
15800.0,902,9721.528004
13200.0,879,9758.362753
15700.0,876,9798.564227
14300.0,929,9839.621919
15000.0,902,9880.143581
15500.0,898,9919.097939
13400.0,987,9962.605591
14600.0,888,10003.11676
14100.0,885,10043.608642
15100.0,925,10084.074673
13100.0,869,10124.656147
13600.0,988,10168.520742
14400.0,869,10207.142632
15900.0,894,10246.951967
16300.0,896,10288.331824
15100.0,868,10325.581012
15100.0,883,10365.57032
15200.0,972,10408.774137
13200.0,932,10449.891026
14800.0,894,10491.018373
15700.0,975,10533.136277
17400.0,898,10573.503758
16400.0,856,10612.586669
17200.0,950,10656.396555
14700.0,945,10700.481073
13900.0,996,10747.08075
14300.0,965,10790.544284
14800.0,864,10827.581849
13900.0,881,10865.922132
14700.0,876,10906.567042
13900.0,1024,10952.019136
16200.0,909,10992.243066
10900.0,871,11031.901304
14300.0,887,11072.533852
13900.0,884,11113.20121
15400.0,983,11155.613588
13200.0,929,11194.893942
12600.0,911,11236.107897
13500.0,990,11280.029094
13500.0,919,11322.178686
13400.0,910,11362.460998
12400.0,774,11397.490469
9400.0,760,11431.13244
15600.0,991,11477.196802
13200.0,879,11515.579323
15000.0,932,11558.242762
10400.0,969,11600.431364
13500.0,996,11643.258399
13400.0,1087,11691.263551
15200.0,991,11735.528194
12000.0,883,11774.039864
11700.0,940,11815.877981
12600.0,948,11856.77519
14900.0,944,11898.822316
13800.0,890,11940.08983
14900.0,918,11980.311999
14100.0,898,12020.045025
13000.0,899,12062.057359
15100.0,937,12104.609921
16100.0,879,12145.275143
15400.0,921,12186.439986
15300.0,910,12225.151484
12800.0,865,12262.159784
16000.0,948,12304.606758
14500.0,902,12344.551186
18300.0,894,12385.167301
11200.0,867,12424.099209
14500.0,894,12465.612475
12100.0,905,12506.280706
16500.0,867,12544.422197
16500.0,908,12585.493478
16000.0,936,12628.233164
12700.0,881,12669.011675
14700.0,888,12709.901328
13300.0,951,12753.378183
18300.0,866,12794.430524
15700.0,900,12835.193932
14100.0,959,12880.159419
15400.0,898,12918.274958
16800.0,913,12958.142088
14500.0,886,12997.021243
12900.0,855,13032.502143
10800.0,777,13066.782968
13200.0,943,13112.249748
15900.0,937,13153.843712
14000.0,906,13197.01294
15600.0,932,13237.390325
13900.0,885,13276.183545
14200.0,1003,13321.82581
13600.0,1044,13370.579108
15500.0,1032,13415.084399
16400.0,979,13459.457318
13200.0,1057,13506.232079
13700.0,909,13546.921835
13200.0,892,13585.519863
14300.0,882,13625.149046
15600.0,876,13664.991052
14700.0,877,13706.149875
12300.0,881,13745.924728
14700.0,888,13785.952395
16200.0,950,13828.289124
13200.0,927,13871.933074
13700.0,852,13913.151526
14500.0,892,13953.145602
16300.0,879,13992.148878
15200.0,867,14032.499348
16200.0,888,14073.205973
13000.0,883,14112.727047
13900.0,871,14151.080358
15600.0,875,14191.038482
16000.0,848,14228.383311
11100.0,835,14266.388864
13200.0,844,14304.094773
16600.0,883,14346.07748
13400.0,918,14387.956708
15800.0,920,14430.237087
15600.0,887,14468.96898
15500.0,882,14505.855859
13800.0,987,14550.358912
15400.0,924,14592.084174
15300.0,895,14632.819877
14600.0,1033,14678.418782
10500.0,1086,14726.348245
15400.0,881,14762.351834
15800.0,913,14803.736092
14800.0,895,14844.101679
12900.0,876,14882.085302
12200.0,974,14924.471904
14500.0,866,14961.71999
16300.0,864,14999.361163
15400.0,849,15036.121832
13800.0,849,15073.497102
14800.0,878,15111.999549
14600.0,1006,15156.206625
14700.0,920,15199.252991
15500.0,926,15239.319297
13400.0,870,15280.860379
14700.0,854,15317.263381
16200.0,914,15358.462271
16300.0,943,15399.363482
14500.0,877,15435.992311
15400.0,889,15475.166788
9000.0,911,15515.682351
16900.0,908,15556.767143
14000.0,895,15595.801014
14500.0,959,15637.292989
15100.0,896,15678.258731
13900.0,881,15717.471596
16300.0,845,15752.761058
13400.0,863,15791.197687
14900.0,895,15831.75412
16600.0,844,15869.613013
15500.0,895,15910.360114
15300.0,868,15949.565278
13900.0,887,15987.67256
12700.0,883,16028.477324
15000.0,915,16071.603808
12900.0,855,16108.649891
14100.0,881,16148.89907
12600.0,932,16189.931354
14000.0,989,16231.300681
13300.0,899,16271.196617
13600.0,985,16318.803635
8900.0,976,16364.705324
11000.0,949,16408.232195
12200.0,943,16451.125844
13100.0,898,16491.353709
12800.0,959,16532.795874
11800.0,760,16565.816699
14000.0,948,16609.981267
11100.0,985,16651.946817
11100.0,973,16694.046776
13300.0,897,16734.188971
14300.0,935,16776.02991
12400.0,920,16815.811403
12800.0,927,16857.6437
15800.0,918,16899.394083
14100.0,933,16943.258104
13100.0,931,16983.958594
13100.0,942,17023.959611
14300.0,1085,17072.580836
13600.0,969,17114.463557
10800.0,911,17157.806467
11800.0,892,17195.172419
10100.0,1000,17240.669524
13000.0,887,17281.598181
11800.0,980,17324.599765
13200.0,816,17362.212972
13500.0,980,17406.925083
11000.0,1018,17454.559762
13400.0,979,17498.089175
17400.0,874,17535.603011
17200.0,1008,17580.385155
14500.0,938,17621.416643
13800.0,904,17660.706575
15300.0,1005,17705.683381
14400.0,988,17751.492702
9300.0,787,17786.93813
15400.0,938,17829.187814
11700.0,995,17872.140993
13900.0,991,17916.605659
12300.0,935,17956.725132
14200.0,990,18003.324193
12400.0,836,18041.223643
15800.0,1088,18089.018472
15100.0,1025,18131.905471
12400.0,1022,18176.908772
11100.0,882,18216.336323
13300.0,944,18259.477784
15100.0,934,18300.865781
18800.0,1087,18349.934833
12000.0,933,18390.428397
12400.0,1008,18435.929768
15700.0,1049,18485.26085
12300.0,990,18528.771538
14800.0,1042,18575.94064
12800.0,899,18615.599626
14300.0,909,18655.729577
17800.0,976,18698.794125
14300.0,999,18742.151713
18100.0,1194,18794.367285
13600.0,939,18838.181809
18100.0,1064,18886.791013
9700.0,995,18932.606371
15500.0,971,18975.297598
16000.0,1081,19023.196411
15100.0,970,19066.160708
15400.0,962,19110.89735
16100.0,965,19154.461472
14400.0,899,19194.803107
15700.0,956,19237.703219
14200.0,916,19278.548465
15600.0,915,19320.678834
13000.0,949,19364.474863
12200.0,882,19403.440815
15800.0,909,19444.804539
17200.0,996,19488.314501
15600.0,920,19528.125481
15400.0,915,19566.902016
15500.0,917,19607.814082
16300.0,966,19650.949868
14500.0,936,19690.524121
13800.0,919,19732.064471
15000.0,924,19773.189048
14600.0,895,19811.588005
16000.0,949,19854.721954
16100.0,975,19897.380155
14700.0,1004,19942.856572
9100.0,887,19981.536453
12300.0,1023,20028.937711
14800.0,1066,20076.021963
11400.0,1177,20129.64613
10000.0,1068,20179.658398
12700.0,764,20213.146386
16100.0,1161,20266.501038
15900.0,1114,20317.034874
16900.0,1262,20372.498734
14500.0,1172,20425.459078
9200.0,938,20467.185647
8700.0,1141,20517.946492
11100.0,1158,20569.796823
13400.0,1195,20619.810681
16600.0,1033,20666.253579
17300.0,1234,20724.559641
15400.0,1258,20780.357818
8500.0,552,20805.961273
12000.0,933,20848.16494
16800.0,1162,20900.857011
14900.0,1293,20959.353376
21700.0,1419,21023.307232
12900.0,1194,21077.607279
16400.0,1091,21128.065598
16300.0,1033,21174.479016
18100.0,1099,21222.526858
16900.0,1057,21271.591475
13700.0,979,21315.578401
15100.0,949,21359.391186
14400.0,905,21400.27121
14900.0,938,21441.759052
10200.0,1000,21485.791597
14700.0,922,21529.064628
14500.0,946,21569.848718
15800.0,1049,21614.896313
14200.0,1025,21658.998713
15300.0,959,21699.343
15400.0,1024,21745.950607
11900.0,971,21787.398842
13500.0,1037,21833.805523
14000.0,1032,21877.805635
15700.0,982,21920.0156
13400.0,1096,21970.681218
15100.0,994,22015.063416
17700.0,944,22058.126682
15200.0,1043,22106.978812
17000.0,976,22149.617301
16400.0,940,22191.619112
15400.0,1026,22236.005492
15800.0,1040,22279.23779
12800.0,1074,22327.727421
14900.0,1011,22373.124076
17300.0,1010,22418.961515
13200.0,1046,22462.658147
17400.0,1053,22507.609202
14700.0,940,22550.507487
14500.0,940,22593.724162
15900.0,1012,22639.04079
17800.0,1087,22685.346238
13300.0,1046,22732.116709
14800.0,924,22775.622911
17700.0,966,22819.706943
17500.0,1005,22867.748884
14800.0,1040,22916.520491
13200.0,1207,22971.361843
15900.0,1133,23024.090705
16700.0,1118,23072.928854
12400.0,1014,23117.430272
16000.0,1054,23164.624967
15900.0,1239,23217.989012
15400.0,1108,23269.072923
17800.0,1039,23315.252009
16500.0,1062,23362.329462
13400.0,1081,23408.840833
15000.0,969,23453.134206
15300.0,978,23497.248996
12600.0,1048,23544.393396
15100.0,947,23584.376401
13500.0,924,23626.449729
14100.0,935,23666.693357
18200.0,958,23709.786623
12900.0,943,23752.519234
14100.0,947,23795.701198
14100.0,1068,23844.747536
14700.0,1001,23889.276061
14600.0,955,23929.570959
15000.0,947,23970.86198
17600.0,958,24014.361281
16000.0,1063,24060.915861
14600.0,1014,24105.883296
15100.0,979,24147.72085
15200.0,1018,24192.470424
15200.0,1036,24237.773623
7000.0,625,24265.392443
14400.0,1016,24313.351035
15100.0,983,24357.5364
20900.0,1280,24414.0144
17300.0,1204,24467.330528
19300.0,1087,24514.816227
13600.0,1048,24561.355705
12400.0,1012,24605.828864
19000.0,1201,24659.744261
14000.0,1130,24709.979106
15500.0,1277,24766.928646
22800.0,1307,24822.333818
1100.0,416,24837.830655
18900.0,1205,24891.700789
16000.0,1158,24940.769764
15200.0,1060,24985.382996
17900.0,1091,25029.011356
12700.0,983,25070.688839
15000.0,953,25110.431218
15300.0,928,25151.324127
15400.0,862,25184.162615
16900.0,1048,25226.881089
14100.0,922,25267.451241
14100.0,942,25308.112703
17600.0,993,25349.169955
13600.0,996,25389.817809
16700.0,1026,25432.107889
18300.0,1027,25476.099076
14000.0,1082,25523.08764
20400.0,1052,25567.331772
11700.0,1094,25612.027491
16600.0,1001,25652.044287
14300.0,1047,25693.617505
15100.0,965,25734.284889
15100.0,1074,25778.601918
18800.0,1067,25819.479892
17300.0,1053,25860.972646
13900.0,982,25902.558802
15100.0,1047,25946.599318
12000.0,973,25986.710754
16800.0,1085,26031.313756
14500.0,907,26069.677923
14500.0,1098,26115.364307
12700.0,915,26152.631869
17700.0,1058,26198.17296
15800.0,1003,26239.143641
17400.0,1000,26281.314722
14300.0,939,26322.52693
12200.0,1015,26366.342965
17600.0,1106,26409.218471
16400.0,971,26446.590726
15800.0,1124,26491.624263
13500.0,841,26526.254735
14600.0,1014,26567.535139
16300.0,1084,26610.401479
15500.0,1041,26650.968386
14900.0,1050,26691.126054
15400.0,1009,26733.449756
17000.0,1023,26773.696827
15900.0,1017,26815.790197
16800.0,1017,26856.755789
14100.0,1104,26900.594211
14700.0,1105,26943.734038
13700.0,1052,26984.622297
17500.0,1090,27030.619428
14500.0,1135,27073.792333
17500.0,1158,27121.789956
13200.0,1068,27165.98363
13300.0,1040,27208.911855
15300.0,1096,27252.05282
17000.0,1113,27298.077244
13200.0,1042,27337.762466
15700.0,1115,27385.086583
12900.0,1074,27428.509467
17900.0,1073,27470.440384
16500.0,1190,27518.420924
17100.0,1032,27559.678973
14600.0,1139,27606.54197
14300.0,996,27646.700186
12900.0,955,27684.442437
16900.0,1164,27731.485182
14100.0,1084,27774.937145
11600.0,1204,27826.0263
13800.0,1062,27868.943375
15000.0,1040,27910.441189
12200.0,1144,27955.494289
14300.0,1032,27996.405355
19900.0,1226,28045.615463
15800.0,1045,28088.114522
15800.0,1147,28134.865277
15000.0,1026,28177.307551
12000.0,1029,28219.604632
13200.0,1080,28264.189627
13500.0,901,28301.518384
13400.0,1149,28349.13801
14700.0,1054,28392.715427
15100.0,1043,28435.317959
14200.0,1120,28481.252017
14800.0,1015,28523.20733
14400.0,989,28564.078969
16400.0,1088,28607.806395
14300.0,994,28649.033504
15100.0,1071,28692.25879
13900.0,957,28729.650588
15400.0,1094,28774.92793
14200.0,967,28813.596207
15700.0,1029,28856.010394
12400.0,928,28893.001529
13700.0,939,28930.210797
15600.0,939,28967.964169
15900.0,1062,29012.304132
14900.0,973,29050.438114
15000.0,924,29088.344308
16900.0,947,29125.756974
15300.0,955,29164.800913
13300.0,939,29202.36058
13200.0,991,29242.711036
15400.0,962,29281.020214
14600.0,998,29323.248133
15300.0,976,29362.481246
15500.0,972,29404.157107
13200.0,903,29443.188202
17900.0,1015,29485.435635
13900.0,950,29524.337284
15400.0,979,29565.434119
13600.0,938,29603.64165
16700.0,958,29642.595727
14800.0,929,29679.497499
15300.0,931,29715.804934
14300.0,1037,29756.880538
13700.0,952,29794.165344
14100.0,942,29831.607696
13800.0,920,29868.092227
13900.0,946,29907.039337
14400.0,1029,29949.094624
10800.0,766,29980.839858
13200.0,979,30022.553747
13500.0,1014,30063.174884
18500.0,1045,30105.708628
14600.0,894,30140.463492
14100.0,993,30179.186639
14600.0,1059,30221.595375
13700.0,1027,30264.370497
11700.0,1011,30305.354908
16900.0,951,30344.329492
16300.0,924,30381.280982
14200.0,962,30420.073207
16400.0,935,30457.917276
14600.0,929,30495.430623
18000.0,1000,30534.607099
14200.0,923,30572.363721
16400.0,976,30610.564255
16200.0,1079,30652.602011
15900.0,989,30695.029709
16300.0,972,30734.953673
14800.0,901,30770.720488
16100.0,978,30809.021946
16200.0,930,30846.281751
16200.0,986,30886.092293
16500.0,1043,30927.668003
16500.0,968,30967.493901
15200.0,955,31006.056153
15600.0,1124,31051.588214
16000.0,1041,31092.405378
15200.0,927,31130.480602
18600.0,961,31169.514989
16900.0,1135,31216.958966
15100.0,966,31258.00021
14700.0,986,31296.889842
15900.0,1103,31342.71611
16800.0,982,31382.739432
14500.0,1029,31423.660016
19600.0,1033,31466.016755
14400.0,978,31505.424215
15000.0,946,31542.534933
18500.0,1037,31585.278233
14800.0,941,31623.140387
18700.0,945,31660.379075
17500.0,940,31696.698851
14100.0,974,31735.391124
15100.0,924,31771.929637
16600.0,995,31814.329118
15400.0,943,31851.235845
15800.0,952,31889.145415
17500.0,1050,31934.797355
13000.0,1139,31981.35684
18600.0,1161,32028.155774
16800.0,960,32068.709759
12400.0,918,32105.177215
12000.0,953,32145.551531
14800.0,978,32185.480117
15600.0,1004,32225.931864
14300.0,960,32263.693332
15600.0,1020,32304.600311
16500.0,1026,32346.933095
15400.0,916,32383.754916
16000.0,1032,32425.497152
16300.0,1065,32466.804986
14600.0,992,32508.410455
11400.0,1015,32549.602561
16400.0,1063,32589.693745
13000.0,953,32630.148595
18500.0,1172,32677.067838
15600.0,955,32715.391914
15400.0,967,32755.018298
13200.0,971,32795.292662
13700.0,1036,32838.411038
17300.0,1006,32880.020143
17600.0,1083,32925.433859
13200.0,997,32966.27144
14800.0,1093,33011.510471
16700.0,1071,33054.545803
15300.0,1109,33100.640337
17300.0,1059,33146.638345
14700.0,1153,33193.731586
18000.0,1170,33240.974755
17700.0,1304,33294.057685
17300.0,1127,33337.670627
18600.0,1244,33388.373537
16000.0,1225,33438.593247
16200.0,1206,33487.428684
16100.0,1046,33529.03986
15400.0,1055,33572.294867
18700.0,1098,33617.378544
17100.0,1032,33660.992737
18600.0,1168,33709.756863
16900.0,1038,33752.166186
15500.0,1011,33793.433203
14400.0,923,33830.430289
11800.0,1068,33873.683543
16900.0,1076,33915.336325
19600.0,1192,33964.911474
17400.0,1061,34008.457368
18300.0,1105,34053.854027
14500.0,1005,34093.911317
14700.0,1083,34138.676795
18200.0,1044,34180.730979
12200.0,977,34219.349593
15600.0,979,34259.808222
16900.0,976,34301.51992
12800.0,1017,34341.91456
13200.0,938,34380.535989
16000.0,940,34418.956655
15400.0,939,34454.925714
14700.0,949,34495.705499
15300.0,1004,34535.184252
14600.0,931,34574.929495
17900.0,1029,34615.33521
14500.0,994,34654.536757
14700.0,1037,34697.160861
12400.0,969,34736.339294
16900.0,965,34775.75665
12800.0,968,34813.242729
14900.0,1028,34854.395431
15400.0,1017,34896.84259
14900.0,973,34936.354872
16300.0,986,34976.734374
13500.0,1077,35018.263269
16100.0,1063,35061.106826
13900.0,1041,35101.507389
16900.0,1139,35147.843065
14100.0,976,35189.825202
14700.0,1045,35232.075815
15100.0,980,35271.093094
11000.0,1100,35316.872977
14100.0,954,35356.699828
16600.0,1048,35395.585547
16300.0,970,35431.911535
15200.0,1011,35471.950031
14700.0,991,35509.702024
14800.0,993,35550.240101
18700.0,1132,35597.786977
20200.0,1147,35644.529455
19200.0,1141,35688.514609
14100.0,1043,35728.277881
15200.0,1068,35768.32646
17900.0,1187,35814.879152
17000.0,1084,35858.688856
18200.0,1064,35900.550696
15600.0,1078,35944.016279
14500.0,1013,35985.906412
15100.0,1006,36026.987388
14500.0,1038,36067.009809
19500.0,1110,36110.364011
14900.0,1077,36152.798213
15000.0,1125,36197.88234
19100.0,1047,36241.541686
12200.0,1059,36283.739952
13500.0,1139,36329.795092
17000.0,1190,36377.294213
19000.0,1112,36421.677632
13900.0,1065,36463.418352
4600.0,673,36491.31146
16200.0,1027,36533.940517
17900.0,1091,36579.579739
19700.0,1146,36627.226775
11900.0,1018,36666.478585
14300.0,1018,36703.605306
14100.0,1111,36746.088548
16600.0,1020,36785.145885
14600.0,1016,36823.027482
15300.0,1061,36864.249444
13000.0,852,36897.731643
13700.0,1073,36937.393747
11800.0,915,36971.7385
14300.0,1087,37011.382895
14000.0,948,37049.313144
13100.0,974,37086.881734
14500.0,1075,37130.17054
11300.0,1131,37173.522743
15400.0,1291,37224.350471
19100.0,1214,37274.893601
15200.0,1115,37319.128155
18300.0,1111,37361.281039
15400.0,1072,37405.841603
15100.0,1061,37449.833583
13600.0,1010,37489.131138
18600.0,1124,37533.705449
14400.0,937,37573.243101
15800.0,962,37610.292087
14200.0,924,37646.506709
14800.0,998,37687.392878
16000.0,970,37724.598837
17600.0,1121,37768.510082
17700.0,1088,37812.384748
16100.0,944,37849.913388
14700.0,975,37890.000349
17400.0,1026,37931.116032
17800.0,1040,37972.669153
14500.0,946,38011.325735
17100.0,1150,38057.512204
17900.0,1171,38103.535647
11700.0,987,38141.238318
14000.0,1033,38183.395993
19900.0,1222,38231.675414
13900.0,1180,38277.299688
18500.0,1060,38319.485317
14700.0,1052,38360.531616
17700.0,1015,38401.550119
16600.0,1183,38447.785799
15300.0,1043,38489.361701
19800.0,1028,38530.510754
18700.0,1118,38574.090516
17200.0,1114,38618.126734
16800.0,1141,38662.284254
17100.0,1245,38711.456195
17300.0,1165,38755.327149
16200.0,992,38795.225659
14700.0,1006,38834.319406
17800.0,1016,38873.607586
16100.0,1057,38914.222508
17400.0,1186,38962.309638
17800.0,1191,39010.42037
11600.0,1070,39053.847213
14700.0,1115,39098.848502
16700.0,1032,39140.708698
15800.0,1050,39181.642864
16700.0,1104,39227.183715
12200.0,1050,39271.283802
15500.0,1016,39314.663121
13600.0,969,39356.175657
15700.0,1053,39400.905077
14500.0,943,39441.755342
13100.0,919,39479.72436
16000.0,994,39526.160805
17000.0,1064,39570.575423
13600.0,951,39609.567339
18400.0,1077,39654.827598
16000.0,996,39698.03203
15800.0,1030,39741.692657
16700.0,1021,39785.04376
15500.0,1034,39829.287632
17300.0,1100,39875.795414
16300.0,991,39920.225376
12400.0,1029,39962.079942
15500.0,1027,40006.124196
18200.0,1070,40051.301645
11100.0,951,40090.79312
15500.0,1000,40134.416675
15300.0,1072,40179.279464
15600.0,1021,40223.20136
17100.0,1060,40267.193017
16700.0,1116,40316.632749
16900.0,1098,40366.284016
16500.0,1053,40412.539492
19200.0,1097,40459.278525
16300.0,1031,40503.31967
16300.0,1090,40548.330049
18000.0,1121,40595.265938
18300.0,1076,40644.729009
17500.0,1049,40689.528591
19100.0,1051,40735.988343
14600.0,1044,40780.247855
18100.0,1105,40828.660343
18900.0,1092,40875.665294
16500.0,1048,40921.313131
13000.0,1216,40975.394313
15600.0,982,41017.837276
16100.0,1107,41067.278854
9700.0,595,41090.146848
17200.0,1088,41140.578599
15800.0,1015,41187.714771
18600.0,1006,41230.376722
15300.0,1056,41274.859552
15600.0,926,41316.076377
15300.0,927,41355.995525
12800.0,964,41397.673441
15900.0,989,41436.678275
13500.0,1088,41486.315811
15400.0,1018,41530.746109
16500.0,1129,41578.69047
17000.0,1076,41626.025951
13800.0,1007,41669.369496
15300.0,1043,41714.124817
16500.0,1054,41757.443654
15000.0,1059,41799.526033
16700.0,1200,41846.316155
11100.0,840,41880.549478
14100.0,1073,41923.43031
15600.0,923,41961.957806
15000.0,1063,42006.953379
13200.0,1011,42047.28673
18300.0,1116,42094.733397
17400.0,1168,42140.157156
17300.0,1106,42185.099512
12300.0,1091,42226.799953
18700.0,1043,42270.288656
17300.0,1111,42314.394705
17100.0,1119,42358.985655
16100.0,1032,42399.584986
17800.0,1025,42439.214711
15900.0,1040,42481.76831
16600.0,1092,42526.12167
14100.0,1005,42569.70528
16400.0,1051,42612.493883
13900.0,980,42653.527032
16200.0,1026,42692.94818
16500.0,1036,42735.743249
16500.0,988,42775.491924
17300.0,1114,42821.963445
14500.0,1010,42864.662143
17500.0,1012,42904.689577
15400.0,1066,42948.085923
17700.0,1022,42990.601839
17300.0,1053,43034.249444
17000.0,1094,43080.402503
17700.0,1026,43121.363504
14900.0,1005,43159.808345
14500.0,1078,43201.917111
13100.0,1001,43241.41279
17000.0,1116,43288.320679
13600.0,1008,43329.073627
16200.0,1059,43371.583702
10900.0,851,43405.232948
14700.0,944,43442.060708
13700.0,998,43482.110696
12700.0,998,43523.023961
12900.0,1095,43569.648077
15500.0,962,43609.217221
15500.0,981,43650.657477
17300.0,1011,43693.433048
14300.0,924,43732.476663
15800.0,958,43772.935591
13800.0,989,43814.656854
16100.0,980,43857.672216
16100.0,1015,43900.132705
16000.0,1042,43946.473472
14100.0,977,43985.245119
14200.0,1025,44026.427495
14100.0,1007,44066.117357
15100.0,936,44104.050941
14700.0,921,44139.763484
16700.0,962,44177.130212
14500.0,994,44217.229831
16200.0,943,44255.46811
12400.0,926,44293.524541
14600.0,924,44330.419008
17900.0,936,44367.556677
16800.0,991,44410.184486
13600.0,982,44447.931774
15800.0,910,44482.502434
14300.0,1029,44524.415214
17300.0,1018,44563.930902
12600.0,917,44599.943295
14400.0,970,44640.020992
20000.0,1172,44686.403246
16700.0,1073,44729.846663
16500.0,972,44768.729253
16600.0,961,44806.281823
15100.0,1109,44850.584149
13300.0,970,44889.946934
13800.0,973,44929.862562
13500.0,977,44972.825372
15000.0,1149,45015.430337
16100.0,962,45054.722417
14100.0,991,45095.537771
15300.0,953,45135.585106
14200.0,967,45172.525345
14500.0,958,45210.693604
15300.0,968,45248.978914
14800.0,999,45289.787503
16400.0,931,45327.137599
15900.0,1158,45375.156343
13400.0,952,45414.104445
12800.0,962,45453.126734
12900.0,1216,45503.641642
15600.0,1098,45547.136558
14400.0,995,45588.013408
18800.0,1175,45636.177263
16200.0,1038,45680.530177
14400.0,923,45723.496511
14900.0,941,45765.56175
13800.0,903,45809.967262
14300.0,1098,45863.027432
15400.0,1034,45909.702081
14600.0,971,45953.44419
14800.0,959,45999.522037
13800.0,929,46044.060475
14900.0,1539,46118.532734
11900.0,922,46164.072738
16100.0,1076,46216.729998
13400.0,942,46262.242702
15600.0,927,46306.16115
11600.0,924,46348.150558
12600.0,945,46393.565446
14500.0,1043,46442.505961
16900.0,959,46484.31448
17400.0,997,46530.062324
16600.0,1016,46579.553808
13400.0,988,46625.449112
14700.0,964,46671.111686
14800.0,988,46718.600763
17000.0,992,46764.788321
14800.0,938,46809.724903
15900.0,960,46856.001001
15700.0,987,46904.120553
14300.0,979,46948.811336
14300.0,941,46991.504367
15600.0,999,47040.308539
16600.0,1004,47089.210757
17200.0,1035,47138.557276
14300.0,949,47184.537603
15500.0,1024,47231.539668
15100.0,994,47279.032774
15900.0,1030,47329.058602
15500.0,1003,47375.382368
15000.0,987,47421.230449
14200.0,1012,47467.701297
14500.0,940,47513.246217
13400.0,990,47560.244396
15600.0,1101,47610.669394
16100.0,974,47656.126378
15200.0,992,47705.741744
15400.0,1008,47752.807988
15100.0,1004,47797.436574
15600.0,1078,47849.541193
14700.0,928,47893.813261
15600.0,945,47937.18105
17200.0,1028,47986.18019
12400.0,931,48030.243314
14400.0,1070,48081.610412
11500.0,923,48123.343139
14400.0,931,48166.055582
13000.0,1002,48212.086333
15600.0,964,48258.53815
15600.0,933,48303.654474
15000.0,1007,48348.245462
14200.0,990,48394.249039
17300.0,1079,48443.952391
10300.0,700,48476.435613
12800.0,945,48520.927363
15200.0,951,48566.33693
15800.0,1047,48613.751796
16100.0,948,48659.072317
15500.0,907,48702.419471
16000.0,982,48750.587563
14800.0,976,48796.640205
14900.0,956,48841.728337
17600.0,1040,48890.321414
15100.0,944,48934.226309
18500.0,1072,48983.716616
15200.0,962,49028.252765
14800.0,1022,49075.779007
15800.0,1076,49125.00158
14800.0,1007,49172.618266
15300.0,828,49210.62504
13100.0,1008,49257.709321
12900.0,1063,49309.2262
14900.0,980,49355.120076
9700.0,767,49392.06295
17900.0,1020,49440.508905
13800.0,949,49484.797004
12600.0,981,49531.746558
12500.0,978,49578.827221
15700.0,1025,49628.417343
16400.0,1027,49676.194982
12900.0,942,49721.687335
14800.0,1005,49769.442596
15700.0,993,49815.263108
17200.0,1044,49865.788343
15200.0,987,49909.959881
15900.0,1095,49963.148376
14800.0,987,50009.723613
13700.0,966,50054.483607
14900.0,995,50101.232814
15600.0,1067,50149.606267
16300.0,1025,50200.935075
13300.0,988,50247.490532
15800.0,958,50292.442046
19000.0,1074,50345.53474
13400.0,1005,50391.979754
15400.0,971,50435.379124
15700.0,1001,50483.326502
15300.0,1011,50531.437316
13100.0,967,50577.181964
17000.0,1084,50627.651055
17600.0,995,50676.437753
15100.0,1053,50726.245885
16500.0,975,50773.361932
16800.0,1012,50820.579585
17600.0,1028,50864.948927
14100.0,958,50911.216896
17000.0,993,50958.593171
16400.0,946,51003.871917
14500.0,1027,51052.836494
16500.0,965,51096.192236
17900.0,1080,51144.393452
15900.0,1059,51192.873562
17100.0,1081,51244.080993
16800.0,990,51289.691095
13500.0,1035,51337.206558
14900.0,1084,51387.084959
16800.0,978,51431.980842
14600.0,926,51474.554306
14800.0,957,51517.850605
15200.0,936,51563.413459
13600.0,1087,51615.293874
15400.0,971,51661.526409
14900.0,1007,51710.193236
14300.0,1018,51756.012775
14800.0,979,51803.196604
16300.0,1092,51853.274666
14300.0,918,51893.851219
13500.0,926,51937.504859
17500.0,1013,51986.760998
16800.0,1027,52036.213901
17700.0,972,52081.394675
15700.0,958,52127.62601
16300.0,1048,52175.75416
16900.0,1070,52228.22322
13700.0,945,52274.348779
12500.0,968,52320.669944
13600.0,933,52367.822556
14900.0,1076,52419.012121
17600.0,1037,52469.249962
12800.0,979,52515.294812
16800.0,1113,52567.549933
15500.0,1038,52616.479091
14500.0,997,52664.642714
14900.0,961,52708.966873
17400.0,1099,52760.69914
15000.0,993,52806.240458
15700.0,977,52852.942965
14500.0,1044,52902.793056
13200.0,1031,52952.177732
15400.0,990,52998.100619
13600.0,935,53038.944186
14500.0,986,53084.649636
14200.0,1072,53135.39665
13600.0,1016,53182.018588
16800.0,988,53228.00467
13700.0,1048,53277.256706
15800.0,1101,53330.91498
12900.0,939,53373.494443
14400.0,1112,53426.395846
15300.0,971,53470.667037
16900.0,1064,53522.95747
14100.0,967,53567.345684
13400.0,1014,53614.957632
14300.0,949,53659.937118
15400.0,950,53704.863945
15900.0,977,53750.626942
17600.0,1015,53799.264452
17200.0,1040,53846.403534
16600.0,964,53891.193337
14000.0,1030,53941.189798
15300.0,1068,53991.037661
16000.0,997,54039.312532
17800.0,939,54082.7054
15700.0,1043,54130.362705
17100.0,1054,54179.661756
14500.0,940,54225.668913
15800.0,968,54270.872661
16800.0,954,54315.268558
13500.0,943,54360.592275
17400.0,1001,54408.704943
20300.0,1091,54461.579801
14800.0,1020,54512.838184
13700.0,993,54558.2144
17200.0,1025,54601.959084
15800.0,1038,54651.232708
17800.0,1058,54700.875821
17700.0,1080,54750.529305
13100.0,939,54793.533042
13100.0,952,54838.790328
17900.0,1066,54887.486303
17400.0,1043,54934.133921
13200.0,1035,54980.278211
15200.0,1032,55026.23661
14800.0,986,55076.360967
15300.0,1005,55122.815581
16000.0,1023,55170.693085
18100.0,1080,55222.939295
15600.0,983,55269.536696
14800.0,989,55316.491789
17200.0,1036,55363.304564
17400.0,1027,55411.236654
17600.0,1051,55460.978283
16200.0,963,55508.150147
17000.0,970,55555.165389
14900.0,945,55597.984489
16300.0,987,55644.70934
14700.0,915,55689.552477
13800.0,929,55733.502035
16400.0,942,55776.344481
14900.0,957,55821.117061
13400.0,988,55867.127913
16600.0,942,55913.653553
16900.0,984,55961.10639
16500.0,923,56003.925772
14100.0,922,56046.241647
13600.0,1046,56097.977364
13300.0,1031,56145.074129
16100.0,972,56192.289691
18800.0,993,56236.916844
13700.0,986,56285.039547
17000.0,1031,56332.734396
15600.0,983,56379.63165
14900.0,905,56423.671412
16400.0,959,56469.045112
20200.0,1088,56521.297585
14200.0,1007,56568.794673
17400.0,1250,56629.577447
17300.0,1154,56682.797838
13900.0,1012,56730.270609
16000.0,1008,56776.953524
15300.0,1073,56828.620635
18000.0,998,56876.233183
18100.0,1089,56928.508426
17800.0,1026,56976.879005
16500.0,984,57022.707873
18200.0,972,57065.75472
16700.0,999,57111.741283
16800.0,971,57158.670609
14800.0,914,57201.776852
16200.0,946,57244.632011
15700.0,937,57289.125429
15300.0,1006,57336.917639
17900.0,1089,57385.694246
17600.0,1037,57432.153515
18000.0,969,57477.563427
16900.0,954,57522.801522
16300.0,942,57567.123201
18700.0,1081,57617.143186
18000.0,980,57665.24199
16900.0,999,57712.547714
16300.0,1074,57764.297373
15800.0,964,57809.172794
16000.0,992,57855.780227
14800.0,945,57899.355625
13300.0,942,57944.550451
15300.0,972,57989.96319
16900.0,979,58037.392869
16100.0,930,58083.231828
20600.0,1178,58137.499751
16800.0,982,58186.264421
14700.0,918,58230.910785
17500.0,1068,58280.466489
18500.0,1046,58329.743467
16900.0,1069,58378.16272
16800.0,1067,58428.409377
15400.0,993,58474.946945
15400.0,915,58517.906223
19200.0,1045,58566.260468
16300.0,1007,58613.629626
18700.0,1095,58665.168937
17400.0,1062,58715.076727
16300.0,983,58762.695266
18100.0,1160,58817.757557
18200.0,982,58861.233752
18100.0,983,58909.334705
16700.0,1007,58954.890741
17600.0,959,59000.860277
12200.0,1014,59047.754722
18100.0,1022,59094.128472
15800.0,1055,59145.196507
16900.0,1095,59194.38501
16900.0,1001,59240.100976
16200.0,1026,59287.742996
14700.0,924,59329.618048
19700.0,1071,59380.65485
16900.0,984,59426.639511
15300.0,1091,59479.853338
17600.0,1025,59525.901054
14700.0,1021,59572.251538
17700.0,1103,59624.750483
17600.0,940,59670.671059
13800.0,897,59713.015748
16000.0,939,59757.078996
17000.0,922,59801.264203
14700.0,943,59846.026589
13600.0,925,59889.567956
13900.0,883,59930.050066
19200.0,1136,59984.303335
16000.0,983,60031.017547
16600.0,1144,60085.712943
15100.0,1030,60133.8438
17300.0,955,60177.15672
14900.0,948,60221.96358
20700.0,1085,60275.403846
14600.0,952,60318.13524
11000.0,683,60348.720623
14800.0,954,60396.452171
14800.0,940,60440.281995
14100.0,1006,60489.295435
17400.0,978,60536.628195
17100.0,1009,60583.41372
13800.0,954,60628.181842
17100.0,970,60671.677082
15900.0,983,60717.02183
14000.0,945,60760.621583
15600.0,964,60805.474191
14200.0,912,60848.608026
15600.0,947,60889.865688
16300.0,1047,60937.709589
14700.0,1036,60985.487675
15700.0,979,61034.252779
15000.0,887,61073.76702
16500.0,951,61120.524514
18200.0,968,61167.027772
15700.0,896,61210.393077
16200.0,960,61255.064431
15600.0,961,61300.87144
16500.0,1112,61352.885224
14900.0,1061,61403.306519
14600.0,1039,61453.155159
16200.0,958,61496.169583
14700.0,913,61539.63147
12600.0,873,61581.259821
16300.0,1003,61630.022873
12800.0,928,61671.833729
16700.0,1050,61722.493327
14700.0,940,61765.017507
14400.0,1016,61812.847158
15600.0,921,61857.092101
14400.0,1003,61901.219214
17300.0,1046,61950.008371
17400.0,981,61994.778616
15800.0,937,62038.802181
14700.0,1021,62085.387428
16500.0,1002,62134.256059
15200.0,1041,62182.750785
14700.0,1023,62230.414364
15100.0,958,62274.679857
18900.0,1228,62330.065709
12900.0,858,62371.912817
14700.0,952,62415.405436
14400.0,893,62455.743091
16400.0,913,62498.051301
16600.0,995,62545.360142
15000.0,965,62590.170814
16400.0,1090,62644.212137
15200.0,1332,62707.286111
17500.0,1034,62755.097479
17000.0,1050,62803.586264
17900.0,1089,62853.855508
15300.0,953,62900.965796
15300.0,1004,62945.873651
14400.0,1138,62999.496145
16500.0,1169,63053.617385
17800.0,1708,63133.756963
18500.0,1181,63188.84162
14700.0,1014,63235.852629
18400.0,1005,63283.523993
18500.0,974,63328.479613
16100.0,1087,63378.942681
16700.0,997,63427.845904
16600.0,1048,63476.765041
19200.0,978,63520.368851
19000.0,1097,63571.350579
19000.0,1056,63619.744393
15100.0,998,63667.534305
18900.0,1069,63717.599246
19000.0,1084,63768.303587
16100.0,1003,63816.874079
18300.0,1070,63866.58043
17000.0,1159,63919.672226
18900.0,1158,63973.734726
18400.0,1096,64023.854604
15500.0,998,64070.586003
14700.0,949,64116.126994
17200.0,991,64162.788054
14400.0,995,64208.185139
20200.0,1073,64259.485059
17300.0,1022,64308.258273
15800.0,930,64353.56144
14700.0,1025,64405.766433
16200.0,1100,64456.199936
15600.0,947,64501.235117
15800.0,921,64543.738928
18800.0,1008,64590.240433
13200.0,877,64630.759812
13400.0,959,64674.604311
16600.0,917,64716.644047
17200.0,945,64760.710773
17000.0,887,64803.268493
16000.0,912,64844.951507
15400.0,910,64888.493736
14200.0,928,64929.908171
14900.0,1075,64977.493843
14100.0,901,65021.551752
10300.0,959,65065.889164
17000.0,1067,65116.140069
13700.0,947,65160.560051
15900.0,958,65204.310286
16900.0,952,65249.001698
16500.0,956,65294.537497
14000.0,959,65337.259542
15900.0,901,65376.658074
16300.0,1019,65425.592216
16700.0,965,65469.397732
16400.0,944,65515.19727
16600.0,1011,65563.645247
16600.0,975,65610.416878
12300.0,927,65653.858622
16700.0,892,65695.962814
15600.0,972,65739.824178
20100.0,1249,65801.298939
13100.0,963,65846.625988
18500.0,1144,65900.046003
14100.0,981,65944.441574
13500.0,985,65989.073689
19500.0,1111,66042.393655
15300.0,1012,66087.933426
14200.0,1064,66134.117711
14500.0,976,66180.440425
14700.0,979,66225.679282
15600.0,988,66271.661466
15900.0,1015,66320.224806
14900.0,982,66365.262716
16900.0,1054,66412.12118
13700.0,908,66454.502949
16800.0,1017,66502.119142
17300.0,973,66550.377008
16300.0,1044,66600.677604
14300.0,984,66646.576932
16700.0,1055,66697.442648
13500.0,962,66742.268707
17600.0,1026,66790.461071
18300.0,1031,66838.021619
17300.0,1002,66884.40655
14700.0,1115,66938.611127
15900.0,962,66984.366848
16200.0,951,67029.918517
15400.0,995,67076.619128
17800.0,1018,67122.083437
18000.0,1029,67170.88112
15800.0,954,67214.501827
15900.0,954,67259.072254
14600.0,891,67302.138059
17600.0,984,67346.720669
20100.0,990,67393.134029
16800.0,1000,67440.875512
15800.0,969,67488.129126
18900.0,956,67531.67964
15600.0,957,67578.893878
13600.0,899,67620.578792
18000.0,947,67665.292054
17900.0,1004,67713.901725
14300.0,970,67761.950711
14800.0,1002,67807.853481
14800.0,1098,67860.151551
16500.0,1014,67907.947401
18300.0,1029,67955.002862
13900.0,935,68000.214416
13200.0,957,68044.667382
19300.0,1051,68095.737556
15700.0,972,68139.810466
15300.0,957,68186.108299
14500.0,987,68230.883281
15600.0,1038,68278.339106
15900.0,984,68324.992103
14700.0,986,68370.037868
17400.0,1081,68420.285432
17100.0,1019,68467.786898
6600.0,1022,68516.167601
16000.0,1059,68564.327055
16000.0,1019,68613.08946
17300.0,1090,68663.528102
14400.0,904,68704.900453
15600.0,914,68748.098894
12100.0,908,68790.24039
11800.0,961,68834.464821
13600.0,984,68880.714194
18100.0,1067,68930.943491
17000.0,928,68976.267645
11700.0,973,69019.555171
14900.0,1017,69067.814728
15700.0,1051,69115.549301
18100.0,1228,69172.74485
19700.0,1216,69229.472172
15800.0,1079,69282.162677
15400.0,1109,69333.352813
18000.0,1097,69387.221755
17000.0,1022,69435.217408
14300.0,1153,69488.950147
17800.0,1110,69542.343184
18000.0,1018,69591.795096
17000.0,1022,69640.357816
17700.0,1074,69692.000235
18500.0,1108,69743.780898
18100.0,1242,69800.730685
21000.0,1157,69856.985904
20200.0,1266,69917.124498
22300.0,1252,69973.276151
17600.0,1100,70025.808589
19100.0,1097,70077.095831
19300.0,1154,70129.949783
18900.0,1150,70186.227033
18500.0,1074,70237.504528
17600.0,1065,70287.424147
18900.0,1051,70338.396172
17100.0,1076,70387.710533
14100.0,1017,70434.069311
16500.0,1058,70485.825729
13200.0,979,70532.631082
16900.0,1027,70581.817713
18200.0,1023,70629.624385
18200.0,1051,70678.947962
17800.0,1009,70728.056424
17400.0,1040,70778.272833
17500.0,1147,70828.89214
17700.0,1029,70877.916945
14500.0,1058,70925.914472
15600.0,1026,70975.360423
17900.0,1107,71028.492093
16700.0,1081,71080.165677
18000.0,1072,71128.181817
15000.0,1181,71182.225574
17100.0,1032,71232.099922
18000.0,1238,71292.312927
15100.0,997,71340.072239
17700.0,1027,71387.419877
16700.0,1084,71438.979319
16700.0,1011,71486.763335
16700.0,1003,71535.552447
15600.0,1086,71585.437039
15500.0,1130,71639.724714
17900.0,1056,71689.695865
15500.0,1075,71739.932073
13800.0,931,71784.354452
14500.0,1016,71830.002184
15100.0,1299,71893.513799
18300.0,979,71939.545612
16800.0,1012,71986.989941
17000.0,1030,72036.475
9000.0,593,72063.010941
13600.0,945,72107.470548
14600.0,952,72151.088206
14300.0,959,72196.776734
17700.0,1021,72246.462481
15600.0,1025,72293.617112
16200.0,1007,72339.619143
15700.0,951,72386.185301
16400.0,1097,72436.407896
16500.0,998,72484.24227
18200.0,1100,72535.807243
17100.0,996,72581.808375
14800.0,996,72629.276937
15500.0,949,72674.487386
16700.0,986,72721.811193
21500.0,1146,72777.002352
16400.0,1116,72828.08563
18600.0,1210,72886.242214
20300.0,1127,72940.326296
17600.0,985,72983.826059
16800.0,1067,73036.1736
17200.0,1059,73088.062126
16600.0,1017,73135.729095
15700.0,1041,73183.974449
16700.0,1049,73231.962643
15300.0,1165,73289.871534
16500.0,1071,73339.74841
14800.0,1009,73388.273327
14600.0,975,73432.525101
15000.0,1078,73483.563114
13400.0,981,73528.09637
14500.0,975,73574.240675
16500.0,1026,73621.397974
15700.0,976,73668.543947
16600.0,1024,73717.234195
16600.0,1083,73769.201091
19900.0,1091,73820.373172
16900.0,1077,73873.23605
15500.0,1067,73921.691493
16100.0,1003,73968.504148
19100.0,1161,74021.7392
15000.0,933,74064.616203
17500.0,1103,74116.092302
17100.0,994,74161.050352
16900.0,1001,74208.621543
16300.0,959,74253.784093
16800.0,1126,74308.204254
15600.0,954,74352.052953
16300.0,1041,74401.400953
16600.0,1064,74454.586501
14200.0,1160,74508.759532
15700.0,947,74554.201273
15400.0,1020,74602.053351
16900.0,1130,74653.499006
15300.0,955,74697.315304
15200.0,1047,74747.13862
16500.0,982,74795.147026
12700.0,970,74844.26185
14600.0,1050,74893.28908
16700.0,989,74937.020569
15700.0,924,74979.829265
16100.0,956,75025.733376
14600.0,931,75068.854115
15500.0,1029,75114.755362
18100.0,1109,75167.065468
17800.0,1014,75217.176729
17400.0,1154,75271.948829
15500.0,993,75317.98865
15900.0,978,75364.626489
16900.0,954,75408.723835
17100.0,1057,75457.325505
19400.0,1007,75501.120831
14900.0,1110,75552.620695
16400.0,1058,75603.406958
18800.0,1091,75656.39354
16600.0,946,75701.035905
17300.0,993,75746.975818
17700.0,994,75792.843896
14100.0,923,75834.756776
15300.0,971,75879.230301
18200.0,963,75925.607694
17700.0,945,75972.072897
15000.0,957,76015.848858
16800.0,1045,76064.6232
14600.0,957,76108.388947
16600.0,1077,76160.581258
15800.0,968,76207.516161
15300.0,1032,76255.650338
14600.0,980,76304.579461
15500.0,946,76348.711435
19800.0,1074,76397.997621
18900.0,1065,76449.292131
12300.0,938,76493.473891
20000.0,1126,76547.536085
22500.0,1104,76602.197413
16300.0,951,76648.890891
17900.0,1017,76698.861817
17300.0,1032,76747.078137
15800.0,982,76791.571269
16800.0,972,76840.540743
17500.0,1011,76888.256
13800.0,914,76931.02343
16700.0,1098,76982.952971
14600.0,1038,77034.422248
14200.0,1047,77083.742676
16900.0,1073,77134.837482
16600.0,981,77178.42104
11400.0,932,77223.615047
15700.0,1159,77277.936905
17200.0,1115,77330.572619
16200.0,1028,77381.677066
15100.0,968,77427.644801
13800.0,961,77472.444771
14900.0,966,77518.597255
18400.0,1099,77569.509283
14600.0,1054,77618.220061
8900.0,971,77664.231757
18900.0,1091,77713.527101
14700.0,1024,77759.574312
19400.0,1074,77812.597445
18200.0,1073,77863.399131
18100.0,1075,77913.780545
19800.0,1137,77967.646462
12400.0,1008,78014.858689
17700.0,1019,78061.723151
17000.0,1004,78108.81148
14700.0,966,78154.990118
17200.0,994,78202.690605
16900.0,1025,78252.679011
15800.0,1014,78299.043895
16100.0,1063,78348.452674
18000.0,920,78393.307547
15200.0,909,78437.331739
17700.0,989,78484.033898
16900.0,1074,78532.170975
14800.0,935,78575.23386
15400.0,924,78617.65456
20600.0,1030,78666.296589
17400.0,1000,78713.963135
14800.0,979,78759.175845
13200.0,878,78800.661059
17400.0,967,78845.493079
16700.0,957,78889.013255
16800.0,1042,78936.555475
15900.0,1073,78989.038922
14700.0,968,79034.557464
12600.0,885,79076.958143
17400.0,1118,79131.487349
16600.0,1022,79179.498206
15800.0,1031,79227.193084
15000.0,1007,79274.207913
16200.0,1011,79320.453845
17500.0,995,79367.736935
13700.0,1060,79415.85352
18500.0,1013,79459.974779
16900.0,985,79505.79737
15100.0,954,79550.857154
15600.0,1032,79599.092657
17400.0,1026,79645.628763
18700.0,1043,79694.544753
18700.0,1467,79766.208965
14900.0,924,79807.852806
14300.0,915,79850.160348
16600.0,929,79893.647327
15700.0,1051,79942.535734
12300.0,927,79984.748448
17000.0,1034,80033.822562
17500.0,1027,80080.407461
18500.0,1148,80132.334824
17400.0,1115,80185.911056
17600.0,952,80229.352596
15000.0,982,80276.647346
15500.0,929,80320.541109
17200.0,1054,80370.99673
21500.0,1154,80424.704902
16600.0,1093,80477.746824
17200.0,1028,80523.634118
19600.0,998,80571.52094
13100.0,1008,80620.512175
18600.0,1112,80672.365029
18200.0,1144,80724.574176
17700.0,992,80769.885951
18000.0,1009,80816.84757
16900.0,1006,80864.268269
15000.0,948,80907.026424
15800.0,1043,80957.284583
15600.0,1022,81005.829736
15300.0,909,81047.359471
14300.0,919,81087.798823
16600.0,989,81133.120818
14500.0,1000,81178.354442
16500.0,986,81224.170969
17600.0,975,81269.827665
18800.0,980,81317.523569
17000.0,931,81361.218518
16300.0,922,81403.450606
18100.0,1057,81451.158061
15500.0,932,81491.201654
16300.0,1050,81539.087597
11700.0,897,81580.385131
15100.0,922,81623.402843
15300.0,946,81669.412301
17600.0,957,81712.063385
16700.0,1037,81761.062846
16200.0,994,81807.36836
15700.0,958,81850.389108
17000.0,1008,81895.409695
16800.0,1007,81941.744473
18500.0,1091,81991.236247
14500.0,976,82034.953309
14200.0,920,82075.654166
13900.0,978,82122.615131
20100.0,1017,82170.535605
14200.0,917,82212.289404
14800.0,965,82253.946895
16200.0,983,82300.925484
17400.0,969,82344.784422
17200.0,982,82388.718785
16200.0,1018,82438.953863
17700.0,972,82482.346889
18000.0,946,82525.110711
15600.0,967,82567.447834
14700.0,911,82608.499077
16100.0,954,82648.952565
18200.0,1111,82698.815609
21100.0,1107,82748.281414
14800.0,1103,82795.636836
16500.0,1056,82842.936224
17500.0,1058,82892.297027
16500.0,1052,82939.2616
17500.0,1022,82986.533312
16200.0,970,83031.263964
16700.0,966,83074.388371
16900.0,918,83115.490476
13500.0,911,83155.104533
14600.0,900,83195.770375
17900.0,954,83239.391053
18700.0,920,83281.12047
18600.0,970,83327.090779
18800.0,985,83375.187975
15300.0,971,83418.857216
13500.0,883,83458.278233
17500.0,964,83503.630379
18700.0,1005,83550.113059
16300.0,955,83594.137753
18500.0,953,83636.313792
18000.0,968,83679.926011
17100.0,1007,83731.955767
12700.0,871,83773.338029
17800.0,951,83817.218959
19300.0,940,83862.893005
18000.0,1060,83910.972779
17700.0,1005,83956.86204
17500.0,925,83998.534667
13700.0,871,84038.845237
15000.0,920,84083.705081
17600.0,929,84128.039076
16200.0,1013,84173.694879
16100.0,949,84214.120462
17500.0,955,84257.930884
19600.0,975,84302.580798
16500.0,919,84344.457623
14000.0,894,84385.149147
17800.0,952,84429.854749
16800.0,1060,84478.219858
16800.0,1005,84524.525152
16700.0,992,84568.713736
14500.0,949,84614.385636
16500.0,974,84660.117116
15700.0,910,84702.638042
17600.0,973,84749.2964
14100.0,950,84795.355973
15600.0,986,84839.419534
21400.0,1092,84890.811496
17500.0,1084,84941.126324
13700.0,971,84984.932599
19300.0,1042,85034.033135
17800.0,1063,85081.092806
21800.0,1077,85134.1728
15600.0,1005,85184.032561
16800.0,1026,85232.775863
17800.0,1065,85281.765139
18400.0,1080,85334.77314
17900.0,1123,85387.090891
16100.0,965,85432.336288
15900.0,925,85474.994626
19900.0,985,85518.555768
17100.0,1042,85565.590164
17000.0,959,85609.249007
18700.0,1028,85655.721118
14300.0,897,85694.951424
16900.0,992,85734.811755
18600.0,994,85777.15623
19800.0,1038,85823.563658
18400.0,1067,85871.759375
17000.0,1066,85917.354066
17700.0,951,85961.92753
16900.0,1024,86007.51002
16400.0,932,86045.986414
15400.0,1002,86090.968753
15100.0,886,86128.962356
18000.0,952,86170.303676
15300.0,898,86209.522419
17000.0,1146,86261.817587
14700.0,930,86300.517911
16900.0,1000,86347.707173
15900.0,1013,86391.344668
16900.0,1478,86455.88053
17800.0,980,86498.234949
18100.0,1024,86543.173185
17400.0,1063,86588.480572
17600.0,997,86630.456762
18000.0,921,86670.121873
16900.0,1179,86721.307656
16700.0,1045,86767.002995
18300.0,938,86807.98279
17700.0,989,86848.4451
18000.0,1054,86894.590644
14800.0,948,86936.832886
16000.0,1009,86980.139988
18000.0,1202,87029.802523
15200.0,1034,87076.231682
18500.0,1047,87120.954922
17700.0,991,87162.519012
17300.0,1039,87206.880284
17400.0,990,87248.639187
16700.0,989,87288.816802
19300.0,1013,87331.002575
18400.0,1086,87375.549603
10700.0,884,87412.631339
14700.0,924,87451.682068
18500.0,1020,87493.208228
16300.0,989,87534.483449
16600.0,1037,87576.768133
17500.0,941,87616.043256
18100.0,951,87657.361382
17700.0,965,87695.950371
18100.0,958,87734.843754
16800.0,959,87774.595941
18200.0,894,87811.97121
17000.0,936,87849.28603
17900.0,946,87888.118127
18700.0,913,87927.468422
17800.0,972,87969.165717
18100.0,940,88006.885094
15500.0,975,88046.293186
17400.0,923,88085.024536
17500.0,971,88127.343579
20200.0,939,88165.566998
18500.0,924,88203.473346
19100.0,962,88243.463573
18900.0,931,88282.735432
16900.0,953,88322.097605
18300.0,1055,88364.806424
17000.0,941,88400.982152
18400.0,1168,88452.688837
18100.0,1182,88502.644502
17600.0,1133,88550.997573
13400.0,927,88589.628989
18900.0,1071,88633.463511
18200.0,1019,88676.290078
16900.0,1043,88719.659795
18600.0,1021,88762.425849
16400.0,979,88802.88625
17900.0,1043,88848.30412
17500.0,999,88888.542116
17000.0,1044,88931.732715
20600.0,1067,88975.526327
17700.0,1073,89019.394575
18200.0,1016,89063.222556
18400.0,1037,89106.992285
19000.0,1066,89151.629033
15800.0,1018,89193.227259
18800.0,988,89234.127709
19300.0,967,89273.852559
16200.0,963,89315.021467
14300.0,990,89356.261045
18700.0,918,89395.106017
17100.0,956,89436.474401
15400.0,990,89478.705051
17400.0,979,89517.385182
16700.0,949,89556.893394
18000.0,997,89598.066408
17700.0,1044,89641.683425
18700.0,1047,89686.883193
17900.0,975,89731.499646
19300.0,1124,89777.041351
19800.0,1076,89822.500566
18200.0,935,89861.037492
17400.0,1001,89902.887675
18200.0,1014,89944.854252
18400.0,1010,89987.698515
17600.0,1010,90032.164815
19700.0,888,90069.510319
18700.0,1024,90114.957346
17400.0,1049,90159.450584
16400.0,983,90199.737755
17000.0,894,90235.520206
18400.0,1005,90275.012395
16500.0,1046,90318.357266
16500.0,977,90358.694299
17800.0,1082,90404.633978
16000.0,976,90444.006099
17000.0,940,90486.012134
16900.0,1063,90530.592051
15800.0,986,90572.466634
15400.0,979,90614.043303
15800.0,929,90654.005674
16700.0,1077,90700.62833
18200.0,982,90741.624465
16300.0,961,90783.420001
18900.0,941,90824.539298
17600.0,1012,90867.226465
16200.0,991,90909.793248
19500.0,1054,90953.660856
18600.0,1039,90997.222613
18300.0,1038,91040.464781
15600.0,1069,91085.103199
18000.0,988,91127.686
17500.0,1098,91173.722562
13800.0,963,91213.766904
13100.0,892,91252.984921
20000.0,1025,91297.733178
16800.0,1010,91338.906864
20100.0,1043,91384.559676
18100.0,1071,91427.158927
16200.0,1029,91469.002795
17000.0,947,91508.116888
16200.0,982,91551.132846
14800.0,932,91590.581656
17800.0,933,91628.610303
17000.0,983,91670.511175
18700.0,1013,91711.303945
18300.0,1010,91754.40219
22500.0,1159,91802.298889
16000.0,1063,91846.096994
17300.0,968,91886.069885
18400.0,1154,91934.6997
20500.0,1136,91981.929384
18000.0,1121,92028.901402
17900.0,1052,92072.320513
17600.0,1093,92118.750373
18600.0,1117,92166.060447
16100.0,987,92206.425252
17600.0,1075,92250.941446
12700.0,909,92289.359268
18400.0,1061,92334.942273
14200.0,926,92373.115967
16000.0,994,92414.750384
16400.0,993,92457.346658
16700.0,919,92494.401559
21800.0,1071,92537.362431
16300.0,922,92575.574307
18400.0,1048,92624.078536
17700.0,1029,92667.67507
16500.0,1096,92712.547586
18200.0,1005,92756.302286
14800.0,945,92795.575268
17000.0,974,92839.320545
17500.0,1032,92883.141344
19100.0,1026,92927.16479
18100.0,1083,92974.176948
18200.0,960,93016.825028
18200.0,1060,93065.837718
17800.0,1137,93116.525073
18400.0,1053,93163.122603
18000.0,997,93207.713356
17300.0,1048,93254.765267
14600.0,961,93298.765661
17900.0,1017,93346.580046
18400.0,1020,93396.058553
16600.0,965,93442.356451
15500.0,1031,93488.130898
14900.0,977,93532.663634
15100.0,950,93579.791905
21600.0,1133,93632.840502
17200.0,1050,93680.30639
16900.0,1004,93727.325145
15200.0,1032,93775.423894
16800.0,980,93821.77109
18800.0,1040,93874.454754
15800.0,1002,93925.097413
16600.0,1020,93977.259856
16700.0,970,94025.334328
17200.0,979,94075.90316
15300.0,1143,94130.674408
16300.0,1003,94183.390706
17700.0,1050,94233.334163
17000.0,1086,94288.25285
16800.0,1005,94339.95722
16200.0,1043,94392.75002
16200.0,989,94442.716951
18100.0,1086,94494.189288
17300.0,961,94543.07148
17700.0,968,94589.748546
18300.0,1091,94641.81646
13900.0,969,94689.284949
18000.0,983,94739.854123
21200.0,1106,94796.868231
15100.0,949,94845.198224
21900.0,1144,94901.535042
17800.0,1059,94955.031294
15200.0,876,94999.003412
17500.0,1035,95051.268933
15800.0,952,95100.05725
18000.0,1062,95154.60275
17800.0,1073,95211.767265
17500.0,1053,95266.874595
17800.0,1003,95321.397742
18500.0,1094,95378.527232
17600.0,1071,95433.275725
17200.0,939,95480.767206
16100.0,946,95528.499061
21700.0,1062,95582.121214
16100.0,1084,95638.003539
17300.0,1003,95689.415864
19500.0,1087,95744.251988
17800.0,1203,95806.250873
16400.0,1143,95861.900961
18800.0,1078,95916.222398
15400.0,1032,95968.817745
14900.0,975,96018.460681
14900.0,948,96063.849144
14900.0,942,96110.236777
13700.0,932,96153.160224
17200.0,1082,96203.908415
17500.0,1136,96262.203799
16100.0,1075,96312.70737
17100.0,1347,96377.013627
18000.0,919,96420.11142
18200.0,1053,96471.267398
18500.0,1040,96521.087966
18000.0,994,96571.050727
21700.0,1030,96619.334886
18200.0,946,96664.52151
18500.0,976,96713.953444
14900.0,917,96757.360268
17300.0,1006,96807.346828
17200.0,926,96852.102386
15900.0,927,96897.644436
18600.0,921,96942.016263
16800.0,1022,96989.808415
13400.0,875,97028.009281
18600.0,953,97075.339952
17200.0,982,97121.049673
17700.0,1087,97174.031222
18500.0,1084,97227.570503
17000.0,1026,97277.881549
18000.0,1061,97331.800042
18100.0,1008,97380.394722
14000.0,901,97423.544285
18300.0,1010,97472.843461
19000.0,1009,97523.423489
20900.0,1030,97574.681237
16800.0,992,97619.659694
18200.0,962,97665.872165
16000.0,1016,97714.527727
17000.0,1265,97775.714436
16900.0,1016,97824.638023
14900.0,876,97866.705487
18000.0,964,97913.937073
17600.0,924,97956.11943
19700.0,1007,98006.539045
16000.0,1043,98057.856433
14100.0,880,98101.277414
16900.0,916,98147.322751
16900.0,953,98193.042837
13700.0,879,98234.667378
17200.0,944,98281.46599
10700.0,896,98328.283605
17700.0,923,98372.081513
18900.0,921,98415.651434
12400.0,1017,98467.64586
18600.0,917,98511.676774
16800.0,934,98555.726215
19000.0,940,98603.62184
16100.0,888,98645.739778
13500.0,951,98693.817246
18200.0,962,98738.064124
16400.0,903,98781.897711
18900.0,900,98826.142811
15200.0,917,98873.34044
15900.0,1007,98923.168288
17700.0,949,98968.06006
12800.0,858,99010.629653
15900.0,898,99055.418216
14500.0,975,99102.997747
15400.0,871,99145.434623
15900.0,890,99188.621393
17000.0,913,99232.242366
14700.0,906,99276.867938
15600.0,868,99319.771031
17200.0,912,99364.578773
15800.0,1014,99414.771971
18000.0,927,99462.233527
15300.0,948,99506.605318
19300.0,944,99550.469769
17800.0,919,99593.112765
19700.0,935,99639.954845
17200.0,996,99687.400484
17700.0,968,99735.302353
17800.0,1000,99782.098037
17700.0,945,99827.365259
16600.0,948,99876.702931
16500.0,945,99921.740222
18700.0,1014,99971.048889
14600.0,899,100013.181
17200.0,1002,100060.192303
18900.0,1024,100107.693016
17300.0,1014,100152.805751
14100.0,935,100198.471901
15700.0,971,100246.549573
18900.0,971,100294.91663
15600.0,1031,100342.642442
18400.0,939,100387.573706
16700.0,1022,100438.1045
18000.0,1137,100492.188633
20100.0,1067,100542.066563
18600.0,1017,100589.79938
21000.0,1105,100645.315818
17600.0,1015,100693.26095
18700.0,1083,100745.416152
19300.0,964,100792.079909
15600.0,937,100836.319845
18300.0,1031,100889.864287
17900.0,1072,100944.453061
18100.0,1025,100991.222427
17100.0,1069,101043.160922
16800.0,938,101089.040517
17600.0,955,101136.741362
21600.0,1111,101190.197746
18600.0,1063,101242.366119
18400.0,968,101291.255156
17800.0,1043,101342.389303
20200.0,1035,101392.231732
17200.0,1070,101446.795599
14300.0,882,101488.892719
14700.0,891,101533.478024
18100.0,999,101579.866007
14700.0,929,101622.901186
17400.0,1021,101671.499355
19000.0,1032,101720.065778
14300.0,913,101766.364337
16300.0,1025,101814.949227
14500.0,935,101859.307864
17700.0,978,101907.168258
13100.0,885,101950.809335
17400.0,1014,102002.908994
16600.0,905,102046.683461
19600.0,1147,102103.398994
13700.0,918,102146.888898
17400.0,1217,102207.312345
18700.0,1028,102257.590217
17000.0,1056,102308.853677
17400.0,947,102353.490301
16600.0,1026,102402.718523
18800.0,1008,102451.732908
19200.0,1038,102500.890923
20100.0,1056,102553.534548
17500.0,1038,102607.18529
18400.0,1090,102658.987308
21700.0,1015,102709.023328
16900.0,937,102756.414451
15500.0,955,102804.996201
14700.0,962,102852.963754
16200.0,1061,102906.587838
18900.0,1034,102954.509454
21100.0,1072,103005.003218
18700.0,965,103052.459386
18300.0,1022,103104.877346
17400.0,1046,103156.057265
16100.0,916,103199.45663
14800.0,914,103243.562285
18100.0,979,103291.029922
18200.0,982,103334.621773
18900.0,1044,103386.069607
20400.0,1020,103435.065083
17500.0,939,103480.660362
17400.0,1053,103531.422521
18300.0,976,103577.41254
18300.0,1185,103633.320659
18400.0,1061,103687.016946
19200.0,981,103734.959077
19600.0,1013,103781.105302
17600.0,990,103831.617099
18400.0,1002,103879.669614
17500.0,1004,103928.664963
18800.0,963,103974.049106
18700.0,1086,104026.574503
17500.0,938,104070.604833
14300.0,1066,104123.450069
19200.0,989,104171.701616
18400.0,1011,104221.112958
17200.0,976,104270.871404
16900.0,967,104318.2006
21900.0,1112,104373.748667
16700.0,1006,104420.781242
18300.0,1009,104469.706812
14400.0,879,104510.947349
20300.0,1089,104566.652822
18100.0,995,104617.357655
19500.0,1072,104668.620787
17900.0,983,104716.221249
15400.0,995,104765.034714
18400.0,920,104808.073562
18800.0,980,104856.085834
16400.0,993,104903.497781
19100.0,1023,104954.56108
18100.0,934,105000.49414
18400.0,1048,105052.42691
17100.0,974,105102.50644
14200.0,917,105146.731878
21300.0,1026,105195.967558
20400.0,1025,105244.970197
16600.0,950,105290.154353
18700.0,1039,105340.660893
14800.0,930,105386.025708
18700.0,1033,105435.73118
18700.0,1024,105486.999277
16300.0,916,105529.749176
18100.0,957,105576.820691
18300.0,917,105619.548702
19300.0,1005,105664.952175
18700.0,1140,105718.5634
16800.0,952,105767.734087
19400.0,1086,105818.752412
15700.0,984,105866.523323
15800.0,903,105910.387708
22000.0,1048,105960.075375
13000.0,856,106001.767301
18500.0,1018,106052.480483
18600.0,976,106102.907686
18900.0,1011,106149.262282
18700.0,1138,106206.297051
17200.0,1022,106255.746687
18500.0,933,106300.60304
14700.0,949,106345.589523
18700.0,1008,106396.027518
18300.0,1050,106449.458883
20700.0,1081,106503.270432
20800.0,1174,106560.497031
18100.0,1037,106608.588557
18500.0,995,106657.512816
18200.0,917,106701.567397
18400.0,1059,106754.635984
16900.0,900,106798.041278
20400.0,1052,106848.294006
16200.0,941,106892.883301
18900.0,1187,106949.876024
18400.0,1033,106999.482346
18300.0,1026,107047.277176
17500.0,1015,107095.917391
17700.0,923,107141.096287
20100.0,1040,107191.709846
17600.0,1061,107242.11912
18400.0,969,107287.370202
20000.0,1139,107344.931161
17200.0,1113,107397.569735
18300.0,1111,107450.9637
18700.0,967,107496.20062
14900.0,887,107540.694132
18800.0,918,107588.750377
13600.0,896,107631.276959
18500.0,993,107680.141853
21100.0,1097,107735.640096
18000.0,982,107778.976693
14300.0,922,107825.545017
18400.0,939,107873.188883
19500.0,1021,107923.50818
14900.0,977,107970.403515
19100.0,1049,108020.954654
18700.0,1039,108071.303858
17600.0,990,108118.276433
15800.0,1037,108169.222605
16300.0,989,108219.18388
16000.0,951,108261.944648
18500.0,1037,108312.640261
19400.0,1031,108360.8651
18300.0,968,108410.054298
17500.0,1016,108459.649768
17700.0,967,108506.582633
14700.0,919,108550.744673
16300.0,909,108592.986093
21500.0,1190,108652.323729
15800.0,1001,108701.310208
17500.0,1062,108753.160306
18100.0,1014,108804.007029
16900.0,992,108853.420616
17600.0,1038,108904.720475
18200.0,1054,108958.55172
18400.0,1096,109012.306471
19200.0,981,109062.083733
18000.0,1041,109111.675686
17800.0,999,109160.654176
21900.0,1102,109215.065263
18400.0,1026,109265.534646
18600.0,1001,109317.548008
17800.0,1083,109369.760882
18800.0,990,109418.403651
20000.0,1083,109473.892164
18300.0,962,109518.445107
18500.0,943,109566.008256
18000.0,984,109612.736408
17900.0,1011,109663.902963
21400.0,1060,109718.128886
21100.0,1069,109771.254949
18700.0,999,109819.614887
22200.0,1118,109873.852773
16100.0,920,109918.675086
18100.0,970,109965.859497
14200.0,978,110012.574127
20600.0,1079,110066.376549
21600.0,1139,110121.429694
20100.0,1096,110174.811803
21000.0,1186,110234.235505
21000.0,992,110280.510248
18600.0,1039,110329.460797
20300.0,1029,110377.594532
18600.0,987,110420.991349
18400.0,1017,110472.099298
14400.0,934,110517.087304
18900.0,967,110566.551819
18600.0,979,110612.815975
16400.0,908,110658.778928
18000.0,966,110706.99303
13200.0,1013,110754.13081
15500.0,939,110799.056032
17800.0,930,110844.506629
19900.0,1086,110899.61797
18400.0,945,110945.624518
15300.0,953,110991.591184
16000.0,920,111033.898997
19400.0,972,111078.140193
21500.0,1036,111130.108742
17600.0,1021,111180.797509
16400.0,983,111229.502831
16500.0,987,111274.588191
18100.0,1231,111335.774018
15700.0,999,111388.689485
20500.0,1050,111439.283126
14800.0,921,111484.443814
15400.0,900,111530.019576
20800.0,973,111581.551695
18800.0,942,111626.587169
13600.0,979,111677.364954
20700.0,980,111724.253311
18200.0,994,111773.279318
21000.0,1047,111825.79915
16800.0,971,111869.66891
18500.0,993,111920.67049
18500.0,986,111969.221644
14200.0,956,112017.2193
16600.0,933,112060.020073
18300.0,947,112106.981457
17100.0,983,112154.766013
17900.0,996,112204.111057
19100.0,1020,112251.956402
15700.0,918,112296.898739
17400.0,999,112345.608979
20500.0,990,112391.822976
17400.0,1023,112442.424011
19400.0,982,112491.348048
18100.0,957,112537.190135
18500.0,1025,112589.167952
18000.0,939,112636.849926
20100.0,1053,112689.689984
14800.0,883,112731.56773
17100.0,956,112777.261249
17900.0,1019,112826.722141
17000.0,965,112875.214378
15400.0,944,112922.171129
16000.0,971,112970.449416
16000.0,943,113018.657841
15900.0,961,113066.293741
20000.0,1056,113116.830444
14500.0,897,113160.141021
17700.0,1010,113209.959589
17400.0,944,113254.863835
17100.0,916,113299.763637
16500.0,943,113344.618424
16500.0,957,113391.539285
12700.0,870,113433.925457
18700.0,963,113480.478449
17600.0,1110,113534.525186
18600.0,1197,113593.361014
18600.0,975,113641.74706
20500.0,959,113688.21486
14600.0,929,113733.111779
14200.0,869,113774.919042
16000.0,906,113818.640145
