# {"t_start": 1547076615.1070578, "env_id": "QbertNoFrameskip-v4"} 
r,l,t
75.0,266,11.0032
150.0,341,17.946656
50.0,297,23.839658
150.0,306,29.870377
25.0,289,35.865215
125.0,321,41.833169
175.0,342,48.55729
75.0,322,54.545897
100.0,320,61.000526
75.0,316,67.172132
225.0,407,75.29618
150.0,314,81.362674
225.0,312,87.86322
25.0,294,93.563572
275.0,399,101.410996
200.0,364,109.055948
650.0,443,117.994822
250.0,414,126.388693
250.0,364,133.819745
250.0,388,141.638301
200.0,318,148.002636
325.0,386,155.627362
200.0,342,162.490782
150.0,318,168.748472
50.0,306,174.920358
300.0,318,181.232457
300.0,351,188.420749
225.0,310,194.484349
275.0,425,202.838158
300.0,341,209.730439
300.0,379,217.615063
250.0,341,224.47918
600.0,434,233.274556
250.0,289,238.605865
200.0,298,244.362759
400.0,354,251.643219
200.0,294,257.558323
225.0,341,264.587589
475.0,368,271.715288
175.0,297,278.250786
300.0,401,286.802341
200.0,295,292.792806
275.0,304,298.583307
275.0,345,305.645911
350.0,358,312.420757
325.0,348,319.320816
225.0,349,326.173636
350.0,369,333.279964
325.0,378,340.66301
250.0,335,347.589814
300.0,319,353.711066
200.0,327,360.541347
300.0,402,368.276223
350.0,407,376.590491
300.0,322,382.91216
650.0,425,391.687038
300.0,319,398.536455
125.0,271,404.200615
250.0,308,410.183454
200.0,367,417.792314
275.0,349,424.851806
250.0,295,430.813514
250.0,301,436.570375
150.0,295,442.348906
325.0,413,450.540086
300.0,304,456.474236
300.0,339,463.219761
375.0,350,470.349693
275.0,369,477.725471
275.0,342,484.39187
250.0,324,491.384925
350.0,402,499.414434
300.0,329,505.716234
300.0,339,512.720138
275.0,313,518.909006
325.0,323,525.313805
250.0,295,531.055453
375.0,386,539.124716
300.0,382,547.084083
325.0,370,554.947755
300.0,314,561.127465
325.0,403,569.424204
425.0,388,577.047332
225.0,293,582.546036
350.0,395,590.62619
550.0,353,597.776356
250.0,314,604.270957
250.0,349,611.434206
300.0,303,617.263507
325.0,422,625.584543
300.0,312,632.02349
325.0,387,639.773728
350.0,388,647.66026
250.0,317,653.973685
750.0,426,662.217946
250.0,329,668.900342
275.0,342,675.487446
325.0,458,685.077148
250.0,313,691.184783
225.0,291,696.795722
250.0,337,703.756606
275.0,321,710.199045
325.0,388,718.034904
300.0,311,725.161096
450.0,402,734.125497
425.0,470,744.00929
300.0,329,751.15428
350.0,388,759.138067
225.0,294,765.581096
275.0,310,772.507001
225.0,322,779.647428
300.0,371,788.456507
300.0,431,797.713048
325.0,403,807.222565
250.0,391,816.223794
250.0,338,824.04141
250.0,354,831.814645
375.0,359,839.568749
375.0,442,849.481092
375.0,377,858.105942
600.0,453,868.283254
300.0,306,876.058511
350.0,398,885.949425
225.0,307,893.678609
200.0,292,900.579441
350.0,483,912.881789
275.0,331,920.540207
250.0,337,929.425929
300.0,313,937.18392
300.0,318,945.668986
350.0,309,954.395579
625.0,402,965.117553
350.0,398,974.994008
400.0,530,988.624899
625.0,403,999.37183
375.0,451,1012.117401
400.0,382,1022.570154
300.0,352,1032.463061
275.0,313,1040.515558
325.0,413,1051.951909
625.0,426,1064.234171
300.0,325,1073.506221
500.0,386,1083.966188
300.0,372,1095.057405
450.0,368,1106.072104
300.0,373,1117.655078
300.0,329,1127.382644
225.0,321,1136.49012
325.0,339,1145.837697
225.0,380,1157.399909
300.0,415,1170.126199
625.0,418,1183.558136
325.0,477,1198.997979
325.0,413,1211.21641
250.0,340,1222.072448
625.0,402,1234.975771
600.0,375,1246.286823
700.0,444,1260.492827
350.0,436,1274.947283
375.0,478,1291.328598
275.0,412,1304.78799
300.0,343,1316.924103
600.0,429,1332.585592
300.0,316,1343.630616
725.0,486,1359.824713
600.0,398,1373.634638
350.0,402,1388.561887
725.0,510,1407.219423
350.0,398,1420.745777
325.0,399,1433.747943
775.0,446,1449.436181
325.0,437,1464.179786
400.0,380,1476.600998
350.0,431,1492.939316
350.0,413,1507.875653
275.0,383,1522.289954
150.0,261,1531.990817
125.0,258,1540.540495
175.0,321,1553.121659
250.0,340,1565.421113
300.0,360,1580.224149
225.0,321,1591.851384
275.0,340,1606.132701
225.0,317,1617.538583
375.0,448,1635.76243
575.0,398,1651.096174
275.0,338,1663.595416
250.0,464,1682.16944
325.0,427,1697.949638
250.0,388,1711.953621
175.0,388,1727.474551
375.0,467,1745.183984
325.0,431,1761.658229
575.0,343,1775.58191
875.0,549,1799.14926
300.0,494,1817.309489
375.0,317,1830.746042
300.0,385,1846.928398
700.0,401,1863.837351
125.0,266,1874.741919
325.0,405,1891.820178
350.0,341,1905.126014
675.0,478,1924.514533
250.0,326,1937.681533
300.0,372,1954.148521
350.0,425,1971.931394
625.0,524,1994.143014
300.0,383,2009.565817
350.0,321,2022.505601
350.0,369,2037.249581
625.0,462,2056.200862
425.0,402,2072.580007
300.0,412,2089.258609
300.0,388,2104.731283
350.0,543,2126.083449
250.0,353,2140.843729
400.0,381,2156.428305
375.0,398,2172.870027
400.0,385,2188.669514
300.0,428,2206.340736
425.0,443,2224.74428
225.0,352,2238.348608
400.0,497,2258.67925
250.0,315,2271.397304
725.0,590,2294.791049
600.0,378,2309.985066
275.0,344,2323.021658
325.0,440,2341.666903
575.0,347,2354.88772
825.0,412,2372.082486
375.0,610,2397.816703
250.0,269,2408.985914
625.0,482,2430.556785
225.0,328,2445.002982
250.0,337,2458.527102
325.0,397,2473.854002
250.0,305,2486.04688
275.0,302,2498.755974
325.0,422,2516.659019
500.0,384,2532.188355
200.0,331,2545.836691
200.0,305,2557.967487
1150.0,617,2583.674227
300.0,402,2601.568877
350.0,406,2617.630346
275.0,363,2632.684558
225.0,317,2644.699582
325.0,306,2656.843722
275.0,335,2670.402697
375.0,402,2686.899325
1200.0,610,2711.321647
325.0,492,2731.209839
375.0,398,2747.483376
200.0,303,2759.362996
325.0,380,2774.738424
750.0,463,2795.228049
350.0,447,2813.782639
250.0,306,2825.719227
350.0,425,2843.225951
650.0,423,2860.06769
650.0,414,2876.38256
675.0,453,2895.197829
625.0,320,2909.650582
175.0,292,2922.721762
350.0,501,2943.243095
650.0,497,2964.155792
325.0,406,2981.113592
200.0,296,2991.294362
250.0,344,3004.25198
350.0,448,3022.756814
625.0,419,3040.644336
300.0,509,3061.199593
375.0,328,3073.376565
400.0,396,3089.522283
675.0,491,3110.553678
125.0,328,3124.002623
400.0,417,3141.055601
400.0,603,3165.373891
200.0,300,3177.428671
375.0,408,3194.041605
275.0,321,3207.175358
350.0,424,3224.56993
275.0,326,3237.545041
350.0,446,3255.325166
225.0,343,3270.379775
325.0,434,3287.969372
300.0,365,3303.403062
325.0,430,3320.931584
500.0,561,3343.882073
350.0,428,3362.273615
675.0,394,3378.162858
650.0,388,3393.879132
600.0,425,3410.885329
675.0,445,3428.077915
325.0,345,3442.224155
400.0,427,3459.540043
625.0,569,3483.484143
700.0,478,3502.899432
300.0,411,3519.702009
225.0,311,3533.206599
275.0,351,3548.033176
275.0,359,3562.902643
650.0,485,3582.965526
375.0,404,3599.294742
375.0,452,3617.456034
375.0,389,3632.833462
325.0,478,3652.32763
300.0,371,3666.831935
350.0,474,3686.114075
375.0,400,3703.137681
300.0,373,3718.897075
650.0,407,3735.262518
300.0,383,3750.967052
625.0,401,3767.313582
375.0,416,3785.063395
400.0,421,3802.688135
300.0,391,3817.986922
250.0,356,3831.515141
325.0,412,3848.253079
325.0,380,3864.613746
250.0,346,3879.116133
400.0,398,3895.431427
350.0,297,3907.891847
375.0,383,3923.937596
275.0,302,3936.551336
375.0,409,3953.539047
350.0,412,3970.065624
300.0,377,3984.777585
300.0,412,4001.994716
250.0,333,4016.14666
575.0,406,4032.72784
300.0,423,4050.0024
550.0,422,4068.716117
375.0,405,4086.347594
225.0,329,4099.513977
300.0,342,4113.533386
575.0,399,4129.418069
300.0,352,4143.221961
525.0,380,4159.556787
300.0,319,4173.223996
275.0,306,4185.275113
275.0,324,4199.243454
300.0,394,4214.645816
75.0,309,4227.942974
275.0,410,4244.353901
300.0,373,4259.651392
325.0,399,4275.647794
300.0,395,4291.555901
600.0,390,4307.735541
575.0,408,4325.012216
300.0,491,4345.328125
250.0,347,4358.815315
575.0,322,4372.044415
400.0,435,4389.509124
250.0,380,4405.332932
275.0,393,4421.154705
275.0,306,4433.703655
250.0,300,4445.420024
275.0,306,4457.799082
675.0,425,4475.052145
275.0,390,4490.855932
325.0,312,4502.77727
275.0,402,4519.19945
375.0,420,4536.302022
250.0,326,4550.729874
650.0,334,4563.559849
300.0,388,4579.666632
325.0,429,4597.817859
300.0,330,4611.25385
675.0,390,4627.651647
400.0,411,4645.008621
375.0,326,4658.446164
625.0,370,4673.112008
375.0,409,4690.104049
600.0,509,4710.4979
325.0,387,4726.030326
575.0,400,4742.416759
375.0,439,4760.26483
525.0,388,4776.254359
600.0,535,4798.578319
175.0,269,4809.903937
350.0,363,4825.357637
650.0,386,4842.032445
300.0,372,4857.250846
300.0,393,4873.552999
275.0,387,4888.847275
600.0,390,4904.701334
325.0,391,4920.720748
325.0,391,4936.232907
325.0,366,4951.222899
350.0,388,4967.00759
300.0,569,4990.001257
375.0,422,5007.692014
325.0,435,5025.678581
300.0,395,5041.307971
375.0,349,5056.251103
275.0,317,5069.230172
350.0,424,5087.465428
675.0,546,5110.732236
400.0,508,5132.15594
150.0,322,5146.209731
625.0,473,5165.242559
700.0,390,5180.620556
650.0,398,5196.548727
675.0,402,5212.530969
625.0,426,5229.741205
225.0,405,5246.802436
350.0,478,5266.716493
350.0,494,5286.123744
425.0,482,5306.427505
1175.0,511,5326.061973
600.0,467,5345.681388
425.0,528,5367.822812
650.0,439,5387.104263
550.0,473,5407.170532
650.0,480,5428.590125
600.0,538,5451.035074
350.0,510,5471.801687
275.0,335,5484.737556
300.0,483,5504.515085
600.0,430,5522.876888
450.0,479,5542.45132
625.0,441,5561.2002
600.0,378,5576.618293
600.0,536,5598.198257
600.0,527,5619.238818
250.0,355,5633.534406
600.0,420,5650.750076
650.0,471,5669.79096
625.0,404,5686.32183
625.0,463,5705.169884
675.0,491,5724.606107
225.0,310,5736.089782
400.0,314,5749.43814
575.0,354,5763.35123
250.0,343,5777.548983
175.0,325,5790.342313
575.0,380,5805.217841
375.0,443,5824.167614
375.0,436,5841.800548
700.0,367,5856.684104
675.0,517,5877.192428
675.0,494,5898.115131
375.0,495,5918.81844
650.0,437,5937.035808
550.0,374,5952.54947
525.0,418,5969.680403
250.0,349,5983.69294
575.0,380,5998.339759
650.0,472,6018.647502
150.0,262,6029.695419
700.0,535,6052.157621
275.0,317,6065.305556
700.0,405,6081.753002
675.0,424,6099.969254
400.0,500,6120.033159
275.0,349,6134.298149
650.0,397,6150.725362
650.0,394,6166.159559
375.0,380,6182.395449
700.0,441,6200.027632
625.0,385,6216.156891
250.0,346,6230.213183
750.0,603,6255.721985
650.0,488,6275.697847
200.0,334,6288.86577
325.0,387,6305.712015
700.0,474,6324.552252
675.0,429,6341.598478
425.0,529,6363.072882
1050.0,657,6390.784404
750.0,574,6415.51098
625.0,427,6433.313031
300.0,392,6449.242005
675.0,467,6468.705645
650.0,468,6487.992728
725.0,515,6510.575617
775.0,469,6530.74369
650.0,477,6551.613649
475.0,571,6575.376877
625.0,380,6591.369867
300.0,352,6605.033047
275.0,396,6621.048223
675.0,457,6640.033729
675.0,438,6656.900656
375.0,335,6672.362504
700.0,439,6689.511704
375.0,427,6706.288774
600.0,421,6724.194957
725.0,379,6739.361696
450.0,389,6754.987679
650.0,407,6770.952688
375.0,433,6788.691542
675.0,415,6806.108963
775.0,486,6826.158896
350.0,403,6842.70574
700.0,429,6860.268028
375.0,426,6878.085851
250.0,342,6892.366699
750.0,598,6916.540046
350.0,318,6929.706348
625.0,366,6944.925995
525.0,532,6965.679993
625.0,402,6981.770409
650.0,391,6998.653602
675.0,483,7019.283797
450.0,422,7036.366048
725.0,397,7052.543837
475.0,425,7069.280647
400.0,413,7085.883212
300.0,348,7100.467228
475.0,495,7119.902841
800.0,371,7134.784143
475.0,455,7153.690036
775.0,461,7172.529757
425.0,442,7191.358901
775.0,478,7210.168538
450.0,408,7226.40007
450.0,423,7244.375194
500.0,420,7261.717049
725.0,512,7282.520051
775.0,414,7299.127295
725.0,468,7318.104658
725.0,424,7335.965894
1300.0,679,7363.879025
750.0,535,7384.298025
800.0,464,7402.136252
700.0,423,7417.938735
525.0,565,7440.666301
325.0,361,7456.235418
775.0,559,7479.034765
775.0,465,7497.333968
350.0,432,7515.258092
425.0,460,7532.680232
750.0,567,7556.045861
775.0,490,7575.801815
400.0,439,7593.879005
725.0,415,7609.585712
775.0,445,7627.452482
525.0,404,7644.969733
250.0,327,7658.68818
475.0,493,7679.513893
800.0,563,7702.407866
475.0,533,7723.186429
1025.0,654,7749.652356
775.0,527,7771.681606
725.0,691,7799.340328
750.0,386,7814.902091
1025.0,641,7842.690389
775.0,501,7862.955868
475.0,500,7884.196478
3850.0,717,7914.048969
475.0,366,7928.762989
800.0,554,7950.811717
475.0,452,7969.382939
825.0,566,7991.83772
675.0,404,8009.361984
300.0,355,8024.701448
725.0,445,8042.524936
775.0,402,8058.175595
500.0,473,8077.718867
250.0,338,8091.512802
825.0,564,8114.727261
300.0,378,8130.083126
750.0,594,8154.762094
525.0,525,8176.368052
750.0,481,8197.119437
800.0,531,8218.570312
550.0,547,8239.968191
775.0,679,8268.421132
275.0,350,8282.929704
825.0,571,8306.267468
1275.0,708,8335.370014
700.0,476,8356.38567
725.0,414,8373.808806
800.0,478,8392.482313
725.0,427,8409.840803
500.0,416,8427.292619
775.0,490,8448.171619
500.0,551,8470.486165
525.0,660,8497.260946
400.0,405,8514.495482
775.0,525,8536.788536
725.0,408,8552.788193
450.0,501,8573.503272
775.0,586,8597.837533
775.0,462,8616.03911
1050.0,601,8640.785188
750.0,464,8660.603955
525.0,492,8681.249944
550.0,577,8705.669689
650.0,326,8719.979997
550.0,734,8750.801964
825.0,549,8773.026064
775.0,435,8791.28767
750.0,534,8812.300604
1100.0,747,8842.676962
550.0,437,8861.19046
850.0,660,8889.178023
600.0,661,8915.678927
775.0,658,8943.067948
800.0,562,8966.278413
800.0,527,8988.456177
825.0,585,9013.785042
725.0,462,9033.757114
800.0,662,9062.435194
725.0,730,9093.425769
575.0,554,9116.309842
550.0,562,9139.066918
775.0,537,9161.290688
575.0,745,9192.90789
350.0,392,9208.790329
725.0,498,9227.847819
750.0,436,9245.864191
1000.0,647,9272.139472
775.0,471,9291.036253
825.0,526,9312.265418
575.0,515,9334.136571
575.0,490,9353.597308
250.0,360,9369.248555
500.0,369,9383.497241
575.0,507,9404.385959
525.0,484,9424.313881
750.0,428,9442.112297
750.0,451,9460.212898
1350.0,677,9489.714489
850.0,623,9514.137057
4125.0,776,9545.927023
425.0,441,9564.121269
450.0,368,9578.418121
4150.0,784,9610.633151
625.0,405,9627.523675
850.0,499,9647.737479
800.0,473,9666.508179
600.0,614,9692.219455
800.0,410,9708.369211
450.0,465,9728.262632
875.0,494,9750.94634
825.0,817,9784.203637
850.0,647,9812.37676
825.0,419,9830.089515
800.0,447,9847.442449
800.0,613,9873.063325
525.0,439,9890.044705
675.0,382,9905.573155
1125.0,716,9935.317791
775.0,381,9951.108908
500.0,430,9967.914589
775.0,575,9991.376505
775.0,525,10013.006501
775.0,542,10036.578045
850.0,668,10065.036006
1300.0,701,10093.620965
1075.0,592,10117.469995
1275.0,726,10147.198069
775.0,381,10162.854234
800.0,559,10185.77529
800.0,582,10209.272105
825.0,537,10231.910103
550.0,536,10254.548124
500.0,441,10271.644365
825.0,515,10293.193615
600.0,465,10312.353379
900.0,566,10335.080824
800.0,502,10355.954374
825.0,488,10375.386915
1325.0,565,10398.103979
800.0,413,10414.76215
850.0,539,10437.343929
800.0,448,10456.062675
1325.0,631,10481.473451
825.0,484,10502.028491
1025.0,620,10529.041639
550.0,441,10546.847103
1300.0,671,10575.397282
825.0,569,10598.376754
825.0,661,10624.752957
800.0,475,10644.756235
1425.0,838,10678.847728
4100.0,693,10708.430186
600.0,607,10732.471547
825.0,596,10755.860123
1350.0,613,10781.801703
750.0,387,10797.937397
1025.0,654,10824.860597
750.0,561,10847.151181
4250.0,980,10887.593822
275.0,297,10899.352831
850.0,606,10924.862896
1350.0,609,10948.32115
500.0,618,10974.010263
1800.0,729,11003.494395
750.0,409,11020.979646
1350.0,735,11051.701534
850.0,580,11075.512355
850.0,553,11097.989207
850.0,675,11125.924037
850.0,719,11154.881997
550.0,545,11177.593118
500.0,436,11195.207373
850.0,651,11221.377345
850.0,507,11241.875376
5175.0,882,11280.531435
750.0,461,11299.85699
4175.0,789,11331.458022
475.0,364,11347.226058
825.0,555,11370.654003
800.0,453,11389.757542
850.0,477,11409.297942
4125.0,704,11439.055698
850.0,581,11462.286723
4600.0,656,11488.951053
825.0,517,11510.402181
4650.0,799,11542.880388
825.0,459,11561.387714
825.0,697,11591.2313
800.0,409,11608.019022
825.0,545,11630.995517
850.0,619,11656.947551
850.0,492,11678.501394
800.0,560,11701.50695
475.0,484,11721.660571
4000.0,814,11755.104476
1325.0,716,11784.971188
825.0,576,11807.53024
800.0,672,11834.448254
775.0,560,11857.833814
1300.0,732,11889.867951
725.0,531,11911.10902
1325.0,516,11932.521849
425.0,363,11948.65302
825.0,724,11977.556014
1300.0,809,12010.756832
1075.0,676,12039.052303
825.0,403,12055.640996
4075.0,587,12079.470657
825.0,556,12101.813311
4100.0,811,12134.855012
775.0,413,12150.976806
825.0,554,12172.720948
1300.0,653,12198.958335
550.0,614,12224.369533
850.0,696,12253.712736
850.0,566,12277.245624
800.0,388,12292.609729
1325.0,609,12316.558446
4750.0,802,12349.669492
4700.0,703,12378.114493
825.0,642,12404.682631
4650.0,874,12440.057784
3725.0,602,12463.608335
475.0,419,12480.259578
1025.0,656,12508.105653
1325.0,830,12542.052377
1275.0,678,12569.885666
3800.0,659,12596.605571
825.0,758,12627.504564
800.0,579,12650.3752
1325.0,773,12682.4011
550.0,428,12700.172292
1350.0,855,12734.460275
4350.0,829,12770.097049
800.0,484,12789.158652
1350.0,669,12816.111018
1350.0,764,12849.383179
575.0,495,12869.581044
3950.0,757,12899.69047
550.0,515,12921.092912
1075.0,678,12948.394432
800.0,401,12965.258275
3850.0,642,12991.596506
1350.0,687,13018.440569
850.0,702,13046.931747
1075.0,618,13071.543945
550.0,537,13094.353957
1075.0,801,13126.625541
825.0,640,13153.857776
1025.0,600,13177.824462
4700.0,887,13213.45044
525.0,446,13233.017869
550.0,542,13255.989887
500.0,670,13283.407516
825.0,419,13300.834801
575.0,548,13323.533485
600.0,769,13356.340461
4100.0,761,13389.435681
4350.0,757,13418.615619
4650.0,837,13452.313982
4650.0,952,13492.092937
350.0,545,13514.161932
3825.0,685,13542.02295
4200.0,779,13574.420234
4000.0,540,13595.305091
4650.0,887,13632.007415
4350.0,948,13669.563677
425.0,422,13687.227285
850.0,578,13711.989997
3850.0,768,13743.616242
4150.0,646,13770.596226
425.0,385,13785.321402
350.0,488,13805.773254
4150.0,613,13829.79099
4125.0,693,13858.702185
4775.0,884,13894.063317
825.0,495,13915.136894
4650.0,764,13946.404131
850.0,525,13968.034418
775.0,547,13990.037784
4225.0,786,14023.231395
4300.0,662,14050.786221
4250.0,802,14084.021666
825.0,708,14112.74591
4325.0,1188,14162.560276
575.0,558,14185.024033
1025.0,518,14205.994289
3850.0,594,14229.69974
600.0,1083,14274.884941
575.0,664,14302.08162
4650.0,999,14342.996206
4650.0,799,14375.427271
4500.0,886,14409.980778
4725.0,985,14451.054111
4625.0,894,14487.228872
450.0,543,14509.300513
850.0,568,14532.425713
600.0,606,14558.223779
500.0,458,14577.1153
850.0,600,14601.601399
4150.0,805,14634.631111
4725.0,1033,14676.902534
850.0,742,14707.799731
4150.0,773,14740.652347
4275.0,755,14771.567145
500.0,547,14792.996198
3950.0,723,14823.908556
450.0,491,14844.609299
525.0,687,14872.016876
1325.0,921,14911.006947
825.0,653,14938.44072
1000.0,660,14964.317003
4150.0,675,14992.551929
525.0,869,15026.671939
4675.0,1012,15067.820554
825.0,646,15093.434172
4450.0,773,15124.199718
4725.0,822,15159.250338
4150.0,685,15187.577643
575.0,754,15217.598089
600.0,881,15253.316012
600.0,691,15281.131194
3825.0,723,15311.765891
4175.0,712,15341.10864
850.0,587,15363.709379
825.0,608,15388.176707
3925.0,1021,15430.802992
850.0,904,15468.286725
4750.0,1132,15514.804791
3925.0,703,15543.11178
4600.0,919,15580.471674
4250.0,852,15616.196203
825.0,1001,15657.19805
825.0,848,15691.273667
550.0,600,15714.727506
450.0,428,15732.397088
850.0,608,15757.13935
5025.0,725,15787.950599
4175.0,766,15820.039579
4250.0,768,15850.675486
1350.0,745,15883.100196
4625.0,760,15916.268927
4025.0,791,15950.49729
850.0,675,15979.009812
600.0,628,16004.362347
4550.0,1021,16046.544532
4600.0,696,16074.75349
4550.0,953,16114.720692
800.0,540,16137.604587
4725.0,851,16172.596968
4600.0,736,16202.512431
4000.0,947,16243.018847
850.0,572,16266.683184
4325.0,801,16300.164622
4100.0,923,16338.809542
3950.0,614,16364.486582
4100.0,651,16391.697839
850.0,595,16417.397079
3800.0,644,16443.407389
4200.0,761,16473.720814
325.0,513,16494.386166
4325.0,797,16527.172004
850.0,945,16564.95144
850.0,626,16589.938079
3950.0,789,16622.371086
675.0,434,16639.900422
4175.0,562,16663.942091
4000.0,870,16698.823517
4200.0,593,16722.845486
600.0,569,16746.067676
4175.0,646,16774.367318
4175.0,902,16811.836861
4350.0,845,16846.556385
4200.0,809,16880.609403
825.0,557,16903.41312
825.0,688,16932.601116
4175.0,819,16967.336552
850.0,914,17006.589031
850.0,970,17046.515741
4275.0,817,17080.214882
3925.0,702,17109.166763
4075.0,833,17143.614041
825.0,603,17169.716756
4275.0,774,17201.599821
3925.0,640,17226.725951
4000.0,744,17256.364255
4125.0,800,17290.095078
4075.0,968,17327.473411
4200.0,774,17359.479294
4200.0,656,17386.895897
4150.0,775,17419.243611
4150.0,711,17449.810996
4150.0,712,17480.240093
3875.0,782,17511.813678
3800.0,666,17539.724679
525.0,724,17569.607781
850.0,919,17607.9544
4200.0,699,17636.272776
850.0,774,17669.237202
825.0,701,17699.655406
3875.0,854,17734.509364
825.0,562,17756.839276
4125.0,656,17783.797536
500.0,809,17819.015272
4100.0,806,17850.327846
950.0,986,17891.229235
850.0,932,17929.259647
4100.0,746,17959.651535
4100.0,670,17987.54881
4250.0,735,18015.87464
3975.0,870,18053.347764
825.0,635,18079.761451
575.0,539,18101.50394
4225.0,650,18128.202447
4725.0,880,18164.716114
7500.0,1007,18205.27231
4175.0,751,18235.672337
825.0,814,18269.883693
850.0,825,18305.703356
925.0,890,18341.447318
925.0,927,18378.425169
575.0,647,18404.522938
4250.0,909,18440.833957
875.0,911,18478.37991
4100.0,654,18504.640299
4200.0,561,18527.403187
4225.0,968,18566.952808
850.0,983,18606.491584
750.0,486,18626.550973
850.0,661,18652.439177
4150.0,864,18686.873197
550.0,571,18710.193139
4175.0,933,18746.986495
4250.0,745,18776.933283
4250.0,655,18803.397596
4250.0,1098,18849.493597
4225.0,691,18877.382361
3975.0,758,18906.601058
4275.0,843,18941.44309
4200.0,620,18966.713683
825.0,654,18992.90687
800.0,498,19013.184416
4275.0,844,19047.167216
4350.0,665,19073.364227
750.0,483,19093.597512
800.0,747,19124.328197
950.0,848,19159.073545
4250.0,859,19195.295037
4300.0,845,19230.794691
4200.0,829,19264.715639
850.0,803,19299.036353
4225.0,600,19324.309506
4175.0,576,19347.913516
850.0,609,19374.034204
4275.0,898,19411.168151
1325.0,702,19440.477055
4050.0,835,19475.147469
4150.0,703,19504.391563
4300.0,693,19531.830652
4300.0,882,19570.274107
4300.0,755,19602.037996
4925.0,970,19641.937945
4250.0,751,19672.626729
3775.0,639,19699.177478
3925.0,717,19729.540572
4200.0,818,19762.692737
4400.0,897,19799.711281
4275.0,854,19835.10122
775.0,556,19858.150438
4050.0,838,19892.77668
4175.0,693,19922.318628
775.0,475,19942.098967
4125.0,723,19972.93819
3900.0,742,20003.483401
4350.0,901,20040.989203
825.0,656,20068.114494
4275.0,735,20097.369968
4375.0,787,20129.735628
4000.0,800,20162.704721
4750.0,1159,20210.96252
4325.0,846,20245.032858
4150.0,617,20270.669561
4275.0,916,20308.426547
4225.0,932,20346.499422
4350.0,752,20377.372783
4300.0,826,20411.400239
4000.0,850,20445.769433
4225.0,1185,20494.673168
800.0,937,20533.417052
3950.0,741,20564.179536
800.0,506,20584.802842
4200.0,765,20615.596748
4350.0,756,20644.642291
4200.0,1181,20694.685254
3975.0,844,20729.500308
3950.0,725,20759.13812
4275.0,1080,20805.231623
4000.0,1069,20850.260391
4325.0,963,20890.144923
600.0,550,20913.040695
700.0,969,20952.110062
4250.0,843,20985.848131
850.0,511,21007.752244
4325.0,823,21040.524905
4350.0,890,21076.913493
4000.0,714,21106.177868
4400.0,1073,21150.571038
4575.0,868,21186.742569
4375.0,958,21226.880181
4250.0,1186,21274.254362
4175.0,725,21304.966294
4200.0,787,21337.537952
4400.0,986,21378.660944
4200.0,727,21409.40662
4325.0,744,21439.930349
4200.0,847,21474.62893
3975.0,798,21506.832046
4950.0,1400,21563.816787
4300.0,975,21602.191309
600.0,753,21633.784434
4225.0,788,21666.570977
4250.0,810,21701.625626
4150.0,733,21731.957114
4275.0,656,21758.554146
4200.0,797,21791.755228
4300.0,761,21822.630346
4300.0,884,21859.003595
800.0,708,21888.10499
625.0,396,21904.33547
3975.0,855,21938.943269
4425.0,838,21974.690159
600.0,841,22007.779826
450.0,439,22025.389137
575.0,623,22050.933174
700.0,908,22088.447813
4300.0,929,22125.546184
4850.0,1006,22166.618938
4750.0,926,22203.76813
4175.0,691,22231.540185
775.0,501,22251.806655
3975.0,709,22280.593838
4400.0,926,22319.529208
4275.0,859,22354.952215
575.0,784,22385.841337
5000.0,1061,22429.869764
4275.0,784,22461.817914
4825.0,934,22500.759814
4125.0,919,22538.600264
700.0,980,22579.797129
4450.0,716,22608.76614
800.0,598,22634.233144
775.0,809,22668.315239
3875.0,700,22698.853804
825.0,594,22722.45004
750.0,559,22745.484841
4150.0,679,22773.930979
4600.0,777,22805.626473
4325.0,663,22832.957007
3950.0,769,22864.553438
4300.0,759,22893.998034
4825.0,944,22934.036872
4175.0,684,22962.070695
4825.0,889,22998.980055
4300.0,867,23034.357674
4450.0,894,23072.102474
4225.0,630,23098.111325
850.0,859,23134.564798
4100.0,772,23166.209559
4300.0,896,23204.314435
4400.0,1271,23257.790706
4375.0,787,23289.74439
800.0,483,23309.420125
4375.0,875,23345.587764
4300.0,1101,23392.613616
750.0,480,23411.483657
4325.0,1097,23456.218216
4225.0,822,23490.124767
800.0,657,23518.35536
4150.0,682,23545.228005
4275.0,791,23578.202516
4200.0,769,23609.410619
4050.0,883,23644.953053
4300.0,944,23684.90237
3950.0,601,23709.669013
4400.0,990,23749.092651
850.0,715,23777.834965
4425.0,1308,23831.867988
4325.0,1022,23875.11259
4350.0,1020,23916.688498
4350.0,1033,23960.418793
550.0,464,23980.507308
4325.0,912,24018.853053
4450.0,1035,24059.338311
4225.0,701,24087.806543
4425.0,782,24119.577309
4375.0,1012,24162.186861
4350.0,792,24193.982366
3750.0,799,24227.356659
3825.0,626,24253.125656
4300.0,759,24284.455286
4250.0,717,24315.631768
4900.0,1137,24362.965385
8450.0,1476,24424.584067
4450.0,884,24459.932224
4375.0,858,24494.805488
4475.0,995,24535.706807
4200.0,914,24572.844534
4375.0,989,24612.736212
825.0,501,24633.208671
4350.0,670,24661.26884
4400.0,848,24696.031042
4700.0,971,24735.927301
3975.0,555,24758.997908
4175.0,727,24790.235932
4425.0,961,24829.371517
4350.0,651,24855.381501
750.0,441,24873.130341
850.0,497,24894.609625
4350.0,929,24932.038648
4425.0,1014,24974.338272
4450.0,860,25008.172084
4450.0,1050,25049.913446
5025.0,1162,25096.707664
700.0,959,25136.254737
600.0,583,25160.769334
525.0,702,25190.054127
4275.0,843,25223.186644
4450.0,878,25260.411103
4375.0,1023,25303.116123
4425.0,717,25332.645287
4475.0,1301,25386.298795
4475.0,872,25421.443344
4375.0,802,25455.786818
975.0,1045,25502.406551
3850.0,679,25531.08271
4150.0,692,25559.425779
4175.0,978,25599.946031
4725.0,1049,25644.39746
4775.0,1392,25702.628269
1075.0,789,25734.956539
4150.0,610,25759.431831
500.0,633,25785.577951
4300.0,963,25825.614109
600.0,688,25854.535478
4350.0,777,25886.828641
4450.0,841,25923.329952
3950.0,685,25950.867197
4475.0,1179,26000.111882
4425.0,1134,26045.717215
4175.0,943,26082.527678
4425.0,976,26121.696458
4725.0,1062,26165.361951
8400.0,1366,26219.451505
4575.0,1295,26271.573415
7750.0,1259,26322.276076
4400.0,939,26361.12169
5450.0,1141,26407.079443
4550.0,1143,26452.392238
4275.0,687,26479.649321
4475.0,852,26513.727418
4400.0,1017,26555.58941
4100.0,785,26586.273717
4450.0,907,26624.641175
600.0,1061,26668.392506
4375.0,1140,26714.20945
4450.0,930,26751.14069
4675.0,1062,26793.624458
600.0,534,26815.129371
4500.0,981,26855.49041
4500.0,971,26892.627403
4750.0,1431,26951.140702
4425.0,862,26985.963204
4750.0,968,27025.859221
4400.0,944,27064.303384
4050.0,905,27100.472062
4450.0,863,27135.84488
7750.0,1003,27174.469982
4650.0,950,27212.842237
8025.0,1394,27268.487406
4575.0,970,27307.829428
4500.0,1147,27356.830034
600.0,537,27378.001565
4475.0,1052,27421.404316
4275.0,957,27460.935565
4425.0,747,27491.469464
7575.0,1048,27533.076886
600.0,596,27557.4038
4375.0,874,27593.433669
7825.0,1083,27637.920147
600.0,514,27657.879521
7900.0,1286,27709.69698
4475.0,894,27746.089133
7975.0,1446,27803.754843
500.0,437,27820.558488
600.0,527,27841.225991
4350.0,607,27865.463607
4425.0,783,27896.554523
4150.0,802,27928.252364
4200.0,921,27964.501119
4150.0,875,27998.498871
525.0,527,28018.359196
600.0,544,28041.453981
4225.0,881,28076.909559
575.0,489,28097.271559
4000.0,740,28126.486707
8350.0,1504,28187.618738
4375.0,791,28218.560079
7775.0,1467,28280.361342
4250.0,910,28317.412621
4875.0,1308,28368.577114
4400.0,762,28400.06037
4400.0,845,28433.919019
4200.0,758,28462.640772
4175.0,865,28498.129725
4000.0,642,28524.088275
4300.0,1167,28570.381881
4250.0,1085,28614.253701
4525.0,1184,28659.365589
4225.0,1061,28703.514608
4400.0,776,28734.991938
4575.0,997,28775.213056
7975.0,1286,28827.741318
850.0,585,28851.817132
4100.0,773,28883.105387
4725.0,1029,28924.065542
4200.0,896,28960.576948
4450.0,709,28989.39306
8025.0,1178,29035.353114
4575.0,1019,29075.547477
7875.0,1090,29118.987338
4300.0,988,29159.480717
8050.0,1285,29211.811913
4375.0,735,29241.119963
825.0,656,29267.957541
4325.0,1197,29316.351395
8550.0,1158,29363.105592
4100.0,809,29395.137547
7500.0,1004,29435.489194
4475.0,997,29475.826435
4075.0,781,29507.682676
4300.0,918,29544.485677
4475.0,1189,29593.048828
8025.0,1191,29640.929662
4475.0,1177,29689.055124
4300.0,1021,29727.966786
8400.0,1317,29782.333841
8325.0,1467,29840.566732
8500.0,1077,29884.252146
7650.0,969,29921.993652
600.0,873,29956.759635
8000.0,1285,30007.758396
4525.0,1036,30049.381633
7825.0,1050,30093.55847
4250.0,829,30125.581685
525.0,600,30148.986137
4025.0,562,30171.33704
725.0,474,30190.833684
7875.0,978,30228.196257
8150.0,1242,30275.937539
4575.0,1236,30325.529851
11475.0,1462,30386.138257
7725.0,1115,30431.832758
3925.0,694,30460.557894
8025.0,1120,30507.084633
4100.0,702,30535.17879
8650.0,1215,30582.762731
4250.0,634,30607.33717
575.0,482,30626.790365
600.0,534,30647.981241
4400.0,877,30682.87138
4550.0,945,30719.628235
4225.0,983,30759.877335
8300.0,1377,30814.112967
4075.0,787,30846.489887
11650.0,1577,30911.370621
4150.0,719,30940.155699
525.0,470,30959.280283
8100.0,1159,31005.081532
4725.0,852,31039.311258
8650.0,1473,31098.04097
8550.0,1237,31146.066097
8075.0,1420,31204.177965
875.0,788,31237.748172
9100.0,1445,31297.530076
4700.0,1123,31343.485517
4450.0,871,31378.09718
4600.0,861,31410.631648
4575.0,912,31447.909474
8000.0,1101,31493.035625
5025.0,1218,31544.612689
8275.0,1344,31599.857015
4475.0,840,31633.974172
8600.0,1414,31691.365834
600.0,570,31713.72555
550.0,511,31734.005851
8900.0,1468,31794.242045
8000.0,1059,31837.98982
4625.0,966,31876.505767
7975.0,1392,31933.796852
7925.0,901,31969.523944
600.0,577,31993.107072
8300.0,1160,32041.742858
800.0,407,32058.401911
4450.0,1010,32100.14911
4575.0,843,32135.420379
4625.0,1261,32188.768282
825.0,577,32212.927652
4475.0,1030,32254.52522
4575.0,1097,32298.585263
4550.0,889,32333.916786
7900.0,1128,32380.12849
7875.0,1005,32419.691629
4325.0,838,32452.494465
7750.0,1084,32494.955652
5075.0,1131,32541.80196
4225.0,914,32578.292814
8600.0,1281,32629.873019
8200.0,1081,32673.601537
600.0,808,32707.769587
8150.0,1342,32760.189206
8025.0,1070,32803.934286
4675.0,914,32841.748312
4325.0,561,32864.418609
8300.0,1244,32915.175712
7975.0,1005,32955.277801
1150.0,786,32986.801805
7850.0,1143,33031.81776
8400.0,1499,33091.730934
8025.0,1155,33139.802576
7675.0,1117,33184.944767
3900.0,604,33208.622445
5150.0,1495,33271.910986
7475.0,842,33305.229757
4200.0,703,33333.32587
3975.0,769,33364.081704
8100.0,1553,33424.856441
8050.0,1414,33481.074018
4425.0,709,33510.671909
4225.0,966,33549.138701
7975.0,1005,33589.09684
8200.0,1110,33634.471657
7875.0,1095,33678.70575
7850.0,1609,33743.409357
8250.0,1556,33808.861755
4450.0,983,33849.777859
11625.0,1322,33904.07798
11525.0,1200,33955.141897
8200.0,1427,34013.428915
4325.0,893,34049.98218
550.0,544,34073.027698
11375.0,1117,34120.370033
7850.0,966,34160.639203
7950.0,1459,34220.716955
4450.0,716,34250.650578
8000.0,1071,34294.352949
11575.0,1349,34349.407439
4150.0,655,34375.61127
7825.0,972,34416.169942
8275.0,1065,34460.455799
8425.0,1283,34511.358403
575.0,437,34528.945706
7825.0,1251,34582.457744
9350.0,1087,34627.247461
8050.0,1053,34672.054353
4475.0,773,34704.114187
9100.0,1659,34774.46966
8050.0,1106,34818.963995
7675.0,920,34856.57601
600.0,447,34874.883548
8050.0,1208,34924.276616
575.0,497,34944.848967
375.0,401,34960.130754
525.0,517,34980.543871
8475.0,1133,35026.797003
8050.0,1235,35077.497705
11725.0,1683,35145.767339
7550.0,1074,35191.225401
15000.0,1738,35263.538378
8125.0,1113,35310.368268
4200.0,779,35342.40934
15725.0,2006,35424.907258
4300.0,590,35449.507346
8375.0,1175,35497.699295
7925.0,1470,35557.162429
4225.0,863,35592.354172
11400.0,1269,35646.233473
775.0,487,35666.363786
8175.0,1059,35710.770482
8175.0,1048,35753.562574
7650.0,1126,35799.943637
8050.0,969,35840.516061
8450.0,1493,35902.953061
1050.0,751,35932.857508
11625.0,1283,35986.157804
7950.0,1152,36034.282481
7700.0,846,36069.447367
8025.0,1044,36110.905571
7900.0,1019,36151.192862
8100.0,1104,36197.601048
8100.0,1290,36251.314339
11850.0,1281,36303.496086
8150.0,1095,36347.941945
11525.0,1161,36397.472789
8450.0,1238,36446.482134
11675.0,1391,36504.839145
15375.0,2330,36602.081457
14700.0,1937,36681.619966
525.0,575,36704.989322
4475.0,992,36747.835398
8400.0,1366,36802.353778
8675.0,1349,36858.337648
8200.0,1165,36905.514439
12375.0,1750,36977.943602
8175.0,1369,37035.712276
8450.0,1370,37092.049629
11275.0,1541,37156.088995
11825.0,1632,37224.902713
8125.0,1092,37271.757399
7875.0,991,37311.358034
4100.0,604,37337.462004
8500.0,1332,37393.161833
11800.0,1544,37458.447887
7950.0,1424,37516.92087
8100.0,1116,37564.131477
4500.0,815,37599.094275
7725.0,934,37638.178714
15700.0,2075,37724.064043
575.0,644,37751.553912
4450.0,778,37783.358419
11775.0,1575,37850.043065
14950.0,1986,37932.646292
7875.0,1286,37986.411636
8125.0,1168,38034.185972
7950.0,842,38068.905411
12125.0,1377,38126.109922
12625.0,1800,38202.242523
11550.0,1238,38255.227538
8175.0,1250,38308.040887
7900.0,1033,38350.637272
7775.0,1262,38403.765495
11300.0,1435,38463.998499
11350.0,1177,38513.232284
7675.0,1011,38555.217864
4500.0,864,38590.345081
825.0,523,38611.934255
15025.0,1652,38680.473778
4600.0,755,38711.425456
4325.0,701,38738.469477
4450.0,948,38779.841525
825.0,578,38802.725507
11525.0,1354,38857.971419
4575.0,912,38895.868572
4300.0,601,38921.995858
8200.0,1166,38972.291743
14925.0,1612,39038.784613
4175.0,830,39071.669616
11875.0,1394,39129.874551
11050.0,1146,39178.265014
8075.0,999,39217.521352
8200.0,1165,39265.089082
8600.0,1402,39323.022729
11475.0,1259,39376.491649
11025.0,1305,39430.840029
4200.0,1111,39476.984182
8400.0,1373,39531.975528
7925.0,935,39570.301816
8100.0,1126,39615.690373
7525.0,967,39655.058778
7750.0,1094,39698.616899
11425.0,1318,39751.453674
4575.0,1080,39794.464514
8000.0,1028,39834.878517
11450.0,1605,39899.125688
11575.0,1248,39950.641941
8125.0,1096,39994.215023
4250.0,993,40034.547596
4600.0,1090,40077.632479
11875.0,1296,40129.034247
7875.0,1169,40177.329144
9075.0,1618,40244.755285
15675.0,2317,40340.553561
11600.0,1302,40394.145447
12325.0,1840,40467.277696
11725.0,1382,40522.761798
7825.0,888,40558.069796
15900.0,2278,40650.333999
7875.0,1130,40696.057229
15300.0,1613,40760.015209
8300.0,1034,40803.060693
7625.0,988,40841.522892
450.0,472,40859.37485
1200.0,1033,40903.040669
15700.0,1632,40968.37209
8050.0,895,41004.21971
7775.0,921,41040.888634
11675.0,1586,41103.495599
8100.0,1132,41149.897274
11400.0,1584,41212.777351
11600.0,1358,41265.417804
8050.0,1033,41306.796648
7525.0,1108,41351.870711
15500.0,1704,41418.993018
16175.0,2079,41504.214122
15825.0,2373,41600.364028
11550.0,1451,41657.197061
4200.0,620,41683.249196
7575.0,870,41719.661168
8250.0,1234,41769.908004
4475.0,767,41800.910858
11575.0,1505,41862.815065
15025.0,1580,41926.169039
11500.0,1395,41983.026086
11850.0,1477,42042.485045
4175.0,718,42069.253872
12075.0,1516,42131.018512
15675.0,2673,42240.056495
15500.0,2375,42335.485535
11675.0,1228,42386.371831
12125.0,1790,42460.616366
4475.0,1076,42504.958158
8200.0,1028,42546.481146
11525.0,1193,42593.812555
1100.0,723,42623.561072
4500.0,1173,42670.611456
12675.0,1683,42737.603216
875.0,503,42758.153878
4450.0,840,42791.60779
11725.0,1122,42837.476423
600.0,783,42869.908242
7775.0,1045,42914.477349
16225.0,2102,42998.719372
11300.0,1379,43052.4907
15275.0,1824,43127.574058
7700.0,835,43161.451658
14825.0,1668,43227.863094
15600.0,1976,43308.896907
11625.0,1382,43365.509696
15550.0,1985,43446.349276
7775.0,787,43478.05228
8000.0,911,43515.154137
7950.0,1226,43564.409939
11650.0,1292,43617.133172
11400.0,1321,43672.422434
4350.0,784,43704.767735
7750.0,897,43741.382506
5000.0,807,43772.443824
11850.0,1425,43831.614051
8800.0,1464,43890.700786
4475.0,789,43922.482011
400.0,311,43935.25974
8050.0,1018,43975.116571
4200.0,602,43998.562931
7825.0,1006,44041.125404
8100.0,1156,44088.423748
4225.0,870,44123.135983
11700.0,1723,44194.999669
12100.0,1465,44254.171411
4025.0,628,44278.80177
12350.0,1451,44339.347693
11625.0,1425,44394.88844
4600.0,752,44425.230136
15525.0,1529,44487.087554
11900.0,1679,44555.693582
16175.0,2385,44654.145093
14975.0,1663,44719.997606
7950.0,1089,44763.799337
11325.0,1170,44811.117802
15100.0,1542,44872.931693
4450.0,1167,44922.54254
16150.0,2006,45003.742838
8175.0,1461,45062.53336
8175.0,1541,45123.7536
8025.0,973,45163.377406
11550.0,1471,45223.302589
7750.0,926,45260.385087
4575.0,1103,45305.179317
11550.0,1603,45368.705784
14925.0,1395,45424.306976
4500.0,843,45459.114639
8125.0,1045,45501.789698
11975.0,1350,45557.760276
8300.0,1073,45601.512953
11675.0,1538,45664.93977
11425.0,1249,45719.097111
8100.0,1296,45770.358029
15150.0,1663,45839.508943
16250.0,1859,45913.070014
7975.0,973,45951.618656
8125.0,1445,46009.020231
11675.0,1526,46071.102715
11725.0,1728,46140.978387
15425.0,1894,46217.214614
11700.0,1262,46268.644121
8725.0,1207,46316.875642
4475.0,817,46349.335692
11825.0,1650,46417.158465
11750.0,1654,46484.849082
4450.0,716,46513.269901
12025.0,1495,46575.4511
15025.0,1573,46640.164615
11600.0,1434,46699.801443
11500.0,1377,46755.481707
11600.0,1482,46815.492787
11500.0,1354,46872.631304
7925.0,1026,46913.752975
11525.0,1388,46971.689701
11725.0,1234,47021.813281
8125.0,1186,47069.429765
11650.0,1335,47125.236629
11425.0,1426,47183.532902
14775.0,1421,47240.216768
825.0,507,47260.1835
4125.0,724,47289.647905
11200.0,1281,47341.926649
11650.0,1279,47394.229214
7900.0,977,47433.592751
7950.0,873,47467.764747
11750.0,1255,47519.073081
8200.0,1118,47566.234652
12150.0,1710,47637.461808
4475.0,860,47673.104466
8075.0,1027,47715.677626
11525.0,1151,47760.80147
8200.0,1103,47805.450612
4200.0,674,47832.987837
8050.0,1108,47878.889706
11750.0,1604,47943.988638
11825.0,1941,48023.153243
8375.0,1542,48087.512548
8175.0,1306,48140.048577
15050.0,1423,48198.557265
8150.0,1373,48254.17249
7825.0,903,48291.891887
15425.0,1811,48364.979721
15150.0,1762,48435.319962
11625.0,1196,48482.96771
12200.0,1947,48561.210293
8050.0,971,48600.058071
8000.0,891,48635.830755
8000.0,942,48674.588415
14900.0,1494,48734.157148
7850.0,912,48771.136353
8225.0,1122,48815.964272
11725.0,1571,48880.366364
8100.0,1011,48921.149932
8125.0,974,48960.873323
8125.0,1080,49003.69031
15225.0,1727,49076.27951
11550.0,1388,49131.412881
11700.0,1431,49190.319956
400.0,314,49202.298707
12225.0,1637,49267.977858
11650.0,1350,49322.709317
11425.0,1363,49377.176263
12025.0,1405,49436.491008
15650.0,2120,49522.763886
7775.0,1188,49570.114182
15025.0,1631,49635.325571
15300.0,1968,49715.188553
15800.0,1761,49785.117677
15350.0,1832,49859.918076
11150.0,1349,49916.944432
11925.0,1698,49985.523355
7850.0,977,50026.046906
8200.0,1581,50092.023212
875.0,578,50114.944977
8650.0,1251,50165.219536
11775.0,1516,50226.571291
3950.0,623,50251.281737
8050.0,1016,50291.505934
8575.0,1083,50333.33094
15300.0,1755,50404.560475
15200.0,1687,50472.260204
11850.0,1379,50526.577388
15075.0,1535,50588.949057
15025.0,1637,50653.814675
8125.0,972,50692.655148
15025.0,1657,50760.540053
12125.0,1474,50820.452621
8250.0,1261,50873.09039
7650.0,917,50909.830737
12100.0,1299,50961.259075
15050.0,1488,51020.952198
11375.0,1264,51071.214904
12500.0,1613,51137.439799
11500.0,1153,51184.563396
8075.0,1121,51231.667653
15275.0,1693,51301.667916
8100.0,1225,51350.014079
11800.0,1465,51408.171624
4425.0,709,51435.46414
15075.0,1672,51503.658255
625.0,515,51524.184244
825.0,572,51547.511785
500.0,457,51565.335694
4250.0,588,51589.024643
15300.0,1821,51663.724686
8225.0,1221,51713.550035
16000.0,1807,51787.781644
11350.0,1268,51837.042996
11750.0,1389,51892.639945
8150.0,1004,51934.310177
15000.0,1653,51999.777882
11600.0,1338,52053.098162
4150.0,710,52081.926166
8000.0,1000,52122.82626
7900.0,904,52159.897814
7975.0,1027,52201.95474
8025.0,1152,52250.403456
11600.0,1463,52310.040067
8075.0,1046,52352.725146
15650.0,1725,52420.865545
12100.0,1778,52493.681626
8725.0,1150,52539.965579
15275.0,1908,52615.756219
11250.0,1549,52678.526502
4000.0,596,52703.499406
11725.0,1532,52765.473535
8050.0,967,52805.354958
550.0,653,52831.088629
7575.0,851,52866.534491
15125.0,1715,52935.277883
11900.0,1477,52997.045761
14750.0,1536,53061.543665
15875.0,1737,53131.63772
11525.0,1296,53183.163555
8075.0,1122,53229.112732
4050.0,753,53259.532877
14925.0,1316,53312.986942
7725.0,925,53350.443596
11425.0,1144,53397.277805
15525.0,1861,53472.313711
15050.0,1614,53541.069674
14900.0,1576,53608.677385
15450.0,1916,53688.587086
15300.0,2095,53776.597412
15350.0,1789,53849.882878
4475.0,748,53880.341377
11975.0,1454,53941.952534
8625.0,1398,54001.048691
11975.0,1462,54061.339017
11650.0,1380,54118.743913
15825.0,1921,54200.315922
11800.0,1606,54264.152964
11375.0,1261,54316.158324
12250.0,1467,54376.987708
7700.0,1020,54418.814859
11925.0,1827,54495.755198
11650.0,1095,54541.546534
15550.0,1570,54605.929108
11750.0,1509,54669.876024
12225.0,1536,54734.819762
8050.0,966,54773.56749
11725.0,1295,54827.654231
550.0,553,54850.932344
7975.0,906,54888.132959
15775.0,1822,54965.92687
8200.0,1469,55026.117809
8000.0,940,55063.95249
11475.0,1377,55121.026497
8450.0,1072,55165.657452
4325.0,599,55191.490384
8650.0,1403,55249.867354
4275.0,656,55276.100498
11675.0,1361,55332.345659
12025.0,1525,55398.41162
875.0,481,55418.718724
11700.0,1207,55467.753616
11725.0,1084,55514.401163
15050.0,1715,55585.528003
7950.0,969,55625.185536
4450.0,737,55656.318406
875.0,729,55685.882327
12125.0,1484,55747.034288
11700.0,1346,55801.986808
4225.0,710,55831.034711
11650.0,1274,55883.033346
11550.0,1211,55931.18158
11700.0,1325,55987.512467
15875.0,1883,56064.807774
11800.0,1366,56123.971484
11975.0,1444,56186.515562
15775.0,2029,56268.344988
125.0,322,56281.245004
7825.0,984,56322.271647
11525.0,1141,56369.326236
11475.0,1456,56428.988266
8050.0,953,56469.042356
11575.0,1137,56516.653307
15225.0,1605,56581.784933
15075.0,1629,56649.669736
11675.0,1336,56704.082473
11550.0,1686,56774.126878
8000.0,968,56814.806647
16100.0,1820,56889.777425
11450.0,1198,56942.321779
11950.0,1196,56992.686291
15150.0,1790,57065.254928
8125.0,1141,57112.218394
11625.0,1128,57158.899038
7950.0,965,57198.147145
7800.0,1123,57243.324405
11750.0,1388,57300.746991
850.0,635,57326.074891
7875.0,933,57362.20512
15275.0,1932,57438.677144
12250.0,1758,57510.239083
8000.0,984,57548.567831
4175.0,809,57582.222783
15025.0,1556,57644.378117
8175.0,1397,57701.149396
15425.0,1769,57771.773235
15600.0,1599,57835.882052
18825.0,2803,57948.017507
11750.0,1220,57997.426539
4300.0,687,58024.941022
850.0,469,58043.516531
8000.0,911,58081.31031
11500.0,1160,58128.620095
11650.0,1337,58184.687029
11825.0,1382,58242.332497
12125.0,1491,58301.744806
15450.0,1933,58381.641851
8025.0,1067,58424.607035
12175.0,1510,58485.093066
15300.0,1666,58552.153429
575.0,639,58578.288949
7900.0,957,58617.867492
7900.0,1273,58667.730583
8075.0,959,58706.823472
11750.0,1459,58766.591316
15150.0,1765,58838.753681
600.0,635,58863.741792
8575.0,1618,58929.501621
8075.0,958,58969.532467
15925.0,2658,59076.706104
12000.0,1570,59140.950458
8100.0,1015,59182.005903
11400.0,1168,59229.053284
14900.0,1380,59283.447677
16125.0,1967,59360.006032
14875.0,1354,59416.116719
8200.0,1038,59457.128719
8100.0,1029,59500.033955
11700.0,1194,59548.250392
8075.0,1048,59592.27433
15625.0,1748,59665.341637
11675.0,1249,59717.114219
14975.0,1447,59776.466266
15700.0,1850,59852.211565
7925.0,846,59885.28956
15425.0,1692,59953.343847
8525.0,1089,59996.317109
16175.0,1945,60074.557446
7725.0,957,60115.004977
8075.0,894,60151.545959
11500.0,1111,60196.779696
11425.0,1140,60241.861951
15075.0,1700,60310.908965
8125.0,1141,60355.741593
14975.0,1578,60420.529045
15700.0,1803,60492.844192
725.0,428,60509.810165
4425.0,733,60539.308216
11400.0,1130,60583.887197
11625.0,1179,60630.4411
750.0,462,60649.501325
15125.0,1615,60712.535935
11900.0,1205,60760.169165
7925.0,872,60795.112165
800.0,500,60815.155383
325.0,749,60846.102512
12125.0,1492,60904.56748
15250.0,1795,60978.842042
15425.0,2023,61062.81614
8100.0,1343,61118.983294
8050.0,1091,61163.425363
11600.0,1274,61215.081833
8275.0,1023,61254.479399
8200.0,1085,61296.800623
8125.0,1190,61345.82231
11700.0,1375,61400.051642
4500.0,727,61429.101619
11575.0,1203,61478.651215
11550.0,1560,61540.703355
11825.0,1364,61596.36095
11425.0,1195,61645.103278
11625.0,1213,61694.784828
8125.0,1087,61737.769042
4050.0,625,61763.048151
7975.0,858,61798.681634
8175.0,978,61837.512316
11900.0,1527,61902.186602
11875.0,1379,61958.181597
11450.0,1372,62014.495496
11425.0,1546,62078.179248
7675.0,851,62111.833364
8050.0,1024,62153.640456
11450.0,1268,62203.810387
12050.0,1197,62250.798962
11900.0,1177,62298.789893
15425.0,1776,62372.436839
11925.0,1640,62438.762501
425.0,405,62454.470742
525.0,512,62476.131714
8000.0,836,62510.281702
7700.0,899,62548.110021
11550.0,1474,62607.780933
8150.0,1029,62649.440131
12200.0,1325,62704.00298
11700.0,1467,62762.744478
8125.0,1089,62808.331635
7950.0,889,62843.931639
8100.0,1367,62898.904335
600.0,882,62935.624024
7975.0,978,62974.1378
15000.0,1396,63032.533369
18975.0,2236,63123.429358
15350.0,1827,63197.558734
15250.0,1672,63265.807918
11775.0,1318,63318.456835
11475.0,1165,63366.673577
11800.0,1391,63423.431908
14900.0,1283,63473.436814
8050.0,898,63509.108403
11675.0,1466,63567.388187
11475.0,1127,63611.380659
8000.0,956,63649.298582
8100.0,950,63688.906301
11800.0,1264,63739.713505
11725.0,1375,63795.739028
15025.0,1523,63857.415098
11800.0,1355,63912.306917
11700.0,1243,63964.332137
15125.0,1847,64040.358055
4700.0,1282,64092.704177
11900.0,1557,64157.807343
15125.0,1682,64226.814897
15000.0,1518,64291.603694
15875.0,1584,64358.598862
15675.0,1697,64427.463996
15025.0,1529,64489.565111
15675.0,2183,64578.049704
18775.0,2321,64671.55591
12175.0,1484,64732.948935
14925.0,1439,64790.798888
11750.0,1292,64842.393061
15200.0,1641,64908.887304
15850.0,2058,64994.232374
14975.0,1361,65047.83519
8350.0,1061,65091.978859
8200.0,1479,65152.67256
11725.0,1686,65223.00419
11525.0,1298,65274.472521
8075.0,1093,65318.410806
18900.0,2340,65410.106647
7750.0,918,65447.091486
11325.0,1299,65499.43601
14775.0,1562,65564.24778
11750.0,1625,65630.475379
15075.0,1573,65694.386492
15200.0,1601,65758.045408
15075.0,1504,65818.32566
7725.0,1075,65863.446476
15275.0,1687,65930.309789
15475.0,1925,66010.889195
11850.0,1603,66076.465267
15075.0,1553,66140.636921
8200.0,1288,66192.899128
15125.0,1560,66256.778675
8025.0,908,66293.435312
15100.0,1671,66362.151541
11650.0,1209,66410.049025
15450.0,1642,66475.227965
15400.0,2223,66565.786454
15325.0,1901,66642.345743
15025.0,1461,66702.431736
15325.0,1957,66782.475982
8075.0,955,66822.209922
11850.0,1537,66885.214777
8200.0,980,66924.325781
15250.0,1701,66993.708493
850.0,522,67014.787841
19525.0,2444,67113.658349
15075.0,1491,67173.40117
15925.0,2460,67274.250611
19400.0,2576,67380.100954
15525.0,1847,67457.245974
14725.0,1500,67518.726109
12000.0,1309,67573.721803
11725.0,1285,67628.867192
15250.0,1662,67695.620102
15250.0,1682,67765.746023
15150.0,1578,67831.764228
800.0,509,67851.723882
15325.0,1625,67919.750113
15775.0,1786,67992.104219
11525.0,1260,68043.740057
725.0,458,68062.067501
15700.0,2083,68150.396286
15075.0,1607,68217.934472
7975.0,970,68258.915791
15375.0,1531,68322.833837
15025.0,1412,68380.877546
7875.0,877,68417.406571
12050.0,1377,68474.993831
16175.0,2022,68557.161789
15250.0,1792,68631.482028
725.0,467,68650.313763
14975.0,1611,68715.82611
11625.0,1436,68776.348905
15100.0,1556,68837.54944
7900.0,891,68873.848512
8100.0,1051,68916.465282
15075.0,1774,68987.550299
18750.0,2174,69077.928954
8075.0,1034,69117.186899
14950.0,1317,69170.118823
11400.0,1205,69217.362761
11800.0,1247,69267.345619
15450.0,1783,69339.558589
11525.0,1105,69386.501447
15200.0,1361,69440.182194
11375.0,1055,69483.853646
8225.0,1189,69533.212805
12000.0,1257,69583.652029
14875.0,1514,69643.356741
14975.0,1624,69710.389773
15475.0,1905,69785.635939
4450.0,711,69814.925557
15000.0,1465,69872.843929
15425.0,1383,69928.939943
15450.0,1639,69998.731839
15125.0,1512,70060.168494
15175.0,1825,70135.248735
12250.0,1452,70195.547734
4300.0,619,70220.180792
8125.0,880,70256.289498
11675.0,1413,70314.848215
11625.0,1121,70359.273854
15225.0,1623,70423.348431
8125.0,1197,70473.209776
15275.0,1779,70547.003873
15150.0,1661,70614.663895
15000.0,1591,70677.593172
11650.0,1176,70724.999308
15125.0,1654,70791.318891
14900.0,1404,70848.813733
15300.0,1837,70923.52275
8175.0,1128,70968.89298
575.0,525,70990.393536
15700.0,1837,71064.580504
8075.0,921,71101.968928
11750.0,1214,71150.484873
11375.0,1078,71193.963829
8100.0,1013,71235.674979
11825.0,1305,71289.280405
8050.0,975,71328.315041
15425.0,1489,71387.998675
15125.0,1657,71456.120823
11525.0,1621,71521.819489
15025.0,1685,71593.378116
15000.0,1551,71656.785343
11350.0,1182,71703.86939
15200.0,1676,71771.53172
15100.0,1643,71835.825215
8175.0,1123,71882.41806
850.0,491,71903.18773
15075.0,1563,71965.17196
4275.0,588,71989.446096
875.0,559,72012.033208
15275.0,1663,72078.008382
15150.0,1702,72146.482112
11825.0,1537,72209.337956
15950.0,1751,72281.617913
15150.0,1720,72350.589617
12025.0,1182,72398.866757
7750.0,974,72438.690586
15150.0,1584,72502.684205
550.0,512,72523.149936
11600.0,1254,72573.210078
14850.0,1596,72637.670148
14925.0,1462,72696.220551
11275.0,1227,72744.85429
600.0,687,72773.946019
15750.0,2029,72855.302437
850.0,500,72874.199311
11750.0,1474,72935.520999
15150.0,1595,72998.258025
11725.0,1500,73061.007106
7625.0,1016,73103.308158
15150.0,1685,73171.143167
14925.0,1457,73231.90403
15300.0,1814,73306.523092
8200.0,1131,73352.692617
15425.0,1952,73431.739738
11600.0,1295,73485.034334
15375.0,1842,73561.716539
15075.0,1844,73637.290917
12150.0,1523,73698.588362
11800.0,1666,73766.208062
8050.0,1048,73810.129656
15600.0,1911,73887.932556
11800.0,1511,73948.534952
15575.0,1770,74020.460497
8175.0,996,74060.072415
4200.0,727,74088.445485
11750.0,1422,74146.469518
7900.0,949,74184.490369
14950.0,1626,74252.203941
11600.0,1302,74304.317515
8175.0,1019,74346.962971
15400.0,1714,74417.16149
11475.0,1149,74463.182195
15150.0,1629,74528.798878
15100.0,1834,74602.326934
4375.0,644,74629.340827
15725.0,1685,74698.609401
8075.0,989,74739.033718
15275.0,1337,74796.255239
11925.0,1654,74866.465327
11700.0,1205,74917.881979
12125.0,1257,74970.359703
15575.0,2338,75066.230266
11625.0,1248,75117.12164
16100.0,2229,75213.142255
15450.0,1743,75286.977582
12000.0,1344,75342.397856
15200.0,1638,75415.235423
15375.0,1827,75492.017477
15000.0,1439,75554.763845
8125.0,990,75598.39405
15125.0,1632,75667.345726
15575.0,1666,75736.0294
15100.0,1552,75803.863974
14850.0,1409,75863.286211
14975.0,1519,75928.009973
15000.0,1520,75994.021218
15025.0,1478,76054.831659
15625.0,1854,76134.28946
400.0,575,76157.695679
15375.0,1436,76218.149743
15275.0,1586,76284.951667
15525.0,1618,76353.335897
15350.0,1940,76437.525733
15050.0,1549,76504.776159
4650.0,1084,76551.403759
14950.0,1385,76612.35913
11725.0,1318,76669.67787
875.0,471,76689.220855
15400.0,1506,76754.850718
15000.0,1414,76815.723162
11850.0,1498,76879.541188
15150.0,1627,76947.530967
15000.0,1374,77010.060664
15150.0,1568,77078.346385
15100.0,1584,77145.34796
15325.0,1702,77219.671437
11525.0,1198,77270.372304
15325.0,1867,77349.553033
15200.0,1676,77421.847523
825.0,634,77447.798852
15600.0,1634,77520.057343
15775.0,1674,77589.954233
15775.0,2643,77704.932032
15000.0,1471,77767.423795
15100.0,1474,77829.552203
14925.0,1442,77890.64479
1375.0,1148,77940.768276
15275.0,1586,78006.213448
18725.0,2415,78111.382106
15000.0,1412,78170.595054
15200.0,1598,78238.390158
4850.0,1131,78285.920081
11425.0,1211,78338.65722
15075.0,1444,78399.564021
11750.0,1403,78458.713014
15425.0,1967,78541.891308
15450.0,1676,78614.682091
15400.0,1593,78684.114357
15125.0,1774,78757.82816
15000.0,1609,78824.101126
11825.0,1309,78879.461548
15625.0,1588,78946.837909
19525.0,2387,79050.548087
15500.0,1800,79127.607923
15475.0,1494,79190.619703
4075.0,627,79216.417583
15475.0,1623,79285.547722
16425.0,2843,79406.562285
11750.0,1190,79459.597758
15825.0,1791,79538.329536
14925.0,1575,79605.558407
15375.0,2006,79690.6845
15050.0,1462,79755.065302
15275.0,1579,79824.633505
11700.0,1171,79875.569833
15250.0,1875,79957.630493
11775.0,1367,80015.090587
15375.0,1852,80093.949971
15000.0,1559,80160.498225
15525.0,1722,80233.855644
15250.0,1775,80311.298332
15250.0,1554,80377.845442
15325.0,1942,80459.856746
7925.0,1008,80505.124451
15150.0,1567,80577.654583
7825.0,921,80619.045454
15400.0,2095,80711.753128
15550.0,1858,80792.117394
12000.0,1242,80846.066477
15500.0,1595,80912.893133
15175.0,1485,80976.594575
11850.0,1162,81026.297683
8225.0,912,81064.49332
14925.0,1261,81116.771359
15275.0,1398,81175.317859
14900.0,1310,81231.78607
11800.0,1254,81286.667837
15975.0,2036,81376.468419
15025.0,1474,81438.513973
19350.0,2154,81531.32823
15275.0,1888,81616.922334
11700.0,1156,81666.69068
15100.0,1489,81731.138716
14875.0,1463,81794.619415
15350.0,1724,81866.80929
8125.0,1031,81910.703654
14950.0,1373,81970.503489
11850.0,1490,82033.399867
19350.0,2198,82128.318736
11725.0,1242,82182.873985
11700.0,1494,82243.996544
15125.0,1650,82314.869601
18750.0,2282,82412.687228
8050.0,963,82452.933874
15475.0,1799,82529.369617
15425.0,1688,82602.987375
11400.0,1200,82655.704801
18800.0,2456,82760.36118
15175.0,1571,82827.74143
4300.0,689,82857.095977
15475.0,2186,82953.151702
850.0,451,82972.804533
15325.0,1690,83045.707877
15050.0,1486,83108.901458
15675.0,1902,83189.953976
15200.0,1672,83261.539409
7925.0,1091,83309.881366
14950.0,1394,83367.289975
16000.0,2432,83472.015994
15450.0,2051,83561.54174
15300.0,1508,83624.020222
14850.0,1805,83701.697269
15400.0,1661,83770.629284
15025.0,1396,83831.066254
15675.0,2385,83932.305289
375.0,539,83955.64836
14875.0,1398,84016.012919
15500.0,1598,84082.293476
15000.0,1471,84144.284458
15175.0,1725,84217.472538
15400.0,1847,84296.138307
15875.0,2523,84405.162427
15025.0,1429,84465.696861
11775.0,1282,84522.465461
15100.0,1456,84584.584012
15100.0,1513,84647.508562
11275.0,1124,84697.875656
350.0,457,84719.070672
7675.0,881,84755.996742
8100.0,932,84797.166491
15050.0,1514,84860.199614
15800.0,2117,84950.391142
11850.0,1386,85006.879097
15175.0,1511,85069.467405
15200.0,1524,85134.958952
8125.0,997,85177.498205
8075.0,996,85218.399359
18800.0,2409,85317.444349
4100.0,582,85341.77503
15525.0,1516,85404.127755
15100.0,1850,85479.767269
15275.0,1617,85547.284201
15100.0,1459,85607.228803
18950.0,2137,85697.536607
11700.0,1249,85750.483202
15325.0,1804,85825.321548
12100.0,1303,85880.68317
11425.0,1018,85921.857587
15550.0,1907,86001.121241
11725.0,1780,86073.437121
14900.0,1344,86128.907312
8025.0,875,86166.341259
15975.0,1860,86244.437553
625.0,539,86265.850981
15275.0,1817,86342.723777
15625.0,1642,86410.726966
15725.0,2109,86498.906106
14950.0,1314,86554.106513
15350.0,1539,86619.708374
11700.0,1257,86671.320364
15100.0,1576,86738.621031
15025.0,1659,86807.718767
8200.0,968,86847.24399
15425.0,1451,86907.744894
11625.0,1353,86965.175415
11700.0,1079,87009.321847
11725.0,1258,87063.831993
15000.0,1363,87120.517375
15350.0,1356,87177.120582
15900.0,1792,87250.88155
11750.0,1552,87316.955152
15400.0,1935,87396.098792
15400.0,1555,87459.222903
11475.0,1052,87502.171319
4325.0,636,87528.592635
15425.0,1980,87609.58622
4125.0,723,87638.8798
15175.0,1901,87716.037892
15200.0,1577,87780.614789
15625.0,1752,87851.459608
19075.0,2247,87945.38053
15400.0,1784,88018.413017
15850.0,1914,88096.880121
825.0,690,88124.558848
14700.0,1398,88183.148407
19000.0,2251,88276.06584
11500.0,1151,88322.342022
15475.0,1929,88400.998119
15125.0,1500,88461.875176
15525.0,1634,88530.435808
15300.0,1773,88602.790065
225.0,384,88619.360128
19025.0,2239,88716.053829
14975.0,1570,88781.949692
15675.0,1798,88857.129708
15550.0,1547,88922.481706
15775.0,1754,88996.432406
15550.0,1875,89073.689112
15025.0,1582,89140.478553
15475.0,1456,89199.718035
4150.0,662,89226.01759
15625.0,1811,89298.927294
15050.0,1665,89365.641842
15075.0,1459,89423.480903
14950.0,1388,89480.961314
11700.0,1153,89527.263866
15450.0,1478,89585.086732
7900.0,886,89619.680387
19100.0,2209,89709.53073
7925.0,899,89746.601924
15450.0,1697,89813.90599
825.0,682,89842.089207
7825.0,983,89881.104566
18675.0,2177,89968.7289
725.0,371,89982.481058
850.0,611,90008.527285
15025.0,1686,90075.099867
15150.0,1721,90148.645479
18800.0,2247,90239.977292
4050.0,540,90261.669538
15450.0,1610,90326.575951
14950.0,1426,90385.838722
525.0,466,90404.371285
15800.0,2539,90508.000627
15000.0,1395,90563.851954
18900.0,2497,90661.025527
11850.0,1774,90730.000317
15000.0,1422,90785.948724
15375.0,1777,90857.431057
15450.0,1592,90917.292459
4475.0,779,90947.74452
4325.0,594,90972.141831
15175.0,1746,91040.226498
7800.0,992,91078.140399
14900.0,1459,91138.214717
7750.0,789,91168.66281
15700.0,1649,91234.821435
19175.0,2213,91321.39974
19350.0,2418,91416.786944
18900.0,2521,91517.716758
15100.0,1445,91572.113083
14975.0,1353,91627.137967
18725.0,2196,91713.936461
15200.0,1583,91775.067566
7800.0,863,91809.789934
19125.0,2342,91902.380752
15100.0,1631,91965.127377
15525.0,1686,92030.695447
15375.0,2154,92112.906651
15275.0,1637,92175.796996
15150.0,1760,92246.101427
15400.0,1781,92316.389534
18700.0,2115,92396.785663
19900.0,2334,92489.626263
15025.0,1486,92547.901402
11775.0,1203,92595.558601
15050.0,1564,92655.680352
15425.0,1494,92714.191427
15050.0,1532,92773.043311
15675.0,1663,92837.818325
15325.0,1659,92900.807234
15150.0,1506,92957.185165
18675.0,2229,93042.294223
14950.0,1451,93097.326464
15575.0,1566,93157.983178
15325.0,1729,93221.433337
15175.0,1655,93284.496029
15400.0,1803,93356.361739
775.0,636,93380.462343
8050.0,971,93415.993424
15350.0,1475,93470.889802
8300.0,1132,93515.434617
15250.0,1742,93583.992062
4425.0,1086,93627.28512
15175.0,1552,93690.137816
15450.0,2304,93777.907139
4025.0,928,93813.437107
15000.0,1429,93868.576106
325.0,392,93883.519474
11725.0,1183,93930.346796
8025.0,929,93965.353716
15350.0,1730,94031.93716
15450.0,1834,94102.613449
18950.0,1929,94175.676965
15375.0,1739,94241.458385
11800.0,1346,94294.133301
15825.0,1673,94357.856612
15525.0,1533,94416.529727
15250.0,1840,94487.135601
15350.0,1705,94551.259539
11750.0,1200,94596.629133
11775.0,1341,94648.857435
18900.0,2484,94745.495642
750.0,453,94763.013779
14950.0,1414,94815.48506
15100.0,1537,94877.519099
3975.0,547,94899.909017
18750.0,2543,94997.49094
15150.0,1556,95055.530336
15325.0,1773,95123.480274
18800.0,2657,95227.163817
15250.0,1656,95289.8974
15125.0,1517,95347.331128
15200.0,1722,95411.887963
875.0,659,95437.833178
575.0,525,95456.861665
19050.0,2258,95545.394372
14900.0,1677,95609.158022
15025.0,1375,95662.128702
15350.0,1540,95723.615445
18700.0,1927,95797.001445
15100.0,1446,95853.361482
15175.0,1616,95914.929565
15425.0,1596,95971.899858
14875.0,1274,96018.533117
15075.0,1407,96070.524194
8075.0,1054,96107.901022
15425.0,1810,96171.616524
19150.0,2700,96274.324338
12075.0,1774,96339.279149
15175.0,1573,96394.402295
11625.0,1132,96436.992678
15075.0,1577,96491.67648
18725.0,2049,96567.243097
15400.0,1886,96634.213438
19100.0,2156,96713.224069
14875.0,1406,96765.688196
11525.0,1042,96802.740919
11550.0,1409,96853.870312
15000.0,1423,96903.163072
19000.0,2009,96974.597926
15425.0,2026,97046.885864
15400.0,1722,97106.609959
775.0,475,97123.335665
15250.0,1829,97186.610717
15275.0,1664,97243.194486
15475.0,1951,97308.8311
15300.0,1650,97368.167314
18650.0,2398,97451.538795
15475.0,1572,97506.949888
18575.0,2018,97575.036176
15700.0,1788,97636.378072
15200.0,1558,97690.310329
15525.0,1647,97747.622089
15425.0,1395,97795.830505
15675.0,1702,97854.475424
15425.0,1439,97902.218072
19000.0,2505,97987.847528
14875.0,1282,98030.88895
15250.0,1583,98087.243542
15400.0,2105,98156.619477
15700.0,1667,98210.611738
15175.0,1477,98258.400257
15700.0,1824,98317.715422
15400.0,1886,98380.525627
15850.0,1870,98440.491879
15250.0,1505,98491.506495
15275.0,1696,98549.93407
19325.0,2352,98627.416731
14925.0,1383,98672.113312
14875.0,1251,98714.624717
15275.0,1719,98769.611008
15725.0,1712,98824.157458
15175.0,1475,98873.430334
7925.0,860,98900.396349
15400.0,1820,98959.438553
19550.0,2607,99040.004678
15750.0,1750,99095.140064
15175.0,2001,99157.816719
18925.0,2450,99234.803315
18925.0,2370,99308.401839
15300.0,1716,99361.049078
4375.0,637,99380.856033
19450.0,2161,99448.163422
15875.0,2049,99512.425724
15450.0,1420,99557.631245
15725.0,1860,99615.969596
15300.0,1602,99665.134665
15100.0,1409,99706.924867
18600.0,1983,99771.504699
15175.0,1593,99821.220648
15500.0,1635,99870.805242
11900.0,1411,99915.038009
15150.0,1450,99960.917125
15275.0,1718,100013.506183
15350.0,1689,100065.697187
15150.0,1589,100115.427928
15300.0,2011,100175.53772
15375.0,2034,100234.909105
15550.0,1603,100281.569318
11700.0,1160,100314.165226
15525.0,1719,100361.024613
12250.0,1429,100397.698066
11725.0,1272,100427.856795
15625.0,1633,100466.060171
23575.0,3088,100540.40756
15350.0,1624,100580.228294
15700.0,1615,100620.358906
15550.0,1492,100656.325369
15225.0,1512,100693.132137
15300.0,1665,100732.559335
15150.0,1499,100768.494143
15375.0,1718,100811.269218
15575.0,1822,100854.066488
15725.0,1772,100893.601649
15550.0,2160,100942.406246
11750.0,1250,100970.658483
