# {"t_start": 1546750275.2814562, "env_id": "AsterixNoFrameskip-v4"} 
r,l,t
250.0,207,10.216505
350.0,275,15.653132
450.0,315,22.510745
200.0,221,26.861197
300.0,257,32.642763
750.0,444,42.819558
150.0,208,47.263717
200.0,218,52.297983
400.0,253,57.771266
200.0,233,62.788634
200.0,290,68.951046
200.0,206,73.521863
100.0,207,77.941368
550.0,323,85.432819
200.0,210,89.768823
300.0,269,95.785815
450.0,310,102.477885
350.0,390,111.310577
300.0,233,116.750568
150.0,211,121.3624
400.0,326,129.160493
300.0,335,136.885392
200.0,209,141.217843
50.0,203,145.901041
50.0,205,150.185786
200.0,195,154.537067
150.0,190,158.502938
300.0,267,164.650672
300.0,304,171.963467
400.0,418,180.871906
300.0,271,186.664176
250.0,341,194.106221
150.0,209,198.550804
300.0,273,204.567327
200.0,220,209.533026
200.0,236,214.761264
100.0,216,219.561903
200.0,251,225.287488
50.0,199,229.562565
300.0,306,236.559336
600.0,321,243.373657
550.0,428,252.907242
300.0,233,258.08337
50.0,208,262.802799
300.0,203,266.979622
150.0,200,271.530178
200.0,209,276.269181
200.0,206,280.665003
250.0,216,285.778337
150.0,199,290.092874
400.0,310,297.151503
200.0,206,301.40084
100.0,205,305.988273
450.0,281,312.075972
200.0,205,316.760698
650.0,372,325.794825
600.0,310,333.249643
400.0,235,339.150761
150.0,216,343.756971
300.0,277,349.875521
200.0,215,354.398481
150.0,201,358.890716
550.0,379,367.498552
450.0,247,372.82355
500.0,358,380.418506
250.0,234,385.485761
250.0,218,390.29966
250.0,219,395.410911
300.0,243,400.85726
350.0,210,405.318327
450.0,376,414.006356
100.0,201,418.682011
250.0,230,423.376606
200.0,213,428.110235
250.0,222,432.862344
150.0,210,437.312415
250.0,291,443.851078
300.0,231,448.724246
450.0,310,456.001111
100.0,215,460.968702
250.0,211,465.405619
200.0,196,469.683041
100.0,209,473.993502
200.0,205,478.491496
350.0,315,485.288295
150.0,206,490.128115
150.0,223,495.238798
350.0,308,501.818894
150.0,171,505.546305
300.0,243,510.993351
150.0,233,516.108989
300.0,392,524.503278
100.0,242,529.94203
550.0,540,541.840361
400.0,533,553.335527
450.0,317,560.288135
800.0,469,570.558087
400.0,387,579.250398
350.0,305,585.944313
200.0,215,590.472777
250.0,217,595.16778
900.0,535,606.957063
450.0,317,614.009486
700.0,518,625.791085
500.0,397,634.674611
500.0,418,643.571887
500.0,247,648.94256
500.0,307,655.745497
500.0,315,662.922414
400.0,307,669.378046
700.0,424,678.837753
350.0,223,683.423408
1150.0,681,699.218687
500.0,376,707.550984
550.0,438,717.065103
800.0,534,728.737153
350.0,281,734.968823
300.0,218,739.919049
350.0,237,745.66805
300.0,246,751.098249
450.0,357,758.674472
350.0,292,765.745816
400.0,210,770.321788
300.0,207,775.158209
300.0,197,779.314989
200.0,172,783.192442
500.0,412,791.97309
250.0,188,795.87037
250.0,253,801.268202
850.0,506,812.807953
650.0,372,821.228041
650.0,404,830.010431
400.0,304,836.901234
350.0,223,841.563513
750.0,395,850.772952
350.0,315,857.573252
150.0,229,862.596892
700.0,360,870.633183
300.0,214,875.249527
250.0,227,880.526334
750.0,432,889.900815
500.0,293,896.376265
350.0,208,900.798871
300.0,250,906.191084
450.0,320,913.674476
500.0,281,920.117907
600.0,320,927.138725
350.0,208,931.723795
450.0,271,937.542375
500.0,294,943.866318
350.0,283,950.423782
450.0,201,955.489891
800.0,420,964.551088
450.0,286,970.915171
1000.0,500,981.452702
350.0,231,986.755418
400.0,280,993.140281
500.0,279,999.408778
250.0,217,1003.851089
950.0,442,1013.7104
350.0,213,1018.177188
350.0,197,1022.459534
450.0,274,1028.524144
400.0,240,1033.66022
300.0,206,1037.950121
800.0,394,1046.689944
450.0,282,1053.194536
650.0,324,1060.27416
400.0,219,1065.338874
350.0,217,1070.377386
500.0,210,1074.860231
550.0,379,1083.183553
350.0,194,1087.599424
550.0,272,1093.706785
350.0,184,1097.535325
350.0,304,1104.319222
450.0,227,1109.024992
500.0,198,1113.410948
700.0,370,1121.665137
550.0,338,1129.264915
500.0,313,1136.567128
550.0,385,1145.15424
650.0,322,1152.167693
400.0,270,1158.086029
350.0,216,1163.113233
400.0,236,1168.2667
700.0,343,1175.570935
550.0,276,1181.770395
550.0,313,1188.376588
400.0,199,1192.991931
650.0,320,1200.218313
400.0,203,1204.962758
300.0,207,1209.483541
400.0,237,1214.988796
800.0,373,1223.153674
400.0,190,1227.162817
850.0,452,1237.000335
500.0,331,1244.319348
1100.0,548,1256.412836
350.0,225,1261.275137
600.0,310,1267.969309
350.0,198,1272.074623
500.0,272,1278.497422
600.0,242,1283.710613
350.0,234,1289.20595
350.0,203,1293.865644
450.0,238,1299.23294
700.0,333,1306.890724
850.0,393,1315.814675
300.0,198,1320.528054
700.0,399,1329.966672
550.0,415,1339.018683
750.0,442,1348.683148
750.0,296,1355.37665
1050.0,510,1366.778177
350.0,211,1371.776227
500.0,261,1377.640181
200.0,212,1382.007847
600.0,344,1389.415875
650.0,271,1395.1512
350.0,240,1400.563128
500.0,341,1408.066491
350.0,235,1413.194402
550.0,315,1420.53925
850.0,330,1427.43534
1000.0,499,1438.32024
650.0,416,1447.636744
400.0,201,1452.512283
450.0,212,1457.457551
400.0,255,1462.943261
500.0,239,1467.864371
400.0,211,1472.525727
650.0,290,1478.798241
500.0,255,1484.512028
700.0,318,1492.11927
700.0,301,1498.657742
1500.0,626,1512.123353
1150.0,542,1523.737242
250.0,233,1529.081541
750.0,459,1539.642624
700.0,275,1545.452903
300.0,212,1549.861081
1000.0,506,1561.178567
400.0,277,1567.799124
350.0,196,1572.432045
800.0,384,1581.008952
450.0,254,1586.486224
800.0,378,1594.646807
1150.0,474,1605.047375
750.0,452,1614.762164
700.0,360,1622.767229
450.0,201,1627.031411
900.0,410,1636.051971
850.0,364,1643.755118
1050.0,382,1652.250587
1050.0,356,1660.317336
450.0,233,1665.629571
800.0,384,1674.059668
650.0,316,1680.851179
750.0,333,1688.722516
950.0,431,1698.701542
1050.0,436,1708.688258
850.0,333,1715.684972
1100.0,521,1726.896732
1100.0,489,1737.912063
1300.0,623,1751.871862
400.0,365,1760.149065
600.0,268,1765.99969
550.0,249,1771.65591
700.0,384,1779.923414
1650.0,647,1793.891841
800.0,409,1802.757453
300.0,236,1807.992706
500.0,407,1816.996428
1000.0,404,1825.843043
800.0,345,1833.442466
800.0,402,1842.356297
1200.0,574,1854.697309
650.0,338,1862.191353
1300.0,544,1874.02992
400.0,255,1879.517723
300.0,249,1884.932102
450.0,297,1891.605541
850.0,454,1901.947828
450.0,307,1908.731553
850.0,502,1919.723862
1050.0,486,1930.179594
1050.0,407,1939.466006
1400.0,680,1954.499444
1000.0,627,1968.105465
800.0,419,1978.220052
950.0,397,1987.367827
300.0,206,1991.664961
1250.0,552,2003.918221
900.0,438,2013.560784
600.0,313,2020.634444
650.0,371,2028.433673
1000.0,386,2036.876366
700.0,454,2047.066007
700.0,360,2055.063354
750.0,371,2063.012284
650.0,308,2069.630805
550.0,345,2077.331693
1100.0,453,2086.876805
1400.0,687,2102.246311
400.0,233,2107.068477
700.0,476,2117.590542
900.0,499,2129.131067
650.0,449,2138.651639
1700.0,816,2157.13877
750.0,337,2164.161117
1050.0,548,2176.232339
1400.0,617,2189.955513
1350.0,648,2204.456783
750.0,340,2211.779879
1150.0,522,2223.037461
600.0,306,2230.184509
1100.0,579,2243.500169
1200.0,715,2260.388472
1700.0,752,2276.63235
900.0,365,2284.211046
1150.0,445,2294.338878
600.0,291,2300.599888
1050.0,555,2313.365238
1350.0,624,2327.548195
1700.0,709,2343.134594
900.0,371,2351.408167
300.0,230,2356.573984
1100.0,447,2366.24778
1050.0,474,2376.376261
1250.0,538,2388.165662
950.0,381,2396.41996
1050.0,453,2406.325821
700.0,326,2413.622121
800.0,309,2420.378294
400.0,303,2427.65672
750.0,306,2434.158748
850.0,447,2443.672625
600.0,220,2448.552033
650.0,347,2456.094869
750.0,297,2462.421629
1350.0,596,2475.765436
1100.0,524,2487.174191
650.0,396,2496.055638
1000.0,461,2505.958582
1400.0,588,2518.59856
400.0,197,2523.180278
400.0,225,2527.872394
1250.0,601,2541.42306
1250.0,585,2554.274322
300.0,211,2558.694192
1600.0,627,2572.421333
900.0,452,2583.219582
1150.0,512,2595.14936
1300.0,559,2607.853239
1400.0,535,2619.421671
500.0,213,2624.059088
1200.0,575,2636.400114
1000.0,383,2644.841935
750.0,340,2652.608112
450.0,332,2659.780972
1250.0,567,2672.598225
600.0,308,2679.340696
500.0,222,2684.380357
650.0,381,2692.655493
600.0,324,2699.517448
1300.0,588,2712.527565
900.0,312,2719.089418
1450.0,809,2737.085629
1500.0,629,2751.407737
650.0,313,2758.079666
900.0,439,2768.332094
1450.0,635,2782.470189
1200.0,506,2793.33108
2100.0,1031,2815.898516
1050.0,479,2826.404372
800.0,329,2833.956876
1100.0,483,2844.716603
1100.0,526,2856.132755
900.0,400,2864.814969
1400.0,560,2877.020301
1250.0,521,2888.739558
1300.0,592,2901.599669
850.0,421,2910.596066
1250.0,489,2921.474483
650.0,297,2928.04883
750.0,353,2936.144048
1100.0,509,2947.393602
1750.0,673,2961.766004
1700.0,681,2976.828508
1350.0,663,2992.239393
400.0,235,2997.158761
1350.0,576,3010.025312
1100.0,558,3021.928244
700.0,465,3032.223952
750.0,354,3040.028139
1900.0,704,3055.734126
1400.0,646,3069.846301
1600.0,760,3086.912148
450.0,351,3094.545116
850.0,376,3102.702148
800.0,352,3110.299755
1250.0,527,3121.792833
900.0,472,3132.450037
1150.0,443,3142.367849
950.0,415,3151.20748
1650.0,706,3166.513835
1250.0,412,3175.963584
700.0,269,3181.74085
900.0,373,3189.642195
2100.0,970,3210.801827
850.0,366,3218.753997
1750.0,914,3239.320149
400.0,199,3243.73513
1300.0,613,3256.761584
1300.0,666,3271.796567
400.0,220,3276.444746
850.0,370,3284.45164
1650.0,770,3301.080736
550.0,424,3310.20469
1050.0,398,3318.77848
1300.0,509,3329.730964
700.0,320,3337.469201
1200.0,646,3352.604172
450.0,231,3357.891969
450.0,283,3363.855513
1400.0,611,3377.174556
1650.0,646,3391.30087
1000.0,549,3403.348956
1000.0,505,3414.287878
1450.0,660,3428.488388
1500.0,579,3441.712174
850.0,389,3450.715321
1450.0,612,3464.12713
850.0,324,3471.549257
400.0,227,3476.48311
1400.0,588,3488.96499
700.0,364,3496.833617
1300.0,610,3510.658448
1550.0,713,3526.591109
500.0,285,3533.052977
1200.0,477,3543.345615
1550.0,626,3556.993381
1550.0,643,3570.983363
1450.0,593,3584.47292
1200.0,527,3596.777713
800.0,322,3603.608804
1650.0,693,3619.597636
1400.0,552,3631.218107
350.0,263,3637.033065
900.0,385,3645.493445
1250.0,570,3657.745169
1050.0,520,3669.520972
1750.0,658,3684.093612
650.0,363,3691.976399
1700.0,773,3708.849214
1350.0,529,3720.528135
1250.0,426,3729.879261
1500.0,609,3743.700504
2150.0,750,3760.742645
1300.0,514,3771.934093
1600.0,686,3786.6442
450.0,236,3791.828739
1300.0,493,3802.867671
1700.0,686,3817.84078
1900.0,791,3835.340714
1450.0,545,3847.730256
1200.0,517,3859.503331
2150.0,799,3876.953921
1200.0,565,3889.418215
1050.0,449,3899.392899
1750.0,629,3913.023661
700.0,315,3920.457566
1050.0,426,3929.754387
1050.0,432,3939.387376
1800.0,712,3955.155586
1050.0,460,3965.551065
2000.0,739,3981.657624
1650.0,615,3995.11172
1050.0,401,4003.787674
1650.0,677,4018.78717
1050.0,489,4029.460394
1450.0,561,4042.186359
600.0,292,4048.411741
1150.0,461,4058.556937
1150.0,429,4067.679256
1750.0,684,4082.545945
1050.0,447,4093.007406
1700.0,588,4106.002232
1650.0,649,4119.961186
1950.0,668,4135.015866
1850.0,618,4148.658761
2000.0,844,4167.058101
1500.0,597,4180.148996
500.0,220,4184.691177
1600.0,603,4197.969875
1650.0,618,4213.038173
1700.0,597,4226.545615
1350.0,577,4239.213847
1700.0,702,4254.800508
2150.0,817,4273.452728
1650.0,617,4287.189006
1750.0,770,4303.787211
1650.0,699,4319.287127
1350.0,483,4329.725156
1350.0,500,4340.448208
1550.0,615,4354.140367
1300.0,521,4365.741539
2100.0,693,4381.362303
1900.0,713,4397.073748
1200.0,655,4411.502848
1400.0,577,4424.34661
1400.0,517,4435.487824
1800.0,647,4450.189979
1600.0,679,4464.560521
1850.0,697,4480.090392
850.0,394,4488.700537
2000.0,687,4503.809694
1650.0,603,4517.330669
1500.0,584,4530.429899
1400.0,619,4543.660317
1700.0,776,4560.588479
900.0,306,4567.740954
2300.0,868,4587.291184
1950.0,667,4601.824314
1600.0,659,4616.200601
2450.0,916,4636.032624
1200.0,580,4649.278238
1700.0,712,4664.907976
1900.0,714,4681.178787
1700.0,752,4697.626728
800.0,395,4706.548451
1850.0,701,4721.477276
1600.0,604,4734.94363
1900.0,640,4748.799158
1600.0,683,4763.646517
2100.0,721,4779.941754
1100.0,426,4789.018089
1150.0,505,4800.246789
1750.0,693,4815.223741
2350.0,917,4835.050829
2050.0,725,4851.170709
1450.0,533,4862.686686
2100.0,750,4879.251553
2200.0,808,4897.009103
2200.0,815,4914.812098
2200.0,825,4932.971683
1500.0,484,4943.708346
1850.0,712,4958.920674
2400.0,814,4977.57054
400.0,197,4981.661609
1300.0,572,4994.056899
2600.0,912,5014.333102
1900.0,664,5029.056005
2100.0,726,5045.019455
2700.0,939,5066.173224
2500.0,881,5085.095879
1600.0,640,5099.825729
2000.0,654,5114.409236
1600.0,520,5125.518547
2000.0,655,5139.888038
2100.0,828,5159.089689
1000.0,405,5168.049697
1700.0,638,5182.219746
1550.0,674,5196.807525
1650.0,599,5210.054327
2500.0,804,5227.584662
1650.0,715,5243.069797
1700.0,587,5256.315186
1900.0,649,5270.194962
2200.0,696,5285.324526
1450.0,480,5296.203626
1950.0,698,5312.05873
2100.0,788,5329.255232
1650.0,618,5343.449632
400.0,269,5349.611713
2300.0,754,5366.846068
700.0,337,5373.941341
1950.0,677,5388.844578
1950.0,679,5403.589696
1900.0,721,5419.680441
2000.0,733,5436.685709
450.0,290,5443.015611
2250.0,804,5460.845125
1800.0,717,5476.311298
2150.0,845,5495.103589
2450.0,904,5515.315312
1600.0,611,5528.511058
2000.0,653,5542.971957
2300.0,760,5559.46843
1900.0,599,5572.373317
2500.0,969,5594.122088
1150.0,501,5605.322102
2500.0,934,5625.972788
2450.0,814,5643.747227
1700.0,630,5657.62797
2300.0,775,5674.773392
2200.0,722,5690.93436
2300.0,1010,5713.69445
1400.0,466,5723.451288
2350.0,952,5744.389861
1800.0,672,5759.092968
1250.0,530,5770.866345
2450.0,789,5787.923852
450.0,275,5793.987381
2800.0,815,5811.80927
700.0,296,5818.329753
2200.0,949,5839.270203
1500.0,575,5852.139416
2900.0,1019,5875.332284
1550.0,521,5886.632359
2800.0,1081,5909.885897
1500.0,562,5922.893497
2300.0,809,5940.787865
2450.0,781,5957.541948
2000.0,704,5973.547198
1550.0,620,5986.849667
2700.0,997,6008.357412
2100.0,730,6025.027941
2200.0,826,6043.062469
1150.0,379,6051.408786
2450.0,829,6069.655431
1850.0,717,6085.016211
2100.0,727,6101.116344
2250.0,673,6115.812649
1700.0,639,6130.082899
2700.0,970,6151.699367
1050.0,551,6163.944078
2700.0,967,6185.502072
2800.0,1241,6213.345203
2500.0,968,6234.596512
2700.0,1064,6258.068393
2500.0,860,6276.903315
1550.0,574,6289.608676
2500.0,816,6307.516682
1200.0,498,6318.341091
1500.0,559,6330.512708
2700.0,842,6349.65326
2500.0,863,6368.909337
2200.0,721,6384.91291
1450.0,561,6397.166284
700.0,299,6404.211533
1850.0,660,6418.557575
1300.0,429,6427.708317
2800.0,906,6447.59944
2350.0,813,6465.559802
2800.0,1121,6490.061171
2200.0,819,6508.164313
2200.0,741,6524.191081
2600.0,928,6544.958018
2600.0,858,6563.451094
2600.0,909,6583.277987
1950.0,674,6598.374849
2350.0,802,6615.90358
2150.0,705,6631.415119
3000.0,964,6653.527993
650.0,284,6659.644224
950.0,445,6669.278649
2800.0,980,6690.672195
2700.0,839,6710.019048
700.0,285,6716.057783
2050.0,695,6731.429096
2500.0,836,6749.897485
2500.0,850,6768.87848
2500.0,864,6788.20333
2200.0,751,6805.377857
2300.0,819,6822.754932
2300.0,829,6842.006851
2250.0,806,6859.243862
1150.0,450,6869.521294
2700.0,910,6889.195452
2700.0,916,6910.32592
1550.0,707,6925.350689
1250.0,588,6938.494286
1600.0,578,6950.930456
700.0,321,6957.959615
1550.0,743,6974.306359
1650.0,682,6989.589831
2400.0,793,7007.054272
2800.0,1056,7030.249182
2700.0,869,7049.631213
2600.0,897,7070.151414
2150.0,607,7083.204654
2500.0,943,7104.672959
1350.0,624,7118.295234
2800.0,1003,7141.058194
2900.0,996,7162.803209
2600.0,893,7182.453246
2500.0,830,7200.816653
2350.0,984,7222.229621
2700.0,949,7242.779864
1550.0,503,7253.637689
2700.0,1038,7277.081024
2700.0,849,7295.895778
2500.0,853,7315.115654
2500.0,843,7333.327751
2800.0,877,7352.853074
2150.0,777,7369.864719
2050.0,742,7385.775287
2400.0,770,7402.58398
2700.0,814,7421.120578
1450.0,574,7434.414589
2200.0,742,7450.5562
2600.0,899,7470.418022
2600.0,847,7489.215328
2250.0,711,7504.603337
2350.0,1219,7531.900212
800.0,348,7539.483614
2500.0,841,7558.086312
2450.0,739,7574.575562
2100.0,638,7588.672494
2450.0,798,7606.683992
2800.0,871,7625.999619
2700.0,920,7646.842259
2800.0,883,7666.35797
2800.0,1048,7689.016129
2800.0,915,7709.112758
2500.0,811,7727.195823
2600.0,915,7747.607723
2800.0,914,7767.397191
2600.0,1005,7790.23568
2450.0,849,7808.498617
1800.0,615,7822.850693
2700.0,886,7842.164849
2600.0,807,7859.685076
2700.0,853,7878.82959
1150.0,407,7887.550838
2600.0,963,7908.66862
1650.0,599,7921.427403
2250.0,825,7940.44478
3100.0,1016,7962.694303
550.0,310,7969.513968
2000.0,667,7984.094604
2700.0,869,8003.250396
2700.0,825,8021.506531
2600.0,891,8040.853883
1050.0,431,8050.437562
2700.0,879,8069.771251
2600.0,897,8089.785215
3000.0,966,8110.712651
2800.0,861,8129.430724
1000.0,406,8138.166958
2600.0,916,8158.516994
550.0,212,8163.15044
2600.0,876,8182.863527
2700.0,811,8200.381311
1550.0,481,8211.084521
2400.0,848,8229.501747
1900.0,644,8243.673266
2800.0,923,8263.916615
2150.0,713,8279.500991
3000.0,911,8299.841946
3000.0,1314,8328.771948
2500.0,837,8347.546228
600.0,314,8354.462708
1700.0,614,8367.885023
2600.0,930,8388.170232
1400.0,475,8398.851645
2200.0,815,8417.252274
2500.0,807,8434.568219
2600.0,900,8455.079757
2600.0,840,8473.721324
2700.0,864,8492.52983
1150.0,412,8501.953648
2600.0,1035,8524.545805
2700.0,899,8544.652751
2600.0,824,8563.327044
3000.0,929,8583.283425
2150.0,710,8598.771232
2700.0,845,8617.716897
2200.0,756,8634.084424
2500.0,952,8655.277846
2700.0,843,8673.761583
650.0,331,8681.216921
3200.0,1085,8705.112662
800.0,337,8712.733279
2700.0,790,8730.042345
2700.0,848,8748.223198
2900.0,895,8768.005559
2350.0,755,8784.84238
2700.0,914,8804.790787
2600.0,897,8824.338947
2600.0,827,8842.908223
2600.0,811,8860.51109
2700.0,1014,8883.261984
2900.0,847,8901.673564
350.0,224,8906.374661
2900.0,887,8926.084671
2900.0,866,8944.740612
1700.0,578,8957.537318
2600.0,795,8974.988021
1550.0,590,8987.789262
850.0,309,8994.564203
2700.0,880,9014.288167
2600.0,922,9034.337668
2500.0,810,9052.440965
3000.0,1085,9076.361765
2700.0,908,9096.949696
2700.0,847,9115.103832
1700.0,573,9128.528765
2900.0,941,9148.830868
1000.0,474,9159.429909
2700.0,842,9177.83089
2900.0,986,9199.339197
3100.0,1015,9222.070105
2600.0,810,9240.145646
2700.0,834,9258.482781
2000.0,626,9272.40452
2500.0,793,9289.972687
2600.0,847,9309.109067
2150.0,784,9326.52798
2800.0,842,9344.65748
2200.0,742,9360.805052
2600.0,838,9379.408442
650.0,323,9386.987189
2700.0,847,9405.821648
2800.0,948,9426.327625
2500.0,823,9443.970659
2600.0,859,9462.954803
1700.0,656,9476.969532
2500.0,824,9495.546745
2600.0,1073,9519.198952
2800.0,913,9539.019479
3000.0,904,9558.688566
2700.0,794,9575.964106
2700.0,968,9597.239004
2500.0,844,9616.105468
2600.0,810,9634.114689
2350.0,877,9653.634697
1750.0,704,9668.882239
2900.0,901,9689.006547
1600.0,614,9702.57071
3100.0,931,9723.009226
3000.0,950,9743.372845
3000.0,1104,9767.817396
2900.0,884,9787.108525
2500.0,832,9805.433039
3300.0,937,9826.205113
2800.0,836,9844.168126
3300.0,989,9866.190131
2900.0,996,9888.382965
2700.0,839,9906.22874
2100.0,698,9922.425659
2400.0,827,9939.986757
1000.0,387,9948.52092
3000.0,1065,9971.540126
3100.0,948,9993.406455
2600.0,843,10011.880943
2450.0,825,10030.054264
2900.0,866,10049.199585
1450.0,542,10061.111027
2500.0,800,10079.084059
2600.0,792,10096.865499
3200.0,934,10117.515113
1800.0,604,10130.977684
2800.0,827,10149.115698
2700.0,836,10167.420274
800.0,439,10177.860945
2700.0,827,10195.700077
2600.0,889,10215.02552
3100.0,898,10234.659658
2500.0,774,10252.491183
3100.0,848,10270.83361
2200.0,691,10285.915856
2500.0,811,10303.880294
2250.0,879,10323.531672
2900.0,900,10343.896525
2600.0,972,10365.47376
2600.0,829,10383.309417
2600.0,909,10402.990966
2350.0,754,10419.198014
2800.0,828,10438.114739
2500.0,791,10455.179791
1700.0,646,10469.441808
2900.0,833,10487.97132
2600.0,782,10505.245761
2800.0,826,10523.481051
2300.0,806,10541.004431
2600.0,788,10558.557015
2400.0,788,10575.802046
3200.0,870,10594.647437
2600.0,836,10613.537245
650.0,285,10619.907724
3100.0,894,10640.724495
2700.0,819,10658.810214
3100.0,959,10680.412432
2700.0,793,10697.817538
2700.0,832,10715.850841
2400.0,910,10736.565686
2200.0,729,10752.03175
3700.0,1079,10776.75255
1950.0,723,10792.616051
2800.0,903,10812.322996
2800.0,902,10833.132386
2800.0,817,10851.950391
2800.0,824,10870.59433
350.0,223,10875.655247
350.0,215,10880.493699
2100.0,671,10895.036805
2300.0,766,10911.727785
2600.0,801,10929.212347
3900.0,1132,10954.168432
2900.0,901,10974.137379
2900.0,829,10992.521203
2800.0,924,11012.290279
2800.0,929,11032.914391
2700.0,801,11050.407114
1400.0,552,11062.590754
3100.0,890,11082.504897
2900.0,863,11101.511269
2350.0,720,11117.126142
1950.0,813,11134.797755
2600.0,832,11154.034601
3100.0,937,11175.446934
2700.0,843,11193.814622
2900.0,798,11211.679329
2800.0,808,11229.340947
3000.0,846,11248.191537
2500.0,821,11266.41765
2600.0,816,11285.006289
2800.0,861,11303.906233
3400.0,897,11323.584404
3400.0,814,11341.181598
2900.0,847,11360.062506
2700.0,812,11378.000873
2700.0,834,11396.333493
2700.0,858,11415.193341
2900.0,823,11433.214648
1950.0,579,11445.737557
2700.0,829,11464.293506
2100.0,696,11479.367293
3200.0,965,11501.235862
2900.0,831,11519.910104
500.0,230,11524.89528
2800.0,783,11542.28189
1800.0,605,11555.741856
3500.0,944,11575.942126
2600.0,788,11593.525421
2900.0,870,11613.213668
2600.0,831,11631.027408
3500.0,894,11650.833133
2700.0,804,11668.790785
3000.0,801,11686.688946
2900.0,821,11704.486753
3000.0,1033,11727.170741
3100.0,902,11747.135366
2500.0,803,11765.711975
1100.0,413,11775.339076
2700.0,793,11792.119989
2600.0,835,11810.734764
2700.0,792,11828.220834
2050.0,647,11843.071589
2700.0,847,11861.63173
3400.0,915,11881.631307
3300.0,915,11902.011347
2800.0,845,11920.507086
1150.0,426,11929.64912
1600.0,523,11942.467053
1000.0,421,11951.72966
450.0,254,11957.324203
2800.0,862,11976.19399
3000.0,847,11994.888589
2800.0,868,12014.090947
1400.0,574,12026.908252
2900.0,860,12045.846487
2900.0,819,12063.760066
2700.0,844,12082.616139
3000.0,914,12103.170845
2700.0,827,12121.086055
700.0,404,12130.042914
3000.0,876,12149.452735
3000.0,866,12168.542673
1250.0,455,12178.754184
3100.0,840,12197.151625
3000.0,830,12215.431628
3000.0,822,12233.166928
2900.0,828,12251.663237
2150.0,709,12266.961219
2900.0,848,12285.382922
2500.0,908,12305.222001
3000.0,843,12324.147233
2350.0,784,12341.339291
3100.0,903,12361.314839
3000.0,832,12379.313263
1400.0,574,12391.803179
1500.0,622,12405.403968
3400.0,968,12426.846533
1700.0,764,12444.286218
2500.0,839,12462.575831
3700.0,903,12482.635248
2600.0,837,12500.763613
2700.0,810,12518.240788
2500.0,808,12536.301584
3100.0,923,12556.843554
3400.0,846,12575.16508
3100.0,884,12594.469676
2800.0,898,12613.69812
3700.0,1082,12637.767411
3000.0,816,12655.681925
2900.0,815,12673.34198
3100.0,868,12692.311385
3700.0,992,12714.698684
3300.0,838,12734.568479
3000.0,840,12752.402021
1950.0,736,12768.958794
2700.0,804,12786.959339
2800.0,783,12804.336146
3500.0,946,12824.829105
3900.0,956,12845.9603
2900.0,813,12863.769614
1650.0,633,12878.489383
3000.0,939,12898.8793
700.0,361,12906.435711
3600.0,948,12927.577719
3000.0,898,12947.16606
2500.0,861,12966.008785
2800.0,848,12984.476518
3100.0,840,13002.952502
3200.0,914,13024.019827
3800.0,1031,13047.179574
2600.0,927,13067.553918
3000.0,787,13084.458672
1150.0,438,13094.357523
2700.0,971,13115.55182
3500.0,934,13136.526866
1400.0,589,13149.364774
3100.0,871,13168.594917
2200.0,779,13185.75651
3300.0,874,13204.916945
2600.0,782,13221.845288
2700.0,793,13239.218478
2350.0,828,13256.934318
1300.0,472,13267.290244
3100.0,861,13286.008494
1650.0,678,13301.316256
2800.0,787,13319.280133
3400.0,968,13340.437807
3400.0,911,13361.212119
2900.0,930,13381.824069
2100.0,700,13397.667373
3100.0,820,13415.63765
3000.0,854,13434.588587
2700.0,771,13451.765281
1700.0,631,13465.986638
2700.0,824,13484.277796
2300.0,908,13503.744003
2500.0,804,13521.815727
3500.0,924,13542.168378
2700.0,864,13561.08469
3000.0,797,13578.794518
2700.0,888,13598.256053
2900.0,832,13617.493272
3300.0,907,13637.523869
2900.0,796,13655.95151
2900.0,871,13674.999063
3100.0,793,13692.487528
2900.0,868,13712.62442
3900.0,1161,13738.106456
2450.0,796,13755.741479
2800.0,826,13773.698363
3400.0,808,13791.468954
3500.0,895,13811.475484
2800.0,808,13828.794819
4000.0,1006,13850.696689
2700.0,832,13869.610417
2900.0,894,13889.114952
2900.0,791,13906.658306
3600.0,906,13926.435353
3200.0,935,13946.980141
3000.0,917,13967.906179
3500.0,931,13988.341531
3200.0,971,14010.047095
2900.0,809,14028.14854
3700.0,905,14048.063119
3100.0,799,14065.658007
2700.0,844,14083.991207
2600.0,855,14102.634484
2900.0,869,14121.777181
3700.0,966,14143.007433
4200.0,1004,14164.761583
2900.0,841,14182.923555
2600.0,851,14201.679698
3700.0,981,14223.441611
3000.0,805,14240.949453
1150.0,563,14253.596961
3800.0,914,14273.593643
2800.0,820,14291.623327
950.0,507,14302.550977
3000.0,802,14320.409016
3100.0,863,14339.380868
3200.0,846,14358.148925
3900.0,939,14379.145088
2900.0,801,14396.464715
2500.0,804,14413.821476
2500.0,835,14432.79973
3500.0,899,14452.736509
3500.0,876,14471.565028
1550.0,579,14484.263513
3300.0,808,14501.723125
3600.0,907,14521.66851
2900.0,846,14540.735667
4300.0,988,14562.243119
4300.0,1075,14585.785489
3300.0,870,14605.294908
3800.0,963,14625.906315
4000.0,1014,14648.832427
3300.0,854,14667.601094
2900.0,830,14685.918201
3000.0,874,14704.80006
3200.0,900,14724.962853
3300.0,869,14743.807787
3000.0,1018,14766.495757
2600.0,910,14786.344609
300.0,215,14791.778443
2500.0,870,14811.364443
3600.0,846,14829.449589
2700.0,794,14847.159919
4000.0,929,14868.093451
3000.0,877,14887.598813
2700.0,925,14907.822878
3700.0,966,14928.93985
2600.0,851,14948.322077
3300.0,842,14966.423071
3400.0,902,14986.565861
2900.0,791,15004.000782
1950.0,711,15019.435682
3900.0,945,15040.21883
3000.0,782,15057.380744
3700.0,937,15078.339855
3500.0,942,15098.968082
3000.0,793,15116.027894
3300.0,898,15136.432929
2600.0,846,15155.686715
2900.0,839,15174.018121
3500.0,840,15192.197548
3900.0,933,15213.683671
3400.0,905,15234.10041
3700.0,913,15253.838069
3700.0,898,15273.635379
4500.0,1048,15297.13898
2600.0,788,15314.378171
2600.0,862,15333.474642
3600.0,845,15352.190295
3900.0,972,15373.357067
3300.0,945,15394.088319
3300.0,843,15413.236976
4400.0,1028,15435.480493
2900.0,924,15455.480293
3400.0,836,15473.827848
2500.0,789,15490.989266
2700.0,795,15509.36776
3500.0,976,15530.814897
3600.0,1031,15553.320155
3300.0,858,15573.224849
4200.0,1078,15597.380749
1750.0,546,15610.022453
4400.0,1107,15634.138104
1550.0,519,15645.324556
1800.0,624,15659.133228
3200.0,836,15677.913614
3500.0,844,15696.161107
2500.0,834,15714.711111
3600.0,874,15734.275913
400.0,265,15740.004267
2800.0,920,15759.846215
3400.0,915,15779.932012
3300.0,907,15800.158167
2900.0,846,15819.04651
3300.0,848,15837.223549
2900.0,900,15857.170803
1100.0,442,15867.197092
2800.0,906,15887.072023
4300.0,1003,15909.032161
3000.0,796,15926.578212
4900.0,1014,15949.036239
3000.0,847,15967.502001
4000.0,927,15988.315189
3200.0,841,16006.484323
4000.0,910,16026.187272
4100.0,896,16046.100193
2050.0,670,16060.539649
4100.0,992,16082.288451
4000.0,951,16103.208575
4100.0,982,16124.689148
3600.0,1072,16148.009118
3500.0,899,16168.60644
3500.0,885,16187.893257
5400.0,1221,16214.504287
3500.0,835,16232.73695
1850.0,737,16249.31842
2700.0,829,16267.650873
2700.0,879,16286.70168
3500.0,925,16307.256059
3900.0,945,16327.583262
3300.0,875,16346.817277
3000.0,855,16365.73981
2800.0,846,16384.809658
4300.0,993,16406.139488
4600.0,1077,16429.728447
3500.0,876,16449.390383
3100.0,875,16468.590241
2500.0,777,16486.39151
2800.0,917,16506.815769
2700.0,819,16525.578657
3300.0,891,16545.184061
4700.0,1004,16566.665285
3900.0,1005,16589.323523
3400.0,870,16608.154048
3400.0,956,16628.840667
3100.0,897,16648.384917
1800.0,690,16663.685869
2600.0,858,16682.108013
2700.0,837,16700.915754
4200.0,973,16721.943736
2600.0,910,16742.434167
3500.0,862,16761.382245
4700.0,1007,16783.43665
2700.0,972,16804.923151
2350.0,697,16820.077961
3800.0,999,16842.451452
1700.0,626,16856.02599
3100.0,812,16873.512988
3100.0,919,16893.576872
3500.0,960,16915.184615
3000.0,836,16933.596855
2900.0,845,16952.090799
2800.0,830,16970.042662
3000.0,833,16988.1182
3100.0,839,17006.829597
3300.0,1007,17028.694472
3800.0,986,17051.160591
2200.0,745,17067.466568
4700.0,1000,17089.205181
550.0,285,17095.523152
3400.0,878,17114.893025
4000.0,998,17137.197472
3000.0,847,17155.968704
3700.0,909,17175.870873
3200.0,970,17197.54014
3700.0,945,17218.007157
2500.0,909,17238.316414
3800.0,888,17257.545893
1900.0,643,17271.573185
3200.0,877,17290.842158
3200.0,878,17310.392377
3700.0,951,17331.870279
3000.0,914,17352.323753
3000.0,817,17370.075751
450.0,215,17374.53202
4700.0,1009,17397.192789
3400.0,880,17416.469361
700.0,360,17424.256247
1550.0,504,17435.687838
2800.0,822,17454.261922
2900.0,768,17470.889632
3100.0,839,17489.813222
4700.0,1081,17513.799797
3100.0,846,17532.489371
4200.0,1123,17556.686767
3600.0,1006,17579.723669
4500.0,1099,17603.992151
1300.0,519,17615.469617
3100.0,825,17634.253731
3300.0,966,17655.385346
3500.0,937,17675.82948
4800.0,1024,17698.653958
1450.0,614,17712.155774
2800.0,907,17731.944096
1600.0,557,17744.444895
3000.0,897,17764.24425
3000.0,975,17785.560573
2400.0,761,17801.963944
5800.0,1206,17828.523861
3800.0,998,17850.86542
3500.0,900,17871.071289
3900.0,1071,17894.351379
3200.0,866,17913.098667
3300.0,1179,17938.637089
4800.0,1059,17963.37897
4400.0,1017,17985.457202
4000.0,950,18006.353219
2800.0,850,18025.685377
3400.0,886,18044.949566
3200.0,828,18063.519167
2600.0,774,18080.340632
3200.0,855,18099.307523
3100.0,975,18120.995599
4100.0,1226,18147.814059
1850.0,711,18163.4329
3500.0,971,18185.062222
4500.0,1038,18208.295477
3000.0,830,18226.691454
4600.0,1088,18250.517389
3300.0,913,18270.866756
3300.0,932,18290.948251
3800.0,965,18312.444083
5300.0,1047,18334.977191
2800.0,842,18354.822366
3100.0,965,18375.463749
4100.0,1042,18398.641647
4700.0,1016,18421.246965
3100.0,1006,18443.257037
4700.0,1012,18465.510381
4800.0,978,18486.766735
4800.0,1193,18512.895243
4200.0,911,18533.021823
1600.0,706,18548.351455
4000.0,1016,18570.432535
3800.0,1035,18593.156092
6400.0,1300,18621.719158
3400.0,837,18640.012545
3100.0,987,18662.128111
2600.0,847,18680.421068
3000.0,826,18698.862907
3200.0,793,18716.832041
3600.0,1012,18738.729274
6100.0,1196,18764.640971
5200.0,1088,18788.65132
5800.0,1155,18814.217702
4600.0,986,18836.275938
4700.0,1089,18859.919471
3500.0,909,18879.734378
3400.0,897,18899.57681
3800.0,969,18921.0977
3900.0,1008,18942.758403
4100.0,1019,18965.062855
4600.0,1084,18988.912669
6600.0,1154,19013.959793
4000.0,988,19036.49103
1750.0,668,19050.769672
3600.0,1081,19074.429956
2600.0,907,19094.253635
4900.0,1054,19117.635319
1950.0,630,19132.118244
4500.0,1017,19154.885073
3100.0,914,19174.767368
3600.0,945,19195.486854
2900.0,795,19213.667737
5500.0,1125,19238.258112
2050.0,846,19256.54382
2000.0,761,19273.377563
4200.0,984,19294.922792
5000.0,1084,19318.408997
3300.0,1048,19342.945039
3700.0,949,19363.895106
3400.0,913,19383.608553
3600.0,846,19402.670608
4000.0,984,19424.555236
6500.0,1278,19452.597965
3100.0,898,19472.418033
3700.0,878,19492.350522
4500.0,995,19514.255119
2000.0,646,19528.277329
650.0,322,19535.26211
4000.0,1068,19559.826583
3700.0,909,19579.28713
3800.0,859,19598.419632
2150.0,810,19616.583392
4900.0,995,19638.574966
4700.0,1041,19661.050992
5000.0,1077,19685.385113
3200.0,970,19707.111283
3200.0,792,19723.993076
5300.0,1081,19747.845263
6200.0,1213,19774.88481
5300.0,1125,19799.311728
4900.0,1047,19822.774897
3500.0,952,19843.721111
2800.0,854,19862.861437
4000.0,910,19883.231189
4800.0,1013,19905.734476
4200.0,1006,19928.145216
4300.0,941,19948.215039
3200.0,798,19965.871901
3600.0,898,19985.932115
3400.0,845,20004.18828
2600.0,824,20022.592382
2800.0,843,20041.043324
3500.0,867,20060.231262
3000.0,846,20078.561079
3500.0,902,20098.75534
3200.0,890,20118.63897
5200.0,1063,20141.443389
3100.0,846,20160.743951
3800.0,948,20181.958944
3000.0,905,20201.715439
3000.0,808,20220.218554
3100.0,886,20239.92533
3100.0,838,20257.811646
4800.0,1078,20282.661658
3200.0,917,20302.719631
4200.0,898,20322.801805
7000.0,1281,20351.086279
2700.0,844,20369.94714
3100.0,811,20387.769204
3500.0,1028,20410.487256
4600.0,951,20431.097212
3500.0,951,20451.869553
3100.0,841,20470.512452
5200.0,1199,20496.152604
3200.0,809,20514.241143
4500.0,1018,20537.156594
4300.0,1030,20560.393655
1400.0,508,20571.347298
5300.0,1092,20595.2842
4900.0,1016,20617.953912
3000.0,918,20638.195132
4900.0,1006,20660.736712
3500.0,860,20680.435399
4200.0,1051,20703.359346
2100.0,730,20719.168648
3200.0,791,20736.900128
4700.0,983,20758.045104
6300.0,1287,20786.053384
2900.0,807,20804.445048
5100.0,1018,20826.541505
2800.0,813,20844.187565
5100.0,1016,20866.487105
3500.0,953,20887.041291
4700.0,1054,20910.149557
3900.0,971,20931.474942
3800.0,916,20951.321507
3200.0,866,20970.075547
3300.0,790,20988.528061
2450.0,835,21007.41771
3300.0,878,21027.123103
5300.0,1040,21051.187781
3700.0,910,21070.847164
3800.0,880,21090.884167
2800.0,832,21108.902567
3800.0,937,21130.166935
3300.0,942,21150.691304
2700.0,967,21172.140887
3100.0,839,21190.625039
4300.0,1046,21214.874823
4100.0,983,21236.169582
3300.0,921,21256.29629
3200.0,809,21273.594012
5100.0,1027,21296.610161
3000.0,843,21315.059804
3800.0,928,21335.737037
4100.0,981,21357.168421
3300.0,826,21375.114127
4600.0,981,21397.328968
3500.0,880,21416.733146
3500.0,915,21436.850998
8300.0,1321,21465.471869
5800.0,1111,21490.060868
5100.0,1047,21513.279741
4800.0,1047,21536.287814
2250.0,822,21554.072166
3300.0,827,21573.540657
5500.0,1110,21597.612191
3100.0,807,21615.208227
5800.0,1118,21639.401109
2900.0,841,21658.462241
4300.0,1046,21681.403965
3000.0,858,21700.38501
4900.0,1077,21723.887538
3100.0,841,21742.643619
6500.0,1336,21771.774518
3200.0,884,21791.337605
3300.0,911,21811.174436
5000.0,1053,21833.869266
4200.0,1048,21858.119244
3700.0,914,21877.859966
5400.0,1088,21901.982169
3100.0,845,21920.895759
4900.0,1030,21943.919827
4000.0,1112,21968.698728
3000.0,827,21986.945828
1150.0,618,22000.449473
6100.0,1181,22026.188746
2400.0,768,22043.211246
4200.0,979,22064.904316
6000.0,1112,22088.850027
3600.0,945,22109.778418
3600.0,850,22128.121961
1850.0,716,22143.910204
5500.0,1120,22168.573958
3600.0,901,22187.986086
5900.0,1155,22213.279539
5100.0,1045,22235.946455
3700.0,1000,22257.940089
3100.0,846,22275.958411
5200.0,1117,22300.999294
1250.0,472,22311.227199
2900.0,815,22328.723808
8100.0,1545,22362.846099
1350.0,546,22374.641343
4400.0,1122,22399.015767
4100.0,945,22419.444327
4900.0,1053,22442.728668
1200.0,377,22450.748625
3200.0,789,22469.038724
2300.0,687,22484.070547
1000.0,388,22492.428171
3600.0,934,22512.650349
4900.0,1007,22534.684354
8300.0,1512,22568.391717
4000.0,940,22589.206644
3700.0,913,22609.363827
5500.0,1168,22635.02001
3200.0,844,22653.881592
500.0,221,22658.80013
5000.0,1049,22681.543787
3400.0,935,22701.745334
3300.0,803,22719.124967
3100.0,1037,22743.124084
2500.0,840,22761.171782
3600.0,945,22781.651343
6800.0,1302,22810.728458
5300.0,1051,22833.819482
3000.0,910,22854.116494
3900.0,1001,22876.099972
3800.0,915,22895.875373
5300.0,1039,22918.532341
4800.0,1054,22942.866403
3700.0,932,22963.129455
3000.0,909,22983.328684
2800.0,833,23001.827033
3400.0,841,23020.485112
3700.0,915,23040.368752
5600.0,1122,23065.184217
4400.0,975,23086.690875
2600.0,829,23105.142329
7700.0,1292,23133.04632
3100.0,808,23150.785157
5300.0,1083,23174.786669
3500.0,837,23192.9134
3800.0,933,23213.92078
4600.0,994,23235.794113
4900.0,1054,23258.724772
4600.0,1024,23281.160618
4300.0,1048,23304.90406
5700.0,1179,23330.892501
5300.0,1013,23353.325954
3500.0,940,23374.582697
5800.0,1330,23403.610676
7000.0,1308,23431.975148
4200.0,970,23453.76348
8100.0,1329,23483.208935
3100.0,840,23501.821735
3200.0,957,23522.752385
5600.0,1151,23548.372407
5500.0,1224,23575.651376
5000.0,1219,23601.893994
2500.0,818,23620.242574
7400.0,1428,23651.028506
5400.0,1055,23674.572883
7700.0,1368,23704.326736
4600.0,1051,23727.917683
4200.0,1075,23751.430166
2100.0,745,23768.067199
2900.0,846,23786.648099
3300.0,899,23807.057109
2900.0,839,23825.089015
6400.0,1362,23854.968956
4500.0,1072,23878.851983
1550.0,644,23893.099625
6700.0,1222,23919.701798
5800.0,1117,23944.197434
5000.0,978,23965.655254
4100.0,943,23986.20836
1550.0,573,23999.116834
6300.0,1257,24027.1549
3800.0,918,24047.018116
5900.0,1112,24071.752736
3100.0,845,24090.027653
4300.0,1005,24113.31818
4900.0,1051,24136.2813
6000.0,1149,24161.828901
3600.0,896,24181.102618
4600.0,1041,24204.6488
3500.0,889,24224.543225
4900.0,1188,24250.333395
6500.0,1160,24275.779645
4100.0,943,24296.408993
6800.0,1335,24325.128275
2800.0,867,24344.874815
4500.0,966,24365.71195
5400.0,1117,24390.828037
3800.0,938,24411.049289
5000.0,1049,24434.568665
3100.0,831,24452.696579
4200.0,1087,24477.126865
6900.0,1326,24505.956184
4300.0,994,24528.221986
10700.0,1743,24566.469976
4900.0,1085,24590.503788
5000.0,1043,24613.839782
3900.0,931,24633.978838
4200.0,1051,24656.929849
3100.0,863,24676.21003
3600.0,896,24696.54603
4800.0,1051,24720.017188
6400.0,1394,24750.227915
8700.0,1586,24785.350933
4700.0,1035,24808.190635
2500.0,764,24825.490539
4100.0,952,24846.331343
3700.0,896,24866.332979
950.0,376,24874.461796
7300.0,1255,24902.019399
2600.0,830,24920.22532
6600.0,1224,24947.178092
3700.0,914,24967.042639
7500.0,1374,24998.416774
3800.0,906,25018.165356
5700.0,1227,25044.799986
5400.0,1164,25070.258897
8900.0,1617,25106.333403
5700.0,1298,25134.415976
3100.0,830,25153.321388
4600.0,1016,25176.05982
3300.0,980,25197.833229
6600.0,1218,25224.913412
7900.0,1465,25257.583313
3300.0,852,25276.673322
4300.0,1091,25300.970122
5100.0,1016,25324.034918
6700.0,1358,25353.936902
3700.0,1105,25378.434592
4600.0,1083,25402.296255
6200.0,1328,25431.310017
2250.0,763,25448.395086
6600.0,1257,25475.668643
7000.0,1274,25504.040525
650.0,336,25511.299508
9500.0,1476,25544.209058
5800.0,1083,25567.469213
7000.0,1332,25596.631886
2150.0,678,25611.150017
5700.0,1184,25637.653944
7900.0,1460,25669.755989
6700.0,1189,25696.434332
8100.0,1420,25727.857708
2800.0,848,25746.414031
4500.0,1019,25768.139273
4000.0,953,25789.887531
4200.0,1050,25812.312485
4400.0,1072,25835.487441
5000.0,1021,25858.303891
4700.0,1127,25883.125472
4400.0,981,25904.311101
5900.0,1155,25930.004762
3700.0,998,25951.736828
4200.0,1049,25975.336
8300.0,1437,26006.460758
3600.0,885,26025.771592
6600.0,1186,26052.159873
3900.0,977,26073.421166
3900.0,995,26095.467402
7700.0,1552,26129.326776
3800.0,946,26149.910251
5300.0,1162,26175.463677
8300.0,1459,26207.447251
3300.0,849,26226.350934
6400.0,1289,26254.516621
5400.0,1083,26279.241858
4100.0,940,26299.87468
6000.0,1087,26324.117993
4500.0,1070,26347.541289
4300.0,1028,26370.526467
5500.0,1154,26396.373099
950.0,420,26405.649971
3200.0,1096,26429.723817
5000.0,1017,26451.523865
7500.0,1338,26481.700615
6300.0,1154,26506.849957
6100.0,1202,26533.071679
5200.0,1036,26556.54057
9300.0,1460,26588.522289
7900.0,1404,26619.406016
6300.0,1118,26643.659579
4300.0,952,26665.41639
4700.0,1037,26687.646488
4400.0,1048,26711.121808
5400.0,1164,26736.420773
7900.0,1329,26766.93872
7700.0,1324,26796.516126
7900.0,1494,26829.770769
5000.0,1052,26852.523249
6200.0,1148,26877.41072
6400.0,1154,26903.693148
7700.0,1356,26933.357316
4900.0,1003,26955.574834
4100.0,1032,26978.922986
10700.0,1587,27013.924031
5800.0,1258,27041.674546
4500.0,943,27062.540296
7100.0,1333,27091.774351
7400.0,1252,27119.301209
5200.0,1119,27144.244417
8900.0,1406,27175.266257
5000.0,1016,27197.169442
6000.0,1150,27222.494109
6700.0,1323,27251.238576
7500.0,1326,27280.263487
6400.0,1150,27305.126922
8100.0,1365,27335.39835
6000.0,1153,27360.097322
6400.0,1237,27387.352219
4000.0,1108,27411.560611
7000.0,1393,27442.982078
5900.0,1151,27468.177367
5100.0,1050,27491.239571
5000.0,1013,27513.259382
5300.0,1169,27538.665797
6700.0,1366,27569.750749
7100.0,1292,27597.490006
3300.0,1120,27622.128572
5400.0,1325,27650.824732
5800.0,1258,27678.73982
