# {"t_start": 1546750275.8350024, "env_id": "AsterixNoFrameskip-v4"} 
r,l,t200.0,237,10.721903
150.0,200,14.803882
200.0,168,18.134314
450.0,295,24.372236
200.0,193,28.615942
150.0,244,34.305068
200.0,252,39.89826
100.0,201,44.161759
400.0,247,49.737463
100.0,208,54.455774
200.0,205,58.696085
400.0,330,65.89752
500.0,272,71.747293
200.0,209,76.460075
100.0,201,80.842059
350.0,270,86.861832
150.0,203,91.255814
250.0,234,96.353852
50.0,208,100.773997
450.0,342,108.558306
550.0,352,116.690516
600.0,380,125.619646
250.0,286,132.105754
300.0,292,138.53921
200.0,208,143.165318
200.0,249,148.704764
100.0,203,152.929554
50.0,173,156.918054
100.0,202,161.277763
400.0,319,169.0726
300.0,286,175.133438
250.0,263,180.773439
200.0,276,186.686689
300.0,224,191.545179
150.0,196,195.666433
450.0,413,205.166984
150.0,239,210.19687
200.0,209,214.827749
200.0,221,219.710846
50.0,202,223.994557
300.0,251,229.799569
50.0,198,234.374306
300.0,327,241.261871
250.0,206,245.99151
250.0,189,250.035252
200.0,198,254.628326
450.0,283,260.735235
250.0,260,266.420153
200.0,210,271.161147
550.0,344,278.520462
250.0,297,285.638848
100.0,183,289.624976
650.0,332,297.114764
300.0,261,302.740094
150.0,223,307.440778
250.0,235,312.605918
200.0,203,317.226807
450.0,273,323.539976
200.0,201,328.925274
300.0,241,334.28488
350.0,289,341.72146
300.0,283,347.716143
800.0,436,357.06512
300.0,187,361.18956
250.0,219,365.894569
250.0,206,370.733258
150.0,200,375.177298
150.0,211,379.537696
100.0,187,383.739664
150.0,226,388.4362
150.0,205,393.115048
200.0,230,398.397632
450.0,323,405.421331
300.0,215,410.542467
200.0,198,414.739974
150.0,169,418.869485
200.0,239,423.968557
300.0,192,428.013875
350.0,220,432.723279
100.0,196,436.876073
100.0,198,441.267385
150.0,211,445.704189
450.0,391,454.548894
100.0,215,459.614578
450.0,251,465.151286
250.0,200,469.494562
500.0,375,477.602905
350.0,316,484.364123
450.0,331,492.150995
150.0,205,496.538918
100.0,223,501.415842
250.0,228,506.556862
400.0,204,510.894896
300.0,233,516.009409
250.0,220,520.849298
200.0,204,525.043306
200.0,224,530.10176
200.0,255,535.801893
200.0,236,540.971392
100.0,222,545.825104
600.0,416,554.77834
500.0,424,563.769536
350.0,322,571.386284
300.0,221,576.109807
150.0,234,581.215035
450.0,375,589.324278
350.0,206,593.846536
200.0,211,598.275196
400.0,363,606.34869
250.0,207,611.004469
500.0,454,620.702179
150.0,240,626.392334
450.0,353,634.431949
300.0,199,638.519184
250.0,205,643.011258
550.0,421,652.192882
200.0,207,657.0886
450.0,347,664.723212
300.0,166,668.128489
300.0,223,673.103977
350.0,294,679.39801
200.0,212,683.780406
250.0,246,689.063949
350.0,324,696.911006
350.0,202,701.265194
300.0,208,705.899356
1050.0,618,719.639368
500.0,295,726.056664
450.0,292,732.476866
400.0,379,740.892704
200.0,203,745.978181
350.0,197,750.178225
150.0,205,754.710008
200.0,201,759.408975
450.0,322,766.620518
600.0,323,774.194211
400.0,216,778.738056
350.0,300,785.349478
600.0,291,791.539014
750.0,472,801.839588
300.0,220,806.579012
350.0,203,811.423352
600.0,403,820.418854
250.0,228,825.386596
450.0,224,830.082549
200.0,223,834.995075
750.0,419,844.194181
450.0,202,848.880443
200.0,241,854.337219
250.0,197,858.469665
300.0,176,862.455126
650.0,412,871.53495
350.0,283,877.89891
500.0,280,884.182829
250.0,239,889.357975
500.0,224,894.220965
450.0,280,900.290635
350.0,222,905.194816
300.0,220,909.817966
250.0,188,914.343173
250.0,217,919.56273
600.0,304,926.228277
400.0,263,931.930666
250.0,212,936.595307
250.0,239,941.563963
500.0,247,947.016624
450.0,390,956.426427
550.0,321,963.593976
500.0,309,970.135947
450.0,234,975.130554
350.0,229,980.159481
300.0,203,984.444487
350.0,236,989.999738
350.0,233,995.245853
400.0,249,1000.673173
250.0,189,1004.903552
350.0,276,1010.800748
350.0,227,1015.579435
200.0,176,1019.498925
600.0,337,1026.726299
350.0,243,1032.017006
400.0,246,1037.330543
750.0,370,1045.55525
800.0,460,1055.967112
300.0,199,1060.19859
650.0,317,1067.621449
450.0,263,1073.522295
350.0,269,1079.416361
800.0,386,1087.898152
650.0,339,1095.315528
450.0,285,1101.711445
400.0,225,1106.423775
550.0,320,1113.437948
350.0,302,1119.895162
550.0,291,1126.481715
550.0,272,1133.139962
500.0,268,1139.130631
450.0,311,1145.890352
450.0,314,1152.777029
1100.0,544,1165.195234
300.0,178,1168.901719
500.0,271,1174.746159
750.0,379,1182.997555
300.0,275,1188.840583
300.0,208,1193.626813
450.0,247,1199.41394
650.0,310,1206.26582
750.0,445,1216.716963
1200.0,610,1229.731267
600.0,240,1234.97894
1000.0,376,1243.050743
750.0,281,1249.131668
1050.0,513,1260.518234
550.0,219,1265.32389
350.0,221,1270.221932
750.0,395,1279.074651
500.0,310,1286.091737
500.0,239,1291.540953
250.0,242,1296.898493
550.0,307,1303.904881
300.0,201,1308.997861
500.0,365,1317.193641
600.0,371,1326.021139
1050.0,365,1334.019926
350.0,202,1338.534117
700.0,356,1346.177711
300.0,277,1352.332318
700.0,335,1360.030066
400.0,193,1364.099001
500.0,273,1370.284185
450.0,294,1376.855525
550.0,201,1381.418464
450.0,226,1386.302673
850.0,383,1394.476122
450.0,211,1398.854388
350.0,191,1403.451581
950.0,403,1412.262393
350.0,234,1417.615651
300.0,228,1422.745758
650.0,371,1430.507195
600.0,328,1437.661089
400.0,264,1443.602892
400.0,200,1448.372
350.0,206,1452.891149
400.0,269,1458.942941
1200.0,684,1473.980602
900.0,360,1481.654221
650.0,342,1489.688408
700.0,271,1495.793218
1050.0,517,1506.967178
1100.0,485,1517.422804
1200.0,493,1528.3614
700.0,374,1536.999999
400.0,232,1541.775717
1350.0,496,1552.373487
1100.0,526,1564.56416
300.0,282,1571.446934
700.0,372,1579.451062
1250.0,443,1589.25647
400.0,198,1593.369954
1500.0,589,1606.285372
1000.0,405,1615.095069
600.0,386,1623.623967
700.0,350,1631.269327
500.0,255,1636.751033
650.0,325,1643.66614
850.0,447,1653.91753
800.0,350,1661.803396
750.0,374,1669.807509
400.0,207,1674.460996
900.0,436,1684.050319
400.0,275,1690.79198
400.0,240,1696.054318
500.0,306,1703.359254
550.0,273,1709.290175
500.0,235,1714.394541
1100.0,495,1725.062284
700.0,334,1732.335643
950.0,497,1743.464096
650.0,369,1751.745582
500.0,269,1757.823371
650.0,329,1765.156374
400.0,240,1770.249321
600.0,302,1777.10668
1050.0,573,1789.367627
450.0,229,1794.328338
1150.0,511,1805.500898
300.0,211,1810.250983
900.0,388,1818.879271
1100.0,423,1828.014081
900.0,446,1837.704282
750.0,350,1845.51609
1350.0,605,1858.834836
1300.0,546,1870.74774
800.0,471,1880.946339
500.0,242,1886.246778
500.0,238,1891.121049
800.0,492,1902.543286
400.0,310,1909.706929
400.0,194,1913.837094
1300.0,543,1925.454272
900.0,501,1936.564262
650.0,430,1946.41419
1300.0,554,1958.345946
1550.0,797,1976.219605
1150.0,525,1988.542465
600.0,400,1997.225039
800.0,341,2004.806154
650.0,398,2013.644431
600.0,348,2021.392376
600.0,463,2031.351847
1750.0,744,2047.765849
800.0,340,2055.40166
800.0,371,2063.346486
350.0,251,2068.824495
850.0,347,2076.365536
850.0,306,2082.997293
1100.0,499,2094.095337
1100.0,421,2103.124694
1250.0,439,2112.506226
700.0,378,2121.066226
600.0,301,2128.25949
1150.0,478,2138.344058
700.0,407,2147.391623
1000.0,612,2161.062315
1000.0,475,2171.272127
1300.0,608,2184.887699
800.0,434,2194.260715
1250.0,695,2209.984816
950.0,578,2222.378133
1650.0,708,2239.103272
1100.0,516,2250.855723
1200.0,533,2263.093092
1000.0,436,2272.36213
1400.0,572,2284.77701
300.0,221,2289.433605
950.0,411,2298.506295
350.0,223,2303.609399
450.0,240,2309.274501
1050.0,444,2319.091071
1500.0,738,2335.69895
1250.0,611,2349.228875
850.0,339,2356.844735
1250.0,521,2368.198056
1200.0,586,2380.703409
1350.0,602,2393.857988
1350.0,611,2407.440245
700.0,335,2414.685668
800.0,347,2422.606537
750.0,372,2431.068287
1050.0,409,2439.745114
750.0,397,2448.416681
800.0,373,2456.480479
1050.0,397,2465.213649
800.0,282,2471.441337
550.0,302,2478.070389
1150.0,573,2490.597225
500.0,322,2497.822406
1600.0,589,2510.370894
900.0,452,2520.41215
1000.0,431,2529.901021
950.0,465,2540.40126
1300.0,575,2552.835109
1300.0,590,2565.724907
1300.0,513,2577.214222
1600.0,656,2592.716888
550.0,263,2598.635782
1150.0,451,2608.825387
950.0,382,2617.120696
1100.0,447,2626.91665
600.0,305,2633.307603
1100.0,480,2644.057278
1300.0,508,2655.464578
1300.0,580,2668.057007
1600.0,670,2683.38138
1150.0,533,2694.936667
750.0,312,2701.546895
1500.0,628,2715.323146
400.0,281,2721.39793
1100.0,409,2730.243755
650.0,337,2737.756612
500.0,222,2742.945796
1200.0,571,2755.599208
1500.0,781,2773.355498
450.0,250,2779.172185
1450.0,656,2793.177567
1300.0,502,2804.121804
950.0,448,2814.116513
500.0,217,2818.629608
1200.0,502,2829.768641
1100.0,413,2839.298172
850.0,484,2849.467543
600.0,356,2857.390051
1300.0,510,2868.374344
800.0,524,2880.213442
950.0,447,2890.22965
1850.0,671,2904.584097
1350.0,612,2918.078914
1350.0,482,2928.644454
2000.0,680,2944.071089
1100.0,439,2953.585718
1650.0,845,2972.143349
1250.0,513,2983.570555
1200.0,491,2994.570893
850.0,419,3004.189434
700.0,375,3012.293936
1100.0,543,3023.948918
1700.0,678,3038.625055
1650.0,564,3051.585926
1250.0,468,3061.787913
1050.0,410,3070.61414
650.0,366,3078.656891
650.0,318,3086.120277
1150.0,536,3097.678493
850.0,421,3106.75819
1000.0,527,3118.343412
1850.0,820,3136.96032
750.0,313,3143.543976
1250.0,555,3155.390251
650.0,398,3163.939912
1300.0,549,3176.5323
1200.0,477,3186.699299
900.0,436,3196.34102
450.0,283,3202.30447
1200.0,522,3213.655295
1100.0,487,3224.422869
1400.0,667,3239.447915
500.0,289,3245.653593
1100.0,535,3257.12004
1850.0,1050,3280.598437
1050.0,553,3292.407645
600.0,413,3301.273619
1650.0,614,3314.661649
800.0,533,3326.063271
1150.0,513,3337.898253
950.0,459,3348.936612
600.0,319,3355.996628
1150.0,424,3365.065352
450.0,264,3370.732513
500.0,285,3377.136828
900.0,375,3385.29296
250.0,229,3390.078446
1050.0,374,3398.400456
950.0,391,3406.930953
2250.0,1005,3428.711898
1500.0,556,3441.451841
1500.0,594,3454.886111
1900.0,848,3473.939225
1550.0,657,3488.024388
700.0,321,3494.737273
1550.0,583,3507.857082
800.0,397,3517.029633
1400.0,598,3530.405894
1550.0,504,3541.436188
1400.0,615,3554.702697
1050.0,379,3562.870347
1700.0,763,3579.76924
1000.0,435,3590.036162
1650.0,614,3603.603588
1550.0,594,3617.428119
1400.0,596,3630.159942
2000.0,808,3647.800308
1400.0,683,3662.443353
700.0,376,3670.975167
1750.0,652,3685.421494
1050.0,545,3697.642381
1550.0,662,3711.918808
1500.0,641,3726.220002
1100.0,508,3737.489074
250.0,228,3742.381011
1300.0,428,3752.06905
400.0,256,3757.961308
1300.0,609,3771.287946
1900.0,755,3787.671201
1750.0,777,3804.84651
1100.0,444,3814.740031
1600.0,643,3828.919419
1750.0,574,3841.744329
1000.0,369,3850.351976
1400.0,533,3862.168392
1850.0,672,3876.851682
850.0,355,3884.40672
1650.0,596,3898.004364
1950.0,716,3913.855612
700.0,369,3921.911399
1800.0,671,3936.859285
1550.0,682,3951.964363
1800.0,702,3967.53931
1650.0,669,3982.485993
1400.0,586,3995.133837
1500.0,642,4009.09024
1250.0,588,4022.168146
1500.0,618,4036.193496
1050.0,474,4046.278519
700.0,325,4053.460636
1200.0,458,4063.245747
1250.0,555,4075.400275
1650.0,774,4092.904542
1300.0,583,4105.816072
2400.0,897,4125.36821
900.0,445,4135.349848
1800.0,670,4150.29077
1500.0,608,4163.48076
1650.0,614,4176.727942
650.0,545,4188.583259
1250.0,396,4197.358705
1950.0,807,4216.550509
1650.0,573,4229.457879
1650.0,648,4243.915634
1000.0,393,4252.646662
1350.0,478,4263.108517
1650.0,675,4278.416197
1750.0,670,4293.160828
2200.0,804,4310.520907
2000.0,733,4326.827281
1500.0,570,4338.948306
1750.0,631,4353.212429
1600.0,702,4368.76415
1650.0,651,4383.660186
1450.0,590,4396.506105
1550.0,593,4409.278209
1450.0,489,4420.515276
1450.0,575,4432.842708
1550.0,638,4447.082186
1900.0,648,4461.081198
1750.0,673,4475.908137
1850.0,685,4491.090335
500.0,262,4496.792617
800.0,422,4506.135967
1700.0,590,4519.41605
1550.0,596,4532.39451
1650.0,586,4545.324122
1100.0,462,4555.219156
1950.0,720,4571.477061
1900.0,700,4587.237847
1400.0,551,4599.176459
1900.0,662,4613.653489
1750.0,705,4628.858649
1250.0,514,4639.862523
1450.0,581,4653.318291
1350.0,495,4664.265746
1700.0,590,4677.254691
2600.0,980,4699.514687
1750.0,619,4712.928121
1600.0,630,4726.608107
1500.0,542,4738.440974
1200.0,468,4748.639309
2200.0,762,4765.339424
2250.0,816,4783.484356
1100.0,400,4792.023235
600.0,285,4798.276001
2500.0,987,4819.863975
2250.0,899,4839.528423
2350.0,897,4859.195046
1900.0,690,4874.214662
1550.0,554,4886.767587
1950.0,730,4902.55361
1750.0,664,4917.074927
1700.0,712,4932.708036
1200.0,543,4944.644966
2350.0,818,4962.928646
1600.0,604,4976.183859
2000.0,750,4992.359665
1350.0,522,5003.674822
1700.0,617,5017.795107
2300.0,850,5036.426973
1650.0,630,5050.791492
2200.0,759,5067.749868
1550.0,545,5079.197348
2300.0,897,5099.478774
1700.0,711,5115.208003
1300.0,514,5126.228541
1600.0,615,5139.741301
1950.0,742,5156.772272
1500.0,671,5171.726076
2200.0,728,5187.811156
1700.0,641,5202.038536
1350.0,508,5213.1153
1800.0,637,5227.031777
650.0,266,5232.900069
1150.0,668,5247.357461
1550.0,593,5260.575801
2300.0,1044,5283.233809
1300.0,508,5294.696846
1850.0,689,5310.065116
1900.0,692,5325.025875
400.0,285,5331.816791
450.0,277,5338.105299
1300.0,489,5349.223485
2500.0,813,5367.646711
800.0,441,5376.980911
800.0,341,5384.658994
2500.0,968,5405.930847
1850.0,720,5421.937498
1300.0,498,5433.491565
1150.0,419,5442.801534
1900.0,740,5459.00644
2450.0,1068,5482.407422
900.0,381,5490.886157
2600.0,840,5509.510791
2700.0,866,5528.593858
1000.0,438,5537.919266
2250.0,784,5555.266381
950.0,411,5564.075907
2500.0,875,5583.515043
2100.0,679,5598.425073
2200.0,913,5619.144184
1850.0,633,5632.917769
900.0,421,5642.263414
1700.0,632,5656.183561
1750.0,597,5669.220222
550.0,261,5674.957737
1300.0,478,5685.66724
2050.0,743,5702.136748
3000.0,1109,5726.942869
1250.0,520,5738.112213
1250.0,517,5749.278828
2100.0,698,5764.909734
2350.0,781,5781.752907
2200.0,685,5796.734404
1000.0,418,5805.964622
2000.0,687,5821.071253
1350.0,505,5832.125581
450.0,251,5837.470373
1550.0,573,5850.027177
1600.0,617,5864.382592
2200.0,775,5881.69945
1650.0,622,5895.040582
450.0,196,5899.354099
1950.0,727,5915.275434
1550.0,549,5927.749996
1750.0,696,5943.181283
1600.0,498,5953.844323
1050.0,399,5962.581685
2500.0,925,5983.140916
2150.0,709,5998.564992
3100.0,981,6020.233575
1850.0,588,6033.098817
2450.0,823,6051.268959
2150.0,803,6068.955184
2450.0,943,6089.283676
1800.0,635,6103.492344
2100.0,769,6120.565342
2100.0,688,6135.392051
2600.0,1039,6158.603415
1950.0,681,6173.993996
2500.0,947,6195.178288
1700.0,628,6209.414576
1950.0,696,6224.21576
2200.0,725,6240.498149
2800.0,1017,6262.82235
2600.0,858,6281.966931
1100.0,416,6290.987083
2500.0,946,6311.576361
2500.0,849,6330.127561
2000.0,760,6347.307624
1650.0,625,6361.583511
1300.0,686,6376.322896
1750.0,688,6391.54265
2500.0,783,6409.260757
2600.0,775,6425.992404
2900.0,1143,6451.192929
2200.0,709,6467.056082
2700.0,788,6484.112532
700.0,383,6492.444463
1650.0,625,6506.02523
2600.0,940,6526.621698
2900.0,893,6546.422647
2900.0,1075,6570.100089
2200.0,749,6586.20125
2700.0,1123,6611.003685
1750.0,686,6625.915324
2250.0,853,6645.760111
2700.0,1071,6669.154421
1050.0,387,6677.526772
2500.0,945,6699.069503
2700.0,883,6718.441231
1450.0,628,6732.406187
2700.0,973,6753.950374
2000.0,724,6770.134398
2300.0,769,6787.30868
1150.0,436,6797.293437
1450.0,817,6815.153284
2400.0,768,6832.311759
2500.0,954,6853.313573
450.0,244,6858.607442
1950.0,875,6877.907985
2500.0,857,6896.987612
1000.0,392,6906.055177
2200.0,693,6921.201262
2600.0,1080,6944.876487
2600.0,912,6964.744243
2350.0,811,6982.526067
2700.0,913,7003.17382
2500.0,826,7021.336971
2600.0,915,7041.268389
2500.0,869,7061.48297
2700.0,892,7080.761034
2000.0,666,7096.209799
1200.0,690,7111.347424
2300.0,1017,7134.203612
1900.0,742,7150.548974
2700.0,916,7170.553082
2600.0,811,7188.561784
2800.0,879,7208.024025
2500.0,811,7225.368524
2600.0,898,7244.882628
1750.0,681,7259.508043
2800.0,881,7279.724809
2600.0,1055,7302.91015
800.0,601,7316.470378
650.0,417,7325.309777
2500.0,822,7343.964835
2700.0,809,7361.45866
1450.0,477,7372.05709
2700.0,986,7393.05141
2050.0,739,7409.088682
2800.0,914,7430.712249
2800.0,885,7450.166056
2600.0,936,7470.995162
2500.0,909,7490.992093
2600.0,1057,7514.095041
450.0,264,7520.108104
1750.0,805,7537.77656
2500.0,907,7557.943457
2700.0,894,7577.79222
2600.0,913,7598.25495
2500.0,840,7617.107133
1100.0,395,7625.780606
2700.0,845,7645.136816
2800.0,1096,7669.044261
2600.0,815,7686.687907
2500.0,941,7707.516821
2500.0,917,7727.727121
2200.0,862,7747.057361
2600.0,906,7766.733781
2700.0,958,7788.207802
2700.0,933,7808.545569
2700.0,887,7828.825204
2700.0,910,7848.481132
2500.0,805,7866.491349
1700.0,588,7879.408306
2700.0,813,7897.096288
2700.0,1000,7918.711247
1550.0,672,7934.126908
1950.0,622,7947.942199
2600.0,812,7965.841606
2450.0,801,7983.41262
2600.0,822,8001.257951
2700.0,894,8020.890439
2600.0,911,8041.392958
2050.0,741,8057.174364
2000.0,719,8073.274467
1950.0,771,8090.426831
2600.0,823,8108.297935
2500.0,894,8127.681902
1850.0,653,8141.87482
2900.0,929,8162.60224
1050.0,454,8172.403679
1100.0,396,8181.437146
1950.0,766,8198.085391
1900.0,712,8213.950687
2600.0,829,8231.989859
2250.0,732,8248.074347
1900.0,607,8261.375963
1450.0,596,8274.090385
700.0,406,8283.244756
2500.0,925,8304.181791
2150.0,741,8319.955857
1250.0,485,8330.922277
3200.0,1074,8355.300702
2150.0,760,8371.692115
1500.0,537,8383.393403
1450.0,476,8393.775325
650.0,348,8401.60225
550.0,255,8407.419394
2500.0,767,8424.12544
2900.0,1047,8447.175565
500.0,232,8452.428863
2700.0,929,8473.416701
2900.0,840,8491.769573
1150.0,523,8503.783823
2600.0,867,8522.649632
2200.0,679,8537.929988
2700.0,935,8558.62725
2700.0,864,8577.383718
1400.0,548,8589.20858
2250.0,838,8607.733963
2700.0,848,8626.515821
2500.0,794,8644.21342
2500.0,867,8663.450466
1100.0,422,8672.571223
2500.0,764,8689.275695
3300.0,1083,8713.441612
700.0,222,8718.192811
1300.0,621,8731.941254
2700.0,884,8750.941292
3000.0,985,8772.728111
500.0,287,8778.992847
1850.0,664,8793.721303
1500.0,628,8807.36779
2600.0,806,8825.274442
3000.0,968,8846.478554
1700.0,621,8860.117494
2600.0,812,8878.298105
2700.0,829,8896.302778
2500.0,849,8915.012158
2500.0,930,8935.401022
2800.0,910,8955.216032
2500.0,906,8975.150198
2050.0,717,8990.607704
2700.0,866,9010.011711
1850.0,574,9022.632249
2900.0,905,9042.796196
2700.0,847,9061.642405
2700.0,848,9079.927609
2500.0,835,9098.780776
3000.0,1031,9121.58592
1500.0,510,9133.034942
2800.0,896,9152.522951
1800.0,724,9168.556838
2700.0,848,9187.468059
2350.0,801,9204.572951
2700.0,818,9222.926355
2450.0,783,9240.494979
3000.0,1139,9265.322822
2600.0,806,9283.417292
2700.0,830,9302.5149
2700.0,833,9320.793497
2800.0,861,9339.391555
2700.0,887,9358.697787
2500.0,868,9378.229326
1500.0,494,9389.45222
2800.0,872,9408.826308
2700.0,843,9426.896721
850.0,380,9435.034448
2800.0,895,9454.661653
2700.0,946,9474.987568
3100.0,897,9494.744112
2600.0,844,9513.832108
2700.0,846,9532.392553
2500.0,800,9549.699354
400.0,223,9554.50288
2700.0,845,9572.810821
800.0,318,9580.062079
2800.0,810,9597.517563
1250.0,658,9612.137058
2800.0,1017,9634.787393
2600.0,994,9656.893255
3200.0,1141,9682.373091
2700.0,846,9700.697931
1650.0,525,9712.017099
2900.0,972,9733.597962
1300.0,489,9744.211211
2350.0,754,9760.963214
2900.0,845,9778.841155
3100.0,945,9800.222906
3500.0,1052,9823.234631
2600.0,829,9840.983508
2050.0,861,9860.246272
2600.0,792,9877.846511
3100.0,890,9897.081452
2700.0,830,9915.21818
2600.0,805,9933.412387
2700.0,832,9951.375211
1900.0,683,9966.266341
2700.0,832,9984.988559
1800.0,646,9999.622874
2700.0,801,10016.967869
1900.0,640,10031.096199
3000.0,898,10050.853813
2600.0,821,10069.724141
2900.0,872,10088.210452
3000.0,892,10108.56881
3100.0,827,10126.985059
1550.0,508,10138.489636
2800.0,817,10155.966781
2600.0,760,10173.119859
1550.0,717,10189.267763
2900.0,860,10207.5732
2700.0,834,10225.937226
3200.0,1014,10249.010374
2900.0,866,10267.944119
1700.0,571,10280.107593
2900.0,903,10300.269497
1550.0,606,10313.740886
2600.0,790,10331.727635
3000.0,868,10351.157222
2800.0,902,10370.935294
2800.0,934,10390.990182
800.0,284,10397.049562
2700.0,831,10415.20087
2300.0,842,10433.786478
3300.0,886,10453.235796
1500.0,520,10464.657508
750.0,432,10474.40688
3600.0,969,10496.103551
2500.0,825,10514.268181
3000.0,796,10531.668277
3300.0,935,10551.962294
2900.0,855,10571.065137
1850.0,636,10584.985603
2800.0,828,10602.745377
2450.0,910,10623.478003
1600.0,606,10637.557869
3000.0,834,10656.296932
3000.0,901,10676.191003
2800.0,854,10695.443403
2000.0,738,10711.410834
3000.0,973,10733.237521
1900.0,645,10747.122546
2500.0,790,10765.128375
2800.0,822,10783.671141
2800.0,856,10802.22508
2250.0,772,10819.908227
3400.0,997,10842.236235
2200.0,801,10860.867723
3000.0,900,10881.08446
2800.0,825,10898.916866
1850.0,744,10915.355096
1950.0,775,10932.220399
2700.0,860,10951.09938
3000.0,967,10972.55037
950.0,408,10981.135293
2700.0,920,11001.903808
3100.0,896,11021.596279
2600.0,783,11038.481323
850.0,343,11045.777642
2900.0,872,11065.23639
2800.0,881,11084.836972
3000.0,903,11104.592879
2800.0,908,11124.132676
2800.0,898,11144.164705
3000.0,896,11165.264101
2600.0,792,11182.697553
2050.0,733,11199.183383
3100.0,912,11219.19046
3300.0,942,11239.841347
3000.0,882,11259.485076
2500.0,895,11279.45005
2900.0,832,11298.394472
2300.0,714,11313.614352
400.0,224,11318.519899
2150.0,755,11335.208734
1750.0,569,11347.349521
2350.0,814,11365.804651
2100.0,716,11381.558695
3200.0,909,11401.121762
2600.0,815,11419.40086
2700.0,830,11437.364006
2500.0,874,11456.758274
3000.0,880,11476.01772
2600.0,908,11496.133205
2100.0,908,11517.145953
1350.0,591,11529.930377
2350.0,806,11547.866337
2350.0,696,11562.971585
2800.0,863,11581.729
2900.0,819,11600.037508
550.0,293,11606.748073
3100.0,877,11626.14472
3000.0,896,11646.002361
2050.0,695,11661.214541
2700.0,834,11679.532519
2900.0,834,11698.046192
2800.0,860,11717.301978
2400.0,736,11733.030564
2600.0,848,11751.938967
2800.0,827,11770.839839
2900.0,805,11788.654062
3000.0,968,11809.827602
2900.0,803,11827.846008
3200.0,846,11847.017305
1450.0,548,11859.081032
2900.0,843,11877.547084
3400.0,959,11898.436341
2700.0,794,11916.383489
2300.0,782,11933.431215
2500.0,834,11952.689937
2900.0,882,11972.082839
2450.0,782,11989.132414
2500.0,800,12007.046847
1800.0,604,12020.367881
1050.0,374,12029.00199
2600.0,838,12047.461278
3400.0,939,12068.277321
3200.0,899,12088.013688
2800.0,846,12106.727133
3300.0,931,12127.177232
2200.0,822,12145.075144
3000.0,843,12164.292094
3100.0,840,12182.714411
3100.0,895,12202.31573
3000.0,798,12219.752673
3300.0,929,12240.032252
3200.0,828,12258.310759
3100.0,915,12278.244433
3400.0,910,12298.032948
2800.0,860,12317.211878
3800.0,945,12337.761917
3100.0,904,12357.945991
3000.0,949,12378.680877
3800.0,967,12399.493612
2250.0,722,12415.800558
3300.0,931,12436.072161
2800.0,996,12458.668609
2800.0,811,12476.320962
950.0,478,12486.933219
3000.0,791,12504.222373
2800.0,917,12523.935113
3200.0,840,12543.025705
3300.0,1040,12565.932847
4400.0,1050,12588.604743
3200.0,964,12609.619036
3500.0,903,12629.52766
3900.0,911,12649.632561
3000.0,862,12668.368085
3500.0,1031,12690.90145
3300.0,840,12709.504995
2300.0,814,12728.73554
1950.0,728,12744.69161
2500.0,804,12762.346012
2700.0,862,12781.691168
3200.0,906,12801.820498
2500.0,846,12820.099733
2800.0,808,12837.646827
1800.0,715,12853.695465
3300.0,893,12874.295617
3500.0,935,12894.399467
1700.0,570,12906.626208
2700.0,823,12925.033447
4000.0,1015,12947.16081
2900.0,912,12967.284653
2900.0,838,12985.280885
3300.0,811,13003.187937
1700.0,579,13016.343383
2900.0,815,13035.48978
2900.0,902,13055.327715
2700.0,847,13073.686629
2900.0,922,13093.469703
3000.0,889,13113.188218
3100.0,929,13134.435931
2800.0,797,13151.62062
2100.0,714,13167.073738
3200.0,834,13185.718059
1550.0,561,13197.796237
3600.0,878,13217.032356
3300.0,823,13235.014583
1500.0,481,13245.341116
2900.0,793,13262.461355
3300.0,980,13283.817597
2800.0,840,13303.044616
3700.0,965,13324.794771
3200.0,841,13343.14859
3200.0,835,13362.013068
2700.0,791,13379.513714
3100.0,821,13398.16033
2800.0,833,13416.432536
3200.0,839,13435.024582
1300.0,493,13445.862538
3400.0,948,13467.175349
950.0,414,13476.602017
2900.0,827,13494.537675
1950.0,686,13509.48662
3000.0,800,13527.509985
2900.0,862,13546.105129
2800.0,824,13564.401657
2900.0,823,13582.733528
2150.0,771,13599.94769
2800.0,863,13619.470869
3000.0,832,13637.782468
2350.0,768,13655.662892
2050.0,814,13673.34789
3500.0,841,13692.020222
2700.0,792,13710.254044
3300.0,897,13730.276449
2600.0,867,13749.279626
3400.0,943,13769.726667
3100.0,936,13790.166078
3500.0,954,13811.706603
2150.0,866,13830.415869
3100.0,795,13847.673499
3700.0,1014,13870.796175
2100.0,675,13885.306697
3100.0,914,13905.205796
2300.0,689,13920.591998
3500.0,964,13941.599739
3200.0,1071,13965.685679
3400.0,900,13985.601392
3700.0,940,14006.75602
3500.0,1034,14029.860847
3100.0,875,14049.24266
3500.0,863,14067.689965
3100.0,805,14085.574904
3200.0,841,14103.683
3500.0,945,14124.655016
1100.0,464,14134.408581
3300.0,940,14155.187612
4500.0,1038,14178.004107
1550.0,572,14190.32867
2000.0,688,14205.33782
3300.0,916,14225.851144
4100.0,1047,14249.006436
1900.0,629,14262.996152
2300.0,790,14279.977633
2900.0,919,14299.870997
3600.0,912,14320.228238
2800.0,798,14337.621787
1800.0,724,14353.875847
2500.0,843,14372.653489
3700.0,938,14393.067092
3100.0,911,14412.878002
3000.0,804,14430.96266
1900.0,739,14447.219079
3200.0,843,14465.506673
3100.0,833,14483.88232
3500.0,866,14502.756998
3000.0,819,14520.67972
2800.0,870,14540.253665
2600.0,809,14557.833209
2400.0,715,14573.250861
2300.0,734,14589.703979
2900.0,841,14608.258323
2800.0,971,14629.390744
3100.0,795,14647.47815
2800.0,843,14665.69458
2700.0,865,14685.030822
3500.0,838,14703.192236
3800.0,943,14724.147607
3100.0,803,14741.495242
2500.0,1072,14765.429808
3100.0,821,14783.164439
3600.0,1012,14806.685266
1950.0,749,14822.855592
3200.0,808,14840.726858
3200.0,881,14860.193275
2700.0,839,14879.15332
2800.0,798,14896.804267
2500.0,818,14914.428199
1050.0,428,14923.70494
3900.0,940,14945.303546
3000.0,828,14963.070505
3300.0,963,14984.711925
3500.0,846,15002.965261
2250.0,737,15019.166893
3600.0,875,15038.570619
3500.0,835,15056.540174
2200.0,726,15072.560887
3700.0,986,15094.692321
2700.0,927,15114.824541
3400.0,843,15133.727389
4000.0,944,15155.261374
2600.0,810,15173.103891
1500.0,531,15184.423456
3600.0,1035,15207.687887
4500.0,1009,15230.84879
3900.0,938,15250.767177
4100.0,984,15272.818059
2900.0,839,15291.653173
3300.0,901,15311.338087
3100.0,861,15329.942127
4500.0,1059,15353.989366
3000.0,835,15371.797496
3500.0,938,15392.728669
3600.0,848,15411.456147
3300.0,842,15430.179911
3400.0,878,15449.034387
3600.0,840,15467.644657
3800.0,958,15488.549776
3400.0,971,15510.447972
2600.0,908,15530.527582
3200.0,862,15549.523606
1350.0,538,15562.021408
3200.0,836,15580.406989
4500.0,1013,15604.006485
3200.0,842,15622.18676
2800.0,810,15639.888945
3300.0,838,15658.369797
3400.0,866,15677.738814
3400.0,888,15697.124074
3500.0,935,15717.806384
2700.0,827,15736.018736
3300.0,864,15754.780725
3200.0,940,15775.476031
3400.0,914,15795.922074
2250.0,767,15812.478521
1950.0,708,15828.265819
3800.0,907,15848.072192
2800.0,925,15868.580924
3800.0,960,15889.818707
2600.0,863,15908.38886
2600.0,837,15927.121458
2900.0,945,15947.873922
3500.0,842,15966.621181
2800.0,847,15985.501096
4300.0,1007,16007.287416
2400.0,879,16026.383727
4000.0,950,16047.669066
4400.0,1088,16071.266156
4000.0,913,16091.025442
4300.0,1022,16113.4054
3000.0,822,16131.497747
3300.0,811,16149.018227
3000.0,852,16168.749877
2900.0,802,16186.415738
2450.0,807,16203.838792
4000.0,1039,16226.267275
3300.0,956,16248.012723
4100.0,1014,16270.185818
3300.0,899,16289.691856
3800.0,915,16309.976954
2700.0,830,16327.834226
4700.0,1042,16350.622956
3300.0,902,16370.538349
2900.0,831,16389.521721
3600.0,903,16408.765211
3400.0,877,16428.179362
3600.0,1070,16451.960318
3500.0,1055,16475.261168
3000.0,786,16492.743817
3100.0,820,16511.881974
3600.0,912,16531.974872
2200.0,715,16547.559753
2800.0,825,16565.569653
2700.0,863,16585.109204
3600.0,847,16603.290411
3600.0,932,16623.401827
2400.0,796,16640.882637
2600.0,823,16659.074355
2700.0,765,16675.571212
3400.0,850,16694.484134
3100.0,836,16712.565021
900.0,447,16722.254099
4200.0,1017,16745.096474
4100.0,982,16766.711747
5400.0,1205,16793.076508
3600.0,887,16812.777388
2700.0,954,16833.705127
3500.0,941,16854.315391
3200.0,887,16873.632376
3300.0,842,16892.129976
3200.0,852,16910.674393
1000.0,315,16918.342406
4200.0,954,16939.05576
2800.0,829,16957.297849
2900.0,830,16975.175581
4000.0,896,16994.89724
2050.0,917,17014.939555
5400.0,1140,17040.386727
3500.0,864,17059.50313
4000.0,944,17079.886791
1500.0,570,17092.699589
4000.0,890,17112.268783
4800.0,1080,17136.566762
1300.0,447,17146.613047
3600.0,921,17166.835156
1300.0,491,17177.450614
2050.0,711,17192.836407
3400.0,954,17214.280002
3200.0,881,17233.954669
4700.0,1061,17256.783331
1750.0,678,17271.539619
4300.0,1022,17294.062511
3100.0,853,17313.030616
3100.0,911,17334.090168
650.0,297,17340.65411
2900.0,945,17360.993253
3700.0,948,17381.828042
1750.0,628,17396.070346
3000.0,893,17415.584951
1100.0,400,17424.154861
3200.0,889,17444.552952
3900.0,914,17464.728819
4200.0,989,17486.58132
5000.0,1175,17512.774506
4200.0,944,17533.425159
1000.0,374,17541.589444
2200.0,724,17557.704724
1500.0,561,17570.576854
3300.0,931,17590.875387
3000.0,885,17610.363836
3300.0,885,17630.488429
3200.0,979,17652.092858
4500.0,1052,17675.067446
2500.0,825,17693.418417
3500.0,915,17713.353716
2200.0,744,17729.564832
3200.0,976,17752.004944
2700.0,830,17769.74212
5300.0,1225,17796.483645
3600.0,888,17816.078516
4100.0,955,17837.009728
2900.0,810,17855.560956
3100.0,807,17873.279901
2100.0,798,17890.689543
4700.0,1027,17912.823561
3100.0,824,17930.912968
1550.0,555,17942.91685
2700.0,835,17962.115883
1450.0,589,17975.2028
3000.0,813,17992.900757
3100.0,962,18014.257946
2900.0,863,18033.898526
4600.0,1004,18055.568901
4600.0,983,18077.515142
3800.0,997,18099.519395
3500.0,1013,18122.188594
1300.0,446,18131.613307
4300.0,1016,18153.826866
3300.0,886,18173.95038
3700.0,925,18194.327806
2700.0,843,18213.19973
3500.0,982,18234.661956
3900.0,1016,18257.150702
1450.0,639,18271.346492
5600.0,1116,18295.469165
2250.0,773,18312.750001
3600.0,929,18332.731376
3400.0,932,18354.536179
2900.0,892,18373.591865
6000.0,1153,18399.126474
3400.0,950,18420.448183
4200.0,1050,18443.318769
5500.0,1138,18468.315332
2400.0,804,18485.550689
3200.0,880,18505.065829
3300.0,884,18524.545612
3900.0,983,18546.256223
3200.0,1109,18570.125885
2800.0,941,18590.973403
4600.0,1040,18613.559177
4600.0,990,18635.169189
4500.0,1052,18658.958105
3200.0,845,18676.996571
5400.0,1167,18702.755043
3000.0,847,18722.095327
3700.0,1004,18743.759606
3100.0,878,18763.019246
2800.0,831,18781.236238
3000.0,982,18803.008401
4700.0,1059,18826.62195
2800.0,860,18845.608832
3800.0,880,18864.577606
3900.0,993,18886.015679
4500.0,960,18907.309246
3900.0,890,18927.054192
6200.0,1291,18955.286361
6400.0,1252,18982.8031
4500.0,1014,19004.45358
5000.0,1083,19029.180446
2200.0,808,19046.444376
3400.0,828,19064.861095
3500.0,890,19084.053711
5500.0,1088,19108.204295
3500.0,826,19127.060641
2450.0,839,19146.072818
5800.0,1148,19170.828318
4900.0,1243,19198.207777
3100.0,840,19217.13193
5700.0,1196,19243.368928
4200.0,980,19264.517613
5100.0,1012,19287.06829
3800.0,984,19308.371125
1200.0,532,19320.276013
4700.0,980,19342.939999
5200.0,1052,19366.122328
2450.0,807,19383.544626
5200.0,1055,19407.136393
4500.0,988,19429.12376
5300.0,1049,19452.209097
4600.0,1097,19476.892806
3600.0,933,19497.927036
6700.0,1247,19524.874702
3200.0,795,19542.514119
3100.0,846,19561.920377
2250.0,678,19576.341237
5700.0,1246,19604.094499
6600.0,1290,19632.271456
3800.0,973,19653.743151
4100.0,940,19674.850488
4600.0,1017,19697.059626
3400.0,899,19717.119376
2700.0,871,19736.308767
1250.0,512,19747.555537
3500.0,861,19766.595969
2700.0,829,19784.880391
2900.0,803,19802.406191
1750.0,754,19819.464317
4700.0,982,19840.891434
4300.0,951,19862.363448
5300.0,1133,19887.354056
3200.0,932,19908.331324
6200.0,1121,19932.82332
3200.0,808,19950.412789
3300.0,839,19968.74483
4400.0,980,19990.726195
3500.0,906,20010.702564
5200.0,1014,20032.854904
5800.0,1155,20058.263208
4000.0,986,20079.948265
2000.0,685,20095.171701
4500.0,1040,20118.44299
4100.0,969,20139.417068
2900.0,810,20157.472003
2250.0,683,20173.040338
2700.0,831,20191.468703
5100.0,1034,20214.753472
3300.0,1020,20237.122025
3100.0,867,20255.881778
3200.0,841,20275.379733
3600.0,1033,20297.860889
3900.0,931,20318.846766
4000.0,951,20339.780647
3200.0,846,20358.552906
3600.0,897,20378.58573
2700.0,843,20397.056865
3100.0,878,20416.357124
5100.0,1067,20439.636607
5200.0,1008,20461.766675
6500.0,1277,20489.393199
1850.0,708,20504.71981
3800.0,861,20524.150219
3800.0,988,20546.221814
4100.0,983,20568.09518
5700.0,1145,20593.280482
3200.0,907,20613.03482
4200.0,1077,20637.435778
5300.0,1081,20661.474198
3800.0,908,20682.097212
3700.0,936,20702.745133
3000.0,794,20719.828885
3700.0,978,20741.526341
5100.0,1123,20766.162933
4200.0,970,20787.129016
6000.0,1118,20812.206873
4200.0,1015,20834.16054
5000.0,1013,20856.189615
3200.0,808,20874.036275
5000.0,986,20895.133286
6200.0,1121,20919.904174
4800.0,947,20940.445962
3200.0,836,20958.708326
5500.0,1063,20982.636438
3000.0,937,21004.231869
5600.0,1169,21030.427366
4000.0,1005,21053.212251
2050.0,748,21069.487631
3500.0,916,21090.119765
6300.0,1155,21115.663
4400.0,1015,21138.494503
5400.0,1083,21162.608717
2900.0,894,21182.068929
5000.0,1018,21205.225093
5200.0,1053,21228.701067
4900.0,1049,21251.360475
3700.0,916,21271.214813
4900.0,1073,21295.382174
3700.0,877,21314.195036
4500.0,946,21335.478291
3200.0,945,21355.779345
4500.0,1011,21378.182919
3300.0,903,21398.479798
5800.0,1151,21423.771307
4000.0,983,21445.333776
2250.0,994,21467.098886
3500.0,846,21485.429904
6300.0,1192,21512.027659
3700.0,861,21530.804692
4800.0,1080,21554.79539
6100.0,1143,21580.676068
5700.0,1133,21605.455818
3900.0,908,21625.109663
6200.0,1149,21650.542378
3300.0,868,21669.828252
4600.0,1247,21697.540678
6500.0,1343,21726.784497
2800.0,843,21745.522667
5600.0,1185,21771.416143
3700.0,878,21790.860554
900.0,418,21799.854209
2900.0,810,21817.597256
6500.0,1253,21845.48046
2500.0,868,21864.79836
3800.0,930,21885.226799
1200.0,571,21897.902273
5600.0,1151,21923.434912
3300.0,1014,21946.436731
5000.0,1014,21968.755304
4500.0,1049,21992.00166
1450.0,522,22003.223167
2700.0,850,22021.744241
5700.0,1217,22048.785819
3400.0,948,22069.357848
6000.0,1137,22094.294688
1700.0,619,22107.768028
5200.0,1147,22132.95516
5000.0,1014,22154.770965
3900.0,1121,22179.617952
3100.0,925,22199.872559
6400.0,1274,22227.441981
3900.0,936,22247.930593
3100.0,838,22266.140258
4600.0,931,22286.329643
4400.0,979,22308.009117
4400.0,926,22328.115015
2700.0,941,22349.115163
3200.0,834,22367.385162
3600.0,898,22386.932334
3700.0,969,22407.694391
400.0,227,22412.659899
4800.0,1039,22435.432016
6000.0,1284,22464.265193
6600.0,1187,22490.221559
2700.0,812,22508.003072
3800.0,928,22528.249472
4800.0,1112,22552.52221
3600.0,874,22572.091304
3700.0,1055,22595.727619
5700.0,1223,22622.271431
5100.0,1012,22644.921001
3100.0,989,22666.697975
5400.0,1122,22690.938108
3200.0,924,22711.146294
5000.0,1150,22737.333164
2700.0,1012,22759.174318
6600.0,1315,22787.841859
3900.0,968,22809.312108
3800.0,926,22829.502702
4600.0,1012,22852.29498
6800.0,1252,22879.777464
3600.0,845,22898.239169
2700.0,851,22916.518071
5800.0,1319,22947.086844
2900.0,941,22967.34053
3100.0,874,22986.707405
1950.0,783,23004.285306
4400.0,971,23025.426814
2600.0,881,23044.556792
1950.0,619,23058.545032
4900.0,1011,23081.059
3800.0,952,23101.711483
5700.0,1137,23126.481791
6200.0,1151,23151.661499
3700.0,911,23172.075977
5000.0,1081,23195.612223
4200.0,999,23218.170499
5600.0,1150,23243.562964
1700.0,507,23254.111781
2800.0,1023,23276.645246
3500.0,974,23298.389621
1150.0,568,23311.237886
4200.0,980,23333.192336
2350.0,753,23349.609374
3900.0,995,23371.9679
3400.0,910,23391.913259
4500.0,939,23412.195652
3200.0,780,23429.170891
3100.0,846,23447.825531
4500.0,942,23469.070436
7200.0,1355,23498.839627
6300.0,1208,23525.594042
3300.0,901,23545.614215
3900.0,963,23567.097341
3300.0,910,23586.926562
2900.0,939,23607.444106
3200.0,810,23625.007102
3600.0,993,23646.650986
6900.0,1183,23672.776085
2500.0,835,23691.020392
2900.0,934,23711.340157
3300.0,812,23730.247646
6500.0,1207,23756.274373
3100.0,850,23775.148788
6000.0,1214,23802.38661
2700.0,966,23823.518883
7000.0,1289,23851.688014
4500.0,996,23873.618327
2700.0,851,23892.700904
4900.0,1040,23915.2116
5500.0,1155,23940.766985
4400.0,1053,23963.581974
5500.0,1209,23990.323665
4700.0,1047,24013.641083
5100.0,1043,24036.641916
6100.0,1215,24063.646589
6600.0,1177,24089.201113
4000.0,985,24111.432882
7000.0,1259,24139.362725
3200.0,845,24158.275762
3400.0,841,24176.344471
4000.0,1017,24199.066216
2800.0,819,24217.743081
6000.0,1206,24244.052354
5900.0,1220,24270.920486
3600.0,967,24291.758792
5400.0,1077,24315.180139
6800.0,1441,24347.252125
5900.0,1181,24373.198054
6600.0,1399,24404.082737
3400.0,938,24425.07723
4300.0,1139,24449.739492
5100.0,1184,24476.186407
3400.0,986,24497.499935
3700.0,904,24517.720599
4700.0,1014,24540.109946
4400.0,1011,24562.622934
4800.0,1050,24585.721157
6800.0,1288,24614.322027
5500.0,1155,24639.40111
5100.0,1054,24662.427612
5700.0,1087,24687.099384
3900.0,946,24708.509733
4100.0,977,24729.986048
5000.0,1085,24753.315998
4000.0,1117,24777.914866
4400.0,1004,24800.284149
4300.0,992,24822.479435
5100.0,1008,24844.65598
6400.0,1149,24870.119132
4600.0,1122,24894.902638
7400.0,1248,24922.473674
5800.0,1222,24948.955944
5000.0,1020,24971.218463
4700.0,1027,24994.662307
6300.0,1290,25023.00137
6600.0,1178,25048.841975
3000.0,848,25067.200729
5900.0,1108,25091.901621
7300.0,1327,25121.250143
4400.0,983,25142.499417
7100.0,1278,25171.863685
4800.0,1136,25197.021095
3000.0,982,25218.464704
7000.0,1257,25246.712067
6000.0,1190,25273.014762
8300.0,1334,25303.177147
7900.0,1375,25334.089072
8500.0,1420,25365.070798
7900.0,1400,25396.343526
7200.0,1252,25423.637049
6300.0,1410,25454.812088
4100.0,956,25475.659773
4200.0,1089,25499.745145
5300.0,1141,25525.311969
4000.0,1041,25548.198152
3200.0,899,25567.498219
2900.0,822,25585.568965
7200.0,1336,25614.481246
3100.0,885,25634.441394
4000.0,1065,25657.457031
6100.0,1148,25682.570598
6200.0,1224,25710.431103
3300.0,884,25730.062493
6300.0,1182,25755.606647
5400.0,1253,25783.643023
6300.0,1151,25808.532364
2900.0,816,25826.050103
4800.0,1079,25849.624688
4200.0,970,25871.242226
2900.0,879,25890.446059
3200.0,855,25909.171292
6900.0,1439,25940.973767
4700.0,1138,25966.064464
7400.0,1327,25995.315833
5000.0,1051,26017.971666
7100.0,1424,26049.429334
5000.0,1152,26074.626292
5000.0,1005,26096.85034
4000.0,944,26117.434999
6400.0,1150,26142.40829
2250.0,718,26158.371017
4600.0,1012,26180.696407
7900.0,1342,26210.058465
4300.0,1015,26232.488936
4400.0,1037,26255.151538
3500.0,886,26275.208901
5200.0,1137,26300.423533
5700.0,1081,26324.800726
6900.0,1294,26353.302088
6800.0,1270,26381.543001
4000.0,965,26402.938668
5900.0,1083,26426.836133
6300.0,1288,26455.10269
5300.0,1080,26479.171288
5400.0,1151,26504.035902
6700.0,1325,26533.124053
4000.0,1017,26556.19007
4200.0,956,26577.048537
7900.0,1273,26605.146628
6400.0,1155,26630.193966
3600.0,899,26650.175684
8700.0,1565,26684.649541
6700.0,1116,26709.671404
5300.0,1109,26733.566072
5100.0,1225,26761.464762
5700.0,1134,26787.335556
7500.0,1392,26817.612177
6100.0,1245,26845.324099
8900.0,1375,26875.093568
4700.0,1020,26898.526943
8700.0,1445,26930.095479
5700.0,1222,26957.237122
5900.0,1230,26984.937332
5200.0,1055,27007.776165
4500.0,1119,27032.573582
5600.0,1176,27058.607855
5000.0,1012,27080.995314
2500.0,817,27099.322284
4500.0,966,27120.097069
3400.0,883,27139.928391
7900.0,1320,27168.928864
6400.0,1146,27193.953049
4000.0,949,27214.929467
7300.0,1432,27245.950366
4700.0,1138,27271.065093
4800.0,1108,27294.821305
8500.0,1396,27325.132775
2700.0,873,27344.544156
8100.0,1317,27373.27933
7500.0,1449,27405.178128
4200.0,941,27425.687615
5900.0,1115,27451.143545
4400.0,1053,27473.984481
500.0,223,27478.899425
6400.0,1151,27504.001439
4300.0,935,27524.320966
2400.0,816,27542.039483
5000.0,1018,27564.945768
5900.0,1081,27588.790687
7400.0,1391,27618.914214
4200.0,875,27637.771347
5200.0,1024,27660.65585
2800.0,829,27678.874418
