# {"t_start": 1546716466.0923467, "env_id": "AtlantisNoFrameskip-v4"} 
r,l,t
9500.0,1092,31.025223
16800.0,1089,54.967911
13500.0,1318,83.925561
16800.0,1442,115.473486
17200.0,1291,143.886744
12200.0,974,165.133218
12700.0,918,185.835923
14500.0,1376,215.711643
17000.0,1088,239.824299
39700.0,1931,282.775197
18300.0,1469,315.715145
21200.0,1230,342.370985
22300.0,1532,376.965708
37300.0,1914,419.587061
10500.0,785,437.393835
18100.0,1555,472.870137
29700.0,2026,519.474234
35400.0,2368,572.470041
17600.0,1492,606.325456
17900.0,1675,643.842773
25500.0,1911,686.336385
37500.0,2027,730.978775
47500.0,2635,790.401802
15500.0,1643,827.288291
37500.0,2369,880.430891
27200.0,2028,926.111511
37500.0,2505,981.665433
19600.0,1659,1018.568565
26900.0,1888,1060.932053
30000.0,1508,1094.166953
42700.0,2365,1145.970534
49000.0,2787,1209.523735
38600.0,2390,1263.217544
61800.0,3282,1336.541498
46700.0,2090,1383.879349
47600.0,2569,1440.881732
64400.0,3434,1516.065708
85900.0,4727,1621.961639
98600.0,5128,1734.964203
127400.0,5088,1848.229877
77200.0,3546,1928.754838
69500.0,3186,1999.060316
81800.0,3976,2088.574497
101400.0,4318,2187.199474
157300.0,7244,2349.786988
26400.0,1969,2394.104191
43000.0,2667,2454.642461
99300.0,5524,2578.954816
98200.0,4506,2678.991229
155400.0,6854,2832.831484
87300.0,3548,2913.271972
59400.0,2870,2978.136514
3097100.0,99995,5239.45424
12600.0,1264,5268.565133
53100.0,3316,5344.214168
22600.0,1555,5378.297874
3278600.0,99998,7639.296489
26400.0,1580,7675.007345
43100.0,2375,7727.346213
3147800.0,99994,9992.297461
3357100.0,99999,12251.808305
2859200.0,99997,14502.457115
3015600.0,99998,16763.698962
3027200.0,99998,19027.936204
2883000.0,100000,21292.762043
2993600.0,99995,23560.671166
2857100.0,99996,25824.62792
2979000.0,99999,28028.558113
