# {"t_start": 1546716468.507821, "env_id": "AtlantisNoFrameskip-v4"} 
r,l,t
12400.0,1423,38.640998
25700.0,1810,78.243243
20900.0,1789,117.744189
13700.0,1229,144.984441
14500.0,1278,173.084383
14300.0,1109,197.570686
9500.0,829,215.488965
20300.0,1269,243.72148
14400.0,1127,268.514269
30000.0,1887,310.893452
22800.0,1739,349.640398
18600.0,1578,384.566198
18400.0,1062,407.790548
10300.0,996,430.789392
32300.0,1962,475.564203
21000.0,1487,509.598062
14900.0,1543,544.423409
35000.0,2092,591.214342
38600.0,2057,637.753212
12100.0,834,655.922735
16800.0,1692,693.482865
51400.0,2625,751.247996
26400.0,1567,787.135952
15600.0,1611,823.591294
54200.0,3353,898.816299
29300.0,1874,940.893651
49500.0,2663,1000.094835
38400.0,2198,1049.25044
46000.0,2779,1110.32271
52200.0,3049,1178.410621
37500.0,2187,1228.301161
49300.0,2567,1285.474256
51500.0,2820,1348.658914
59900.0,2796,1411.817793
64700.0,3784,1495.229396
95400.0,4896,1604.565067
88900.0,4725,1708.540826
62400.0,3925,1796.148509
72600.0,3335,1870.71712
102800.0,4530,1972.869792
162600.0,6276,2112.976282
108800.0,5362,2235.269976
169400.0,7744,2409.722873
56300.0,3232,2482.83622
85600.0,4056,2573.368485
62700.0,3071,2641.81187
83500.0,3842,2726.932109
121800.0,5239,2845.540652
128200.0,6059,2982.375654
80300.0,3645,3065.584126
170100.0,6766,3215.862979
227200.0,8850,3412.655179
3211400.0,99997,5680.523862
187100.0,8239,5864.345841
3276800.0,99993,8120.792438
3280700.0,99996,10389.676624
3333600.0,99997,12645.518228
2967300.0,99999,14903.107737
3018300.0,99997,17168.177686
2708700.0,99996,19431.147741
2929100.0,99998,21692.052381
2907900.0,99999,23959.183485
2865000.0,99997,26226.186127
