# {"t_start": 1547320402.4725497, "env_id": "AlienNoFrameskip-v4"} 
r,l,t260.0,556,15.567115
220.0,505,26.086651
120.0,439,35.427473
240.0,705,52.1098
390.0,906,75.94993
270.0,738,98.271954
240.0,602,119.509189
260.0,727,148.759721
280.0,741,179.692196
370.0,787,212.424063
220.0,747,241.811609
370.0,623,267.614491
340.0,742,297.428794
210.0,489,317.7171
310.0,537,340.733664
310.0,535,366.27032
230.0,784,403.80283
350.0,714,439.292581
270.0,488,463.176914
280.0,477,487.188955
380.0,852,528.727096
330.0,740,563.342742
270.0,615,590.103876
340.0,651,621.011368
470.0,745,657.129099
290.0,480,679.443563
280.0,522,702.747371
350.0,670,734.177154
310.0,568,760.691749
300.0,594,790.705758
300.0,545,816.708323
370.0,904,862.994532
330.0,596,891.35332
220.0,559,916.858613
350.0,592,945.231711
280.0,540,971.162593
300.0,629,1001.505902
350.0,576,1029.973426
350.0,539,1056.881316
260.0,546,1082.51689
340.0,516,1107.811843
310.0,531,1132.800752
310.0,563,1159.692243
260.0,449,1182.361431
190.0,496,1206.049204
270.0,570,1234.602538
200.0,548,1261.540024
180.0,492,1286.189228
360.0,811,1326.201195
320.0,664,1357.947782
340.0,507,1382.702374
420.0,928,1427.36428
200.0,475,1451.898607
900.0,812,1488.996068
370.0,775,1526.876854
230.0,511,1551.046566
400.0,585,1579.607344
290.0,612,1609.293773
180.0,626,1639.42767
260.0,676,1671.662086
350.0,619,1700.702513
330.0,720,1734.051015
220.0,588,1761.954409
220.0,650,1793.185256
360.0,570,1821.492787
210.0,597,1848.993631
190.0,593,1875.925565
270.0,547,1902.430753
260.0,494,1925.610653
240.0,606,1956.609986
250.0,695,1991.748019
260.0,489,2016.665117
320.0,468,2039.001462
350.0,531,2064.289873
280.0,543,2089.169216
330.0,538,2113.792365
350.0,702,2149.662121
350.0,600,2179.681677
340.0,655,2211.285149
260.0,743,2246.555872
450.0,663,2278.48332
460.0,673,2309.49001
460.0,633,2339.045877
290.0,529,2363.152491
350.0,525,2387.340251
360.0,605,2414.229535
250.0,600,2442.741616
330.0,484,2465.862762
250.0,694,2499.269532
360.0,553,2526.127195
250.0,510,2549.426955
300.0,615,2580.436133
330.0,610,2610.469628
230.0,786,2646.854965
340.0,564,2672.920629
320.0,508,2696.061013
320.0,576,2723.40283
210.0,670,2754.113872
330.0,642,2785.243603
410.0,564,2812.563762
400.0,572,2841.30172
380.0,550,2868.894939
390.0,555,2894.792849
380.0,501,2917.783368
390.0,678,2947.86362
560.0,887,2992.208461
290.0,466,3015.355701
340.0,611,3045.83334
410.0,605,3075.549771
390.0,758,3113.857779
410.0,577,3143.054983
470.0,678,3174.676528
950.0,783,3214.953123
290.0,605,3245.029834
250.0,562,3271.951124
1950.0,682,3305.563756
410.0,679,3339.981329
530.0,774,3375.242527
430.0,663,3408.334596
590.0,858,3452.322484
390.0,757,3488.834442
940.0,787,3527.994815
410.0,615,3555.723559
380.0,744,3593.195901
420.0,1049,3642.03046
450.0,663,3673.615284
300.0,566,3700.228774
470.0,829,3739.454352
360.0,601,3768.285554
540.0,719,3801.532445
490.0,845,3842.497482
320.0,576,3871.458033
410.0,627,3901.971854
310.0,580,3929.421598
460.0,569,3955.889082
240.0,477,3980.000944
330.0,624,4009.169408
470.0,808,4047.101693
410.0,648,4077.589015
520.0,600,4104.241564
310.0,636,4133.463204
610.0,845,4174.279988
400.0,815,4213.573897
350.0,786,4249.887894
480.0,623,4281.509498
450.0,585,4309.03451
490.0,721,4343.441909
970.0,714,4375.920725
550.0,862,4416.554631
420.0,557,4442.852585
540.0,670,4475.035972
820.0,769,4513.212162
490.0,782,4553.085018
550.0,682,4586.470604
940.0,666,4618.530184
260.0,507,4642.302652
930.0,795,4680.689562
600.0,789,4718.648962
360.0,559,4747.52989
470.0,922,4793.289556
470.0,736,4829.327358
360.0,582,4857.971703
1540.0,736,4893.649179
470.0,681,4926.253214
520.0,717,4962.598566
560.0,799,4999.459108
400.0,566,5026.227922
550.0,693,5059.586552
550.0,620,5090.804981
460.0,578,5120.238355
520.0,595,5150.153925
510.0,694,5182.970902
520.0,662,5214.842989
330.0,492,5237.656915
1020.0,662,5267.368404
360.0,439,5289.747412
1040.0,807,5330.089409
390.0,610,5358.937057
450.0,625,5388.811683
1210.0,1125,5441.645674
630.0,931,5485.877227
930.0,657,5518.703778
490.0,782,5557.432926
520.0,665,5588.334887
490.0,647,5620.710029
390.0,743,5656.654431
560.0,826,5697.80154
360.0,569,5724.848891
400.0,604,5754.387626
650.0,878,5797.263911
500.0,805,5834.980908
500.0,661,5867.504336
460.0,581,5897.2765
1100.0,721,5932.792901
600.0,729,5969.062457
480.0,574,5995.919834
470.0,471,6018.330709
550.0,838,6059.398552
490.0,723,6094.837752
440.0,588,6122.51155
610.0,806,6161.812142
490.0,557,6189.355182
480.0,492,6214.627711
460.0,509,6239.657499
440.0,465,6262.400263
530.0,654,6293.217273
400.0,564,6320.461608
250.0,523,6345.715903
610.0,573,6373.841189
570.0,741,6408.345445
550.0,713,6441.982364
600.0,710,6477.941466
420.0,531,6503.235434
1250.0,714,6538.152577
470.0,450,6561.820782
990.0,462,6582.99863
460.0,458,6603.962269
340.0,510,6626.98194
510.0,496,6649.828031
480.0,660,6681.057741
640.0,761,6718.243729
590.0,780,6757.06845
520.0,608,6783.876057
480.0,775,6821.54983
500.0,678,6855.329002
510.0,582,6882.502645
390.0,500,6906.851779
1000.0,650,6940.199984
630.0,773,6976.466104
520.0,530,7001.590894
1230.0,1187,7060.468697
460.0,437,7081.417009
630.0,796,7118.89701
480.0,468,7141.422522
490.0,425,7161.790097
390.0,383,7180.448427
370.0,500,7203.550598
1070.0,755,7242.259039
340.0,553,7268.205618
660.0,631,7299.135595
520.0,583,7326.668404
540.0,540,7351.466812
420.0,458,7373.093478
620.0,847,7414.977917
610.0,743,7449.379979
600.0,654,7480.696492
470.0,476,7502.548841
660.0,837,7542.711235
1150.0,863,7585.138936
530.0,551,7613.597064
410.0,494,7637.218633
440.0,527,7660.52864
420.0,379,7678.101929
540.0,568,7704.799651
550.0,964,7749.975654
610.0,763,7785.624645
660.0,654,7817.338589
500.0,477,7839.731993
490.0,496,7862.701012
560.0,686,7895.479469
460.0,441,7916.439703
470.0,397,7935.951471
610.0,744,7971.31958
720.0,762,8007.558357
600.0,670,8040.767713
440.0,541,8065.163773
760.0,896,8108.130037
950.0,484,8131.176623
590.0,618,8161.399507
1090.0,777,8201.064438
1680.0,844,8241.122972
650.0,875,8286.179806
1190.0,833,8326.231915
400.0,356,8342.371309
1260.0,867,8384.279843
630.0,837,8425.755726
550.0,597,8454.308221
1000.0,671,8486.668352
510.0,502,8510.703267
580.0,518,8535.982381
460.0,354,8552.890565
640.0,785,8590.75567
580.0,478,8613.905209
580.0,617,8643.054593
740.0,1024,8692.297938
580.0,481,8716.562404
550.0,574,8744.1854
570.0,798,8782.13608
440.0,577,8810.081259
470.0,532,8836.411763
610.0,592,8863.417346
1030.0,681,8893.971999
980.0,656,8925.091252
640.0,915,8968.935021
590.0,671,9002.000136
650.0,620,9033.268831
520.0,538,9060.096763
590.0,826,9099.864881
630.0,529,9124.054968
780.0,832,9164.572531
460.0,452,9186.543666
440.0,481,9210.469277
730.0,946,9256.438484
420.0,392,9275.179396
660.0,685,9307.032531
1090.0,634,9337.179039
2680.0,931,9383.934678
410.0,368,9400.751116
650.0,550,9424.878617
700.0,655,9455.862187
510.0,532,9482.110411
1200.0,731,9516.858102
650.0,979,9562.882977
1090.0,786,9600.132488
320.0,626,9631.227357
450.0,393,9649.273405
550.0,673,9679.995327
590.0,632,9710.784338
560.0,602,9738.937129
600.0,688,9771.871191
1230.0,920,9816.325945
590.0,496,9839.965662
690.0,836,9881.140604
570.0,845,9918.178936
620.0,646,9948.987013
480.0,497,9973.141902
680.0,927,10018.286649
1190.0,899,10061.962645
620.0,809,10100.314799
550.0,658,10131.670512
700.0,765,10168.938612
1190.0,773,10206.049569
490.0,482,10228.985784
580.0,693,10261.948654
680.0,854,10304.062149
310.0,480,10326.719248
620.0,527,10350.929063
600.0,557,10377.461467
540.0,495,10402.123744
570.0,611,10431.391359
510.0,470,10453.750921
550.0,465,10476.429515
1140.0,722,10509.930609
610.0,591,10539.265578
340.0,622,10568.783326
720.0,1103,10620.042619
670.0,828,10661.611969
480.0,649,10693.343454
640.0,809,10731.168019
1110.0,812,10771.985743
900.0,613,10803.090532
490.0,385,10821.446252
1220.0,637,10852.596311
1180.0,630,10881.179
590.0,644,10910.057316
640.0,541,10936.634643
1120.0,806,10972.564737
770.0,622,11003.319754
610.0,521,11028.745467
430.0,495,11052.608201
990.0,397,11072.056611
720.0,685,11104.690173
490.0,368,11122.317823
720.0,779,11159.203227
660.0,685,11192.706676
680.0,723,11225.179607
650.0,607,11251.443264
440.0,471,11272.679333
550.0,506,11294.363948
680.0,759,11332.219507
630.0,596,11360.059387
490.0,554,11386.490911
560.0,643,11415.074153
680.0,904,11457.105087
650.0,751,11494.656615
400.0,531,11519.628499
580.0,807,11559.187531
670.0,733,11595.221532
630.0,627,11625.608901
750.0,1089,11678.97475
510.0,567,11705.552447
620.0,652,11735.302874
450.0,578,11760.863503
530.0,617,11789.973701
540.0,535,11815.460479
460.0,531,11841.176603
920.0,596,11869.943003
650.0,767,11908.104799
650.0,809,11946.755603
510.0,674,11977.223929
550.0,576,12006.371296
690.0,687,12039.234412
470.0,521,12063.685242
420.0,762,12100.771002
680.0,717,12134.309826
670.0,718,12167.92655
430.0,427,12188.82271
560.0,516,12212.637896
550.0,664,12245.353245
550.0,665,12277.507071
530.0,510,12301.783623
940.0,739,12337.255536
530.0,622,12366.581206
580.0,710,12399.835962
630.0,790,12438.703865
510.0,708,12472.003653
310.0,550,12498.895055
1170.0,788,12537.93452
650.0,780,12577.001262
480.0,530,12601.780766
660.0,522,12626.139285
520.0,457,12647.691112
580.0,762,12686.740669
680.0,727,12719.925384
580.0,630,12748.621296
610.0,674,12782.115545
350.0,521,12806.574618
1070.0,688,12838.696342
710.0,705,12871.46295
530.0,477,12894.902384
460.0,482,12918.589928
730.0,733,12954.582371
220.0,478,12978.044517
350.0,445,13000.053065
1230.0,940,13045.378942
610.0,669,13078.221964
1580.0,767,13115.067932
790.0,981,13161.926794
680.0,712,13196.795742
570.0,533,13222.332474
610.0,579,13250.387432
720.0,623,13279.753808
450.0,582,13308.093981
570.0,701,13341.478991
570.0,655,13373.809127
530.0,703,13408.54617
640.0,900,13453.063472
830.0,725,13488.303487
640.0,1114,13540.609666
680.0,714,13576.813421
1170.0,658,13607.895755
560.0,496,13632.721009
1190.0,651,13663.910701
620.0,735,13700.143253
1160.0,777,13737.228552
640.0,753,13771.103984
730.0,988,13818.624861
600.0,672,13852.326612
690.0,679,13884.661001
500.0,546,13911.950739
700.0,841,13953.552854
520.0,447,13975.846677
2150.0,769,14014.209092
590.0,683,14046.168602
580.0,775,14084.97505
580.0,735,14119.337445
640.0,668,14151.443239
660.0,649,14181.406635
700.0,1001,14228.81528
420.0,616,14258.036948
520.0,697,14291.884962
1210.0,759,14329.035614
650.0,767,14364.710048
810.0,930,14409.928341
760.0,804,14448.769407
1100.0,799,14487.693185
730.0,616,14516.712106
350.0,327,14532.240702
800.0,607,14560.785563
1080.0,488,14583.380773
250.0,435,14605.212605
480.0,604,14635.137527
620.0,671,14667.360755
580.0,557,14695.889562
610.0,775,14731.817461
610.0,442,14753.479209
580.0,759,14790.205739
640.0,743,14826.619064
600.0,733,14861.240966
710.0,670,14892.273636
710.0,537,14918.222583
490.0,545,14944.011648
590.0,457,14965.413758
790.0,682,15000.323951
550.0,490,15023.967378
660.0,520,15050.047495
1180.0,832,15092.711632
700.0,529,15118.249384
550.0,404,15138.160233
660.0,625,15167.975024
710.0,652,15198.416799
780.0,758,15233.934699
610.0,576,15260.749768
650.0,575,15288.60209
800.0,991,15336.671021
780.0,864,15377.603639
710.0,1489,15450.243197
520.0,627,15481.351549
670.0,520,15506.135209
480.0,477,15530.694951
640.0,701,15563.570965
1130.0,878,15604.889551
650.0,546,15631.002746
1280.0,845,15672.16404
650.0,630,15701.232643
1240.0,869,15742.310778
570.0,657,15775.088102
560.0,630,15803.09889
730.0,659,15833.706654
690.0,632,15861.47864
690.0,565,15888.821185
790.0,819,15928.912225
680.0,477,15951.345348
590.0,690,15983.810962
590.0,671,16015.591546
1150.0,677,16047.914712
700.0,609,16078.070258
1210.0,850,16120.161631
630.0,712,16154.501142
810.0,733,16188.697232
680.0,683,16219.88992
690.0,606,16247.057137
530.0,399,16266.759173
730.0,973,16313.768063
800.0,741,16351.39521
480.0,359,16368.192793
630.0,596,16396.489235
680.0,497,16418.788451
610.0,583,16448.483471
670.0,533,16474.137344
480.0,486,16499.089376
640.0,486,16521.974622
550.0,543,16548.043217
650.0,677,16579.178018
740.0,684,16610.681061
590.0,606,16639.071238
610.0,576,16668.422731
770.0,1033,16716.742757
760.0,791,16753.56114
660.0,506,16777.148974
670.0,690,16810.441735
950.0,922,16855.552865
660.0,834,16894.981147
610.0,680,16929.242943
700.0,814,16971.367256
730.0,790,17008.981943
660.0,823,17047.188882
750.0,924,17092.042898
720.0,758,17129.344639
490.0,394,17146.812951
1120.0,565,17173.903002
790.0,901,17217.062146
470.0,401,17236.898191
660.0,518,17261.61899
1220.0,687,17292.278866
1280.0,767,17329.647358
600.0,605,17357.723461
680.0,778,17395.57183
650.0,575,17423.690112
730.0,788,17459.112983
820.0,935,17505.740021
570.0,655,17536.256053
820.0,921,17580.039546
680.0,618,17608.802539
810.0,883,17650.311148
850.0,832,17690.692986
630.0,557,17717.56996
630.0,530,17742.973805
1660.0,711,17775.710508
750.0,652,17806.074242
670.0,595,17836.718847
740.0,585,17864.896499
520.0,513,17889.768666
830.0,850,17931.386971
710.0,728,17966.535644
900.0,867,18008.14441
690.0,623,18038.498586
1310.0,870,18079.7792
810.0,780,18117.000458
740.0,624,18147.414968
690.0,557,18174.12914
800.0,953,18219.847903
660.0,663,18251.716863
740.0,590,18279.937687
670.0,744,18314.519728
600.0,573,18342.71144
760.0,538,18369.41255
700.0,638,18398.965335
1130.0,832,18439.936618
690.0,529,18465.787216
600.0,540,18492.128541
660.0,586,18520.387154
710.0,474,18542.794663
650.0,591,18572.258401
810.0,962,18620.492336
1160.0,741,18656.867043
740.0,726,18689.771808
710.0,959,18733.942605
820.0,787,18772.30219
680.0,720,18805.74859
750.0,818,18846.279556
210.0,393,18865.379427
1200.0,584,18892.134515
800.0,757,18928.594506
2140.0,616,18957.051046
560.0,725,18991.231323
1160.0,680,19023.517917
620.0,649,19054.960675
790.0,735,19089.902429
830.0,867,19129.74984
1160.0,619,19157.423641
690.0,587,19185.009641
1270.0,745,19221.086804
780.0,730,19255.748623
850.0,1041,19305.582478
650.0,732,19341.135996
830.0,1199,19399.101466
700.0,591,19427.469635
670.0,596,19456.034241
530.0,589,19485.554781
600.0,487,19509.160754
730.0,823,19548.746659
450.0,530,19574.409249
720.0,847,19614.654042
640.0,763,19650.170213
460.0,613,19678.579678
550.0,530,19705.229423
570.0,668,19737.651965
2250.0,1018,19786.307297
620.0,760,19821.170965
510.0,604,19849.838975
400.0,631,19879.059242
490.0,596,19908.32124
640.0,709,19943.931957
630.0,757,19979.521075
470.0,587,20007.079049
2170.0,870,20049.001444
600.0,728,20083.728617
510.0,562,20111.25688
440.0,480,20134.354781
760.0,984,20183.799032
1140.0,1003,20232.440135
570.0,649,20265.372444
470.0,523,20290.601111
740.0,916,20336.504211
700.0,944,20381.497927
970.0,727,20418.11022
1220.0,696,20450.66294
600.0,634,20478.961757
480.0,641,20509.31407
660.0,961,20554.644785
540.0,972,20601.718546
580.0,573,20627.801401
690.0,617,20657.169821
590.0,986,20705.888029
2120.0,829,20746.14585
490.0,971,20791.500555
490.0,459,20812.495372
1070.0,565,20838.424722
510.0,679,20870.490126
340.0,532,20897.195117
630.0,675,20929.739853
650.0,696,20963.985712
780.0,637,20993.284022
690.0,915,21036.657378
1010.0,672,21068.601079
1220.0,697,21101.435874
510.0,540,21128.299644
610.0,610,21157.49912
680.0,673,21189.615818
1240.0,877,21232.612898
530.0,565,21260.545349
730.0,663,21293.528079
1180.0,739,21328.51722
1230.0,702,21361.336614
1300.0,909,21404.519696
630.0,655,21435.640551
800.0,677,21468.983588
1240.0,723,21502.142221
690.0,607,21531.48496
1200.0,778,21570.293525
1090.0,544,21595.853609
1250.0,812,21635.279784
700.0,699,21669.417769
780.0,984,21713.864042
680.0,670,21745.033077
520.0,505,21768.62152
640.0,710,21803.09
1130.0,640,21834.921291
690.0,723,21870.035273
1350.0,790,21906.513316
770.0,937,21951.870827
800.0,739,21986.403238
600.0,618,22016.917507
1720.0,1072,22066.504809
700.0,549,22092.90235
770.0,619,22123.156613
1070.0,458,22144.530742
800.0,1046,22194.987321
840.0,830,22236.882621
770.0,868,22277.57692
850.0,809,22315.759974
560.0,565,22342.406241
600.0,448,22365.85111
690.0,577,22394.228979
550.0,640,22424.449956
1190.0,573,22450.815305
1170.0,625,22481.94971
1360.0,652,22513.692678
630.0,742,22550.173994
860.0,827,22589.134066
600.0,601,22618.628202
760.0,778,22655.935261
610.0,626,22686.531902
1410.0,1017,22735.330357
1850.0,1006,22783.180555
630.0,571,22807.868673
710.0,620,22838.501896
760.0,842,22878.108096
1280.0,651,22908.572486
680.0,742,22944.983648
700.0,650,22976.413954
790.0,819,23015.282281
1360.0,686,23050.097467
640.0,715,23084.347547
630.0,805,23122.957265
850.0,939,23169.368747
740.0,898,23213.357708
710.0,584,23241.748627
570.0,658,23272.589286
700.0,930,23315.618243
1260.0,881,23360.095978
680.0,660,23390.386865
1300.0,870,23430.205099
1340.0,981,23476.741013
680.0,980,23525.326951
780.0,754,23561.838895
1250.0,782,23600.49894
630.0,529,23625.748659
1270.0,863,23669.171639
2320.0,1048,23718.240675
550.0,457,23741.063594
630.0,698,23774.475154
690.0,585,23800.802809
400.0,453,23823.125521
1270.0,725,23858.067667
720.0,702,23891.115665
830.0,758,23927.723925
1230.0,695,23960.734756
860.0,784,23997.165249
600.0,488,24021.783713
720.0,687,24054.015965
840.0,844,24095.39446
890.0,920,24137.419928
650.0,664,24167.533109
880.0,983,24214.646495
1260.0,712,24248.494557
730.0,833,24287.493398
1210.0,567,24312.048415
670.0,507,24334.553566
620.0,598,24361.247425
680.0,589,24389.651007
1230.0,699,24422.398303
1710.0,590,24448.914616
820.0,688,24481.181859
690.0,574,24507.256486
1240.0,803,24542.897689
1180.0,620,24572.896169
800.0,976,24616.562412
800.0,720,24649.02141
1270.0,642,24678.850395
700.0,665,24710.235547
1820.0,851,24747.800786
1210.0,955,24792.604107
850.0,691,24825.866943
780.0,670,24855.829834
1800.0,752,24889.350091
770.0,660,24918.356009
690.0,758,24951.846347
1790.0,762,24986.003045
1310.0,764,25020.233035
750.0,617,25048.23329
1310.0,812,25085.646606
730.0,570,25112.519689
610.0,639,25139.934965
1860.0,888,25179.336074
750.0,683,25210.63182
1300.0,821,25247.968036
1280.0,592,25274.325749
1270.0,856,25312.359388
1410.0,973,25355.691695
1300.0,760,25389.986009
780.0,692,25420.68576
750.0,789,25455.473668
660.0,666,25485.156106
850.0,777,25519.798029
1220.0,913,25559.606085
750.0,688,25590.972699
1340.0,832,25629.201293
1200.0,662,25658.210862
1200.0,478,25679.013924
4390.0,1010,25723.976627
1130.0,551,25750.656547
780.0,1016,25796.166942
1350.0,913,25838.257962
760.0,667,25867.955322
1240.0,727,25902.290492
1240.0,791,25937.485303
690.0,672,25968.101171
1970.0,1191,26021.426389
1350.0,769,26055.298252
1340.0,823,26091.787126
840.0,846,26130.89219
1260.0,699,26162.007662
880.0,778,26197.070618
660.0,777,26232.555977
900.0,990,26275.979908
1230.0,612,26303.566117
1450.0,894,26344.563206
750.0,559,26368.890768
640.0,645,26398.009854
820.0,970,26440.907558
1860.0,1097,26490.706977
910.0,878,26530.086326
2440.0,930,26572.94248
790.0,838,26613.809765
1220.0,791,26647.964452
1410.0,940,26690.704109
730.0,642,26721.376461
1310.0,603,26748.325102
1390.0,853,26788.369507
880.0,826,26825.510942
770.0,836,26863.507307
2900.0,997,26908.250595
1390.0,814,26944.618624
1400.0,853,26983.206633
840.0,682,27015.914748
1140.0,519,27039.444111
790.0,695,27070.263784
1250.0,676,27101.555557
550.0,618,27130.862474
1250.0,852,27169.711893
490.0,823,27206.376256
2300.0,749,27240.479434
1310.0,841,27279.159651
1270.0,619,27307.197131
1890.0,984,27352.382265
1280.0,704,27384.675936
500.0,462,27405.627121
930.0,977,27449.941908
1310.0,817,27486.942931
1850.0,744,27521.102223
1310.0,777,27556.40258
1200.0,598,27585.44916
1390.0,1024,27632.249938
2320.0,863,27670.450066
660.0,613,27697.289099
830.0,1006,27742.984137
720.0,752,27778.042964
1250.0,837,27815.648718
820.0,821,27853.933791
810.0,924,27895.593828
1150.0,484,27919.182934
900.0,735,27953.169297
1230.0,595,27978.895392
1320.0,838,28016.003946
1340.0,740,28050.01421
1850.0,788,28087.176664
720.0,553,28112.661087
870.0,991,28156.784799
1830.0,940,28199.057164
550.0,505,28223.187565
510.0,373,28239.940939
750.0,615,28269.5685
830.0,963,28313.234366
1370.0,778,28349.133493
1350.0,773,28383.128086
2390.0,1010,28429.067599
780.0,829,28466.984188
910.0,993,28511.84992
1420.0,781,28546.55935
840.0,760,28579.647435
740.0,621,28609.076418
580.0,535,28633.679317
1410.0,836,28672.851997
870.0,855,28712.559516
1200.0,775,28748.996574
840.0,881,28792.197391
650.0,550,28818.909466
1230.0,571,28845.852544
1360.0,883,28884.679573
1290.0,760,28918.170637
550.0,505,28942.153513
840.0,917,28985.019979
2270.0,736,29018.070364
1260.0,599,29045.342118
860.0,692,29076.417768
1320.0,820,29112.571984
1290.0,692,29143.83915
780.0,604,29172.380763
740.0,789,29206.448891
1340.0,795,29244.249878
2760.0,617,29271.739048
1340.0,690,29304.483068
1350.0,706,29336.499738
1360.0,952,29378.831662
900.0,749,29413.41125
860.0,726,29445.000966
800.0,722,29476.019223
620.0,795,29513.995199
1270.0,653,29543.772331
680.0,866,29581.450996
690.0,605,29608.45729
800.0,722,29642.734619
1780.0,852,29681.391874
1390.0,799,29718.76929
670.0,779,29755.03642
680.0,696,29786.3961
810.0,742,29817.527491
770.0,878,29856.525161
1420.0,769,29890.643551
1310.0,802,29928.916632
880.0,896,29971.005111
1310.0,856,30009.360902
1780.0,921,30051.091813
870.0,903,30092.214893
1400.0,831,30131.71081
1260.0,715,30165.481836
1370.0,772,30199.963004
870.0,914,30242.249656
950.0,937,30284.835987
1760.0,789,30320.488133
1740.0,851,30359.327264
1280.0,710,30391.855619
1240.0,647,30420.769001
1410.0,1005,30466.507104
1410.0,773,30502.577145
840.0,830,30540.613577
1410.0,849,30578.265168
1270.0,861,30616.938575
880.0,984,30660.007364
1230.0,625,30689.755531
1320.0,701,30722.221178
1350.0,685,30754.972291
720.0,725,30788.598217
1270.0,1225,30844.434596
1200.0,1065,30891.902924
740.0,652,30920.346291
530.0,666,30951.091622
750.0,1025,30996.915598
900.0,1135,31047.933847
840.0,681,31078.789489
940.0,1039,31127.385811
1870.0,821,31162.738437
650.0,596,31189.926798
1280.0,677,31221.446851
570.0,627,31249.970878
700.0,669,31279.615657
1800.0,1112,31329.439318
1060.0,430,31349.177819
1270.0,878,31390.043435
1340.0,716,31422.554649
1280.0,820,31459.301648
390.0,502,31482.705179
540.0,543,31505.569959
770.0,1104,31555.871075
1180.0,485,31577.757889
650.0,490,31601.065578
840.0,1010,31644.848062
780.0,815,31684.023465
850.0,854,31721.828099
860.0,804,31760.16428
730.0,724,31791.819228
650.0,493,31815.683626
1230.0,785,31851.322813
690.0,724,31884.260281
710.0,593,31910.602399
630.0,676,31938.920015
1750.0,712,31971.209406
1230.0,592,31997.469345
1220.0,842,32037.861723
1280.0,833,32075.479275
1390.0,667,32107.076762
830.0,821,32141.358927
770.0,896,32182.306082
1370.0,781,32218.421303
1270.0,675,32249.432383
1260.0,727,32282.302125
750.0,826,32317.679099
1830.0,1025,32364.26417
590.0,515,32387.600693
1360.0,864,32428.311001
1210.0,966,32471.836658
780.0,837,32510.887409
1320.0,995,32556.383308
2410.0,906,32597.621475
770.0,902,32639.220663
1270.0,771,32673.975238
830.0,873,32712.191547
990.0,1202,32766.689783
1440.0,1039,32813.331362
1310.0,724,32845.673085
1360.0,782,32880.155678
1180.0,646,32908.420166
1340.0,952,32950.179748
860.0,987,32994.135481
700.0,838,33032.323055
770.0,686,33063.107877
1790.0,688,33094.188231
1370.0,1067,33147.140061
740.0,839,33187.015511
1300.0,705,33218.948054
1850.0,853,33260.542318
1370.0,889,33302.1476
650.0,755,33336.257515
550.0,545,33362.923279
1280.0,905,33405.315609
830.0,811,33442.464199
1290.0,633,33471.400934
740.0,766,33505.715281
750.0,737,33539.427626
860.0,813,33577.443593
1880.0,807,33614.280158
1290.0,677,33644.318332
1800.0,776,33681.858043
1840.0,825,33721.693877
1270.0,639,33752.235729
1310.0,720,33785.617571
1310.0,849,33826.927628
900.0,869,33867.187119
590.0,491,33888.643521
1180.0,607,33916.423707
780.0,720,33950.771748
1880.0,938,33993.685238
1220.0,968,34037.565662
930.0,912,34081.132927
770.0,578,34109.630633
1390.0,847,34149.111983
770.0,830,34187.554281
680.0,539,34211.74404
880.0,1064,34260.553174
940.0,874,34301.90773
860.0,899,34343.791365
1390.0,984,34391.392897
1150.0,797,34428.887872
780.0,706,34461.371176
1280.0,918,34504.66373
1300.0,808,34541.175857
760.0,547,34565.521925
1120.0,691,34596.92341
840.0,884,34638.118468
830.0,772,34673.758734
1850.0,875,34713.210299
1250.0,774,34747.906269
1270.0,548,34772.014188
1340.0,660,34801.268123
830.0,720,34836.199325
640.0,488,34857.332084
790.0,743,34891.101265
870.0,975,34934.05471
1200.0,727,34967.547651
1140.0,536,34992.274692
640.0,691,35024.75608
810.0,830,35063.314008
1280.0,809,35099.909642
1300.0,666,35131.378138
750.0,705,35163.767553
950.0,997,35210.316039
1340.0,775,35246.051192
910.0,841,35285.796783
1390.0,1123,35337.493551
790.0,947,35380.258448
760.0,1085,35430.310296
820.0,891,35471.590385
950.0,883,35514.009822
940.0,857,35553.583929
1180.0,935,35597.685462
780.0,1042,35644.204071
650.0,680,35674.879257
1300.0,769,35712.013377
790.0,694,35742.857562
860.0,907,35784.284061
2250.0,920,35827.295547
810.0,1129,35879.892836
890.0,938,35927.119851
840.0,797,35965.930728
1240.0,918,36010.305661
1270.0,599,36038.890177
1310.0,899,36081.558449
1340.0,751,36119.389384
640.0,567,36146.941042
1310.0,719,36180.309422
1930.0,1113,36231.679078
1210.0,803,36268.93657
810.0,764,36305.048911
1420.0,967,36351.808373
3380.0,868,36393.154863
1320.0,831,36429.947656
830.0,688,36462.849007
770.0,667,36494.1695
1340.0,772,36529.367161
1380.0,873,36570.307684
1170.0,716,36603.07969
1190.0,708,36636.327625
1360.0,926,36681.876157
2290.0,750,36715.052644
740.0,714,36747.25214
940.0,883,36788.441416
780.0,820,36826.248155
1360.0,891,36865.68041
880.0,894,36905.922656
2350.0,983,36948.897787
850.0,1269,37011.485757
1490.0,855,37050.215419
880.0,748,37085.372163
1290.0,970,37130.622715
1330.0,739,37165.244983
1400.0,1005,37211.296871
1910.0,984,37256.783431
750.0,514,37280.662877
1200.0,679,37311.704287
1830.0,949,37356.270375
1320.0,791,37391.082017
710.0,644,37422.247788
740.0,1021,37468.884145
1250.0,578,37495.983579
2290.0,574,37523.651096
750.0,658,37555.555251
1350.0,622,37584.878894
1830.0,788,37619.4575
1790.0,715,37652.865612
1370.0,825,37690.526865
1250.0,727,37724.508637
500.0,491,37747.164086
1000.0,496,37770.250925
950.0,959,37814.407407
900.0,970,37863.550444
780.0,785,37900.46683
740.0,794,37936.054855
1460.0,1027,37982.638712
2240.0,736,38016.260036
1350.0,800,38052.704514
800.0,618,38080.175824
820.0,659,38111.12311
2350.0,1055,38159.787969
1450.0,944,38202.351305
1420.0,864,38243.569835
2400.0,732,38275.452669
2820.0,674,38306.488254
1290.0,717,38337.103062
1740.0,624,38366.481064
1330.0,870,38406.402237
830.0,867,38445.026255
760.0,590,38472.648325
1330.0,625,38500.560103
1270.0,693,38532.02154
1260.0,971,38577.742643
790.0,866,38615.930627
1340.0,773,38650.638973
790.0,734,38682.546174
1240.0,744,38715.522207
1310.0,563,38741.411952
870.0,701,38774.007612
1320.0,732,38806.055927
1330.0,687,38836.439221
740.0,781,38871.591921
610.0,581,38897.725013
710.0,752,38930.977407
1310.0,764,38966.200387
900.0,830,39003.957344
1350.0,681,39034.813657
1320.0,623,39062.787634
1820.0,792,39096.977968
760.0,626,39125.430949
870.0,821,39161.979309
1350.0,832,39199.606922
670.0,603,39226.54286
1250.0,712,39259.842627
1370.0,762,39295.96264
1700.0,647,39325.082281
790.0,706,39357.339624
1310.0,810,39397.446648
1740.0,680,39428.246107
740.0,772,39464.870589
2320.0,802,39504.122146
810.0,757,39541.378372
1400.0,1212,39598.974428
1320.0,826,39638.149514
1860.0,883,39679.372009
1790.0,889,39720.497718
980.0,504,39744.378598
1260.0,780,39780.480898
1970.0,789,39815.611399
2340.0,904,39858.550073
1910.0,907,39902.174382
860.0,824,39940.495393
2430.0,1363,40002.425074
1350.0,780,40037.946652
1380.0,940,40079.84702
610.0,582,40106.195761
720.0,752,40142.138363
2390.0,841,40179.206694
780.0,696,40210.815062
760.0,617,40238.607413
830.0,754,40273.085986
760.0,715,40305.694611
1330.0,739,40339.723183
1190.0,806,40376.121157
830.0,653,40405.696874
850.0,739,40441.39098
890.0,1002,40487.829051
880.0,785,40524.413972
2430.0,1031,40572.202388
1300.0,913,40614.432475
1180.0,805,40651.370928
750.0,558,40676.442461
1340.0,879,40716.231411
920.0,689,40748.617326
1330.0,722,40783.606921
860.0,839,40821.666679
960.0,735,40856.19154
1930.0,828,40894.427572
1860.0,1152,40948.272519
860.0,704,40981.793673
1080.0,605,41010.312321
750.0,656,41039.789896
880.0,875,41079.426506
1410.0,942,41123.554452
850.0,901,41165.619929
770.0,630,41194.30354
1380.0,895,41235.970074
620.0,541,41262.490734
470.0,399,41280.54408
810.0,879,41320.467384
1400.0,879,41361.475539
1340.0,1092,41412.697278
790.0,825,41450.665938
1370.0,862,41489.071146
1340.0,864,41528.113707
1440.0,1010,41575.150914
1380.0,778,41610.6754
1260.0,795,41648.905181
1320.0,817,41685.695162
830.0,824,41724.93805
720.0,796,41762.020664
1290.0,951,41805.712329
2250.0,813,41843.791563
4370.0,1186,41898.740838
500.0,574,41926.05857
1900.0,1156,41979.632498
880.0,747,42013.983714
880.0,870,42053.552924
930.0,1177,42106.800677
970.0,850,42145.199508
960.0,974,42187.051218
1410.0,775,42221.620108
1790.0,685,42254.390684
820.0,869,42292.776668
860.0,731,42325.798754
870.0,861,42365.629885
1350.0,796,42402.650972
850.0,778,42437.358794
850.0,789,42473.438849
740.0,959,42516.595117
730.0,733,42550.171388
1350.0,821,42587.373346
820.0,890,42627.613159
680.0,584,42654.112676
1350.0,882,42695.568133
1310.0,644,42724.779301
1830.0,744,42757.400964
1330.0,662,42788.530966
790.0,612,42816.276266
1320.0,1218,42872.474338
840.0,775,42907.566013
1300.0,705,42937.409265
890.0,772,42971.512729
1410.0,786,43005.778765
1240.0,908,43046.538382
1340.0,962,43092.491108
810.0,725,43126.195621
1720.0,628,43154.202826
710.0,542,43178.142399
950.0,981,43222.43221
1370.0,883,43261.703958
980.0,961,43304.123491
1910.0,766,43338.582834
900.0,812,43374.585963
1290.0,840,43414.11188
900.0,1005,43460.482333
850.0,775,43494.905525
1400.0,790,43530.880676
1860.0,820,43570.056493
890.0,983,43613.63709
1370.0,906,43655.313816
2360.0,1061,43703.579553
960.0,1030,43749.633921
850.0,834,43788.513047
1340.0,906,43828.495147
1290.0,634,43858.520934
860.0,995,43904.633798
820.0,734,43937.812175
880.0,900,43978.04044
1820.0,801,44015.386629
850.0,769,44050.702636
1380.0,736,44084.274807
900.0,1077,44132.240281
1860.0,733,44163.844841
1360.0,768,44197.989641
940.0,892,44241.617922
880.0,886,44284.403223
890.0,899,44323.531762
1400.0,821,44360.440992
2370.0,877,44401.000003
2440.0,912,44439.985565
970.0,942,44484.939697
850.0,813,44519.727467
1240.0,726,44552.569908
860.0,1034,44600.725696
1410.0,795,44638.506212
1290.0,808,44676.638797
1950.0,970,44721.186494
890.0,762,44754.272931
770.0,674,44785.856382
900.0,736,44817.686903
1410.0,1291,44875.442288
1320.0,872,44913.98091
930.0,835,44950.25359
1470.0,748,44984.706262
1440.0,808,45021.619821
1320.0,784,45059.173461
1380.0,784,45095.26827
880.0,710,45127.97392
1310.0,691,45157.167629
1350.0,886,45196.44465
1940.0,747,45228.976135
2370.0,914,45269.757572
1470.0,1236,45324.612759
810.0,945,45367.63459
1390.0,733,45402.676337
810.0,657,45434.103777
1510.0,948,45477.801004
920.0,927,45519.181108
1450.0,723,45551.081544
970.0,832,45587.900021
700.0,681,45617.812774
1240.0,703,45648.441519
1360.0,658,45677.614439
880.0,785,45712.862661
1890.0,713,45743.464379
1390.0,922,45783.072531
1830.0,689,45812.238384
810.0,909,45851.985241
1400.0,813,45886.785804
1940.0,1083,45934.276652
1380.0,851,45970.689709
880.0,660,46000.223554
400.0,659,46028.995734
850.0,855,46065.798261
980.0,922,46106.39543
760.0,693,46138.689715
1330.0,618,46166.271339
1310.0,781,46200.313645
1350.0,782,46234.445948
830.0,787,46268.358292
1350.0,824,46302.97691
820.0,664,46331.514406
570.0,530,46354.040394
350.0,341,46369.58969
330.0,317,46383.653849
800.0,762,46417.88008
1340.0,701,46447.238332
1460.0,782,46482.067836
440.0,509,46502.131005
880.0,1040,46548.273016
920.0,902,46585.817951
800.0,672,46614.990037
1360.0,734,46647.280028
860.0,767,46679.175234
950.0,920,46719.10571
1340.0,796,46752.740606
1350.0,831,46787.332959
1910.0,752,46819.665222
940.0,1191,46870.686909
800.0,1088,46915.575873
740.0,803,46950.236616
850.0,853,46985.895672
1340.0,841,47021.298523
600.0,562,47045.127743
720.0,561,47069.173784
1460.0,908,47107.003912
1850.0,708,47137.651674
660.0,523,47158.850007
820.0,734,47189.414623
630.0,740,47219.949196
750.0,754,47249.9236
1330.0,848,47285.977105
1300.0,832,47319.915546
830.0,849,47356.157613
1320.0,836,47391.938918
910.0,1105,47437.723854
1490.0,875,47472.243646
850.0,1005,47513.101739
1470.0,756,47544.382588
610.0,575,47568.803449
750.0,677,47596.223849
1400.0,825,47629.012089
1400.0,1072,47672.693276
980.0,1234,47723.966864
1460.0,823,47758.652621
1880.0,745,47788.884876
870.0,615,47814.990911
740.0,638,47839.97867
920.0,753,47870.191281
870.0,688,47898.571491
860.0,871,47931.568487
1870.0,877,47968.272572
780.0,633,47993.170602
880.0,1039,48036.965863
760.0,670,48065.763107
1350.0,903,48101.381797
1300.0,772,48134.256625
900.0,797,48165.364228
970.0,729,48195.298194
930.0,847,48228.321544
1370.0,764,48258.709017
950.0,989,48299.51271
870.0,1046,48341.684129
1840.0,683,48368.776324
1450.0,681,48395.706503
1480.0,967,48434.564885
840.0,765,48464.07034
940.0,815,48496.608703
1390.0,820,48528.201061
980.0,804,48560.201916
870.0,854,48591.964853
850.0,678,48618.805563
1320.0,824,48650.260247
1460.0,791,48680.594905
1420.0,849,48712.733472
1400.0,1083,48754.766721
1890.0,679,48778.936119
840.0,829,48811.721441
1410.0,929,48847.129858
820.0,760,48876.639632
1290.0,850,48909.613817
2850.0,762,48939.29071
1460.0,1456,48996.235851
890.0,657,49021.635945
1400.0,798,49052.837396
800.0,732,49081.221508
1160.0,794,49111.983506
970.0,852,49145.115981
1840.0,815,49174.858761
1430.0,750,49204.189574
840.0,998,49243.225177
1000.0,1255,49292.371599
990.0,900,49327.471523
1480.0,1010,49367.489801
960.0,838,49399.941954
1370.0,770,49431.384543
890.0,798,49459.975371
690.0,582,49482.219899
1390.0,1096,49524.421479
770.0,1074,49565.460771
950.0,1011,49607.953429
860.0,716,49636.509829
1400.0,701,49663.138199
1280.0,857,49695.519111
880.0,875,49728.423083
740.0,758,49756.972832
870.0,818,49786.734568
890.0,921,49823.479101
850.0,666,49849.044276
630.0,435,49865.640172
1430.0,845,49897.878276
890.0,807,49927.215558
890.0,697,49953.237211
850.0,869,49986.408019
1340.0,727,50014.651657
1370.0,673,50039.568886
1420.0,879,50072.835166
950.0,878,50109.499948
1290.0,604,50133.210493
950.0,865,50166.722884
1440.0,818,50198.423586
1410.0,791,50229.099843
780.0,642,50253.340295
1370.0,787,50284.374954
1410.0,782,50312.09308
950.0,1000,50348.571317
1920.0,832,50381.641224
880.0,711,50407.440556
810.0,709,50435.047086
890.0,826,50466.98946
1330.0,838,50499.161602
920.0,1072,50538.571378
940.0,751,50567.897529
1410.0,1051,50609.80665
1330.0,712,50638.005152
930.0,1029,50678.695494
1350.0,780,50707.762796
1980.0,1029,50747.791366
1480.0,918,50785.035203
960.0,767,50814.577363
1420.0,1051,50854.892513
1710.0,926,50891.956838
950.0,1058,50931.659619
730.0,756,50961.031545
940.0,861,50994.116076
1480.0,992,51034.269514
1430.0,714,51062.639857
1400.0,1107,51107.492486
1890.0,904,51140.323618
1420.0,742,51168.980224
1390.0,753,51198.122283
770.0,720,51226.273963
900.0,818,51259.268363
1380.0,630,51281.971423
830.0,745,51311.06429
970.0,887,51344.308541
2380.0,888,51377.989751
1330.0,960,51414.081434
810.0,844,51444.502429
1400.0,909,51477.94448
1490.0,877,51511.547899
760.0,771,51540.630649
1390.0,801,51571.244051
1960.0,840,51603.231072
960.0,1081,51643.710806
1470.0,868,51674.673661
880.0,701,51701.934124
840.0,1143,51743.436833
970.0,886,51774.92796
980.0,883,51807.433855
890.0,765,51834.131551
1350.0,856,51865.376789
1390.0,681,51889.034209
900.0,771,51918.706951
910.0,881,51950.603156
800.0,817,51980.776291
1290.0,779,52009.205914
870.0,1054,52046.646856
860.0,649,52070.189889
990.0,989,52106.469262
870.0,741,52134.632533
570.0,520,52153.503464
810.0,879,52186.782714
670.0,723,52214.103627
1380.0,710,52241.188033
1310.0,989,52276.417144
970.0,1007,52313.640708
840.0,1020,52351.329029
1470.0,1050,52388.492121
960.0,804,52418.120167
860.0,832,52447.540583
1370.0,854,52479.642867
1900.0,727,52506.797246
840.0,807,52536.810566
840.0,778,52565.791793
880.0,1021,52603.14957
1890.0,878,52635.504232
1470.0,917,52668.600638
890.0,880,52700.65021
910.0,976,52734.946961
920.0,919,52767.914713
1830.0,780,52796.201429
950.0,862,52827.150743
960.0,902,52860.798006
1430.0,886,52892.973366
970.0,901,52927.800959
1360.0,804,52957.112387
900.0,625,52979.338329
1460.0,874,53009.321044
890.0,910,53041.419936
2310.0,842,53071.161328
1470.0,954,53106.457165
1420.0,870,53138.066393
1240.0,740,53164.782626
1440.0,986,53201.956061
1400.0,755,53228.867931
1420.0,1022,53263.630222
690.0,661,53288.05427
1880.0,1143,53329.817043
990.0,1127,53372.568697
970.0,977,53406.059478
1440.0,874,53437.316
960.0,850,53466.793511
880.0,740,53495.301361
1320.0,741,53522.544006
750.0,721,53551.351793
900.0,724,53577.55596
840.0,740,53605.41507
1320.0,767,53633.454116
900.0,983,53668.865495
960.0,1084,53706.915265
1370.0,914,53740.681945
1460.0,927,53776.59745
1390.0,826,53806.531049
1420.0,789,53838.170364
1480.0,924,53874.176643
1290.0,611,53896.549989
2460.0,934,53933.379515
1410.0,869,53966.116386
910.0,1029,54003.053743
850.0,820,54032.252878
900.0,766,54060.353498
940.0,809,54089.897864
810.0,705,54115.239903
1370.0,724,54141.114677
940.0,831,54171.499307
1430.0,810,54201.828238
2510.0,1218,54246.492678
870.0,925,54280.724422
1390.0,978,54316.71453
820.0,851,54347.68658
1400.0,811,54377.009927
1400.0,945,54411.49924
810.0,765,54438.626473
720.0,813,54468.413033
830.0,789,54495.871479
870.0,787,54523.501483
890.0,956,54558.140407
910.0,930,54593.331016
850.0,609,54616.450237
780.0,617,54639.381007
1470.0,850,54672.071635
900.0,862,54703.937902
940.0,786,54733.261702
900.0,1086,54773.639169
890.0,741,54800.609238
1350.0,701,54826.516768
1260.0,656,54850.364415
1470.0,824,54881.740959
1340.0,1193,54926.736501
1320.0,803,54955.178233
1440.0,1022,54992.758459
850.0,774,55021.966639
1390.0,1072,55061.751103
1410.0,711,55088.33671
980.0,901,55120.07474
670.0,577,55140.585596
1430.0,781,55170.524117
920.0,787,55198.807011
900.0,717,55225.594776
860.0,1025,55263.198926
880.0,765,55291.363493
1390.0,726,55318.197067
1410.0,821,55348.366423
910.0,1167,55389.278031
870.0,781,55417.949646
970.0,951,55451.551476
990.0,1131,55490.932435
960.0,1037,55527.99243
1470.0,914,55561.03362
990.0,1026,55599.27966
890.0,811,55628.21033
1450.0,797,55656.130239
800.0,708,55682.159503
900.0,762,55710.889424
940.0,1089,55751.14131
910.0,983,55788.166322
1390.0,1092,55828.453488
1350.0,701,55853.818991
940.0,993,55892.01608
960.0,749,55919.047127
1470.0,1082,55958.447022
1480.0,737,55984.492832
900.0,849,56016.628359
1350.0,655,56041.127402
1420.0,720,56066.314456
1340.0,788,56094.375188
1420.0,800,56122.178457
830.0,629,56144.322942
2470.0,936,56177.465179
1450.0,907,56212.824244
950.0,931,56246.769655
970.0,1022,56284.360932
1380.0,843,56314.843419
900.0,954,56350.783943
1400.0,702,56378.319764
780.0,626,56401.574482
1850.0,1200,56446.462937
740.0,687,56471.89961
930.0,918,56506.823104
2430.0,959,56542.560899
950.0,1001,56580.230045
930.0,842,56611.743385
930.0,783,56640.479154
1450.0,902,56673.452029
1450.0,877,56704.103879
970.0,934,56738.288425
920.0,861,56769.957245
1430.0,1087,56808.625076
910.0,887,56842.091833
760.0,566,56863.361622
810.0,847,56893.857925
850.0,678,56918.83758
1370.0,898,56952.389215
1420.0,852,56984.217927
1490.0,854,57015.856413
760.0,727,57043.160031
1160.0,638,57067.55017
940.0,900,57100.301477
1970.0,985,57136.574088
950.0,921,57170.175508
1400.0,1244,57215.549772
1420.0,1046,57254.090197
1500.0,1129,57294.899013
1430.0,1005,57330.804257
1400.0,1046,57369.613593
1250.0,724,57396.224415
1930.0,911,57429.082995
950.0,968,57464.889154
1440.0,983,57500.164634
760.0,657,57524.707808
1890.0,921,57558.739153
1980.0,1146,57599.105448
920.0,900,57631.195055
790.0,810,57660.207848
1370.0,745,57688.208292
1450.0,1145,57730.366423
1460.0,846,57761.654833
1480.0,1178,57803.967153
930.0,800,57833.920702
900.0,902,57866.006776
1430.0,877,57898.386299
880.0,838,57928.296277
1440.0,826,57958.207757
1450.0,807,57988.287428
920.0,753,58015.766622
1300.0,767,58042.928084
1410.0,680,58068.596146
900.0,856,58099.994855
1500.0,884,58131.05804
940.0,792,58160.91056
1460.0,879,58194.223551
970.0,1025,58232.491575
890.0,1088,58273.471634
1470.0,879,58305.646288
960.0,976,58340.634758
640.0,479,58357.522587
1990.0,1183,58399.949435
1450.0,840,58431.946153
990.0,929,58466.20751
1900.0,861,58499.310342
980.0,918,58534.110037
1450.0,888,58568.786188
950.0,779,58598.82269
690.0,587,58621.433929
880.0,784,58651.148749
1990.0,1027,58691.13893
1480.0,1113,58731.190044
1910.0,766,58760.269971
910.0,721,58785.659397
950.0,1002,58824.190379
1420.0,1150,58867.716768
1310.0,679,58892.020767
980.0,966,58926.18167
940.0,925,58959.35719
970.0,796,58987.519012
1460.0,774,59017.337152
980.0,806,59046.974989
1410.0,1084,59084.830733
2450.0,710,59110.84822
1490.0,948,59147.099108
2420.0,1045,59186.278318
940.0,979,59223.038261
1980.0,828,59253.049868
1460.0,932,59288.055579
1980.0,878,59321.923101
1280.0,787,59350.824373
1300.0,760,59379.665231
740.0,631,59400.653542
1180.0,740,59426.627818
1470.0,889,59458.024516
1920.0,998,59493.632476
950.0,959,59527.979542
1880.0,784,59558.097003
820.0,725,59585.086506
1960.0,953,59620.663533
1930.0,1169,59664.813033
1440.0,862,59695.443259
1310.0,1083,59735.486296
1430.0,1054,59773.799429
910.0,893,59805.385477
1300.0,721,59831.184321
1990.0,889,59862.070853
1480.0,1010,59896.626303
1330.0,717,59921.569918
950.0,767,59949.961871
930.0,1055,59989.719283
1480.0,873,60021.617177
1450.0,1014,60057.608905
1440.0,977,60093.658011
910.0,810,60122.802861
1490.0,1023,60160.454867
1370.0,894,60193.785232
870.0,656,60217.490484
980.0,946,60252.418503
900.0,747,60279.902575
1500.0,1091,60320.725101
920.0,816,60351.692532
1470.0,875,60383.097758
1000.0,914,60416.31742
2450.0,1174,60459.479733
960.0,962,60496.506888
1840.0,805,60527.02706
1360.0,615,60549.391057
1430.0,836,60579.312116
1350.0,683,60603.551786
1480.0,810,60633.846691
880.0,749,60661.297012
950.0,719,60687.043687
2230.0,675,60714.254506
950.0,826,60745.622626
1380.0,959,60780.513135
1460.0,840,60813.73224
1280.0,739,60841.42994
1460.0,974,60878.05802
940.0,875,60909.487746
920.0,700,60932.695346
960.0,835,60963.678125
1440.0,859,60995.599392
960.0,707,61023.275635
810.0,827,61052.501341
950.0,803,61082.274168
1450.0,806,61111.631352
1420.0,931,61142.733591
1940.0,786,61171.050016
980.0,807,61201.651499
960.0,727,61228.372303
980.0,876,61261.166993
840.0,729,61288.799464
1480.0,1190,61331.51791
870.0,754,61358.0615
1370.0,835,61389.404035
1410.0,780,61418.758606
960.0,907,61452.299484
900.0,751,61477.95372
970.0,835,61508.153175
840.0,845,61539.033196
1430.0,782,61569.172572
1420.0,911,61602.850907
900.0,881,61636.552204
700.0,526,61656.337985
1500.0,925,61688.893853
880.0,772,61716.926152
950.0,896,61749.249397
1460.0,1006,61787.290321
1470.0,799,61816.15189
890.0,760,61845.183256
1440.0,929,61881.422306
2270.0,788,61910.050578
650.0,709,61936.455267
2500.0,1014,61975.11495
1460.0,824,62007.781789
1920.0,980,62043.824265
1480.0,850,62075.61806
1440.0,847,62105.57461
960.0,792,62134.862616
1400.0,663,62160.553018
800.0,573,62181.416821
970.0,920,62215.499275
440.0,682,62241.437283
970.0,868,62272.610699
2890.0,951,62307.393557
1500.0,815,62337.458056
1380.0,730,62363.964892
1970.0,781,62394.086416
980.0,811,62424.507464
620.0,514,62441.747867
1410.0,889,62474.330571
2950.0,828,62503.569662
1900.0,776,62531.902026
620.0,631,62554.661241
1000.0,916,62588.167291
1910.0,873,62620.02621
1970.0,1025,62658.057045
760.0,615,62679.757588
790.0,718,62704.779808
870.0,857,62735.966204
950.0,827,62765.921916
960.0,893,62798.378491
1450.0,880,62830.17911
960.0,824,62859.709371
1480.0,989,62897.54002
1440.0,862,62929.864491
820.0,648,62955.198401
1400.0,787,62985.604441
990.0,895,63016.932257
1470.0,1098,63058.292021
1440.0,889,63091.490626
950.0,1023,63129.668756
1910.0,800,63157.842878
2900.0,733,63186.071011
2910.0,1094,63227.48901
1320.0,652,63251.327072
640.0,707,63277.777835
840.0,1133,63319.373014
950.0,667,63344.80173
620.0,613,63366.478542
740.0,731,63394.130857
1480.0,1083,63434.491301
1480.0,1047,63473.317258
1390.0,772,63501.543328
1380.0,691,63526.103995
1870.0,866,63557.959399
880.0,799,63587.107355
1430.0,778,63614.650467
1400.0,860,63644.891066
1480.0,804,63674.618468
1440.0,800,63703.983528
2460.0,762,63731.511866
940.0,888,63762.450149
870.0,772,63790.604275
780.0,739,63817.150787
1360.0,742,63844.590611
1960.0,910,63878.251894
1420.0,917,63912.634831
1910.0,1031,63950.021752
1310.0,670,63974.58882
1490.0,871,64007.28261
1420.0,823,64036.384413
1370.0,891,64069.404187
970.0,746,64095.265077
1430.0,805,64124.600444
1360.0,755,64152.728818
970.0,1002,64188.305521
1440.0,1003,64225.034317
1420.0,792,64255.806769
970.0,1004,64292.661485
880.0,855,64323.552252
2840.0,698,64349.068094
2390.0,814,64381.140896
2360.0,1061,64419.288752
1990.0,946,64454.041806
1470.0,841,64485.209247
1950.0,739,64512.664156
760.0,740,64539.314513
950.0,950,64577.704468
890.0,904,64610.122674
950.0,859,64641.833667
1460.0,942,64676.86982
850.0,763,64705.281773
1440.0,813,64737.160312
2410.0,967,64773.601379
2980.0,929,64809.817826
1460.0,925,64846.591124
910.0,1054,64887.120143
1950.0,868,64919.376505
1420.0,997,64956.910751
970.0,1155,65000.228987
890.0,760,65027.811202
2860.0,707,65052.52983
1410.0,788,65081.964575
1380.0,720,65105.62388
880.0,796,65134.974036
950.0,716,65160.552612
970.0,852,65190.953411
1370.0,841,65221.900589
970.0,852,65250.925676
1030.0,1233,65295.842936
950.0,776,65323.15755
1390.0,861,65353.777749
1440.0,983,65388.510274
950.0,733,65414.113297
1360.0,1024,65450.538176
910.0,838,65480.829557
1370.0,977,65514.713549
890.0,754,65542.503775
1370.0,726,65569.172302
980.0,891,65602.039164
850.0,1151,65642.483479
880.0,678,65669.274043
1910.0,993,65708.198519
1430.0,914,65741.723897
870.0,810,65773.760794
940.0,794,65803.772173
990.0,1124,65843.511459
1000.0,921,65877.034266
920.0,754,65904.0632
2450.0,911,65937.853548
950.0,790,65966.263024
1480.0,1122,66007.413223
970.0,1124,66047.510849
960.0,1091,66087.763381
960.0,981,66125.431269
870.0,785,66154.304018
900.0,800,66181.613967
1420.0,887,66214.700772
1470.0,830,66244.602627
980.0,1000,66280.118713
1440.0,850,66312.413412
1470.0,891,66344.59856
1420.0,754,66372.491443
920.0,862,66403.372259
920.0,738,66430.276924
1370.0,843,66461.190405
950.0,782,66492.384346
1440.0,640,66518.291737
840.0,743,66546.924517
970.0,1247,66594.320881
970.0,783,66624.39672
2350.0,902,66657.111268
920.0,786,66686.864075
650.0,550,66707.927413
1400.0,757,66736.310387
1500.0,908,66770.817669
980.0,1116,66812.181831
1480.0,950,66847.35576
1950.0,705,66872.750713
1910.0,814,66903.019315
1950.0,1062,66941.488274
1970.0,925,66977.177727
950.0,1026,67016.698934
1980.0,853,67050.163572
1480.0,764,67078.247789
1420.0,942,67112.23774
1410.0,856,67145.778383
920.0,857,67175.053312
1450.0,790,67203.70299
850.0,794,67234.719792
940.0,972,67269.791227
2930.0,797,67298.831888
1500.0,886,67331.614094
1000.0,802,67361.658577
950.0,902,67396.317212
1470.0,904,67430.329726
1440.0,728,67456.925538
780.0,893,67490.286508
1010.0,1078,67528.798177
950.0,739,67556.579332
870.0,707,67582.135491
1470.0,935,67616.988383
1360.0,842,67649.710872
950.0,889,67683.208877
1380.0,713,67710.007386
900.0,771,67739.452894
2330.0,846,67770.54573
950.0,921,67804.034867
1440.0,943,67839.643358
780.0,624,67863.64719
1950.0,775,67892.419473
1440.0,1137,67934.067291
1430.0,948,67968.431325
940.0,842,68001.438219
1350.0,792,68031.131389
960.0,924,68067.163521
1490.0,899,68100.184664
1360.0,1084,68139.822284
960.0,754,68168.272517
1560.0,1074,68206.675791
960.0,853,68238.694317
1510.0,890,68272.092666
1370.0,815,68303.54113
910.0,699,68328.558299
1500.0,1038,68366.411676
1400.0,853,68398.63659
890.0,983,68433.396247
970.0,792,68462.610787
980.0,833,68494.883089
790.0,850,68524.439898
1470.0,1016,68561.665209
960.0,686,68586.9333
950.0,898,68619.45931
910.0,903,68651.936702
2300.0,695,68676.652982
900.0,883,68708.537806
960.0,1202,68754.99337
1490.0,849,68786.30519
1430.0,820,68815.260477
950.0,734,68841.157477
950.0,786,68871.47824
1420.0,933,68907.93777
970.0,860,68940.501208
940.0,843,68969.937026
1390.0,794,68998.598411
940.0,724,69023.725662
1430.0,696,69047.69185
1460.0,766,69076.913536
2960.0,858,69109.841044
950.0,717,69136.578462
920.0,874,69170.204122
1460.0,1082,69211.389096
1480.0,857,69241.868503
900.0,800,69270.250572
940.0,734,69297.025763
1450.0,696,69322.44452
1950.0,870,69354.572978
840.0,760,69381.370333
1340.0,743,69408.368642
890.0,778,69436.229095
1460.0,939,69472.597541
930.0,767,69502.053014
1470.0,794,69531.984336
1460.0,866,69565.30134
790.0,595,69585.897533
950.0,703,69612.571997
1530.0,984,69650.423083
960.0,904,69683.417839
1470.0,819,69714.422724
960.0,855,69746.462559
2460.0,777,69776.253237
940.0,883,69807.50288
1970.0,835,69838.672045
990.0,882,69872.119029
950.0,795,69901.814903
930.0,901,69936.661796
1920.0,747,69965.742888
1010.0,1033,70005.767036
1410.0,824,70037.19757
940.0,809,70066.331055
610.0,412,70080.6333
2460.0,983,70119.107318
940.0,771,70147.34322
960.0,922,70179.931638
940.0,887,70211.294738
1470.0,937,70246.597462
840.0,900,70282.85446
940.0,755,70308.948333
1010.0,926,70344.5791
1000.0,905,70381.980586
950.0,807,70413.371353
1960.0,901,70447.763432
770.0,754,70475.799569
1950.0,897,70510.381053
950.0,931,70546.939841
940.0,873,70579.702822
1450.0,811,70609.916854
940.0,897,70645.244301
1950.0,707,70672.079172
910.0,813,70703.177843
940.0,793,70734.536471
940.0,843,70767.754867
1460.0,939,70803.742914
940.0,851,70834.529042
930.0,824,70865.970837
970.0,820,70896.672331
1400.0,816,70929.294612
990.0,1211,70975.545838
1480.0,875,71007.833021
710.0,613,71029.881227
810.0,959,71067.195761
770.0,738,71096.439607
1440.0,803,71128.043509
840.0,710,71154.170629
1490.0,868,71185.672395
970.0,880,71218.638683
1420.0,785,71246.975772
1490.0,837,71277.558811
940.0,1244,71324.686672
960.0,879,71357.661715
930.0,1282,71405.315409
1980.0,980,71441.335281
1480.0,930,71476.831735
1030.0,1110,71516.776671
800.0,878,71547.761038
1450.0,922,71581.403046
1450.0,941,71616.673935
1400.0,1044,71653.477521
1330.0,882,71683.823066
980.0,963,71720.353037
940.0,835,71751.472661
1500.0,1145,71793.750402
1420.0,835,71825.710999
890.0,921,71860.863259
830.0,849,71892.748212
940.0,923,71928.495915
1440.0,1124,71971.050489
840.0,948,72005.156802
950.0,1124,72044.894713
1380.0,656,72067.784766
1980.0,951,72102.678566
1910.0,928,72136.829018
1460.0,1075,72177.040528
810.0,736,72203.409846
1930.0,945,72239.155251
980.0,1085,72278.150093
1490.0,1100,72317.112584
1470.0,722,72343.971615
1450.0,959,72378.553327
880.0,805,72407.491281
930.0,861,72439.102095
2010.0,1244,72487.059793
1450.0,1050,72526.17654
1320.0,1380,72576.514532
900.0,848,72607.282249
980.0,927,72641.582613
1450.0,957,72681.005208
1460.0,830,72709.492494
980.0,997,72747.33526
1460.0,820,72775.45024
1430.0,885,72806.582829
1410.0,877,72838.815589
980.0,1012,72876.868358
1500.0,1009,72915.724806
1030.0,1103,72958.931301
800.0,929,72992.027159
930.0,1025,73028.830762
700.0,506,73048.293019
1410.0,976,73086.452043
1890.0,767,73116.724928
1380.0,716,73144.251696
880.0,749,73173.868701
950.0,827,73206.041422
1470.0,811,73236.076266
1480.0,1127,73278.881863
1960.0,855,73310.169085
1480.0,872,73342.318198
1480.0,1182,73386.520443
1440.0,926,73420.997223
840.0,631,73445.687929
950.0,836,73475.494344
1290.0,883,73508.333813
1400.0,702,73534.857497
1440.0,857,73565.709032
950.0,918,73601.763188
1420.0,873,73634.164716
1460.0,944,73668.675278
1480.0,1046,73707.44337
1460.0,831,73739.82814
990.0,1032,73778.103164
990.0,999,73814.465237
1010.0,960,73847.763115
1010.0,966,73882.669526
1380.0,930,73918.192587
1480.0,914,73952.309205
940.0,996,73989.042123
1460.0,866,74019.393377
770.0,736,74046.962247
1010.0,861,74079.369368
980.0,927,74114.32806
960.0,852,74145.025401
1430.0,1061,74183.232593
1970.0,1019,74220.696488
1480.0,894,74252.726924
1420.0,976,74287.804963
810.0,680,74311.583593
1450.0,873,74344.253299
980.0,1128,74387.446761
1450.0,907,74420.366129
950.0,837,74449.852309
930.0,670,74475.837482
920.0,979,74512.444894
910.0,887,74545.328813
880.0,920,74579.052291
980.0,861,74611.647837
890.0,924,74644.997842
1470.0,859,74676.857104
970.0,860,74706.818428
960.0,911,74741.12668
970.0,906,74775.243996
960.0,787,74805.704719
630.0,591,74829.147242
980.0,1003,74866.37175
990.0,937,74902.433282
760.0,777,74929.935545
1350.0,965,74965.829362
2020.0,1137,75007.887893
900.0,749,75034.734464
950.0,972,75071.26967
960.0,1230,75115.389202
1430.0,734,75142.410315
800.0,684,75168.287527
1470.0,752,75196.707139
760.0,633,75220.677752
940.0,829,75254.285148
1450.0,1086,75296.095639
830.0,1070,75340.330893
1190.0,691,75366.62758
1990.0,857,75396.970394
980.0,1002,75433.218737
730.0,754,75459.960864
1940.0,914,75493.556167
810.0,1103,75536.709552
2010.0,1027,75575.580926
1490.0,1031,75613.753749
960.0,821,75642.802002
940.0,763,75671.090737
1500.0,983,75709.375538
970.0,810,75738.435394
730.0,676,75763.167156
900.0,697,75788.362727
870.0,730,75815.266906
960.0,759,75841.911361
980.0,927,75876.614097
1310.0,600,75898.681307
960.0,1094,75938.775715
1520.0,1139,75980.317278
1480.0,986,76016.942559
1470.0,867,76051.073709
960.0,844,76080.640721
2980.0,818,76113.705811
1970.0,765,76140.431836
1980.0,981,76175.414073
940.0,846,76205.841095
930.0,995,76241.364867
1010.0,1014,76277.258793
1440.0,1075,76316.643426
910.0,858,76347.371539
940.0,965,76382.549497
890.0,814,76411.198107
930.0,781,76440.396251
1430.0,950,76474.825355
1720.0,846,76505.759094
970.0,1059,76543.665008
990.0,838,76575.439462
2000.0,839,76607.978237
820.0,902,76637.876402
1470.0,991,76675.25548
1480.0,802,76705.334816
960.0,813,76735.334792
1380.0,940,76772.511808
970.0,759,76800.336333
1490.0,879,76834.42405
950.0,1016,76874.342204
1450.0,894,76907.115403
1940.0,894,76940.757936
1410.0,850,76971.883175
1470.0,733,76998.046891
1450.0,978,77035.482798
1940.0,1030,77073.421248
1490.0,1039,77110.77782
1970.0,744,77137.947681
990.0,1075,77176.283015
1440.0,888,77209.702725
980.0,978,77244.401373
910.0,802,77274.169749
1520.0,965,77309.194108
960.0,944,77345.639643
1470.0,829,77376.606191
920.0,799,77407.05614
1470.0,1011,77443.703268
1020.0,1045,77482.009009
2650.0,529,77501.398835
2020.0,1079,77541.774886
910.0,836,77573.175224
980.0,853,77603.067026
950.0,839,77632.94029
680.0,731,77660.983128
960.0,823,77692.211871
1530.0,1286,77738.409971
1010.0,925,77772.439179
1010.0,816,77803.344757
1470.0,1112,77844.337533
1450.0,864,77876.62355
940.0,861,77908.208429
880.0,735,77936.11504
1420.0,874,77970.745753
1460.0,817,78003.065906
960.0,936,78038.694795
910.0,832,78069.324201
980.0,818,78099.072097
1480.0,1043,78135.12823
750.0,863,78167.300927
1480.0,880,78199.163542
1470.0,728,78226.281167
1430.0,986,78261.932702
980.0,793,78290.84443
1020.0,850,78321.630588
980.0,837,78351.553894
1380.0,708,78379.590552
930.0,924,78411.246251
950.0,827,78442.116136
1460.0,947,78476.389496
1400.0,1016,78513.855858
1460.0,779,78543.055982
980.0,854,78575.778001
950.0,894,78609.069949
1470.0,695,78633.327518
870.0,795,78661.902427
1430.0,933,78696.179524
1460.0,791,78723.159477
2000.0,870,78755.743609
1260.0,890,78790.300822
1420.0,710,78816.118615
1000.0,905,78849.583882
940.0,736,78878.747324
1480.0,947,78912.333388
980.0,848,78941.837396
1980.0,891,78973.55442
1460.0,798,79003.466421
1390.0,855,79033.630484
950.0,823,79065.024059
970.0,811,79094.107837
1460.0,786,79124.279725
1450.0,828,79154.871375
960.0,836,79184.621485
960.0,928,79217.595143
1020.0,808,79246.241969
1960.0,1105,79284.227107
980.0,852,79314.255485
990.0,839,79345.09847
1540.0,874,79377.025486
990.0,869,79407.694088
990.0,889,79441.26847
930.0,801,79472.495234
1990.0,886,79506.011107
790.0,695,79531.645492
980.0,799,79560.499619
1490.0,983,79596.965435
980.0,913,79631.872899
950.0,878,79663.948537
970.0,1057,79703.070522
980.0,917,79737.832188
900.0,908,79770.629283
1460.0,893,79804.512296
1440.0,1060,79843.669778
980.0,755,79870.451649
1010.0,910,79904.192578
990.0,993,79940.258691
1450.0,886,79972.076912
960.0,784,80001.056873
990.0,737,80029.510334
950.0,921,80064.21874
1490.0,880,80096.847122
980.0,792,80125.413953
1010.0,758,80152.152295
1520.0,824,80184.377857
950.0,931,80217.598264
990.0,801,80247.959493
1010.0,1081,80286.004534
960.0,745,80315.043107
930.0,832,80344.935189
1980.0,1052,80384.045005
1000.0,805,80414.224919
1450.0,795,80443.938832
960.0,939,80477.276751
960.0,812,80506.40197
1510.0,933,80540.863231
1470.0,862,80573.006179
960.0,873,80604.295091
980.0,1069,80642.938089
1480.0,825,80673.31801
930.0,874,80705.648552
1490.0,780,80734.453661
970.0,856,80765.624363
1480.0,794,80793.768269
990.0,1063,80832.106106
1440.0,679,80859.052121
1440.0,923,80892.281913
970.0,803,80922.237636
1510.0,822,80952.218797
970.0,864,80984.374938
2480.0,811,81012.481753
970.0,928,81045.61776
990.0,908,81078.270806
1480.0,793,81107.292229
1510.0,796,81135.505965
990.0,855,81165.224697
990.0,800,81195.765157
930.0,747,81221.655505
1480.0,967,81257.201615
1010.0,798,81285.966187
1490.0,901,81318.800432
1510.0,785,81348.234584
980.0,774,81377.070182
970.0,888,81410.2679
980.0,948,81445.715236
1480.0,1028,81481.530611
1000.0,846,81513.00662
980.0,798,81542.338876
930.0,935,81577.220296
1450.0,855,81608.654933
1020.0,754,81635.700324
950.0,860,81666.856886
980.0,915,81701.048984
1000.0,801,81729.871184
970.0,1056,81768.675421
900.0,884,81801.175944
1000.0,737,81828.121408
970.0,817,81859.264314
980.0,930,81892.229383
790.0,895,81924.816072
1480.0,819,81956.760324
1490.0,886,81989.311114
970.0,753,82016.395006
950.0,807,82047.031957
2020.0,1347,82098.50596
1450.0,747,82125.925905
980.0,794,82154.89448
1970.0,750,82181.191298
910.0,769,82209.862639
1520.0,960,82245.413522
1520.0,974,82280.078509
990.0,857,82312.942852
890.0,782,82341.087937
1010.0,835,82370.197402
1470.0,1081,82409.523055
980.0,821,82437.182917
1020.0,1195,82482.027473
1450.0,799,82511.225008
1490.0,912,82545.087255
1060.0,1007,82580.723126
990.0,795,82609.537226
970.0,962,82645.989144
1020.0,1001,82683.893504
980.0,771,82713.080207
1020.0,882,82744.226886
1510.0,835,82773.914025
1000.0,1009,82812.259267
990.0,942,82845.842436
1510.0,893,82879.122161
1520.0,865,82910.450065
1980.0,765,82938.10301
970.0,927,82971.349391
1490.0,992,83009.098982
1010.0,946,83044.09799
1990.0,951,83079.343963
910.0,685,83105.287356
1980.0,933,83139.684639
1500.0,847,83170.197824
1520.0,852,83201.849351
1010.0,764,83229.608009
990.0,901,83262.414841
1390.0,821,83291.238491
980.0,920,83324.562238
1520.0,825,83354.986855
980.0,801,83383.999881
1490.0,920,83417.074224
1020.0,876,83448.749443
990.0,729,83474.09517
1030.0,718,83499.767696
1530.0,845,83531.234927
1000.0,705,83557.030647
980.0,982,83591.342922
950.0,670,83615.267059
2490.0,1000,83652.420377
1350.0,701,83679.135578
1020.0,794,83707.297791
970.0,680,83732.118729
950.0,808,83761.713741
910.0,728,83787.554698
970.0,708,83812.272238
1510.0,1284,83858.702911
1500.0,964,83894.397671
1010.0,745,83921.080602
990.0,781,83949.465138
1450.0,1295,83996.186275
1520.0,889,84027.244948
970.0,858,84057.411382
990.0,782,84086.101678
1510.0,811,84115.970596
1000.0,647,84140.364412
700.0,621,84162.849443
990.0,785,84191.624028
1430.0,794,84219.990819
980.0,825,84250.225088
990.0,843,84282.640142
1510.0,872,84316.28951
650.0,639,84339.188132
1020.0,841,84371.65059
1480.0,886,84405.163739
1040.0,1093,84443.175034
1020.0,719,84470.177379
1010.0,986,84505.970203
2020.0,1041,84545.749314
970.0,794,84576.231042
1520.0,1024,84611.705502
1500.0,853,84642.439017
1500.0,785,84671.718408
1510.0,931,84705.848075
3000.0,871,84737.966409
480.0,699,84764.197041
950.0,747,84791.896954
1500.0,732,84818.484937
1000.0,921,84852.622596
1000.0,853,84884.403252
1470.0,928,84920.265171
1020.0,924,84954.447645
1930.0,1249,84999.960391
1510.0,706,85026.66498
1530.0,802,85055.737604
1020.0,863,85085.885693
990.0,749,85114.385447
1450.0,963,85150.082082
1020.0,896,85182.554724
1020.0,755,85211.62867
990.0,753,85239.298537
850.0,749,85266.306216
1520.0,1040,85303.609759
1020.0,847,85333.788176
1010.0,983,85370.709955
1010.0,685,85396.035829
1530.0,831,85424.894122
990.0,946,85461.20601
1470.0,882,85493.023256
1500.0,914,85527.069563
1450.0,717,85550.460983
970.0,712,85575.147548
1000.0,789,85603.969076
1010.0,751,85632.194657
1430.0,760,85660.202658
1020.0,961,85694.526918
1180.0,947,85728.619858
2020.0,951,85764.370267
790.0,663,85787.798558
2420.0,761,85815.993905
900.0,720,85844.098627
1400.0,629,85867.175911
820.0,1023,85903.922326
1390.0,1015,85941.775636
1420.0,827,85970.393643
1430.0,822,86000.663952
950.0,816,86031.04793
990.0,963,86065.803751
920.0,587,86086.834389
1010.0,906,86120.571305
1520.0,837,86151.189356
1000.0,821,86182.297582
680.0,677,86205.535521
920.0,775,86233.027493
990.0,802,86262.339166
1040.0,817,86292.278086
1430.0,713,86317.959321
1520.0,797,86348.890256
1020.0,777,86378.770972
1510.0,892,86413.019791
1490.0,811,86443.694827
2020.0,819,86473.96393
1520.0,1086,86512.631628
1490.0,714,86538.658629
1510.0,977,86574.021858
1900.0,735,86600.808176
2980.0,928,86633.475837
950.0,843,86664.835225
1010.0,879,86697.083117
1010.0,747,86724.36153
860.0,709,86750.536557
950.0,794,86778.841123
1510.0,778,86807.214018
1030.0,878,86837.003311
1010.0,1089,86876.123631
1020.0,789,86903.22676
1020.0,940,86937.577111
1010.0,801,86966.581117
1520.0,821,86996.130899
1420.0,799,87026.004999
1520.0,987,87064.79811
1010.0,866,87094.950527
1510.0,799,87125.388326
2010.0,929,87158.247344
1510.0,862,87191.285447
1510.0,926,87225.462094
2010.0,843,87259.406074
1000.0,1006,87299.120951
910.0,712,87326.916404
1010.0,708,87354.985028
700.0,672,87382.042469
960.0,932,87418.345356
890.0,995,87457.221098
1520.0,755,87487.748484
1020.0,927,87523.828866
980.0,722,87554.516701
1510.0,862,87590.458966
1510.0,952,87630.030184
940.0,929,87669.611743
980.0,801,87702.910288
930.0,828,87738.14877
1000.0,825,87770.723495
1020.0,854,87805.985917
1020.0,1156,87854.270535
1000.0,986,87894.14993
1520.0,809,87925.896305
1050.0,818,87959.765296
1310.0,913,87997.249923
1430.0,693,88025.569627
1520.0,839,88061.921327
1960.0,846,88098.374991
980.0,829,88134.195129
1020.0,988,88175.815946
1260.0,594,88201.700689
1440.0,798,88233.964777
1020.0,914,88272.177052
1020.0,835,88309.284679
1450.0,644,88336.075067
1420.0,792,88369.900114
1020.0,824,88405.403105
1510.0,1086,88451.392894
1480.0,620,88476.4492
1010.0,1027,88518.468376
1020.0,918,88558.296612
1010.0,868,88594.045481
950.0,695,88623.76391
1470.0,801,88655.917078
1500.0,904,88693.659936
980.0,1029,88735.443206
990.0,853,88771.68566
990.0,865,88808.16342
1010.0,876,88845.866987
1520.0,970,88888.085839
1490.0,780,88921.089135
1040.0,1070,88968.261596
1020.0,728,88998.11719
1480.0,844,89033.056138
930.0,805,89066.622564
1520.0,867,89104.623508
1520.0,802,89137.605022
1510.0,741,89169.271637
1520.0,1146,89218.647298
1020.0,801,89252.302435
1490.0,903,89289.083897
1020.0,776,89321.528167
980.0,782,89354.401361
1420.0,1055,89397.173586
980.0,857,89433.744451
1520.0,779,89465.68108
1020.0,730,89495.025963
980.0,723,89524.802887
2520.0,794,89558.771219
990.0,712,89589.093179
2050.0,1011,89631.904424
870.0,822,89667.921632
1020.0,798,89701.385308
1010.0,778,89733.787609
1510.0,785,89765.729862
1510.0,761,89797.385247
890.0,689,89826.710865
1520.0,721,89858.638566
410.0,510,89880.931288
980.0,872,89919.065279
1020.0,782,89953.868802
1400.0,733,89985.785281
1460.0,893,90025.463603
2010.0,922,90066.21806
1460.0,747,90099.67946
1010.0,998,90142.826803
900.0,624,90171.438326
900.0,755,90203.378245
980.0,859,90242.831332
1050.0,912,90282.6985
1330.0,619,90310.341241
1450.0,1072,90357.418303
1540.0,954,90400.925777
2530.0,899,90441.06248
1040.0,937,90483.58147
1010.0,804,90520.849139
1020.0,939,90562.337367
1490.0,764,90596.906868
1020.0,712,90630.179323
1010.0,824,90666.7172
1020.0,678,90696.067429
1030.0,775,90730.776639
1460.0,767,90766.043297
1510.0,860,90803.33779
1030.0,1007,90848.123865
1000.0,842,90883.787557
2010.0,788,90920.434393
1000.0,717,90952.610576
1520.0,806,90989.603133
1520.0,785,91023.844958
1500.0,806,91058.729851
1510.0,782,91093.630448
990.0,694,91124.564177
990.0,771,91159.650629
1480.0,844,91195.922688
1010.0,757,91228.556478
1020.0,776,91262.886597
1020.0,726,91293.867428
1010.0,921,91334.376916
1500.0,784,91368.297873
1030.0,1021,91412.875845
1520.0,844,91449.525198
1020.0,874,91488.666905
970.0,640,91516.78942
1940.0,809,91552.191009
1010.0,829,91589.875
1010.0,778,91625.158757
2030.0,1045,91672.226871
1020.0,713,91703.381836
1410.0,738,91736.046985
970.0,815,91772.326796
1020.0,855,91809.859149
980.0,762,91845.264992
1020.0,793,91881.966712
1020.0,793,91917.572284
1430.0,787,91951.609675
1020.0,733,91985.545315
1010.0,841,92023.024668
1040.0,1013,92069.085294
2030.0,874,92109.27962
760.0,679,92139.35331
1470.0,1002,92184.164219
980.0,756,92217.072268
2520.0,843,92252.465852
1030.0,744,92285.657817
1980.0,780,92320.787333
1510.0,830,92359.672874
1510.0,753,92393.716454
1010.0,910,92433.914346
2010.0,827,92471.48372
980.0,776,92506.758655
1520.0,866,92546.069013
1020.0,969,92589.11389
1530.0,1071,92636.899287
1020.0,842,92674.65724
2440.0,938,92715.072133
1020.0,821,92752.63091
1520.0,758,92787.546752
1000.0,730,92821.547266
1520.0,838,92858.384251
1520.0,706,92889.846509
1020.0,821,92926.457056
1480.0,758,92961.883347
2020.0,852,93000.598955
1510.0,800,93037.375223
1040.0,911,93078.021564
1420.0,907,93116.442931
1020.0,850,93155.054613
1500.0,949,93196.816125
2530.0,888,93235.205591
1420.0,797,93269.109879
1510.0,782,93303.331879
1520.0,809,93337.680717
1520.0,777,93371.340657
990.0,655,93399.363258
1000.0,791,93433.562728
2030.0,869,93470.234085
1030.0,755,93502.42442
1000.0,758,93535.625613
970.0,784,93570.021161
1520.0,811,93604.983126
1020.0,1175,93654.688052
1530.0,852,93690.437161
990.0,808,93724.339864
1520.0,734,93756.434843
920.0,720,93787.63128
1020.0,826,93826.463374
1490.0,891,93866.895166
1980.0,963,93909.22271
1470.0,874,93949.874339
980.0,740,93983.743287
980.0,654,94012.138204
1020.0,799,94048.115311
1490.0,749,94080.617404
1020.0,804,94116.408027
1020.0,846,94152.60601
1490.0,707,94183.839331
1510.0,817,94219.364088
1020.0,745,94252.394092
1510.0,765,94285.875394
1460.0,812,94321.566627
1000.0,1028,94366.14531
1000.0,987,94409.622597
1010.0,761,94443.589433
1020.0,849,94481.67912
1490.0,954,94521.468539
1020.0,746,94553.433349
1020.0,855,94589.950013
1490.0,898,94629.560005
920.0,649,94656.690971
1520.0,820,94690.126146
1020.0,870,94728.683007
1540.0,866,94766.910865
1020.0,796,94800.092518
990.0,719,94830.960631
1480.0,782,94865.511852
1020.0,781,94899.399529
1490.0,920,94938.605487
1500.0,833,94975.253519
1540.0,1036,95019.900907
1520.0,848,95057.438859
1020.0,998,95098.902012
1490.0,928,95139.829444
1000.0,761,95174.069424
1510.0,877,95212.770805
1430.0,717,95243.735738
1000.0,989,95287.525563
1020.0,737,95317.739822
1520.0,733,95348.761642
990.0,922,95390.093041
1020.0,1064,95435.189286
1020.0,960,95477.507501
1010.0,830,95512.31589
960.0,740,95543.927348
1520.0,725,95576.169496
1520.0,811,95612.681528
1020.0,847,95649.092392
1490.0,832,95688.079441
1520.0,813,95723.760714
1030.0,943,95765.268272
1470.0,786,95799.019162
1490.0,800,95834.402321
1020.0,768,95867.574331
1020.0,721,95897.976988
1510.0,841,95934.550201
1010.0,750,95964.279488
1020.0,786,95994.577431
1010.0,750,96026.767292
1510.0,818,96059.311671
980.0,747,96089.88596
1480.0,740,96120.616535
1520.0,823,96153.847293
1020.0,755,96184.279171
1020.0,998,96225.392615
1020.0,803,96258.031849
1490.0,798,96291.75889
1440.0,834,96324.172768
1520.0,863,96359.402861
1470.0,726,96387.459853
1020.0,781,96419.261073
1510.0,857,96455.475847
1330.0,725,96485.025838
960.0,731,96515.389705
1510.0,811,96546.144003
1510.0,774,96576.420731
1020.0,862,96610.752088
1530.0,990,96649.900531
980.0,816,96682.476673
1510.0,760,96713.747102
2440.0,676,96739.049731
1020.0,713,96768.155469
1020.0,1043,96809.443152
1530.0,821,96841.627925
1020.0,869,96876.295877
2030.0,759,96907.653852
1520.0,777,96939.289423
1040.0,850,96973.110225
1520.0,854,97006.010727
990.0,871,97040.639211
1530.0,741,97069.243221
1030.0,1071,97114.063443
1490.0,820,97146.410967
990.0,753,97178.112206
1020.0,1043,97219.752283
1020.0,888,97255.157118
980.0,825,97287.579492
1350.0,844,97322.247148
1020.0,745,97350.946152
1510.0,872,97387.59642
860.0,718,97416.752364
1990.0,734,97445.834392
1020.0,765,97477.326982
1020.0,819,97508.235158
1020.0,792,97537.79019
1020.0,727,97565.05637
1020.0,762,97594.234735
980.0,678,97620.225969
1510.0,896,97654.302393
990.0,738,97683.215573
1520.0,785,97714.109501
1460.0,821,97745.058782
1310.0,646,97769.788969
1520.0,860,97802.353794
1520.0,847,97836.37561
4360.0,942,97873.163738
1520.0,875,97908.363936
1000.0,1007,97948.624493
1520.0,876,97982.2514
1020.0,833,98016.372475
1510.0,787,98047.982339
1020.0,745,98078.746594
1020.0,914,98114.454222
1030.0,813,98145.678961
1020.0,774,98175.178915
1500.0,906,98210.706662
1030.0,765,98238.527594
2040.0,934,98273.53945
1030.0,731,98302.36881
1030.0,789,98332.353806
1020.0,760,98362.258946
1020.0,754,98391.08313
1020.0,749,98419.139244
1000.0,967,98456.235174
1520.0,907,98491.573497
1020.0,891,98525.315365
1020.0,754,98555.471274
1020.0,801,98587.337576
990.0,730,98612.059895
710.0,809,98639.199597
1020.0,809,98669.260241
1000.0,784,98700.170702
990.0,710,98727.967534
1010.0,930,98764.775155
1020.0,881,98799.599842
1510.0,852,98836.065853
970.0,686,98863.119399
1510.0,900,98899.370446
1510.0,740,98929.814683
2010.0,905,98964.663543
1020.0,787,98995.017844
1010.0,864,99029.077339
1020.0,850,99062.376836
1020.0,970,99099.808768
1510.0,784,99130.930131
1020.0,780,99161.920288
1510.0,833,99197.033152
1000.0,700,99225.360021
1020.0,801,99256.923405
1010.0,724,99288.136047
1000.0,847,99322.921532
1520.0,831,99355.989068
1020.0,948,99393.99111
1010.0,821,99427.203579
1480.0,791,99459.305159
1500.0,897,99495.571825
970.0,681,99522.090404
1010.0,841,99553.054816
1530.0,858,99587.247171
1480.0,926,99622.034577
1020.0,780,99651.304208
990.0,744,99679.157439
1030.0,802,99708.878308
1020.0,985,99747.485405
1510.0,698,99772.523271
1520.0,751,99800.985357
1450.0,646,99825.146427
990.0,996,99861.46964
980.0,782,99890.647724
1520.0,820,99920.918835
1020.0,1012,99957.884451
1530.0,905,99991.462406
1490.0,951,100026.135765
980.0,810,100056.042603
1520.0,747,100083.568375
1010.0,678,100107.612522
1490.0,838,100138.04518
1020.0,761,100165.553875
1020.0,747,100193.316781
1040.0,878,100225.615131
1020.0,846,100254.314622
1530.0,790,100281.655355
1530.0,830,100309.409312
1010.0,788,100335.335093
1020.0,774,100361.157383
1520.0,1030,100396.469857
1520.0,996,100428.794856
1020.0,775,100456.606272
1020.0,836,100485.714874
990.0,904,100516.675268
1010.0,827,100546.192633
1520.0,816,100573.363085
1520.0,809,100600.213758
1020.0,871,100628.120206
1530.0,839,100657.133375
1520.0,721,100681.869163
980.0,785,100708.876983
1050.0,1012,100743.221003
1020.0,901,100776.549464
1520.0,818,100804.169178
1540.0,884,100832.662195
1010.0,758,100858.277003
1010.0,787,100885.580844
1510.0,794,100911.641648
1030.0,1002,100944.463886
980.0,806,100971.184007
3030.0,763,100997.750925
2040.0,815,101025.496536
1020.0,813,101052.630363
1000.0,936,101084.270808
1520.0,769,101109.841855
1010.0,709,101133.648448
1000.0,760,101158.827621
1410.0,847,101187.055468
1510.0,856,101216.24235
1520.0,833,101242.892312
1030.0,747,101269.946445
1530.0,874,101300.215033
1480.0,706,101323.114654
1030.0,890,101352.554151
1520.0,720,101376.348493
1020.0,749,101400.516362
1020.0,739,101425.528112
1020.0,756,101450.975169
1010.0,749,101475.871291
980.0,942,101506.064793
970.0,803,101534.217912
1420.0,942,101565.321385
1520.0,830,101593.523284
1020.0,827,101620.646289
1040.0,867,101650.149198
990.0,798,101675.979386
1020.0,769,101701.633516
1020.0,704,101724.772613
1520.0,935,101754.49933
1520.0,796,101781.517653
1030.0,732,101804.383929
1020.0,763,101829.580064
1020.0,893,101859.279482
980.0,721,101880.9802
980.0,729,101904.489563
1510.0,780,101928.488287
1530.0,900,101958.121385
1020.0,821,101983.499501
1030.0,901,102010.155221
1030.0,929,102039.304505
1030.0,827,102065.370114
1020.0,731,102086.517348
1020.0,765,102109.741689
1520.0,752,102133.307889
910.0,822,102156.599383
1500.0,804,102181.496776
1020.0,828,102205.691514
1520.0,767,102228.613593
1510.0,684,102248.429674
1360.0,837,102272.490067
1440.0,831,102296.377331
2010.0,751,102318.549989
1020.0,872,102343.392535
1480.0,780,102366.652517
1030.0,810,102389.586488
1520.0,796,102411.941406
980.0,733,102435.026451
1060.0,1482,102479.647369
990.0,1002,102508.595489
990.0,663,102526.777376
990.0,847,102549.597646
1020.0,775,102571.73121
990.0,724,102593.32233
1020.0,938,102619.921459
1010.0,727,102641.842061
1490.0,710,102661.934421
990.0,896,102686.7753
990.0,836,102708.998256
1040.0,1035,102736.527927
990.0,771,102756.563481
1520.0,764,102776.983739
1020.0,764,102799.783533
1030.0,651,102819.040876
1010.0,974,102847.095009
1020.0,772,102868.389469
1020.0,891,102893.480609
1020.0,856,102914.720767
1530.0,983,102940.037089
1020.0,834,102961.438297
2520.0,918,102984.635472
1020.0,723,103002.389159
2010.0,854,103023.934174
980.0,664,103041.11933
1020.0,759,103059.810848
1540.0,895,103082.254901
1360.0,1148,103111.626649
1520.0,834,103132.208944
1020.0,1011,103158.07844
1020.0,850,103178.557207
1010.0,764,103198.102152
1510.0,774,103217.867092
1020.0,788,103237.615836
1020.0,889,103260.046262
1510.0,781,103279.367389
1480.0,913,103300.914124
980.0,770,103319.411734
1040.0,1048,103344.517655
1030.0,733,103362.052176
1030.0,794,103381.370579
1030.0,779,103400.016475
1520.0,789,103420.320058
1520.0,884,103445.176805
1010.0,1002,103472.534702
2010.0,794,103493.230456
1020.0,788,103514.516114
1010.0,838,103536.948672
1010.0,789,103558.600802
1020.0,1004,103583.398437
1510.0,827,103605.674321
1020.0,795,103626.126464
1030.0,738,103646.340654
1000.0,701,103665.958968
1020.0,739,103685.943519
1010.0,789,103707.658374
1530.0,761,103727.368212
990.0,785,103749.155394
1530.0,948,103773.803155
1010.0,1025,103800.796527
1550.0,906,103825.373073
1020.0,940,103847.836068
1520.0,784,103866.067324
1520.0,748,103883.535436
1030.0,876,103905.775896
