# {"t_start": 1548219278.8571136, "env_id": "AssaultNoFrameskip-v4"} 
r,l,t378.0,652,27.106992
315.0,705,50.060606
399.0,548,69.126466
231.0,438,84.06189
189.0,477,104.739697
252.0,574,126.464677
462.0,683,157.729222
399.0,695,186.835079
189.0,441,204.680866
378.0,591,235.133577
252.0,633,267.610887
252.0,518,294.744874
210.0,556,324.588041
273.0,626,363.465136
315.0,646,401.48433
273.0,705,443.127948
336.0,560,483.480138
189.0,481,510.45717
399.0,663,553.466898
273.0,479,586.484966
315.0,505,619.049732
294.0,534,651.551154
315.0,506,684.624582
210.0,541,719.074039
399.0,545,753.819843
189.0,606,795.974437
315.0,619,831.877074
210.0,477,864.630773
336.0,591,904.579178
441.0,686,946.472409
420.0,703,989.764815
462.0,777,1040.668105
399.0,676,1089.418371
420.0,596,1123.800568
210.0,424,1149.117452
420.0,647,1190.706458
315.0,478,1223.709962
399.0,671,1267.046207
378.0,679,1310.499306
189.0,489,1343.628883
441.0,720,1391.195703
462.0,714,1433.860351
336.0,542,1468.598297
420.0,670,1511.937849
357.0,718,1561.587631
294.0,476,1593.819261
420.0,717,1635.823253
315.0,594,1676.900409
231.0,468,1703.929039
315.0,653,1747.120129
462.0,722,1796.417044
315.0,636,1836.194162
336.0,674,1878.394235
189.0,519,1912.633505
336.0,669,1956.068633
357.0,575,1990.601255
420.0,541,2023.28775
504.0,720,2071.665554
357.0,619,2113.64423
210.0,361,2132.539319
378.0,686,2181.717754
336.0,575,2215.29906
378.0,669,2256.48309
357.0,477,2289.804704
189.0,479,2323.585596
210.0,394,2349.609064
336.0,491,2377.141994
294.0,518,2411.211894
336.0,576,2450.744108
273.0,430,2475.746225
399.0,664,2518.037682
441.0,639,2560.916784
441.0,684,2604.394575
294.0,382,2629.601499
462.0,691,2671.459485
399.0,609,2711.722196
315.0,559,2745.600821
420.0,536,2786.517491
420.0,534,2821.109788
399.0,700,2864.78368
399.0,645,2906.679728
420.0,669,2948.042938
441.0,684,2989.847149
357.0,671,3033.334371
189.0,434,3066.413512
210.0,437,3093.043035
483.0,725,3142.012895
357.0,444,3166.914089
378.0,616,3207.619802
147.0,219,3217.547276
504.0,706,3268.08539
189.0,481,3301.588708
399.0,607,3335.969929
231.0,571,3375.47103
273.0,529,3408.846951
189.0,378,3427.718051
294.0,363,3452.951803
399.0,751,3503.966859
462.0,738,3553.426705
399.0,715,3595.307359
420.0,749,3644.905132
378.0,602,3687.241683
168.0,380,3706.461793
567.0,720,3757.016564
525.0,731,3806.414936
462.0,606,3840.231573
336.0,532,3873.453732
399.0,515,3907.388943
525.0,705,3957.393265
315.0,530,3991.762917
189.0,505,4025.023659
399.0,667,4065.573647
315.0,552,4099.00502
315.0,552,4133.454258
315.0,557,4168.24492
357.0,643,4210.659772
357.0,512,4243.563839
315.0,624,4283.992406
378.0,601,4324.992914
420.0,690,4368.468171
399.0,646,4411.513637
252.0,397,4437.22296
336.0,516,4471.29535
588.0,691,4513.204571
378.0,650,4553.990295
546.0,829,4610.943272
504.0,758,4655.649553
483.0,770,4706.788467
441.0,739,4754.890419
630.0,739,4803.394514
504.0,750,4854.16773
651.0,833,4905.510901
588.0,830,4955.231368
399.0,629,4996.128663
609.0,839,5055.388887
546.0,918,5116.051917
399.0,697,5159.583571
546.0,928,5217.088595
504.0,740,5266.235695
672.0,745,5317.037081
315.0,586,5352.470441
483.0,684,5394.859524
693.0,1130,5468.00596
609.0,1278,5553.40449
462.0,816,5605.494865
525.0,915,5663.524111
420.0,771,5712.843495
693.0,875,5772.188888
399.0,626,5814.393876
672.0,962,5872.653242
693.0,930,5937.354963
693.0,967,5998.800274
609.0,1024,6067.830155
567.0,1081,6134.857414
504.0,706,6183.108577
609.0,893,6243.315017
420.0,540,6278.385331
504.0,676,6321.247462
462.0,867,6376.527364
420.0,670,6419.693673
357.0,501,6453.908581
714.0,1106,6520.691881
651.0,872,6578.851808
294.0,460,6605.879539
399.0,603,6648.480146
735.0,993,6714.804056
546.0,1119,6781.754516
378.0,690,6832.218293
546.0,810,6884.87333
231.0,350,6910.048569
315.0,635,6944.930657
546.0,904,7002.182314
399.0,755,7052.551855
483.0,705,7103.248742
630.0,949,7163.671669
336.0,511,7195.207638
672.0,1256,7278.810043
189.0,381,7298.142947
357.0,733,7349.581926
504.0,902,7410.074909
714.0,1012,7476.04249
420.0,618,7516.397455
567.0,818,7567.95851
567.0,787,7619.742243
420.0,526,7654.428938
399.0,506,7688.519083
672.0,884,7746.412678
651.0,765,7795.401791
378.0,577,7830.387685
651.0,960,7891.729885
745.0,1101,7967.960595
567.0,800,8017.245097
651.0,1125,8091.821807
525.0,636,8135.121841
630.0,1018,8203.842741
630.0,1135,8270.942225
609.0,860,8329.269535
378.0,542,8364.31768
630.0,768,8415.423577
651.0,911,8472.740408
714.0,994,8539.017397
744.0,1221,8618.11639
714.0,1129,8691.630625
525.0,708,8733.72433
651.0,1090,8810.3322
525.0,913,8869.862802
693.0,1029,8934.851214
630.0,918,8995.075071
693.0,900,9054.83258
703.0,1073,9120.548763
693.0,1067,9189.396209
525.0,745,9241.006856
525.0,772,9292.881527
420.0,554,9327.798002
336.0,502,9360.877307
399.0,629,9401.571633
693.0,1185,9477.513741
672.0,1185,9555.497181
735.0,1074,9627.337596
819.0,1115,9696.442542
693.0,866,9756.186658
441.0,609,9796.492085
630.0,887,9847.331423
420.0,741,9897.499309
672.0,1006,9966.320031
483.0,645,10008.966264
609.0,869,10064.015619
462.0,714,10107.858486
819.0,1085,10178.58872
609.0,962,10244.910847
630.0,960,10302.750361
745.0,799,10355.227121
672.0,931,10423.288426
735.0,1085,10488.624546
714.0,1026,10556.104551
525.0,894,10616.229417
786.0,1260,10697.651875
756.0,971,10758.204974
807.0,1059,10826.961212
714.0,959,10890.539211
483.0,680,10933.589244
336.0,571,10969.276807
609.0,738,11020.186744
420.0,657,11060.788524
609.0,746,11109.373217
672.0,1101,11179.730452
766.0,1064,11252.702802
588.0,892,11303.800288
745.0,1040,11372.368651
672.0,903,11431.359839
714.0,1007,11496.744526
777.0,944,11561.640755
693.0,964,11621.982652
777.0,972,11682.155284
808.0,1285,11763.959196
724.0,1414,11857.278045
714.0,1011,11923.450799
630.0,1024,11989.20155
1018.0,1513,12090.25272
630.0,704,12133.334435
630.0,818,12190.502171
672.0,970,12249.816754
828.0,1112,12324.338759
819.0,1095,12392.780593
777.0,1089,12466.886964
714.0,865,12518.198396
546.0,789,12568.539937
755.0,936,12634.258567
630.0,1021,12695.101906
819.0,1002,12761.554919
869.0,1158,12836.830181
756.0,739,12886.339858
693.0,934,12946.276764
336.0,577,12981.080142
567.0,629,13023.081292
546.0,864,13081.486604
588.0,832,13132.816744
693.0,1198,13215.141179
735.0,1127,13284.526868
714.0,868,13343.631253
756.0,1278,13427.234051
693.0,1036,13493.161797
787.0,896,13552.639643
609.0,765,13604.025559
735.0,1057,13671.124992
724.0,966,13728.972101
787.0,900,13789.008337
724.0,963,13855.843922
744.0,1121,13922.705644
420.0,829,13980.987165
714.0,875,14040.472186
672.0,966,14100.269248
420.0,509,14133.024552
672.0,1095,14200.859112
640.0,911,14260.461132
703.0,1025,14326.989275
462.0,665,14369.079426
672.0,1003,14435.785386
714.0,899,14494.879193
714.0,994,14561.854528
755.0,1134,14636.283367
588.0,807,14686.943776
315.0,572,14721.596975
546.0,898,14780.830214
651.0,838,14838.7279
672.0,1033,14905.646606
661.0,900,14963.642795
703.0,1183,15039.192356
734.0,964,15098.723705
724.0,1098,15172.109232
651.0,944,15230.948751
714.0,930,15290.510309
378.0,539,15324.765612
567.0,672,15367.406939
483.0,717,15416.604967
714.0,957,15474.968527
745.0,894,15533.625584
672.0,1189,15610.947192
713.0,1002,15677.289227
504.0,674,15719.00451
714.0,1069,15793.062161
818.0,1088,15862.262013
126.0,252,15878.961638
651.0,1104,15946.091421
525.0,737,15995.484923
294.0,638,16037.725366
357.0,607,16079.691322
273.0,428,16105.857299
504.0,774,16156.732268
546.0,849,16207.713828
294.0,571,16247.747215
776.0,1025,16314.901342
818.0,937,16374.731301
986.0,1402,16465.333567
766.0,1343,16549.893406
609.0,800,16600.959874
567.0,705,16650.488334
693.0,796,16701.343
838.0,1284,16785.108256
672.0,990,16846.016505
567.0,736,16895.964717
1027.0,1275,16978.360684
189.0,288,16995.27638
1092.0,1599,17103.876995
755.0,992,17164.125141
609.0,768,17212.041566
567.0,768,17262.730742
672.0,894,17322.637101
714.0,970,17382.479437
483.0,638,17423.054827
609.0,869,17480.468658
756.0,1162,17556.327873
588.0,749,17606.527716
724.0,969,17665.956985
357.0,544,17699.5402
630.0,854,17757.348627
775.0,1093,17832.348209
756.0,1219,17908.691136
630.0,864,17966.576031
735.0,964,18026.060485
252.0,418,18051.763732
420.0,760,18102.066846
839.0,1006,18169.084198
567.0,752,18219.255179
777.0,1055,18286.351225
808.0,836,18336.975969
734.0,874,18395.331634
745.0,1164,18471.614266
734.0,993,18537.392816
651.0,1103,18605.225671
776.0,1061,18673.671293
714.0,1039,18741.796554
588.0,790,18798.945697
703.0,869,18850.417439
609.0,803,18900.371401
693.0,995,18967.532213
672.0,999,19035.552417
818.0,1185,19111.346101
713.0,1090,19178.742144
682.0,1089,19253.907269
651.0,898,19313.518647
588.0,861,19365.373178
630.0,873,19422.979478
693.0,896,19481.324387
567.0,792,19532.856654
630.0,883,19591.662248
420.0,587,19630.183717
588.0,965,19691.178748
703.0,942,19753.052456
818.0,1249,19834.26936
651.0,804,19886.210601
483.0,780,19939.098027
546.0,957,20000.771296
357.0,538,20040.872048
777.0,804,20090.764762
651.0,998,20157.957085
483.0,608,20194.051366
630.0,781,20244.82757
609.0,745,20292.928628
714.0,866,20351.827168
462.0,676,20395.664778
399.0,607,20431.673072
745.0,1057,20505.110571
651.0,997,20565.903408
766.0,898,20626.111297
672.0,862,20683.873667
714.0,967,20742.957336
744.0,998,20811.238294
766.0,899,20869.999839
766.0,909,20928.589873
777.0,1002,20996.560162
724.0,992,21058.498347
808.0,1125,21135.114636
724.0,906,21193.716427
693.0,960,21259.562256
651.0,841,21312.122139
703.0,899,21372.461258
525.0,717,21421.114779
745.0,969,21480.762614
724.0,870,21540.674434
1458.0,1921,21666.973181
693.0,834,21719.17125
693.0,868,21779.267769
441.0,819,21831.724349
839.0,1176,21906.882128
881.0,1070,21976.682368
745.0,1094,22052.238219
567.0,735,22101.639897
462.0,834,22154.572255
651.0,893,22215.555108
798.0,829,22268.736229
640.0,968,22336.049744
441.0,736,22379.589699
745.0,1003,22447.928117
839.0,1095,22524.313485
693.0,795,22574.586701
891.0,1063,22642.64459
588.0,754,22693.712275
787.0,1091,22764.041228
703.0,928,22824.41451
766.0,1007,22892.113308
818.0,1038,22957.301095
756.0,959,23023.641169
756.0,1002,23084.804181
609.0,785,23135.763649
985.0,1249,23219.958602
483.0,892,23279.135451
651.0,829,23329.890059
661.0,770,23379.902291
735.0,936,23439.940938
703.0,818,23497.905421
766.0,1088,23565.558367
651.0,896,23624.555242
745.0,803,23676.019737
787.0,927,23734.798637
745.0,867,23792.63401
798.0,963,23859.92789
525.0,767,23905.292598
651.0,939,23970.75416
630.0,830,24021.517386
766.0,1152,24098.88952
567.0,774,24148.97451
567.0,893,24206.691177
567.0,700,24251.291389
693.0,1009,24321.050979
901.0,1029,24387.275654
819.0,1110,24463.232159
630.0,1027,24532.577378
273.0,419,24557.624077
714.0,925,24615.899115
651.0,937,24677.445393
546.0,655,24720.983232
567.0,659,24763.049202
693.0,1193,24838.538146
714.0,864,24898.751394
860.0,1058,24967.83276
588.0,828,25024.354958
735.0,1120,25094.432544
714.0,936,25161.428003
546.0,817,25211.580371
858.0,1042,25279.953083
609.0,734,25331.373601
692.0,1057,25397.807706
483.0,695,25440.036668
462.0,723,25490.761388
807.0,1117,25558.79294
714.0,932,25618.044306
672.0,906,25678.967122
745.0,932,25743.808561
786.0,967,25803.278041
755.0,931,25864.21178
870.0,961,25929.214744
525.0,638,25970.426883
546.0,705,26014.74308
724.0,918,26075.417342
734.0,804,26125.729206
672.0,935,26190.329766
849.0,1186,26267.344986
703.0,835,26317.500344
817.0,1153,26394.048494
420.0,543,26429.41083
787.0,1189,26506.281019
776.0,1022,26572.782253
891.0,1229,26657.69798
798.0,1023,26722.549526
672.0,729,26766.70418
651.0,775,26818.47559
462.0,738,26868.501228
672.0,879,26925.880562
630.0,999,26993.310754
651.0,967,27054.268275
504.0,609,27095.760187
672.0,1021,27161.336943
651.0,935,27221.354796
672.0,1018,27289.863749
714.0,965,27348.247913
734.0,964,27414.999419
733.0,1250,27494.033431
693.0,1061,27560.600663
870.0,932,27627.789238
829.0,997,27690.528585
777.0,940,27755.994426
902.0,1022,27816.157112
682.0,929,27883.81314
745.0,931,27943.744041
693.0,1038,28010.360061
787.0,1026,28078.965929
745.0,967,28140.283272
734.0,1029,28206.921599
797.0,873,28264.999435
661.0,828,28317.772734
829.0,941,28382.175846
745.0,802,28433.205436
672.0,914,28494.520917
756.0,1044,28562.437776
713.0,1103,28630.408549
651.0,941,28698.702356
765.0,960,28757.521474
1057.0,1666,28868.957066
640.0,963,28929.606097
828.0,932,28993.712101
798.0,1029,29063.685798
483.0,670,29106.582108
724.0,1074,29172.758868
462.0,542,29207.944726
724.0,1164,29284.569585
651.0,701,29332.384855
849.0,1189,29411.191994
881.0,1077,29479.288086
755.0,995,29545.240719
881.0,975,29607.91275
693.0,896,29668.203641
808.0,937,29733.151838
609.0,801,29784.360333
755.0,945,29845.142687
902.0,1184,29920.843257
735.0,901,29979.494192
776.0,996,30047.627493
934.0,1006,30115.586282
735.0,802,30166.390691
777.0,897,30225.204569
777.0,968,30286.421727
922.0,1059,30355.050522
651.0,867,30412.703083
630.0,577,30447.340023
525.0,712,30497.305688
756.0,1010,30565.128542
765.0,772,30616.010189
724.0,798,30666.847848
672.0,841,30718.243629
808.0,925,30777.04737
777.0,927,30842.647837
777.0,863,30894.271852
1070.0,1345,30985.949231
849.0,941,31045.570982
651.0,717,31089.258651
1247.0,1669,31199.791804
848.0,1067,31273.274198
745.0,842,31325.514848
672.0,934,31385.83081
827.0,927,31451.28861
693.0,1025,31511.47904
651.0,746,31561.898872
818.0,861,31620.469804
766.0,877,31679.514137
787.0,976,31740.699475
672.0,866,31799.35045
