# {"t_start": 1547545185.3832288, "env_id": "TimePilotNoFrameskip-v4"} 
r,l,t
4300.0,1680,59.534247
3900.0,2043,120.585776
4100.0,2270,193.398887
4700.0,2586,275.954001
4300.0,2021,340.7094
3900.0,1490,389.256604
4500.0,2044,455.340842
7800.0,2346,529.573215
4500.0,1820,587.359752
3800.0,1435,631.193504
4200.0,1873,689.583368
1000.0,1711,740.884586
4100.0,1380,783.291278
4000.0,1655,833.166156
4400.0,1872,889.019178
7900.0,2825,974.101065
700.0,1573,1023.167044
4500.0,2193,1089.480187
1000.0,1505,1136.536657
7800.0,1837,1188.350944
3900.0,1307,1227.963532
4000.0,1845,1284.473585
4400.0,1552,1333.111379
400.0,903,1360.360611
700.0,1109,1396.363686
800.0,905,1424.57348
4000.0,1786,1480.925649
4800.0,1860,1540.804489
600.0,965,1571.910638
700.0,1403,1619.16833
4500.0,1932,1680.887237
5100.0,2401,1758.276066
900.0,1087,1792.895534
4600.0,2536,1870.982148
4300.0,2032,1935.884422
4100.0,1309,1979.270299
4100.0,1893,2041.500587
4600.0,2217,2112.896567
900.0,1627,2164.230286
800.0,1230,2203.591729
4200.0,1522,2252.594785
4700.0,1948,2316.98819
4400.0,2412,2393.59437
4000.0,1124,2428.666256
1000.0,1373,2470.333892
1300.0,1944,2531.5411
800.0,942,2559.561157
7900.0,2141,2623.705486
3900.0,1218,2663.418806
900.0,1271,2701.745968
4400.0,2112,2763.536802
7700.0,2048,2826.888442
4500.0,1757,2879.198066
800.0,1474,2927.128786
900.0,831,2950.343621
800.0,990,2981.036977
4300.0,1492,3024.735051
3900.0,1256,3059.574429
900.0,1312,3098.862709
4700.0,2237,3169.345779
4700.0,1556,3216.881558
4500.0,1401,3259.459635
800.0,1352,3300.57588
3900.0,1045,3332.517338
1000.0,1284,3373.073359
4000.0,1555,3419.152412
4000.0,1538,3466.560754
4500.0,1837,3524.790599
800.0,1459,3569.533533
4200.0,1802,3624.505224
1100.0,1677,3675.295409
700.0,998,3705.471429
3900.0,1121,3739.62588
800.0,1261,3777.81304
4200.0,1100,3812.423673
800.0,983,3840.439234
700.0,1033,3870.597987
5000.0,2902,3959.385562
4800.0,1723,4011.468876
7800.0,2546,4093.006736
4100.0,2001,4153.583928
4400.0,1934,4212.212213
600.0,1128,4246.455497
1100.0,1224,4281.746708
700.0,723,4302.065949
4900.0,2697,4385.954375
800.0,1536,4433.746828
8200.0,2244,4506.750727
1000.0,1676,4559.098774
700.0,1116,4593.549225
5000.0,2433,4670.091525
1100.0,1255,4708.219951
4300.0,2001,4771.470877
4400.0,1734,4823.908943
8300.0,2289,4893.102178
4200.0,1461,4936.572714
4300.0,1776,4990.512071
4000.0,1381,5032.384429
1100.0,1061,5062.776423
3900.0,1433,5106.195247
700.0,1302,5144.362267
4600.0,1649,5193.144418
1200.0,1304,5231.469409
900.0,1044,5263.735892
800.0,1048,5292.935445
4600.0,1633,5341.45389
3900.0,1171,5376.646173
4400.0,1503,5422.939536
3800.0,951,5450.361429
600.0,1116,5483.086691
900.0,1104,5517.640049
800.0,1327,5559.68092
700.0,1004,5589.859201
3800.0,1188,5627.823519
3900.0,1393,5670.361469
3900.0,1178,5706.602073
900.0,1613,5755.03753
4100.0,1956,5813.45588
500.0,1124,5845.885893
4700.0,1973,5903.555695
900.0,1170,5938.417984
4500.0,1873,5996.454652
4000.0,1480,6040.043304
1300.0,1813,6095.470072
500.0,667,6114.944382
4000.0,1559,6161.382954
700.0,801,6184.700532
4200.0,1303,6224.118579
1000.0,1266,6261.41154
4500.0,2399,6333.276532
4400.0,1892,6389.062854
500.0,1174,6421.642408
700.0,916,6450.652422
700.0,1175,6486.866644
800.0,1342,6531.4939
4300.0,1559,6582.754143
800.0,977,6614.502832
800.0,1207,6653.755906
5100.0,2102,6724.835114
4500.0,2056,6795.701503
500.0,915,6826.896758
4500.0,1670,6880.855191
4200.0,1775,6940.444888
4400.0,1755,6998.087501
4600.0,1778,7058.116786
4100.0,1176,7096.668516
4400.0,1811,7155.832448
3800.0,1423,7201.324755
4800.0,1843,7260.025161
4100.0,1432,7309.154413
4400.0,1910,7373.314485
800.0,946,7404.089215
4200.0,1407,7450.085146
600.0,941,7479.633526
800.0,1591,7534.629873
4400.0,1408,7580.707498
800.0,994,7612.52661
800.0,1363,7658.055985
800.0,1421,7704.411241
3900.0,1614,7756.886939
800.0,918,7787.453077
4000.0,1427,7834.825109
3800.0,1434,7880.919712
4600.0,1961,7944.106815
700.0,1177,7982.361197
800.0,1042,8016.023767
4200.0,1605,8068.923303
4500.0,1710,8123.414117
3900.0,1323,8167.069646
4000.0,1370,8212.331695
4000.0,1300,8255.89863
3800.0,740,8279.80586
4200.0,1231,8319.492812
3900.0,1396,8366.354167
1500.0,1758,8423.275633
800.0,1061,8460.104134
800.0,1046,8495.366387
3800.0,1176,8533.770886
1000.0,1051,8569.049738
700.0,857,8597.108884
1000.0,1300,8639.457665
700.0,837,8667.52863
900.0,1120,8704.275262
4200.0,2032,8771.411538
3900.0,1174,8808.713574
700.0,1402,8854.642441
4300.0,1419,8901.6418
900.0,679,8923.975127
900.0,918,8954.145645
3800.0,904,8984.993204
600.0,1180,9022.256377
4500.0,2065,9092.379922
7900.0,2470,9173.266328
3900.0,1479,9219.437756
700.0,1029,9254.382894
1300.0,998,9285.746432
4800.0,1752,9343.254612
4000.0,1345,9385.79414
1000.0,1388,9431.413299
4100.0,1210,9473.086742
4100.0,1475,9521.884318
1200.0,1206,9562.911566
4100.0,1891,9624.999593
1000.0,1414,9671.200886
900.0,1051,9704.667142
700.0,1054,9739.190128
3900.0,1464,9787.674596
600.0,1343,9832.404058
700.0,1341,9876.011082
700.0,1552,9927.20943
900.0,1123,9962.114664
3800.0,1257,10003.546592
900.0,1481,10052.093518
1100.0,1568,10102.272469
4100.0,1548,10153.454121
700.0,1106,10189.570449
900.0,1414,10236.424055
800.0,1145,10274.258185
3900.0,1408,10319.690787
900.0,1292,10362.065345
4400.0,2063,10430.416359
4600.0,2549,10514.320194
700.0,987,10546.859262
700.0,842,10574.550593
900.0,1152,10610.446077
3900.0,1451,10657.494251
7600.0,1754,10713.772755
800.0,1206,10754.877816
600.0,1143,10792.729185
900.0,1286,10834.380377
700.0,1452,10883.137259
900.0,1097,10918.109779
3800.0,1425,10964.001065
4600.0,1645,11018.834707
4000.0,1440,11064.838455
900.0,1504,11115.060999
3900.0,1268,11156.434439
1000.0,1427,11202.0408
800.0,1416,11247.517426
3900.0,1778,11306.117805
4300.0,1777,11363.494897
500.0,984,11395.769006
800.0,1030,11430.028119
4000.0,1385,11476.957781
600.0,945,11508.0794
400.0,822,11534.511909
500.0,823,11561.191704
500.0,823,11588.496926
400.0,822,11614.148252
500.0,819,11640.159321
500.0,819,11666.638494
3800.0,1097,11702.377213
4300.0,1307,11746.596168
800.0,991,11779.061008
600.0,1879,11841.800975
600.0,1693,11896.022556
800.0,1328,11939.486112
600.0,829,11966.208569
3900.0,1302,12007.866904
4100.0,2412,12089.846268
500.0,919,12120.528032
500.0,1282,12163.53282
400.0,913,12193.017656
700.0,1386,12238.153194
700.0,1158,12274.38269
400.0,1326,12316.810307
400.0,1145,12356.45679
400.0,824,12384.561953
400.0,1201,12423.910731
400.0,821,12449.543943
400.0,1207,12488.71823
400.0,1208,12527.512206
600.0,916,12557.927239
500.0,1125,12596.318294
500.0,1239,12636.579524
500.0,993,12667.575294
500.0,1268,12710.123312
500.0,1116,12746.044613
500.0,1120,12783.368858
500.0,1115,12820.744272
500.0,1037,12854.346969
500.0,1044,12886.281313
700.0,1064,12919.358063
400.0,1432,12965.528986
400.0,1702,13021.564025
400.0,1703,13078.142734
400.0,1701,13134.597897
400.0,1705,13189.850919
400.0,1705,13246.277262
400.0,1703,13302.44751
400.0,1705,13358.701915
400.0,1701,13415.918553
400.0,1699,13471.496791
400.0,1701,13527.339179
400.0,1702,13580.802208
400.0,1702,13638.286696
400.0,1703,13694.491603
400.0,1702,13750.989671
400.0,1704,13807.375757
400.0,1704,13865.167877
400.0,1702,13918.236627
400.0,1699,13973.747099
400.0,1698,14027.655803
400.0,2133,14095.116843
400.0,1705,14151.46645
400.0,1702,14207.513266
400.0,1704,14263.584587
400.0,1699,14317.280043
400.0,1702,14371.827368
400.0,1705,14429.489603
400.0,1701,14483.286647
400.0,1701,14540.843706
600.0,1981,14607.156659
900.0,1292,14651.208678
4000.0,1416,14696.509948
4200.0,1622,14750.079472
900.0,1177,14787.566166
900.0,1284,14832.651715
4100.0,1922,14896.941332
800.0,990,14930.442759
1000.0,1281,14971.773834
4200.0,1735,15028.722751
4100.0,1146,15066.615983
4700.0,1827,15129.70342
600.0,826,15158.232171
4000.0,1359,15200.197637
800.0,1183,15240.482883
4300.0,1869,15302.67869
900.0,1166,15342.21173
4300.0,2113,15411.37384
800.0,1256,15454.423524
800.0,1170,15491.510774
4300.0,1674,15548.029484
3900.0,1564,15599.352968
700.0,1055,15633.649236
800.0,1138,15669.745236
1200.0,1225,15708.183818
8200.0,2461,15790.183299
4400.0,1737,15846.740537
4100.0,1785,15906.020783
4500.0,1648,15959.053513
800.0,1098,15995.126966
4500.0,1786,16054.845757
3900.0,1629,16108.024002
3900.0,1495,16158.018426
4300.0,1464,16206.922878
4500.0,1677,16259.55689
4000.0,1137,16297.39768
700.0,1461,16344.491287
4300.0,1777,16404.55122
600.0,714,16427.300307
4100.0,1360,16471.727092
4100.0,1754,16528.783182
4500.0,1676,16584.040897
4400.0,2066,16653.283961
700.0,1070,16687.244899
4200.0,1659,16741.1971
3800.0,1179,16777.418778
900.0,1102,16814.183645
800.0,1166,16854.717052
4100.0,2050,16922.586347
1000.0,1649,16973.296294
900.0,1705,17029.738649
800.0,1021,17060.485338
4300.0,1763,17115.241764
1000.0,1471,17164.823563
4100.0,2403,17244.387196
4100.0,1522,17296.187622
4000.0,1009,17329.353083
800.0,1414,17376.294822
900.0,1456,17424.23403
4300.0,2203,17499.125389
4100.0,2285,17577.066126
500.0,1354,17621.376089
700.0,1208,17660.642917
600.0,901,17688.092413
600.0,1280,17732.134524
800.0,1633,17787.91187
3800.0,1545,17839.326609
3900.0,1863,17897.957601
3800.0,1735,17955.416639
900.0,1558,18008.228637
900.0,1310,18053.015212
800.0,1515,18101.788057
900.0,1574,18153.147677
4700.0,2101,18222.724817
800.0,1768,18280.494793
4400.0,1759,18339.615479
500.0,935,18371.685209
800.0,1038,18405.037916
800.0,1453,18456.749487
4000.0,1440,18503.370567
3800.0,1333,18545.765533
3900.0,1169,18583.92601
4600.0,2734,18672.566433
700.0,1332,18715.898269
800.0,1586,18768.968516
3900.0,1217,18810.945589
800.0,1025,18845.993123
700.0,947,18879.269046
4400.0,1984,18946.367959
3900.0,1524,18994.742175
800.0,1116,19031.514715
700.0,1117,19069.360639
600.0,1115,19107.28201
800.0,1115,19143.818527
800.0,1120,19177.036437
800.0,1251,19217.571823
600.0,1178,19255.244128
800.0,1079,19288.430259
600.0,1059,19322.982568
400.0,972,19354.054043
400.0,1699,19411.965778
400.0,1700,19469.904401
400.0,1488,19517.493082
300.0,1615,19570.070905
400.0,1698,19622.695874
400.0,1703,19678.61223
400.0,1701,19732.979697
400.0,1704,19789.503153
400.0,1704,19847.295042
400.0,1703,19905.716893
400.0,1699,19961.896138
400.0,1703,20017.695028
400.0,1700,20072.369438
400.0,1698,20130.16874
400.0,1705,20185.453739
400.0,1703,20241.00256
400.0,1698,20296.799426
400.0,1704,20353.345059
400.0,1699,20408.113691
400.0,1700,20463.563822
500.0,1661,20515.547478
400.0,1701,20569.86251
400.0,1704,20624.580026
400.0,1704,20681.042173
400.0,1701,20738.385106
400.0,1700,20795.718057
400.0,1699,20852.613214
400.0,1698,20907.124191
400.0,1702,20965.414732
400.0,1705,21020.811535
400.0,1701,21075.974435
400.0,1699,21131.460755
400.0,1703,21186.618982
400.0,1705,21241.509161
400.0,1701,21297.101949
400.0,1704,21354.682439
400.0,1704,21413.345321
400.0,1705,21473.373283
400.0,1705,21529.453311
400.0,1705,21586.591949
400.0,1699,21642.260332
400.0,1704,21697.694383
400.0,1813,21761.394301
800.0,1073,21796.033354
4000.0,1855,21860.001586
4000.0,2042,21925.875913
800.0,1249,21968.083911
700.0,945,22000.212844
700.0,980,22030.445959
500.0,1444,22078.070051
600.0,999,22110.818715
500.0,822,22136.532906
500.0,823,22164.086332
500.0,818,22190.882209
500.0,818,22215.935267
500.0,825,22243.033848
700.0,1092,22281.016131
700.0,1375,22326.508351
3900.0,1661,22381.162038
4100.0,1941,22445.354215
3900.0,1556,22495.858465
600.0,809,22522.149771
4300.0,1559,22572.201525
4200.0,2151,22641.232786
400.0,991,22675.151121
4000.0,1494,22723.085988
3900.0,1545,22774.409203
4200.0,1815,22832.105392
4100.0,1980,22897.004638
1000.0,2226,22971.310672
800.0,1933,23033.727463
700.0,1141,23070.454824
4200.0,1541,23121.187302
1000.0,1301,23164.720642
600.0,863,23194.868026
500.0,1504,23244.193519
200.0,947,23275.756577
900.0,1324,23320.470199
3900.0,1654,23373.198857
1200.0,1500,23423.77609
800.0,2273,23498.250072
500.0,920,23526.892006
600.0,1343,23571.881066
3800.0,1813,23632.560335
1000.0,1278,23672.681303
3900.0,1476,23721.101342
600.0,1016,23756.526795
4400.0,1890,23819.836025
4200.0,1944,23884.16208
4100.0,1685,23939.195715
4000.0,1463,23987.583888
4500.0,1941,24052.457082
700.0,1097,24089.010524
4300.0,1681,24143.909188
800.0,1509,24192.861289
1100.0,1533,24243.416817
3900.0,2240,24320.144708
4100.0,2112,24390.100749
700.0,1092,24422.841456
600.0,1247,24464.427321
600.0,1221,24505.022703
500.0,1654,24558.293303
500.0,1164,24596.483611
500.0,1163,24634.822686
500.0,1658,24687.899212
500.0,1658,24744.938969
500.0,1654,24798.927045
500.0,1656,24854.900331
500.0,1162,24893.913623
500.0,1658,24948.615652
500.0,1045,24982.078421
600.0,1602,25034.033091
500.0,1657,25087.046395
500.0,1656,25142.778561
500.0,1658,25200.213681
500.0,1653,25255.927348
600.0,1606,25308.225194
500.0,1657,25363.682672
500.0,1680,25419.996764
500.0,883,25449.819942
500.0,916,25480.593471
500.0,918,25512.179243
500.0,887,25542.489278
400.0,1413,25590.632969
500.0,1357,25635.047022
400.0,1140,25673.936079
400.0,2284,25749.981634
500.0,1164,25787.655512
500.0,1076,25823.122738
500.0,916,25851.595509
500.0,930,25880.815825
500.0,933,25910.644753
400.0,1204,25950.781158
400.0,1208,25990.96032
400.0,1203,26031.997037
400.0,1208,26070.126111
500.0,935,26100.585002
400.0,1203,26138.848696
500.0,933,26170.604436
400.0,1202,26210.528159
400.0,1205,26248.874618
400.0,1205,26288.87241
400.0,1204,26327.964303
400.0,819,26352.816263
400.0,825,26380.753993
400.0,1208,26420.294652
400.0,1208,26457.995498
400.0,825,26484.417997
400.0,821,26510.265223
400.0,1202,26551.687745
400.0,1203,26589.587282
400.0,1205,26628.019473
400.0,1205,26668.124996
400.0,824,26693.941232
400.0,825,26720.383638
400.0,821,26747.554316
400.0,821,26776.194697
400.0,819,26801.989721
400.0,825,26829.991499
400.0,825,26856.735651
400.0,822,26883.797199
400.0,824,26912.268747
400.0,824,26939.642491
400.0,824,26965.216032
400.0,819,26992.530339
400.0,819,27020.4788
400.0,818,27046.883496
400.0,823,27074.843674
400.0,825,27102.061836
400.0,821,27129.565203
400.0,823,27155.45185
400.0,821,27182.371383
400.0,825,27208.984165
400.0,823,27234.35026
400.0,824,27261.960901
400.0,821,27289.018658
400.0,820,27317.970068
400.0,819,27343.89712
400.0,820,27370.008961
400.0,821,27397.275507
400.0,822,27422.809075
400.0,821,27450.509521
400.0,825,27478.087158
400.0,825,27505.736151
400.0,823,27532.099412
400.0,825,27559.049716
400.0,822,27586.164506
400.0,823,27614.293126
400.0,822,27641.260523
400.0,821,27667.483502
400.0,825,27695.072996
400.0,820,27720.712814
400.0,823,27746.295099
400.0,822,27773.964731
400.0,818,27800.461653
400.0,823,27827.107073
400.0,823,27853.819222
400.0,819,27881.107097
400.0,824,27907.553878
400.0,821,27935.537906
400.0,825,27962.118505
400.0,818,27988.172172
400.0,823,28014.296979
400.0,821,28041.246725
400.0,821,28067.522544
400.0,823,28094.72444
400.0,824,28123.529477
400.0,822,28150.702469
400.0,822,28178.316529
400.0,819,28204.654208
400.0,821,28233.496573
400.0,821,28261.100123
400.0,818,28287.301264
400.0,822,28314.054401
400.0,825,28341.805298
400.0,818,28368.212797
400.0,821,28396.230092
400.0,823,28423.413814
400.0,825,28449.755537
400.0,819,28476.036603
400.0,824,28503.019629
400.0,818,28530.673384
400.0,819,28556.79604
400.0,819,28585.251309
400.0,825,28611.181132
400.0,825,28637.525428
400.0,823,28666.488502
400.0,825,28695.757799
500.0,832,28722.622617
500.0,995,28756.377914
600.0,1411,28803.068446
500.0,1187,28842.693023
400.0,1381,28887.14302
500.0,1232,28928.48058
700.0,1212,28969.093393
400.0,785,28994.045262
500.0,1033,29027.386918
1200.0,1691,29081.080417
800.0,1284,29123.64845
800.0,1115,29158.325746
700.0,1018,29191.014702
600.0,985,29222.8218
500.0,1107,29260.655952
500.0,1683,29315.625575
500.0,1695,29369.017867
1000.0,1625,29421.471995
4000.0,1694,29477.436918
600.0,1769,29537.969824
4100.0,1392,29584.419195
700.0,995,29616.662062
4200.0,1812,29675.177369
600.0,862,29702.36796
700.0,1236,29741.647578
800.0,887,29770.426519
600.0,1211,29810.694129
500.0,1619,29861.979643
600.0,1577,29914.457331
500.0,960,29946.102284
400.0,1121,29983.697573
500.0,869,30011.535925
500.0,920,30040.419415
500.0,888,30069.879634
400.0,912,30098.18818
500.0,1705,30155.283726
400.0,1349,30198.545227
600.0,1493,30245.889838
500.0,971,30277.751564
500.0,1047,30310.405547
500.0,1656,30361.430943
500.0,1656,30416.23711
500.0,1166,30452.760232
500.0,1161,30491.506076
500.0,1165,30528.217449
500.0,1166,30565.145591
500.0,2044,30632.784888
500.0,1162,30672.07323
500.0,2047,30738.559302
500.0,1163,30776.335942
500.0,2045,30843.745617
500.0,2042,30910.408499
500.0,1658,30962.408608
500.0,1659,31016.827838
500.0,1657,31070.636137
500.0,1656,31126.177314
500.0,1694,31180.224437
500.0,1652,31234.951369
500.0,1656,31289.172892
500.0,1657,31342.843434
500.0,1657,31397.913997
500.0,2041,31466.775325
500.0,1656,31521.731713
500.0,2041,31590.145292
500.0,2047,31656.836643
500.0,1658,31710.990008
500.0,2042,31778.518872
500.0,1655,31833.03849
500.0,2048,31898.386606
500.0,1656,31955.314647
500.0,1657,32011.343883
500.0,1658,32065.557998
500.0,1656,32120.293769
500.0,1658,32175.19822
500.0,1654,32228.917506
500.0,1658,32286.244363
500.0,1653,32338.546517
500.0,1655,32393.832489
500.0,1658,32447.032297
600.0,1767,32503.631079
4300.0,2045,32571.811538
800.0,1297,32613.664985
500.0,820,32640.286286
600.0,1117,32676.161809
400.0,819,32701.470506
400.0,1463,32748.241841
400.0,822,32775.083508
400.0,820,32801.563411
400.0,821,32828.642619
400.0,823,32854.57556
400.0,822,32882.103508
400.0,821,32911.449419
400.0,822,32936.854599
400.0,822,32963.318483
400.0,820,32990.837361
400.0,819,33018.217517
400.0,825,33046.593321
400.0,819,33074.348635
400.0,823,33100.819415
400.0,819,33126.06072
400.0,823,33153.20935
400.0,820,33180.755563
600.0,974,33211.825325
800.0,1014,33244.092
400.0,949,33273.909696
600.0,1346,33316.144107
500.0,1654,33374.334797
500.0,2044,33438.958627
500.0,1657,33494.863951
500.0,2047,33564.349348
500.0,2042,33632.029418
500.0,1655,33688.386789
500.0,1655,33742.697766
500.0,1653,33798.642573
500.0,2047,33866.209396
500.0,1658,33921.89014
500.0,1657,33977.45093
500.0,1656,34032.313718
500.0,2042,34099.900551
500.0,1655,34154.67935
700.0,1605,34209.85884
500.0,1270,34254.77588
4200.0,1890,34315.053868
4400.0,1770,34371.513407
500.0,971,34404.49438
900.0,1394,34449.153069
700.0,1911,34513.535671
500.0,2116,34584.236052
500.0,1657,34636.514654
500.0,1658,34689.918351
500.0,2041,34758.827791
500.0,2042,34827.381864
800.0,1736,34883.962025
4100.0,1818,34944.584783
1000.0,1419,34991.158278
600.0,1770,35051.158989
700.0,1503,35099.569826
300.0,1071,35135.460702
600.0,1548,35187.389292
500.0,1537,35239.225032
900.0,1567,35292.462359
600.0,1034,35328.109114
500.0,1503,35377.50475
500.0,1166,35418.214649
500.0,1163,35457.129659
500.0,1160,35494.355738
500.0,2048,35559.320997
500.0,1165,35597.355085
500.0,1163,35634.088013
500.0,1160,35671.659078
500.0,2045,35741.354515
500.0,1166,35780.216954
500.0,2047,35848.745885
500.0,1161,35886.374526
500.0,1161,35924.965836
500.0,1163,35964.8161
500.0,2044,36032.646914
500.0,1164,36069.958995
500.0,1165,36107.982733
500.0,1165,36145.961473
500.0,1167,36185.315694
500.0,1166,36223.596263
500.0,1161,36261.186957
500.0,1165,36298.939185
500.0,1163,36338.548388
500.0,1165,36375.511044
600.0,1508,36424.589871
600.0,1751,36481.608578
600.0,1476,36529.30444
600.0,1065,36564.938286
500.0,937,36595.247242
3900.0,1744,36653.483749
500.0,1005,36684.30746
1100.0,1408,36729.844183
800.0,938,36761.597029
4100.0,1701,36816.282688
4000.0,1525,36866.993995
600.0,1682,36919.875635
3800.0,1574,36972.494575
3800.0,848,37000.321775
1200.0,1481,37049.621492
700.0,1461,37097.821293
700.0,1177,37135.981999
800.0,1066,37168.5244
700.0,1431,37216.047713
3800.0,1274,37256.607351
900.0,1129,37294.765249
700.0,1478,37345.138705
600.0,1275,37386.819993
3800.0,1524,37439.643774
600.0,1355,37485.392245
500.0,1059,37518.913166
800.0,1036,37554.51457
4000.0,1165,37592.97106
800.0,1393,37638.710424
800.0,1353,37682.580022
700.0,1043,37716.786617
3800.0,1399,37761.502317
700.0,1044,37795.275123
800.0,1405,37841.778759
4000.0,1198,37883.273954
1100.0,1182,37922.206871
4000.0,1520,37971.504346
4000.0,1262,38015.408962
1200.0,1540,38065.54534
4000.0,1990,38132.054992
4100.0,1889,38194.26932
900.0,1221,38233.114099
500.0,1177,38270.6241
600.0,718,38294.329532
4200.0,1810,38353.976741
700.0,1118,38391.273933
900.0,1236,38432.213514
3900.0,1464,38480.092656
900.0,1344,38521.762503
700.0,1446,38569.272307
400.0,686,38589.989073
600.0,858,38618.687068
4100.0,1586,38667.919487
4700.0,1715,38723.894415
800.0,1894,38786.569191
700.0,1179,38823.960986
900.0,958,38855.486743
4200.0,1913,38918.612637
700.0,914,38947.946169
4000.0,884,38977.095402
700.0,1178,39015.737636
4300.0,1782,39074.066288
4100.0,1435,39119.653385
4100.0,1617,39170.892804
700.0,1070,39206.861831
4300.0,2738,39297.358554
500.0,991,39328.107192
3900.0,1439,39374.681088
800.0,1431,39422.745334
500.0,829,39449.323859
600.0,1636,39504.12255
500.0,1843,39565.451017
400.0,1703,39622.084254
400.0,1700,39677.946525
400.0,1701,39734.088601
400.0,1702,39788.526016
400.0,1705,39843.962781
400.0,1701,39900.157128
400.0,1702,39955.176284
400.0,1700,40012.132847
600.0,1671,40065.970944
600.0,1420,40113.771433
600.0,956,40145.253237
3900.0,1384,40191.557673
3900.0,1812,40250.264558
3800.0,1562,40302.418717
700.0,1166,40340.829806
600.0,774,40366.033546
500.0,958,40397.870466
3900.0,1248,40439.832077
3900.0,1525,40487.051657
4300.0,1775,40547.073262
800.0,1407,40594.012156
800.0,1028,40626.814641
800.0,1088,40662.58617
1100.0,1305,40704.968796
4000.0,1521,40755.98696
800.0,1379,40802.972651
4000.0,1827,40861.943972
500.0,1046,40897.906687
500.0,1046,40933.133578
400.0,969,40963.244926
800.0,1203,41002.735814
1100.0,1725,41057.730442
1000.0,1020,41092.010424
4000.0,1376,41137.927263
500.0,965,41168.978782
3900.0,1497,41218.295913
4000.0,1322,41261.852503
900.0,1178,41298.523402
800.0,1329,41342.124512
4100.0,2087,41413.118421
600.0,950,41443.150317
800.0,1639,41496.511698
4400.0,2088,41569.216434
600.0,1430,41614.719321
500.0,1173,41653.095195
4000.0,1973,41720.348241
800.0,1042,41754.246675
500.0,1586,41808.220015
4200.0,2739,41898.414121
4200.0,2938,41995.69732
600.0,784,42019.080461
500.0,1238,42061.329642
700.0,1371,42107.692944
800.0,1024,42141.711685
500.0,958,42174.860959
500.0,778,42199.097509
600.0,1071,42234.973257
400.0,847,42260.031886
500.0,785,42285.985148
500.0,772,42312.73076
500.0,841,42339.046231
400.0,1284,42382.918788
500.0,692,42405.030701
400.0,1843,42466.467109
400.0,969,42496.40592
500.0,1488,42540.61969
300.0,1327,42582.891919
400.0,1009,42616.386797
600.0,1377,42660.487798
400.0,814,42685.812199
400.0,1455,42730.814936
4000.0,1852,42788.240773
500.0,1193,42826.091959
500.0,1019,42858.259948
600.0,1617,42907.438689
700.0,1865,42964.556882
500.0,1397,43006.886411
600.0,1035,43038.871188
400.0,1320,43077.598829
500.0,1820,43136.300488
600.0,952,43166.241589
600.0,1108,43199.287002
500.0,1389,43242.133424
500.0,949,43271.032915
500.0,947,43299.93135
500.0,943,43327.558661
400.0,1647,43376.261513
500.0,1144,43411.579323
400.0,1265,43449.820812
400.0,1352,43492.204911
500.0,1147,43528.26261
500.0,1377,43571.41553
500.0,1535,43619.19295
400.0,1191,43655.09165
500.0,1506,43700.261236
500.0,1044,43733.100911
400.0,1390,43773.513444
400.0,1313,43815.094967
400.0,1702,43869.019955
400.0,1699,43923.044955
400.0,1699,43972.571517
400.0,1699,44023.931347
400.0,1698,44075.747415
400.0,1704,44129.001395
400.0,1701,44181.408307
400.0,1702,44233.462959
400.0,1702,44285.484701
400.0,1700,44335.58373
400.0,1700,44389.422621
400.0,1700,44444.116147
400.0,1699,44498.367978
400.0,1703,44555.765215
400.0,1705,44612.162183
400.0,1703,44667.424003
400.0,1704,44722.192833
400.0,1703,44774.345149
400.0,1705,44827.236986
400.0,1704,44878.178619
400.0,1705,44932.601364
400.0,1702,44985.335809
400.0,1700,45037.772542
400.0,1704,45089.431788
400.0,1705,45142.477873
400.0,1703,45195.87405
400.0,1699,45247.534417
400.0,1705,45300.09554
400.0,1704,45351.904237
400.0,1698,45409.044499
400.0,1700,45462.092928
400.0,1701,45511.268675
400.0,1700,45561.118973
400.0,1705,45616.353954
400.0,1703,45669.147547
400.0,1702,45723.759907
400.0,1703,45776.235585
400.0,1702,45829.048979
400.0,1701,45883.88591
400.0,1705,45936.455136
400.0,1703,45993.866146
400.0,1705,46050.765686
400.0,1705,46104.493316
400.0,1699,46157.562787
400.0,1700,46209.979034
400.0,1704,46262.6987
400.0,1699,46313.630013
400.0,1698,46367.039917
400.0,1698,46421.011101
400.0,1701,46472.736661
400.0,1698,46524.272388
400.0,1702,46576.762142
400.0,1703,46627.196915
400.0,1705,46679.188465
400.0,1704,46732.565537
400.0,1702,46783.879226
400.0,1698,46832.95624
400.0,1705,46886.369443
400.0,1699,46935.173854
400.0,1705,46982.168701
400.0,1705,47028.563687
400.0,1701,47077.964632
400.0,1699,47125.201995
400.0,1703,47175.030081
400.0,1702,47218.811355
400.0,1698,47266.184289
400.0,1704,47311.812833
400.0,1705,47358.013705
400.0,1700,47401.228749
400.0,1705,47445.531678
400.0,1705,47488.139103
400.0,1704,47531.1029
400.0,1701,47576.402457
400.0,1702,47619.51953
400.0,1703,47663.346562
400.0,1705,47707.667723
400.0,1700,47751.814899
400.0,1705,47795.678586
400.0,1701,47840.630972
400.0,1698,47885.666889
400.0,1705,47928.935335
400.0,1700,47972.549866
400.0,1703,48019.223253
400.0,1702,48066.093466
400.0,1703,48111.947257
400.0,1702,48157.210217
300.0,1295,48191.538466
300.0,1494,48229.421365
400.0,1704,48271.680887
400.0,1699,48318.326791
400.0,1702,48362.471195
400.0,1701,48409.539212
400.0,1699,48454.582247
400.0,1701,48496.853158
400.0,1701,48538.743269
400.0,1705,48582.485009
400.0,1698,48624.387379
400.0,1699,48665.596483
400.0,1698,48708.080444
400.0,1699,48750.249982
400.0,1704,48789.356366
400.0,1703,48831.009418
400.0,1699,48872.885294
400.0,1702,48915.041084
400.0,1701,48958.514248
400.0,1700,48998.390407
400.0,1698,49039.012846
400.0,1700,49080.050912
400.0,1702,49122.065294
400.0,1705,49163.141824
400.0,1702,49204.251864
400.0,1703,49246.062337
400.0,1705,49287.393045
400.0,1700,49328.553687
400.0,1701,49370.792613
400.0,1704,49412.11659
400.0,1701,49453.540853
400.0,1705,49494.576247
400.0,1701,49537.499364
400.0,1703,49579.495407
400.0,1702,49620.927081
400.0,1700,49663.2661
400.0,1699,49704.669697
400.0,1700,49745.935484
400.0,1701,49788.74727
400.0,1702,49829.470266
400.0,1700,49872.02616
400.0,1704,49914.391804
400.0,1703,49955.812471
400.0,1701,49996.526579
400.0,1699,50037.559849
400.0,1700,50079.657659
400.0,1699,50121.250141
400.0,1705,50164.396428
400.0,1702,50206.944124
400.0,1698,50247.076514
400.0,1700,50290.070337
400.0,1704,50331.293821
400.0,1701,50373.89668
400.0,1705,50416.275767
400.0,1701,50456.177095
400.0,1700,50496.576136
400.0,1699,50539.055251
400.0,1701,50580.04502
400.0,1699,50621.625622
400.0,1700,50662.257499
400.0,1703,50702.355712
400.0,1704,50742.457707
400.0,1699,50782.723871
400.0,1702,50823.433503
400.0,1702,50866.434857
400.0,1698,50907.830683
400.0,1703,50950.17482
400.0,1700,50991.312274
400.0,1702,51032.080012
400.0,1705,51072.340036
400.0,1704,51114.395699
400.0,1698,51155.107716
400.0,1704,51197.148722
400.0,1705,51238.983089
400.0,1703,51279.75078
400.0,1702,51320.485411
400.0,1699,51362.171967
400.0,1701,51403.065535
400.0,1699,51444.342584
400.0,1702,51487.718377
400.0,1702,51530.126131
400.0,1699,51571.484502
400.0,1699,51612.837186
400.0,1702,51653.695458
400.0,1701,51695.311458
400.0,1704,51737.750187
400.0,1700,51780.268303
400.0,1704,51822.242754
400.0,1700,51864.690684
400.0,1698,51907.304307
400.0,1699,51948.725349
400.0,1703,51990.791323
400.0,1703,52033.212707
400.0,1701,52074.114891
400.0,1703,52115.786048
400.0,1703,52158.982743
400.0,1702,52199.414771
400.0,1702,52240.541648
400.0,1700,52280.621237
400.0,1702,52323.23652
400.0,1704,52366.365646
400.0,1705,52407.915364
400.0,1700,52448.427666
400.0,1702,52489.822963
400.0,1699,52533.006132
400.0,1698,52574.037091
400.0,1702,52617.481352
400.0,1701,52658.946091
400.0,1703,52700.173681
400.0,1700,52742.82129
400.0,1701,52784.746943
400.0,1700,52827.657957
400.0,1700,52871.852121
400.0,1705,52916.145405
400.0,1699,52958.353538
400.0,1703,53001.006661
400.0,1700,53043.834461
400.0,1705,53087.949667
400.0,1700,53130.515469
400.0,1703,53175.217534
400.0,1702,53217.568491
400.0,1699,53261.623583
400.0,1702,53306.390027
400.0,1704,53353.89433
400.0,1700,53399.073179
400.0,1700,53442.692428
400.0,1700,53488.739566
400.0,1700,53536.028931
400.0,1705,53583.329522
400.0,1702,53631.323752
400.0,1702,53682.660103
400.0,1702,53732.539374
400.0,1705,53785.833288
400.0,1703,53838.145348
400.0,1702,53890.627182
400.0,1700,53941.00746
400.0,1700,53990.639676
400.0,1702,54047.536222
400.0,1704,54104.03155
400.0,1705,54159.749315
400.0,1699,54216.733028
400.0,1701,54275.927795
400.0,1699,54331.220132
400.0,1703,54381.698418
400.0,1700,54436.266628
400.0,1703,54491.608087
400.0,1698,54551.490912
400.0,1698,54611.678333
400.0,1703,54669.95775
400.0,1700,54727.111126
400.0,1699,54784.429408
400.0,1699,54843.515367
400.0,1703,54903.580592
400.0,1703,54960.584051
400.0,1705,55018.430485
400.0,1699,55077.242496
400.0,1698,55134.252111
400.0,1698,55188.226169
400.0,1703,55248.756734
400.0,1704,55308.377856
400.0,1704,55367.975511
400.0,1704,55422.558459
400.0,1701,55482.993276
400.0,1705,55540.615307
400.0,1703,55600.050608
400.0,1703,55661.48558
400.0,1699,55720.64963
400.0,1700,55779.911697
400.0,1702,55840.502284
400.0,1703,55902.616265
400.0,1702,55963.502797
400.0,1703,56024.788984
400.0,1702,56086.066711
400.0,1701,56146.105753
400.0,1704,56206.26176
400.0,1704,56262.590607
400.0,1700,56319.703715
400.0,1704,56379.803101
300.0,1424,56429.673727
300.0,1533,56485.390639
400.0,1533,56541.552213
300.0,1420,56590.94629
300.0,1426,56640.91132
400.0,1535,56695.694754
300.0,1421,56745.554639
400.0,1529,56801.903423
300.0,1422,56850.38503
400.0,1663,56906.572464
400.0,963,56939.702541
500.0,944,56972.616016
400.0,1232,57014.004581
500.0,1252,57056.380058
400.0,850,57085.129525
500.0,1357,57131.714576
400.0,1690,57189.652187
400.0,1197,57230.306342
400.0,943,57259.008724
300.0,1330,57308.525509
400.0,2133,57385.90615
500.0,1499,57441.976234
300.0,1024,57477.604716
400.0,1034,57515.355903
500.0,1043,57550.687866
600.0,1193,57593.049741
600.0,1038,57630.443319
700.0,1104,57669.09863
500.0,1884,57732.993358
500.0,1261,57777.792965
500.0,1910,57844.263426
3800.0,1554,57900.086733
4100.0,2278,57980.304495
700.0,1465,58030.625674
4200.0,1534,58083.039023
800.0,1457,58135.824276
600.0,1159,58175.79729
600.0,1412,58225.992286
600.0,1450,58275.598204
500.0,1180,58318.013865
4000.0,1514,58371.817712
700.0,1633,58429.245978
400.0,1699,58487.384104
400.0,1165,58528.924467
4400.0,2475,58616.830301
500.0,779,58644.755879
800.0,1268,58690.904972
500.0,793,58719.612957
4000.0,1718,58778.491328
4100.0,1653,58836.349652
700.0,1293,58883.061151
4100.0,1391,58932.189214
800.0,1256,58973.679239
700.0,1361,59020.056204
800.0,1267,59063.976488
4100.0,2080,59136.751245
700.0,1514,59186.548907
900.0,1190,59228.933613
4000.0,1154,59269.732029
4000.0,1055,59307.456865
3900.0,1493,59359.482722
900.0,1535,59415.745795
800.0,1278,59459.831872
600.0,1200,59500.241539
800.0,1086,59536.916359
1000.0,1694,59599.393804
800.0,1077,59636.53915
4100.0,2004,59707.152702
900.0,1543,59761.175332
700.0,1396,59809.423379
700.0,1025,59844.675716
600.0,839,59872.280438
4400.0,2030,59944.359794
800.0,1297,59988.112273
4000.0,1203,60030.156934
700.0,1434,60080.922748
800.0,1091,60116.449032
800.0,1007,60151.920602
3900.0,1376,60201.425851
700.0,1012,60236.147298
900.0,1241,60281.32902
700.0,1019,60316.825655
900.0,927,60348.36425
800.0,1331,60395.726917
4200.0,1540,60450.853858
900.0,1209,60495.057068
3900.0,1119,60533.930875
500.0,1017,60568.219418
700.0,808,60598.221535
500.0,795,60623.850335
800.0,1136,60664.389886
4000.0,982,60697.939423
500.0,838,60727.847337
500.0,1106,60764.93754
500.0,689,60789.111969
500.0,1024,60825.319221
600.0,799,60851.30662
500.0,1022,60887.566337
500.0,1022,60921.68929
500.0,1025,60959.172774
500.0,1021,60990.252318
500.0,1020,61024.780052
600.0,798,61051.98909
500.0,1020,61087.852004
500.0,1000,61125.274129
600.0,1346,61172.207811
500.0,1021,61209.382663
500.0,1022,61241.626817
600.0,798,61270.746968
500.0,1021,61307.730533
500.0,820,61336.567523
600.0,801,61364.34964
600.0,801,61391.527267
600.0,918,61423.108935
500.0,1894,61486.638527
800.0,869,61517.803265
500.0,1025,61552.36508
600.0,1216,61592.907063
500.0,943,61625.36572
600.0,992,61657.682863
900.0,958,61690.50595
500.0,1037,61726.612499
700.0,685,61749.35944
700.0,1177,61789.160397
600.0,842,61817.832397
800.0,973,61851.282408
700.0,917,61882.393078
700.0,1104,61922.731304
800.0,849,61951.139254
700.0,895,61982.506487
900.0,1104,62018.779909
3800.0,1156,62059.217019
700.0,1069,62095.507379
700.0,836,62124.00868
700.0,838,62154.301361
700.0,836,62181.887131
700.0,839,62210.888184
700.0,839,62240.574799
600.0,826,62269.219867
700.0,839,62298.958658
700.0,836,62329.840032
700.0,836,62359.189653
700.0,835,62388.984685
600.0,828,62416.287302
600.0,893,62448.064789
600.0,826,62477.87734
700.0,890,62507.102565
700.0,890,62537.888127
700.0,943,62568.193935
3900.0,1193,62609.608048
700.0,1279,62655.721446
600.0,1110,62693.527422
500.0,824,62723.432432
500.0,821,62750.865366
500.0,823,62775.919424
500.0,819,62804.608811
500.0,825,62834.272335
500.0,825,62862.589723
500.0,825,62891.843811
500.0,823,62918.068114
500.0,825,62946.561144
500.0,824,62976.095382
500.0,819,63006.042378
500.0,824,63034.475726
500.0,819,63061.939517
500.0,823,63091.300896
500.0,822,63120.174815
500.0,819,63148.823611
500.0,818,63179.042336
500.0,819,63208.909497
500.0,823,63238.120822
500.0,821,63265.845875
500.0,824,63294.27896
500.0,824,63321.146406
500.0,825,63349.38536
500.0,823,63377.617064
500.0,825,63405.485656
500.0,819,63431.619561
500.0,825,63459.691257
500.0,825,63488.89037
500.0,825,63519.392253
500.0,825,63548.052939
500.0,818,63574.121953
500.0,822,63602.985698
500.0,825,63629.598032
700.0,1039,63665.479224
900.0,1004,63699.895245
600.0,920,63731.829228
700.0,1817,63796.003936
500.0,825,63823.409018
500.0,819,63851.705548
500.0,819,63880.7938
500.0,825,63908.87354
500.0,821,63934.915123
500.0,819,63964.500283
500.0,820,63993.096381
500.0,825,64019.357582
500.0,820,64048.327504
500.0,822,64076.447624
500.0,823,64105.127306
500.0,822,64133.621452
500.0,824,64161.318797
500.0,820,64188.489253
500.0,821,64215.036972
500.0,821,64244.266633
500.0,820,64270.438836
500.0,825,64300.253538
500.0,823,64329.740986
500.0,820,64356.756624
800.0,1523,64408.03009
500.0,824,64437.878222
500.0,824,64467.280611
500.0,820,64495.899133
800.0,1607,64554.401967
4100.0,1036,64590.75371
700.0,1272,64631.701802
700.0,1357,64679.234559
600.0,1040,64715.662556
3900.0,993,64751.335552
800.0,827,64781.016739
800.0,1309,64825.073633
800.0,793,64853.810055
800.0,1269,64898.695798
500.0,979,64933.694816
500.0,1077,64970.834503
500.0,1259,65015.202791
500.0,1830,65076.656019
3900.0,1428,65125.413115
700.0,947,65160.640596
4000.0,1625,65215.447095
800.0,1053,65250.538427
800.0,876,65280.419051
700.0,1176,65323.558921
700.0,818,65352.860508
3800.0,1510,65405.11172
4600.0,1737,65464.676599
4100.0,1336,65512.001146
3900.0,1392,65561.473274
600.0,837,65590.573339
800.0,1444,65641.820255
3900.0,1053,65679.471699
700.0,923,65711.934021
4100.0,2037,65785.787677
500.0,916,65815.046309
500.0,767,65842.738794
500.0,768,65869.857601
500.0,765,65897.70493
500.0,767,65924.685564
500.0,763,65951.786055
500.0,767,65978.301445
500.0,769,66005.352974
500.0,764,66031.951687
500.0,768,66059.910054
500.0,765,66085.373559
500.0,768,66112.653777
500.0,763,66140.720265
500.0,763,66166.740897
500.0,762,66193.076291
500.0,1026,66228.641855
800.0,873,66260.222757
800.0,1497,66310.817273
1100.0,1348,66357.005856
800.0,1144,66394.604413
900.0,1226,66438.69674
4200.0,1557,66493.367835
800.0,1547,66549.061051
800.0,950,66583.822095
1000.0,1417,66634.243115
500.0,1224,66675.97536
4000.0,1507,66728.876948
4400.0,2333,66809.597569
4000.0,1433,66860.640185
800.0,1211,66900.922343
4100.0,1522,66954.614532
4500.0,1458,67004.36708
4200.0,1493,67055.304702
900.0,1034,67091.824171
1300.0,1301,67136.824032
1200.0,1512,67188.13608
3900.0,1570,67243.992797
3800.0,1231,67285.635776
500.0,1111,67323.796362
700.0,941,67356.856701
4300.0,2016,67428.439529
900.0,1497,67482.055404
700.0,1032,67518.739958
4000.0,1837,67579.666315
3800.0,1357,67625.332047
4200.0,1850,67692.612701
1000.0,1307,67738.705264
700.0,1273,67780.867895
4000.0,1461,67832.356929
4200.0,1397,67881.170041
3900.0,997,67918.934581
800.0,1444,67968.019635
3800.0,1495,68019.896385
800.0,1066,68059.134082
600.0,947,68091.473632
3800.0,1683,68149.256892
800.0,1791,68216.04406
800.0,1343,68263.958017
4100.0,1362,68311.23871
4500.0,1532,68363.195616
4100.0,2037,68434.240245
600.0,1415,68483.50056
800.0,1346,68528.901032
4200.0,1920,68596.943163
1000.0,1224,68637.187159
800.0,1292,68682.34701
1000.0,1117,68721.69242
4000.0,1536,68777.158756
700.0,869,68806.051487
800.0,1376,68854.263747
4000.0,1545,68909.799142
700.0,1111,68949.312747
3900.0,1167,68988.918265
4000.0,2161,69066.267834
3800.0,960,69099.28885
500.0,1090,69135.695402
4200.0,1896,69204.688622
4200.0,1813,69270.722486
800.0,1189,69311.612129
3900.0,1782,69374.429116
600.0,800,69399.782661
4000.0,1438,69451.244283
500.0,1021,69488.273709
4300.0,1396,69537.19407
4100.0,1361,69587.367353
1200.0,1306,69634.430241
4000.0,1312,69680.778235
1100.0,1471,69733.927598
4000.0,1289,69778.484696
800.0,1225,69819.906243
800.0,1475,69870.235097
4600.0,2274,69949.985088
800.0,1181,69991.095946
800.0,969,70025.067051
4900.0,1838,70090.546215
3900.0,1872,70155.771634
4200.0,1952,70223.211258
3800.0,1325,70268.448223
800.0,1349,70312.601924
800.0,908,70344.629054
4000.0,1074,70381.698538
800.0,1133,70421.230458
4000.0,1707,70482.098207
4600.0,1618,70540.852408
4800.0,2005,70610.816069
800.0,962,70645.561862
3900.0,1296,70689.181804
4100.0,1802,70752.654394
700.0,1172,70794.335315
600.0,1149,70833.875358
4200.0,1388,70883.869709
3800.0,1192,70926.232948
1000.0,1508,70978.134406
1000.0,1488,71031.396385
4000.0,1347,71078.955927
4000.0,1509,71132.77375
4000.0,1161,71176.128587
4100.0,2277,71255.121589
4000.0,1400,71306.105341
4300.0,1443,71357.001879
900.0,1211,71401.097506
4100.0,1217,71443.334194
900.0,968,71478.403363
3900.0,1933,71546.698394
600.0,1242,71589.123759
900.0,1315,71634.705706
800.0,1322,71681.670791
800.0,1590,71739.147243
4000.0,1192,71780.450404
600.0,716,71805.476931
700.0,999,71840.74663
400.0,808,71869.252857
800.0,1049,71906.789836
3800.0,917,71939.780262
4500.0,1453,71987.909334
4400.0,1510,72040.843819
4500.0,1585,72096.693298
800.0,836,72125.102281
3900.0,930,72156.65037
900.0,1477,72206.878665
4100.0,1653,72265.203399
1500.0,1605,72320.298057
4200.0,1690,72376.120816
4000.0,1265,72420.21784
3900.0,1105,72459.402134
3900.0,915,72490.550511
3800.0,820,72518.459162
3900.0,1167,72559.806286
1000.0,1109,72597.813178
4200.0,1318,72645.87385
4100.0,1391,72695.642434
4500.0,1815,72762.063704
4100.0,1188,72805.186725
4000.0,1321,72850.349052
400.0,718,72873.338589
700.0,916,72905.65402
600.0,898,72935.964881
3800.0,890,72966.053274
800.0,1542,73017.746299
1000.0,966,73051.084947
1000.0,1392,73097.795478
4200.0,1088,73133.820763
600.0,849,73163.417458
4400.0,1647,73220.05474
4000.0,1264,73264.837754
4000.0,1778,73327.592926
4100.0,2359,73410.905706
800.0,1368,73458.564011
500.0,767,73483.976056
900.0,888,73514.316216
4000.0,1387,73564.140833
4300.0,1834,73626.197569
4200.0,2007,73694.704432
4200.0,1673,73752.94339
4700.0,2849,73853.925287
900.0,1222,73897.752997
4300.0,1510,73952.088432
4300.0,1388,73998.712057
900.0,1049,74034.55522
3800.0,1053,74071.571191
4300.0,2429,74156.52292
4100.0,1510,74209.004968
4600.0,1645,74266.707889
4300.0,2716,74362.143503
600.0,1010,74396.588653
4600.0,1768,74454.672688
3800.0,1012,74489.078114
3900.0,1110,74528.89081
800.0,1180,74571.819284
3800.0,1269,74617.006561
700.0,914,74648.022027
4200.0,1413,74696.418085
1000.0,1281,74740.058003
4200.0,1183,74778.308029
4600.0,2615,74864.924072
4200.0,1253,74909.16097
900.0,951,74941.295127
800.0,1208,74981.966733
800.0,772,75007.09017
900.0,1134,75045.111622
600.0,1035,75081.158464
4000.0,1024,75114.435788
1000.0,1481,75163.346328
4100.0,1661,75219.069088
500.0,948,75249.382196
3900.0,992,75282.057798
800.0,1158,75321.629164
4200.0,1285,75364.413607
800.0,1346,75412.198099
4200.0,1542,75464.822494
4100.0,1233,75502.401929
4100.0,1400,75546.810864
900.0,1013,75580.559221
700.0,1328,75622.816599
4200.0,1589,75676.226271
800.0,1273,75718.950016
900.0,1131,75757.3061
3900.0,1369,75805.756356
4100.0,1389,75854.171061
1200.0,1626,75908.105674
4300.0,1288,75951.323495
4200.0,1385,75998.210948
4000.0,1067,76033.320738
4300.0,1540,76086.584517
4300.0,1822,76149.051409
4100.0,1185,76189.000282
4000.0,1265,76231.039267
4100.0,1527,76284.076836
4200.0,1538,76332.961566
4200.0,1390,76380.672615
4200.0,1518,76430.296501
3900.0,1137,76469.990434
4000.0,1519,76522.839416
1000.0,1322,76568.54628
4200.0,1617,76622.697963
4500.0,1599,76676.539485
3800.0,1348,76723.497664
900.0,1506,76776.651079
900.0,950,76809.13305
700.0,1012,76841.962086
4300.0,1747,76903.842899
4400.0,1877,76971.841075
900.0,1010,77008.806214
4100.0,1951,77076.625007
4000.0,1199,77115.07515
800.0,1336,77160.552552
4200.0,1936,77226.189793
4300.0,1653,77281.252496
600.0,1066,77318.524866
4400.0,2202,77390.80536
1000.0,1333,77435.639103
4300.0,1578,77488.359993
4400.0,1543,77540.389294
800.0,1135,77575.542308
4100.0,1382,77618.398752
4300.0,1610,77670.929039
7700.0,3036,77771.635284
4000.0,1355,77816.796256
1100.0,1335,77862.093932
4000.0,1367,77909.455304
4200.0,1335,77956.071731
1200.0,1463,78008.368813
900.0,1089,78045.107121
3900.0,1846,78105.873838
4200.0,1283,78149.237896
4400.0,1643,78202.621163
7800.0,2383,78284.29497
4100.0,1187,78323.150288
4100.0,1186,78362.299295
4300.0,1734,78419.522778
800.0,1092,78454.767129
900.0,1507,78507.435848
4500.0,2684,78602.109737
4200.0,1727,78662.47938
4000.0,1380,78708.059925
4800.0,1866,78769.770185
800.0,1171,78810.655192
3900.0,1575,78864.41875
4200.0,2272,78938.491271
4300.0,1988,79004.97851
4400.0,1613,79058.639503
4400.0,1589,79113.31528
7800.0,2501,79194.767476
4900.0,2187,79264.189766
4400.0,2735,79355.318479
900.0,1270,79397.533305
800.0,1382,79441.049943
4600.0,2018,79502.256024
4200.0,1539,79553.424566
4200.0,1535,79604.83451
4100.0,1617,79658.763302
4000.0,1771,79717.031767
4100.0,1153,79753.653373
4300.0,1341,79796.804208
4500.0,3043,79894.90541
4200.0,1385,79938.46313
4400.0,1924,80000.84611
4100.0,1768,80057.897452
3800.0,1120,80094.427687
4300.0,1445,80137.932829
4300.0,1387,80182.138701
4300.0,2142,80255.09655
4200.0,1277,80296.696639
4200.0,2001,80358.728916
1000.0,1132,80396.646733
4200.0,1509,80447.585208
4100.0,1771,80506.223696
3800.0,1017,80540.981295
4700.0,1640,80593.89309
4400.0,2906,80688.465868
4400.0,1779,80747.229294
4100.0,1412,80792.98281
4100.0,1412,80839.240884
4400.0,1617,80892.4325
4000.0,1968,80954.771793
4000.0,971,80983.623028
4100.0,1416,81028.198778
4100.0,1414,81072.313031
4400.0,2943,81168.661522
4600.0,1255,81209.847719
4300.0,1373,81253.683073
4600.0,1705,81308.998416
4600.0,2356,81385.074303
