# {"t_start": 1547446645.5955286, "env_id": "KrullNoFrameskip-v4"} 
r,l,t
1941.0,1264,46.733692
2351.0,1173,87.320574
2293.0,1138,127.944391
1730.0,964,161.846642
2774.0,1351,210.269385
2556.0,1155,252.97397
1895.0,1017,288.153307
2457.0,1195,330.421758
2436.0,1084,368.981405
1587.0,861,398.325692
1763.0,1164,438.142497
3469.0,1479,490.712986
1878.0,1073,526.045887
2984.0,1317,571.548081
3294.0,1476,623.582858
1980.0,925,658.410237
3507.0,1757,719.936723
3663.0,1437,772.866114
3879.0,1415,823.597124
2772.0,1283,868.282451
2649.0,1106,909.432518
3732.0,1460,962.951163
3024.0,1304,1011.369715
2754.0,1399,1065.664054
3354.0,1427,1119.683006
2628.0,1259,1163.197653
1614.0,1002,1199.055209
3045.0,1497,1256.472347
3123.0,1455,1309.119024
3653.0,1454,1364.524146
3132.0,1445,1417.797202
3675.0,1499,1470.601209
3243.0,1347,1521.081359
3744.0,1457,1578.885651
2253.0,1088,1618.618571
3108.0,1323,1668.320521
3990.0,1480,1724.47878
1872.0,892,1756.230148
3081.0,1450,1809.511678
3618.0,1429,1860.081925
3756.0,1476,1915.387681
2537.0,1132,1958.689053
2804.0,1291,2004.764537
1950.0,936,2038.350464
1203.0,736,2064.775313
2578.0,1077,2104.814492
3267.0,1486,2159.282424
3464.0,1460,2216.813978
3711.0,1424,2272.193912
2738.0,1175,2315.198973
2574.0,1071,2356.134275
3618.0,1443,2408.057834
3318.0,1458,2461.54316
3623.0,1330,2509.612106
3585.0,1405,2560.85625
3575.0,1476,2616.898537
3555.0,1439,2668.571048
2699.0,1152,2708.878639
3638.0,1471,2762.959106
3303.0,1444,2815.79855
3294.0,1424,2867.501325
2432.0,1091,2907.382689
3924.0,1455,2959.52509
2997.0,1489,3014.831915
4221.0,1485,3069.44321
3348.0,1453,3123.155288
3093.0,1350,3172.007684
3461.0,1443,3227.742122
4077.0,1435,3280.971899
3782.0,1447,3331.893139
3575.0,1493,3387.046264
3879.0,1428,3441.14713
3929.0,1447,3494.141881
2571.0,1103,3533.926523
3843.0,1469,3585.280987
2637.0,1077,3625.112243
2943.0,1111,3664.803127
3591.0,1211,3710.116382
3432.0,1205,3754.721622
3720.0,1257,3803.740346
3342.0,1113,3845.410921
4202.0,1505,3902.907018
3466.0,1128,3946.475983
3364.0,1095,3986.997436
4896.0,1436,4042.054163
3299.0,1062,4081.25706
4815.0,1469,4137.703472
4581.0,1494,4194.448031
3276.0,1192,4239.350094
5468.0,1477,4295.108702
5409.0,1501,4351.799948
4988.0,1415,4405.025719
5310.0,1432,4461.475899
4712.0,1456,4514.360317
4748.0,1437,4567.895727
5279.0,1442,4620.384246
4761.0,1463,4674.813835
4059.0,1407,4728.146014
4602.0,1274,4774.876296
4957.0,1454,4828.605053
3411.0,1110,4870.980684
3189.0,1105,4911.68471
5006.0,1452,4965.608264
3302.0,1125,5007.978565
3369.0,1107,5051.496951
4757.0,1432,5105.717445
1530.0,716,5133.69084
3884.0,1167,5176.792527
3636.0,1055,5216.631721
3870.0,1157,5259.083097
4950.0,1408,5310.779824
4770.0,1412,5364.120831
4959.0,1457,5417.400962
1566.0,714,5442.827354
4419.0,1295,5491.332658
80.0,215,5498.860791
5717.0,1466,5556.913903
3894.0,1094,5597.935884
4365.0,1454,5649.439199
4812.0,1472,5705.997026
5690.0,1510,5762.732727
4734.0,1462,5820.488027
5213.0,1447,5874.543486
3954.0,1118,5916.997477
3677.0,1191,5960.355822
4955.0,1483,6012.519646
5205.0,1446,6068.48344
5553.0,1425,6120.739638
5265.0,1478,6175.628463
4398.0,1414,6229.073651
5280.0,1460,6284.875696
3712.0,1379,6337.102782
3561.0,1207,6385.012609
5603.0,1510,6440.31376
5706.0,1464,6494.268344
4563.0,1279,6541.532508
4007.0,1204,6587.492318
3837.0,1114,6627.719122
5085.0,1429,6681.311965
5922.0,1492,6736.830604
4665.0,1274,6784.997528
2547.0,896,6819.921526
3825.0,1085,6861.525994
5799.0,1472,6916.934191
5859.0,1432,6970.679404
5553.0,1379,7024.193573
2874.0,933,7059.192449
3672.0,1082,7099.463053
6381.0,1449,7155.095641
3906.0,1095,7194.141734
5688.0,1434,7247.878136
6354.0,1478,7300.275373
5607.0,1458,7354.526806
2916.0,913,7388.498945
4808.0,1330,7437.004005
6327.0,1458,7492.820374
5364.0,1257,7539.989273
6321.0,1429,7592.994159
6138.0,1468,7647.875935
5013.0,1245,7694.561169
4059.0,1087,7735.015268
5985.0,1389,7787.620454
6525.0,1474,7842.357583
6639.0,1503,7898.995145
4449.0,1104,7940.403183
4167.0,1109,7983.379054
6444.0,1461,8038.946985
5850.0,1426,8091.77738
6444.0,1468,8147.135731
5571.0,1321,8198.917722
6177.0,1391,8251.232383
6255.0,1438,8306.392556
4470.0,1101,8344.796447
6618.0,1457,8398.961381
7052.0,1453,8453.347163
6459.0,1440,8504.442092
7263.0,1490,8556.007334
7428.0,1502,8614.422975
6174.0,1456,8668.083836
6678.0,1475,8723.354167
4635.0,1095,8764.419443
2288.0,748,8793.157274
5070.0,1184,8838.211191
5313.0,1511,8893.930225
6930.0,1458,8949.880738
2392.0,747,8976.707592
7317.0,1501,9034.308014
5364.0,1164,9077.987209
6732.0,1462,9132.737777
6732.0,1444,9184.191393
7236.0,1475,9239.605552
7122.0,1416,9292.207898
4878.0,1099,9334.488327
7481.0,1489,9389.361375
2447.0,782,9418.412307
7518.0,1456,9473.315459
6783.0,1425,9528.493795
7173.0,1466,9583.169214
5688.0,1228,9628.238715
6840.0,1435,9681.255125
6867.0,1431,9735.127754
6843.0,1452,9788.227556
6030.0,1456,9842.408985
2559.0,821,9873.662076
4485.0,1081,9913.342335
4506.0,1135,9957.430477
6744.0,1492,10012.993713
2120.0,748,10041.065167
7587.0,1474,10095.418076
5979.0,1322,10145.345812
7679.0,1477,10202.130043
5823.0,1241,10249.242907
7200.0,1450,10303.405751
5007.0,1119,10343.267929
5067.0,1122,10383.937499
4932.0,1096,10425.624608
7866.0,1438,10482.079798
7401.0,1514,10539.690445
6786.0,1444,10593.521207
6339.0,1418,10647.067589
6693.0,1409,10700.42738
6293.0,1491,10755.837098
5591.0,1326,10804.984637
6968.0,1448,10860.124845
4910.0,1092,10900.298461
6048.0,1265,10948.859929
7445.0,1501,11004.537675
6264.0,1276,11052.045227
7965.0,1501,11108.934129
7416.0,1478,11165.038463
7686.0,1459,11221.297453
6867.0,1357,11273.599153
4758.0,1001,11311.716666
3819.0,913,11346.82434
6597.0,1264,11394.658395
7719.0,1447,11449.334303
5976.0,1306,11496.160532
6823.0,1375,11548.023334
5454.0,1213,11592.065796
7281.0,1427,11646.070282
7749.0,1501,11702.723208
6054.0,1277,11751.68971
6969.0,1429,11805.668152
4760.0,1119,11848.18853
4678.0,1087,11890.284435
7749.0,1497,11946.101897
5726.0,1111,11986.82229
6903.0,1314,12036.262819
8471.0,1523,12093.73584
4561.0,1107,12135.901849
7322.0,1456,12188.724254
6897.0,1396,12242.331918
4244.0,1025,12279.789429
6996.0,1457,12334.94478
7391.0,1454,12386.275728
6102.0,1289,12435.379635
6426.0,1336,12484.866624
8195.0,1478,12540.261783
4503.0,1065,12579.550374
5637.0,1132,12623.181645
7335.0,1418,12676.686224
7743.0,1440,12730.552805
8415.0,1457,12781.271597
5742.0,1096,12820.652816
3582.0,924,12855.03407
4809.0,1077,12895.78951
8109.0,1476,12950.78507
7923.0,1502,13005.575244
6042.0,1312,13056.739864
8046.0,1463,13108.968921
7119.0,1485,13166.387225
7713.0,1402,13221.430213
7731.0,1440,13274.977971
7661.0,1490,13332.591958
7434.0,1423,13385.567713
7887.0,1451,13438.932334
5040.0,1551,13496.656425
6030.0,1454,13551.082479
6555.0,1424,13603.652239
7607.0,1497,13660.030478
4854.0,1078,13700.790874
4668.0,1088,13740.563019
6426.0,1418,13794.346913
7902.0,1466,13849.664554
7704.0,1438,13905.303925
8103.0,1476,13962.66518
5940.0,1181,14007.120976
7461.0,1452,14060.342305
8391.0,1490,14116.749322
2952.0,765,14144.52077
5679.0,1165,14186.432882
7011.0,1423,14240.662206
8577.0,1452,14296.191195
8217.0,1448,14352.002792
8748.0,1473,14407.075531
7050.0,1283,14457.311578
8037.0,1461,14513.537746
7815.0,1453,14566.570041
8147.0,1474,14622.612567
6368.0,1242,14669.175007
8037.0,1435,14721.421967
5808.0,1202,14766.568787
6534.0,1342,14815.119305
5274.0,1130,14857.430884
8100.0,1450,14914.811933
6829.0,1283,14962.75434
7764.0,1448,15016.601624
5292.0,1158,15059.271519
7386.0,1431,15113.015236
6978.0,1455,15167.975622
7371.0,1506,15223.693798
7866.0,1445,15279.268838
7236.0,1428,15329.506694
5382.0,1108,15371.342434
7254.0,1451,15425.141725
6003.0,1301,15474.040647
4980.0,1096,15515.855085
6228.0,1289,15563.115975
5724.0,1091,15605.764685
7016.0,1433,15660.306221
6261.0,1304,15708.375934
7344.0,1441,15760.654122
4917.0,1081,15801.054821
7350.0,1448,15855.754618
7266.0,1356,15906.336047
7821.0,1451,15960.318532
7935.0,1455,16014.087701
7725.0,1449,16069.474885
5070.0,1060,16111.04747
5970.0,1311,16160.795241
6873.0,1300,16210.645105
6129.0,1180,16254.985271
6132.0,1225,16300.972587
7185.0,1378,16354.463462
7341.0,1398,16405.895521
2222.0,750,16433.689299
5619.0,1114,16474.617057
5178.0,1081,16516.585916
8139.0,1487,16572.209566
7983.0,1461,16625.912742
6411.0,1254,16674.386334
7140.0,1394,16728.207147
7923.0,1407,16780.315557
7452.0,1402,16834.14799
7335.0,1411,16889.474284
7461.0,1402,16939.680552
3492.0,896,16973.984986
7524.0,1365,17024.514575
8478.0,1434,17078.907525
8231.0,1459,17133.148092
8460.0,1460,17187.118103
8094.0,1456,17243.254243
4242.0,926,17276.501284
8489.0,1480,17331.784331
4122.0,902,17365.503561
6166.0,1226,17410.241444
7465.0,1489,17466.910654
8034.0,1474,17523.968469
3041.0,735,17553.029786
8114.0,1478,17607.981023
8131.0,1490,17663.235724
8162.0,1406,17714.765454
5356.0,1139,17756.583764
7722.0,1429,17811.293792
6378.0,1217,17856.528279
8321.0,1501,17910.960255
8640.0,1478,17965.419207
6603.0,1241,18011.302504
3889.0,894,18044.22315
7920.0,1470,18099.792085
6765.0,1266,18147.188903
4901.0,1063,18186.693463
4526.0,999,18224.117421
7778.0,1415,18276.508636
7411.0,1396,18329.097632
8304.0,1476,18385.737483
5430.0,1103,18424.772557
6312.0,1192,18469.335921
5761.0,1123,18511.497681
8445.0,1406,18562.606879
7735.0,1453,18617.41299
8793.0,1489,18674.107822
8147.0,1490,18726.52864
5763.0,1116,18769.433203
7373.0,1435,18825.144044
6044.0,1114,18866.643747
8067.0,1467,18921.832236
5640.0,1094,18962.27102
5429.0,1114,19003.69708
5437.0,1101,19046.172514
5542.0,1089,19086.516588
2600.0,718,19112.354173
8148.0,1433,19166.356787
7511.0,1372,19218.607943
7872.0,1455,19273.196691
8175.0,1455,19330.97133
8226.0,1446,19385.904634
1490.0,575,19406.142464
6757.0,1319,19457.736448
3845.0,879,19490.067603
6786.0,1424,19542.894536
5234.0,1129,19585.093754
7481.0,1383,19635.139514
5241.0,1069,19674.616795
5303.0,1088,19716.240244
4891.0,1050,19754.443509
5355.0,1141,19799.508716
8228.0,1465,19853.56128
7488.0,1353,19906.906421
7830.0,1495,19960.105586
4784.0,1096,20002.151486
7238.0,1444,20056.177727
8019.0,1448,20108.156019
5567.0,1126,20149.640453
7317.0,1483,20205.772278
6329.0,1292,20255.364917
3831.0,940,20291.006304
7665.0,1440,20346.783202
6954.0,1392,20399.448267
6797.0,1447,20451.851485
8105.0,1447,20504.039738
5303.0,1103,20546.095313
8240.0,1462,20600.825895
6461.0,1276,20648.101922
7329.0,1328,20696.641821
8273.0,1443,20750.198588
5893.0,1132,20793.613735
7478.0,1465,20849.786543
8424.0,1473,20906.058324
8487.0,1438,20960.670053
5652.0,1118,21003.946974
4023.0,1002,21039.69944
8163.0,1491,21095.281679
8257.0,1455,21151.335137
7686.0,1448,21206.523952
8238.0,1454,21260.506878
7814.0,1435,21314.43147
7668.0,1442,21369.235425
5136.0,1024,21407.581152
8679.0,1504,21464.004437
7974.0,1441,21519.466068
7520.0,1370,21572.37882
8652.0,1474,21628.796708
8229.0,1492,21686.125271
8607.0,1413,21740.191275
3167.0,812,21769.795835
4572.0,938,21806.867189
7895.0,1462,21859.793108
5452.0,1103,21901.864299
3647.0,833,21932.932245
6795.0,1312,21980.613287
7713.0,1442,22035.165313
7050.0,1271,22083.988945
5327.0,1106,22127.596031
8001.0,1438,22182.088325
8091.0,1428,22234.280039
5196.0,1122,22275.643735
5976.0,1156,22318.675432
6385.0,1232,22365.196578
2596.0,732,22392.000442
5787.0,1214,22438.26088
7812.0,1455,22494.040051
7434.0,1407,22547.851138
8712.0,1460,22603.47207
8001.0,1436,22656.727824
6903.0,1228,22700.672825
8181.0,1415,22754.977565
8424.0,1497,22811.093603
8109.0,1449,22865.57831
8498.0,1440,22919.964546
5736.0,1095,22959.651778
8298.0,1490,23015.834422
8433.0,1434,23071.145749
8433.0,1471,23128.318244
7679.0,1457,23183.918348
5432.0,1103,23227.206231
8280.0,1452,23281.604039
6019.0,1158,23326.586694
8271.0,1462,23382.3017
8577.0,1446,23434.156107
4819.0,1063,23475.300201
6432.0,1214,23520.43413
8439.0,1450,23575.917988
7650.0,1445,23629.759572
8100.0,1431,23685.022055
7418.0,1443,23737.463216
7535.0,1503,23793.791058
6188.0,1232,23838.83477
5976.0,1264,23885.826235
9018.0,1477,23942.670784
5304.0,1101,23983.990314
7763.0,1402,24037.253747
8834.0,1445,24092.745955
7596.0,1346,24142.174132
8388.0,1452,24196.632901
5814.0,1185,24239.668402
7380.0,1398,24293.446105
8761.0,1485,24349.242957
6149.0,1313,24399.647204
8534.0,1495,24457.546397
4934.0,1086,24497.222976
7992.0,1434,24549.18089
8451.0,1475,24603.605157
8163.0,1442,24658.194307
8201.0,1469,24712.30152
7794.0,1430,24765.16979
7803.0,1412,24817.577099
8210.0,1447,24872.7988
7371.0,1419,24926.182669
8469.0,1504,24981.84971
8352.0,1431,25035.676656
8001.0,1451,25090.385644
4511.0,968,25126.529851
7947.0,1412,25180.682053
6714.0,1248,25227.386754
6120.0,1228,25274.510402
7893.0,1417,25326.375706
8442.0,1471,25381.302389
6489.0,1262,25429.114923
8433.0,1460,25483.282692
7848.0,1419,25535.725309
7659.0,1412,25589.68277
8604.0,1469,25644.74814
8307.0,1455,25698.603893
8696.0,1478,25753.813807
7164.0,1482,25810.793148
6206.0,1130,25854.710736
7710.0,1376,25902.905397
8885.0,1456,25958.829643
9175.0,1466,26012.221698
7838.0,1477,26067.72462
8270.0,1429,26119.825984
6903.0,1209,26165.954471
8285.0,1485,26223.272462
8085.0,1463,26279.009451
5706.0,1069,26318.903769
7404.0,1372,26369.957949
8621.0,1435,26423.257431
6588.0,1274,26471.931599
7553.0,1388,26525.600028
7506.0,1442,26582.178173
6026.0,1110,26625.026878
2757.0,788,26655.768316
7524.0,1332,26705.644193
8244.0,1485,26764.264918
9207.0,1490,26823.587202
8064.0,1431,26880.159677
7589.0,1337,26933.29441
7938.0,1477,26990.425547
7101.0,1220,27039.33558
8100.0,1457,27097.434422
8582.0,1467,27153.459927
8479.0,1398,27206.644444
8892.0,1446,27263.631992
7607.0,1313,27316.460973
8865.0,1447,27374.4725
4070.0,906,27411.17197
6878.0,1242,27462.479906
8901.0,1477,27519.456168
5844.0,1102,27562.370178
4959.0,1038,27602.923853
7943.0,1490,27656.240772
9009.0,1469,27712.786364
5628.0,1073,27752.782457
5826.0,1130,27793.986673
7931.0,1471,27849.363921
5567.0,1084,27890.296933
7976.0,1480,27946.876897
7990.0,1498,28002.98611
3057.0,719,28030.362603
8575.0,1455,28087.354285
3270.0,791,28118.29622
6615.0,1184,28163.722801
8300.0,1460,28220.074751
8655.0,1457,28276.703122
5888.0,1118,28318.985246
5976.0,1129,28360.962825
7119.0,1268,28409.605411
8280.0,1449,28464.579863
8946.0,1478,28521.173104
8274.0,1430,28572.522373
5828.0,1093,28613.455532
7416.0,1344,28665.832248
8613.0,1436,28720.624848
5246.0,1066,28762.146325
7491.0,1363,28815.001191
8510.0,1462,28871.646057
5819.0,1091,28913.293005
8709.0,1435,28968.033545
7592.0,1349,29019.986062
8001.0,1455,29075.273966
8784.0,1470,29134.785824
8712.0,1479,29190.273717
7821.0,1401,29246.768088
8964.0,1464,29303.2643
8856.0,1455,29358.12052
6298.0,1089,29398.156585
9123.0,1449,29454.778934
7256.0,1368,29506.483753
6801.0,1158,29549.647906
9009.0,1439,29605.125458
9531.0,1483,29662.445446
8019.0,1359,29714.420769
8901.0,1432,29770.074426
8455.0,1472,29827.768687
7514.0,1388,29879.274644
8946.0,1486,29935.770625
5604.0,1053,29976.625389
8909.0,1459,30033.072754
6237.0,1113,30078.321382
8100.0,1460,30135.022111
5259.0,1048,30174.888171
7857.0,1449,30232.189917
7319.0,1243,30279.620399
6311.0,1158,30320.525602
8712.0,1452,30378.652421
8568.0,1416,30434.061873
6822.0,1215,30482.895788
6842.0,1238,30532.342231
8982.0,1432,30586.972156
5949.0,1081,30630.854357
6181.0,1131,30673.549883
8541.0,1489,30731.607586
9227.0,1449,30786.262433
8102.0,1390,30837.702263
6518.0,1198,30881.13382
8208.0,1447,30935.365429
8129.0,1351,30983.895041
6833.0,1298,31034.503209
8624.0,1481,31090.903662
8001.0,1454,31143.605343
8064.0,1422,31199.104932
9297.0,1487,31256.518491
8059.0,1483,31315.54534
9108.0,1449,31369.24243
6822.0,1212,31415.325859
8847.0,1440,31470.187165
6977.0,1253,31515.522927
9030.0,1492,31571.95367
8136.0,1390,31624.323617
9207.0,1492,31678.660154
8640.0,1453,31734.422685
8141.0,1349,31786.009455
8520.0,1434,31841.32952
5871.0,1101,31882.912688
7908.0,1444,31940.346297
5868.0,1066,31982.308277
8496.0,1452,32041.006531
5349.0,1087,32080.694426
9294.0,1475,32134.164674
9009.0,1463,32189.494915
8748.0,1430,32244.324923
8163.0,1437,32299.998663
6266.0,1255,32346.140151
9182.0,1454,32402.297588
7985.0,1467,32459.165493
6462.0,1220,32504.549439
7985.0,1451,32559.241506
9036.0,1503,32616.021278
8100.0,1428,32671.241623
9211.0,1469,32727.875053
9245.0,1477,32782.165941
7497.0,1439,32837.689889
8676.0,1427,32896.066626
8352.0,1457,32954.128905
9164.0,1498,33011.961423
9234.0,1475,33069.651132
9054.0,1447,33125.887147
8930.0,1453,33180.838378
8437.0,1432,33235.97507
3144.0,751,33262.679051
8073.0,1420,33316.432481
3891.0,927,33353.365887
4887.0,1240,33400.413463
8946.0,1481,33455.308718
8577.0,1462,33511.311446
9279.0,1471,33565.589545
7634.0,1366,33619.62659
8363.0,1453,33675.737296
8820.0,1439,33732.551902
6471.0,1183,33779.424832
6415.0,1087,33821.442555
9185.0,1458,33876.501665
9237.0,1450,33930.42332
7542.0,1258,33976.413403
9117.0,1482,34031.963796
4890.0,979,34067.758236
8730.0,1448,34122.001005
8523.0,1460,34177.533537
4857.0,1094,34216.062686
9166.0,1479,34273.307958
7364.0,1351,34322.497349
8226.0,1391,34375.311546
9295.0,1473,34430.391701
9119.0,1473,34487.21161
5500.0,1018,34524.30015
7578.0,1257,34570.747631
9075.0,1492,34627.176203
9050.0,1449,34681.101781
9156.0,1450,34734.023174
8568.0,1467,34789.387948
8786.0,1486,34845.166201
8652.0,1449,34899.447331
6069.0,1094,34940.266338
6309.0,1218,34985.694284
8847.0,1437,35042.344388
1056.0,530,35062.562352
8787.0,1444,35114.844589
8901.0,1459,35168.992668
9134.0,1479,35222.104747
8012.0,1348,35273.347109
8882.0,1457,35328.324305
9318.0,1496,35384.865459
7902.0,1420,35437.509121
9117.0,1464,35490.139787
6999.0,1205,35533.638386
6416.0,1151,35575.332243
9450.0,1451,35629.987069
6285.0,1117,35669.063152
8301.0,1412,35720.980762
5576.0,1061,35762.022164
9477.0,1477,35817.408629
7797.0,1298,35867.261906
6030.0,1186,35912.664172
9263.0,1449,35966.239022
7597.0,1294,36013.550561
8562.0,1462,36066.55595
8100.0,1460,36119.393244
8993.0,1440,36172.799232
6309.0,1112,36216.474236
6910.0,1258,36262.740687
9009.0,1424,36315.742023
5859.0,1094,36357.442739
5126.0,1031,36396.640004
5441.0,1078,36436.450811
6402.0,1088,36475.366148
5693.0,1086,36516.263801
8591.0,1455,36571.878003
8382.0,1477,36627.473458
5738.0,1096,36669.460131
7211.0,1348,36720.995187
5619.0,1067,36762.857845
6899.0,1227,36808.909829
9027.0,1446,36862.541293
8730.0,1392,36915.532825
6183.0,1206,36962.985206
9270.0,1453,37014.695184
7101.0,1382,37065.834384
9399.0,1505,37123.59498
8633.0,1472,37181.557488
5673.0,1074,37221.698113
9042.0,1437,37277.586728
5741.0,1081,37319.382706
6338.0,1128,37360.945617
9116.0,1473,37417.801643
8517.0,1422,37471.047455
9402.0,1478,37524.231648
6522.0,1106,37565.335393
9222.0,1455,37618.216289
7773.0,1445,37673.44122
6765.0,1197,37720.267642
5454.0,1009,37759.215872
8499.0,1446,37812.373429
9015.0,1458,37867.29785
9066.0,1492,37923.362883
8238.0,1450,37977.37516
9194.0,1478,38032.105864
9084.0,1460,38087.100892
9291.0,1491,38144.121847
8874.0,1428,38196.519482
7782.0,1425,38249.369623
8567.0,1503,38305.373822
5621.0,1091,38348.104209
6414.0,1089,38386.701213
6834.0,1159,38431.877675
6771.0,1196,38478.211352
6165.0,1071,38517.710639
9378.0,1502,38573.549381
9405.0,1463,38630.404871
8876.0,1463,38686.892326
8697.0,1449,38741.359005
9639.0,1481,38796.946457
8802.0,1417,38849.789687
6027.0,1086,38890.564209
8280.0,1459,38947.728245
8511.0,1435,39000.128779
8373.0,1502,39056.058437
7761.0,1464,39112.483333
9063.0,1489,39166.654763
6615.0,1105,39209.800898
6276.0,1106,39251.744076
5592.0,1095,39293.530947
6201.0,1103,39334.118844
5784.0,1076,39375.018527
8625.0,1433,39427.160333
6468.0,1306,39475.848513
5220.0,1101,39516.249821
8586.0,1405,39571.727332
9282.0,1505,39628.000665
8190.0,1355,39678.161656
7146.0,1335,39728.734178
9126.0,1439,39780.623861
7173.0,1295,39827.538479
7742.0,1464,39886.163887
7713.0,1341,39935.74546
5175.0,1094,39977.847464
8658.0,1486,40033.7388
8838.0,1442,40088.542973
9495.0,1471,40142.438578
7949.0,1405,40194.533796
9114.0,1453,40248.710567
8469.0,1433,40304.153727
3816.0,807,40331.276408
8750.0,1440,40385.043433
7596.0,1297,40432.283925
8166.0,1444,40485.677093
7950.0,1393,40539.331699
8805.0,1448,40593.405432
6198.0,1095,40634.454744
6639.0,1146,40674.636526
8961.0,1474,40730.528787
8802.0,1473,40785.838816
7407.0,1299,40835.512445
6525.0,1183,40878.026466
8640.0,1449,40931.685604
9090.0,1431,40984.912883
6881.0,1219,41031.335504
9258.0,1449,41084.514867
7490.0,1353,41136.282027
8940.0,1460,41188.881845
6987.0,1215,41234.752404
6669.0,1159,41278.752042
5607.0,1401,41331.817759
5837.0,1128,41375.827626
3026.0,737,41404.01395
5124.0,1001,41441.916656
8051.0,1403,41494.918476
8067.0,1430,41547.846507
9210.0,1478,41604.195109
5999.0,1112,41647.617096
8898.0,1435,41700.90914
9651.0,1471,41757.702898
8037.0,1308,41806.116097
6558.0,1124,41848.975035
9048.0,1457,41901.650667
5072.0,1018,41940.253228
6489.0,1126,41982.400344
12848.0,2232,42064.572744
9165.0,1461,42118.685589
6483.0,1191,42163.522845
9360.0,1456,42217.476593
6276.0,1095,42258.321492
9126.0,1451,42313.303622
4551.0,897,42346.738256
3011.0,719,42373.241415
9216.0,1463,42429.38764
9396.0,1482,42484.470739
9279.0,1456,42540.784622
9405.0,1474,42595.735071
6186.0,1145,42640.54336
8487.0,1373,42691.399934
8685.0,1453,42743.798531
9486.0,1465,42796.967938
8910.0,1463,42850.517037
9021.0,1427,42904.483905
7254.0,1268,42952.191024
9522.0,1437,43006.135424
8900.0,1464,43061.361552
9093.0,1441,43115.805841
9810.0,1497,43169.128329
7567.0,1329,43217.472701
8948.0,1442,43270.654093
9183.0,1463,43328.045991
7073.0,1248,43376.288456
9780.0,1475,43429.433373
8877.0,1461,43486.584949
9344.0,1459,43541.051611
7011.0,1258,43587.079537
5909.0,1098,43628.482783
7131.0,1225,43675.255935
6176.0,1087,43715.309721
9416.0,1454,43768.339862
9096.0,1439,43823.003254
6264.0,1088,43863.151605
6072.0,1067,43902.607499
9597.0,1476,43956.499563
8963.0,1473,44011.690021
9311.0,1481,44068.759178
8208.0,1330,44119.226559
9489.0,1484,44173.165585
7770.0,1331,44223.298515
8802.0,1431,44279.029749
9060.0,1439,44333.170398
5950.0,1078,44372.06765
5223.0,999,44409.392423
9165.0,1441,44463.056522
4278.0,869,44495.700573
9587.0,1483,44549.550688
5731.0,1111,44591.502274
6993.0,1240,44637.919481
9228.0,1441,44692.685409
8544.0,1441,44743.603177
5970.0,1099,44785.399518
9335.0,1458,44843.282578
7952.0,1422,44896.611601
3453.0,796,44925.112477
1740.0,604,44948.280725
6291.0,1098,44991.099987
5670.0,1083,45032.024392
9387.0,1464,45087.005075
8309.0,1414,45137.759798
5310.0,1047,45176.351388
9195.0,1450,45230.553228
4169.0,834,45262.044393
9471.0,1441,45315.760891
9645.0,1489,45374.501751
8891.0,1404,45427.220326
5027.0,984,45463.270607
9315.0,1434,45516.014169
6624.0,1107,45558.514957
7148.0,1228,45605.411301
9504.0,1454,45659.547694
9336.0,1441,45714.348763
8541.0,1447,45769.22451
2450.0,672,45793.040979
6216.0,1099,45833.671347
8439.0,1375,45883.891525
6743.0,1105,45924.251
5792.0,1070,45963.584934
9084.0,1445,46017.387726
8607.0,1423,46070.717081
8697.0,1427,46123.067549
8685.0,1393,46176.996027
8496.0,1422,46229.291761
9198.0,1421,46283.871846
6939.0,1318,46333.133863
8732.0,1444,46388.003935
8201.0,1409,46439.309083
6860.0,1192,46485.472007
8088.0,1316,46533.989018
6063.0,1086,46575.14332
8937.0,1432,46630.584087
9229.0,1469,46684.172664
6991.0,1282,46732.844078
8984.0,1461,46787.845503
9160.0,1468,46843.259305
9794.0,1489,46901.547822
6955.0,1217,46946.048218
8717.0,1326,46996.26062
6771.0,1187,47039.346035
9912.0,1469,47093.643988
6714.0,1096,47135.911946
9250.0,1467,47191.777637
6165.0,1118,47232.478019
8208.0,1486,47289.286963
9123.0,1456,47344.709184
9072.0,1457,47398.970237
8793.0,1409,47452.302604
8931.0,1481,47507.302851
9306.0,1456,47559.306715
8744.0,1433,47616.879663
8841.0,1435,47671.439716
8604.0,1406,47721.332372
5045.0,1105,47762.452595
5940.0,1169,47807.58643
4761.0,1125,47850.083316
6348.0,1119,47890.060013
2796.0,733,47917.639753
6543.0,1201,47964.220923
8895.0,1443,48017.043598
7083.0,1259,48064.767764
6221.0,1182,48106.66224
8196.0,1425,48157.054076
7256.0,1211,48200.905262
8379.0,1353,48251.559903
9561.0,1473,48307.033642
4338.0,888,48340.145115
7749.0,1233,48388.833886
6105.0,1090,48429.987555
9404.0,1456,48486.221203
6638.0,1112,48524.976377
5871.0,1090,48566.695367
8492.0,1423,48621.448623
9150.0,1482,48677.159758
9042.0,1462,48730.63714
9164.0,1430,48783.982765
3288.0,755,48812.094152
7029.0,1401,48864.128509
5549.0,1022,48901.409463
6189.0,1113,48943.782203
9416.0,1471,48998.401387
9330.0,1488,49050.472868
9219.0,1454,49101.820324
6005.0,1093,49140.315524
8427.0,1440,49189.883816
9266.0,1488,49242.784335
60.0,243,49250.123854
5993.0,1103,49288.167267
3981.0,904,49319.162008
5434.0,990,49351.357172
1219.0,584,49369.949368
8235.0,1354,49415.042502
3456.0,742,49439.010097
5178.0,960,49469.858267
8424.0,1473,49517.714036
6804.0,1207,49558.307279
8363.0,1357,49598.918209
9504.0,1439,49645.231891
8355.0,1393,49687.984881
8381.0,1340,49731.790014
4880.0,922,49761.788012
8437.0,1354,49805.166126
9282.0,1452,49854.430218
9279.0,1441,49902.596756
9851.0,1466,49949.208699
7925.0,1292,49991.20243
9759.0,1468,50034.721298
8478.0,1341,50076.058258
9963.0,1496,50120.171082
6168.0,1100,50153.768296
3303.0,730,50175.733339
4797.0,960,50204.438305
3954.0,839,50230.047475
9039.0,1406,50271.223855
9416.0,1465,50315.000036
8873.0,1420,50360.580679
8886.0,1405,50405.955936
8900.0,1455,50450.430589
6108.0,1123,50485.55701
8904.0,1447,50528.818861
9774.0,1444,50569.286016
6833.0,1178,50603.492636
6812.0,1117,50634.610014
8937.0,1373,50674.311452
9516.0,1489,50717.189457
7944.0,1284,50754.660288
8463.0,1453,50797.730684
9054.0,1465,50840.550625
6240.0,1106,50870.937683
8889.0,1425,50913.139996
8496.0,1376,50956.695945
6231.0,1096,50991.902268
9651.0,1444,51038.674474
6606.0,1099,51078.310649
9471.0,1416,51129.655526
10074.0,1440,51179.172527
7601.0,1258,51223.935919
7626.0,1222,51265.456062
9486.0,1447,51317.924573
7665.0,1225,51360.368633
8741.0,1360,51407.788728
6480.0,1192,51450.240967
9909.0,1497,51503.432877
10080.0,1437,51553.654478
9381.0,1480,51607.118222
9597.0,1471,51657.351242
40.0,240,51665.758118
9540.0,1442,51717.88712
6561.0,1107,51756.21796
9393.0,1436,51803.212503
3816.0,926,51835.147386
8286.0,1403,51883.850644
9591.0,1446,51932.176586
8703.0,1402,51981.55536
4809.0,960,52015.255502
7029.0,1235,52057.990115
4905.0,971,52092.811036
9837.0,1462,52143.697465
9864.0,1500,52196.36703
9861.0,1444,52246.678041
7202.0,1268,52287.131515
10293.0,1500,52333.044769
8469.0,1405,52371.987794
9173.0,1449,52414.757331
8684.0,1425,52455.520285
8264.0,1345,52491.064116
9389.0,1439,52529.146474
7500.0,1213,52561.686053
9621.0,1440,52601.128647
3288.0,748,52621.282427
5664.0,1081,52648.472378
8733.0,1373,52683.006682
9365.0,1457,52719.378862
9747.0,1459,52756.374586
10254.0,1490,52793.448218
9183.0,1468,52831.294903
3716.0,893,52853.987804
10163.0,1503,52891.217563
6498.0,1159,52920.698962
8948.0,1474,52959.077621
6941.0,1157,52989.614349
9450.0,1442,53026.108555
6588.0,1103,53053.097651
7317.0,1212,53082.871873
5036.0,972,53105.964265
9542.0,1495,53143.821024
7083.0,1182,53173.763353
9441.0,1448,53209.415068
8319.0,1331,53243.917295
5607.0,1054,53270.27904
8487.0,1356,53304.085813
8849.0,1417,53339.934063
8811.0,1446,53376.202368
10287.0,1493,53414.523103
8139.0,1452,53451.545504
2624.0,703,53469.709382
6896.0,1238,53500.26152
9520.0,1459,53537.386941
9538.0,1487,53574.10526
6435.0,1086,53600.795096
9612.0,1486,53638.027716
9257.0,1477,53675.275755
9405.0,1447,53711.570742
8172.0,1342,53744.364976
9261.0,1437,53780.576609
8847.0,1393,53815.034207
9648.0,1435,53850.780169
9585.0,1458,53885.166123
8073.0,1314,53916.993876
8723.0,1337,53950.998814
9198.0,1450,53987.583275
7778.0,1310,54021.397657
9855.0,1457,54057.225905
9774.0,1473,54094.571607
8379.0,1442,54131.452667
4671.0,919,54154.127269
10017.0,1497,54192.314526
9009.0,1382,54227.876364
9828.0,1461,54265.143445
10010.0,1483,54301.448724
7569.0,1350,54334.677907
8514.0,1442,54369.392511
9819.0,1469,54405.207959
9768.0,1473,54442.18816
10091.0,1510,54479.444947
9876.0,1487,54517.648286
8624.0,1347,54552.182313
5844.0,1069,54578.672058
9453.0,1428,54614.387471
6837.0,1179,54643.574276
6438.0,1106,54670.512736
9037.0,1451,54706.498372
3730.0,800,54725.730499
9041.0,1364,54763.505644
7617.0,1268,54796.802129
8505.0,1445,54833.387857
8363.0,1409,54868.841888
9747.0,1478,54906.001824
10062.0,1481,54942.51325
9891.0,1491,54979.007982
10413.0,1487,55018.166714
9018.0,1413,55052.836115
7839.0,1247,55083.466263
8559.0,1447,55118.715184
9590.0,1457,55155.579401
9657.0,1456,55191.706942
8685.0,1373,55226.962234
9741.0,1456,55263.022657
10029.0,1474,55301.679624
6503.0,1106,55327.978192
7191.0,1245,55358.683497
6651.0,1110,55386.863212
7722.0,1265,55418.682893
6836.0,1146,55446.8952
752.0,487,55458.16635
3653.0,739,55477.067105
3156.0,731,55495.430382
9531.0,1458,55530.589551
7155.0,1535,55569.460705
5010.0,1002,55594.676972
10161.0,1456,55630.670643
9576.0,1433,55665.957152
9378.0,1419,55700.822119
9180.0,1432,55735.925974
9225.0,1448,55771.527458
9153.0,1444,55809.628713
9234.0,1374,55843.143609
9965.0,1482,55881.503763
9498.0,1459,55917.404325
10137.0,1497,55953.714076
6515.0,1144,55981.110781
8988.0,1407,56015.982954
8676.0,1383,56050.934191
9020.0,1430,56085.890919
4992.0,956,56109.58584
6501.0,1105,56137.330452
9822.0,1446,56173.639508
8166.0,1428,56208.600836
9683.0,1520,56247.189625
6803.0,1096,56274.06719
5067.0,1121,56303.391078
6704.0,1124,56332.224012
7920.0,1244,56362.392069
10199.0,1513,56400.434289
9621.0,1464,56438.137801
7614.0,1291,56469.72392
7683.0,1222,56499.834072
10089.0,1466,56536.246939
9363.0,1449,56571.931697
6366.0,1102,56602.089479
7299.0,1203,56633.296414
8253.0,1341,56669.36467
9605.0,1447,56703.331746
9153.0,1413,56738.768578
8919.0,1403,56772.911268
6609.0,1134,56801.515076
9801.0,1465,56838.612424
10125.0,1453,56874.45874
5121.0,983,56899.183276
10215.0,1468,56936.089092
9525.0,1431,56970.568769
9927.0,1443,57007.407734
9081.0,1435,57042.610762
8165.0,1344,57076.647361
9183.0,1397,57111.359455
9198.0,1425,57148.505948
9660.0,1481,57186.42618
9540.0,1438,57222.284058
9891.0,1475,57258.851605
8573.0,1482,57295.42127
8508.0,1325,57327.194495
6804.0,1100,57353.818121
9651.0,1455,57388.482714
9585.0,1443,57423.36801
9450.0,1447,57460.883299
6293.0,1113,57488.791712
9459.0,1433,57523.067164
6456.0,1182,57553.047174
8238.0,1480,57589.418871
10359.0,1476,57626.689201
6426.0,1086,57653.54307
7370.0,1203,57683.1101
9858.0,1451,57719.125242
9228.0,1478,57755.581342
9060.0,1472,57790.313569
9207.0,1414,57825.395739
6426.0,1095,57853.118056
11187.0,1895,57900.91012
10305.0,1503,57937.836098
9675.0,1441,57975.357397
8003.0,1267,58007.115669
10020.0,1439,58042.991863
5652.0,1042,58069.830467
3729.0,737,58088.224205
10431.0,1489,58126.664798
9630.0,1447,58162.483552
7632.0,1236,58196.127339
8874.0,1397,58234.117639
6116.0,1111,58264.50199
6714.0,1095,58293.165308
5709.0,1002,58321.15341
8598.0,1302,58357.471683
6984.0,1156,58389.78214
3390.0,740,58412.141662
9108.0,1416,58455.75242
6318.0,1093,58489.299788
9486.0,1475,58535.430338
7707.0,1262,58576.409691
6342.0,1093,58612.225888
9404.0,1402,58656.915938
10235.0,1483,58709.099205
9189.0,1426,58758.278611
10974.0,1525,58811.764014
9713.0,1444,58861.919472
10127.0,1460,58909.628901
9729.0,1447,58958.008365
8895.0,1381,59004.961118
6414.0,1145,59042.818342
9432.0,1435,59090.337776
9521.0,1465,59139.68305
9738.0,1434,59189.126671
9834.0,1496,59237.383746
9285.0,1449,59286.644372
8705.0,1382,59331.971037
9543.0,1453,59380.95901
9477.0,1467,59431.738553
6303.0,1091,59469.487358
6579.0,1129,59508.045954
9207.0,1463,59560.429234
10017.0,1460,59609.963326
9612.0,1458,59659.643904
8451.0,1407,59709.653558
8838.0,1446,59757.933036
9306.0,1437,59808.647536
9306.0,1415,59860.012365
8163.0,1372,59908.758039
9918.0,1459,59961.147526
9324.0,1434,60012.128533
7200.0,1233,60054.325984
9729.0,1452,60105.028068
9900.0,1438,60154.140163
10152.0,1467,60207.962248
9773.0,1458,60257.222827
9963.0,1433,60308.898529
7623.0,1440,60358.358376
9576.0,1489,60409.306105
9999.0,1436,60460.010661
9495.0,1448,60509.538119
9684.0,1452,60562.968875
10008.0,1461,60614.285604
7803.0,1268,60661.233752
9153.0,1449,60711.582343
10893.0,1891,60780.102062
9039.0,1451,60833.016965
9972.0,1452,60881.992232
8489.0,1468,60933.885401
7866.0,1261,60976.784869
8826.0,1447,61026.513848
7893.0,1255,61071.170164
4821.0,898,61102.259671
9603.0,1455,61151.931695
10452.0,1474,61203.243728
9897.0,1480,61255.178378
9279.0,1462,61306.252999
9585.0,1415,61356.683771
6639.0,1107,61396.852267
8478.0,1437,61445.733639
7782.0,1268,61492.204208
10422.0,1860,61557.194968
10269.0,1490,61608.688715
8307.0,1318,61654.675168
10307.0,1523,61708.099066
9846.0,1482,61757.713461
8991.0,1437,61805.802055
9513.0,1450,61856.323296
10062.0,1453,61905.433847
9999.0,1444,61954.731476
8874.0,1444,62003.027567
9954.0,1482,62053.187743
7256.0,1201,62094.340589
9450.0,1439,62142.513674
10125.0,1437,62191.897965
9711.0,1451,62243.439266
7830.0,1248,62287.609313
6402.0,1101,62324.64022
5814.0,1067,62364.312104
10170.0,1480,62414.743766
7398.0,1369,62463.451359
9498.0,1442,62511.494002
9375.0,1482,62562.644254
9534.0,1458,62613.406678
10229.0,1490,62666.977166
9138.0,1385,62715.304217
6654.0,1168,62756.311748
9531.0,1440,62805.503199
9918.0,1466,62857.220365
4527.0,883,62886.968347
6912.0,1172,62925.489527
6147.0,1081,62962.293456
9615.0,1489,63014.278325
9216.0,1459,63065.775319
9750.0,1430,63115.127597
4716.0,905,63145.223567
10233.0,1504,63197.434715
8850.0,1414,63247.698606
8712.0,1370,63294.946689
9711.0,1461,63345.964563
5961.0,1082,63384.5437
6357.0,1070,63419.775296
10107.0,1471,63468.736813
9306.0,1374,63513.837064
10107.0,1491,63563.666904
10038.0,1469,63614.151493
9414.0,1446,63665.226113
7410.0,1242,63707.293346
6828.0,1100,63744.407714
9848.0,1468,63797.598591
8454.0,1348,63842.710306
4278.0,838,63870.557316
8874.0,1386,63919.854476
9777.0,1441,63968.951853
7011.0,1214,64011.855287
6570.0,1101,64050.402027
9255.0,1466,64100.787254
8868.0,1417,64149.847945
10116.0,1479,64200.512893
6051.0,1074,64238.020505
8955.0,1497,64291.588326
7220.0,1275,64337.768565
9480.0,1457,64387.629529
5070.0,1083,64424.713607
9252.0,1399,64474.341081
5081.0,1142,64514.180663
10404.0,1491,64564.179524
3255.0,744,64589.690866
9126.0,1458,64641.66436
9234.0,1435,64691.140419
6390.0,1163,64731.524532
5339.0,1066,64771.732005
7794.0,1203,64815.03564
5583.0,1101,64851.533825
9740.0,1448,64902.94842
9489.0,1453,64955.170101
9504.0,1460,65006.841796
10044.0,1483,65059.011714
8964.0,1439,65108.488643
8931.0,1346,65155.780264
10518.0,1870,65220.000939
8400.0,1287,65261.137687
9368.0,1443,65314.197006
9443.0,1457,65365.531285
9939.0,1480,65416.948862
10395.0,1819,65478.197299
9711.0,1542,65531.048535
6285.0,1088,65570.024981
9302.0,1429,65621.526746
3459.0,887,65651.679269
9441.0,1474,65702.88377
10101.0,1492,65755.073038
10020.0,1454,65804.832716
5036.0,987,65839.390307
9662.0,1459,65889.246909
9422.0,1456,65940.588274
9079.0,1507,65990.886637
6579.0,1089,66029.439622
9927.0,1499,66082.412064
6429.0,1067,66118.082484
10587.0,1479,66169.257677
7179.0,1184,66211.332384
9027.0,1410,66259.013885
9864.0,1439,66307.107082
4722.0,983,66341.288685
9488.0,1452,66392.104882
9606.0,1429,66441.000547
8766.0,1444,66491.435518
9924.0,1430,66537.47534
10635.0,1481,66590.884159
9188.0,1389,66637.115905
9165.0,1440,66685.448878
8759.0,1433,66733.930788
9930.0,1471,66783.411535
6447.0,1093,66820.727958
10030.0,1490,66870.231405
6015.0,1065,66904.857928
5960.0,1107,66942.799681
2991.0,761,66969.454275
5654.0,1061,67005.798182
7935.0,1245,67048.663087
9417.0,1419,67096.055448
9513.0,1466,67144.954632
9288.0,1446,67192.628435
9851.0,1449,67243.289481
9861.0,1478,67294.049729
10014.0,1451,67344.293776
6429.0,1069,67380.516632
9231.0,1426,67429.827094
6240.0,1082,67467.525145
10083.0,1480,67519.455579
6959.0,1297,67565.189109
10155.0,1465,67615.846973
10143.0,1477,67667.875755
6825.0,1129,67705.890433
9568.0,1419,67752.310055
6485.0,1085,67790.045426
10158.0,1459,67842.529601
8531.0,1308,67888.105621
9509.0,1449,67938.420636
6336.0,1104,67976.260628
9228.0,1434,68027.049338
3722.0,746,68052.118628
3486.0,791,68080.206383
6219.0,1058,68116.27052
6882.0,1108,68153.855422
9531.0,1453,68203.678421
10401.0,1478,68254.383115
6414.0,1088,68291.047548
5304.0,1013,68327.674915
9747.0,1469,68376.969178
9164.0,1453,68426.255021
6693.0,1096,68463.776677
8211.0,1249,68505.874129
6716.0,1182,68547.398562
9954.0,1459,68595.764646
10514.0,1487,68649.887698
10290.0,1483,68701.469915
8208.0,1280,68746.453252
10537.0,1467,68796.158422
10313.0,1447,68844.696478
10076.0,1473,68896.967594
6678.0,1108,68935.513581
9717.0,1456,68983.904801
6195.0,1098,69021.693925
10404.0,1489,69070.569688
6297.0,1099,69108.087909
10197.0,1482,69159.913495
9612.0,1447,69209.922175
10098.0,1468,69260.302116
6260.0,1084,69296.566967
9324.0,1443,69346.600539
6977.0,1118,69384.777614
9882.0,1423,69434.810762
10350.0,1457,69486.409034
10400.0,1519,69539.358584
5529.0,959,69572.48909
9693.0,1445,69622.300544
6308.0,1094,69661.691215
9443.0,1444,69713.154377
6723.0,1123,69749.089217
9435.0,1444,69799.551492
9731.0,1418,69847.915097
10115.0,1448,69900.064055
9570.0,1456,69949.357252
8541.0,1335,69996.550983
9297.0,1384,70043.585141
9912.0,1471,70096.531892
2004.0,640,70119.233014
10258.0,1476,70168.230551
10182.0,1514,70218.866506
6618.0,1078,70257.794513
9063.0,1442,70306.33263
6273.0,1080,70341.8773
10299.0,1457,70392.644273
6606.0,1091,70430.296601
7158.0,1130,70470.174825
5276.0,1013,70506.164406
2718.0,733,70531.059276
6306.0,1058,70564.63683
9648.0,1443,70613.620255
9769.0,1459,70663.105534
5862.0,1071,70699.982367
9657.0,1453,70750.01177
7955.0,1247,70792.24546
10248.0,1443,70842.115599
9549.0,1411,70892.77198
6789.0,1126,70931.853922
6807.0,1094,70969.816445
80.0,244,70978.268852
8982.0,1397,71024.529674
10067.0,1455,71075.923058
6227.0,1086,71113.424179
7392.0,1176,71153.848191
6735.0,1087,71192.73134
7430.0,1186,71235.645674
6264.0,1074,71270.154161
10233.0,1468,71320.040777
6612.0,1126,71358.298443
7900.0,1237,71400.503928
2003.0,639,71423.034051
7395.0,1171,71461.879487
8229.0,1298,71508.414
9228.0,1409,71556.631925
9351.0,1447,71604.459319
9837.0,1436,71655.21415
10227.0,1450,71706.303267
6060.0,1081,71744.372642
9789.0,1468,71795.390315
10038.0,1462,71847.292347
9015.0,1363,71895.725606
9432.0,1424,71944.138844
9210.0,1350,71990.843802
5257.0,942,72023.890815
7983.0,1250,72064.915285
10368.0,1475,72115.780805
9945.0,1449,72166.373734
9960.0,1459,72216.930341
8433.0,1258,72259.822659
10134.0,1481,72311.207587
7418.0,1203,72354.008948
9903.0,1429,72404.480034
6825.0,1098,72442.571885
6066.0,1117,72479.127445
10277.0,1460,72530.416445
9855.0,1433,72579.743592
10304.0,1454,72630.879991
5991.0,1099,72669.83832
9678.0,1417,72719.898409
10131.0,1446,72770.614731
7668.0,1225,72813.297045
6227.0,1090,72850.836414
6069.0,1062,72889.437181
6750.0,1082,72927.226865
8607.0,1344,72975.789939
6870.0,1113,73015.039859
9759.0,1439,73065.293413
10365.0,1475,73117.732971
9972.0,1438,73167.259291
10508.0,1480,73221.142367
6492.0,1079,73257.869378
9984.0,1466,73312.311424
9945.0,1451,73364.626773
10190.0,1476,73417.356676
7087.0,1186,73459.623471
10299.0,1465,73511.399205
6794.0,1108,73550.737064
9456.0,1383,73598.607561
10281.0,1472,73650.306539
7899.0,1236,73691.63537
9606.0,1431,73744.569861
9875.0,1418,73797.252341
9507.0,1459,73852.695663
10224.0,1477,73906.505104
6515.0,1060,73943.550094
9732.0,1454,73993.909384
7725.0,1217,74036.474193
10464.0,1470,74088.289356
9870.0,1409,74137.077849
10482.0,1505,74189.741956
6740.0,1106,74226.360643
9543.0,1457,74278.198626
7974.0,1274,74323.155721
9729.0,1445,74372.267279
7842.0,1369,74417.884974
9785.0,1457,74469.730172
9108.0,1343,74516.071693
10026.0,1482,74570.084858
9929.0,1472,74619.520387
7148.0,1178,74659.783955
8802.0,1412,74706.661448
9300.0,1434,74757.313257
6449.0,1096,74792.991281
9855.0,1430,74842.472443
8978.0,1387,74891.053602
9747.0,1477,74942.595891
9798.0,1440,74992.619792
9720.0,1426,75042.899386
6933.0,1098,75080.864814
9252.0,1366,75130.997313
7266.0,1193,75173.256682
9294.0,1415,75221.153639
9816.0,1432,75271.314732
5358.0,1006,75304.564616
10107.0,1471,75356.942209
10029.0,1484,75408.377795
10161.0,1451,75460.206183
10377.0,1481,75512.323918
9792.0,1398,75560.223827
9279.0,1415,75609.612152
9948.0,1483,75662.721805
9639.0,1430,75712.977982
8622.0,1302,75757.62026
9903.0,1449,75807.444346
10095.0,1424,75857.724222
8829.0,1611,75912.775205
9855.0,1442,75961.637189
9423.0,1759,76020.712774
9414.0,1418,76071.40899
9362.0,1443,76121.277349
8820.0,1366,76169.24083
6771.0,1098,76207.547945
8370.0,1550,76261.154582
10116.0,1474,76311.346435
9567.0,1425,76361.344621
10389.0,1506,76413.100322
10035.0,1436,76459.925655
8725.0,1393,76507.762564
9615.0,1451,76557.033079
10044.0,1442,76607.649527
10668.0,1508,76659.187671
6462.0,1087,76695.322527
10335.0,1474,76747.708376
9216.0,1427,76797.047586
6457.0,1111,76835.708528
9189.0,1423,76885.586198
10089.0,1459,76937.653398
10368.0,1472,76990.790982
10092.0,1459,77039.792347
8271.0,1271,77083.240146
9450.0,1434,77133.099481
10440.0,1466,77184.498473
8274.0,1341,77230.629159
8847.0,1399,77277.570367
9605.0,1425,77328.878666
9522.0,1446,77380.241187
6798.0,1109,77419.432902
9819.0,1449,77472.09517
9702.0,1402,77520.93334
9621.0,1463,77568.738798
8298.0,1287,77613.338699
6651.0,1117,77651.37749
10181.0,1487,77704.675767
9630.0,1441,77753.759601
10116.0,1486,77805.286067
6678.0,1078,77839.914708
7668.0,1214,77883.38668
8761.0,1453,77933.488124
9743.0,1446,77983.767597
9111.0,1342,78030.081077
4449.0,853,78059.530884
9081.0,1431,78108.787492
10170.0,1474,78158.825451
9606.0,1451,78209.474589
9945.0,1477,78259.795382
8514.0,1349,78304.594927
9693.0,1438,78355.804184
6412.0,1091,78391.221364
10143.0,1461,78441.504593
9792.0,1436,78491.037481
6714.0,1161,78532.859235
9756.0,1441,78584.814425
10548.0,1475,78635.065125
9687.0,1433,78685.643846
8373.0,1355,78731.54362
9668.0,1433,78781.208671
10413.0,1463,78832.827722
9801.0,1445,78883.690347
9909.0,1468,78934.479469
9480.0,1444,78985.986653
9738.0,1457,79036.959131
10035.0,1435,79085.949104
9956.0,1464,79138.49259
10209.0,1473,79190.885576
10046.0,1465,79242.167139
9936.0,1433,79292.414775
10190.0,1462,79344.88712
9957.0,1469,79394.703101
9971.0,1439,79446.703175
10199.0,1481,79499.244442
9720.0,1446,79545.935214
9675.0,1478,79597.597106
10327.0,1503,79650.475294
4968.0,963,79682.334254
8097.0,1266,79728.152876
10200.0,1447,79777.040727
7317.0,1218,79819.163763
9945.0,1433,79867.751863
7877.0,1246,79911.461779
9798.0,1456,79963.107412
9696.0,1428,80015.975073
9621.0,1436,80064.979272
8001.0,1217,80106.477083
6543.0,1183,80147.690048
9606.0,1441,80198.237684
7562.0,1222,80239.697712
9549.0,1442,80290.544163
8622.0,1319,80338.281793
9511.0,1398,80386.893723
9027.0,1428,80436.029623
5841.0,1182,80477.138628
9549.0,1431,80527.433288
8901.0,1426,80577.708369
7992.0,1248,80619.195854
9815.0,1460,80668.179353
9740.0,1412,80715.418063
10053.0,1458,80764.552188
10314.0,1475,80815.927968
9828.0,1463,80866.805722
10179.0,1464,80916.318135
9999.0,1413,80962.718461
10107.0,1442,81012.359793
7120.0,1144,81049.76833
6930.0,1142,81091.884762
9288.0,1335,81139.243015
10010.0,1489,81194.69045
9513.0,1426,81245.374904
10179.0,1480,81296.385828
6186.0,1066,81332.6685
8172.0,1234,81377.293036
9765.0,1437,81429.059604
8622.0,1418,81477.762694
7515.0,1248,81523.057291
9225.0,1379,81569.471077
10190.0,1466,81619.694983
3589.0,734,81644.92454
7445.0,1197,81686.713206
10161.0,1467,81738.609074
9648.0,1442,81789.802007
8334.0,1277,81834.297171
10512.0,1498,81885.677667
10287.0,1477,81934.89976
7641.0,1214,81980.492116
9902.0,1474,82031.194259
4158.0,956,82066.148722
10251.0,1440,82116.731316
10728.0,1479,82166.648633
7887.0,1253,82209.603324
10197.0,1454,82259.36624
9891.0,1470,82310.350394
10719.0,1476,82359.411237
8640.0,1287,82406.866802
4671.0,875,82435.095877
10283.0,1532,82488.036156
6536.0,1122,82526.974141
8094.0,1260,82571.138299
9747.0,1452,82623.759305
10035.0,1450,82672.90367
10395.0,1456,82723.30596
9002.0,1441,82769.431369
10289.0,1494,82822.082786
9198.0,1415,82870.143081
10379.0,1483,82919.836276
10020.0,1482,82973.147916
10118.0,1490,83025.457953
10047.0,1490,83077.474548
9804.0,1426,83127.066105
9846.0,1451,83177.889852
9423.0,1416,83225.840679
10053.0,1467,83276.441185
9675.0,1434,83325.406636
7659.0,1201,83366.700563
9753.0,1443,83414.143151
9963.0,1443,83464.60954
9443.0,1440,83515.394399
9461.0,1463,83567.159361
10137.0,1474,83618.81481
9621.0,1461,83669.991213
9783.0,1419,83717.606704
10044.0,1473,83767.743595
9927.0,1461,83817.202785
8019.0,1276,83862.79829
6777.0,1120,83902.59644
7078.0,1099,83940.768389
6365.0,1093,83978.375771
8033.0,1323,84021.458683
10118.0,1474,84069.963995
6596.0,1130,84108.952647
10593.0,1478,84156.565778
9576.0,1445,84203.843826
6699.0,1098,84238.076006
10143.0,1477,84284.728817
9981.0,1448,84331.288386
7848.0,1243,84368.011315
10476.0,1489,84412.207738
10192.0,1529,84458.224072
9711.0,1410,84502.311588
10575.0,1466,84547.751297
10071.0,1473,84594.254217
10071.0,1450,84638.261943
10140.0,1420,84683.627798
10251.0,1457,84729.227052
10314.0,1482,84775.688757
10062.0,1445,84821.446706
11295.0,1925,84880.659274
10593.0,1461,84925.854504
10026.0,1442,84969.968961
10315.0,1458,85014.337192
10251.0,1494,85059.105581
8163.0,1243,85095.50786
9657.0,1430,85138.343396
10395.0,1470,85185.231719
7911.0,1262,85224.331932
7704.0,1214,85261.635185
10444.0,1450,85303.702376
9738.0,1416,85343.67252
9666.0,1439,85387.611656
8640.0,1296,85427.115758
8766.0,1324,85466.324253
10017.0,1469,85510.763894
10221.0,1431,85554.92307
10359.0,1471,85600.596723
9513.0,1451,85645.584758
9657.0,1439,85689.245901
7128.0,1151,85722.395545
10287.0,1477,85767.701128
10388.0,1493,85808.374649
10521.0,1504,85852.933143
6906.0,1092,85883.244414
6861.0,1084,85913.906374
9695.0,1417,85954.631854
9324.0,1451,85997.245318
9720.0,1435,86034.541201
10380.0,1488,86076.824564
9918.0,1446,86117.922107
10899.0,1494,86160.02398
10242.0,1479,86200.271498
8523.0,1312,86238.733207
6618.0,1089,86266.077399
9522.0,1421,86305.699107
5315.0,924,86330.058923
9614.0,1468,86370.415849
6792.0,1073,86400.897182
9717.0,1446,86440.735132
10107.0,1452,86481.119299
9999.0,1456,86523.884637
7977.0,1261,86559.50914
9936.0,1458,86599.794576
9675.0,1433,86638.472761
9027.0,1434,86679.589491
9972.0,1403,86715.852884
10058.0,1479,86755.584881
10179.0,1462,86793.419981
8019.0,1226,86824.121868
9900.0,1456,86861.016791
4947.0,895,86883.42302
9765.0,1462,86921.382303
9846.0,1443,86958.114299
4600.0,833,86977.750765
10170.0,1451,87015.024166
10379.0,1460,87051.817474
7794.0,1240,87082.827919
10152.0,1436,87118.868491
9684.0,1473,87156.548201
9288.0,1440,87192.169989
9335.0,1433,87227.59212
8328.0,1300,87260.523766
9774.0,1442,87297.114768
7878.0,1227,87326.832807
9126.0,1341,87359.857549
9693.0,1436,87395.789573
10269.0,1480,87432.089409
7677.0,1252,87462.757126
10143.0,1437,87498.797953
10082.0,1464,87537.360157
10071.0,1493,87575.415435
10233.0,1469,87613.410056
10719.0,1490,87650.246909
