# {"t_start": 1547320498.6707418, "env_id": "BoxingNoFrameskip-v4"} 
r,l,t9.0,1778,78.521749
3.0,1781,150.286802
5.0,1784,225.832466
4.0,1783,309.817945
11.0,1781,397.004525
11.0,1780,484.30512
-4.0,1779,569.883635
1.0,1782,657.93285
0.0,1781,745.110445
1.0,1780,831.898496
-4.0,1782,921.656532
4.0,1782,1008.389903
1.0,1782,1097.553324
1.0,1782,1179.575947
0.0,1782,1268.246026
6.0,1780,1350.910253
-1.0,1781,1439.339379
-4.0,1782,1525.319479
13.0,1781,1613.946116
19.0,1782,1701.542322
-3.0,1780,1788.614296
2.0,1785,1875.243738
4.0,1782,1961.462192
15.0,1781,2048.967654
3.0,1780,2136.824412
3.0,1784,2223.274792
-3.0,1785,2310.316849
10.0,1781,2397.701115
22.0,1779,2484.590424
-3.0,1779,2570.343013
3.0,1783,2658.249269
-4.0,1778,2744.020987
10.0,1785,2829.59401
4.0,1782,2918.20175
5.0,1781,3006.7111
-1.0,1782,3096.054608
4.0,1784,3184.97776
-5.0,1779,3273.088157
-4.0,1782,3361.893468
-1.0,1779,3450.085519
4.0,1780,3536.377162
18.0,1780,3623.278054
4.0,1781,3714.374849
1.0,1779,3801.921741
3.0,1779,3887.703061
-8.0,1784,3974.609621
0.0,1785,4060.980922
9.0,1783,4147.99126
-1.0,1779,4234.352303
2.0,1780,4321.640418
2.0,1781,4405.662321
7.0,1783,4493.739557
11.0,1784,4584.059881
8.0,1784,4671.865854
8.0,1780,4758.781833
5.0,1779,4844.082425
9.0,1779,4930.71935
14.0,1781,5019.315889
7.0,1782,5107.020351
16.0,1780,5190.168062
6.0,1783,5276.519917
0.0,1784,5366.815462
2.0,1784,5450.709058
-6.0,1785,5539.533752
2.0,1780,5625.521089
7.0,1781,5711.388217
6.0,1785,5795.670414
2.0,1785,5882.733693
4.0,1780,5968.217121
12.0,1785,6055.047257
12.0,1783,6146.594578
4.0,1785,6234.275818
-5.0,1778,6320.666277
13.0,1781,6409.28644
9.0,1783,6493.157298
18.0,1781,6580.576633
11.0,1778,6662.533442
10.0,1780,6747.721733
10.0,1781,6835.040652
7.0,1779,6920.149463
24.0,1780,7009.932259
9.0,1780,7093.808158
16.0,1784,7178.534447
4.0,1784,7267.271744
22.0,1779,7352.547818
14.0,1783,7440.783162
12.0,1783,7528.574035
12.0,1782,7616.406008
14.0,1785,7706.727751
1.0,1782,7794.779608
26.0,1784,7880.57593
0.0,1781,7966.586618
20.0,1781,8053.325838
6.0,1783,8141.30263
15.0,1781,8229.278363
-2.0,1783,8317.311584
12.0,1781,8406.818543
13.0,1782,8494.985453
23.0,1785,8583.280129
18.0,1780,8671.276997
-2.0,1781,8756.38939
7.0,1779,8843.811929
11.0,1785,8932.476794
4.0,1784,9019.430049
14.0,1780,9107.902321
13.0,1779,9192.938019
32.0,1783,9280.774134
4.0,1780,9367.433596
7.0,1780,9454.795098
-2.0,1783,9541.185713
6.0,1784,9628.070667
12.0,1783,9717.643594
22.0,1781,9804.500231
21.0,1780,9890.020129
6.0,1784,9979.114468
2.0,1781,10066.736825
7.0,1779,10155.127069
15.0,1783,10241.903482
9.0,1779,10327.120922
5.0,1778,10416.537345
14.0,1778,10502.600077
12.0,1784,10590.850839
4.0,1781,10676.22742
10.0,1785,10761.848212
21.0,1783,10848.994882
26.0,1779,10936.761737
15.0,1784,11021.009877
35.0,1784,11109.05393
1.0,1780,11196.413343
15.0,1783,11280.668205
8.0,1781,11366.539415
14.0,1785,11453.873008
19.0,1779,11542.034477
8.0,1781,11628.708562
21.0,1785,11719.344171
19.0,1778,11806.227024
14.0,1780,11892.015373
31.0,1779,11981.900094
10.0,1781,12068.404448
8.0,1783,12155.588814
37.0,1783,12241.322179
12.0,1785,12328.552937
17.0,1784,12418.201021
19.0,1785,12505.716645
22.0,1779,12591.301652
5.0,1783,12677.489818
21.0,1785,12761.871648
13.0,1782,12846.986741
16.0,1782,12936.362489
5.0,1785,13023.46331
29.0,1784,13106.900596
17.0,1780,13198.249778
14.0,1780,13283.45279
33.0,1779,13371.175064
16.0,1785,13456.308854
32.0,1782,13541.51973
35.0,1779,13627.678959
24.0,1785,13714.758038
26.0,1785,13802.414943
21.0,1782,13888.76454
19.0,1785,13977.481409
16.0,1781,14067.990736
28.0,1782,14155.977502
30.0,1779,14244.860124
2.0,1781,14332.109084
23.0,1781,14422.443617
12.0,1782,14511.633042
-3.0,1780,14598.867013
17.0,1779,14684.799321
31.0,1783,14770.981748
20.0,1780,14859.769434
6.0,1783,14947.343388
23.0,1779,15032.247634
19.0,1783,15117.919237
27.0,1785,15204.648615
13.0,1782,15293.988739
13.0,1778,15379.739139
58.0,1784,15465.308569
23.0,1780,15550.529868
27.0,1782,15636.844459
42.0,1784,15720.919998
38.0,1782,15807.168036
33.0,1783,15896.937772
56.0,1782,15986.268052
46.0,1781,16072.919412
37.0,1781,16161.036799
40.0,1780,16249.050409
23.0,1781,16333.338337
24.0,1785,16420.558993
40.0,1785,16508.179175
43.0,1781,16594.071204
44.0,1780,16680.846573
38.0,1783,16768.151609
38.0,1785,16854.027472
36.0,1784,16941.475748
28.0,1781,17029.686585
37.0,1785,17113.95846
37.0,1783,17201.427308
7.0,1784,17290.317604
23.0,1779,17374.379318
39.0,1781,17461.935175
46.0,1780,17547.839674
39.0,1780,17635.177767
40.0,1780,17721.880413
33.0,1778,17807.734633
25.0,1781,17891.79693
31.0,1784,17977.667744
40.0,1785,18065.151757
41.0,1783,18153.080367
61.0,1783,18238.985354
78.0,1780,18324.704719
53.0,1783,18408.925075
58.0,1784,18496.801616
63.0,1782,18582.05625
54.0,1783,18668.478123
73.0,1780,18758.470808
60.0,1783,18844.255745
65.0,1785,18930.333818
51.0,1785,19018.592676
63.0,1778,19103.536551
67.0,1782,19190.680222
70.0,1778,19275.517735
40.0,1783,19363.537449
56.0,1781,19451.92371
62.0,1779,19537.200613
39.0,1778,19622.662947
39.0,1785,19709.053211
28.0,1784,19797.728898
47.0,1779,19883.687939
37.0,1780,19970.72675
33.0,1778,20059.198622
51.0,1784,20147.73836
46.0,1780,20234.812973
54.0,1780,20323.421556
33.0,1785,20409.981227
50.0,1785,20497.320788
10.0,1785,20584.709486
39.0,1782,20669.212968
55.0,1779,20756.441466
33.0,1785,20840.556336
33.0,1778,20925.0888
35.0,1785,21010.98386
75.0,1782,21094.949433
55.0,1779,21180.937795
48.0,1784,21268.638778
35.0,1780,21356.570933
59.0,1780,21442.813948
1.0,1784,21528.09322
61.0,1781,21615.876131
21.0,1783,21703.399425
48.0,1782,21791.981327
45.0,1778,21877.333337
31.0,1780,21962.39715
44.0,1784,22049.561747
53.0,1785,22133.985656
28.0,1783,22223.34908
48.0,1779,22311.647703
36.0,1778,22401.957344
14.0,1784,22487.075079
44.0,1778,22575.044933
46.0,1778,22661.554998
46.0,1785,22748.528249
61.0,1782,22836.261933
57.0,1783,22920.538967
47.0,1782,23006.763727
39.0,1785,23092.260608
31.0,1784,23177.044618
50.0,1782,23261.68726
46.0,1778,23351.481189
37.0,1781,23440.451817
26.0,1785,23526.524604
1.0,1780,23615.927293
39.0,1778,23703.346752
49.0,1782,23788.729655
31.0,1781,23874.78425
28.0,1784,23962.235774
30.0,1781,24049.618134
29.0,1781,24137.177722
49.0,1783,24221.542133
62.0,1785,24306.143324
43.0,1782,24392.662983
41.0,1780,24475.262932
26.0,1785,24557.946646
61.0,1782,24640.416335
51.0,1779,24724.064465
60.0,1782,24807.019636
57.0,1778,24888.742385
67.0,1783,24972.478819
45.0,1784,25052.586269
73.0,1784,25136.45174
44.0,1781,25219.239015
61.0,1783,25303.067189
47.0,1784,25386.375975
65.0,1782,25467.617571
65.0,1781,25551.790624
49.0,1784,25632.407772
76.0,1783,25714.669941
52.0,1783,25797.316594
64.0,1781,25880.416124
75.0,1785,25962.655772
59.0,1781,26046.78238
26.0,1780,26128.309316
40.0,1781,26209.928159
60.0,1785,26289.855488
51.0,1781,26374.097125
64.0,1783,26457.524494
56.0,1779,26541.375406
62.0,1785,26627.869397
39.0,1781,26709.178583
82.0,1783,26793.273021
41.0,1784,26876.498273
49.0,1780,26958.184563
68.0,1783,27039.446344
49.0,1781,27121.76102
61.0,1785,27204.634393
59.0,1780,27284.944386
43.0,1785,27368.914636
44.0,1778,27450.214882
50.0,1785,27531.885288
68.0,1785,27613.465899
61.0,1783,27695.073238
29.0,1783,27777.764302
46.0,1783,27860.937096
58.0,1780,27945.531133
54.0,1780,28028.405485
29.0,1782,28110.098895
17.0,1779,28190.158187
48.0,1781,28273.59622
54.0,1782,28357.319762
68.0,1779,28439.699033
55.0,1784,28524.196374
68.0,1779,28611.232834
57.0,1780,28692.727747
38.0,1784,28776.998841
50.0,1781,28859.639784
47.0,1782,28942.961572
64.0,1782,29026.414285
56.0,1781,29108.573763
46.0,1778,29190.130733
47.0,1779,29272.492937
73.0,1784,29354.620764
61.0,1780,29437.021613
59.0,1784,29520.457853
43.0,1783,29604.438933
48.0,1781,29687.316279
44.0,1782,29767.806737
46.0,1780,29851.863135
26.0,1781,29935.560676
12.0,1779,30016.193028
7.0,1781,30098.615592
18.0,1783,30180.99009
25.0,1778,30259.968954
34.0,1780,30343.465464
33.0,1780,30428.254891
48.0,1780,30512.066715
72.0,1779,30593.978513
42.0,1784,30675.305646
78.0,1785,30755.295542
50.0,1780,30838.084922
45.0,1779,30918.963389
69.0,1785,31002.352218
69.0,1785,31084.227297
22.0,1779,31166.74193
26.0,1779,31251.076151
46.0,1781,31334.633001
46.0,1780,31417.86952
33.0,1780,31500.159338
41.0,1784,31581.637786
52.0,1780,31663.951679
50.0,1780,31747.332445
46.0,1779,31830.142457
63.0,1783,31911.867625
38.0,1783,31994.528116
54.0,1784,32074.00779
42.0,1782,32157.78023
5.0,1783,32237.440893
28.0,1784,32318.650128
13.0,1783,32400.950606
26.0,1779,32482.394146
18.0,1781,32564.113034
19.0,1781,32645.936496
10.0,1783,32727.358016
30.0,1783,32813.274495
65.0,1784,32897.22276
35.0,1785,32982.778876
12.0,1785,33067.059756
42.0,1784,33153.531913
26.0,1781,33236.192963
24.0,1778,33320.11689
43.0,1784,33407.114618
43.0,1780,33494.190628
55.0,1781,33578.908535
49.0,1779,33661.845584
47.0,1785,33747.004987
45.0,1780,33832.058029
44.0,1779,33917.427001
58.0,1778,34004.595397
69.0,1783,34088.935834
31.0,1781,34175.347781
15.0,1782,34261.167706
44.0,1783,34348.536124
56.0,1779,34431.684285
75.0,1724,34509.181871
88.0,1590,34584.830626
56.0,1779,34667.548874
42.0,1778,34749.064495
52.0,1779,34831.579292
52.0,1781,34912.555978
78.0,1780,34994.86415
40.0,1785,35077.531959
18.0,1779,35162.844005
47.0,1782,35246.876726
51.0,1783,35330.720821
62.0,1782,35415.237346
54.0,1780,35495.380804
72.0,1781,35578.814431
48.0,1781,35662.859674
50.0,1782,35746.730012
49.0,1778,35833.784551
37.0,1784,35918.739446
55.0,1782,36002.86155
43.0,1785,36087.340967
86.0,1779,36170.840109
56.0,1785,36257.237819
74.0,1781,36344.23083
43.0,1779,36429.058703
62.0,1784,36512.559112
62.0,1783,36594.984157
52.0,1784,36678.143018
73.0,1779,36757.511475
60.0,1784,36841.947007
74.0,1785,36925.880346
79.0,1782,37010.058145
69.0,1779,37093.852875
52.0,1782,37181.700406
53.0,1782,37263.976306
42.0,1780,37350.524719
77.0,1780,37434.314474
35.0,1784,37519.880926
52.0,1783,37603.300974
51.0,1780,37686.900215
48.0,1782,37770.062746
69.0,1782,37853.908639
41.0,1779,37937.360887
22.0,1783,38020.505209
39.0,1779,38104.418354
40.0,1781,38187.897146
55.0,1784,38274.796177
56.0,1780,38355.341061
49.0,1780,38436.599728
46.0,1783,38516.575831
70.0,1783,38599.341459
32.0,1783,38681.371463
47.0,1784,38763.888746
11.0,1785,38845.781522
45.0,1783,38928.787297
46.0,1781,39015.313401
20.0,1779,39100.938263
43.0,1781,39185.683024
48.0,1785,39269.863081
26.0,1779,39352.704157
35.0,1784,39434.514005
26.0,1781,39517.701912
27.0,1783,39601.431313
12.0,1779,39686.894318
36.0,1784,39772.755619
33.0,1784,39857.26551
59.0,1779,39941.212061
41.0,1785,40023.086179
41.0,1785,40104.981083
60.0,1780,40187.528559
51.0,1785,40273.106065
42.0,1780,40357.274384
60.0,1779,40442.957202
50.0,1781,40527.586595
37.0,1782,40614.470926
43.0,1783,40700.210996
45.0,1785,40783.770741
56.0,1785,40868.616119
65.0,1782,40952.552526
55.0,1782,41033.966032
60.0,1783,41117.646549
48.0,1780,41207.440293
56.0,1778,41292.371361
41.0,1781,41378.590493
73.0,1784,41462.382488
77.0,1747,41547.478872
79.0,1780,41631.552345
55.0,1784,41713.978454
43.0,1783,41797.811053
63.0,1779,41880.23699
66.0,1782,41963.291762
71.0,1779,42047.540874
69.0,1782,42132.591349
88.0,1719,42209.707527
65.0,1782,42290.374921
76.0,1785,42375.645628
22.0,1779,42458.119351
21.0,1778,42541.627038
51.0,1780,42625.526823
65.0,1779,42711.07129
88.0,1589,42786.456707
42.0,1780,42868.720759
42.0,1784,42952.249333
49.0,1783,43034.45043
60.0,1781,43117.902367
38.0,1785,43203.732353
42.0,1778,43284.963741
53.0,1784,43364.081297
67.0,1785,43447.242438
44.0,1785,43529.4077
74.0,1783,43612.418589
66.0,1781,43693.549794
46.0,1780,43779.139912
58.0,1782,43862.233763
51.0,1780,43945.926857
64.0,1780,44026.354575
62.0,1781,44108.313579
60.0,1782,44188.922906
62.0,1785,44269.222302
50.0,1779,44349.944884
37.0,1780,44433.214547
63.0,1780,44515.865502
38.0,1779,44599.292257
46.0,1781,44682.600326
58.0,1782,44767.632511
30.0,1783,44849.404082
53.0,1780,44928.887386
35.0,1785,45012.473684
53.0,1784,45094.903481
83.0,1768,45174.77388
49.0,1783,45257.855562
55.0,1780,45340.083403
60.0,1783,45423.456419
53.0,1785,45504.861139
66.0,1784,45584.174968
51.0,1784,45666.020419
75.0,1783,45749.017657
66.0,1784,45827.829344
60.0,1782,45908.717658
87.0,1651,45982.557001
82.0,1569,46055.975169
68.0,1783,46134.5546
84.0,1711,46211.388521
58.0,1783,46289.364771
81.0,1781,46366.11218
85.0,1745,46442.476171
47.0,1783,46520.008415
59.0,1779,46598.249051
72.0,1780,46675.759667
60.0,1783,46752.752349
57.0,1784,46828.888139
72.0,1783,46907.66817
68.0,1784,46984.569477
80.0,1783,47059.155273
75.0,1782,47135.112339
68.0,1783,47210.134752
76.0,1780,47286.637847
79.0,1719,47357.270973
75.0,1782,47431.270493
80.0,1784,47505.458935
66.0,1780,47580.146883
57.0,1785,47653.194416
43.0,1781,47726.417107
66.0,1780,47801.360571
49.0,1785,47873.302368
45.0,1779,47949.394552
71.0,1780,48023.798128
64.0,1782,48100.458631
73.0,1785,48176.072379
77.0,1646,48243.92353
53.0,1784,48314.537493
74.0,1780,48385.233745
68.0,1784,48456.608859
78.0,1682,48523.589915
74.0,1779,48593.908592
66.0,1785,48664.020729
68.0,1783,48735.478302
69.0,1783,48805.998394
85.0,1758,48871.980754
61.0,1782,48940.596889
58.0,1782,49011.000511
66.0,1785,49082.721279
85.0,1613,49146.541463
69.0,1779,49216.605336
57.0,1784,49287.960064
63.0,1783,49358.145458
44.0,1784,49430.928688
51.0,1779,49503.747868
79.0,1780,49570.962077
68.0,1781,49640.919682
20.0,1785,49711.439772
70.0,1785,49778.17303
66.0,1785,49849.032434
74.0,1784,49919.768853
91.0,1782,49987.612232
67.0,1781,50056.922341
74.0,1783,50127.591787
87.0,1744,50195.928598
71.0,1782,50264.134622
66.0,1782,50335.736157
78.0,1762,50407.437528
74.0,1779,50479.268609
66.0,1785,50551.309293
58.0,1784,50622.136218
53.0,1784,50694.793115
58.0,1779,50763.383131
92.0,1680,50830.126437
85.0,1783,50900.170283
93.0,1713,50969.861163
49.0,1783,51040.500022
56.0,1782,51111.087819
31.0,1784,51181.172194
37.0,1781,51250.0506
73.0,1785,51316.528226
69.0,1779,51383.687861
49.0,1784,51453.701534
92.0,1774,51521.356512
76.0,1785,51589.716046
84.0,1682,51652.992424
85.0,1781,51720.216413
80.0,1781,51789.531401
83.0,1759,51856.372911
78.0,1784,51921.746066
84.0,1726,51986.953517
64.0,1779,52055.685341
79.0,1784,52121.62973
54.0,1782,52188.521498
81.0,1782,52252.910743
53.0,1784,52320.053105
58.0,1780,52387.781796
67.0,1779,52454.026075
86.0,1725,52518.906771
61.0,1784,52584.196809
59.0,1784,52649.883926
69.0,1785,52716.667628
74.0,1781,52783.370732
61.0,1780,52850.325328
65.0,1778,52916.972304
58.0,1784,52986.349772
87.0,1785,53054.223729
63.0,1784,53124.231276
70.0,1782,53191.395695
40.0,1784,53258.518468
63.0,1785,53325.162759
62.0,1779,53392.663171
38.0,1785,53458.777945
34.0,1779,53526.752236
62.0,1783,53592.705208
53.0,1779,53657.913248
66.0,1779,53725.814458
54.0,1785,53793.904054
58.0,1778,53859.940846
54.0,1783,53926.214437
40.0,1780,53995.038376
36.0,1778,54061.13402
89.0,1785,54125.633119
74.0,1782,54191.603433
71.0,1782,54259.482229
82.0,1785,54325.550905
70.0,1780,54391.421067
44.0,1781,54456.839654
73.0,1782,54522.361975
94.0,1547,54582.329746
90.0,1496,54636.559169
73.0,1778,54703.130493
84.0,1744,54766.182981
66.0,1778,54830.157951
70.0,1781,54896.391937
57.0,1785,54965.72301
71.0,1783,55031.35579
78.0,1779,55095.80517
60.0,1784,55161.079523
61.0,1784,55228.312759
54.0,1783,55295.462494
65.0,1782,55362.147266
85.0,1684,55428.217426
76.0,1781,55493.872588
77.0,1784,55560.656762
77.0,1781,55628.106686
80.0,1779,55693.748791
83.0,1779,55761.443958
26.0,1783,55828.487041
83.0,1781,55895.173405
73.0,1779,55961.997414
89.0,1727,56028.263102
70.0,1785,56093.657342
78.0,1625,56152.387787
69.0,1785,56220.492548
79.0,1647,56282.406962
70.0,1782,56352.952684
70.0,1785,56417.440064
64.0,1778,56483.128387
80.0,1678,56542.047011
42.0,1783,56608.901912
68.0,1783,56674.17461
74.0,1780,56743.087286
80.0,1636,56803.604793
53.0,1785,56868.592736
76.0,1785,56934.751913
75.0,1783,57000.981199
85.0,1587,57061.349568
59.0,1780,57125.357233
51.0,1785,57192.64112
68.0,1785,57261.302535
66.0,1784,57328.724321
64.0,1784,57394.960672
60.0,1779,57463.647285
68.0,1784,57531.447454
73.0,1780,57595.617425
73.0,1744,57661.859998
78.0,1781,57729.984607
88.0,1650,57791.608585
54.0,1779,57854.919928
89.0,1512,57911.784111
93.0,1521,57968.615804
64.0,1783,58037.603712
67.0,1782,58103.400446
64.0,1780,58170.07691
63.0,1784,58236.663785
85.0,1564,58292.094463
73.0,1784,58359.351516
60.0,1785,58429.151184
69.0,1780,58497.620847
79.0,1781,58563.074133
67.0,1783,58628.638093
66.0,1724,58693.156658
85.0,1649,58755.495918
57.0,1781,58822.186023
76.0,1688,58885.188371
64.0,1781,58951.2571
57.0,1779,59017.79197
83.0,1783,59084.440862
74.0,1765,59150.410485
85.0,1726,59216.646681
82.0,1783,59282.539557
87.0,1590,59342.371515
91.0,1576,59401.642024
93.0,1506,59458.043666
74.0,1636,59522.620304
87.0,1740,59588.84873
79.0,1691,59652.590211
82.0,1766,59719.120259
71.0,1784,59786.368302
64.0,1781,59852.089295
77.0,1778,59917.67824
72.0,1784,59984.826639
39.0,1783,60051.914554
68.0,1779,60119.970472
71.0,1785,60188.448949
80.0,1779,60257.105859
56.0,1778,60325.241858
79.0,1783,60393.610658
85.0,1539,60451.684245
76.0,1683,60515.492535
90.0,1462,60568.865519
84.0,1783,60634.711529
86.0,1672,60698.01351
89.0,1680,60759.404476
65.0,1782,60826.560954
83.0,1785,60891.195236
92.0,1611,60951.938418
63.0,1780,61016.554977
81.0,1761,61080.384125
88.0,1596,61139.529148
81.0,1779,61205.31747
67.0,1779,61273.035985
82.0,1695,61335.908471
87.0,1768,61402.307699
92.0,1617,61461.045649
74.0,1780,61529.518163
68.0,1779,61595.668654
69.0,1782,61660.071136
68.0,1781,61726.545186
70.0,1778,61794.74924
79.0,1725,61859.677987
75.0,1780,61928.192449
86.0,1464,61984.166789
82.0,1785,62051.666033
74.0,1785,62120.14507
66.0,1779,62187.174997
76.0,1664,62251.683655
75.0,1785,62318.540285
81.0,1641,62380.399706
78.0,1781,62445.001589
89.0,1613,62506.518309
70.0,1784,62574.388506
85.0,1665,62638.136033
68.0,1785,62706.078038
72.0,1781,62773.909432
92.0,1333,62824.160539
73.0,1784,62894.101229
83.0,1523,62948.604753
80.0,1723,63014.058293
58.0,1784,63078.659077
89.0,1703,63140.304118
87.0,1681,63199.282051
84.0,1784,63265.116133
88.0,1613,63326.365588
82.0,1537,63385.981947
76.0,1779,63451.476476
81.0,1757,63516.295368
62.0,1784,63581.435874
85.0,1639,63644.998858
75.0,1747,63708.886787
69.0,1782,63777.508351
76.0,1783,63845.360175
66.0,1783,63912.315462
82.0,1760,63978.311479
82.0,1658,64040.556965
71.0,1739,64107.548282
52.0,1785,64172.725313
91.0,1585,64234.367898
83.0,1693,64297.78102
84.0,1637,64361.577963
76.0,1716,64428.766075
78.0,1782,64495.244706
72.0,1779,64561.930066
87.0,1695,64625.597701
84.0,1676,64689.439787
86.0,1597,64751.516727
79.0,1405,64806.785279
84.0,1637,64869.823962
80.0,1566,64930.40184
96.0,1405,64983.798175
72.0,1781,65049.856692
68.0,1784,65118.961027
88.0,1779,65185.839639
71.0,1780,65252.500185
55.0,1779,65319.697305
92.0,1602,65379.223691
96.0,1545,65436.486918
81.0,1785,65505.588548
58.0,1782,65575.401665
60.0,1779,65642.019542
89.0,1642,65705.873261
92.0,1613,65767.950574
89.0,1601,65828.015237
70.0,1685,65890.91083
81.0,1783,65953.33354
82.0,1644,66016.353481
70.0,1782,66082.409109
82.0,1441,66134.894364
80.0,1679,66198.91617
84.0,1579,66256.833435
86.0,1664,66320.208345
88.0,1596,66380.682574
76.0,1447,66436.628143
84.0,1455,66492.671447
87.0,1724,66557.704587
79.0,1613,66617.245118
90.0,1614,66677.367079
77.0,1648,66740.386848
93.0,1461,66796.885865
69.0,1785,66866.275926
85.0,1538,66924.263503
82.0,1680,66991.443168
92.0,1784,67056.975629
78.0,1780,67124.781101
89.0,1650,67186.376033
96.0,1524,67243.971004
89.0,1641,67306.704935
87.0,1465,67363.672673
76.0,1785,67431.768106
89.0,1676,67495.378853
90.0,1620,67557.310971
88.0,1533,67612.878457
66.0,1785,67679.598618
95.0,1545,67738.36176
74.0,1783,67807.124912
80.0,1698,67874.817472
72.0,1783,67941.213307
70.0,1779,68009.224533
83.0,1641,68071.326893
80.0,1778,68139.590717
86.0,1491,68197.060024
75.0,1785,68265.36555
82.0,1782,68327.47216
80.0,1716,68392.75508
69.0,1783,68459.251907
90.0,1681,68519.573504
68.0,1779,68586.738001
92.0,1779,68657.673297
80.0,1779,68723.65843
80.0,1698,68788.091438
86.0,1718,68853.114636
85.0,1423,68907.868848
80.0,1764,68975.418039
79.0,1744,69042.043216
78.0,1692,69106.926963
86.0,1774,69178.536365
79.0,1550,69235.770713
96.0,1454,69288.658359
90.0,1733,69353.146734
71.0,1779,69419.228815
94.0,1595,69477.494227
73.0,1779,69543.400959
73.0,1784,69613.061963
75.0,1780,69682.255397
52.0,1785,69747.668322
48.0,1785,69814.516036
86.0,1784,69886.742516
61.0,1730,69955.249541
88.0,1672,70023.052824
53.0,1784,70090.102514
81.0,1663,70155.926428
82.0,1783,70225.167305
86.0,1515,70283.288497
92.0,1539,70344.34369
83.0,1757,70408.903639
90.0,1692,70474.827159
53.0,1778,70543.600523
93.0,1587,70604.587033
85.0,1619,70665.771782
81.0,1780,70734.967801
75.0,1675,70800.043903
89.0,1538,70862.92563
94.0,1425,70918.580181
60.0,1785,70988.48034
79.0,1492,71045.503842
92.0,1685,71107.656291
93.0,1775,71174.168943
87.0,1695,71234.842651
46.0,1785,71300.135916
59.0,1784,71367.046871
56.0,1781,71432.802447
90.0,1758,71497.914722
79.0,1782,71561.944811
39.0,1782,71628.443375
61.0,1785,71694.925219
50.0,1782,71760.439506
84.0,1779,71827.391883
76.0,1779,71895.350231
50.0,1784,71960.275285
53.0,1782,72026.728991
90.0,1608,72085.906418
89.0,1577,72143.519713
89.0,1730,72206.860411
90.0,1496,72262.941203
61.0,1782,72326.63997
70.0,1779,72391.320074
91.0,1617,72451.20687
80.0,1643,72514.337382
81.0,1671,72579.072135
86.0,1779,72644.816761
87.0,1741,72715.12166
90.0,1617,72776.529482
66.0,1784,72843.038416
76.0,1768,72910.324162
87.0,1744,72978.429606
72.0,1784,73046.583591
43.0,1782,73116.884901
93.0,1589,73176.912844
85.0,1747,73244.294718
81.0,1781,73313.637076
91.0,1716,73381.99013
65.0,1779,73450.796854
73.0,1782,73520.654058
79.0,1762,73585.426272
74.0,1781,73650.280349
60.0,1779,73719.502625
82.0,1747,73784.374447
67.0,1778,73850.568851
63.0,1784,73917.146613
86.0,1782,73981.741813
95.0,1545,74040.029771
82.0,1711,74102.970087
63.0,1779,74171.624819
85.0,1482,74226.986737
74.0,1783,74292.730194
87.0,1780,74363.159572
59.0,1779,74431.948792
63.0,1780,74501.06822
83.0,1586,74561.595402
86.0,1733,74626.134217
96.0,1742,74693.114354
86.0,1723,74759.614836
79.0,1778,74830.010504
79.0,1785,74896.731177
62.0,1779,74962.900455
57.0,1778,75027.332643
89.0,1619,75087.866755
84.0,1781,75157.519244
76.0,1783,75227.832088
89.0,1652,75294.252995
65.0,1633,75356.525073
85.0,1677,75422.849027
88.0,1749,75491.222467
79.0,1779,75557.511177
89.0,1784,75622.979105
83.0,1746,75689.396946
88.0,1646,75751.578112
72.0,1783,75817.434419
77.0,1676,75879.484583
85.0,1785,75944.278948
84.0,1718,76009.113524
88.0,1625,76070.321483
61.0,1778,76136.448862
51.0,1783,76203.019335
77.0,1783,76272.015064
88.0,1761,76338.845222
92.0,1762,76406.134833
95.0,1607,76464.312792
85.0,1738,76529.158238
85.0,1502,76587.128204
96.0,1642,76649.924104
92.0,1458,76704.692562
70.0,1783,76774.580545
90.0,1589,76836.049587
96.0,1546,76896.333684
78.0,1683,76959.104819
88.0,1587,77017.021227
68.0,1781,77083.959497
62.0,1783,77153.65194
71.0,1783,77221.071919
80.0,1781,77287.536145
56.0,1779,77357.695775
89.0,1632,77418.170833
88.0,1490,77473.165183
74.0,1537,77532.194745
71.0,1783,77600.914021
73.0,1679,77663.785501
75.0,1488,77719.821122
76.0,1785,77789.14284
87.0,1489,77846.129734
68.0,1699,77911.141281
89.0,1541,77970.564391
69.0,1657,78031.188725
83.0,1695,78094.750506
92.0,1501,78149.52196
80.0,1732,78212.544236
91.0,1681,78275.96776
82.0,1647,78338.589645
89.0,1542,78396.521294
87.0,1596,78459.583754
80.0,1730,78524.466063
78.0,1785,78589.055778
85.0,1593,78650.012932
64.0,1785,78718.324095
82.0,1692,78780.44715
95.0,1618,78840.68121
85.0,1620,78899.994925
86.0,1592,78958.925973
92.0,1501,79014.111069
90.0,1475,79071.043914
88.0,1606,79129.964069
87.0,1531,79187.04589
80.0,1733,79249.619408
83.0,1785,79319.592741
89.0,1669,79382.653635
76.0,1785,79449.92408
71.0,1654,79512.35863
98.0,1506,79569.206897
70.0,1783,79636.254384
79.0,1728,79699.868279
84.0,1588,79759.488005
82.0,1641,79821.46204
87.0,1769,79888.201119
76.0,1761,79956.068142
74.0,1779,80023.108656
81.0,1522,80080.399015
95.0,1465,80135.914758
85.0,1653,80200.220167
94.0,1400,80251.192309
84.0,1779,80319.765097
78.0,1778,80385.289277
65.0,1778,80450.944542
93.0,1622,80513.741706
87.0,1695,80578.018349
79.0,1616,80638.713207
86.0,1711,80705.582117
89.0,1699,80770.444541
87.0,1782,80834.397717
78.0,1768,80899.117094
64.0,1782,80966.433101
88.0,1545,81026.283454
75.0,1781,81090.900852
86.0,1785,81155.654151
79.0,1668,81216.257391
71.0,1646,81277.018582
72.0,1779,81341.69544
88.0,1761,81406.241134
84.0,1762,81472.741135
60.0,1760,81539.675966
95.0,1465,81594.92434
87.0,1486,81653.704993
80.0,1601,81715.375288
95.0,1576,81775.874243
87.0,1418,81830.129364
91.0,1508,81887.522834
82.0,1654,81949.571898
83.0,1537,82005.208942
87.0,1627,82065.716577
87.0,1465,82120.984993
85.0,1470,82177.7184
82.0,1617,82241.053569
91.0,1599,82300.42788
78.0,1469,82354.623635
80.0,1785,82421.272932
80.0,1723,82488.736536
92.0,1641,82548.334107
86.0,1765,82611.317822
94.0,1454,82666.201897
83.0,1694,82728.577326
93.0,1499,82783.229847
73.0,1651,82846.83534
80.0,1607,82907.650146
83.0,1613,82968.603721
84.0,1730,83036.012814
86.0,1757,83103.527159
90.0,1500,83160.087616
94.0,1457,83215.354748
88.0,1616,83276.949351
71.0,1780,83343.048073
91.0,1579,83402.463368
91.0,1485,83458.401917
82.0,1609,83516.700863
84.0,1485,83570.792199
78.0,1564,83629.062854
83.0,1700,83692.884544
88.0,1479,83748.049361
85.0,1656,83809.339188
86.0,1614,83868.302254
77.0,1783,83936.317566
68.0,1784,84002.590554
90.0,1511,84058.536592
80.0,1781,84129.046691
77.0,1711,84192.979602
84.0,1782,84259.991146
89.0,1486,84316.253585
58.0,1785,84384.589074
83.0,1761,84449.643949
87.0,1734,84512.028376
84.0,1785,84577.062632
88.0,1624,84639.083474
90.0,1716,84701.695898
81.0,1544,84760.68772
86.0,1623,84823.046772
88.0,1504,84881.939178
65.0,1784,84949.612078
75.0,1761,85012.420351
88.0,1752,85079.47285
91.0,1335,85131.900944
84.0,1776,85197.885799
86.0,1676,85262.956828
72.0,1785,85331.105299
85.0,1740,85395.382986
90.0,1570,85453.675899
81.0,1781,85521.575815
83.0,1640,85585.137427
80.0,1781,85651.605325
92.0,1405,85704.139867
95.0,1456,85758.990007
91.0,1492,85814.499061
89.0,1440,85868.919588
86.0,1419,85922.563154
89.0,1730,85986.789409
91.0,1455,86039.604379
88.0,1754,86104.910577
85.0,1713,86169.326464
84.0,1518,86227.285044
82.0,1709,86291.058803
89.0,1603,86351.298469
89.0,1492,86406.617104
65.0,1781,86472.620082
83.0,1742,86535.861777
82.0,1718,86600.614149
78.0,1683,86665.091634
79.0,1780,86732.555727
71.0,1784,86800.457199
84.0,1783,86866.696576
87.0,1535,86925.295827
62.0,1783,86998.429008
56.0,1781,87067.46812
76.0,1784,87137.995759
56.0,1785,87207.479749
68.0,1749,87274.740888
77.0,1647,87338.942875
70.0,1781,87413.975773
79.0,1647,87484.112729
66.0,1782,87559.660569
60.0,1779,87633.87312
83.0,1565,87702.508177
86.0,1667,87774.66327
69.0,1779,87848.910438
84.0,1455,87910.061679
73.0,1778,87985.923699
83.0,1606,88054.401134
85.0,1584,88122.65477
87.0,1441,88184.600345
74.0,1622,88253.726427
76.0,1765,88328.760548
81.0,1690,88402.706607
86.0,1537,88467.808029
83.0,1544,88533.93277
86.0,1457,88597.288979
91.0,1464,88661.082768
95.0,1313,88719.168182
88.0,1372,88777.511192
82.0,1632,88847.111964
87.0,1494,88912.654346
81.0,1629,88980.320311
87.0,1596,89049.615413
82.0,1695,89120.26016
96.0,1400,89182.529832
81.0,1552,89248.838017
85.0,1536,89313.429929
73.0,1749,89388.081688
92.0,1640,89458.930986
75.0,1675,89533.12216
72.0,1602,89603.588784
78.0,1535,89671.124779
93.0,1283,89727.510929
81.0,1531,89792.987434
89.0,1572,89866.870241
92.0,1656,89941.198446
89.0,1633,90014.091049
91.0,1509,90082.22639
83.0,1628,90159.053928
72.0,1782,90242.618902
80.0,1495,90312.070025
90.0,1350,90374.270589
76.0,1669,90450.577675
94.0,1491,90518.805087
87.0,1648,90596.422529
87.0,1652,90671.918117
89.0,1605,90744.944526
89.0,1772,90828.043891
78.0,1783,90908.160937
82.0,1536,90976.945732
78.0,1708,91053.342555
88.0,1489,91118.504584
86.0,1708,91194.789454
88.0,1590,91265.254396
94.0,1296,91323.912412
85.0,1580,91395.325019
94.0,1511,91462.173489
93.0,1717,91545.280802
84.0,1545,91617.287644
87.0,1454,91684.249258
81.0,1599,91759.513134
83.0,1780,91842.201469
87.0,1589,91914.712541
88.0,1356,91978.741311
92.0,1625,92052.806926
83.0,1517,92124.997796
93.0,1410,92189.632144
89.0,1438,92256.145325
90.0,1498,92323.161467
91.0,1501,92389.976947
82.0,1648,92463.67969
84.0,1618,92537.212436
90.0,1640,92614.152198
83.0,1758,92695.981932
70.0,1780,92778.982429
95.0,1399,92843.743701
78.0,1783,92925.384058
72.0,1785,93005.614659
92.0,1621,93078.965996
87.0,1718,93155.655175
96.0,1519,93224.356178
69.0,1780,93303.712874
71.0,1776,93380.823889
77.0,1784,93459.46365
81.0,1761,93536.358157
72.0,1469,93602.288152
87.0,1591,93669.7585
87.0,1531,93739.242893
92.0,1710,93816.870277
88.0,1780,93895.626429
79.0,1738,93972.320203
84.0,1688,94047.940087
79.0,1782,94125.677303
92.0,1490,94192.859559
85.0,1783,94273.488845
79.0,1542,94342.410622
84.0,1605,94415.213399
85.0,1654,94490.071946
84.0,1652,94564.006182
97.0,1296,94622.127229
93.0,1630,94697.499874
69.0,1780,94778.820649
94.0,1476,94844.732409
95.0,1349,94903.710998
65.0,1781,94983.104111
85.0,1566,95053.366061
89.0,1783,95134.179239
89.0,1678,95208.776956
80.0,1728,95286.807107
82.0,1781,95365.470316
88.0,1569,95434.34864
94.0,1651,95506.236998
96.0,1371,95569.765765
82.0,1785,95653.316498
90.0,1689,95730.714992
88.0,1700,95807.611997
90.0,1596,95876.602772
97.0,1541,95941.382674
86.0,1749,96015.708355
90.0,1530,96080.418702
86.0,1530,96144.142319
92.0,1533,96208.903982
91.0,1491,96270.01945
90.0,1505,96332.479492
91.0,1423,96395.164137
89.0,1437,96452.470266
96.0,1617,96519.44695
96.0,1435,96579.465194
89.0,1638,96646.338264
91.0,1679,96715.212138
89.0,1626,96782.282149
94.0,1588,96846.678333
88.0,1678,96916.034338
95.0,1460,96975.307203
72.0,1780,97047.2436
77.0,1712,97116.950854
81.0,1608,97184.071642
93.0,1626,97253.804723
81.0,1615,97321.742468
90.0,1331,97376.424315
87.0,1682,97443.534188
48.0,1778,97515.157268
98.0,1433,97573.117068
92.0,1517,97633.807569
90.0,1591,97697.364395
83.0,1508,97758.547474
87.0,1503,97818.380831
99.0,1265,97869.008473
70.0,1693,97938.456122
83.0,1580,98002.356695
91.0,1485,98059.263479
69.0,1675,98126.101588
85.0,1427,98182.477226
90.0,1540,98240.74098
90.0,1623,98303.521384
93.0,1504,98361.890651
86.0,1783,98430.061799
90.0,1463,98488.568141
79.0,1728,98553.471297
93.0,1373,98608.436097
86.0,1589,98676.888143
86.0,1600,98745.162407
93.0,1439,98806.687409
72.0,1594,98871.460602
92.0,1275,98925.218307
73.0,1599,98989.331792
73.0,1692,99059.045047
94.0,1379,99115.100777
89.0,1444,99176.668948
86.0,1502,99238.542093
85.0,1713,99309.734791
87.0,1584,99373.160915
91.0,1488,99433.509648
81.0,1593,99495.981906
84.0,1590,99560.658201
81.0,1531,99619.340334
88.0,1532,99676.126159
92.0,1400,99731.420706
87.0,1612,99792.520757
75.0,1589,99852.718266
80.0,1731,99922.371336
86.0,1571,99982.195568
77.0,1493,100037.649865
87.0,1473,100091.041518
84.0,1608,100151.299379
77.0,1538,100207.675072
81.0,1641,100263.639406
86.0,1627,100321.867077
90.0,1526,100375.874424
83.0,1608,100431.832638
100.0,1230,100474.389313
92.0,1407,100521.830456
90.0,1706,100580.705961
77.0,1725,100641.875177
82.0,1780,100702.875343
90.0,1527,100755.619966
87.0,1538,100807.676165
94.0,1631,100862.876019
94.0,1537,100916.092487
82.0,1520,100969.194247
87.0,1507,101023.113581
88.0,1445,101074.861409
89.0,1453,101127.130449
96.0,1311,101175.525982
90.0,1463,101227.750895
72.0,1784,101287.886818
97.0,1388,101335.106319
89.0,1497,101388.343448
83.0,1750,101448.233406
91.0,1451,101496.551113
91.0,1496,101546.106541
89.0,1443,101594.756318
91.0,1309,101637.933773
92.0,1485,101686.632504
95.0,1405,101733.47665
51.0,1784,101792.109105
82.0,1781,101849.405765
92.0,1439,101896.519917
84.0,1722,101951.913612
91.0,1477,101995.877527
92.0,1507,102041.225165
94.0,1277,102078.097247
95.0,1294,102117.075615
88.0,1640,102163.842458
79.0,1654,102212.68812
87.0,1464,102255.077992
76.0,1632,102303.394349
93.0,1492,102351.095963
87.0,1463,102394.004392
80.0,1634,102439.098877
85.0,1506,102482.583147
98.0,1462,102527.078485
96.0,1211,102559.604782
94.0,1500,102606.215416
91.0,1400,102648.38385
89.0,1527,102694.686519
88.0,1406,102734.190237
93.0,1317,102770.487191
83.0,1736,102821.55215
85.0,1457,102858.798975
85.0,1602,102900.948518
92.0,1489,102939.785346
91.0,1414,102977.981637
87.0,1459,103017.37513
81.0,1578,103059.946621
90.0,1274,103093.430127
84.0,1624,103135.861606
95.0,1414,103171.808208
85.0,1318,103203.686206
94.0,1456,103239.285724
89.0,1677,103279.892456
83.0,1463,103316.04478
68.0,1696,103361.659057
94.0,1411,103400.236623
81.0,1630,103444.242951
89.0,1311,103479.610186
82.0,1595,103526.223717
88.0,1503,103567.870532
90.0,1407,103605.493453
81.0,1633,103650.601426
82.0,1650,103697.168129
81.0,1473,103736.218929
88.0,1506,103773.548674
93.0,1440,103809.261941
89.0,1444,103842.326584
82.0,1782,103884.305493
90.0,1521,103918.68614
91.0,1441,103951.587193
90.0,1416,103983.973345
92.0,1350,104014.623306
87.0,1464,104047.89923
87.0,1453,104080.472301
67.0,1763,104120.764659
85.0,1523,104155.589251
79.0,1448,104194.667092
93.0,1392,104230.853219
92.0,1417,104267.555762
85.0,1335,104302.434121
92.0,1277,104334.87716
89.0,1386,104369.564065
93.0,1419,104407.287485
93.0,1390,104439.263419
79.0,1536,104474.325622
95.0,1372,104502.832031
92.0,1442,104537.058914
96.0,1464,104574.954618
87.0,1542,104614.651771
82.0,1413,104651.276731
