# {"t_start": 1547320499.6328826, "env_id": "BoxingNoFrameskip-v4"} 
r,l,t
3.0,1784,79.355702
1.0,1781,151.236433
6.0,1782,226.702106
7.0,1782,310.676678
3.0,1784,397.86037
-3.0,1781,485.37801
-2.0,1782,570.955307
-7.0,1782,659.199498
-1.0,1780,746.336752
13.0,1785,834.064226
2.0,1783,923.207251
2.0,1783,1009.814362
5.0,1785,1098.974568
2.0,1783,1181.062655
-4.0,1778,1269.85889
-1.0,1780,1352.457637
7.0,1779,1440.811318
4.0,1780,1526.660731
6.0,1780,1615.260846
-6.0,1781,1702.683994
-1.0,1782,1789.875014
-5.0,1783,1876.429197
1.0,1780,1962.42749
0.0,1780,2050.065929
4.0,1781,2137.748367
-3.0,1781,2224.082372
-2.0,1782,2311.02927
-12.0,1783,2398.492931
-3.0,1780,2485.41359
0.0,1778,2571.171787
1.0,1780,2658.920968
1.0,1782,2744.840041
5.0,1784,2830.495082
-2.0,1779,2918.89661
-1.0,1783,3007.536341
0.0,1783,3096.84423
0.0,1779,3185.372498
2.0,1780,3273.700546
5.0,1784,3362.601895
16.0,1783,3450.962859
-2.0,1779,3537.277593
8.0,1781,3624.229732
5.0,1781,3715.23255
0.0,1782,3802.997167
1.0,1781,3888.761522
3.0,1782,3975.617231
4.0,1779,4061.789299
1.0,1780,4148.586726
0.0,1780,4235.022619
6.0,1778,4322.121527
11.0,1785,4406.444396
6.0,1782,4494.43634
21.0,1778,4584.315576
16.0,1781,4672.018095
0.0,1784,4759.166609
0.0,1782,4844.680799
2.0,1783,4931.501183
14.0,1780,5020.126632
8.0,1785,5107.88448
14.0,1780,5191.0618
-8.0,1782,5277.915845
19.0,1779,5367.440448
5.0,1782,5451.099587
5.0,1782,5539.841482
2.0,1784,5625.946049
3.0,1779,5711.70228
3.0,1779,5795.813272
-1.0,1782,5882.547215
4.0,1783,5968.29945
4.0,1782,6055.106293
4.0,1784,6146.586591
10.0,1785,6233.588531
-5.0,1784,6320.827698
1.0,1779,6409.398837
15.0,1779,6493.161742
10.0,1780,6580.419602
0.0,1785,6662.842709
23.0,1780,6747.978409
7.0,1779,6835.269855
3.0,1780,6920.334845
20.0,1784,7010.316115
24.0,1783,7094.480469
22.0,1785,7179.283299
7.0,1779,7267.661082
28.0,1785,7353.320309
20.0,1781,7441.451037
21.0,1780,7529.015862
9.0,1783,7616.764642
37.0,1780,7706.983031
24.0,1784,7795.112486
7.0,1782,7880.771675
14.0,1779,7966.759476
18.0,1780,8053.432289
11.0,1784,8141.518568
25.0,1782,8229.472744
9.0,1785,8317.581584
16.0,1778,8407.017733
15.0,1781,8495.068682
20.0,1781,8583.191537
17.0,1778,8671.089142
9.0,1785,8756.354261
4.0,1779,8843.906382
5.0,1785,8931.910407
9.0,1785,9019.485588
7.0,1778,9107.753548
27.0,1783,9193.037696
11.0,1782,9280.795551
5.0,1779,9367.52664
1.0,1780,9454.797581
16.0,1783,9541.127906
6.0,1784,9628.103135
17.0,1785,9717.801502
25.0,1778,9803.884427
14.0,1783,9890.113099
10.0,1781,9979.010215
6.0,1785,10066.980942
12.0,1782,10155.49124
25.0,1782,10242.144349
7.0,1782,10327.528068
-4.0,1785,10417.47688
19.0,1781,10503.521825
41.0,1779,10591.587431
3.0,1781,10676.967287
14.0,1784,10762.60641
15.0,1782,10849.739233
17.0,1780,10937.497302
4.0,1785,11021.782283
11.0,1784,11109.866838
19.0,1783,11197.293245
1.0,1778,11281.370237
17.0,1781,11367.216046
8.0,1783,11454.278118
22.0,1781,11542.711281
21.0,1781,11629.396769
19.0,1783,11719.765059
22.0,1783,11807.024279
5.0,1778,11892.780096
2.0,1783,11982.916947
28.0,1779,12069.272719
13.0,1783,12156.437212
25.0,1778,12241.763946
21.0,1780,12328.797747
7.0,1779,12418.116549
11.0,1781,12504.977166
12.0,1781,12591.142537
4.0,1784,12677.526236
8.0,1781,12761.648686
26.0,1780,12846.442592
11.0,1784,12936.209899
18.0,1785,13023.378343
11.0,1779,13106.346398
14.0,1781,13197.891428
13.0,1781,13283.210032
16.0,1779,13370.912008
7.0,1778,13455.320853
22.0,1784,13540.330569
16.0,1780,13627.413697
2.0,1785,13713.921512
11.0,1778,13801.685776
36.0,1782,13887.784384
23.0,1785,13976.636408
15.0,1778,14067.036848
21.0,1783,14154.781851
38.0,1779,14243.902565
29.0,1784,14330.536186
20.0,1780,14420.909399
11.0,1779,14510.47046
19.0,1781,14598.021687
7.0,1780,14684.108504
32.0,1781,14770.16283
29.0,1778,14858.515266
20.0,1785,14946.116515
16.0,1785,15031.587069
12.0,1780,15117.058512
23.0,1780,15202.858382
13.0,1779,15291.979821
11.0,1782,15378.938973
16.0,1784,15463.960557
40.0,1782,15549.85677
39.0,1785,15636.236395
36.0,1780,15719.828145
19.0,1780,15806.064462
36.0,1779,15895.826977
19.0,1781,15985.042591
31.0,1779,16071.095431
31.0,1783,16158.990391
26.0,1781,16247.199299
28.0,1785,16332.266636
33.0,1784,16419.416537
38.0,1780,16506.712096
29.0,1778,16592.637694
31.0,1780,16679.238062
23.0,1785,16766.748795
46.0,1785,16852.625026
35.0,1783,16940.136104
7.0,1784,17027.29587
34.0,1780,17111.548644
27.0,1783,17199.366296
30.0,1779,17287.733801
83.0,1778,17372.588875
24.0,1779,17459.989429
37.0,1781,17546.230284
26.0,1783,17632.85507
39.0,1781,17720.166331
46.0,1785,17806.006317
53.0,1778,17889.806068
35.0,1782,17975.230413
68.0,1781,18062.399366
78.0,1779,18151.214994
39.0,1780,18236.626099
72.0,1781,18322.397239
67.0,1785,18406.913285
36.0,1779,18494.74669
53.0,1783,18579.886229
68.0,1781,18665.342512
42.0,1779,18755.758428
38.0,1779,18841.367575
70.0,1781,18927.275546
70.0,1778,19014.735855
79.0,1779,19100.808133
66.0,1784,19187.776055
36.0,1785,19273.123719
48.0,1783,19360.82842
31.0,1780,19448.748472
53.0,1784,19534.466052
72.0,1784,19620.223209
49.0,1782,19706.546747
29.0,1784,19794.703504
34.0,1785,19881.246717
46.0,1780,19968.48033
63.0,1785,20057.786325
41.0,1780,20146.110202
46.0,1780,20232.945891
13.0,1782,20321.789285
39.0,1785,20408.469513
63.0,1779,20494.98792
45.0,1780,20581.923627
53.0,1783,20666.237251
40.0,1779,20753.565744
34.0,1782,20837.49643
50.0,1784,20922.967324
51.0,1780,21009.158688
53.0,1783,21093.054547
43.0,1784,21179.074287
38.0,1785,21266.457592
37.0,1778,21354.2279
60.0,1782,21440.156947
40.0,1778,21524.859606
47.0,1783,21612.834943
53.0,1780,21699.857558
52.0,1782,21789.568051
41.0,1785,21875.495602
43.0,1778,21960.592063
56.0,1779,22047.686726
43.0,1782,22131.178693
21.0,1779,22220.216835
53.0,1780,22308.908534
37.0,1785,22398.796518
43.0,1781,22484.380429
42.0,1779,22572.212267
44.0,1783,22659.378486
2.0,1785,22746.226364
36.0,1780,22834.518389
43.0,1782,22918.486235
66.0,1779,23004.573923
45.0,1780,23089.637255
15.0,1782,23173.770465
26.0,1781,23258.685064
41.0,1780,23347.964792
40.0,1783,23437.039665
48.0,1783,23523.250963
19.0,1785,23613.091827
38.0,1782,23701.253102
59.0,1782,23786.181386
42.0,1784,23872.74299
61.0,1781,23960.259466
25.0,1782,24047.36489
51.0,1784,24135.142992
49.0,1784,24219.120422
50.0,1785,24303.655527
59.0,1783,24390.226295
25.0,1781,24472.389213
48.0,1779,24555.808334
43.0,1778,24638.213975
81.0,1778,24721.265993
84.0,1780,24804.611605
63.0,1784,24886.852689
38.0,1783,24969.12286
54.0,1784,25050.305101
60.0,1783,25133.022976
77.0,1782,25215.551425
36.0,1779,25300.856715
62.0,1784,25384.280783
53.0,1784,25465.450778
47.0,1783,25549.576936
51.0,1779,25630.407237
71.0,1782,25712.517276
50.0,1781,25795.248383
62.0,1783,25877.095627
68.0,1779,25959.156228
58.0,1784,26043.684065
69.0,1782,26125.244605
69.0,1785,26207.097633
64.0,1782,26287.459479
16.0,1781,26371.062771
32.0,1785,26455.378633
28.0,1780,26538.773695
62.0,1778,26625.301925
73.0,1778,26705.877622
58.0,1782,26790.14598
68.0,1779,26873.107814
22.0,1782,26955.465605
87.0,1749,27034.771151
62.0,1785,27117.226845
75.0,1778,27200.57499
69.0,1783,27281.0388
73.0,1781,27364.03555
71.0,1782,27445.442879
33.0,1781,27526.988021
28.0,1778,27608.418978
56.0,1784,27690.054934
51.0,1783,27772.17926
37.0,1779,27855.305107
79.0,1780,27939.784556
53.0,1781,28023.25285
20.0,1785,28105.816233
13.0,1779,28184.838539
52.0,1782,28268.243986
67.0,1783,28352.20456
56.0,1785,28434.965954
81.0,1749,28517.628271
60.0,1780,28605.104968
25.0,1784,28687.061353
51.0,1783,28771.388562
64.0,1780,28852.580126
57.0,1781,28936.792466
51.0,1780,29020.20442
38.0,1780,29102.128984
50.0,1782,29183.754912
34.0,1778,29265.797321
53.0,1782,29348.273947
41.0,1779,29430.921756
44.0,1782,29514.032125
33.0,1781,29596.918623
45.0,1785,29680.484214
39.0,1783,29761.99863
40.0,1785,29846.319369
2.0,1780,29929.295843
20.0,1779,30009.928803
22.0,1782,30092.857307
8.0,1783,30175.370816
30.0,1779,30253.728928
39.0,1781,30337.167401
22.0,1784,30422.805284
53.0,1778,30505.924195
64.0,1780,30587.646382
60.0,1779,30669.190429
61.0,1778,30749.506502
66.0,1778,30831.713178
48.0,1784,30913.12149
51.0,1785,30995.234657
49.0,1782,31077.347252
37.0,1781,31160.152401
40.0,1782,31244.680941
53.0,1782,31328.466681
11.0,1781,31411.492753
30.0,1780,31493.897177
32.0,1785,31576.257667
57.0,1782,31658.182069
38.0,1778,31741.155207
47.0,1781,31824.189875
40.0,1780,31905.542018
33.0,1778,31988.269808
57.0,1779,32067.922695
33.0,1779,32150.500254
47.0,1784,32231.122893
27.0,1784,32311.636569
6.0,1781,32394.270128
7.0,1784,32475.89418
18.0,1782,32557.838975
18.0,1779,32639.458612
46.0,1782,32720.489165
37.0,1778,32805.329288
65.0,1784,32890.180198
48.0,1783,32974.036811
33.0,1785,33059.246505
14.0,1780,33145.448098
6.0,1783,33229.209739
29.0,1782,33313.70446
21.0,1785,33400.596445
64.0,1778,33487.325133
58.0,1781,33571.732753
59.0,1783,33655.246345
62.0,1783,33740.028222
51.0,1779,33824.923361
36.0,1780,33909.903516
64.0,1785,33997.675732
46.0,1782,34082.77456
65.0,1780,34169.053499
41.0,1783,34254.530785
58.0,1784,34341.81547
57.0,1784,34425.712631
64.0,1784,34505.809232
60.0,1781,34590.747479
63.0,1779,34673.149576
42.0,1780,34753.990036
49.0,1782,34836.934475
58.0,1783,34919.281433
59.0,1781,35000.853735
65.0,1779,35083.113051
41.0,1781,35169.069582
65.0,1779,35252.353554
69.0,1782,35336.0028
47.0,1784,35421.140568
46.0,1781,35501.137543
55.0,1785,35584.739351
82.0,1783,35667.990987
53.0,1779,35752.380097
44.0,1784,35839.890022
16.0,1781,35924.674382
62.0,1778,36009.225579
48.0,1783,36093.120693
51.0,1782,36176.696224
47.0,1784,36263.823319
59.0,1782,36350.404605
74.0,1782,36435.417296
75.0,1782,36517.719401
34.0,1781,36600.885532
58.0,1782,36683.321347
28.0,1782,36763.413807
37.0,1779,36847.555863
61.0,1783,36931.193944
29.0,1780,37015.461681
64.0,1780,37099.826808
63.0,1783,37187.156879
51.0,1783,37269.799103
54.0,1783,37355.720091
48.0,1780,37439.490375
81.0,1779,37525.391921
61.0,1782,37608.850684
47.0,1785,37692.571448
80.0,1783,37775.679833
71.0,1784,37859.736655
51.0,1783,37943.486493
23.0,1785,38026.812443
22.0,1783,38111.154434
43.0,1781,38194.338655
21.0,1785,38281.554983
43.0,1783,38361.596953
31.0,1784,38443.332866
36.0,1784,38523.26061
58.0,1783,38605.874224
45.0,1785,38688.683725
40.0,1785,38770.379646
48.0,1780,38852.632191
23.0,1783,38935.974694
30.0,1781,39022.091796
24.0,1779,39107.904108
39.0,1785,39192.562745
47.0,1779,39276.708316
55.0,1781,39359.236535
37.0,1781,39441.214001
51.0,1781,39523.980635
44.0,1785,39607.569648
48.0,1779,39693.444792
24.0,1783,39778.969471
36.0,1782,39864.039896
62.0,1785,39947.625668
37.0,1785,40029.177162
49.0,1781,40111.261
49.0,1782,40194.127323
14.0,1783,40279.157465
48.0,1780,40364.037637
28.0,1780,40449.200518
65.0,1778,40533.838939
23.0,1782,40620.985236
30.0,1782,40706.895968
23.0,1782,40790.316456
76.0,1781,40874.575175
74.0,1780,40958.352621
40.0,1785,41039.807887
61.0,1782,41123.719063
57.0,1783,41213.793345
43.0,1779,41299.181691
48.0,1785,41385.228767
50.0,1784,41468.45773
71.0,1780,41555.04243
45.0,1783,41639.856928
88.0,1544,41711.014455
49.0,1781,41794.919284
85.0,1785,41877.685834
35.0,1780,41960.384106
68.0,1782,42044.357421
75.0,1781,42129.20332
51.0,1778,42209.535317
90.0,1666,42284.710646
65.0,1746,42367.218105
62.0,1782,42451.297507
43.0,1781,42534.573235
34.0,1779,42618.465359
75.0,1779,42703.577784
62.0,1780,42787.922205
77.0,1783,42870.646896
49.0,1783,42954.017266
47.0,1782,43035.915296
57.0,1780,43119.521105
47.0,1783,43205.265918
59.0,1779,43286.44006
72.0,1784,43366.319042
42.0,1782,43449.20355
34.0,1779,43530.589103
36.0,1784,43613.594278
62.0,1782,43694.835269
53.0,1778,43780.29366
54.0,1783,43863.474293
63.0,1785,43947.494197
63.0,1780,44027.835025
55.0,1782,44109.802591
42.0,1781,44190.306055
62.0,1780,44271.2449
52.0,1785,44352.145442
72.0,1780,44434.897788
65.0,1783,44517.442301
32.0,1785,44601.197231
50.0,1782,44684.512698
62.0,1782,44769.536163
48.0,1783,44851.33622
48.0,1782,44930.782323
65.0,1781,45014.431026
76.0,1779,45097.031482
57.0,1783,45177.436794
55.0,1779,45259.939873
61.0,1785,45342.279375
69.0,1784,45426.044483
82.0,1784,45507.226503
54.0,1783,45586.353801
62.0,1779,45668.041496
55.0,1781,45751.03739
58.0,1778,45829.61095
51.0,1785,45910.505513
82.0,1622,45983.175446
66.0,1782,46065.532462
78.0,1668,46138.882293
89.0,1630,46212.578119
74.0,1784,46290.704342
64.0,1780,46367.368584
72.0,1785,46445.626057
63.0,1782,46523.386196
84.0,1780,46601.791599
82.0,1696,46675.134433
51.0,1783,46752.197757
63.0,1781,46828.359078
74.0,1780,46906.954533
80.0,1780,46983.50319
81.0,1784,47057.665649
87.0,1577,47124.998158
58.0,1783,47200.631337
81.0,1745,47275.005347
85.0,1720,47345.922519
57.0,1782,47419.409874
80.0,1744,47492.222553
65.0,1782,47567.32853
75.0,1779,47640.886821
56.0,1784,47714.599812
66.0,1779,47788.245484
62.0,1782,47860.601277
52.0,1781,47936.573289
63.0,1779,48010.443633
56.0,1780,48086.887653
64.0,1779,48163.065969
78.0,1778,48236.615365
72.0,1783,48307.460462
63.0,1785,48378.67463
41.0,1781,48449.311685
82.0,1782,48520.489599
66.0,1782,48591.495008
90.0,1354,48642.965495
73.0,1784,48714.184767
78.0,1779,48784.258526
64.0,1780,48854.033307
67.0,1781,48922.078766
77.0,1778,48990.782084
60.0,1779,49061.500592
74.0,1782,49132.396536
56.0,1783,49202.858838
72.0,1779,49274.360241
66.0,1781,49344.194145
74.0,1783,49417.633559
73.0,1782,49489.144632
81.0,1784,49557.693631
75.0,1784,49628.32008
72.0,1783,49698.726522
70.0,1781,49765.390565
54.0,1785,49836.195509
55.0,1783,49906.686442
68.0,1785,49974.587308
34.0,1781,50043.810538
44.0,1780,50114.752325
82.0,1780,50184.115155
74.0,1756,50251.914717
64.0,1785,50323.131841
59.0,1784,50396.032017
70.0,1782,50466.206345
77.0,1785,50538.471415
76.0,1781,50609.49975
66.0,1782,50682.354949
42.0,1782,50751.718622
74.0,1779,50821.633218
77.0,1784,50892.460259
75.0,1780,50964.378234
87.0,1726,51032.212446
60.0,1782,51103.489555
40.0,1780,51173.834476
24.0,1783,51242.496188
45.0,1785,51309.086741
49.0,1784,51377.353466
71.0,1784,51446.977012
55.0,1779,51515.740768
61.0,1780,51583.135971
69.0,1785,51649.519278
59.0,1782,51717.1555
84.0,1778,51786.13265
57.0,1783,51853.71891
62.0,1778,51919.6289
65.0,1779,51986.777659
73.0,1780,52055.492039
51.0,1779,52121.262437
57.0,1779,52187.986
85.0,1781,52251.934207
68.0,1779,52318.906731
69.0,1781,52386.744405
80.0,1650,52448.898936
73.0,1784,52515.543946
83.0,1781,52580.556783
57.0,1781,52645.728166
73.0,1781,52712.380609
71.0,1779,52779.262759
74.0,1783,52847.214408
62.0,1782,52913.289025
65.0,1779,52982.930544
77.0,1779,53050.871975
73.0,1782,53119.63351
5.0,1779,53186.582128
58.0,1785,53254.312384
49.0,1782,53321.362282
54.0,1778,53388.391669
58.0,1782,53454.527043
62.0,1782,53521.870875
60.0,1779,53588.211689
19.0,1780,53653.032803
62.0,1781,53721.501273
65.0,1780,53789.500076
75.0,1780,53854.186079
28.0,1782,53921.771565
66.0,1781,53989.74344
58.0,1781,54056.647206
72.0,1778,54121.549993
72.0,1779,54186.408295
78.0,1780,54254.230358
52.0,1780,54320.824773
68.0,1782,54386.676425
45.0,1783,54452.207615
70.0,1784,54518.37644
62.0,1779,54586.493021
75.0,1780,54650.46258
88.0,1785,54718.46644
61.0,1785,54781.933083
71.0,1783,54846.868466
66.0,1785,54914.115624
65.0,1780,54982.114501
73.0,1780,55046.512452
57.0,1783,55110.792027
49.0,1781,55177.282542
56.0,1785,55246.22491
59.0,1783,55311.908883
46.0,1783,55380.253181
64.0,1781,55448.985953
89.0,1777,55513.27088
66.0,1783,55581.24465
92.0,1616,55641.139771
55.0,1783,55708.13931
83.0,1781,55776.114635
65.0,1784,55841.986169
83.0,1769,55908.350498
79.0,1782,55976.668182
76.0,1726,56041.643764
75.0,1783,56107.035448
72.0,1780,56172.783454
82.0,1782,56239.446354
76.0,1706,56304.804757
52.0,1780,56374.184983
86.0,1785,56438.799706
72.0,1782,56504.855331
54.0,1782,56567.769273
83.0,1736,56631.207229
79.0,1614,56691.073265
60.0,1780,56759.921628
65.0,1783,56826.835443
81.0,1784,56891.291244
63.0,1785,56957.639102
68.0,1780,57024.123832
78.0,1785,57088.972919
63.0,1783,57156.564987
44.0,1780,57222.065721
62.0,1782,57290.875611
68.0,1779,57357.598493
80.0,1747,57423.627743
66.0,1782,57493.91511
79.0,1687,57554.876592
80.0,1782,57621.147527
81.0,1781,57688.929376
57.0,1783,57756.301596
61.0,1778,57821.882782
81.0,1781,57885.663807
60.0,1780,57953.155005
84.0,1587,58012.977179
75.0,1779,58080.47399
85.0,1783,58145.936172
83.0,1772,58212.282342
77.0,1732,58276.191902
66.0,1780,58341.392286
72.0,1780,58410.717681
58.0,1783,58479.555119
75.0,1780,58545.293821
55.0,1784,58611.340217
67.0,1785,58677.74377
64.0,1783,58745.471524
81.0,1617,58806.04656
78.0,1773,58871.614365
85.0,1634,58931.804883
44.0,1783,58999.609372
58.0,1781,59065.380657
67.0,1784,59132.219827
72.0,1779,59201.368639
76.0,1680,59263.155764
79.0,1644,59325.277278
85.0,1609,59384.636503
79.0,1784,59453.132308
92.0,1592,59514.09784
78.0,1784,59582.745737
85.0,1782,59649.918022
82.0,1638,59710.510166
77.0,1783,59778.781543
88.0,1619,59838.734523
59.0,1783,59904.458209
54.0,1779,59971.591988
77.0,1780,60037.818428
84.0,1757,60104.321177
88.0,1627,60166.203667
62.0,1785,60236.128247
63.0,1785,60303.973062
76.0,1614,60367.193975
82.0,1628,60429.156522
85.0,1743,60494.864195
76.0,1783,60560.425244
75.0,1756,60625.012679
38.0,1783,60692.470698
83.0,1391,60743.732446
82.0,1546,60801.914756
82.0,1704,60864.96305
74.0,1780,60929.907852
71.0,1784,60995.034409
70.0,1784,61060.455713
62.0,1780,61125.397508
84.0,1785,61191.425222
88.0,1583,61250.974473
83.0,1779,61318.454922
83.0,1656,61380.32154
59.0,1784,61445.74647
68.0,1781,61514.430892
59.0,1779,61580.545995
69.0,1782,61644.957091
60.0,1782,61709.935303
93.0,1591,61771.170565
78.0,1779,61838.499739
78.0,1782,61906.222617
68.0,1782,61974.834306
80.0,1783,62042.662206
80.0,1785,62110.245462
75.0,1765,62177.295202
70.0,1781,62246.700488
55.0,1785,62314.080051
58.0,1781,62380.786792
86.0,1785,62445.448699
64.0,1783,62514.037164
78.0,1718,62579.589781
84.0,1782,62646.492705
76.0,1758,62714.533297
81.0,1752,62781.015985
85.0,1616,62843.092441
87.0,1589,62902.889322
79.0,1764,62966.873306
69.0,1780,63035.11679
71.0,1726,63097.601746
56.0,1782,63160.726887
79.0,1784,63225.902169
92.0,1588,63284.290215
84.0,1614,63344.855216
81.0,1784,63412.604045
69.0,1781,63479.898577
60.0,1781,63544.933546
59.0,1779,63611.090143
81.0,1784,63678.452655
78.0,1672,63740.981567
68.0,1781,63808.546797
86.0,1600,63869.973624
81.0,1540,63927.812476
63.0,1782,63994.245927
94.0,1589,64054.806534
68.0,1778,64121.678746
84.0,1543,64178.492617
88.0,1545,64238.924795
79.0,1785,64306.018698
68.0,1632,64369.234194
62.0,1785,64439.248255
87.0,1649,64501.201912
77.0,1654,64562.384021
68.0,1784,64628.925934
90.0,1648,64692.176501
82.0,1779,64761.847297
90.0,1571,64823.107327
88.0,1699,64887.374011
75.0,1704,64954.142518
77.0,1785,65021.220902
67.0,1784,65088.168465
81.0,1723,65154.358284
86.0,1573,65214.624862
89.0,1673,65277.55094
66.0,1779,65343.566666
87.0,1627,65402.800938
87.0,1571,65462.825966
75.0,1780,65531.117272
68.0,1782,65600.398065
87.0,1668,65663.936483
83.0,1649,65727.838328
64.0,1780,65797.029381
74.0,1494,65852.314254
82.0,1780,65916.098778
87.0,1723,65979.858696
83.0,1758,66047.085375
80.0,1785,66110.37075
82.0,1780,66177.335698
83.0,1627,66237.748594
79.0,1507,66294.606807
90.0,1493,66351.678472
90.0,1398,66405.325138
80.0,1605,66467.225883
89.0,1493,66524.14039
75.0,1590,66583.933958
78.0,1782,66649.510464
92.0,1407,66702.814164
85.0,1454,66758.44845
91.0,1711,66824.126802
86.0,1600,66885.896853
69.0,1779,66956.344763
80.0,1673,67017.718686
77.0,1779,67085.963194
87.0,1545,67144.724482
84.0,1710,67208.852041
84.0,1684,67273.410053
83.0,1608,67335.382084
86.0,1664,67398.43911
85.0,1729,67462.986698
73.0,1783,67533.415739
82.0,1568,67589.504812
88.0,1608,67650.460141
86.0,1627,67711.282372
80.0,1727,67775.946176
73.0,1780,67847.092566
71.0,1785,67914.677553
76.0,1781,67982.305796
77.0,1783,68051.538561
91.0,1441,68105.440226
93.0,1492,68162.302858
75.0,1761,68229.929446
96.0,1486,68285.056349
85.0,1517,68338.961492
76.0,1602,68399.238702
90.0,1659,68461.623272
67.0,1781,68526.286332
76.0,1783,68593.430798
94.0,1572,68655.976836
67.0,1772,68722.565417
89.0,1496,68778.285021
79.0,1523,68837.264259
74.0,1778,68904.70705
82.0,1731,68971.421973
79.0,1729,69036.824984
77.0,1782,69104.771262
85.0,1779,69176.599589
88.0,1665,69238.517059
92.0,1676,69299.33184
89.0,1606,69359.026393
84.0,1679,69422.476444
45.0,1782,69487.688833
84.0,1656,69549.208266
89.0,1729,69616.36723
88.0,1781,69685.039946
86.0,1785,69750.465421
95.0,1507,69807.378919
82.0,1730,69876.384582
73.0,1783,69947.662069
44.0,1785,70019.397314
79.0,1695,70082.891832
57.0,1781,70153.618867
89.0,1684,70219.607861
93.0,1750,70286.682846
84.0,1687,70352.692238
93.0,1649,70413.401427
79.0,1782,70482.898943
77.0,1785,70553.432339
81.0,1743,70619.320207
95.0,1660,70683.782048
87.0,1676,70748.199002
63.0,1782,70817.27211
91.0,1464,70876.938488
88.0,1549,70937.818594
77.0,1681,71002.725663
86.0,1784,71070.059417
68.0,1596,71129.049087
68.0,1785,71194.943478
89.0,1643,71253.972506
59.0,1780,71319.728119
80.0,1780,71386.748004
74.0,1782,71451.937551
85.0,1780,71516.84792
63.0,1781,71581.032342
57.0,1779,71648.058361
75.0,1784,71715.524573
55.0,1763,71780.687675
83.0,1784,71847.409462
65.0,1782,71914.154187
53.0,1781,71979.678191
88.0,1588,72039.198303
88.0,1695,72101.25777
71.0,1783,72166.920759
57.0,1670,72228.576496
65.0,1782,72291.838665
86.0,1647,72352.372056
79.0,1730,72416.230969
88.0,1482,72470.65912
44.0,1785,72540.266755
81.0,1674,72604.24773
91.0,1444,72659.049849
81.0,1456,72717.025974
68.0,1728,72783.418996
72.0,1759,72848.762633
87.0,1727,72914.710977
75.0,1743,72981.998534
49.0,1783,73049.837858
73.0,1780,73120.724221
71.0,1784,73188.024931
89.0,1605,73249.936448
89.0,1529,73309.239476
69.0,1782,73379.818046
81.0,1783,73449.26598
77.0,1783,73518.988889
85.0,1669,73580.496495
85.0,1735,73644.067706
74.0,1784,73712.488984
83.0,1595,73772.639574
73.0,1709,73835.719042
81.0,1665,73897.730541
74.0,1780,73964.060963
69.0,1781,74029.586453
61.0,1782,74096.15245
91.0,1521,74152.619812
90.0,1500,74211.02529
82.0,1783,74275.554057
86.0,1705,74342.445702
87.0,1781,74410.465997
62.0,1782,74481.167574
87.0,1779,74549.342349
81.0,1779,74616.141479
95.0,1648,74678.005351
73.0,1695,74744.865969
93.0,1623,74808.75005
64.0,1779,74874.068938
78.0,1783,74942.017865
90.0,1549,74999.104868
83.0,1732,75062.485625
79.0,1722,75128.644819
66.0,1785,75198.057799
64.0,1783,75269.501331
75.0,1785,75339.631784
72.0,1784,75409.569913
91.0,1642,75473.711008
91.0,1588,75534.283499
80.0,1784,75599.888771
92.0,1612,75660.059411
83.0,1671,75723.991174
79.0,1779,75791.509797
60.0,1784,75854.538507
82.0,1636,75916.268166
80.0,1779,75981.845224
76.0,1785,76048.313037
71.0,1785,76116.613925
52.0,1785,76182.775911
88.0,1646,76244.191986
96.0,1619,76306.898746
73.0,1649,76370.669945
93.0,1613,76430.733788
89.0,1732,76493.855183
86.0,1710,76558.913195
81.0,1738,76625.296348
60.0,1780,76691.729881
88.0,1384,76747.91656
92.0,1614,76807.675301
88.0,1783,76877.951435
85.0,1783,76945.688183
78.0,1783,77009.799465
68.0,1782,77078.068439
49.0,1783,77147.422634
66.0,1779,77215.12463
61.0,1782,77281.327457
67.0,1696,77348.323123
63.0,1781,77414.45152
89.0,1784,77481.100428
85.0,1781,77549.280143
77.0,1783,77617.790123
93.0,1293,77666.270515
80.0,1682,77729.266968
76.0,1486,77786.376442
78.0,1743,77853.146498
60.0,1781,77922.410121
94.0,1534,77979.157741
76.0,1755,78044.220829
85.0,1714,78109.445356
91.0,1507,78164.314314
61.0,1785,78230.113816
66.0,1778,78298.003422
88.0,1529,78354.446702
82.0,1782,78422.462254
84.0,1649,78486.216068
74.0,1738,78551.205227
82.0,1564,78608.031873
85.0,1555,78667.660178
86.0,1740,78734.213565
84.0,1695,78795.837328
88.0,1611,78857.060772
85.0,1627,78917.459742
69.0,1642,78977.083951
68.0,1733,79042.783693
86.0,1614,79102.045751
87.0,1603,79163.004942
86.0,1648,79221.650544
91.0,1644,79283.017879
84.0,1537,79342.519801
80.0,1679,79408.061912
67.0,1781,79472.772253
94.0,1522,79531.002808
93.0,1739,79597.081682
71.0,1633,79658.642263
73.0,1483,79712.762005
90.0,1539,79770.206141
78.0,1725,79834.706607
76.0,1633,79896.650566
89.0,1567,79958.192058
87.0,1495,80015.011435
83.0,1697,80077.801281
92.0,1645,80140.928068
81.0,1782,80210.231714
79.0,1731,80273.368339
63.0,1783,80341.865062
65.0,1785,80407.032268
95.0,1442,80460.950677
90.0,1532,80519.998435
80.0,1782,80587.726239
76.0,1785,80654.550135
98.0,1347,80707.522726
46.0,1783,80775.80271
70.0,1779,80840.339087
90.0,1495,80893.739205
90.0,1716,80958.562637
88.0,1628,81021.700581
85.0,1479,81074.897047
89.0,1631,81136.214926
88.0,1609,81193.847047
83.0,1672,81253.74646
83.0,1650,81316.088754
79.0,1785,81379.159523
71.0,1779,81446.613214
87.0,1692,81510.522186
69.0,1782,81578.12534
76.0,1781,81647.267301
86.0,1653,81711.404091
79.0,1691,81776.317028
90.0,1427,81830.94692
93.0,1654,81894.160926
89.0,1589,81953.794127
84.0,1680,82014.452261
93.0,1468,82068.913013
79.0,1642,82130.527647
77.0,1665,82195.20994
85.0,1607,82258.934412
92.0,1388,82308.651137
77.0,1611,82369.379242
92.0,1464,82423.405876
85.0,1509,82481.803988
86.0,1590,82540.961818
74.0,1739,82604.220504
96.0,1522,82659.963014
73.0,1779,82725.287934
92.0,1630,82785.659414
90.0,1531,82844.549386
82.0,1677,82907.700132
83.0,1664,82971.179316
89.0,1750,83038.917717
72.0,1676,83102.833692
89.0,1418,83157.325672
81.0,1442,83210.99671
73.0,1587,83271.193109
82.0,1608,83331.976581
91.0,1493,83387.516049
92.0,1576,83447.039376
76.0,1532,83503.023846
83.0,1535,83558.60667
89.0,1449,83612.473794
93.0,1721,83675.377332
87.0,1570,83736.28396
82.0,1595,83794.208508
78.0,1644,83854.686724
86.0,1600,83916.329442
64.0,1784,83982.67069
67.0,1766,84047.373665
77.0,1647,84111.971
66.0,1778,84179.144021
50.0,1779,84246.822882
80.0,1782,84313.870239
60.0,1784,84381.522581
81.0,1779,84447.852933
79.0,1656,84507.186041
88.0,1593,84565.963126
87.0,1471,84621.050053
79.0,1772,84687.572958
90.0,1594,84746.528581
75.0,1781,84814.169142
89.0,1541,84874.469371
71.0,1784,84943.0808
86.0,1595,85000.286241
74.0,1630,85061.541421
81.0,1527,85120.352278
82.0,1699,85186.376561
87.0,1484,85243.49253
90.0,1646,85306.005001
81.0,1615,85366.16082
85.0,1728,85430.489765
87.0,1486,85487.243609
84.0,1782,85554.424806
84.0,1755,85620.114243
78.0,1724,85686.345388
91.0,1641,85747.880308
85.0,1399,85799.03372
85.0,1646,85860.487854
73.0,1778,85928.515506
82.0,1648,85989.579469
86.0,1527,86045.032315
81.0,1596,86104.220101
88.0,1498,86159.760639
89.0,1453,86215.828723
76.0,1537,86273.407082
88.0,1456,86328.303318
86.0,1733,86393.087773
92.0,1504,86449.771528
80.0,1502,86503.068268
84.0,1539,86560.408899
82.0,1631,86623.165746
69.0,1779,86691.352709
89.0,1490,86746.584832
65.0,1779,86813.784302
80.0,1785,86880.87609
68.0,1778,86950.323707
71.0,1779,87022.400668
76.0,1619,87085.056938
43.0,1778,87154.79257
71.0,1780,87223.811679
85.0,1573,87285.103694
87.0,1436,87340.66502
69.0,1673,87411.564272
68.0,1785,87486.526734
70.0,1784,87562.725306
86.0,1402,87622.022296
85.0,1783,87699.120587
75.0,1782,87775.982737
78.0,1723,87847.967298
76.0,1710,87920.544544
78.0,1778,87996.830553
81.0,1778,88072.163396
80.0,1750,88147.162665
84.0,1456,88209.511294
92.0,1423,88270.656515
87.0,1640,88340.754426
92.0,1427,88402.514881
91.0,1388,88461.223215
87.0,1661,88532.030753
81.0,1593,88602.043584
91.0,1467,88665.148789
91.0,1258,88721.244302
92.0,1476,88784.081134
81.0,1464,88846.468124
87.0,1490,88911.861676
63.0,1781,88985.740844
84.0,1655,89057.02836
86.0,1493,89119.837398
86.0,1603,89191.306154
83.0,1554,89257.501359
72.0,1784,89332.884367
83.0,1487,89396.033279
89.0,1522,89461.639584
81.0,1468,89527.058172
76.0,1613,89597.662497
91.0,1652,89670.677347
86.0,1677,89743.187169
88.0,1563,89811.930109
88.0,1599,89886.450695
86.0,1597,89957.970309
90.0,1709,90034.996847
80.0,1783,90116.611265
89.0,1631,90193.471516
92.0,1602,90268.490871
92.0,1489,90337.219233
81.0,1662,90413.006083
79.0,1737,90493.277506
92.0,1520,90564.042718
82.0,1635,90639.7593
85.0,1536,90709.338639
91.0,1296,90769.500152
89.0,1526,90840.298701
89.0,1460,90905.634803
90.0,1590,90976.484291
74.0,1763,91055.815177
82.0,1586,91125.372138
86.0,1592,91196.592561
76.0,1782,91276.058079
86.0,1674,91351.739614
87.0,1632,91424.939216
72.0,1785,91507.973689
82.0,1484,91577.265629
86.0,1541,91649.802509
92.0,1500,91719.284606
86.0,1450,91786.425904
81.0,1641,91862.659887
85.0,1491,91930.969355
59.0,1784,92014.24961
91.0,1390,92078.380457
86.0,1692,92159.027818
88.0,1504,92226.847072
89.0,1491,92297.007075
91.0,1416,92358.356838
85.0,1497,92425.000241
79.0,1739,92503.18271
89.0,1532,92574.491337
85.0,1779,92657.902271
86.0,1521,92728.492715
83.0,1564,92801.175398
92.0,1494,92869.736964
93.0,1519,92939.920525
80.0,1517,93007.725119
85.0,1651,93081.850701
84.0,1778,93161.882854
90.0,1486,93229.264684
91.0,1393,93291.858677
82.0,1665,93363.044448
92.0,1649,93435.668213
84.0,1778,93513.701319
96.0,1627,93585.89589
89.0,1723,93659.655305
90.0,1507,93727.539337
85.0,1738,93806.796909
83.0,1708,93881.793629
89.0,1616,93952.969113
68.0,1779,94033.497889
84.0,1784,94111.849277
88.0,1428,94174.866605
77.0,1779,94255.363099
88.0,1589,94326.937617
68.0,1781,94407.503865
49.0,1783,94488.407041
72.0,1785,94568.446938
65.0,1783,94648.803085
61.0,1782,94731.089849
84.0,1520,94799.75358
93.0,1440,94863.829311
85.0,1664,94936.948789
71.0,1419,95000.089168
87.0,1529,95069.010189
80.0,1612,95142.095785
83.0,1776,95221.003805
82.0,1780,95301.394014
96.0,1548,95369.611005
86.0,1665,95442.959559
85.0,1679,95516.110619
71.0,1779,95598.467019
94.0,1577,95673.114122
94.0,1397,95736.714671
91.0,1529,95805.554771
92.0,1601,95875.278407
86.0,1695,95946.886597
87.0,1405,96006.141882
82.0,1650,96075.5081
86.0,1586,96141.776542
97.0,1484,96204.981665
88.0,1694,96274.306916
91.0,1722,96345.54418
94.0,1414,96408.126017
92.0,1670,96476.625397
90.0,1521,96538.031635
95.0,1614,96605.439324
82.0,1681,96673.472236
94.0,1392,96730.362626
82.0,1782,96804.317558
94.0,1443,96863.005747
84.0,1754,96935.374718
83.0,1695,97003.221646
93.0,1399,97060.946784
91.0,1403,97117.768639
89.0,1677,97188.270731
92.0,1515,97252.807605
89.0,1493,97314.743475
97.0,1445,97375.343262
97.0,1484,97434.990002
85.0,1529,97496.155148
91.0,1407,97553.329034
95.0,1543,97614.650525
97.0,1419,97670.382978
68.0,1782,97743.465044
79.0,1504,97802.508367
93.0,1596,97866.584649
87.0,1610,97933.13065
90.0,1693,98001.912497
88.0,1519,98060.019962
80.0,1737,98129.540788
83.0,1707,98196.927245
86.0,1601,98256.923376
93.0,1566,98317.394495
89.0,1690,98382.846691
89.0,1505,98440.390989
83.0,1645,98506.428076
81.0,1779,98573.303278
77.0,1675,98641.708409
95.0,1514,98708.303548
90.0,1460,98769.468539
95.0,1377,98828.365549
93.0,1497,98889.272052
85.0,1680,98959.012766
83.0,1460,99017.34527
91.0,1566,99083.211722
84.0,1480,99143.678161
94.0,1440,99204.835481
88.0,1536,99268.270773
83.0,1495,99329.008978
79.0,1440,99387.329513
89.0,1522,99447.821041
74.0,1619,99512.570324
91.0,1322,99566.580607
91.0,1354,99617.566028
81.0,1568,99676.006824
87.0,1518,99736.323548
79.0,1490,99791.94525
86.0,1477,99848.615185
90.0,1503,99908.896967
94.0,1487,99965.710091
81.0,1706,100030.282788
86.0,1626,100088.264711
89.0,1589,100148.452498
91.0,1527,100204.938736
85.0,1587,100258.592582
83.0,1746,100320.53515
82.0,1694,100380.715954
84.0,1661,100438.738676
89.0,1440,100487.576794
78.0,1706,100547.179836
90.0,1448,100596.558671
86.0,1499,100648.775917
86.0,1499,100700.460618
92.0,1603,100755.930402
85.0,1487,100805.713894
91.0,1469,100855.764224
92.0,1532,100908.874536
91.0,1491,100960.810763
93.0,1665,101019.85503
86.0,1778,101084.446934
87.0,1484,101137.248682
94.0,1392,101188.704963
78.0,1675,101247.415673
86.0,1539,101299.576807
84.0,1517,101351.158853
90.0,1550,101405.366513
85.0,1722,101464.023551
81.0,1648,101518.60315
94.0,1443,101568.315063
84.0,1588,101621.051507
82.0,1574,101672.745835
82.0,1415,101718.83407
84.0,1459,101767.08652
88.0,1509,101816.629181
80.0,1619,101870.544936
88.0,1490,101918.276991
83.0,1437,101962.282488
90.0,1505,102007.676179
95.0,1454,102050.866523
89.0,1493,102094.885776
84.0,1645,102143.363451
71.0,1649,102190.7989
92.0,1617,102237.659972
85.0,1557,102283.023984
91.0,1307,102324.270606
82.0,1634,102373.376975
82.0,1734,102423.136487
81.0,1579,102467.734406
77.0,1508,102512.600435
90.0,1465,102553.97914
83.0,1510,102600.024604
91.0,1545,102646.262931
92.0,1398,102688.13255
93.0,1418,102728.9114
78.0,1588,102773.457638
84.0,1508,102818.215586
79.0,1750,102863.073733
93.0,1603,102905.645578
82.0,1544,102945.732061
90.0,1481,102985.613314
89.0,1463,103025.453439
93.0,1416,103063.479538
83.0,1478,103101.971967
88.0,1537,103141.983945
84.0,1608,103182.645931
80.0,1636,103222.564913
77.0,1654,103262.424076
89.0,1619,103302.140109
83.0,1525,103342.225126
84.0,1531,103383.826995
91.0,1297,103417.440809
87.0,1740,103466.086148
92.0,1484,103508.74752
92.0,1437,103548.661795
96.0,1505,103589.818081
80.0,1690,103635.509596
88.0,1495,103677.849692
92.0,1402,103716.203507
79.0,1678,103758.693808
79.0,1780,103803.243103
83.0,1596,103840.279348
94.0,1291,103870.339658
87.0,1443,103903.743054
91.0,1532,103938.827056
93.0,1378,103969.919191
82.0,1578,104005.843109
92.0,1387,104037.813924
93.0,1374,104068.212378
87.0,1441,104100.941057
84.0,1425,104133.925106
88.0,1418,104168.492982
90.0,1613,104210.70047
76.0,1740,104255.750117
91.0,1395,104292.648216
82.0,1536,104331.956078
91.0,1542,104370.284789
90.0,1468,104409.051488
79.0,1780,104451.695318
77.0,1533,104483.973669
91.0,1534,104515.898755
86.0,1565,104556.473575
86.0,1400,104592.965149
79.0,1716,104636.929648
93.0,1382,104672.882591
