# {"t_start": 1547636708.0563462, "env_id": "RoboschoolHumanoidFlagrunHarder-v1"} 
r,l,t-85.503359,170,12.355765
-72.236957,170,21.575839
1.078459,18,22.394013
-73.197163,170,1238.870706
-93.27029,170,1247.433383
5.237174,18,1248.187033
2.964659,18,1249.231264
7.034425,18,1250.04735
-0.512309,19,1251.083057
-58.365625,170,1259.830958
9.250812,19,1260.973841
-96.702912,170,2465.853175
-65.620434,170,2473.442527
-51.205579,170,2481.750078
-99.785719,170,3503.726466
-76.570701,170,3511.783442
-40.503254,170,3519.901475
4.910199,19,3521.088865
3.028186,25,3522.561019
-4.66456,17,3523.363167
-70.418154,170,4528.04084
7.011345,19,4529.017857
6.501979,16,4529.636417
-75.627826,170,4538.520351
-68.955427,170,5561.772819
7.734997,18,5562.73673
-56.18699,170,5571.132266
5.614857,19,5572.105434
-41.553602,170,5579.773716
-67.17018,170,6583.777329
-0.078201,19,6584.789735
-86.583191,170,6591.582848
-74.502549,170,6599.211209
-3.694206,20,6600.130777
-112.279594,170,7588.099816
-103.38618,170,7596.442246
-76.704034,170,7604.096162
4.007743,18,7605.256264
2.485434,16,7606.012469
-96.625097,170,8584.974261
-75.435915,170,8593.44148
-88.356435,170,8601.273499
2.740226,18,8602.037814
-100.798647,170,9582.940686
-91.047206,170,9590.004276
-76.044061,170,9596.569326
-73.930168,170,10587.834204
-113.769181,170,10594.649325
-74.173226,170,10601.924515
-80.622442,170,11963.497452
-91.212102,170,11973.782341
-106.73318,170,11984.047807
-73.968715,170,13590.951633
-99.270014,170,13601.44974
1.872955,19,13602.203238
-60.256713,170,13612.882297
-114.920723,170,15278.606023
-122.720949,170,15288.625986
3.345427,18,15289.694773
3.044095,17,15290.693275
-88.851222,170,16967.394256
-97.541448,170,16977.937888
-60.34994,170,16988.087074
-71.795762,170,18648.012115
-75.778253,170,18660.518564
-106.506391,170,18671.869524
-80.560414,170,20348.670739
-100.821586,170,20359.650375
-87.089452,170,20370.819104
-3.452935,17,20371.91558
-101.044219,170,22051.415536
-154.385004,170,22062.457019
-1.700225,19,22063.624511
-106.388636,170,22074.324731
3.621313,18,22075.499223
0.82956,18,22076.677613
-10.951455,12,22077.553078
-122.223804,170,23738.919235
-140.16084,170,23749.754242
-7.86254,19,23751.270856
-151.480879,170,23762.345114
-129.280322,170,25457.13123
-83.374993,170,25467.574969
-119.273038,170,25479.035822
-5.175446,18,25480.254498
1.740255,20,25481.46717
-153.15861,170,27163.229202
-7.403298,18,27164.316792
-128.705355,170,27174.174001
-3.19313,19,27175.378437
-124.721097,170,28854.351513
-128.797675,170,28863.511645
-3.14935,19,28864.718966
-81.986349,170,28875.49671
-127.734312,170,30649.52919
-0.033368,18,30650.576142
-11.727748,19,30651.829707
-110.24824,170,30662.976507
-86.340508,170,30674.052833
