# {"t_start": 1547320481.0513723, "env_id": "BeamRiderNoFrameskip-v4"} 
r,l,t484.0,1811,70.977806
484.0,1935,146.317015
660.0,2132,226.823131
660.0,2252,326.429925
352.0,1679,398.481222
900.0,2366,503.898313
660.0,2183,601.485476
660.0,2280,708.821914
708.0,2582,825.9179
660.0,2670,946.025866
660.0,2090,1039.455168
616.0,2715,1160.89318
660.0,2995,1295.736581
616.0,2657,1419.693166
708.0,2682,1539.197679
660.0,2106,1636.127638
660.0,2249,1737.992241
528.0,1660,1812.887183
660.0,2250,1915.556643
132.0,1357,1975.898383
484.0,2020,2067.763393
616.0,1900,2153.416534
528.0,1797,2235.708396
616.0,2218,2335.756148
1044.0,3770,2506.372009
616.0,2159,2605.845727
660.0,1629,2680.221417
708.0,2451,2792.318369
308.0,1885,2875.5189
660.0,2599,2990.695009
352.0,1642,3065.977542
708.0,2475,3173.20254
660.0,1957,3262.10573
1044.0,2906,3396.727743
1284.0,3211,3542.295244
756.0,2234,3647.966795
708.0,2472,3759.104379
660.0,2068,3852.374189
660.0,2126,3950.25369
660.0,1583,4019.455431
660.0,2906,4154.461045
708.0,2883,4284.12204
660.0,2577,4404.4278
660.0,2218,4506.166144
660.0,2040,4597.513381
660.0,2124,4692.360537
804.0,2540,4808.52827
660.0,3124,4950.144993
484.0,1379,5012.068223
528.0,1976,5102.756795
660.0,2439,5213.299218
264.0,1437,5279.965301
264.0,968,5323.716813
484.0,1488,5388.956625
88.0,1300,5448.364651
132.0,1199,5502.668635
484.0,1999,5595.480931
528.0,1741,5675.136949
528.0,2565,5792.560682
528.0,1780,5874.291373
484.0,1625,5949.444333
572.0,2134,6047.504667
484.0,1944,6137.250427
308.0,1326,6197.460561
176.0,1133,6248.408006
308.0,1567,6318.870449
572.0,2069,6414.017654
308.0,2039,6508.690659
176.0,1113,6559.82534
484.0,2446,6673.447595
220.0,998,6718.502791
616.0,2279,6820.543048
396.0,1948,6905.546642
220.0,1807,6986.672914
308.0,1565,7056.218894
352.0,1943,7148.643799
264.0,1577,7218.962074
660.0,1956,7308.524261
660.0,2121,7405.672997
308.0,1648,7484.232414
708.0,2452,7596.95338
660.0,2234,7694.072366
660.0,3129,7835.847971
660.0,2581,7953.56399
528.0,1604,8026.209403
660.0,2991,8161.615241
660.0,1867,8245.245502
572.0,1535,8316.135893
708.0,2991,8447.903223
660.0,2107,8541.324988
708.0,2748,8666.536145
572.0,2034,8757.905777
708.0,3010,8892.183933
804.0,2482,9003.085826
660.0,3107,9146.845524
660.0,2261,9250.100907
708.0,2471,9362.456529
804.0,2648,9481.824744
804.0,2648,9598.969477
708.0,2471,9710.451993
756.0,2557,9825.601346
708.0,3231,9973.072915
660.0,2906,10103.955001
660.0,2261,10207.564449
708.0,2471,10318.50494
660.0,2075,10411.848239
804.0,2583,10528.872202
660.0,2020,10618.75761
660.0,2683,10742.920878
708.0,2885,10871.907775
804.0,2627,10992.649802
264.0,1113,11044.838456
756.0,3114,11187.064722
660.0,2858,11317.645953
572.0,1511,11387.352051
660.0,2912,11519.012327
660.0,3235,11660.209304
804.0,2583,11777.038757
660.0,3235,11924.075351
660.0,2261,12025.987672
660.0,2347,12137.552065
484.0,1360,12198.629765
948.0,3185,12344.496944
756.0,2557,12457.67769
660.0,3235,12604.720049
660.0,2123,12699.373814
804.0,2778,12823.15465
708.0,2694,12943.804262
996.0,2891,13073.624663
660.0,2274,13178.512986
660.0,1606,13248.645664
948.0,3211,13392.875283
660.0,2793,13517.324014
660.0,2788,13641.93766
660.0,2042,13732.119679
660.0,2234,13832.131114
660.0,2797,13955.106079
660.0,2362,14060.544299
660.0,3008,14197.813008
660.0,2362,14304.025159
708.0,2146,14403.376175
708.0,1708,14481.347722
484.0,1360,14540.457516
660.0,2347,14644.570302
1044.0,3559,14809.289368
572.0,1545,14879.543539
756.0,2516,14994.320228
616.0,2477,15104.702543
660.0,2103,15198.853185
660.0,2391,15309.498612
660.0,2179,15408.412875
1092.0,3451,15563.788307
572.0,2256,15665.824153
660.0,1894,15749.924463
660.0,2764,15876.005799
804.0,3063,16016.784504
660.0,2502,16129.689462
616.0,2248,16230.085109
572.0,2202,16333.517111
572.0,2085,16422.880171
660.0,2106,16517.475294
264.0,1038,16564.731944
484.0,2002,16652.358013
660.0,2067,16746.118676
616.0,1884,16832.228142
308.0,1106,16883.600542
660.0,2041,16978.107071
616.0,2771,17106.534384
440.0,1910,17191.364206
660.0,2608,17311.958771
572.0,1942,17397.683872
484.0,1857,17481.99799
660.0,2236,17584.937504
616.0,2039,17675.990802
572.0,2015,17765.427413
572.0,1912,17846.492826
708.0,2903,17976.501762
804.0,2586,18091.734073
660.0,2794,18217.762311
660.0,2182,18313.854048
352.0,1247,18369.567943
616.0,2843,18501.294341
804.0,2587,18617.375092
660.0,1606,18689.71987
484.0,1360,18750.789939
660.0,2075,18846.31787
660.0,1606,18918.356817
660.0,2261,19020.445318
900.0,3453,19178.009101
708.0,1708,19252.733736
660.0,2070,19346.308274
660.0,2147,19444.792072
660.0,2261,19549.255041
660.0,2331,19652.663129
804.0,2470,19764.42906
756.0,2557,19877.806989
708.0,2231,19981.601629
708.0,2555,20096.876207
660.0,3123,20240.282304
804.0,2905,20374.064958
756.0,3225,20520.482642
852.0,3119,20659.775326
756.0,2342,20767.747896
660.0,2022,20856.756101
852.0,3020,20992.316711
660.0,2354,21099.889909
660.0,2252,21205.699371
996.0,3342,21357.059846
660.0,1715,21434.819147
572.0,1528,21504.829815
660.0,2685,21626.111247
660.0,2172,21724.469145
804.0,2472,21836.340327
804.0,2554,21947.660903
660.0,2015,22037.278899
708.0,3123,22179.250434
660.0,1623,22254.723085
708.0,2908,22388.084172
660.0,1997,22477.511999
660.0,2599,22593.429807
484.0,1640,22665.968348
660.0,2803,22793.687093
616.0,2657,22915.54272
660.0,2473,23026.332485
660.0,2152,23124.355916
528.0,1589,23195.279469
756.0,3663,23363.006071
804.0,3345,23515.203575
660.0,1910,23601.7356
616.0,1877,23687.629718
708.0,2887,23819.727911
660.0,2896,23952.19444
1092.0,3533,24114.358294
484.0,1703,24189.73712
660.0,2127,24282.368561
616.0,2722,24400.436779
660.0,1986,24486.604143
264.0,1325,24544.860525
660.0,1913,24626.660815
528.0,1441,24688.807549
660.0,2439,24794.152657
440.0,1504,24857.207513
440.0,2239,24955.384102
396.0,1679,25028.355594
440.0,1932,25111.648942
88.0,1341,25168.484118
660.0,2781,25288.372089
528.0,1931,25369.830934
660.0,2237,25467.150792
396.0,2356,25567.809809
528.0,2219,25662.012309
396.0,2219,25756.228152
220.0,1367,25815.179639
616.0,2143,25907.168452
616.0,1829,25985.422974
616.0,2512,26096.050673
660.0,1987,26183.224186
756.0,2439,26288.168234
484.0,2161,26384.067349
572.0,1922,26466.429932
616.0,2606,26577.00197
308.0,1798,26655.388967
440.0,1504,26719.879604
572.0,2099,26808.690062
528.0,1632,26878.619752
308.0,1778,26955.100294
132.0,1870,27039.181652
0.0,1658,27110.016889
0.0,1121,27159.025644
0.0,1059,27203.328368
0.0,2089,27294.410491
44.0,1291,27348.996904
0.0,1390,27408.02053
44.0,1385,27467.533046
0.0,1096,27513.048438
0.0,1401,27573.955317
0.0,1390,27633.716769
0.0,1211,27685.247076
0.0,1096,27733.036314
0.0,1062,27776.863882
0.0,1059,27821.95183
0.0,990,27863.726281
0.0,1436,27924.124064
0.0,1548,27990.500297
0.0,1548,28055.511482
0.0,1238,28108.018009
0.0,1096,28156.079751
0.0,1059,28201.765795
0.0,1096,28251.139203
0.0,1059,28296.545119
0.0,990,28339.456656
0.0,999,28382.160362
0.0,1211,28434.984766
0.0,1096,28481.006338
0.0,2089,28569.703593
0.0,1436,28631.721743
0.0,1390,28694.168284
0.0,1401,28753.813337
0.0,2089,28842.437852
0.0,1510,28906.282818
0.0,1096,28953.583848
0.0,1390,29013.399539
44.0,1291,29068.151238
0.0,1390,29126.652492
0.0,1401,29186.54092
44.0,1291,29242.36607
0.0,1000,29286.135353
0.0,1548,29354.902347
0.0,1760,29428.43967
0.0,1513,29493.348684
0.0,1261,29548.689632
0.0,1638,29617.201454
220.0,2073,29707.38606
660.0,2128,29797.699064
708.0,2791,29916.899976
660.0,2208,30012.000907
708.0,2443,30114.879289
660.0,2524,30223.005216
948.0,3185,30360.108633
708.0,2471,30466.828697
708.0,2911,30594.880598
660.0,2349,30697.086668
484.0,1360,30755.666554
708.0,1708,30829.919628
804.0,2648,30945.192746
660.0,2184,31039.236068
484.0,1360,31096.555796
660.0,3235,31236.935279
660.0,2349,31338.130631
660.0,2216,31433.754936
660.0,2331,31533.440906
708.0,3124,31670.024376
900.0,3453,31818.436552
708.0,2361,31923.456877
660.0,2147,32014.97032
660.0,2073,32105.275637
484.0,1738,32178.994285
484.0,1758,32256.844069
660.0,2546,32367.272369
804.0,2555,32476.236447
660.0,2829,32596.13614
660.0,3014,32722.22249
660.0,2258,32816.092542
616.0,2248,32914.100084
708.0,2695,33030.320907
484.0,1638,33103.35088
484.0,1930,33189.681513
616.0,1596,33262.36427
660.0,3117,33398.651116
660.0,2240,33498.442354
616.0,2151,33593.119082
264.0,1251,33649.066073
220.0,1112,33698.525641
528.0,1587,33770.438516
440.0,1557,33840.148193
352.0,1507,33905.814256
352.0,1233,33959.564146
308.0,1395,34021.277723
528.0,1262,34076.048669
804.0,3399,34228.972956
528.0,1672,34298.726637
660.0,2113,34393.701789
660.0,1980,34477.1503
616.0,2819,34601.381359
220.0,1025,34647.47666
804.0,1906,34735.372943
660.0,2793,34859.805374
352.0,1437,34921.662689
660.0,2644,35034.668293
660.0,2792,35159.014409
804.0,2793,35280.926405
660.0,3450,35433.712356
708.0,2357,35534.824734
1140.0,3768,35700.870414
660.0,2466,35806.796611
660.0,3014,35939.999834
528.0,1547,36008.72363
660.0,2468,36121.465663
708.0,2911,36249.42444
396.0,1728,36325.44066
708.0,2456,36434.88482
660.0,3235,36579.787016
528.0,1754,36657.471835
660.0,2029,36744.811493
264.0,1043,36789.612101
660.0,2180,36884.140914
660.0,2139,36978.742515
1140.0,3772,37146.334229
756.0,2475,37259.013658
660.0,2146,37352.355035
660.0,2229,37455.883074
616.0,2139,37552.922946
660.0,2367,37657.072986
900.0,2806,37777.993661
660.0,2638,37891.522213
660.0,2467,37997.766648
660.0,2066,38084.907556
660.0,3235,38226.692366
660.0,2345,38326.772861
804.0,2411,38434.198295
616.0,2373,38536.031118
484.0,1752,38613.291964
132.0,915,38653.189195
44.0,1218,38705.376271
0.0,1521,38770.50058
44.0,1605,38838.619115
0.0,1264,38892.09578
0.0,1235,38946.253677
528.0,2285,39044.825307
528.0,1654,39117.532995
440.0,1609,39189.01112
660.0,2562,39300.20696
484.0,1507,39366.101715
572.0,2441,39475.606403
308.0,1748,39552.142031
616.0,2731,39674.041511
660.0,3664,39840.754292
572.0,1759,39918.119437
660.0,2473,40028.239296
756.0,2251,40126.419761
660.0,2682,40245.407592
528.0,1927,40331.030495
660.0,2578,40445.811008
616.0,1945,40530.032088
528.0,1799,40607.078908
660.0,2075,40698.139334
616.0,2599,40812.510278
660.0,1931,40897.528188
660.0,2740,41017.916323
264.0,1277,41074.550832
616.0,2154,41170.120729
660.0,2476,41281.434255
616.0,1883,41362.162939
660.0,2606,41476.769269
660.0,2030,41567.211641
660.0,2939,41700.680241
396.0,1832,41780.993747
660.0,1935,41868.28543
308.0,1503,41935.556777
132.0,1199,41989.220678
660.0,2113,42079.592655
352.0,1524,42145.710637
528.0,1736,42221.453319
440.0,1447,42284.366552
528.0,2026,42371.598481
308.0,1191,42423.097154
264.0,2112,42515.079012
484.0,1884,42594.584661
264.0,1918,42680.262699
264.0,1014,42722.830296
660.0,2225,42816.707038
660.0,1992,42903.163475
440.0,1577,42971.878766
1044.0,3503,43124.004935
572.0,1483,43187.320319
484.0,2274,43283.429704
660.0,2146,43376.642041
756.0,2466,43483.164539
616.0,1983,43569.458972
756.0,3098,43704.506413
660.0,2196,43799.920571
396.0,905,43837.684073
708.0,2608,43951.180132
756.0,2478,44059.819872
852.0,2358,44164.644076
804.0,2410,44269.626119
616.0,2860,44395.832992
660.0,2741,44513.130124
708.0,2995,44645.26482
660.0,2992,44775.096207
660.0,2361,44873.823587
660.0,2584,44985.252334
660.0,2602,45098.270449
804.0,3009,45227.773253
660.0,2574,45338.506961
660.0,2874,45462.121723
660.0,3017,45590.854061
708.0,2692,45703.636388
660.0,2584,45811.603176
660.0,2364,45912.984648
660.0,2887,46033.622224
708.0,2478,46138.516335
660.0,2607,46247.147975
708.0,2580,46349.580213
756.0,3020,46475.966135
756.0,2413,46574.533125
660.0,2026,46654.588799
616.0,1320,46706.039749
660.0,2162,46794.508887
660.0,2232,46883.763233
1044.0,3129,47009.521439
660.0,2070,47093.26548
660.0,2424,47189.542303
484.0,1352,47243.488732
804.0,2890,47356.163722
660.0,1995,47432.072198
756.0,2616,47531.314968
660.0,2632,47637.088725
900.0,2774,47746.586057
708.0,2759,47858.624307
708.0,3334,47989.065523
660.0,2557,48091.557354
708.0,3344,48219.174417
660.0,2578,48319.362087
708.0,2475,48410.679771
660.0,2249,48489.47568
440.0,1969,48561.389294
660.0,2791,48668.207016
708.0,1692,48731.057652
660.0,1963,48802.907017
708.0,3423,48929.64577
756.0,2368,49019.328092
660.0,2687,49117.648436
660.0,2249,49201.930809
572.0,1582,49261.68867
900.0,2587,49361.113215
756.0,2431,49449.409206
660.0,2800,49554.640479
1044.0,2793,49655.034826
708.0,2582,49748.994164
660.0,2548,49841.752217
756.0,2409,49928.185236
660.0,3121,50048.213484
660.0,3147,50166.568923
708.0,2718,50267.081578
616.0,2007,50340.246702
616.0,2660,50438.722804
708.0,2775,50544.508243
660.0,2348,50630.677337
616.0,2033,50703.633203
660.0,2762,50799.952884
660.0,1935,50871.552405
660.0,2075,50944.389063
708.0,2235,51026.945998
484.0,1645,51086.863392
572.0,2092,51166.87832
616.0,2783,51269.446777
660.0,2503,51358.554212
756.0,2529,51449.874303
616.0,2652,51545.292171
660.0,2478,51635.426822
440.0,1607,51693.057426
396.0,1549,51748.775147
708.0,2551,51841.054131
660.0,2252,51921.100439
708.0,2556,52012.645775
572.0,2272,52093.279071
396.0,1749,52154.090806
528.0,1633,52213.691739
396.0,1852,52279.727885
660.0,2395,52365.041935
756.0,2377,52449.331645
396.0,1773,52513.338585
660.0,2029,52584.150189
852.0,3212,52695.830252
660.0,2688,52791.952112
616.0,2207,52869.092248
660.0,2556,52955.028283
484.0,1200,52999.129178
660.0,2217,53076.382309
572.0,1853,53142.772348
484.0,1587,53198.172523
440.0,1521,53251.692903
616.0,2079,53324.347892
708.0,2773,53423.980226
660.0,2144,53500.236032
660.0,2148,53576.099914
660.0,2338,53659.861713
756.0,2518,53751.6143
484.0,1592,53807.428347
852.0,3101,53915.848444
616.0,1981,53986.993544
708.0,2121,54061.89958
660.0,2208,54140.187415
528.0,1644,54200.020952
572.0,1581,54254.850146
708.0,2577,54346.55164
708.0,2560,54437.216475
660.0,2338,54519.9991
572.0,2121,54593.379398
660.0,2583,54686.575603
708.0,2229,54769.377591
528.0,1478,54819.937086
660.0,2993,54927.767304
756.0,1934,54997.079185
660.0,2784,55097.280296
484.0,1512,55150.512152
660.0,3339,55271.388162
660.0,2413,55353.905042
528.0,1654,55412.062793
484.0,1374,55461.389066
1092.0,4206,55608.672244
660.0,2257,55688.281943
660.0,2210,55767.104722
756.0,2289,55849.558225
352.0,1740,55911.441969
660.0,2666,56005.271124
708.0,2473,56093.520679
1044.0,2906,56194.046526
708.0,2471,56279.287444
1284.0,3454,56402.088639
660.0,2349,56484.874614
804.0,2583,56578.078096
660.0,2261,56660.287268
804.0,2648,56753.766703
804.0,2583,56845.572713
660.0,2074,56920.795964
660.0,2020,56993.538931
756.0,2557,57081.516877
660.0,2147,57156.90937
708.0,2361,57237.709687
660.0,3235,57351.14478
484.0,1257,57394.00089
804.0,2470,57482.920662
660.0,2261,57566.427961
756.0,2557,57657.913943
756.0,2557,57747.619151
660.0,2020,57819.760452
660.0,2147,57895.51958
660.0,2261,57977.58613
804.0,2583,58067.400265
708.0,2471,58153.871682
804.0,2470,58240.271943
708.0,2471,58326.838833
484.0,1360,58375.171992
708.0,1708,58435.039259
660.0,2020,58507.227748
660.0,2020,58580.555507
660.0,1606,58638.355703
484.0,1360,58684.463579
756.0,2649,58778.6662
660.0,2470,58867.264743
660.0,2789,58968.096612
660.0,3119,59076.176113
804.0,2307,59155.497674
852.0,3559,59276.975106
660.0,2447,59364.780725
660.0,2590,59456.85287
528.0,1560,59511.478184
660.0,2216,59590.187961
660.0,2134,59664.95267
660.0,2903,59767.260604
572.0,1771,59828.346484
804.0,2374,59907.401811
804.0,2801,60006.998584
660.0,2935,60108.411732
660.0,2102,60182.163136
616.0,2105,60257.415679
660.0,3207,60370.479462
660.0,2359,60453.618774
660.0,2042,60526.182148
756.0,3232,60640.167231
660.0,2411,60725.156461
572.0,2160,60799.856349
660.0,2061,60872.216372
572.0,1750,60932.84683
572.0,1457,60985.34639
660.0,2175,61061.44893
660.0,2111,61133.777459
572.0,1746,61194.995935
572.0,1993,61267.728186
616.0,2664,61362.83808
660.0,2903,61464.983208
528.0,2074,61539.641209
528.0,1891,61606.252887
528.0,1950,61672.614086
572.0,2030,61746.097252
352.0,1746,61808.344191
528.0,1829,61874.626306
264.0,891,61905.54174
528.0,2107,61979.532052
572.0,2220,62060.067668
708.0,2450,62147.95999
352.0,1557,62202.927284
616.0,2149,62276.175536
660.0,2111,62350.569071
528.0,1626,62407.566859
660.0,1987,62478.523771
308.0,1860,62544.548805
616.0,2164,62618.330722
396.0,2483,62706.948605
528.0,1860,62772.758993
352.0,1939,62843.721345
660.0,2181,62920.549674
852.0,2512,63009.882757
484.0,1558,63062.346517
396.0,2263,63145.579737
660.0,2711,63242.252414
264.0,1541,63296.829233
660.0,1897,63363.478912
660.0,2326,63447.271999
616.0,2625,63537.980982
528.0,1977,63607.198987
528.0,1696,63667.00201
756.0,2571,63759.222419
396.0,1709,63819.666662
616.0,2909,63920.934059
660.0,2143,63997.011742
528.0,1533,64049.529613
352.0,1438,64100.464533
708.0,2690,64194.70065
572.0,2152,64273.128421
484.0,1829,64338.408033
804.0,3667,64469.295751
660.0,2043,64539.202414
264.0,1104,64577.702166
660.0,1995,64648.722958
708.0,2342,64732.75694
572.0,2039,64804.83569
528.0,1742,64865.008413
660.0,2340,64948.05085
616.0,2782,65045.603803
616.0,2207,65126.336979
660.0,2003,65196.702266
708.0,2792,65295.981115
804.0,2569,65389.396748
440.0,1688,65447.677974
616.0,2612,65539.3983
756.0,2364,65622.89481
660.0,1979,65692.786775
756.0,3214,65805.674536
660.0,3227,65922.122398
756.0,2470,66010.528459
996.0,2690,66108.047981
708.0,2363,66189.843549
804.0,2453,66276.072988
528.0,1913,66345.956079
352.0,907,66378.678172
900.0,2813,66479.9988
708.0,2342,66560.169226
660.0,2535,66649.653978
1092.0,3125,66761.286891
756.0,3322,66878.982632
352.0,1300,66925.348933
660.0,2679,67021.842113
660.0,1920,67089.28565
660.0,2134,67166.13519
660.0,2203,67244.877759
660.0,1855,67313.200019
804.0,2362,67399.056527
660.0,2520,67489.929496
660.0,2094,67563.416419
804.0,2693,67660.832353
996.0,2775,67761.908718
660.0,2529,67850.919498
756.0,2363,67935.031554
484.0,1476,67986.657772
660.0,1933,68054.548678
804.0,3318,68170.328046
660.0,2462,68257.427288
708.0,2906,68361.651534
660.0,2801,68461.571032
660.0,2531,68548.886955
660.0,2982,68657.242913
660.0,2223,68737.547683
660.0,2062,68811.87213
484.0,1551,68867.264473
660.0,2581,68959.362844
528.0,2222,69036.277265
708.0,2390,69121.769487
900.0,2882,69228.583553
708.0,2904,69328.392492
660.0,2305,69406.820975
660.0,2215,69486.436581
852.0,2673,69579.064339
756.0,2398,69664.513755
440.0,1639,69725.317953
660.0,2578,69817.911132
660.0,2138,69899.386608
660.0,2412,69988.134043
660.0,2280,70069.84533
572.0,1728,70130.475303
264.0,1326,70179.309406
660.0,2072,70254.192889
660.0,1992,70326.420873
804.0,2603,70422.163375
616.0,1963,70493.57795
708.0,2802,70595.15581
756.0,3192,70710.94852
660.0,2254,70793.628761
804.0,2366,70878.1996
308.0,1871,70946.200772
852.0,2273,71029.91078
572.0,1710,71093.359346
616.0,2062,71166.449471
572.0,1609,71222.737485
572.0,1583,71280.494256
900.0,2534,71369.812559
660.0,3014,71475.205042
440.0,1607,71531.576907
484.0,1525,71588.471268
804.0,2548,71677.226443
660.0,2581,71768.075592
660.0,2474,71856.658742
660.0,3017,71963.926988
756.0,3237,72081.627814
660.0,1962,72151.322243
804.0,2316,72232.505772
396.0,1486,72285.591125
660.0,2140,72362.199133
660.0,3237,72477.509416
440.0,1639,72537.967824
616.0,1987,72610.167968
660.0,2043,72682.583742
660.0,1936,72751.018255
352.0,1460,72802.272494
660.0,2073,72877.239949
948.0,2577,72969.032597
756.0,2342,73055.902586
660.0,2139,73134.545382
804.0,2358,73218.022201
708.0,2261,73300.512593
756.0,2885,73408.443904
660.0,2792,73511.69573
660.0,2317,73596.161265
756.0,3127,73704.219183
308.0,2048,73779.121546
660.0,2042,73853.853141
660.0,1845,73918.769378
852.0,2900,74020.591022
996.0,3429,74137.437908
660.0,2062,74208.561981
484.0,1539,74262.527843
616.0,2703,74360.855636
1044.0,3932,74500.809579
660.0,1952,74572.257429
708.0,2363,74655.413562
660.0,2212,74734.105024
660.0,1475,74786.532081
660.0,2211,74864.959422
660.0,2063,74938.749956
616.0,2845,75039.088909
900.0,2775,75138.724701
660.0,2796,75241.865277
660.0,2058,75317.101142
528.0,1717,75376.916631
1188.0,3606,75505.112684
948.0,2340,75588.730857
1236.0,3452,75713.635681
660.0,2229,75790.830867
660.0,2829,75889.146719
660.0,2231,75968.89646
484.0,1554,76022.599201
660.0,2357,76107.045146
660.0,2683,76201.532089
660.0,2136,76277.296579
528.0,2269,76356.588886
528.0,1715,76416.202003
1044.0,2881,76519.943434
572.0,1534,76572.422947
756.0,3321,76689.776127
660.0,2475,76781.103429
616.0,2069,76853.754434
484.0,1401,76904.754808
616.0,2568,76997.641449
660.0,2135,77074.372895
660.0,1994,77143.804961
948.0,2728,77238.968519
660.0,2703,77335.757889
440.0,1692,77394.629918
708.0,2142,77468.523823
572.0,1700,77528.395726
616.0,2137,77607.150229
660.0,2910,77711.074152
660.0,2596,77806.502887
660.0,2196,77886.603895
948.0,3166,78002.374441
756.0,2362,78087.447486
660.0,3207,78201.040288
528.0,2031,78271.220554
660.0,2051,78343.358909
852.0,2628,78435.42045
660.0,2908,78538.520281
660.0,3126,78649.73192
616.0,1983,78719.691467
660.0,1817,78782.264068
660.0,3559,78908.023608
804.0,3346,79025.190885
756.0,3225,79138.571648
616.0,2086,79212.040797
852.0,2885,79314.519122
308.0,1751,79377.612813
900.0,3455,79500.210726
660.0,2784,79601.33675
616.0,2129,79678.19238
616.0,1978,79747.966019
660.0,1980,79817.542267
1044.0,3808,79953.534409
660.0,2128,80028.035006
616.0,1981,80099.098512
660.0,2019,80168.674974
572.0,1996,80238.528093
616.0,2480,80324.674414
616.0,2146,80398.848735
440.0,1564,80455.025801
756.0,2435,80542.171453
660.0,2174,80622.430124
660.0,2691,80717.0361
804.0,2478,80807.60401
660.0,2032,80878.947912
708.0,3015,80986.0903
660.0,3229,81102.2207
804.0,2581,81195.13543
708.0,3645,81323.044006
804.0,2752,81422.526106
660.0,2114,81495.884028
352.0,1231,81538.507702
308.0,1751,81599.470178
528.0,1660,81657.692064
852.0,2448,81745.333745
660.0,1994,81816.487876
660.0,1959,81882.509122
708.0,2772,81979.554913
616.0,1728,82040.943087
708.0,2366,82122.625018
660.0,2635,82220.753147
660.0,2013,82289.77809
756.0,2475,82378.165861
756.0,2782,82473.145788
756.0,2415,82559.390765
616.0,2653,82652.390642
900.0,3117,82762.443514
660.0,3009,82868.73137
660.0,2473,82956.660799
756.0,2367,83041.328342
948.0,3533,83168.111432
660.0,3017,83274.448867
804.0,2465,83361.91098
852.0,2778,83460.462291
804.0,2693,83558.055133
804.0,2911,83657.072069
660.0,2606,83750.161149
708.0,2459,83835.208196
708.0,2124,83911.269246
484.0,2233,83989.51102
440.0,1401,84040.040751
616.0,2768,84137.458761
1188.0,3018,84247.872358
440.0,1368,84297.452274
660.0,2852,84401.084627
756.0,3045,84505.925585
440.0,1699,84565.872128
484.0,2233,84644.714456
708.0,2562,84733.930353
660.0,2667,84831.872032
660.0,2304,84913.08072
660.0,2747,85009.888031
528.0,1893,85075.356696
852.0,3117,85180.905262
616.0,2687,85276.219534
660.0,2684,85369.169878
1044.0,3888,85506.138404
852.0,2369,85588.493463
660.0,2459,85674.740091
660.0,2029,85748.689294
660.0,2114,85823.693197
708.0,2693,85916.789202
708.0,2580,86014.353507
804.0,2365,86096.909299
616.0,2640,86190.514472
660.0,2630,86285.32554
852.0,3142,86398.200157
804.0,3040,86504.779681
756.0,2936,86606.311975
616.0,2728,86703.288576
900.0,3535,86823.59247
804.0,2474,86910.835026
660.0,1927,86982.638392
660.0,2578,87075.810308
660.0,2018,87147.372865
660.0,2082,87220.865777
900.0,3554,87353.009467
756.0,2472,87445.602853
660.0,2107,87528.786343
708.0,3775,87680.933052
616.0,1990,87758.912073
528.0,1552,87821.332065
708.0,2900,87936.739327
756.0,2546,88040.836968
660.0,2149,88126.642579
660.0,2381,88221.711402
948.0,2560,88324.026919
264.0,1310,88378.026977
484.0,2233,88466.600155
660.0,2812,88579.470785
616.0,2124,88666.823146
484.0,2233,88758.235234
572.0,2051,88839.208282
660.0,2344,88936.716051
616.0,2046,89017.354469
660.0,2236,89108.084547
528.0,1660,89175.401496
616.0,2811,89292.100267
756.0,2626,89395.847157
660.0,2339,89490.332941
660.0,2039,89573.898674
804.0,2996,89696.003003
660.0,2102,89778.331827
804.0,2687,89892.486671
900.0,2359,89989.216435
528.0,1701,90061.085844
804.0,2903,90184.578059
352.0,1043,90229.976821
900.0,2552,90340.542816
396.0,1467,90405.229985
804.0,2517,90513.171222
616.0,2495,90620.349345
708.0,2557,90733.418032
708.0,2559,90842.996646
660.0,3453,90994.219073
616.0,2035,91078.621976
1332.0,3777,91237.998649
616.0,2726,91354.784942
660.0,2277,91449.501994
900.0,3343,91596.200669
852.0,2669,91709.921753
660.0,2902,91834.881307
708.0,2778,91958.190001
660.0,2018,92046.30509
308.0,1043,92091.039936
660.0,2503,92200.566562
708.0,2582,92312.215311
804.0,3231,92447.485207
660.0,1912,92529.02748
708.0,2800,92650.995054
572.0,2302,92751.423461
756.0,2692,92869.362119
660.0,2072,92958.238853
708.0,2476,93061.761119
1284.0,4425,93252.551322
352.0,1408,93311.349705
660.0,2062,93397.927756
804.0,3120,93527.075057
660.0,2894,93649.078833
996.0,3538,93798.037573
756.0,2735,93914.684639
528.0,1544,93980.151734
804.0,2407,94082.805007
900.0,3122,94211.913964
660.0,1746,94286.07934
660.0,2259,94382.406183
756.0,2285,94480.096879
804.0,2476,94586.293339
900.0,3016,94711.648684
660.0,2141,94799.083997
948.0,3429,94941.203464
660.0,2065,95026.938936
804.0,2259,95124.027111
572.0,1733,95198.566827
660.0,2883,95315.418845
756.0,3152,95447.006689
572.0,1635,95513.250801
660.0,1956,95596.516835
572.0,1635,95665.12197
660.0,2577,95772.992412
660.0,2361,95870.952796
660.0,2471,95968.18371
660.0,2147,96053.4277
616.0,2520,96153.311066
660.0,2740,96261.983852
900.0,2584,96364.796248
1044.0,4139,96525.263929
852.0,2560,96623.036795
660.0,2033,96698.51049
616.0,2642,96798.741004
484.0,1548,96858.950237
660.0,2203,96944.370637
804.0,3343,97071.536437
572.0,1705,97136.388814
396.0,1856,97208.364608
396.0,1350,97258.848354
900.0,2989,97373.74861
528.0,1785,97442.909261
660.0,2102,97517.736713
804.0,2257,97600.365763
1140.0,3557,97735.184964
756.0,2676,97840.454273
572.0,1838,97911.474889
1188.0,3124,98027.790333
660.0,2340,98110.068131
996.0,2728,98209.86533
660.0,2056,98286.437737
948.0,2961,98396.389979
660.0,2258,98479.799921
660.0,2022,98555.34834
1044.0,3100,98671.62561
1236.0,3339,98802.139029
616.0,2672,98908.020713
660.0,2651,99007.708513
660.0,2041,99087.370971
660.0,2066,99168.0135
616.0,2093,99249.052915
616.0,2093,99331.409422
948.0,3665,99468.900773
660.0,2683,99568.381028
756.0,2359,99655.446087
616.0,2093,99731.788057
900.0,2997,99839.66865
660.0,2415,99928.291314
1092.0,3345,100047.374828
660.0,1922,100115.150823
