# {"t_start": 1552429654.6177113, "env_id": "BreakoutNoFrameskip-v0"} 
r,l,t
0.0,129,16.619922
4.0,299,123.940496
0.0,128,160.872795
1.0,173,197.471889
3.0,231,240.168345
1.0,173,312.435533
0.0,129,348.826924
1.0,173,388.625204
4.0,299,462.204377
1.0,174,499.693367
0.0,125,538.603819
1.0,174,577.328049
2.0,223,650.988477
2.0,205,724.193202
1.0,175,765.326028
1.0,157,802.410837
0.0,127,839.074445
2.0,186,880.78131
0.0,127,916.965073
1.0,157,956.336051
3.0,255,1032.852669
2.0,204,1105.947449
0.0,125,1110.51927
0.0,136,1146.889111
3.0,269,1223.548805
7.0,326,1334.125355
2.0,204,1375.86014
2.0,199,1445.302578
0.0,123,1481.435964
2.0,201,1521.625453
5.0,326,1596.968233
0.0,127,1631.281775
0.0,129,1670.307199
0.0,127,1705.539239
2.0,202,1780.932132
1.0,157,1820.798532
2.0,201,1859.425757
0.0,127,1896.512511
0.0,125,1932.837672
0.0,127,1970.98975
6.0,378,2084.432268
2.0,221,2125.890981
5.0,283,2200.656566
3.0,269,2272.368924
1.0,172,2343.35179
1.0,178,2382.731646
2.0,204,2422.059961
0.0,127,2458.842358
2.0,204,2533.776559
1.0,171,2571.329933
5.0,307,2646.947162
1.0,157,2685.78932
4.0,278,2758.794731
1.0,153,2793.400272
4.0,282,2900.613045
3.0,252,2937.132034
3.0,230,3004.405038
5.0,348,3109.069854
0.0,127,3142.915563
3.0,230,3180.301613
0.0,128,3214.498673
1.0,178,3247.687138
2.0,204,3313.08874
4.0,277,3382.314646
1.0,155,3417.789527
5.0,326,3519.43554
3.0,268,3587.639421
4.0,297,3655.549565
12.0,518,3791.930622
5.0,328,3861.520638
4.0,299,3930.74811
5.0,339,4030.881498
0.0,129,4067.357036
4.0,297,4136.71466
2.0,202,4171.466779
1.0,173,4237.15434
2.0,222,4272.30964
1.0,176,4337.331153
2.0,201,4375.797261
1.0,155,4409.906136
2.0,203,4475.859733
5.0,323,4547.035281
0.0,128,4578.468672
1.0,155,4614.529284
4.0,299,4683.581377
2.0,199,4749.992151
2.0,202,4787.430345
0.0,129,4819.249456
3.0,250,4887.476073
1.0,153,4923.647763
2.0,179,4958.039608
5.0,332,5061.158567
4.0,300,5129.26599
3.0,230,5195.937095
0.0,127,5232.086282
0.0,129,5264.465932
3.0,218,5303.732847
5.0,330,5404.08856
3.0,232,5440.106359
4.0,278,5508.06844
4.0,299,5612.002758
5.0,347,5683.51104
2.0,198,5749.16416
0.0,129,5784.462001
4.0,299,5854.227523
0.0,125,5887.147271
1.0,175,5924.416148
3.0,217,5961.973139
2.0,184,6030.82117
5.0,308,6101.231227
2.0,189,6135.695161
3.0,234,6204.496422
0.0,127,6239.327963
5.0,327,6311.752666
1.0,155,6376.453043
2.0,202,6414.561142
6.0,329,6513.953104
1.0,169,6550.132214
2.0,186,6586.470719
3.0,249,6655.508512
4.0,268,6723.665949
6.0,346,6794.839984
1.0,151,6860.626112
10.0,452,6966.368076
6.0,340,7066.477133
5.0,350,7138.084816
1.0,155,7175.127437
4.0,281,7244.317599
1.0,154,7278.784261
6.0,326,7377.730916
5.0,328,7449.415755
3.0,248,7519.136897
1.0,153,7554.564514
6.0,395,7657.134926
7.0,394,7759.482837
12.0,484,7897.162894
4.0,262,7965.045077
4.0,301,8036.137647
5.0,326,8109.20092
3.0,216,8176.381277
4.0,281,8243.901839
0.0,119,8276.86957
7.0,355,8380.134377
5.0,328,8450.450502
5.0,309,8520.556556
2.0,200,8587.388954
3.0,244,8656.652484
3.0,250,8694.866043
2.0,202,8761.069321
6.0,359,8863.83247
5.0,314,8933.75756
9.0,404,9038.320127
5.0,348,9138.834141
9.0,405,9244.487311
0.0,127,9279.566254
2.0,185,9316.366059
0.0,129,9351.771247
8.0,464,9457.595416
4.0,299,9559.963402
3.0,215,9597.455763
5.0,320,9699.906256
10.0,432,9807.635743
2.0,185,9842.921286
11.0,473,9989.318739
9.0,401,10101.181484
5.0,310,10178.700253
1.0,159,10216.896854
1.0,153,10253.486218
4.0,263,10327.831142
11.0,457,10478.3293
1.0,153,10517.369283
5.0,315,10594.654777
1.0,156,10632.528903
5.0,300,10711.399096
1.0,181,10783.490407
5.0,275,10858.562962
0.0,129,10896.986135
4.0,285,10975.297532
6.0,342,11054.867905
12.0,302,11162.121695
4.0,281,11237.050258
6.0,362,11317.45173
3.0,254,11389.444881
5.0,352,11496.816048
9.0,327,11575.11631
5.0,352,11680.372639
2.0,181,11717.150352
3.0,252,11789.984802
3.0,251,11861.201307
5.0,308,11938.586468
2.0,179,12009.713727
5.0,327,12087.137459
3.0,232,12160.873233
2.0,225,12203.52464
3.0,232,12277.217335
5.0,348,12388.177488
1.0,176,12429.847288
8.0,434,12542.038437
6.0,373,12653.484868
3.0,213,12724.635323
7.0,365,12804.374589
7.0,408,12913.230757
5.0,352,13023.044195
6.0,357,13131.607656
6.0,329,13207.471362
6.0,338,13317.471191
4.0,297,13393.252845
4.0,259,13467.739289
2.0,223,13540.716565
3.0,267,13616.349478
5.0,346,13694.425536
5.0,348,13802.8257
7.0,374,13910.618285
7.0,377,13989.414007
4.0,278,14063.787608
6.0,317,14174.947485
8.0,450,14284.648866
4.0,280,14356.60308
4.0,285,14429.634521
4.0,301,14534.894529
6.0,398,14647.177068
1.0,155,14685.181056
6.0,363,14762.618825
6.0,325,14869.841172
10.0,435,14979.703637
2.0,201,15049.057703
6.0,378,15126.514766
4.0,322,15233.228382
3.0,234,15304.612547
5.0,310,15381.138142
3.0,252,15455.001684
8.0,425,15566.16997
3.0,230,15639.014255
7.0,367,15716.608613
3.0,214,15785.975768
2.0,187,15823.163955
5.0,316,15933.07129
5.0,331,16010.397522
8.0,491,16159.692173
7.0,376,16269.640329
10.0,525,16417.29904
4.0,278,16491.250883
5.0,350,16571.689302
4.0,267,16646.056346
5.0,333,16757.071559
4.0,282,16831.636009
3.0,229,16902.586257
3.0,252,16974.684114
15.0,581,17121.638909
3.0,270,17194.717184
8.0,455,17306.931179
5.0,297,17416.383601
10.0,448,17531.297354
9.0,529,17679.215943
9.0,487,17824.908074
5.0,310,17898.915393
3.0,214,17970.994848
9.0,517,18117.839192
3.0,216,18155.95736
4.0,300,18230.625986
7.0,248,18303.627849
4.0,284,18377.362197
5.0,347,18486.877336
5.0,311,18562.644877
3.0,232,18634.304873
5.0,330,18709.411232
3.0,234,18782.794323
6.0,375,18895.727435
7.0,428,19006.385643
9.0,478,19154.606068
6.0,359,19230.993404
4.0,262,19303.301645
4.0,280,19379.771168
9.0,472,19528.005892
13.0,504,19677.987978
3.0,248,19748.77143
5.0,316,19824.969572
6.0,342,19933.665353
4.0,263,20004.878321
7.0,409,20112.379879
8.0,459,20227.09246
2.0,186,20267.714102
8.0,424,20410.570792
4.0,299,20488.512189
7.0,398,20595.259188
7.0,447,20708.304138
7.0,443,20853.222625
10.0,525,21001.507674
13.0,550,21150.430333
6.0,398,21259.98661
6.0,419,21372.221629
3.0,255,21443.864964
9.0,501,21593.666929
7.0,390,21708.289905
4.0,299,21784.235634
4.0,261,21858.494096
9.0,447,21969.925498
5.0,332,22077.270363
7.0,468,22191.292473
7.0,430,22301.186034
10.0,436,22444.620274
9.0,499,22589.217846
15.0,477,22703.958257
5.0,345,22809.993654
7.0,434,22925.978421
4.0,278,23000.207638
4.0,249,23071.571145
5.0,297,23147.018451
7.0,373,23252.972312
4.0,304,23324.866972
5.0,329,23435.967977
6.0,327,23512.856731
6.0,361,23623.949425
3.0,230,23662.979367
6.0,401,23808.158581
8.0,435,23921.093788
6.0,375,24033.763722
4.0,305,24108.550879
7.0,448,24222.014006
5.0,326,24329.029033
10.0,379,24438.095637
8.0,391,24548.329429
5.0,307,24623.237363
9.0,422,24733.154419
9.0,508,24877.960847
7.0,369,24989.636304
7.0,374,25070.755877
3.0,250,25142.651669
7.0,389,25251.10047
5.0,309,25360.713538
2.0,185,25397.403328
3.0,238,25469.200865
12.0,417,25583.885684
6.0,381,25692.646583
6.0,349,25768.151803
10.0,562,25949.465809
9.0,459,26061.038006
5.0,345,26172.853185
7.0,401,26282.588378
8.0,410,26393.483166
8.0,419,26507.464932
8.0,447,26620.776769
7.0,414,26733.024562
4.0,276,26808.739157
9.0,464,26955.076152
8.0,476,27099.227739
3.0,252,27138.401706
9.0,400,27250.701891
9.0,310,27360.239537
7.0,397,27469.004525
5.0,328,27543.439508
6.0,353,27652.854887
8.0,442,27766.298824
6.0,339,27875.756185
4.0,244,27946.924387
12.0,510,28062.434148
13.0,515,28210.480557
4.0,299,28319.631611
5.0,334,28397.253332
6.0,362,28501.727515
6.0,377,28611.383169
4.0,300,28686.156853
6.0,362,28793.262923
6.0,343,28872.769992
5.0,309,28947.774819
5.0,314,29051.72892
7.0,387,29164.449576
12.0,587,29313.675131
5.0,314,29389.703352
8.0,450,29532.220908
14.0,521,29684.222241
6.0,374,29793.809948
10.0,515,29942.713264
5.0,367,30022.068272
14.0,543,30171.464652
6.0,357,30281.226443
7.0,437,30391.389817
6.0,360,30501.528649
6.0,356,30611.074608
7.0,394,30721.288749
10.0,543,30869.972022
5.0,328,30945.94175
10.0,525,31094.842626
5.0,350,31202.831346
7.0,358,31312.849982
14.0,571,31463.426259
8.0,405,31576.003538
11.0,498,31720.001115
4.0,262,31792.36562
19.0,617,31974.94515
8.0,451,32088.537966
10.0,519,32234.667833
9.0,470,32350.020724
4.0,297,32458.004014
4.0,309,32534.450968
6.0,352,32645.198577
7.0,412,32757.856778
6.0,339,32832.630533
5.0,307,32937.071405
6.0,356,33010.86574
9.0,497,33157.811902
11.0,467,33301.075713
5.0,318,33376.891752
10.0,471,33497.624391
7.0,433,33643.016036
11.0,464,33757.134396
12.0,519,33911.215525
8.0,415,34026.280249
6.0,382,34138.018993
8.0,444,34284.710646
2.0,203,34324.019132
13.0,582,34470.924047
8.0,423,34606.501428
9.0,500,34720.961593
4.0,259,34795.222527
9.0,509,34945.619221
12.0,520,35092.879852
3.0,247,35166.90488
10.0,526,35316.164409
5.0,309,35389.831301
5.0,354,35498.183784
6.0,397,35607.836895
4.0,299,35682.852005
2.0,200,35752.308541
11.0,395,35862.188967
9.0,510,36009.598748
7.0,396,36087.315278
4.0,280,36195.518566
6.0,382,36273.122908
6.0,378,36384.654329
5.0,334,36492.794446
10.0,496,36636.018363
10.0,536,36784.486532
5.0,350,36858.957977
8.0,407,36970.782383
9.0,458,37114.304112
7.0,425,37229.815802
6.0,358,37336.381868
10.0,354,37412.985286
7.0,389,37528.785385
9.0,488,37672.332269
9.0,458,37787.887201
9.0,510,37932.180691
6.0,378,38042.78548
6.0,379,38151.012139
6.0,375,38258.613508
3.0,255,38332.075393
8.0,472,38445.698696
6.0,357,38552.842002
9.0,459,38668.851124
5.0,370,38778.411877
15.0,524,38923.453862
4.0,280,38997.851623
11.0,559,39172.715963
7.0,432,39288.704913
5.0,327,39363.565887
5.0,343,39473.460869
7.0,431,39590.413334
5.0,342,39697.600219
7.0,396,39811.947624
6.0,358,39892.819139
9.0,367,40003.207565
3.0,229,40077.297656
10.0,463,40193.932671
11.0,509,40341.897398
8.0,478,40489.018141
5.0,329,40564.547192
6.0,374,40672.191169
4.0,299,40745.940695
4.0,277,40818.618929
6.0,345,40923.988368
3.0,252,40998.389659
4.0,261,41072.691211
6.0,379,41185.504618
6.0,402,41295.603659
11.0,392,41406.425997
7.0,387,41483.319624
9.0,481,41627.388581
12.0,446,41736.453905
7.0,416,41880.574479
10.0,532,42030.52714
7.0,410,42137.748059
7.0,387,42253.509943
11.0,556,42406.353305
5.0,271,42479.359111
20.0,634,42664.644887
4.0,285,42736.186403
14.0,571,42886.331872
5.0,348,42991.385377
13.0,519,43139.23765
5.0,323,43215.390242
9.0,415,43326.151766
5.0,293,43432.148967
6.0,379,43510.889156
7.0,431,43653.082491
3.0,232,43694.073169
5.0,290,43769.96773
10.0,526,43919.484255
7.0,427,44065.522149
7.0,390,44174.737512
14.0,484,44293.134466
21.0,641,44476.878944
8.0,413,44588.67384
9.0,459,44728.824784
11.0,520,44877.062854
7.0,379,44986.929005
7.0,393,45096.916309
5.0,311,45171.343554
5.0,327,45246.136586
8.0,400,45359.725134
7.0,377,45466.249348
13.0,569,45653.624762
10.0,488,45764.331071
4.0,278,45840.064064
9.0,364,45949.000083
8.0,434,46060.195695
5.0,349,46169.424222
4.0,260,46242.709459
9.0,346,46318.303838
9.0,529,46466.884663
10.0,516,46613.756369
8.0,429,46759.380089
8.0,439,46869.905653
10.0,564,47015.99513
6.0,365,47122.577554
5.0,293,47197.371142
13.0,614,47378.882986
3.0,228,47448.55332
7.0,387,47526.306012
6.0,344,47632.749579
4.0,283,47706.586444
8.0,454,47851.61631
12.0,449,47963.265854
7.0,363,48067.276407
8.0,462,48181.499638
5.0,331,48285.396998
8.0,443,48396.676668
7.0,373,48504.590544
10.0,529,48649.351827
5.0,312,48723.310799
12.0,477,48863.059532
4.0,276,48935.136963
15.0,644,49111.60496
12.0,630,49292.345826
10.0,520,49434.340503
11.0,446,49542.836236
6.0,340,49617.102519
5.0,308,49726.219354
10.0,570,49873.388717
3.0,228,49945.439075
7.0,379,50055.340533
4.0,261,50129.553828
5.0,332,50204.632556
6.0,378,50315.087539
6.0,399,50425.203438
6.0,357,50533.61448
9.0,472,50642.69956
5.0,295,50717.613239
6.0,344,50825.120555
5.0,326,50899.00851
12.0,474,51041.663775
5.0,310,51116.408217
7.0,250,51189.165534
5.0,308,51267.095582
11.0,444,51405.96007
9.0,344,51480.474187
9.0,430,51621.167642
6.0,359,51694.371127
6.0,341,51801.729621
8.0,414,51910.060167
9.0,460,52020.235805
14.0,562,52196.053304
16.0,507,52340.225478
8.0,408,52446.68003
9.0,356,52521.72174
12.0,429,52663.945512
5.0,293,52736.874999
16.0,627,52919.568789
9.0,450,53032.084056
5.0,308,53106.555132
6.0,377,53216.667172
8.0,429,53329.183517
3.0,236,53399.259076
16.0,475,53546.970738
12.0,607,53694.909121
7.0,387,53802.469214
15.0,581,53977.984484
11.0,456,54085.495218
10.0,491,54224.974287
7.0,423,54336.139736
4.0,265,54406.682145
9.0,470,54545.672821
5.0,305,54618.612538
7.0,403,54723.348875
8.0,396,54829.731333
10.0,511,54972.460165
5.0,312,55042.328066
4.0,296,55113.908655
9.0,503,55255.026952
6.0,377,55360.071069
11.0,392,55482.661675
12.0,606,55646.09581
15.0,622,55849.224968
9.0,494,56010.896459
11.0,472,56172.944341
9.0,486,56298.172776
9.0,463,56449.438977
13.0,578,56611.113547
7.0,372,56732.952295
10.0,432,56860.559841
7.0,395,56983.417358
9.0,515,57149.203433
6.0,341,57265.937185
6.0,361,57352.990805
8.0,447,57507.514396
12.0,572,57670.298475
3.0,237,57750.659295
5.0,310,57830.448973
11.0,472,57987.533617
6.0,423,58109.190487
3.0,230,58192.077242
6.0,341,58273.063952
6.0,399,58389.699256
7.0,373,58510.189939
4.0,274,58588.891936
16.0,502,58748.790122
11.0,581,58909.652775
6.0,379,59029.766058
5.0,350,59143.123588
6.0,358,59231.480575
11.0,421,59389.965074
12.0,627,59551.32116
11.0,480,59706.129029
10.0,527,59870.4981
7.0,450,59993.262491
5.0,350,60113.238874
9.0,385,60232.178593
5.0,329,60312.79515
16.0,567,60516.217897
5.0,312,60595.331642
7.0,394,60718.545823
4.0,281,60796.285103
7.0,420,60918.012666
2.0,221,60996.452963
6.0,322,61079.040851
9.0,449,61234.738182
12.0,516,61396.326693
20.0,682,61598.233479
5.0,318,61677.888137
10.0,506,61834.007146
10.0,422,61956.016543
7.0,410,62080.217458
9.0,451,62239.159579
2.0,224,62284.003084
4.0,280,62401.675189
7.0,389,62489.920031
10.0,390,62613.985627
5.0,351,62735.998777
6.0,355,62850.173446
8.0,452,62975.439862
10.0,500,63132.732862
6.0,378,63249.884538
8.0,456,63370.59628
18.0,618,63569.336689
11.0,472,63690.034785
6.0,378,63813.073325
7.0,394,63928.995708
7.0,422,64050.471502
7.0,391,64169.729611
3.0,251,64247.694221
7.0,431,64402.083808
9.0,478,64528.896877
8.0,456,64691.07873
5.0,367,64778.486353
10.0,527,64936.877477
13.0,564,65130.317398
8.0,435,65247.477346
10.0,550,65408.659565
7.0,413,65526.681706
9.0,473,65693.047005
9.0,486,65852.55206
4.0,278,65941.9308
10.0,488,66066.7966
9.0,491,66228.016172
5.0,329,66312.088968
6.0,396,66428.728168
12.0,533,66618.396541
11.0,456,66742.338794
28.0,826,67001.425734
4.0,300,67122.263149
10.0,535,67281.484955
10.0,520,67442.59643
8.0,462,67564.138732
9.0,487,67724.096845
8.0,453,67842.904833
3.0,276,67922.098985
10.0,359,68039.573624
10.0,539,68200.921783
8.0,425,68323.587503
3.0,274,68403.454887
5.0,353,68524.740622
11.0,551,68686.94509
6.0,359,68804.960559
8.0,426,68930.063174
9.0,467,69089.12171
6.0,356,69171.528857
10.0,534,69332.737457
7.0,368,69452.648556
8.0,420,69571.436382
8.0,422,69694.615921
6.0,337,69807.231623
4.0,266,69889.141569
6.0,358,70010.644627
9.0,460,70133.545134
9.0,459,70297.458987
10.0,507,70419.350005
7.0,363,70540.446347
8.0,474,70699.861055
8.0,456,70818.064114
8.0,452,70973.76414
15.0,584,71136.869122
12.0,476,71289.23318
8.0,461,71410.155289
6.0,339,71522.803478
6.0,398,71641.422114
8.0,416,71763.166574
6.0,373,71878.181354
13.0,508,72035.711713
12.0,626,72193.238559
7.0,381,72307.736227
8.0,449,72457.888345
9.0,521,72616.283309
10.0,559,72770.979259
6.0,362,72887.403374
8.0,413,73002.155651
8.0,483,73121.584322
5.0,296,73236.014422
7.0,412,73351.191257
6.0,337,73435.089001
12.0,518,73591.863132
8.0,456,73749.67037
6.0,357,73830.552461
4.0,260,73907.437293
9.0,498,74061.01445
14.0,531,74206.738701
7.0,421,74315.433403
7.0,386,74420.160026
7.0,401,74529.567037
7.0,392,74634.05313
7.0,420,74741.109301
8.0,478,74883.372922
7.0,391,74994.393023
10.0,512,75136.852102
9.0,386,75243.501899
8.0,446,75352.715934
8.0,419,75459.942223
12.0,607,75630.883793
11.0,476,75740.047869
10.0,566,75914.214865
6.0,355,75987.004091
3.0,211,76053.238666
5.0,313,76127.009284
7.0,377,76231.610048
4.0,298,76303.319436
11.0,610,76479.553224
8.0,442,76588.077944
4.0,278,76664.478974
8.0,496,76803.325263
9.0,509,76946.674733
8.0,435,77057.339589
7.0,420,77168.72459
6.0,373,77275.185906
13.0,606,77458.509182
8.0,448,77573.752331
13.0,496,77719.454056
7.0,393,77827.571766
9.0,508,77974.325085
6.0,315,78046.883195
8.0,391,78154.265308
8.0,437,78263.927636
7.0,405,78376.094967
8.0,463,78518.193383
3.0,216,78589.491557
8.0,444,78702.406511
7.0,370,78811.51132
5.0,349,78889.40991
12.0,520,79036.086194
6.0,400,79147.395363
4.0,240,79218.683277
3.0,214,79287.933591
7.0,381,79364.426468
4.0,280,79470.119844
7.0,430,79572.896544
11.0,590,79726.196455
6.0,359,79833.12422
13.0,514,79977.380944
10.0,504,80117.943238
4.0,261,80190.600795
12.0,467,80298.206483
2.0,185,80367.173202
3.0,268,80440.608408
8.0,433,80551.930201
9.0,500,80692.720087
7.0,408,80794.447954
8.0,416,80898.808009
8.0,462,81005.041287
9.0,480,81136.868116
4.0,273,81205.908118
8.0,451,81306.04511
6.0,376,81403.891228
13.0,624,81571.440834
6.0,363,81670.662173
11.0,582,81807.650679
7.0,407,81908.845468
5.0,311,82006.054475
9.0,458,82109.712682
9.0,423,82209.646363
8.0,498,82341.16362
11.0,516,82475.67497
5.0,351,82572.799147
11.0,533,82708.235687
4.0,302,82775.315466
7.0,408,82876.803473
7.0,391,82979.273196
5.0,298,83046.277203
4.0,279,83115.081241
4.0,302,83185.628967
6.0,327,83285.592536
7.0,385,83394.953753
11.0,533,83533.627462
9.0,455,83641.718121
13.0,570,83808.075412
6.0,358,83885.685083
14.0,458,84018.40288
6.0,322,84088.620609
7.0,352,84187.703083
5.0,290,84255.609962
8.0,499,84389.927313
1.0,152,84423.371991
5.0,288,84491.410908
7.0,419,84595.686224
9.0,493,84725.27133
11.0,461,84831.972236
13.0,559,85001.014852
11.0,553,85140.955698
5.0,311,85210.866804
15.0,599,85377.571433
7.0,370,85450.704234
5.0,314,85547.510715
11.0,429,85648.477132
10.0,502,85780.759348
12.0,539,85912.306435
20.0,792,86106.38071
7.0,406,86204.03389
16.0,614,86361.839768
10.0,379,86458.059212
8.0,425,86553.888603
1.0,176,86587.085242
13.0,500,86716.681683
12.0,595,86845.861428
10.0,571,87003.314943
11.0,523,87132.617591
7.0,398,87227.370703
8.0,434,87325.211114
4.0,301,87390.685499
9.0,471,87515.888017
8.0,456,87616.210585
6.0,419,87739.225348
9.0,329,87806.377969
7.0,452,87904.437973
7.0,248,87966.351748
4.0,278,88031.502207
5.0,350,88125.226762
10.0,510,88253.431699
12.0,620,88414.01207
11.0,532,88545.199423
2.0,223,88580.808312
16.0,667,88741.629531
10.0,520,88871.785473
6.0,376,88966.553491
11.0,529,89094.967019
16.0,578,89252.362916
7.0,406,89348.113879
12.0,419,89444.260623
7.0,427,89542.143291
8.0,443,89637.898931
5.0,296,89732.13974
13.0,520,89831.781253
9.0,452,89957.748762
9.0,499,90084.877869
6.0,327,90162.174159
7.0,430,90277.656384
13.0,527,90420.22172
14.0,597,90607.253097
5.0,312,90682.682582
12.0,456,90826.86886
11.0,541,90976.96169
7.0,450,91089.110692
17.0,553,91238.476487
10.0,490,91387.360256
8.0,424,91497.225409
13.0,334,91605.442622
15.0,633,91786.223657
8.0,476,91902.903151
10.0,444,92048.436501
11.0,566,92200.026201
9.0,420,92311.780683
7.0,396,92422.544074
8.0,435,92530.390694
7.0,387,92642.50696
10.0,495,92787.118628
14.0,549,92932.951725
7.0,390,93038.800078
14.0,560,93216.965262
14.0,638,93369.752723
9.0,456,93512.907503
7.0,389,93628.79986
5.0,311,93703.294587
6.0,428,93814.66684
6.0,360,93924.119741
9.0,345,94034.433391
10.0,534,94183.417877
14.0,519,94327.44614
6.0,359,94407.283712
9.0,546,94558.851273
7.0,382,94668.780669
16.0,553,94854.743739
13.0,549,95001.527841
7.0,415,95113.334061
9.0,506,95261.470074
9.0,450,95378.754782
7.0,378,95491.188695
14.0,549,95636.302441
10.0,501,95777.505303
11.0,545,95923.49977
2.0,223,95992.88408
8.0,405,96103.951911
6.0,378,96214.065737
17.0,606,96366.575577
7.0,405,96476.607407
7.0,374,96584.843671
9.0,568,96735.892793
16.0,553,96916.475848
14.0,538,97066.405616
8.0,435,97175.360865
7.0,425,97285.182729
12.0,559,97468.504247
8.0,453,97583.94612
7.0,366,97691.144157
20.0,722,97876.155812
6.0,379,97982.64082
6.0,358,98092.870086
7.0,406,98200.604995
10.0,462,98316.004883
14.0,546,98462.686104
17.0,637,98641.129571
9.0,428,98784.068729
6.0,343,98858.230309
12.0,644,99040.699402
8.0,440,99149.097845
9.0,497,99297.066801
8.0,448,99439.773725
3.0,274,99516.889304
6.0,324,99593.762105
11.0,610,99775.278054
11.0,592,99930.632022
8.0,449,100078.724047
5.0,329,100159.030644
6.0,361,100261.682847
5.0,323,100341.824604
5.0,344,100446.986308
8.0,320,100523.129311
7.0,387,100638.214691
8.0,410,100752.477482
15.0,605,100935.560591
7.0,407,101045.212066
11.0,573,101192.351973
7.0,402,101300.140867
6.0,380,101407.150069
10.0,474,101554.789611
9.0,421,101660.326793
14.0,586,101806.782018
7.0,367,101918.920726
8.0,475,102064.188731
8.0,409,102174.987149
6.0,378,102287.282894
13.0,597,102435.356211
5.0,309,102511.250132
13.0,551,102695.926985
6.0,360,102775.317626
10.0,505,102922.579516
7.0,430,103032.602439
8.0,412,103169.533783
10.0,507,103290.58565
13.0,590,103468.386424
7.0,414,103579.02353
3.0,212,103647.34234
3.0,249,103688.41729
10.0,470,103837.206315
11.0,557,103982.0999
8.0,461,104123.795021
8.0,455,104235.090459
11.0,556,104382.760501
12.0,503,104529.478754
8.0,410,104641.356413
9.0,498,104789.363599
9.0,397,104895.694783
11.0,560,105046.690671
7.0,405,105155.288658
7.0,370,105266.528598
10.0,479,105419.061742
12.0,479,105534.54388
7.0,393,105642.863613
13.0,511,105782.393958
9.0,442,105921.281538
7.0,426,106032.086165
7.0,427,106142.262034
13.0,524,106287.31219
18.0,578,106437.792865
11.0,485,106581.722399
8.0,442,106726.199091
10.0,511,106842.259422
13.0,635,107029.790937
8.0,458,107172.685484
6.0,347,107249.546614
9.0,465,107393.723958
6.0,352,107472.01254
9.0,475,107619.955066
8.0,442,107727.32643
16.0,620,107911.550042
12.0,449,108054.890203
5.0,282,108128.57866
8.0,471,108240.246531
13.0,558,108391.588731
4.0,318,108496.383846
13.0,501,108643.280745
5.0,307,108717.370103
7.0,397,108828.413778
5.0,292,108904.430994
8.0,408,109014.859133
12.0,464,109160.345589
14.0,538,109308.640425
8.0,440,109423.513568
9.0,481,109568.554814
9.0,439,109678.840706
9.0,453,109818.681486
19.0,526,109964.510075
14.0,674,110146.93098
6.0,333,110224.208489
20.0,625,110400.042356
8.0,440,110514.607091
10.0,468,110660.77645
6.0,401,110772.533488
11.0,541,110921.248773
8.0,460,111037.786704
18.0,595,111223.109697
9.0,449,111335.91263
12.0,629,111514.803962
5.0,328,111622.554926
8.0,470,111735.218126
8.0,479,111881.253742
8.0,462,111995.74961
12.0,594,112180.016872
11.0,568,112335.78552
10.0,531,112482.262345
15.0,546,112635.194031
5.0,318,112743.08716
6.0,353,112823.542964
7.0,389,112937.524514
8.0,451,113074.735694
11.0,538,113223.760508
7.0,424,113334.101095
11.0,422,113455.338667
12.0,588,113636.051764
8.0,463,113750.722589
14.0,609,113934.396299
15.0,472,114048.067569
11.0,581,114239.942756
8.0,467,114353.425927
8.0,438,114500.147745
4.0,280,114573.826087
11.0,556,114720.86885
9.0,524,114871.74857
8.0,455,114989.533997
7.0,428,115138.889263
11.0,559,115289.954963
5.0,309,115370.659398
4.0,321,115476.979074
8.0,478,115592.137057
10.0,510,115739.203858
14.0,568,115916.650829
11.0,475,116030.621157
7.0,389,116137.099425
6.0,381,116246.761403
9.0,481,116392.774184
8.0,473,116501.542712
9.0,468,116644.972523
12.0,563,116792.168196
8.0,464,116901.538654
8.0,437,117045.011885
6.0,378,117152.298451
7.0,410,117264.267356
7.0,376,117369.290369
11.0,584,117520.746156
9.0,505,117664.662178
7.0,362,117771.565699
12.0,570,117917.51985
16.0,681,118102.016274
8.0,456,118243.595023
12.0,618,118393.322999
8.0,452,118534.007009
8.0,439,118642.169168
12.0,525,118782.815544
15.0,703,118967.245213
4.0,295,119077.839827
8.0,444,119188.856653
12.0,564,119335.619658
10.0,489,119481.723377
11.0,504,119630.363944
6.0,323,119708.335749
10.0,455,119850.887474
13.0,524,119996.36178
10.0,508,120144.440671
14.0,649,120303.590414
11.0,409,120449.082563
13.0,585,120605.414257
11.0,532,120756.391065
12.0,563,120907.58691
9.0,457,121053.190499
12.0,553,121201.099616
12.0,592,121381.450455
8.0,473,121495.009706
9.0,485,121640.106775
17.0,570,121789.510315
7.0,405,121902.035283
14.0,693,122115.188127
12.0,607,122259.5819
16.0,653,122448.814563
9.0,468,122600.353416
2.0,203,122643.005242
10.0,469,122794.449838
11.0,495,122914.279527
9.0,422,123057.549312
14.0,627,123208.057183
18.0,769,123430.124028
12.0,605,123615.847734
16.0,702,123808.205877
3.0,254,123882.418471
4.0,262,123957.88718
9.0,469,124107.970782
15.0,626,124260.942659
14.0,660,124480.099059
9.0,471,124592.704746
8.0,477,124737.486948
5.0,333,124817.175408
14.0,573,124988.965696
7.0,378,125058.443046
5.0,312,125153.270111
10.0,499,125284.425795
22.0,698,125446.532615
7.0,401,125546.970233
12.0,591,125681.873758
12.0,609,125851.049866
3.0,233,125918.770662
16.0,747,126114.610045
10.0,462,126216.067928
7.0,408,126311.760747
10.0,476,126441.019928
13.0,625,126578.193802
13.0,571,126738.870054
12.0,547,126863.898143
13.0,682,127022.093397
7.0,373,127118.314544
13.0,627,127281.599367
11.0,508,127413.021966
8.0,451,127507.828346
13.0,560,127637.904161
8.0,438,127764.228907
11.0,599,127895.168426
10.0,518,128022.680289
7.0,374,128116.865168
7.0,407,128210.798437
8.0,432,128310.02907
10.0,395,128406.159314
14.0,571,128565.417377
7.0,396,128662.324681
12.0,597,128795.624605
10.0,536,128925.412717
10.0,521,129049.366076
8.0,275,129111.108397
22.0,636,129270.479422
22.0,647,129425.958357
7.0,364,129516.383694
5.0,327,129583.426873
12.0,572,129733.596094
15.0,613,129862.408371
10.0,530,129990.347501
9.0,469,130112.383048
9.0,426,130207.946356
12.0,463,130334.797104
12.0,534,130462.233885
10.0,470,130559.03548
4.0,280,130623.349498
5.0,317,130714.678299
7.0,390,130810.669377
7.0,390,130905.840276
14.0,530,131032.490117
11.0,548,131161.984746
10.0,539,131291.725364
9.0,509,131413.363642
14.0,600,131541.35594
9.0,462,131668.167203
6.0,361,131738.577119
8.0,426,131864.102465
17.0,589,131993.935341
8.0,413,132090.277133
16.0,601,132243.763287
8.0,484,132369.554875
8.0,460,132465.598082
7.0,419,132562.075385
4.0,261,132622.718226
6.0,361,132714.454289
11.0,573,132845.348979
10.0,524,132971.429358
19.0,694,133155.937404
7.0,375,133220.590837
10.0,515,133342.378948
9.0,363,133437.461005
6.0,359,133530.902996
8.0,437,133627.695632
9.0,472,133753.620632
6.0,333,133819.416069
11.0,561,133950.577303
3.0,254,134013.214676
12.0,591,134166.327383
12.0,567,134295.434977
15.0,528,134421.835226
3.0,211,134481.405775
15.0,556,134610.939001
21.0,714,134772.916867
21.0,587,134933.609333
9.0,457,135027.218401
9.0,469,135148.613797
8.0,441,135245.038714
20.0,756,135431.183733
9.0,456,135527.511222
13.0,539,135653.200367
14.0,533,135807.202576
16.0,584,135940.487131
12.0,584,136073.302622
2.0,186,136132.831537
13.0,673,136300.926963
8.0,457,136399.468498
14.0,574,136561.637054
8.0,461,136656.976884
6.0,343,136751.292661
10.0,395,136846.285586
6.0,350,136915.363626
14.0,648,137071.293075
7.0,351,137164.386987
5.0,308,137228.026119
6.0,321,137321.723562
8.0,450,137417.552943
6.0,349,137508.512791
13.0,644,137668.289931
6.0,337,137736.269789
19.0,597,137896.678679
13.0,478,137997.189174
7.0,394,138093.387372
10.0,554,138249.400546
14.0,555,138370.489482
12.0,589,138500.201387
5.0,293,138564.930952
14.0,592,138719.929323
9.0,453,138817.868863
11.0,614,138972.285384
13.0,632,139126.805463
9.0,524,139253.997749
13.0,598,139384.589649
7.0,425,139505.61737
11.0,576,139632.861916
8.0,435,139728.256878
8.0,400,139824.018064
9.0,308,139915.713006
9.0,486,140011.875984
10.0,520,140141.599442
16.0,621,140300.440517
8.0,439,140397.889846
12.0,531,140521.576217
18.0,790,140712.065609
12.0,425,140833.727722
8.0,425,140927.976523
10.0,557,141059.543412
12.0,547,141189.69699
16.0,589,141344.066109
18.0,639,141497.03294
15.0,714,141656.215925
8.0,412,141753.531602
22.0,680,141909.714158
12.0,588,142070.714409
8.0,406,142168.50203
6.0,381,142265.891683
4.0,282,142331.273138
16.0,460,142426.759785
17.0,652,142585.667694
5.0,324,142675.663747
10.0,538,142803.037402
12.0,581,142934.3936
19.0,769,143128.689253
14.0,574,143288.906774
10.0,395,143383.947964
6.0,330,143447.565045
11.0,547,143574.509854
16.0,576,143727.083212
11.0,546,143854.49878
8.0,449,143949.668291
7.0,432,144045.216429
8.0,427,144158.610848
5.0,312,144217.252732
4.0,280,144273.792924
14.0,605,144411.409414
9.0,473,144496.321884
7.0,405,144577.922927
9.0,459,144684.350501
12.0,558,144794.035203
5.0,370,144874.724846
8.0,350,144932.105025
16.0,642,145067.649985
16.0,524,145176.406023
14.0,584,145310.559144
19.0,694,145448.370665
3.0,248,145502.419243
14.0,666,145640.279208
8.0,393,145723.413117
13.0,612,145861.42342
19.0,628,145975.905737
14.0,585,146112.159333
12.0,573,146222.734422
7.0,426,146328.625311
12.0,580,146438.95541
15.0,712,146576.539254
12.0,576,146709.177365
6.0,315,146763.905873
14.0,573,146895.391996
14.0,592,147003.960133
10.0,566,147112.091578
12.0,548,147242.846025
15.0,618,147352.541394
9.0,451,147456.750262
6.0,330,147512.096959
15.0,626,147644.933623
6.0,371,147724.857961
4.0,243,147754.35727
13.0,474,147860.877424
7.0,429,147942.978134
8.0,418,148025.348718
13.0,369,148105.855424
7.0,390,148187.977345
11.0,568,148323.536016
14.0,552,148433.534128
18.0,576,148544.034608
4.0,280,148597.631854
16.0,616,148731.598669
18.0,620,148865.633842
23.0,741,149002.126411
14.0,553,149133.563815
20.0,795,149296.041204
8.0,452,149378.430527
9.0,487,149485.041688
16.0,619,149594.961148
9.0,471,149700.410157
6.0,356,149779.54038
13.0,613,149889.152859
7.0,407,149970.351329
18.0,553,150103.151218
15.0,599,150215.775812
11.0,602,150364.53111
16.0,646,150514.346135
10.0,515,150633.053869
13.0,561,150754.976243
5.0,306,150815.993966
15.0,620,150965.685419
17.0,701,151119.933133
18.0,684,151300.276641
5.0,330,151364.054823
12.0,611,151515.146924
9.0,507,151635.988091
6.0,345,151699.093279
8.0,449,151817.386804
11.0,458,151910.712762
7.0,414,152001.784314
13.0,502,152121.403898
11.0,542,152241.16134
12.0,516,152361.770278
5.0,367,152450.245063
9.0,478,152542.185861
8.0,459,152660.50301
16.0,576,152781.606704
9.0,476,152901.115847
13.0,627,153050.416394
8.0,464,153143.39693
14.0,566,153265.865869
16.0,760,153444.971628
9.0,464,153568.108214
12.0,626,153720.460925
18.0,692,153871.763026
10.0,501,153990.646555
6.0,380,154080.016679
12.0,539,154202.210343
7.0,393,154293.003048
15.0,521,154414.405839
5.0,322,154477.469133
6.0,376,154569.235237
13.0,651,154722.084404
10.0,574,154846.438952
12.0,569,154970.468865
10.0,482,155089.795698
8.0,481,155207.562389
14.0,574,155330.773151
14.0,663,155481.185192
4.0,256,155542.318551
7.0,397,155631.905124
6.0,333,155718.833764
8.0,471,155812.068079
4.0,257,155872.519907
8.0,443,155965.325272
12.0,606,156113.971549
14.0,651,156261.727345
7.0,406,156341.869005
15.0,467,156447.531071
11.0,533,156554.631681
6.0,336,156610.184712
17.0,631,156743.456897
12.0,445,156825.143739
10.0,416,156929.103039
8.0,478,157011.8403
11.0,539,157119.238176
18.0,587,157252.051037
13.0,533,157361.207496
4.0,302,157417.859497
12.0,469,157527.689564
9.0,504,157615.634885
18.0,671,157779.576612
11.0,563,157891.747529
8.0,440,157976.039124
6.0,338,158056.319008
10.0,457,158140.469617
15.0,616,158285.146485
19.0,751,158464.049751
17.0,624,158588.270741
12.0,581,158735.984299
7.0,409,158827.169566
9.0,451,158919.736919
12.0,438,159037.296969
15.0,611,159160.912251
11.0,604,159309.092498
14.0,507,159429.065999
9.0,481,159522.343371
9.0,460,159642.265404
24.0,836,159826.593027
5.0,369,159915.29742
8.0,459,160033.425232
5.0,312,160095.974607
11.0,521,160215.074019
11.0,576,160338.523204
9.0,467,160457.469983
4.0,279,160519.397002
14.0,586,160645.054703
18.0,697,160827.256604
6.0,329,160891.327829
13.0,447,161014.606788
5.0,330,161080.339713
9.0,459,161175.936418
13.0,556,161329.897214
11.0,576,161458.176254
8.0,461,161579.767931
7.0,370,161644.989471
6.0,345,161735.82473
8.0,409,161828.507174
6.0,320,161892.529674
14.0,619,162046.513618
11.0,518,162167.152181
17.0,615,162318.905667
15.0,639,162472.057495
19.0,705,162611.432379
14.0,612,162725.351843
9.0,445,162795.532079
5.0,312,162842.937384
9.0,462,162932.805372
9.0,485,163024.122012
11.0,561,163116.916669
8.0,445,163187.311751
13.0,489,163278.608475
9.0,472,163376.890841
12.0,575,163480.544525
11.0,540,163575.601868
12.0,575,163671.666447
10.0,541,163789.320241
9.0,481,163865.584382
10.0,537,163963.75909
11.0,548,164061.337459
16.0,710,164203.251898
11.0,628,164321.098986
8.0,421,164392.59963
8.0,439,164464.685987
10.0,547,164560.206359
10.0,580,164676.152397
17.0,822,164817.29126
9.0,477,164907.911684
15.0,604,165001.865678
11.0,607,165117.814457
9.0,459,165191.267078
4.0,261,165239.12343
27.0,892,165396.699895
10.0,549,165485.718324
7.0,407,165551.466699
13.0,658,165657.586288
15.0,642,165761.253485
9.0,506,165843.140088
11.0,424,165905.015552
9.0,499,165986.601041
16.0,760,166108.860369
7.0,425,166171.597776
10.0,490,166253.109328
9.0,514,166334.608287
10.0,484,166415.736769
8.0,416,166477.7451
9.0,515,166558.983988
13.0,452,166622.329048
11.0,573,166704.57034
8.0,442,166784.024743
16.0,689,166892.320581
19.0,789,167023.589614
7.0,407,167091.27431
14.0,622,167202.127432
11.0,504,167290.355902
9.0,510,167377.798404
13.0,643,167488.594367
13.0,607,167578.906232
13.0,609,167691.628436
9.0,491,167781.28423
10.0,455,167850.150427
9.0,506,167939.018916
12.0,579,168029.446777
11.0,560,168118.326843
10.0,504,168205.481479
14.0,510,168292.833775
15.0,539,168380.980672
11.0,514,168468.243717
11.0,560,168556.696653
7.0,400,168622.11065
17.0,682,168751.084794
11.0,568,168839.061791
16.0,712,168949.851112
8.0,425,169034.950543
11.0,457,169102.154171
12.0,492,169189.037298
15.0,693,169299.526959
13.0,513,169386.512006
6.0,359,169451.288551
10.0,496,169538.406717
16.0,605,169627.920735
10.0,509,169715.515464
11.0,529,169803.074319
6.0,396,169869.292673
16.0,650,169980.564117
33.0,1054,170161.253202
8.0,412,170229.34032
14.0,613,170339.706492
8.0,452,170407.844515
16.0,580,170515.397206
10.0,348,170561.020158
15.0,548,170667.378214
10.0,410,170733.654983
25.0,842,170866.394649
11.0,576,170955.071102
7.0,427,171040.079231
9.0,478,171107.728452
10.0,498,171194.536951
11.0,524,171281.964931
11.0,585,171389.504032
13.0,599,171478.559433
13.0,600,171586.529873
13.0,513,171674.134223
8.0,431,171740.589764
5.0,293,171785.174924
13.0,577,171874.024089
9.0,418,171959.024186
13.0,615,172048.378777
8.0,385,172114.109179
14.0,565,172224.228249
14.0,711,172338.077843
9.0,469,172426.449619
13.0,627,172518.073702
10.0,453,172605.436989
12.0,580,172694.344168
8.0,441,172760.807218
11.0,475,172847.347801
12.0,611,172955.958901
21.0,696,173066.550745
11.0,544,173154.427722
12.0,554,173242.316658
6.0,322,173303.32426
17.0,513,173383.181011
14.0,575,173464.497208
11.0,558,173546.37172
10.0,498,173626.311313
12.0,581,173725.698969
10.0,503,173788.062945
15.0,585,173887.83562
9.0,508,173968.084154
13.0,636,174068.866272
19.0,640,174152.843376
10.0,505,174235.4896
28.0,733,174358.447495
10.0,551,174442.829769
15.0,524,174526.545894
21.0,800,174649.910406
14.0,561,174749.741392
9.0,462,174812.339546
11.0,508,174892.371166
18.0,606,174991.53464
9.0,494,175053.772832
15.0,527,175134.336096
13.0,595,175233.154674
5.0,334,175274.497127
8.0,459,175353.849812
14.0,626,175453.90964
12.0,547,175534.058593
19.0,792,175654.801573
9.0,450,175715.413821
11.0,509,175795.836062
12.0,569,175877.502984
11.0,555,175977.137198
6.0,396,176039.380982
13.0,520,176122.319201
11.0,574,176206.150033
21.0,819,176330.157537
11.0,501,176410.135964
7.0,375,176470.621439
10.0,465,176532.298187
8.0,492,176612.286889
10.0,489,176692.305017
9.0,491,176771.71643
22.0,749,176873.52875
10.0,477,176952.644373
14.0,507,177031.948285
16.0,602,177113.551445
13.0,621,177213.237763
10.0,483,177292.639132
23.0,726,177393.154223
6.0,358,177451.950631
13.0,535,177532.199801
11.0,534,177612.438031
14.0,602,177711.819537
14.0,626,177811.412027
10.0,518,177873.470954
17.0,606,177973.379533
12.0,490,178054.771526
16.0,719,178158.296756
12.0,460,178237.648593
15.0,624,178337.457157
12.0,537,178417.853977
6.0,342,178458.91531
9.0,463,178538.026827
10.0,463,178600.109022
12.0,603,178699.353284
13.0,587,178780.788615
8.0,456,178859.441678
8.0,424,178920.060042
5.0,332,178961.877379
16.0,695,179080.167857
15.0,613,179162.028077
10.0,485,179241.513124
15.0,588,179341.208511
11.0,527,179421.702568
13.0,443,179482.179163
9.0,454,179543.517644
13.0,488,179623.294665
12.0,626,179723.147015
7.0,413,179783.724696
13.0,636,179883.628312
16.0,765,180004.636377
5.0,311,180045.375968
9.0,438,180106.861136
11.0,573,180206.86178
10.0,536,180289.447391
9.0,473,180352.500996
10.0,515,180435.104063
7.0,361,180495.885864
3.0,253,180536.70966
13.0,613,180637.506097
8.0,420,180698.205717
15.0,589,180779.978475
27.0,826,180918.873665
14.0,633,181002.027576
13.0,571,181101.232935
18.0,740,181202.714657
13.0,605,181301.745133
13.0,528,181382.033497
21.0,673,181483.05211
9.0,438,181561.990042
6.0,379,181604.513184
30.0,814,181743.727149
5.0,317,181784.163157
12.0,553,181864.736937
12.0,546,181945.583972
9.0,526,182026.444204
12.0,507,182106.581797
4.0,261,182147.329813
6.0,336,182206.893279
18.0,718,182310.464631
12.0,598,182413.473616
11.0,411,182475.907525
7.0,363,182536.186443
8.0,458,182598.359167
6.0,365,182658.041113
5.0,330,182699.972738
13.0,564,182798.443502
4.0,299,182839.898366
9.0,511,182919.733382
16.0,600,183001.82466
8.0,474,183080.822511
16.0,595,183162.311263
12.0,463,183241.646839
17.0,616,183340.23665
14.0,604,183422.607994
12.0,658,183523.176996
16.0,549,183604.111835
9.0,528,183685.08987
14.0,622,183785.689617
7.0,396,183846.483134
30.0,739,183967.451081
13.0,607,184050.341534
21.0,680,184172.056273
17.0,509,184254.347795
16.0,623,184338.821303
9.0,522,184422.539212
11.0,553,184505.883333
9.0,458,184587.436771
19.0,789,184712.626107
21.0,658,184815.631913
5.0,310,184857.691422
16.0,672,184959.047542
8.0,457,185039.275075
10.0,543,185120.662864
16.0,654,185222.500701
17.0,683,185325.30865
10.0,557,185424.320899
10.0,480,185486.265722
7.0,387,185545.913629
12.0,591,185645.229677
12.0,540,185726.149149
12.0,575,185807.473752
13.0,527,185887.495703
5.0,349,185947.029664
12.0,554,186028.373869
12.0,480,186107.92669
13.0,546,186189.277828
11.0,586,186271.403566
13.0,645,186371.125799
17.0,684,186473.048158
10.0,500,186553.708132
11.0,513,186635.086074
13.0,612,186737.903544
12.0,627,186840.593033
7.0,427,186902.317958
18.0,662,187004.202926
10.0,485,187067.151586
15.0,566,187165.814727
13.0,561,187246.51976
15.0,535,187327.535754
13.0,653,187428.966282
7.0,394,187489.550288
14.0,511,187569.060877
7.0,395,187629.327814
13.0,562,187710.339611
18.0,559,187791.483732
4.0,266,187831.014396
10.0,533,187929.701767
9.0,471,187991.420715
10.0,489,188071.425387
14.0,686,188173.55064
18.0,674,188275.157464
21.0,675,188376.096317
14.0,650,188476.873848
23.0,777,188599.361608
7.0,412,188661.526101
10.0,545,188762.911051
13.0,506,188827.359869
13.0,656,188930.909116
20.0,735,189052.143221
10.0,529,189132.658831
12.0,568,189213.489384
26.0,836,189353.104763
16.0,615,189453.229746
13.0,670,189554.570274
11.0,544,189635.550158
11.0,555,189716.790751
15.0,619,189816.276878
16.0,627,189916.688972
14.0,529,189997.050375
14.0,522,190077.513819
10.0,505,190139.641099
16.0,586,190239.280569
7.0,398,190300.003371
8.0,438,190360.466225
8.0,438,190421.542608
14.0,588,190521.191166
9.0,476,190601.252481
12.0,569,190683.494966
7.0,383,190745.241488
13.0,595,190829.256593
10.0,515,190910.59601
8.0,430,190972.102021
10.0,549,191070.378816
9.0,477,191131.845756
10.0,562,191230.914508
11.0,580,191312.935592
12.0,573,191394.747946
18.0,721,191513.653226
12.0,595,191595.779642
21.0,758,191715.999837
10.0,570,191815.206161
10.0,482,191876.749344
15.0,656,191977.640535
24.0,825,192116.586525
5.0,292,192157.123521
8.0,379,192216.640475
16.0,675,192317.419354
16.0,449,192378.513092
9.0,463,192457.981329
17.0,555,192542.557566
10.0,540,192628.026998
21.0,630,192734.752638
19.0,739,192842.375875
8.0,497,192924.639629
26.0,802,193049.419765
9.0,452,193131.391193
14.0,619,193234.126486
18.0,706,193337.478744
8.0,421,193398.905353
10.0,557,193481.406704
13.0,639,193583.020443
7.0,378,193643.308962
13.0,653,193744.743816
18.0,698,193845.835766
16.0,596,193944.687681
18.0,506,194024.674092
11.0,510,194105.042269
8.0,474,194165.960075
12.0,632,194264.545921
12.0,423,194325.304859
9.0,496,194403.960288
2.0,187,194424.609049
17.0,700,194542.487882
11.0,518,194621.864147
11.0,567,194702.59795
7.0,429,194766.418599
11.0,585,194871.423422
7.0,403,194934.61333
6.0,331,194977.08146
13.0,608,195077.402784
7.0,413,195138.274846
21.0,632,195238.094079
12.0,516,195318.021858
5.0,352,195359.805896
4.0,261,195399.393016
18.0,736,195517.385316
16.0,573,195597.423832
11.0,489,195676.361041
11.0,575,195756.429225
3.0,232,195795.692456
5.0,299,195835.649239
8.0,476,195914.305053
7.0,431,195974.284756
7.0,453,196053.822021
22.0,471,196118.142796
9.0,456,196200.273356
16.0,620,196287.550564
17.0,676,196422.168435
19.0,707,196549.014494
20.0,832,196712.083035
23.0,815,196905.493579
14.0,591,197020.239074
13.0,576,197158.442041
5.0,331,197217.232741
6.0,379,197303.709969
21.0,802,197485.829514
9.0,499,197606.669477
7.0,398,197697.999874
10.0,514,197818.91841
18.0,589,197942.597492
13.0,581,198093.580495
13.0,649,198244.853738
12.0,535,198369.6706
11.0,479,198463.670053
13.0,510,198586.218077
17.0,654,198739.557473
21.0,774,198924.188749
10.0,553,199049.538476
13.0,653,199206.065495
8.0,452,199330.042842
11.0,505,199454.273066
9.0,467,199551.024581
16.0,631,199707.049399
13.0,518,199833.124736
14.0,626,199989.731269
2.0,204,200023.790088
20.0,729,200209.44087
13.0,665,200363.368544
12.0,551,200486.541385
17.0,681,200641.338805
8.0,458,200761.974236
14.0,672,200917.614127
16.0,644,201071.543851
12.0,574,201197.255097
18.0,571,201323.62842
12.0,558,201473.165007
15.0,594,201598.463027
12.0,564,201751.667301
10.0,554,201877.427421
14.0,650,202029.360873
13.0,585,202156.704774
11.0,389,202249.817808
20.0,792,202437.973821
15.0,626,202593.540006
7.0,391,202687.677339
5.0,329,202754.282375
14.0,568,202909.023216
18.0,626,203065.937294
11.0,570,203192.999673
11.0,520,203314.738678
11.0,550,203439.607213
8.0,425,203532.336812
9.0,475,203654.330452
11.0,557,203776.970955
9.0,450,203870.923052
25.0,700,204052.863711
11.0,452,204147.820783
12.0,580,204299.047137
12.0,545,204423.17903
13.0,563,204549.031509
12.0,540,204672.092857
5.0,377,204762.833564
11.0,571,204889.188376
15.0,623,205044.048961
8.0,434,205139.232284
13.0,549,205291.927712
21.0,722,205450.562939
14.0,499,205573.90459
20.0,598,205730.712039
8.0,410,205826.664421
8.0,432,205921.056672
5.0,311,205984.260803
12.0,550,206111.545556
6.0,378,206207.054079
19.0,581,206358.960294
10.0,547,206484.812497
14.0,661,206640.073992
6.0,369,206731.038547
19.0,736,206891.525524
11.0,522,207014.127953
15.0,656,207167.171066
22.0,808,207354.959846
17.0,651,207509.141918
31.0,918,207754.050822
5.0,293,207816.71828
15.0,612,207942.333743
8.0,452,208062.747705
11.0,539,208186.171673
5.0,293,208248.169147
8.0,425,208343.341434
10.0,530,208470.570796
14.0,583,208626.070003
12.0,562,208753.920574
16.0,607,208911.794128
17.0,667,209073.565703
22.0,825,209264.39335
11.0,531,209387.692119
6.0,378,209476.550671
23.0,668,209628.968294
10.0,505,209749.645887
10.0,484,209868.336611
15.0,692,210019.933884
17.0,687,210173.104465
14.0,478,210291.655493
19.0,692,210448.990178
12.0,599,210601.857502
15.0,642,210755.221034
16.0,702,210911.883707
18.0,699,211065.454932
16.0,725,211246.589358
6.0,381,211337.752347
19.0,691,211492.597749
12.0,597,211643.506049
14.0,653,211797.239862
13.0,600,211924.308503
9.0,501,212045.209084
21.0,726,212200.918565
7.0,375,212292.202159
15.0,674,212445.654447
10.0,496,212567.235476
16.0,472,212687.42517
10.0,523,212811.623243
11.0,523,212933.019847
21.0,784,213115.539431
12.0,566,213237.574554
12.0,495,213360.98524
21.0,786,213550.576393
10.0,478,213675.088101
13.0,648,213803.11942
17.0,845,214015.077482
14.0,679,214169.402158
14.0,542,214293.193352
23.0,863,214500.465363
15.0,747,214672.246144
8.0,420,214757.517465
12.0,500,214865.693835
25.0,711,214997.708919
12.0,435,215075.13122
30.0,793,215225.989388
10.0,535,215327.389783
9.0,480,215427.53532
7.0,402,215500.676705
14.0,637,215620.56364
19.0,688,215741.39055
13.0,694,215883.714746
16.0,600,215981.437174
10.0,545,216078.480937
25.0,768,216224.188333
14.0,531,216313.172171
12.0,599,216414.174273
16.0,649,216515.385524
17.0,749,216633.840966
8.0,466,216695.234481
7.0,394,216755.269999
10.0,415,216815.84665
17.0,659,216916.93819
3.0,254,216956.707231
9.0,472,217036.091687
10.0,472,217097.790091
16.0,709,217216.369854
11.0,452,217276.745323
12.0,552,217356.813756
9.0,462,217434.755296
14.0,491,217512.971069
13.0,634,217594.825778
24.0,796,217718.072866
7.0,429,217797.289909
16.0,656,217906.283082
20.0,730,218033.196811
16.0,661,218155.409369
19.0,656,218277.98229
17.0,643,218401.43081
8.0,428,218496.581501
10.0,514,218572.726604
16.0,686,218716.191087
17.0,702,218840.020771
12.0,607,218960.889878
24.0,738,219081.152265
6.0,355,219140.580018
12.0,544,219219.900675
13.0,667,219320.210754
14.0,554,219402.461293
13.0,638,219504.225294
7.0,411,219565.191203
9.0,514,219644.760649
6.0,340,219703.650023
13.0,492,219782.198937
14.0,635,219881.35059
16.0,619,219963.245876
8.0,431,220023.524475
21.0,614,220122.180557
6.0,355,220181.6162
13.0,620,220280.167693
8.0,442,220340.916781
13.0,651,220440.905107
15.0,694,220543.644654
20.0,723,220666.607848
9.0,475,220730.626338
14.0,634,220832.855219
12.0,542,220914.299206
25.0,718,221034.048249
9.0,467,221097.070305
15.0,729,221220.764953
11.0,550,221306.286338
22.0,777,221437.721362
11.0,559,221524.743932
9.0,446,221610.124043
8.0,455,221676.947399
20.0,835,221825.66091
15.0,528,221911.199861
15.0,580,221999.627149
6.0,340,222064.818916
18.0,662,222176.742295
15.0,631,222270.198609
16.0,693,222405.50427
15.0,635,222519.344902
9.0,471,222588.737285
7.0,402,222656.38266
7.0,407,222722.481951
8.0,387,222787.765525
19.0,759,222917.851459
17.0,605,223025.125698
14.0,651,223134.257797
11.0,501,223201.996278
7.0,430,223287.569872
15.0,615,223377.37584
8.0,426,223462.765884
22.0,736,223573.736806
16.0,759,223704.505742
33.0,697,223814.949974
21.0,796,223946.932423
11.0,534,224053.820334
15.0,587,224143.387457
16.0,586,224233.537041
8.0,452,224321.433523
10.0,524,224412.232322
3.0,213,224436.753469
17.0,618,224549.240723
13.0,494,224637.710942
11.0,459,224705.754069
20.0,780,224837.641724
18.0,754,224969.177293
11.0,494,225056.906416
11.0,475,225143.897591
14.0,690,225254.692768
14.0,638,225364.525376
12.0,555,225453.026046
14.0,695,225563.731859
18.0,785,225695.721215
12.0,595,225804.321498
21.0,730,225916.887779
21.0,658,226030.995063
18.0,647,226144.427631
4.0,275,226189.972293
11.0,507,226279.311287
18.0,669,226390.840199
11.0,481,226477.989715
12.0,549,226566.547674
20.0,768,226699.44893
20.0,839,226852.865596
8.0,405,226919.570922
9.0,473,226987.548213
7.0,426,227054.277727
15.0,669,227165.151177
8.0,402,227250.634403
21.0,745,227363.25154
5.0,337,227428.41232
8.0,408,227495.31553
9.0,474,227563.761958
6.0,349,227629.073709
10.0,534,227717.45219
9.0,450,227803.880336
4.0,277,227848.388921
22.0,724,227961.797612
11.0,599,228074.158763
13.0,470,228144.221412
28.0,911,228302.530896
17.0,661,228412.018635
15.0,618,228517.557408
21.0,706,228623.672035
9.0,447,228703.697893
12.0,563,228783.77065
8.0,479,228862.45239
20.0,708,228962.64298
22.0,819,229082.511911
7.0,391,229141.397417
10.0,510,229221.099898
11.0,426,229281.17505
12.0,553,229380.827197
13.0,595,229463.843943
12.0,590,229564.802726
12.0,470,229626.860403
11.0,536,229706.981711
21.0,642,229805.280144
19.0,724,229923.709608
8.0,383,229983.214859
9.0,467,230044.532305
16.0,604,230144.055918
13.0,593,230225.342883
8.0,499,230304.507946
6.0,378,230364.376375
8.0,422,230425.291519
12.0,574,230523.382813
12.0,550,230603.571457
10.0,541,230684.488348
11.0,494,230765.969022
10.0,574,230848.497731
28.0,744,230968.432314
11.0,549,231048.739663
9.0,475,231115.357054
8.0,396,231149.00199
7.0,452,231209.707245
11.0,546,231272.407189
14.0,573,231335.268914
28.0,921,231457.435925
14.0,571,231520.744428
18.0,724,231599.771306
5.0,312,231644.956504
12.0,586,231708.250491
23.0,855,231816.362895
16.0,640,231893.848236
16.0,680,231972.074784
22.0,856,232067.087831
15.0,743,232159.851848
20.0,700,232251.655299
11.0,480,232299.437892
11.0,518,232361.957866
14.0,615,232438.97161
8.0,421,232486.204151
17.0,637,232563.750385
9.0,473,232611.755025
13.0,478,232672.960492
9.0,464,232734.135886
13.0,540,232796.772319
15.0,598,232860.469701
18.0,685,232936.293025
20.0,692,232998.053824
9.0,478,233031.4585
15.0,572,233082.776543
15.0,678,233136.39425
8.0,517,233178.483484
7.0,346,233201.143803
16.0,543,233252.433278
13.0,627,233296.707642
10.0,489,233338.499478
12.0,588,233390.306036
16.0,482,233423.574278
23.0,682,233477.127279
21.0,764,233540.210597
11.0,535,233582.619734
16.0,715,233644.797925
11.0,396,233676.457001
20.0,576,233719.483797
14.0,675,233772.660502
15.0,556,233823.9236
20.0,834,233888.201182
16.0,598,233940.107163
11.0,493,233973.589698
16.0,571,234024.739269
12.0,580,234068.142511
9.0,505,234110.22002
13.0,522,234152.597199
15.0,641,234205.002236
7.0,405,234236.836303
8.0,433,234269.09832
12.0,430,234301.341052
15.0,690,234362.963504
22.0,849,234427.57074
7.0,430,234459.987815
12.0,568,234511.457222
25.0,839,234575.80483
7.0,372,234606.877899
6.0,330,234629.154521
20.0,653,234681.854012
12.0,567,234733.105288
18.0,671,234786.319121
13.0,561,234829.242076
9.0,423,234861.472744
18.0,712,234923.723529
8.0,429,234956.074224
12.0,573,234999.201401
16.0,689,235060.789775
12.0,600,235104.306891
11.0,458,235145.480106
10.0,500,235187.353338
13.0,495,235220.948519
11.0,522,235263.332841
8.0,456,235304.410177
4.0,323,235326.653731
19.0,652,235379.537278
14.0,482,235421.009886
33.0,867,235485.789751
5.0,326,235516.300866
9.0,461,235549.164675
13.0,540,235600.064376
13.0,652,235652.849832
20.0,730,235707.07632
12.0,615,235759.414556
18.0,696,235813.069979
13.0,667,235866.272244
6.0,334,235896.891429
15.0,706,235950.73013
13.0,513,235992.84271
19.0,707,236046.878731
21.0,896,236120.684394
14.0,660,236173.784163
17.0,666,236226.592234
12.0,579,236278.160952
5.0,291,236299.789445
15.0,624,236352.053565
9.0,432,236384.520499
16.0,562,236427.553093
5.0,329,236458.153841
22.0,800,236522.057537
23.0,673,236575.395164
16.0,636,236627.91752
14.0,554,236670.722261
9.0,459,236711.899671
13.0,502,236745.457892
8.0,395,236777.073847
16.0,622,236829.142725
16.0,581,236880.617723
14.0,695,236934.39129
10.0,434,236966.773495
13.0,601,237018.596436
15.0,578,237061.583281
20.0,735,237124.201034
21.0,797,237187.726122
19.0,661,237240.755165
6.0,340,237271.497081
21.0,745,237325.963643
13.0,507,237367.995177
5.0,329,237398.418593
13.0,648,237451.141414
15.0,594,237494.63008
20.0,660,237547.652268
12.0,596,237599.442439
11.0,580,237642.832128
23.0,834,237715.576228
12.0,634,237759.592173
9.0,510,237801.796589
19.0,655,237854.557525
16.0,729,237917.085041
23.0,892,237990.688123
10.0,518,238032.952092
6.0,401,238064.728571
13.0,578,238107.935266
13.0,565,238151.083234
19.0,570,238202.436121
17.0,595,238246.063839
19.0,690,238307.759346
8.0,393,238331.017339
16.0,580,238382.77131
18.0,574,238425.872953
11.0,551,238468.683022
22.0,667,238529.985189
11.0,566,238573.083544
31.0,1004,238656.842969
8.0,449,238689.417411
19.0,598,238741.207935
12.0,602,238784.867064
17.0,471,238826.278921
14.0,612,238869.988053
17.0,482,238911.369712
16.0,651,238963.988155
11.0,589,239015.819842
9.0,433,239047.97901
25.0,778,239111.447653
21.0,684,239164.787824
12.0,535,239207.169679
21.0,691,239260.844335
21.0,525,239303.03366
15.0,649,239355.875141
18.0,764,239419.296369
30.0,818,239483.396335
6.0,401,239523.346508
26.0,895,239588.763785
20.0,451,239629.723021
18.0,669,239682.820696
10.0,524,239724.908552
13.0,599,239768.46494
11.0,403,239808.442766
16.0,616,239852.486106
19.0,724,239915.066776
17.0,674,239968.36032
18.0,602,240020.482107
17.0,643,240065.054589
8.0,408,240105.298176
10.0,485,240138.554548
9.0,486,240180.136037
3.0,223,240200.581694
11.0,531,240243.047529
7.0,395,240274.706839
16.0,636,240319.103647
24.0,693,240381.052302
20.0,789,240444.675754
18.0,678,240497.935972
12.0,584,240540.98657
15.0,526,240583.23107
11.0,468,240624.47346
22.0,841,240689.010094
22.0,793,240752.751461
12.0,569,240804.103062
14.0,638,240856.672477
8.0,438,240889.177042
19.0,646,240941.686178
12.0,579,240984.783206
16.0,730,241047.047771
21.0,647,241099.627867
8.0,464,241132.276106
21.0,783,241195.672467
18.0,806,241267.677059
18.0,775,241331.073618
10.0,498,241364.528371
17.0,648,241417.148525
16.0,727,241479.532119
11.0,533,241521.72265
21.0,502,241563.558597
14.0,655,241616.259179
22.0,810,241680.308687
20.0,729,241742.526203
20.0,624,241786.520899
16.0,739,241849.040643
17.0,648,241901.80551
16.0,713,241955.637908
16.0,659,242008.539055
7.0,368,242039.814703
17.0,625,242092.094322
12.0,623,242144.246001
10.0,473,242177.336099
9.0,516,242219.192435
19.0,602,242270.912603
18.0,709,242324.99681
15.0,537,242367.428125
15.0,694,242428.974498
27.0,643,242481.475597
13.0,616,242525.34531
21.0,773,242588.442723
23.0,831,242660.738652
22.0,871,242725.757205
18.0,677,242779.131118
17.0,670,242840.605709
14.0,723,242894.348426
21.0,762,242957.379805
16.0,558,243000.176522
19.0,646,243052.668007
16.0,730,243114.816503
6.0,354,243137.357505
16.0,704,243199.102633
20.0,691,243252.62137
14.0,498,243294.416804
22.0,787,243357.794949
19.0,575,243400.905946
23.0,750,243463.791635
7.0,432,243496.081844
17.0,728,243558.393605
18.0,772,243621.760343
20.0,705,243675.476767
16.0,635,243727.962561
10.0,513,243769.864967
9.0,491,243811.427946
3.0,217,243823.458028
22.0,707,243885.44652
12.0,566,243928.543604
23.0,602,243980.620942
20.0,753,244035.185654
24.0,792,244098.564953
19.0,527,244140.938507
15.0,607,244192.888442
6.0,336,244223.396855
25.0,710,244277.179215
11.0,528,244319.569702
12.0,575,244362.884866
17.0,775,244426.284923
17.0,712,244488.016488
31.0,662,244540.987169
14.0,641,244593.612218
14.0,615,244637.56506
9.0,467,244678.639026
17.0,594,244730.369982
18.0,721,244784.478575
9.0,473,244825.739586
20.0,631,244869.746994
20.0,738,244932.387968
21.0,772,244995.556615
12.0,465,245036.860763
19.0,760,245091.50557
16.0,673,245152.983522
21.0,670,245206.169765
14.0,588,245249.604538
27.0,904,245323.67442
17.0,613,245375.421809
11.0,509,245417.505552
20.0,729,245471.779065
17.0,619,245523.863893
23.0,668,245576.774832
17.0,744,245639.707896
31.0,784,245703.168081
31.0,840,245767.606709
20.0,728,245830.040098
24.0,848,245894.657554
12.0,535,245937.091594
13.0,619,245989.139958
13.0,595,246040.731921
18.0,684,246093.983301
17.0,603,246145.976965
11.0,507,246179.554196
14.0,710,246241.813514
22.0,646,246294.250377
11.0,553,246337.126742
25.0,863,246410.126193
26.0,829,246474.464877
17.0,659,246527.39845
20.0,687,246580.660572
15.0,546,246623.416774
26.0,788,246686.886693
20.0,733,246749.287956
15.0,693,246802.826644
14.0,640,246855.408783
27.0,975,246938.634143
21.0,677,246991.920812
15.0,628,247044.22532
13.0,597,247087.775199
25.0,689,247149.729604
13.0,590,247193.109776
26.0,755,247256.160089
18.0,733,247310.500218
48.0,1331,247425.204702
28.0,892,247498.620359
15.0,659,247551.573997
30.0,923,247625.775453
22.0,728,247679.909156
20.0,608,247731.857115
21.0,725,247794.082841
24.0,725,247848.425454
32.0,895,247922.013701
19.0,776,247985.145905
9.0,509,248027.178862
20.0,619,248079.429349
29.0,969,248154.239627
16.0,615,248206.415706
24.0,843,248270.782016
31.0,809,248334.606172
12.0,598,248386.365315
28.0,769,248449.479106
16.0,635,248501.994294
19.0,673,248555.264265
18.0,745,248617.810756
34.0,1088,248703.270331
25.0,722,248757.368374
21.0,693,248819.111353
23.0,828,248883.233056
14.0,596,248935.166946
30.0,978,249010.438191
13.0,562,249053.432708
24.0,840,249125.812034
13.0,550,249168.845248
15.0,705,249230.965919
28.0,800,249294.800483
22.0,957,249369.39728
30.0,927,249443.801048
25.0,807,249507.696707
23.0,698,249569.640707
23.0,873,249634.804956
19.0,670,249695.981914
14.0,517,249730.012376
22.0,767,249793.093008
13.0,634,249845.457124
17.0,635,249897.892941
26.0,792,249961.476462
25.0,820,250025.481199
20.0,752,250088.194787
17.0,613,250140.417035
34.0,936,250214.625763
26.0,831,250278.932776
31.0,945,250362.009247
16.0,720,250415.948358
20.0,839,250488.569626
30.0,809,250552.570877
24.0,758,250615.555742
20.0,637,250667.96168
20.0,755,250722.597431
31.0,983,250806.614281
23.0,749,250869.491138
15.0,667,250922.493681
23.0,738,250976.748539
15.0,651,251029.560142
20.0,723,251091.968638
15.0,618,251144.281362
13.0,613,251188.291299
17.0,738,251251.131607
22.0,795,251314.51852
19.0,793,251378.320407
34.0,1017,251462.236941
21.0,722,251524.662702
28.0,960,251599.651518
18.0,710,251653.67481
25.0,892,251727.551458
14.0,494,251769.125154
19.0,741,251831.910185
26.0,787,251895.386904
33.0,1019,251979.556932
19.0,743,252033.945318
23.0,665,252086.981197
27.0,868,252160.100546
12.0,519,252202.42671
23.0,690,252256.120719
25.0,836,252328.934149
17.0,687,252382.402371
25.0,853,252447.305904
22.0,815,252519.521098
18.0,688,252573.221619
26.0,913,252647.162482
20.0,855,252720.542558
20.0,692,252774.159597
29.0,998,252857.967605
22.0,888,252923.256982
47.0,1186,253026.81168
22.0,809,253090.488359
36.0,982,253165.953237
34.0,990,253249.568259
38.0,826,253313.499087
42.0,1139,253408.357209
24.0,781,253471.849712
26.0,823,253536.017861
14.0,599,253587.875336
42.0,1010,253672.15219
12.0,558,253715.151119
37.0,917,253789.334304
21.0,596,253841.100403
20.0,797,253904.924276
43.0,930,253979.222676
17.0,712,254033.169538
36.0,889,254106.753824
22.0,818,254170.931938
12.0,568,254222.269359
25.0,792,254286.280186
12.0,529,254328.676302
23.0,748,254391.574766
22.0,662,254444.754955
