# {"t_start": 1547636543.2812989, "env_id": "RoboschoolHumanoidFlagrun-v1"} 
r,l,t
-34.904395,20,4.177667
-40.832126,19,4.807184
-35.561039,17,5.550399
-50.344325,18,6.394737
-39.220062,20,7.141785
-27.041065,20,8.018114
-26.439307,19,8.621492
-56.233941,23,9.312451
-27.00956,17,10.123642
-32.72316,21,11.123316
-40.786404,20,11.979765
-41.840929,18,12.686456
-40.154942,20,13.595507
-42.297254,21,14.56132
-31.796384,22,15.547074
-41.528811,25,16.734873
-34.072297,18,17.682781
-36.611688,19,18.546985
-40.215407,17,19.068546
-29.253453,15,19.68137
-40.7226,19,20.481989
-42.443077,21,21.461555
-50.256064,20,22.446341
-30.469601,20,23.317517
-50.071375,18,24.097736
-41.204317,20,24.948131
-49.169377,20,2047.401711
-34.004987,19,2048.420035
-33.081874,18,2049.377055
-43.129479,18,2050.380129
-41.504721,21,2051.39691
-25.734599,20,2052.373801
-33.901909,20,2053.346997
-35.271196,18,2054.340332
-38.783026,18,2055.388266
-44.059633,19,2056.462826
-27.814934,18,2057.443631
-53.4722,23,2058.722858
-31.709341,20,2059.978652
-29.125398,19,2060.956
-37.952503,20,2062.10097
-38.109296,22,2063.303333
-55.541368,39,2065.61785
-37.641149,17,2066.373554
-33.974372,19,2067.343815
-37.332269,19,2068.278603
-50.069858,20,2069.157156
-37.816841,21,2070.298624
-36.870512,19,2071.322141
-31.798155,18,2072.38526
-36.197762,11,2072.878815
-40.89002,18,2073.922683
-45.638695,19,4098.157254
-25.144275,19,4099.149936
-42.578744,20,4100.293431
-50.239883,18,4101.250005
-55.742347,20,4102.155021
-27.350138,19,4103.191649
-29.162824,18,4104.1879
-38.713295,20,4104.926739
-37.344977,17,4105.787473
-47.578852,19,4106.684475
-38.284326,18,4107.768894
-37.495282,20,4108.826557
-50.977814,28,4110.346303
-36.663037,19,4111.36934
-40.941667,18,4112.248344
-43.769983,19,4113.135052
-29.653982,17,4114.029624
-31.441664,19,4114.911904
-36.986069,18,4115.672977
-40.247383,20,4116.460358
-28.994197,19,4117.121299
-25.009805,20,4117.839017
-37.721497,20,4118.800065
-38.214086,19,4119.906006
-46.85826,18,4121.056369
-38.491228,21,4122.114813
-30.560344,18,6137.185157
-33.397769,20,6138.078917
-25.908441,19,6139.050857
-42.906504,19,6140.133098
-35.627023,19,6141.009492
-37.918275,20,6142.190967
-39.436951,18,6143.033867
-23.083454,19,6143.964279
-39.896623,18,6144.989986
-33.413269,20,6146.014621
-36.890012,18,6147.025047
-33.755282,18,6148.068307
-38.033549,23,6148.966761
-27.185125,18,6150.038805
-40.501466,18,6150.771831
-25.192438,19,6151.578171
-27.089528,19,6152.625356
-28.441609,20,6153.666464
-32.434623,19,6154.485665
-27.248541,20,6155.402674
-32.514914,19,6156.439927
-40.855264,20,6157.331136
-43.623972,25,6158.508331
-53.34947,18,6159.36666
-45.087049,19,6160.415761
-26.011615,19,6161.227824
-33.763448,19,6162.186626
-45.79734,22,8078.307173
-28.060184,18,8078.981634
-30.851223,19,8079.963553
-26.478508,18,8080.614161
-50.011802,22,8081.546678
-28.378416,19,8082.419034
-24.540753,20,8083.286557
-32.523077,19,8084.353636
-23.049054,18,8085.220409
-24.860457,18,8085.801913
-29.478211,20,8086.575689
-43.589309,26,8087.699013
-32.578751,20,8088.519359
-31.386328,19,8089.172058
-37.286345,20,8089.963319
-33.89185,18,8090.732527
-50.680926,25,8091.753685
-34.248649,19,8092.674138
-28.235345,20,8093.516222
-27.973745,19,8094.233811
-48.558219,28,8095.778295
-30.429647,19,8096.629488
-34.43115,20,8097.453652
-29.48745,20,8098.749981
-31.10002,23,8099.826776
-29.070304,19,10001.541677
-33.926733,19,10002.554693
-23.483852,19,10003.625372
-29.227534,19,10004.619667
-29.699242,18,10005.451407
-27.882297,19,10006.577061
-22.42844,20,10007.615354
-22.228503,19,10008.530278
-28.676255,18,10009.696471
-31.270702,17,10010.57377
-26.315897,19,10011.630074
-38.863106,19,10012.526924
-11.083278,19,10013.570665
-29.274088,19,10014.464294
-37.884047,24,10015.576263
-29.51296,19,10016.455734
-29.09111,19,10017.151271
-22.527292,19,10018.160862
-27.730587,19,10019.028147
-37.437689,17,10019.679233
-35.714973,18,10020.593142
-18.459765,20,10021.373269
-21.484587,19,10022.054532
-23.996818,19,10022.690021
-36.975916,19,10023.503708
-28.3067,19,10024.449511
-47.045174,25,10025.862231
-28.753579,19,11948.878556
-23.743475,19,11950.0095
-38.57636,19,11951.11876
-34.413734,20,11952.49767
-19.620316,20,11953.697562
-37.813663,20,11954.851143
-24.601554,20,11955.809335
-27.144415,19,11956.628621
-30.770055,20,11957.675406
-36.513023,19,11958.710799
-25.117418,22,11959.581176
-28.601347,19,11960.69445
-35.20615,19,11961.784226
-37.725053,18,11962.720635
-31.617804,27,11964.01116
-24.901266,19,11964.95458
-32.710609,29,11966.480882
-32.297796,20,11967.686286
-20.258452,20,11968.765659
-24.139861,19,11969.661201
-27.747384,18,11970.797328
-24.747332,19,11971.910508
-38.943914,17,11972.764078
-32.446368,26,11974.050888
-34.96332,18,11975.106147
-46.969938,20,14042.567057
-44.099031,19,14043.614389
-26.0243,20,14044.914517
-38.571895,19,14046.074868
-22.981023,18,14047.240388
-29.301825,18,14048.195038
-31.955987,19,14049.301466
-29.770288,20,14050.315407
-38.998075,28,14052.149646
-24.548577,18,14053.104482
-32.258731,23,14054.874329
-39.411313,19,14056.057072
-29.777639,19,14057.310758
-25.92588,19,14058.705334
-45.739422,19,14059.899953
-34.557904,19,14060.96736
-39.421488,21,14062.381077
-34.145282,19,14063.333281
-35.571337,19,14064.473918
-41.151707,19,14065.845189
-31.834705,18,14066.514395
-47.402879,28,14067.947486
-24.26918,20,14069.209193
-22.488764,20,14070.868975
-29.213017,21,14072.044391
-20.185994,19,16356.077762
-34.171557,24,16357.481576
-21.452714,18,16358.370258
-24.090916,18,16359.416482
-31.726038,19,16360.546975
-17.698541,21,16361.773252
-29.321593,19,16363.026633
-35.179741,23,16364.499208
-24.444108,19,16365.637669
-21.15935,18,16366.868854
-22.457253,19,16368.012525
-35.453676,24,16369.344659
-23.66611,19,16370.445429
-23.908797,20,16371.479302
-28.60684,21,16372.648735
-32.764185,20,16373.861074
-40.131077,21,16375.045239
-26.203861,18,16376.157244
-37.652873,22,16377.523205
-26.739574,18,16378.57996
-32.007806,16,16379.728675
-25.024292,19,16381.085504
-28.157828,21,16382.325582
-26.369379,19,16383.58567
-27.032773,19,16384.81682
-26.138587,18,16386.018184
-33.49165,20,18687.557047
-22.913357,18,18688.896985
-31.867687,19,18690.063826
-28.922124,19,18691.421309
-33.115514,19,18692.709093
-30.193229,19,18694.079828
-28.456823,20,18695.391986
-25.551604,18,18696.571433
-35.045395,23,18698.285944
-23.36419,18,18699.565741
-18.07807,19,18700.601238
-32.264993,23,18701.88206
-36.205048,19,18702.997623
-32.667196,19,18704.054819
-23.003763,20,18705.144122
-21.82917,18,18706.084909
-21.76639,18,18707.123633
-33.465911,18,18708.231541
-43.220514,30,18710.062362
-36.446864,20,18711.27802
-42.116744,19,18712.659589
-29.800318,23,18714.27022
-16.947101,19,18715.455971
-26.745067,19,18716.590688
-31.717264,19,18717.531208
-23.75108,21,18718.921875
-38.356758,19,21008.723412
-36.555262,19,21009.970233
-24.84251,19,21011.191429
-20.585077,18,21012.244269
-48.526361,20,21013.877496
-31.393714,20,21015.228359
-23.945483,19,21016.785586
-35.754044,19,21018.096602
-29.142652,15,21019.212246
-26.099411,20,21020.397413
-16.958286,14,21021.333571
-26.693878,19,21022.565381
-21.112208,19,21023.876962
-22.650163,18,21025.321422
-21.205283,19,21026.679516
-31.429367,20,21028.195961
-25.576078,17,21029.312068
-29.553679,17,21030.024593
-16.410935,20,21030.785709
-20.991315,23,21031.517227
-31.146923,21,21032.979051
-26.666702,19,21034.155896
-30.959312,19,21035.31145
-26.45162,19,21036.598034
-23.741306,17,21037.70171
-35.612147,20,21038.963637
-26.819382,19,21040.015651
-38.52438,19,23318.496744
-27.754939,20,23320.005716
-20.7867,18,23321.223262
-29.92969,14,23322.123133
-33.654007,18,23323.077469
-21.286711,20,23324.19299
-28.404373,20,23325.265417
-30.77796,19,23326.406477
-32.386696,19,23327.519926
-20.041617,19,23328.733345
-32.612286,18,23329.723833
-26.186775,19,23330.642122
-35.921165,19,23331.450208
-36.548426,20,23332.502846
-37.167702,18,23333.333951
-33.891354,21,23334.765323
-37.476812,23,23336.22528
-21.512841,20,23337.485149
-24.974613,18,23338.654789
-27.016522,19,23339.951279
-20.202247,19,23340.943275
-24.516204,19,23342.29702
-23.247285,19,23343.36657
-33.326743,24,23345.028943
-26.137044,18,23346.172937
-23.10128,19,23347.063378
-38.129792,19,23348.256988
-20.765366,19,25623.729947
-16.514045,20,25625.094916
-14.74599,20,25626.523506
-29.998077,18,25627.678366
-35.163876,18,25628.772574
-23.757553,19,25629.94637
-34.916995,19,25631.037789
-24.211331,20,25632.341094
-21.148566,20,25633.676539
-22.789724,18,25634.764564
-14.344781,20,25636.348139
-32.960095,18,25637.705512
-23.224571,20,25638.849235
-20.413041,23,25640.358668
-33.136764,18,25641.462886
-30.586742,18,25642.455909
-34.264945,15,25643.34175
-14.296322,18,25644.361306
-35.244334,31,25645.922936
-20.257311,19,25647.080581
-40.374695,17,25648.082879
-22.154149,20,25649.213544
-24.03103,19,25650.393445
-22.905319,19,25651.563429
-24.28971,20,25652.720217
-26.333502,21,25653.998872
-29.089437,20,27948.691917
-24.40361,18,27949.857852
-34.391686,20,27950.906967
-28.740249,19,27952.045452
-23.322114,19,27953.400355
-23.04849,19,27954.653936
-23.881392,19,27955.694825
-18.787535,18,27956.765325
-27.371101,18,27957.816294
-27.355969,19,27958.787639
-21.504201,20,27959.983501
-20.90451,19,27961.193094
-34.919773,19,27962.565293
-22.967312,18,27963.705105
-14.317941,18,27965.005621
-19.588316,18,27966.258557
-37.944813,24,27967.520166
-20.215404,19,27968.435476
-26.110906,19,27969.55462
-13.539223,19,27970.807199
-20.678,19,27972.034608
-25.372905,27,27973.525146
-18.34561,19,27974.910693
-27.71713,18,27976.081578
-22.778988,19,27977.391975
-26.214705,18,27978.606708
-16.040373,21,27979.82075
-33.883135,21,30268.389308
-25.244287,23,30269.74296
-34.95141,28,30271.31135
-17.814845,20,30272.643793
-19.279759,23,30273.811825
-34.438012,19,30274.78687
-33.10239,18,30276.053538
-30.96105,19,30277.50443
-32.027404,19,30278.921364
-22.187881,20,30280.02791
-24.654226,20,30281.33964
-15.572886,19,30282.685742
-21.425429,20,30284.012652
-30.007997,20,30285.17202
-18.696175,20,30286.285455
-22.443016,19,30287.532449
-24.965948,18,30288.457346
-24.804002,19,30289.77383
-25.447201,19,30290.910894
-30.707936,18,30292.062637
-23.742363,20,30293.358712
-11.124819,26,30295.019079
-27.048706,18,30296.222444
-18.121862,19,30297.298602
-27.930065,21,30298.890159
-26.329088,21,32578.356162
-20.664078,19,32579.497951
-19.873639,19,32580.804837
-31.610002,23,32582.361158
-22.221906,18,32583.449685
-24.918772,23,32584.744613
-29.622466,20,32586.026154
-24.83777,18,32587.358281
-28.850131,23,32588.765154
-25.454164,19,32589.897473
-22.117175,19,32591.051297
-25.75753,18,32592.199238
-23.450063,21,32593.595126
-18.483565,18,32594.578968
-23.447311,18,32595.690792
-18.526974,20,32596.958743
-19.50222,19,32598.126515
-21.599654,19,32599.257597
-24.803354,19,32600.213859
-10.247819,19,32601.241084
-22.473224,19,32602.426981
-18.05445,20,32603.660086
-46.265349,19,32604.853493
-18.23227,18,32606.017196
-24.204056,18,32607.082547
-25.553052,20,32608.148146
