# {"t_start": 1547771940.6222546, "env_id": "RoboschoolAnt-v1"} 
r,l,t9.110429,1000,16.646018
-1.918063,1000,31.969593
-4.395154,1000,58.566166
59.907675,1000,72.926936
-89.146091,1000,100.247391
-5.651153,1000,115.010526
31.22731,1000,141.62273
-24.378698,1000,156.428886
7.463796,277,172.04733
36.570914,1000,186.794495
4.337392,1000,213.298683
-288.233811,1000,227.659341
-2.281967,1000,242.432325
40.561032,1000,270.087869
-112.263442,1000,285.438663
29.883813,1000,312.459065
19.374211,761,323.959497
34.290004,1000,350.115005
25.562651,1000,364.894784
-50.73503,1000,391.383948
26.900921,1000,405.67543
-90.57519,1000,432.789541
-181.794607,1000,447.898879
-110.405246,1000,473.125407
14.508936,1000,488.449453
69.947991,1000,513.391129
30.280946,1000,528.783141
39.244202,1000,555.749103
40.183245,1000,570.20519
26.621911,1000,596.133015
13.506988,1000,610.844808
77.052064,1000,636.246312
15.250699,1000,651.610646
-73.132361,1000,676.240275
40.507096,1000,691.516338
-111.465709,1000,717.570586
38.914318,1000,732.606454
-141.615954,1000,758.758564
-78.843779,1000,773.333124
-94.480848,1000,798.531201
44.90065,1000,813.68363
43.154778,1000,838.405751
38.445304,1000,853.787586
2.617618,1000,878.799538
9.116781,1000,894.267305
-22.606042,1000,909.330058
-90.533907,1000,936.816239
68.891499,1000,951.588756
-23.466405,190,964.676325
21.41786,1000,979.951263
26.282208,233,983.563443
21.802694,1000,1009.656708
38.663632,1000,1024.850276
63.388892,1000,1051.657436
-17.867279,1000,1066.441322
15.869944,1000,1094.29055
39.842386,1000,1108.77331
-164.729884,1000,1136.110711
-112.999336,1000,1150.989799
-179.122371,1000,1180.002767
30.450521,1000,1194.934282
10.238813,1000,1224.530619
98.71551,1000,1239.159255
87.00869,1000,1268.033862
43.700159,1000,1283.086411
52.330119,1000,1297.866884
17.99553,1000,1325.339115
-1.968672,1000,1339.890653
66.604504,1000,1368.000153
102.754005,1000,1382.938629
56.008311,1000,1409.82755
-34.192982,1000,1424.818998
-19.701669,1000,1451.312162
49.602979,1000,1465.656751
-41.350924,1000,1492.799943
81.367282,1000,1507.651561
-100.359319,1000,1535.291223
5.295352,1000,1550.385531
-88.444508,1000,1577.066933
48.567047,1000,1592.273104
91.995787,1000,1618.489135
69.574358,1000,1632.820066
75.458993,1000,1659.70156
-0.160324,1000,1674.520858
-144.959085,1000,1700.693608
-15.773842,1000,1716.078889
-132.75377,1000,1742.203685
41.415876,1000,1757.281012
18.105111,1000,1783.512794
-55.983844,1000,1797.97047
67.258915,1000,1825.366076
76.195564,1000,1840.800251
55.323512,1000,1866.71575
33.67216,1000,1881.878865
22.094149,1000,1908.511403
93.054779,1000,1923.354046
70.503007,1000,1950.344497
45.172422,1000,1964.634909
11.043443,1000,1992.244411
37.010677,1000,2007.142689
81.030181,1000,2034.606738
82.62216,1000,2049.635239
-3.20219,1000,2077.658367
46.939833,1000,2092.303567
-8.509975,1000,2120.266814
-26.0435,432,2127.142235
93.068225,1000,2141.826693
48.062737,1000,2168.438762
58.311752,1000,2183.423836
78.092042,1000,2209.829877
134.278847,1000,2224.917296
65.297044,1000,2252.256645
42.989849,1000,2267.009434
101.459967,1000,2294.025655
-92.636589,1000,2308.829205
95.658031,1000,2334.994401
41.481755,1000,2349.606715
39.005856,1000,2375.886151
85.068374,1000,2390.890248
84.556446,1000,2419.570494
26.073092,1000,2434.11506
184.193769,1000,2461.243226
48.725514,1000,2475.792637
-136.576942,1000,2502.399628
40.139815,315,2507.262773
155.448236,1000,2522.60675
34.362662,1000,2549.885183
36.191517,1000,2564.327634
62.947381,1000,2590.785461
92.235734,1000,2605.464082
75.054957,1000,2631.805239
132.671289,1000,2646.725223
-103.787448,1000,2673.250591
-10.741025,1000,2688.057206
-151.741268,1000,2715.393502
186.967624,1000,2729.579841
139.037215,1000,2757.024933
-53.445777,1000,2771.525066
153.449135,1000,2799.246501
71.090744,1000,2814.586205
100.602562,1000,2829.129607
2.369344,1000,2856.573226
63.318805,1000,2870.866013
-21.700773,1000,2898.427855
99.227997,1000,2913.531805
-146.607066,1000,2939.644801
112.411516,1000,2954.578929
83.390456,1000,2980.950489
17.981286,1000,2995.342643
78.477498,1000,3022.535942
108.351876,1000,3037.328799
102.908059,1000,3064.988383
96.026224,1000,3080.151262
24.949422,1000,3107.151806
109.890714,1000,3121.938181
82.182038,1000,3148.841846
161.247072,1000,3163.324207
70.543249,1000,3190.267907
105.364297,1000,3205.392887
82.168941,1000,3232.301736
207.113137,1000,3247.248327
194.997563,1000,3273.977112
105.609736,1000,3289.072177
65.225415,1000,3316.924723
149.021048,1000,3331.381227
147.920207,1000,3359.603571
82.924134,1000,3374.119604
76.457439,1000,3402.40855
144.535515,1000,3416.998217
40.735575,1000,3444.396829
142.431005,1000,3458.824301
-67.760117,1000,3485.541965
109.970495,1000,3500.434927
93.261481,1000,3526.734771
94.316274,1000,3541.921146
100.023992,1000,3567.702778
46.79384,1000,3582.932948
133.62615,1000,3609.009037
69.52383,1000,3623.986062
122.977238,1000,3650.340643
132.954452,1000,3665.364443
195.12111,1000,3691.726444
75.127096,1000,3706.819783
24.321977,1000,3721.719194
227.179289,1000,3749.052233
13.458071,1000,3763.765054
-89.837613,1000,3790.932558
114.959634,1000,3805.680771
177.931608,1000,3832.312211
187.957626,1000,3847.199236
173.242396,1000,3874.375473
108.57536,1000,3889.713187
85.382455,1000,3917.690244
143.371473,1000,3932.25539
191.786084,1000,3960.694162
38.019563,1000,3975.491311
167.523007,1000,4004.184951
126.239449,1000,4019.098667
112.680744,1000,4048.74438
39.343844,1000,4062.879849
95.692306,1000,4090.727212
89.325685,1000,4105.312169
224.203401,1000,4132.110424
24.039501,1000,4147.322849
77.741783,1000,4173.362526
95.722411,1000,4188.083807
162.067389,1000,4215.222793
90.342825,1000,4229.658015
45.903879,1000,4256.597365
108.213593,1000,4271.222404
32.906673,1000,4297.801762
10.865247,1000,4312.637591
152.355512,1000,4339.264203
235.022578,1000,4354.325141
145.964575,1000,4381.529506
45.939763,1000,4396.212142
141.470912,1000,4421.840102
-3.524531,1000,4436.074243
185.304565,1000,4461.575644
114.287802,1000,4475.938752
195.604242,1000,4500.718697
139.296455,1000,4515.126079
217.897449,1000,4540.838089
-46.090872,1000,4555.330843
67.720537,1000,4581.744498
138.638487,1000,4597.058855
145.097468,1000,4612.089467
287.185075,1000,4637.164456
102.073929,1000,4652.251433
91.504345,1000,4678.382527
155.178143,1000,4693.232028
294.136397,1000,4720.320035
155.542825,1000,4734.992349
138.871517,1000,4761.202262
155.718948,1000,4776.49466
115.945553,1000,4801.676558
148.774943,1000,4816.831429
-78.281676,1000,4842.851723
179.211917,1000,4857.905496
157.222254,1000,4883.61283
101.344315,1000,4898.428979
173.197647,1000,4924.201926
237.458164,1000,4938.955153
327.686832,1000,4964.522305
74.368169,1000,4979.195287
48.570273,1000,5005.423785
211.883398,1000,5020.151285
134.604143,1000,5047.037441
106.350961,1000,5061.787566
168.6079,1000,5089.991575
158.31425,1000,5104.591658
223.111537,1000,5132.004082
160.39655,1000,5146.384773
132.830931,1000,5173.940495
148.286932,1000,5188.786583
0.970521,1000,5216.832021
176.415199,1000,5232.008532
137.317561,1000,5259.136532
117.133953,1000,5273.65768
245.865573,1000,5301.214016
159.223999,1000,5315.965276
169.766459,1000,5344.390673
218.678716,1000,5359.090709
265.808856,1000,5386.799701
122.357011,1000,5401.199203
87.243043,1000,5427.803698
115.678379,1000,5442.499027
161.252579,1000,5469.544045
213.914923,1000,5484.678334
156.446117,1000,5499.77638
139.422053,1000,5526.437737
159.943137,1000,5541.279007
221.57649,1000,5566.178363
182.250658,1000,5580.172954
124.89509,1000,5605.486377
163.400311,1000,5619.734466
199.047187,1000,5645.734459
198.345682,1000,5660.319522
152.376319,1000,5688.132562
193.400091,1000,5703.281905
82.698178,1000,5731.239456
124.44426,1000,5745.729708
183.669514,1000,5773.292979
193.94658,1000,5788.215329
163.787111,1000,5815.701084
166.017683,1000,5830.094304
98.386116,584,5850.924701
214.760916,1000,5865.559206
134.844514,1000,5892.185008
295.718551,1000,5906.993523
234.814669,1000,5933.025292
298.56389,1000,5947.937582
266.115713,1000,5975.063228
146.99265,1000,5989.513641
178.77086,1000,6003.90086
178.074065,1000,6031.956497
249.828239,1000,6046.822592
150.33396,1000,6074.890923
357.78696,1000,6089.220679
54.446931,1000,6116.897797
144.338177,1000,6131.222327
255.775987,1000,6159.302048
198.229616,1000,6174.429185
137.3246,1000,6201.749343
165.296446,1000,6216.468931
200.924201,1000,6244.770493
197.957578,1000,6258.83662
199.657164,1000,6287.63467
204.468068,1000,6302.448942
195.779902,1000,6329.577057
185.5977,1000,6344.628135
206.167182,1000,6370.752251
227.026452,1000,6385.453492
287.305439,1000,6411.548035
52.91428,1000,6425.853564
150.652247,1000,6452.04722
142.3164,1000,6466.155136
223.129836,1000,6491.650219
152.691938,1000,6506.446622
355.346758,1000,6531.294651
283.674307,1000,6546.301962
165.138988,1000,6570.545486
216.027378,1000,6585.538655
191.871092,1000,6611.242554
135.680708,1000,6625.799231
244.881698,1000,6652.19483
289.941025,1000,6666.932428
184.381647,1000,6693.758101
184.335901,1000,6708.327142
138.539118,1000,6734.188459
224.505712,1000,6749.170665
225.401125,1000,6775.228827
173.625448,1000,6789.832775
219.479072,1000,6815.516246
189.147712,1000,6830.358932
254.906704,1000,6855.473764
146.34104,1000,6870.591071
244.596675,1000,6885.095092
324.367813,1000,6911.007213
188.334064,1000,6925.350534
162.390564,1000,6951.806636
261.227707,1000,6965.803607
271.377838,1000,6993.654128
360.580073,1000,7008.4797
136.270993,1000,7036.015453
185.543255,1000,7050.63463
219.041972,1000,7079.110725
304.208886,1000,7093.536059
252.990306,1000,7121.664034
214.561019,1000,7136.336355
202.642579,1000,7163.835397
325.873658,1000,7179.007627
294.143528,1000,7205.20158
316.979936,1000,7219.944826
179.998612,1000,7247.001899
199.254279,1000,7261.249607
312.479041,1000,7288.81936
227.644274,1000,7303.572185
240.489069,1000,7330.319635
191.486881,1000,7345.15281
86.761438,1000,7372.260822
185.677056,1000,7386.745293
355.656286,1000,7414.354731
272.395262,1000,7428.291224
243.496734,1000,7455.133374
223.762111,1000,7469.768765
279.555807,1000,7496.276703
240.843919,1000,7511.004535
308.750975,1000,7536.920604
281.714727,1000,7552.011629
266.456707,1000,7579.149593
219.898166,1000,7594.553721
236.041507,1000,7621.27942
296.637987,1000,7635.657177
194.223766,1000,7661.843302
231.956914,1000,7676.159849
192.994034,1000,7702.625193
172.394543,1000,7717.41467
292.902348,1000,7743.908511
181.282735,1000,7758.951033
209.016159,1000,7774.148789
231.749132,1000,7799.615771
252.719569,1000,7814.21871
267.628238,1000,7839.072654
159.471144,1000,7853.612117
350.088164,1000,7879.342937
313.768041,1000,7893.631777
264.414363,1000,7920.613048
237.359603,1000,7935.468631
348.111798,1000,7962.190749
194.105665,1000,7976.902215
231.939151,1000,8004.154502
400.37295,1000,8018.805839
289.154366,1000,8047.587177
221.941389,1000,8062.00917
252.579371,1000,8091.202048
363.541091,1000,8105.647005
407.837915,1000,8133.970072
298.758463,1000,8148.786677
240.806603,1000,8176.846675
243.892156,1000,8191.66381
293.034293,1000,8220.130528
181.116324,1000,8234.615984
250.524668,1000,8262.614269
252.947876,1000,8277.126158
165.851016,1000,8305.061159
224.025916,1000,8319.706607
227.315351,1000,8347.247697
236.43243,1000,8361.910902
324.949677,1000,8388.886756
151.685926,1000,8403.430228
390.832761,1000,8429.549773
222.886843,1000,8444.435821
264.488849,1000,8470.091022
312.607563,1000,8484.39923
258.0288,1000,8511.046687
281.142221,1000,8525.680331
282.85028,1000,8550.634609
170.686055,1000,8565.093748
216.090343,1000,8589.742075
208.74453,1000,8604.397775
443.166093,1000,8619.098917
199.122904,1000,8644.869586
443.313242,1000,8659.418635
350.775087,1000,8686.156809
176.543263,1000,8701.121011
255.205651,1000,8728.275516
260.669882,1000,8743.006726
202.976995,1000,8768.568041
244.587232,1000,8783.433966
351.429104,1000,8809.318871
401.982156,1000,8824.315929
317.029017,1000,8851.836554
344.248662,1000,8866.353454
232.371099,1000,8894.138067
425.47906,1000,8908.667102
273.560817,1000,8935.723969
197.312022,1000,8950.334681
226.581045,1000,8978.774635
276.949022,1000,8993.447882
233.677057,1000,9021.562787
261.453921,1000,9035.86655
223.296776,1000,9062.359386
253.336569,1000,9077.829286
341.06835,1000,9104.418563
361.610329,1000,9119.366808
394.839098,1000,9146.23461
226.047918,1000,9161.169057
234.607557,1000,9187.634212
308.233436,1000,9201.957754
244.414425,1000,9228.381199
400.93307,1000,9242.902363
282.452042,1000,9269.146502
245.861739,1000,9283.968832
278.585516,1000,9311.946017
340.613785,1000,9326.266505
306.528237,1000,9353.96607
257.969518,1000,9367.707212
310.390178,1000,9394.522706
418.359178,1000,9409.206555
170.102815,1000,9435.293396
231.328858,1000,9449.77354
336.487143,1000,9476.928786
300.944867,1000,9491.634511
299.44949,1000,9506.391374
203.23972,1000,9532.210418
367.921105,1000,9546.900282
315.884973,1000,9572.488099
285.206657,1000,9587.15161
355.734026,1000,9613.102451
354.008382,1000,9627.583529
353.666587,1000,9655.35582
175.204039,1000,9669.944473
275.183617,1000,9696.068366
320.818549,1000,9711.192495
358.530625,1000,9737.814619
411.245376,1000,9753.1965
257.242443,1000,9779.035579
310.228469,1000,9793.578619
265.28366,1000,9820.86718
397.469558,1000,9835.040105
301.758354,1000,9862.545646
260.882369,1000,9877.395218
390.966161,1000,9905.542566
259.257919,1000,9920.403847
228.677372,1000,9949.271897
301.579122,1000,9963.441947
360.178788,1000,9991.519977
218.699833,1000,10006.02961
268.115095,1000,10033.48605
259.832002,1000,10048.14744
207.363759,1000,10075.218016
399.703426,1000,10089.8158
233.752301,1000,10116.810418
326.090892,1000,10131.443305
315.96918,1000,10158.218908
246.921853,1000,10172.501286
391.195434,1000,10199.311272
285.300115,1000,10214.025301
290.101386,1000,10241.461718
247.496595,1000,10256.092773
324.100385,1000,10282.604833
300.93096,1000,10296.522475
342.642119,1000,10322.389029
339.893144,1000,10336.472039
314.162482,1000,10361.85221
294.653176,1000,10376.458683
369.966707,1000,10391.853852
269.763902,1000,10417.073318
318.186704,1000,10432.291594
255.506442,1000,10458.812793
307.151391,1000,10473.84848
316.302786,1000,10499.537992
382.299394,1000,10514.783015
302.622164,1000,10539.430726
335.068908,1000,10554.515972
247.725995,1000,10580.169545
312.548132,1000,10594.791658
256.568965,1000,10622.40352
400.724917,1000,10637.086754
372.121795,1000,10663.197592
191.098133,1000,10678.590515
276.939352,1000,10704.650607
417.247681,1000,10719.380127
254.231667,1000,10744.759175
279.326804,1000,10759.202595
240.48905,1000,10785.133786
150.854525,1000,10800.135977
417.992927,1000,10826.982299
288.76341,1000,10842.076657
299.887174,1000,10868.251138
336.541037,1000,10883.472049
264.172052,1000,10910.165398
361.838096,1000,10924.741112
401.597142,1000,10953.018087
221.985838,1000,10967.132564
191.036058,1000,10996.919718
281.21801,1000,11011.483342
269.617131,1000,11040.733637
382.452118,1000,11055.555706
397.003228,1000,11083.717546
303.387218,1000,11098.725286
400.402474,1000,11127.999844
242.388738,1000,11142.925325
289.614231,1000,11171.054597
368.00735,1000,11185.531327
367.186594,1000,11213.71635
305.145959,1000,11228.680063
381.307684,1000,11257.623531
279.515609,1000,11272.404866
364.408457,1000,11287.148931
277.562822,1000,11314.50622
304.924053,1000,11329.989965
189.531669,1000,11356.950656
333.455733,1000,11372.750576
360.470283,1000,11398.92494
355.007999,1000,11413.269069
181.068881,1000,11440.013806
245.951347,1000,11454.306079
315.984862,1000,11481.366036
319.204041,1000,11496.393257
332.856567,1000,11523.101741
345.260972,1000,11538.387751
346.90277,1000,11566.862935
312.303147,1000,11581.22835
287.97447,1000,11609.802518
382.011653,1000,11624.612362
377.602425,1000,11652.247878
199.424759,1000,11667.382182
362.770267,1000,11693.607199
267.908397,1000,11708.497761
226.84779,1000,11735.499681
277.055617,1000,11750.037261
348.028762,1000,11778.350935
356.87381,1000,11793.042235
283.564696,1000,11821.124637
256.881325,1000,11835.942265
262.744567,1000,11863.178141
389.898477,1000,11877.763824
391.573107,1000,11906.428124
291.40276,1000,11921.478279
319.551476,1000,11950.633629
342.871898,1000,11965.011179
434.687328,1000,11992.657866
338.39828,1000,12007.33874
342.146838,1000,12034.510009
310.674407,1000,12049.401178
261.285778,1000,12078.275416
342.038854,1000,12093.35755
237.167283,1000,12122.410603
339.201759,1000,12136.640963
336.796434,1000,12164.935344
288.916325,1000,12179.790606
395.365839,1000,12194.741538
335.583143,1000,12221.518276
406.40948,1000,12236.496856
330.369869,1000,12263.795842
323.481294,1000,12278.380424
412.614785,1000,12305.157463
258.196207,1000,12320.443571
319.876886,1000,12345.959827
412.110955,1000,12361.296002
211.789854,1000,12386.736334
356.372906,1000,12401.981004
321.564659,1000,12428.061891
287.652046,1000,12443.203906
319.742291,1000,12470.182641
321.430255,1000,12485.001531
348.918912,1000,12511.075079
308.027264,1000,12526.304157
248.678155,1000,12552.660049
359.130202,1000,12567.777113
415.145197,1000,12595.596294
365.025113,1000,12610.234267
274.729181,1000,12637.367158
336.091881,1000,12651.862527
425.88376,1000,12677.955864
371.764846,1000,12693.076406
276.349687,1000,12718.806575
414.375569,1000,12733.743768
338.984841,1000,12759.364087
312.785087,1000,12774.383934
413.391335,1000,12801.074563
259.70698,1000,12815.803558
396.296636,1000,12842.684504
354.509716,1000,12857.565181
446.880332,1000,12883.24685
283.260695,1000,12898.472167
428.861879,1000,12925.037956
275.132304,1000,12940.633965
332.357293,1000,12967.951859
365.586174,1000,12982.633711
316.602726,1000,13011.433659
286.36103,1000,13026.568659
292.04177,1000,13055.504716
394.945038,1000,13070.436318
258.672838,1000,13085.026404
405.224681,1000,13112.373928
404.159088,1000,13126.7546
359.99377,1000,13155.281213
225.295903,1000,13169.793399
220.600543,1000,13199.708666
249.274055,1000,13214.559603
248.052871,1000,13243.524048
210.056484,1000,13258.205256
349.486893,1000,13287.534157
479.169241,1000,13302.331614
362.631443,1000,13330.83463
426.0884,1000,13345.413626
278.732168,1000,13372.919848
360.007566,1000,13387.716662
405.679747,1000,13414.529762
247.926236,1000,13429.649779
396.204195,1000,13457.225794
363.492299,1000,13472.464091
343.94234,1000,13500.203195
417.739393,1000,13514.898607
276.855834,1000,13541.910484
373.36198,1000,13556.664752
356.70835,1000,13583.729648
301.391102,1000,13598.366118
384.677344,1000,13625.792687
248.749482,1000,13640.543384
340.528868,1000,13667.893013
442.880977,1000,13682.597289
314.663193,1000,13709.225317
306.995274,1000,13724.193271
337.83574,1000,13750.866654
169.138755,1000,13765.676919
447.361684,1000,13792.718961
438.328378,1000,13807.452042
262.892432,1000,13835.308615
397.806612,1000,13850.0567
297.597806,1000,13877.644986
297.190514,1000,13892.594477
345.57877,1000,13920.565641
289.482001,1000,13935.469747
337.542105,1000,13950.229225
434.885851,1000,13977.479678
339.230959,1000,13991.878015
216.185029,1000,14019.854567
332.247049,1000,14035.196352
341.332782,1000,14061.595092
261.389631,1000,14076.886221
262.13011,1000,14103.731411
262.862677,1000,14118.002347
313.356179,1000,14145.287154
312.348378,1000,14159.825874
367.926953,1000,14187.027345
280.779763,1000,14201.562587
332.928922,1000,14229.014313
246.393082,1000,14244.232582
423.761798,1000,14273.250028
323.350606,1000,14287.057551
398.130716,1000,14314.920611
314.007588,1000,14329.068541
375.094056,1000,14356.71612
468.755655,1000,14371.57577
406.692214,1000,14397.680803
262.977528,1000,14412.753218
353.074815,1000,14439.139674
285.572075,1000,14453.348646
454.2608,1000,14479.950515
332.280409,1000,14494.26596
291.530254,1000,14519.936848
271.108164,1000,14534.961148
390.14493,1000,14560.653864
272.284524,1000,14575.370638
462.159205,1000,14601.491962
425.340828,1000,14616.038362
330.173353,1000,14642.827426
447.509877,1000,14657.742646
425.723857,1000,14683.492832
299.583841,1000,14697.73465
294.674352,1000,14722.763378
457.544999,1000,14737.545231
273.232204,1000,14761.813536
397.450965,1000,14776.268261
413.854912,1000,14801.37657
328.039456,1000,14815.936163
300.917374,1000,14830.399678
333.22322,1000,14856.443938
215.708419,1000,14871.138324
322.221786,1000,14896.455628
430.714235,1000,14911.165738
327.347305,1000,14936.726027
451.83801,1000,14951.509957
446.356318,1000,14978.176703
363.739187,1000,14992.860238
320.653423,1000,15019.930874
320.010834,1000,15034.312129
288.407832,1000,15060.229251
340.127377,1000,15074.822947
406.032449,1000,15099.825046
354.867535,1000,15114.891102
391.904539,1000,15139.573432
388.079016,1000,15154.558648
322.222711,1000,15180.170194
329.721508,1000,15194.910517
254.202723,1000,15221.125647
269.416805,1000,15235.712718
456.879761,1000,15261.290926
458.522255,1000,15275.730795
299.028196,1000,15301.596158
370.259574,1000,15316.15242
390.870715,1000,15343.34382
374.439367,1000,15357.908813
325.92914,1000,15387.025477
365.218715,1000,15401.818579
353.591135,1000,15429.423001
384.621708,1000,15443.551261
466.982465,1000,15471.389925
288.806883,1000,15486.236057
411.978571,1000,15514.375578
216.497773,1000,15528.838797
456.178257,1000,15556.614346
468.298197,1000,15571.237096
393.031106,1000,15598.154497
306.970456,1000,15612.534133
442.671723,1000,15640.160834
344.927069,1000,15654.857909
452.106834,1000,15682.531289
356.590132,1000,15697.120362
419.223004,1000,15712.717654
413.357871,1000,15738.376922
376.729448,1000,15752.785195
411.105631,1000,15778.061989
304.693185,1000,15792.389404
409.645339,1000,15818.881659
367.51979,1000,15833.213906
299.625879,1000,15860.139256
361.975202,1000,15874.780798
417.285198,1000,15900.963764
282.039785,1000,15915.866572
446.311849,1000,15942.997772
80.263846,100,15944.241377
382.636958,1000,15958.600958
359.640641,1000,15987.59273
388.631104,1000,16002.332323
349.30388,1000,16029.00134
445.498013,1000,16043.957453
355.704028,1000,16070.09413
380.007437,1000,16084.203358
405.842665,1000,16110.470595
278.877092,1000,16124.417767
309.608841,1000,16151.811566
394.937224,1000,16166.37282
331.243991,1000,16193.114266
335.975102,1000,16208.191343
420.52703,1000,16234.86269
429.873058,1000,16249.54742
359.501766,1000,16277.374437
338.124799,1000,16291.535483
340.429137,1000,16319.130128
429.126779,1000,16333.667801
412.821393,1000,16360.234502
319.595554,1000,16374.703222
387.687632,1000,16402.010368
350.955879,1000,16416.417913
372.682105,1000,16444.415348
375.005554,1000,16458.657127
341.006866,1000,16486.151373
379.044215,1000,16500.796062
393.881468,1000,16528.062619
319.529808,1000,16542.403462
423.60574,1000,16570.345868
490.234814,1000,16584.858191
399.850127,1000,16612.90204
301.471432,1000,16627.17059
381.312616,1000,16653.54896
358.775463,1000,16668.048439
318.640273,1000,16682.962513
340.257443,1000,16708.507659
446.967505,1000,16723.369993
420.696798,1000,16748.967142
365.978815,1000,16763.903195
386.618905,1000,16790.12264
416.403848,1000,16805.086214
324.227519,1000,16829.413039
310.434367,1000,16844.056372
398.881838,1000,16869.525394
385.909757,1000,16883.949724
301.808557,1000,16910.702256
486.712761,1000,16924.930943
474.724324,1000,16952.646716
367.367742,1000,16967.410792
469.402363,1000,16993.410664
412.235906,1000,17007.986378
448.450652,1000,17034.524778
401.340353,1000,17049.294575
380.189927,1000,17075.227231
456.243575,1000,17089.522677
286.878552,1000,17116.988296
356.923516,1000,17131.686247
78.399718,74,17132.885836
440.435635,1000,17160.911572
495.418138,1000,17175.535104
343.632875,1000,17203.303623
374.540785,1000,17217.467711
410.491054,1000,17245.929095
396.395563,1000,17260.245762
463.759713,1000,17289.587702
267.438332,1000,17303.891837
298.601042,1000,17332.1313
312.132688,1000,17347.113477
397.807155,1000,17374.85522
488.98234,1000,17389.145279
301.517721,1000,17416.365689
399.889749,1000,17430.872494
482.450026,1000,17458.465051
328.819551,1000,17473.156701
355.947914,1000,17499.634696
410.104499,1000,17514.398652
402.25474,1000,17541.336263
327.781462,1000,17555.649955
334.778199,1000,17581.270574
409.076842,1000,17595.306495
390.807862,1000,17609.938848
398.031627,1000,17634.51077
455.14995,1000,17649.033595
349.866316,1000,17673.925095
404.10398,1000,17688.143072
371.489237,1000,17713.664666
312.52299,1000,17728.451057
313.653386,1000,17754.183469
361.689516,1000,17768.975589
354.410532,1000,17793.930061
404.950843,1000,17808.815614
333.414614,1000,17834.26519
486.858467,1000,17848.737688
389.401801,1000,17876.344129
454.391818,1000,17890.188624
390.12895,1000,17917.540645
465.286239,1000,17932.194549
293.103494,1000,17958.149595
328.210616,1000,17973.218549
295.163449,1000,17998.86569
481.829752,1000,18013.523621
290.384871,1000,18040.039061
347.583356,1000,18054.354418
385.935953,1000,18081.583273
414.976021,1000,18095.622163
400.261779,1000,18122.012122
272.174745,1000,18136.326384
453.813817,1000,18163.727605
462.708583,1000,18178.644197
363.962765,1000,18205.887856
260.970695,1000,18220.552418
315.442543,1000,18246.479582
344.223865,1000,18260.929573
458.630206,1000,18287.003811
452.301596,1000,18301.702607
384.660832,1000,18327.631242
450.37408,1000,18342.403549
423.705789,1000,18370.490659
401.089461,1000,18384.982593
439.951674,1000,18412.967055
463.056812,1000,18427.199489
417.050785,1000,18454.007871
440.605707,1000,18468.429657
366.351242,1000,18483.198955
424.932357,1000,18511.151782
348.112324,1000,18525.95952
424.578247,1000,18552.151886
365.280381,1000,18567.020144
315.436336,1000,18592.628884
333.66058,1000,18606.798608
308.5139,1000,18631.504038
360.486018,1000,18645.620534
496.074472,1000,18670.46589
382.477549,1000,18684.936379
437.518929,1000,18710.21473
463.215897,1000,18724.383642
520.711444,1000,18749.577083
507.274762,1000,18764.205527
422.347196,1000,18789.838123
307.21322,1000,18804.217833
395.227532,1000,18829.561186
461.436038,1000,18844.227767
381.636659,1000,18869.060455
455.740346,1000,18883.738626
378.700916,1000,18908.222745
373.766343,1000,18923.636333
290.5012,1000,18948.834109
462.120346,1000,18963.474902
354.077372,1000,18988.641661
362.137361,1000,19002.802521
456.100423,1000,19029.750642
434.395203,1000,19044.442804
430.859028,1000,19072.097211
401.594703,1000,19087.250575
432.172877,1000,19115.450574
510.194831,1000,19130.106207
321.777539,1000,19159.730542
432.596469,1000,19174.14379
546.431348,1000,19204.054015
494.91499,1000,19219.22169
283.571126,1000,19248.215482
321.718044,1000,19262.952032
469.66322,1000,19291.294118
416.448916,1000,19306.620467
368.190476,1000,19336.170535
506.881522,1000,19350.789878
487.346947,1000,19365.569857
440.621495,1000,19393.768541
506.00373,1000,19408.797997
334.034054,1000,19436.663487
495.229134,1000,19451.44335
410.961872,1000,19479.723439
490.147119,1000,19494.49382
347.091619,1000,19521.514423
440.87949,1000,19536.306645
412.827287,1000,19563.101465
453.799588,1000,19578.173634
308.537973,1000,19604.265297
390.254016,1000,19619.564068
485.264365,1000,19645.877367
344.926101,1000,19660.71999
425.528429,1000,19688.024533
386.06488,1000,19702.626877
342.978153,1000,19730.354455
399.049923,1000,19745.36908
444.416283,1000,19772.406003
402.333386,1000,19787.733188
419.734803,1000,19814.623471
514.253985,1000,19828.967559
374.355328,1000,19856.161876
439.456656,1000,19871.052017
501.782844,1000,19897.830539
385.319053,1000,19912.83279
449.056078,1000,19939.66461
376.099311,1000,19954.841311
388.361405,1000,19981.191501
343.104992,1000,19995.928056
454.674381,1000,20024.03405
444.841398,1000,20039.17778
375.387893,1000,20067.70137
394.472067,1000,20082.436402
356.063741,1000,20109.784077
428.695128,1000,20124.781587
425.431096,1000,20152.7826
422.156505,1000,20167.758845
425.612445,1000,20196.290092
364.903035,1000,20210.921246
429.93383,1000,20238.030219
266.835323,1000,20252.671468
380.571973,1000,20267.805745
369.372682,1000,20295.212892
474.116113,1000,20310.149881
355.823336,1000,20337.567167
423.806712,1000,20351.922975
479.923168,1000,20379.459663
398.775895,1000,20394.377545
410.789146,1000,20421.114117
396.817905,1000,20435.627113
339.17295,1000,20461.310319
377.37532,1000,20474.514697
496.505301,1000,20499.688619
302.307478,1000,20513.11695
301.387462,1000,20538.675649
475.098105,1000,20551.852273
500.291776,1000,20576.500905
343.634177,1000,20589.948328
447.014018,1000,20614.536258
529.189886,1000,20628.379294
365.492278,1000,20651.838449
359.150185,1000,20665.618696
362.876904,1000,20689.934911
361.615336,1000,20703.394531
418.004805,1000,20728.530557
309.604873,1000,20741.855661
411.633796,1000,20764.229929
447.063438,1000,20777.68464
423.840686,1000,20801.254593
449.338365,1000,20814.526577
362.376278,1000,20837.477007
446.705325,1000,20851.067473
368.452065,1000,20874.65427
464.414433,1000,20887.986645
404.861746,1000,20911.656224
473.672323,1000,20925.199021
312.421415,1000,20948.92936
324.60201,1000,20962.221345
356.274063,1000,20985.888582
246.771113,1000,20999.904104
410.423121,1000,21024.968263
439.148831,1000,21038.295105
454.705749,1000,21063.572841
396.724306,1000,21077.548405
373.231662,1000,21091.420049
347.641184,1000,21117.692752
422.188068,1000,21130.993149
435.456123,1000,21157.250579
421.521062,1000,21171.003595
344.375468,1000,21197.532867
382.210102,1000,21210.871549
422.657386,1000,21237.23279
309.805475,1000,21251.139834
383.513049,1000,21278.471551
402.743373,1000,21291.879542
453.855459,1000,21318.610055
427.157935,1000,21332.302992
382.255523,1000,21358.044996
453.27962,1000,21371.536567
381.084241,1000,21396.458589
409.369044,1000,21410.22617
424.542022,1000,21434.576808
393.720455,1000,21447.92544
335.341405,1000,21471.584496
403.240072,1000,21485.434721
434.11195,1000,21510.25041
452.998202,1000,21524.132567
344.384361,1000,21548.117185
460.145796,1000,21561.599806
435.184209,1000,21585.115237
409.773958,1000,21598.293512
390.754845,1000,21622.400975
393.114735,1000,21635.968638
494.291033,1000,21661.325824
382.755535,1000,21674.857046
278.704409,1000,21698.796905
371.474543,1000,21712.599432
483.306758,1000,21736.682631
315.791723,1000,21750.382654
378.345445,1000,21775.191791
389.924067,1000,21788.773793
414.63987,1000,21812.968679
432.481461,1000,21826.629806
515.487602,1000,21851.231702
421.128392,1000,21865.22877
337.109148,1000,21890.650869
416.890697,1000,21904.323776
367.538088,1000,21918.033083
445.799613,1000,21944.282284
474.370755,1000,21957.941042
497.46606,1000,21984.200634
432.829653,1000,21997.217681
460.334468,1000,22021.813058
509.504781,1000,22034.409615
360.520401,1000,22058.386698
358.968945,1000,22070.478151
347.156508,1000,22093.970504
462.439848,1000,22106.518931
350.411506,1000,22129.826629
398.876387,1000,22142.345324
389.47919,1000,22165.541634
268.120701,1000,22178.011516
489.207459,1000,22201.764473
426.107379,1000,22214.233402
466.411996,1000,22238.375549
393.702465,1000,22250.825985
492.112013,1000,22275.422583
433.357567,1000,22287.758206
389.072521,1000,22312.330607
290.881451,1000,22324.703115
500.823019,1000,22349.102481
369.917571,1000,22361.616344
431.753992,1000,22385.445182
378.587079,1000,22398.258287
538.037602,1000,22421.240175
426.583763,1000,22433.85779
302.369734,1000,22456.675587
446.396272,1000,22469.385407
384.25381,1000,22492.648916
446.298368,1000,22504.915587
388.373285,1000,22528.730538
383.23766,1000,22541.101457
436.716811,1000,22565.047535
296.207933,1000,22577.739164
445.197731,1000,22601.206254
440.7975,1000,22614.046015
275.141121,1000,22637.444984
383.808099,1000,22649.955844
475.866267,1000,22662.704982
406.68428,1000,22687.290131
464.122938,1000,22699.932218
291.805785,1000,22724.19855
424.861003,1000,22735.306783
456.288179,1000,22757.414656
441.711103,1000,22768.675785
442.198402,1000,22790.68571
355.729731,1000,22801.798373
400.10505,1000,22823.899698
459.989061,1000,22835.114796
372.816684,1000,22856.079318
464.901778,1000,22867.387203
454.79892,1000,22888.450463
352.5659,1000,22899.616902
410.013447,1000,22920.623414
374.127121,1000,22931.919341
399.138921,1000,22952.179311
427.083888,1000,22963.67231
523.360016,1000,22983.602364
514.646049,1000,22994.634516
494.232042,1000,23014.242588
482.062698,1000,23025.619674
455.727155,1000,23045.357496
533.859231,1000,23056.386595
478.166102,1000,23076.166519
434.750339,1000,23087.479283
375.909998,1000,23107.197008
478.143737,1000,23118.755369
386.562599,1000,23138.736364
414.187461,1000,23150.018548
419.506738,1000,23169.866537
398.66501,1000,23181.354566
328.307383,1000,23201.033694
372.887367,1000,23212.319264
352.07541,1000,23232.372014
492.412218,1000,23243.811874
374.203215,1000,23263.626632
332.520775,1000,23274.925454
526.516868,1000,23294.594183
438.766781,1000,23306.176021
408.659185,1000,23326.14459
301.808696,1000,23337.823024
379.368209,1000,23349.434812
386.637908,1000,23369.319494
433.151702,1000,23380.724545
339.916443,1000,23400.509256
411.736931,1000,23411.998718
451.131181,1000,23432.288156
393.58421,1000,23443.546707
421.994696,1000,23463.862182
345.379012,1000,23475.079108
328.145833,1000,23495.354185
334.835949,1000,23506.555858
459.822691,1000,23527.070027
328.245483,1000,23538.435772
431.181388,1000,23559.049407
292.960339,1000,23570.268386
435.519596,1000,23590.592157
454.698782,1000,23601.73432
369.629431,1000,23621.739141
471.671874,1000,23633.154003
453.658196,1000,23653.870133
408.845577,1000,23665.189246
431.96331,1000,23685.835012
421.633399,1000,23697.041322
384.834338,1000,23718.436918
411.743442,1000,23729.625547
491.754842,1000,23751.205433
463.880557,1000,23762.60145
484.432563,1000,23785.046076
369.580368,1000,23796.295654
375.020885,1000,23818.512086
509.215401,1000,23828.112501
378.283749,1000,23846.847288
423.898632,1000,23856.510924
335.062028,1000,23875.653455
384.764284,1000,23885.438296
376.916223,1000,23904.373326
360.678391,1000,23914.193796
344.396802,1000,23932.644436
423.224589,1000,23942.35907
449.723099,1000,23960.608888
413.055555,1000,23970.420379
435.262428,1000,23988.318138
427.317389,1000,23997.974398
469.331849,1000,24007.812446
303.316202,1000,24025.47324
454.941126,1000,24035.00439
514.444911,1000,24052.506675
341.396783,1000,24062.387119
401.100124,1000,24076.439076
405.486766,1000,24084.153697
417.698281,1000,24098.325616
423.577363,1000,24105.922793
370.531802,1000,24120.012723
475.457711,1000,24127.67557
413.844485,1000,24141.58989
498.015725,1000,24149.363784
417.883951,1000,24163.529596
400.181282,1000,24171.573263
552.957372,1000,24186.531816
465.468144,1000,24194.073074
442.36835,1000,24208.00784
403.845662,1000,24215.691953
310.390051,1000,24229.717113
421.849863,1000,24237.283006
408.386801,1000,24251.256398
499.204117,1000,24258.933094
431.258339,1000,24272.903211
537.201374,1000,24280.506702
514.441419,1000,24294.696117
449.912511,1000,24302.215302
336.655425,1000,24316.224567
341.150905,1000,24323.873949
440.421013,1000,24337.877179
432.823888,1000,24345.22562
423.975671,1000,24359.400953
441.937309,1000,24366.886234
442.278124,1000,24381.304616
414.446201,1000,24389.184618
374.83709,1000,24403.23629
322.770738,1000,24410.94709
451.298812,1000,24424.958395
452.271701,1000,24432.523963
298.565723,1000,24446.53682
387.818101,1000,24454.054133
484.34016,1000,24468.021827
377.658882,1000,24475.509174
371.136066,1000,24483.155426
374.566798,1000,24497.207443
427.117953,1000,24504.862582
421.114759,1000,24518.854237
335.086529,1000,24526.492963
437.424204,1000,24540.638611
350.312643,1000,24548.169515
434.224509,1000,24562.08571
397.5153,1000,24569.668709
376.961838,1000,24583.594923
296.845284,1000,24591.224717
412.9826,1000,24605.495106
422.43369,1000,24612.972508
