# {"t_start": 1547636724.5505939, "env_id": "RoboschoolHumanoidFlagrunHarder-v1"} 
r,l,t
-101.867273,170,12.690556
-87.535655,170,22.363489
-53.832382,170,31.587775
-71.725067,170,1232.742974
-77.793602,170,1241.567495
-90.371933,170,1250.872609
-70.89535,170,2425.529669
-48.65087,170,2434.106806
-6.239333,170,2442.565624
9.515669,19,3417.836985
8.047852,29,3419.53213
-76.819531,170,3427.156154
-90.791953,170,3436.135187
-57.580067,170,4425.374309
-1.649521,19,4426.191016
-65.528581,170,4434.909997
-40.77182,170,4442.767948
-0.868873,24,4444.140171
-62.450695,170,5423.582381
-68.644215,170,5430.469811
-58.607565,170,5437.473297
-98.398743,170,6421.86606
-91.915891,170,6428.768763
-99.241517,170,6437.624303
-110.546385,170,7397.372294
2.456884,16,7398.438076
-110.344151,170,7406.907933
3.477937,20,7407.848382
3.337042,18,7408.758476
-126.868498,170,7416.018815
-77.546727,170,8378.121783
5.431376,18,8379.169175
10.304244,18,8380.072988
-89.946106,170,8387.029423
-16.28464,170,8395.951517
0.599454,17,9357.071216
-70.240747,170,9364.834936
-105.140058,170,9373.849633
-98.804485,170,10340.033216
-76.553611,170,10348.379243
-94.635003,170,10356.163497
-45.734084,170,11516.418866
-99.195227,170,11525.646388
-103.062733,170,11535.898828
-49.544285,186,13094.474059
-5.787598,18,13095.432592
3.973694,18,13096.583008
4.362798,17,13097.476625
38.594071,170,13108.738049
-16.188476,170,13116.899222
-60.932883,170,14725.729983
-120.053832,170,14736.40773
-104.963858,170,14746.798586
-59.227804,170,16382.437685
-23.57513,170,16393.605067
-95.894292,170,16403.637686
2.23185,17,16404.481072
-114.408537,170,18030.770384
-109.083867,170,18043.275076
-7.615402,170,18053.549217
-34.505751,170,19684.429642
-44.989309,170,19696.675888
-77.968526,170,19707.021719
-113.59145,170,21327.684042
-76.795482,170,21336.627661
7.784965,21,21337.728634
-0.199472,22,21338.806452
-71.701303,170,21348.603027
-60.196094,170,22975.312654
-79.184284,170,22985.830686
-114.820643,170,22996.356601
-49.254756,170,24635.048814
-100.6641,170,24645.95002
-1.370558,19,24647.367727
5.794655,18,24648.66195
5.28876,18,24649.801765
-86.983571,170,26298.773374
-4.036914,17,26299.86374
-110.450362,170,26312.020023
-0.357056,16,26313.266936
-145.699233,170,26324.294892
-114.210656,170,27984.097215
-8.79487,18,27985.135867
1.262028,19,27986.094479
-128.090397,170,27996.489235
1.492889,18,27997.616562
-102.858881,170,28008.574744
-7.572236,18,28009.573531
-129.154429,170,29680.272847
-105.433617,170,29691.760272
-96.454278,170,29702.800443
-95.820589,170,31493.508713
-81.194321,170,31503.398429
-81.056941,170,31514.410926
-1.862579,19,31515.727839
