# {"t_start": 1552337306.4039137, "env_id": "KungFuMasterNoFrameskip-v0"} 
r,l,t800.0,1251,102.46242
200.0,740,147.127846
500.0,872,228.10103
300.0,839,280.818993
100.0,885,337.281378
500.0,1096,436.245264
300.0,917,497.250562
0.0,778,546.833537
400.0,821,597.609048
200.0,866,679.816323
500.0,863,734.82615
1300.0,1083,806.137177
900.0,953,894.693935
800.0,1076,964.468004
300.0,861,1019.195742
100.0,932,1106.078226
600.0,933,1167.541812
1000.0,998,1230.045058
1200.0,1132,1328.716822
700.0,968,1390.42348
400.0,1014,1478.544735
900.0,975,1538.325523
600.0,1069,1606.623716
900.0,869,1688.870537
900.0,930,1747.553263
500.0,1227,1825.175091
200.0,1006,1916.542879
2400.0,1190,1992.640968
1000.0,1022,2085.649402
1500.0,970,2146.17081
700.0,934,2204.672791
600.0,1147,2306.331974
900.0,1180,2382.172976
200.0,882,2437.969231
300.0,793,2516.280867
1300.0,1242,2596.501456
1100.0,1003,2663.048746
1300.0,927,2747.842775
1000.0,1280,2833.06838
1100.0,1114,2934.342975
700.0,1330,3018.226346
800.0,1204,3123.328665
1500.0,1044,3188.357602
900.0,909,3243.919335
2900.0,1375,3362.233634
0.0,844,3418.844792
1300.0,900,3478.057483
2100.0,1253,3588.322001
300.0,829,3640.861522
600.0,827,3693.456756
1500.0,1046,3786.511744
300.0,964,3849.437155
1200.0,856,3903.505192
900.0,836,3985.070182
900.0,1162,4058.53639
600.0,889,4118.035351
1400.0,1043,4211.345106
400.0,1038,4277.451602
900.0,1066,4372.457097
2000.0,1241,4448.536429
1100.0,1231,4525.647458
1800.0,1227,4633.338533
1600.0,1054,4698.494495
600.0,877,4782.365838
2100.0,1160,4855.469324
1500.0,1071,4924.021351
1300.0,1081,5017.635524
300.0,815,5070.595632
1400.0,1222,5151.090544
1100.0,1153,5253.768231
2200.0,1230,5334.096395
900.0,1033,5427.255576
1900.0,1194,5504.988863
500.0,842,5560.393277
2600.0,1320,5671.443455
1400.0,916,5729.144225
900.0,929,5818.303056
2700.0,1311,5901.707805
3900.0,1471,5997.588374
2700.0,1121,6097.61903
1200.0,1012,6160.003521
2100.0,1117,6254.967967
2200.0,1157,6332.13068
2100.0,1255,6436.64478
2900.0,1334,6521.520882
1300.0,829,6575.3083
2100.0,1101,6669.192517
1700.0,1233,6748.538572
3600.0,1565,6875.372967
3400.0,1569,6975.171185
1900.0,1174,7076.687548
4100.0,1563,7177.122261
3200.0,1424,7295.161724
2500.0,1305,7379.181777
3600.0,1575,7510.246794
2800.0,1235,7589.039151
4300.0,1380,7702.536923
5300.0,1656,7807.855497
7300.0,1631,7938.675278
3000.0,1210,8018.429106
2800.0,1191,8121.874422
2500.0,1134,8196.669489
9100.0,2015,8352.555752
3000.0,1222,8430.876014
3900.0,1468,8554.499453
3000.0,1197,8632.125529
1600.0,1174,8732.4132
5600.0,1520,8830.866437
4400.0,1372,8943.549574
7100.0,1864,9059.509074
3000.0,1574,9187.364746
12100.0,2139,9350.516638
7100.0,1717,9458.442739
4500.0,1599,9587.17523
5600.0,1855,9710.257207
4600.0,1478,9831.526671
9700.0,2030,9988.931773
5300.0,1400,10080.580123
4000.0,1085,10175.196332
5600.0,1641,10280.140768
6500.0,1626,10414.692631
7400.0,1723,10523.227439
6100.0,1626,10654.546357
6000.0,1669,10793.072005
5000.0,1764,10905.317147
15000.0,2701,11105.549225
14100.0,2169,11268.303101
8500.0,1717,11405.999323
12400.0,2051,11538.751583
9500.0,1979,11688.717032
13300.0,2185,11853.040244
11300.0,1970,11976.757374
9300.0,2000,12131.048038
10600.0,1881,12274.743579
11100.0,2361,12452.399348
4600.0,1268,12533.792003
14000.0,2165,12699.733572
9700.0,1792,12840.635954
9900.0,1835,12958.121446
9900.0,2061,13112.45256
5200.0,1260,13193.536452
9600.0,1929,13343.316769
9100.0,1731,13480.104577
18400.0,3233,13715.701388
9500.0,1843,13858.003922
11500.0,2138,13992.281287
12100.0,2300,14160.747027
14900.0,2370,14338.944598
11900.0,2120,14500.826011
12000.0,1974,14622.940978
11900.0,2305,14796.198391
7500.0,1910,14944.821842
13600.0,2463,15128.094775
10800.0,1982,15251.228841
19900.0,3447,15521.405164
12100.0,2126,15656.149169
15900.0,2534,15847.218484
8800.0,1861,15991.535151
13400.0,2177,16154.928816
19700.0,2821,16359.582087
10900.0,2168,16525.010783
12800.0,2090,16656.188339
23000.0,3287,16919.11993
11200.0,2268,17067.445267
19700.0,3031,17289.127429
15500.0,2527,17478.291147
5000.0,1459,17598.102987
12100.0,2119,17759.360467
19100.0,3064,17981.068607
17000.0,2579,18176.333756
12900.0,2397,18328.62477
9700.0,1715,18462.494661
12600.0,2235,18632.888161
15200.0,2292,18803.980663
23500.0,3071,19023.81279
11900.0,2231,19192.168201
22800.0,3320,19428.336534
18800.0,2884,19642.449641
5700.0,1457,19737.527988
14700.0,2522,19923.371844
10000.0,2191,20085.345828
6400.0,1552,20211.357182
12900.0,2455,20367.366004
18000.0,2833,20574.535684
22000.0,3452,20843.011937
13300.0,2376,21021.608632
9000.0,1969,21144.021024
9700.0,2102,21305.112041
14000.0,2648,21502.955335
11800.0,2270,21673.081101
13500.0,2269,21849.145376
13600.0,2487,22008.833554
15400.0,2577,22203.643645
12800.0,2403,22381.84159
10900.0,1972,22533.674868
19600.0,3211,22768.317288
12500.0,2368,22944.875242
22000.0,3419,23188.601734
8800.0,1903,23332.592551
18300.0,3068,23555.714235
15700.0,2743,23756.935533
11500.0,2023,23916.683632
13800.0,2437,24076.079564
14200.0,2270,24245.701615
18100.0,2859,24456.460513
15000.0,2727,24656.862989
15000.0,2334,24832.923553
13900.0,2560,25019.285717
14300.0,2516,25206.313044
9600.0,2281,25379.941292
12900.0,2509,25564.651635
15600.0,2859,25773.610292
13400.0,2411,25926.305182
10500.0,1932,26078.112799
14600.0,2533,26268.462328
11200.0,2034,26423.564711
8900.0,1678,26528.561137
19200.0,3016,26744.930614
16300.0,2580,26936.590434
21100.0,3138,27188.587404
15200.0,2603,27358.982423
19800.0,3002,27598.435988
6300.0,1771,27712.284147
8300.0,1845,27861.164845
16000.0,2583,28050.544898
10800.0,2036,28177.922283
9500.0,1979,28334.042584
18800.0,2652,28531.641545
8000.0,1641,28666.408806
11100.0,2033,28797.149024
18600.0,3065,29047.531758
17100.0,2796,29252.74807
10500.0,2175,29395.480514
14400.0,2472,29582.808845
8400.0,1638,29717.048052
11700.0,2455,29901.509265
18300.0,3231,30131.81327
21100.0,2897,30343.180845
8500.0,1736,30451.47478
6800.0,1415,30567.929402
10300.0,2111,30730.347163
11800.0,2383,30908.026656
14100.0,2445,31066.096811
13300.0,2344,31242.415911
17000.0,2785,31443.454543
13300.0,2238,31613.442921
23400.0,3323,31852.165273
15700.0,2769,32054.165496
15100.0,2654,32248.325284
10500.0,2362,32422.820419
11200.0,2259,32595.786188
15400.0,2641,32794.961167
16500.0,2889,33006.19887
3300.0,1225,33086.101816
8800.0,1908,33233.655316
12800.0,2419,33415.117184
17000.0,2790,33619.339225
14400.0,2684,33810.588433
15500.0,2723,34013.798403
8100.0,1844,34129.344672
16300.0,2842,34336.767029
16500.0,2990,34559.297025
21400.0,3165,34814.416759
10600.0,2150,34949.789559
11800.0,1854,35091.500983
14500.0,2250,35263.821917
15500.0,2886,35472.618414
16400.0,2693,35669.541528
11900.0,2342,35846.141725
12200.0,2028,35979.155632
15100.0,2639,36175.968865
9800.0,1931,36328.783579
11600.0,1882,36475.036081
16500.0,2825,36679.533688
16900.0,2924,36892.918834
16000.0,3001,37109.158887
13600.0,2509,37296.709055
11400.0,2490,37483.697791
10800.0,2345,37633.495737
13800.0,2504,37819.084903
13700.0,2369,37996.290493
12700.0,2469,38185.788708
15400.0,2402,38364.061611
15800.0,2559,38557.605342
11400.0,2297,38729.910919
16000.0,2872,38937.127252
11800.0,2196,39076.455281
10600.0,2206,39238.836576
19000.0,3066,39456.431971
9900.0,2114,39616.959545
15900.0,2961,39827.534137
11200.0,2075,39987.941064
15300.0,2588,40179.823129
17700.0,3214,40415.870665
24100.0,3458,40667.056698
10400.0,1909,40813.173565
11100.0,2307,40989.271194
9800.0,2073,41120.383716
11700.0,2221,41291.299464
12400.0,2435,41474.052667
16700.0,2927,41691.897632
18900.0,3145,41921.888737
14900.0,2567,42108.989762
10600.0,2176,42277.026002
12400.0,2327,42456.232527
7200.0,1803,42568.717637
14600.0,2685,42770.437162
17800.0,2834,42979.62852
11800.0,2376,43153.891213
11200.0,2409,43334.59153
14300.0,2706,43531.310949
8700.0,1897,43676.977909
15700.0,2548,43865.66967
15900.0,2900,44075.632797
12700.0,2467,44233.792608
9900.0,1962,44384.910757
9200.0,1972,44535.031003
15200.0,2743,44732.107205
15600.0,2421,44908.838492
14500.0,2574,45090.132383
13800.0,2572,45278.244277
14700.0,2639,45466.70523
11700.0,2153,45599.51481
12200.0,2244,45763.026802
13200.0,2571,45947.218603
16800.0,2864,46153.420608
8200.0,1734,46282.576393
14000.0,2146,46417.562382
14900.0,2634,46607.251622
12500.0,2145,46767.707281
11400.0,2229,46932.199329
17000.0,2523,47111.73364
7800.0,1796,47221.43518
9600.0,2020,47369.972295
17700.0,2959,47580.086134
11800.0,2253,47746.460481
13200.0,2121,47907.481344
19600.0,3182,48128.617491
19800.0,3212,48352.368321
17100.0,2761,48549.24763
17200.0,2912,48757.500644
10900.0,2097,48914.035459
17300.0,3050,49134.390779
10000.0,1864,49277.417819
12600.0,2354,49423.273561
15400.0,2908,49631.937243
11100.0,2146,49792.325611
13000.0,2413,49969.609221
10200.0,1977,50116.880853
10900.0,2025,50270.34138
16600.0,2738,50440.195045
15200.0,2887,50673.400942
18400.0,2848,50873.201152
12700.0,2364,51022.67681
8900.0,1644,51152.44403
14300.0,2544,51341.283806
13200.0,2177,51504.735367
9600.0,2450,51688.444843
26200.0,3769,51961.290644
10000.0,2019,52121.147038
20000.0,3079,52345.489197
9600.0,2300,52521.587573
13200.0,2340,52671.322668
11800.0,2309,52842.08718
11300.0,2122,53002.964708
13300.0,2330,53183.78062
22200.0,3304,53427.720101
13100.0,2170,53591.93813
9400.0,2079,53726.256076
19300.0,2934,53962.544858
15700.0,2799,54142.683539
13200.0,2442,54325.183766
11400.0,2076,54484.981574
18400.0,3042,54704.723418
21000.0,3556,54960.574747
14000.0,2713,55158.032771
13300.0,2364,55331.219148
8400.0,1821,55472.611856
20900.0,3324,55707.190479
18600.0,3142,55932.327682
15400.0,2593,56121.285582
19200.0,2966,56328.369405
14900.0,2320,56504.741813
8900.0,1965,56656.337505
10700.0,1994,56777.755745
8800.0,1978,56930.736243
13700.0,2555,57126.035721
17000.0,2983,57343.580139
18300.0,3170,57481.477124
12600.0,2777,57602.387374
16300.0,2719,57726.547426
17800.0,2952,57860.048037
12000.0,2297,57969.298572
18200.0,3048,58105.962535
25100.0,3760,58288.932356
15100.0,2508,58386.698641
16400.0,2768,58511.913571
20100.0,3491,58683.714109
10500.0,2148,58767.595176
15700.0,2510,58883.406491
9200.0,2127,58984.753644
10200.0,1900,59075.88667
19200.0,3070,59212.720835
14500.0,2833,59342.960748
13700.0,2289,59449.523168
19200.0,3178,59586.01228
11900.0,2467,59694.185277
12900.0,2595,59807.785896
16800.0,2818,59929.73483
13100.0,2362,60018.392845
7800.0,1762,60100.075564
22500.0,3474,60245.290603
15100.0,2683,60362.041216
16000.0,3013,60490.039035
15400.0,2807,60611.386842
15700.0,2954,60738.38901
10300.0,1909,60827.258144
15300.0,2632,60942.703692
18000.0,3206,61080.315359
15600.0,3045,61211.589281
7300.0,1818,61296.078757
18500.0,3238,61434.776927
16400.0,3003,61564.411535
24100.0,3366,61706.62784
13800.0,2523,61818.135479
8200.0,1696,61897.176636
10200.0,2200,61996.436709
16700.0,2932,62122.308829
17800.0,2924,62247.980413
14500.0,2296,62350.157378
9900.0,2022,62425.12641
19200.0,2992,62554.440104
16800.0,2691,62671.617382
15500.0,2769,62791.052256
17500.0,2963,62918.706589
12200.0,2400,63024.584875
15400.0,2798,63145.448392
9000.0,1883,63232.133304
19600.0,3438,63378.096498
17300.0,3149,63512.45969
16500.0,2676,63629.164365
12300.0,2507,63736.207255
13600.0,2412,63838.938798
14600.0,2670,63950.03692
12900.0,2498,64055.23823
8100.0,1802,64120.083562
14500.0,2590,64229.15048
17500.0,2889,64348.966483
10000.0,2021,64436.024285
9100.0,1808,64516.764807
19300.0,3067,64641.607242
11500.0,2073,64731.467081
20200.0,3452,64872.747437
18100.0,3408,65011.818609
20000.0,2762,65127.447594
13800.0,2505,65232.852885
12900.0,2239,65328.874577
21500.0,3541,65471.506259
17800.0,2939,65592.008239
18400.0,2962,65714.017791
13600.0,2344,65813.430933
12400.0,2443,65915.79635
10600.0,2298,66013.062497
13100.0,2388,66099.916866
14000.0,2550,66206.680645
14600.0,2583,66314.977488
11700.0,2153,66408.143138
15600.0,3178,66538.801617
10200.0,2067,66627.412581
13000.0,2411,66730.063056
15800.0,2471,66834.240251
24800.0,3877,66989.437408
9000.0,1860,67071.199669
23600.0,3778,67226.265222
18700.0,3258,67363.546807
10200.0,1877,67447.169685
9000.0,1905,67531.253377
17100.0,2565,67624.706632
15200.0,2712,67737.891973
10800.0,2306,67836.546769
13300.0,2585,67947.217236
11400.0,2293,68047.064907
16200.0,2842,68168.088637
11000.0,2368,68270.129895
12900.0,2471,68376.776558
15600.0,2407,68480.268213
14200.0,2494,68571.69102
17300.0,3018,68713.952337
21300.0,3560,68863.195745
8400.0,1944,68951.314004
17700.0,3160,69082.656337
15700.0,2741,69197.774181
8100.0,1709,69260.153532
12900.0,2419,69362.340938
15800.0,2782,69477.58775
18300.0,3340,69614.650993
11100.0,2196,69709.631525
13800.0,2598,69819.494066
9300.0,1864,69901.233071
23700.0,3494,70042.965306
11500.0,2115,70134.950204
12600.0,2236,70216.166176
21500.0,3538,70374.209914
17300.0,3331,70509.436149
13400.0,2522,70615.418077
20400.0,3216,70747.735237
19300.0,3525,70890.341956
13900.0,2781,71005.725432
13700.0,2513,71111.020412
14400.0,2706,71223.217746
9500.0,1924,71307.709857
13000.0,2410,71410.078366
16900.0,2729,71523.681839
11800.0,2037,71598.011719
16400.0,2850,71715.669351
15200.0,2387,71817.270757
10600.0,2350,71916.355761
14700.0,2620,72025.627992
12900.0,2522,72131.703594
16800.0,2745,72246.447957
18200.0,3423,72385.800412
18300.0,3240,72517.647215
9000.0,1981,72604.027402
10600.0,2070,72691.737652
10600.0,2305,72775.81069
17900.0,3216,72921.106891
14800.0,2818,73038.161204
12200.0,2418,73125.755825
13200.0,2548,73232.555732
12900.0,2431,73334.872827
11900.0,2689,73446.695443
11600.0,2346,73545.695535
13200.0,2617,73654.625278
17100.0,3363,73790.591065
12800.0,2469,73894.083909
20200.0,2921,74014.358268
21800.0,3577,74159.18256
20300.0,3568,74316.797375
13000.0,2454,74420.153178
14700.0,2690,74531.378597
10800.0,2275,74614.128278
15700.0,2775,74729.365515
23600.0,3606,74888.552875
11900.0,2508,74979.215749
16200.0,2902,75113.032135
16600.0,2924,75233.748307
23200.0,3795,75385.967425
15900.0,2790,75501.051154
13400.0,2351,75601.359026
20400.0,3786,75753.344782
16700.0,2670,75864.41065
10900.0,2252,75960.979542
18700.0,3070,76086.174257
17500.0,3087,76212.959741
12300.0,2229,76308.782822
19900.0,3322,76443.627168
18700.0,3160,76573.045131
23400.0,3942,76743.31935
7800.0,1878,76811.352977
10200.0,2150,76903.248734
14800.0,2760,77017.082154
