# {"t_start": 1547076279.0357723, "env_id": "KungFuMasterNoFrameskip-v4"} 
r,l,t
1300.0,915,22.111445
700.0,936,38.917285
1000.0,1062,57.559032
2000.0,1369,81.997897
2700.0,1342,107.799298
1800.0,1236,131.001147
600.0,938,147.561038
1600.0,991,167.116147
2200.0,1038,187.847246
3400.0,1265,212.463032
4300.0,1613,244.299121
2700.0,1060,265.572931
3200.0,1456,296.897025
2100.0,1359,327.233768
4500.0,1699,365.389719
3300.0,1659,404.646471
2900.0,1369,434.71388
5100.0,1503,468.63518
7600.0,2016,513.310134
3100.0,1301,541.669793
6600.0,1663,579.005008
8500.0,1826,619.829812
6900.0,1639,656.450722
12700.0,2149,703.890492
11700.0,1921,747.127895
7500.0,1529,780.474999
9400.0,1970,824.045635
8500.0,1726,862.816379
11200.0,1848,904.538997
10700.0,1843,945.343186
11400.0,1932,988.354361
9200.0,1622,1024.71535
9300.0,1842,1068.195187
9900.0,1796,1110.039792
11800.0,1932,1160.410159
12100.0,1816,1205.38859
14300.0,2024,1257.813054
14200.0,2236,1318.519961
11600.0,1804,1367.649458
20200.0,2887,1449.72674
11200.0,1753,1502.649658
12100.0,1957,1561.264005
10200.0,1583,1612.886084
12700.0,2157,1683.371948
11400.0,2028,1750.203959
19800.0,2818,1846.225198
13800.0,2201,1924.181416
4800.0,1035,1965.161434
11300.0,1930,2037.322017
17300.0,2453,2128.27102
10500.0,1627,2192.189172
21300.0,2664,2301.441133
14900.0,2336,2393.769709
14200.0,2023,2474.79288
24900.0,3135,2602.773049
22900.0,2887,2717.875405
37400.0,4036,2882.102546
20000.0,2789,2996.399353
27700.0,3038,3117.613832
10000.0,1737,3187.054792
34800.0,3812,3339.551078
20800.0,3312,3472.726449
14400.0,2121,3557.345635
7800.0,1304,3608.555172
18300.0,2390,3702.082283
10600.0,1706,3771.258043
21800.0,2674,3878.743587
22600.0,2675,3986.148981
17800.0,2242,4074.963378
15600.0,2148,4161.300658
28800.0,3172,4289.606717
12600.0,2015,4369.690161
22100.0,2939,4489.492038
16400.0,1853,4565.016347
19000.0,2364,4659.763759
15900.0,2193,4749.96657
22100.0,2806,4862.860348
17200.0,2506,4964.127711
30500.0,3522,5106.12771
31700.0,3302,5236.941141
28000.0,3015,5355.595015
25900.0,3085,5480.519498
16600.0,2131,5563.361753
30800.0,3420,5698.001241
18000.0,2346,5794.339592
19400.0,2410,5890.947388
19600.0,2556,5993.349169
14200.0,2117,6080.048946
10900.0,1630,6146.090326
18800.0,2293,6237.682469
19400.0,2412,6333.480356
25600.0,2902,6452.170305
31900.0,3538,6593.429049
15300.0,2005,6672.650179
19900.0,2522,6773.410741
15300.0,2234,6863.226658
16100.0,2238,6952.365649
12000.0,1798,7024.945231
25500.0,2947,7143.683806
12600.0,2257,7232.991766
13900.0,2334,7326.245887
11200.0,2072,7409.333689
13300.0,1998,7487.705125
8700.0,2024,7568.271411
13200.0,2313,7660.595963
28200.0,4205,7831.897011
25500.0,2814,7942.72958
19700.0,2845,8056.187379
20600.0,3094,8181.437683
18500.0,2778,8289.775455
22400.0,3145,8418.136305
28500.0,3769,8571.944329
18000.0,2455,8669.683918
20800.0,2376,8763.880125
23700.0,3041,8884.653485
23800.0,2985,9004.976605
15200.0,2052,9086.772943
12300.0,1928,9165.005746
27300.0,3596,9309.796432
20000.0,2797,9421.868472
12300.0,1784,9493.293325
12600.0,2205,9582.993123
22100.0,2741,9693.230422
19400.0,2345,9788.707241
15200.0,2134,9874.090817
12400.0,2123,9960.490403
22100.0,2966,10076.05997
23100.0,3110,10201.41035
26400.0,3137,10324.730911
20600.0,2953,10446.496194
17900.0,2584,10550.96431
25400.0,3159,10677.363184
16700.0,2296,10767.980094
12600.0,1878,10842.234664
22600.0,2737,10953.289481
25100.0,2977,11071.690174
35000.0,3787,11224.608138
14200.0,2140,11308.435061
14900.0,2333,11401.270416
20800.0,2671,11510.815177
12500.0,1818,11582.254282
23600.0,3123,11702.868713
24800.0,3448,11843.486913
14000.0,2175,11932.02639
18800.0,2577,12035.183678
19000.0,2585,12141.045296
8800.0,1522,12202.931635
17400.0,2695,12310.029526
17500.0,2585,12410.935111
11700.0,1698,12479.563704
15300.0,2472,12576.321597
12300.0,2077,12660.940646
18100.0,2668,12767.76356
18700.0,2748,12879.225451
26800.0,3074,13002.270617
14800.0,2201,13091.9122
26400.0,3220,13219.763149
11200.0,1640,13285.884876
16300.0,2554,13389.861655
11100.0,2025,13468.603006
19000.0,3230,13597.818076
25200.0,3725,13745.499984
18300.0,2807,13858.129549
17600.0,2886,13973.773998
11800.0,2742,14083.585026
14800.0,2932,14201.438889
12100.0,2457,14298.762057
16000.0,2778,14412.556085
31100.0,4764,14601.754861
17400.0,2553,14704.964799
13400.0,2132,14791.105328
20900.0,2816,14905.977827
17400.0,2491,15005.743334
10700.0,1690,15072.78673
17900.0,2675,15180.117558
25000.0,3000,15301.479089
17100.0,2718,15412.290742
11300.0,2297,15504.619094
20400.0,3051,15624.007791
17500.0,2630,15727.620971
17400.0,2465,15828.930892
19500.0,2705,15940.305974
16700.0,2414,16036.790901
11200.0,1644,16102.802742
26700.0,3031,16225.192234
16500.0,2716,16335.59935
6700.0,1369,16391.024344
22300.0,2822,16503.319749
27800.0,2995,16622.802667
26500.0,3000,16742.733511
19600.0,2764,16855.954027
30400.0,3590,16998.741246
20400.0,2629,17104.085843
38600.0,4053,17267.487611
23100.0,3013,17388.531683
37900.0,4486,17570.397876
13000.0,1950,17650.137454
20400.0,2566,17753.280641
21300.0,3114,17877.428739
19300.0,2644,17983.156518
27300.0,3480,18121.0508
22100.0,2778,18232.021427
25200.0,3478,18369.644669
20900.0,2821,18482.691313
18700.0,2535,18586.243657
17000.0,2438,18685.881248
16800.0,2365,18780.938503
18700.0,2476,18881.087309
15500.0,2260,18973.044621
31100.0,3914,19130.45971
15800.0,2500,19228.825482
24200.0,3230,19356.605255
34300.0,4067,19517.777315
7600.0,1430,19573.689517
29000.0,3224,19704.270186
13300.0,2035,19784.551737
18200.0,2725,19893.649637
16500.0,2584,20000.454115
16400.0,2244,20088.90257
18300.0,2556,20191.543691
22800.0,2958,20308.180299
29500.0,3374,20445.851891
14400.0,2180,20532.843057
17100.0,2468,20627.621057
14000.0,2159,20715.576861
22900.0,3156,20840.862167
20900.0,2774,20951.959185
15800.0,2458,21053.083469
24200.0,3376,21187.755268
18700.0,2581,21293.149446
12000.0,1845,21366.417761
20200.0,2745,21478.630263
17700.0,2529,21581.073005
21100.0,2870,21696.809612
29400.0,3259,21825.891951
21000.0,2940,21942.777855
15600.0,2296,22031.608416
14100.0,2523,22131.966163
19300.0,2826,22245.873133
15900.0,2312,22337.723321
16400.0,2521,22439.311939
19800.0,2850,22553.032786
25600.0,3100,22676.568554
17500.0,2460,22775.320063
20400.0,2821,22887.831198
22600.0,3014,23007.92763
18000.0,2452,23106.791586
22300.0,2778,23221.346204
29500.0,3314,23354.549668
16400.0,2290,23446.116555
22000.0,2901,23562.890425
18300.0,2627,23667.155249
12900.0,2072,23750.64162
17100.0,2749,23862.111307
16400.0,2472,23962.101306
5700.0,1441,24019.148477
13000.0,2128,24107.355051
13200.0,2073,24190.049329
21500.0,3112,24314.757734
14400.0,2301,24408.175576
33100.0,4395,24582.599035
26400.0,3477,24722.065572
10000.0,1716,24791.010016
18900.0,2763,24902.872632
20800.0,2889,25016.231045
22100.0,2923,25134.255775
17300.0,2399,25229.793859
17700.0,2441,25326.364663
22100.0,3391,25461.513466
15000.0,2562,25567.587144
22700.0,3080,25688.495477
20600.0,2454,25786.108961
19400.0,2520,25888.600202
14600.0,2402,25985.631099
27100.0,3147,26113.446716
24700.0,3437,26251.443974
20900.0,3160,26374.544312
23100.0,2715,26482.121236
29800.0,3298,26608.385454
24200.0,3258,26736.353887
12400.0,2070,26815.745476
19100.0,2669,26918.010814
11100.0,1933,26993.438828
23600.0,3067,27113.590915
16500.0,2520,27213.731126
16400.0,2506,27307.910127
27600.0,3407,27443.15474
26700.0,3544,27578.55366
20800.0,3105,27697.096992
27700.0,3897,27846.84233
13000.0,2235,27935.27677
17900.0,2683,28040.785376
20300.0,2572,28140.068949
23200.0,3213,28264.064826
19500.0,2703,28368.742357
23000.0,3217,28493.520535
42900.0,4891,28685.527206
20900.0,2761,28792.790475
22000.0,2814,28903.052228
17400.0,2711,29005.364106
25800.0,2982,29118.291028
21400.0,2721,29222.929671
24100.0,2601,29323.140871
26300.0,2994,29439.77649
23000.0,3145,29562.487041
26500.0,3369,29695.672816
16900.0,2592,29797.655081
16100.0,2202,29882.825165
16600.0,2780,29991.851445
18200.0,2286,30081.850491
23600.0,2783,30191.002012
17500.0,2563,30288.75459
32100.0,3431,30422.992444
40500.0,4374,30597.0271
18500.0,2514,30697.625877
20400.0,2567,30799.71194
27800.0,3124,30923.557261
16600.0,2233,31011.454711
26900.0,2994,31125.515757
28800.0,3446,31259.283018
15700.0,2056,31337.641428
15400.0,2413,31430.332112
20000.0,2848,31540.65167
21300.0,2789,31648.723378
17400.0,2366,31742.526219
18700.0,2234,31830.924895
36400.0,3821,31978.766332
25500.0,3100,32100.79703
30100.0,3253,32228.01633
29800.0,3419,32360.974535
25100.0,2778,32467.860813
27600.0,3201,32591.223388
31900.0,3282,32717.995136
17400.0,2130,32802.399984
30100.0,3550,32941.107311
23500.0,2942,33056.287604
17100.0,2524,33152.492671
24700.0,3150,33273.166587
31700.0,3423,33407.418748
18500.0,2376,33500.085665
31400.0,3266,33628.778395
20400.0,2714,33734.47502
18000.0,2528,33832.952489
19400.0,2630,33936.013534
36500.0,4245,34104.597886
22300.0,2740,34214.2346
22400.0,2668,34322.868252
19600.0,2311,34415.057233
27800.0,3479,34555.44521
42800.0,4476,34733.191341
29500.0,3322,34865.433721
33700.0,4147,35029.946133
31700.0,3765,35180.560922
22700.0,2941,35299.325268
19900.0,2793,35410.397334
27800.0,3612,35555.7531
24600.0,3378,35690.494085
16900.0,2775,35801.65596
22500.0,3103,35924.603619
27900.0,3478,36065.169877
28100.0,3811,36214.088985
25100.0,3429,36349.287083
7200.0,1430,36407.289972
21100.0,2719,36513.669417
37300.0,3973,36670.245179
15900.0,2602,36776.749067
25200.0,3206,36907.823046
24400.0,3152,37035.534385
17000.0,2466,37133.259893
15100.0,2233,37222.046583
18300.0,2453,37322.208015
16000.0,2273,37412.825305
21200.0,2959,37530.495307
34200.0,3990,37693.323864
29500.0,3317,37824.700286
26600.0,2850,37938.02591
24100.0,3007,38058.781769
30900.0,3681,38204.166749
44900.0,4747,38394.464103
17900.0,2725,38504.337643
18400.0,2627,38606.820454
27300.0,3483,38747.546608
19700.0,2812,38859.153522
16000.0,2657,38966.838262
23900.0,3435,39105.917797
32000.0,3935,39264.667078
17300.0,2458,39362.120242
26400.0,3461,39499.451016
18600.0,2628,39602.295403
27100.0,3609,39748.268608
29700.0,3941,39905.348587
22000.0,3018,40022.842756
33900.0,3804,40169.536834
35800.0,4230,40335.137832
28800.0,3552,40475.675418
34800.0,3546,40618.056913
33900.0,3865,40771.242393
11800.0,2074,40852.998681
26600.0,3086,40975.595511
28800.0,3520,41114.128167
33800.0,3862,41263.79473
32800.0,4090,41420.847069
38400.0,4678,41605.87407
41600.0,4442,41781.128269
19300.0,2465,41877.946339
31600.0,3407,42009.740374
22000.0,2640,42111.291816
45800.0,4626,42293.470351
40600.0,4241,42460.972049
31600.0,3758,42605.611028
20000.0,2625,42707.913204
34800.0,3827,42859.20001
31900.0,3552,42997.74365
28900.0,3324,43128.299605
24300.0,3063,43246.667854
44500.0,4746,43430.462358
22300.0,2523,43529.036988
32700.0,3975,43681.250283
41200.0,4454,43852.545313
26800.0,3433,43985.100367
17400.0,2342,44078.540154
22900.0,2963,44193.9955
43300.0,4557,44368.598489
23800.0,2907,44479.927335
32500.0,4120,44641.454746
45900.0,4563,44817.735204
39700.0,4120,44976.283954
25300.0,3185,45100.665134
30900.0,3287,45228.199676
37300.0,4184,45389.988451
24600.0,3117,45511.635131
35500.0,3980,45670.140904
35400.0,4219,45836.177965
35700.0,3793,45984.773752
28700.0,4025,46139.894893
32200.0,3694,46283.744626
33900.0,4043,46443.78137
34800.0,4209,46606.019245
23100.0,3326,46736.049644
30300.0,3988,46892.374107
24900.0,3415,47025.46219
39100.0,4423,47198.777571
26200.0,3331,47330.264236
23100.0,3208,47454.020009
27500.0,3396,47587.594818
26400.0,3150,47710.903912
24000.0,3118,47833.071681
26400.0,3067,47948.812746
30400.0,4103,48108.910861
28800.0,3389,48242.695467
30500.0,3758,48391.697546
28600.0,3593,48533.66252
25300.0,3184,48659.448368
12200.0,1981,48737.405015
28300.0,3546,48872.121397
26300.0,3596,49012.29222
21700.0,3214,49139.331067
22700.0,2925,49254.081744
21100.0,2954,49367.014564
42500.0,4502,49544.073171
27200.0,3414,49678.038623
21300.0,3285,49806.547329
20100.0,2455,49901.560974
21900.0,2830,50011.335962
32900.0,4531,50186.579082
23900.0,3602,50328.109601
20900.0,3396,50458.716236
29200.0,3956,50615.219051
25900.0,3483,50750.895249
28400.0,3694,50893.827045
28400.0,4191,51056.829134
27700.0,3726,51203.179531
19600.0,2887,51315.353625
17100.0,2632,51419.206875
17400.0,2778,51526.432843
19000.0,3068,51644.779428
19700.0,2652,51748.243372
24600.0,3455,51883.347294
16800.0,2418,51976.697328
36400.0,4463,52153.306712
27800.0,3374,52285.47742
28200.0,3651,52429.214058
18600.0,3062,52548.027542
18600.0,2719,52655.380091
22400.0,3335,52786.084922
20200.0,3051,52900.460745
37100.0,4540,53078.479792
20300.0,3202,53202.795752
22100.0,3425,53335.246401
26600.0,3933,53488.523872
24300.0,3755,53634.766781
17600.0,3175,53763.831699
26000.0,3854,53919.448304
25900.0,4189,54086.985518
42600.0,4949,54286.239301
21400.0,3148,54413.906072
40800.0,5109,54620.703279
40900.0,4851,54816.694309
27500.0,3981,54975.124166
27200.0,3773,55126.234285
26300.0,3668,55274.995508
37500.0,4675,55464.492055
22200.0,3281,55593.749937
26800.0,3759,55746.978559
32600.0,4513,55931.303423
37300.0,4982,56129.719906
30400.0,4247,56301.996986
28000.0,3693,56450.441071
28600.0,3485,56590.414271
13500.0,2075,56673.147366
23400.0,3164,56799.200605
26900.0,3692,56946.228951
22000.0,3169,57073.49872
34100.0,4009,57233.750561
22400.0,2848,57349.615178
25400.0,3253,57481.925683
25600.0,3335,57612.174551
29000.0,3692,57756.896666
17400.0,2644,57861.61514
34100.0,3988,58015.705017
20700.0,3322,58146.938294
31800.0,3921,58302.912123
27600.0,3397,58434.350626
38900.0,4580,58612.462349
35400.0,3974,58767.109214
32500.0,3689,58908.654675
54500.0,6032,59144.475168
36700.0,4341,59317.038756
38800.0,4563,59495.808075
21200.0,2942,59612.184231
31800.0,3914,59765.03328
24800.0,3151,59884.997022
47800.0,5332,60092.902721
22400.0,2953,60209.436922
37900.0,4409,60377.533748
31800.0,3798,60524.810771
34700.0,3803,60672.654946
32700.0,4297,60836.834385
40800.0,4669,61017.844121
33600.0,3885,61169.732865
29700.0,3753,61315.821329
20300.0,2902,61429.745823
19300.0,2849,61539.896501
30300.0,3988,61692.213194
15000.0,2291,61782.328696
37100.0,4896,61973.156809
24000.0,3542,62111.762537
34100.0,5019,62308.378999
29500.0,4082,62468.275235
28800.0,3690,62610.463879
46000.0,5552,62826.7663
21900.0,3590,62970.424863
10800.0,2364,63062.629742
16700.0,2711,63167.827569
32300.0,4102,63329.324375
16300.0,3023,63445.809874
35300.0,4588,63626.050994
21800.0,3620,63768.32868
24100.0,3324,63896.448127
26200.0,3368,64027.510347
28900.0,4391,64197.295716
28800.0,4562,64373.25354
25300.0,3762,64522.873344
20100.0,3395,64657.659028
17700.0,3283,64784.786048
33800.0,5370,64993.809622
25600.0,3750,65140.789142
14400.0,2605,65241.962731
29600.0,4029,65396.101442
21800.0,3218,65524.42938
19100.0,2992,65643.006585
29600.0,3834,65793.582583
24100.0,2957,65911.105942
23700.0,2965,66025.494649
27800.0,3409,66159.711986
46600.0,5187,66364.537333
31700.0,3499,66502.1474
28500.0,3533,66638.557398
30400.0,3444,66773.64031
38000.0,4297,66941.901546
33700.0,3801,67086.915559
35600.0,4495,67260.978758
26100.0,3188,67386.162084
26400.0,3232,67512.04984
28400.0,3333,67641.040576
23400.0,3016,67758.601666
31100.0,3557,67899.715102
45100.0,4844,68094.558279
30300.0,3665,68245.175167
28500.0,3612,68388.291579
31500.0,3474,68530.495763
29300.0,3535,68670.115018
34900.0,4259,68839.810584
25000.0,3062,68960.597929
12400.0,2142,69045.707311
24100.0,2931,69163.786748
34700.0,4204,69329.103413
21900.0,3092,69449.491904
29100.0,3813,69599.645798
26400.0,3958,69753.968214
19800.0,2655,69857.486394
29500.0,3827,70007.446827
25900.0,3316,70135.811388
20700.0,3107,70254.672489
33700.0,4097,70416.763097
29200.0,3429,70552.484092
15800.0,2392,70645.812912
15500.0,2507,70744.19232
24200.0,3400,70875.488658
18000.0,2719,70982.702835
23600.0,3257,71108.6434
27000.0,4100,71266.357787
28800.0,4014,71423.494873
24100.0,3808,71571.168759
20300.0,3233,71699.437485
27100.0,4155,71862.84817
17200.0,3537,72004.793178
14800.0,3273,72130.385617
12200.0,2771,72240.64759
24300.0,3959,72394.546715
22800.0,3604,72534.890843
18700.0,2902,72649.26837
21000.0,3397,72780.723729
27500.0,4030,72937.46065
25900.0,3930,73091.759175
27700.0,3812,73242.48498
27800.0,4376,73414.962626
35600.0,4258,73581.623438
29000.0,4245,73745.213508
20600.0,2967,73860.521482
23700.0,3661,74007.051022
29700.0,4146,74169.105538
28600.0,3803,74316.700029
24100.0,4028,74476.861166
19100.0,2733,74582.006947
31000.0,4483,74755.898722
24200.0,3602,74897.603453
23300.0,3561,75039.873542
24500.0,3645,75189.377202
29800.0,3657,75339.586014
23500.0,3374,75478.773817
30500.0,3865,75637.34483
21400.0,2847,75755.363396
36300.0,4296,75937.403633
29600.0,3542,76081.897902
27600.0,3292,76216.126796
57200.0,5930,76460.661128
36100.0,4042,76630.184009
36700.0,3870,76787.81503
26400.0,3430,76930.021797
32900.0,3754,77088.472068
21700.0,2720,77203.637927
15700.0,2287,77299.304031
35400.0,4553,77489.744842
36400.0,4365,77671.898471
20700.0,3170,77801.355944
32700.0,4550,77992.75276
20300.0,3393,78132.680866
34500.0,4934,78339.258272
29700.0,4596,78528.939471
27700.0,3537,78677.170423
30200.0,4152,78850.870764
35500.0,4240,79029.250037
18600.0,3152,79158.323344
28000.0,3645,79308.248892
22300.0,3147,79438.569482
32900.0,4043,79605.970831
23500.0,3245,79742.834949
27400.0,3752,79896.579895
39900.0,4673,80091.338264
21400.0,3591,80242.282767
35700.0,4743,80440.161516
21500.0,3596,80589.088632
17300.0,3208,80722.629858
25300.0,3600,80875.570357
26000.0,3812,81034.962039
24700.0,3662,81182.965456
30100.0,4323,81363.893739
19100.0,3233,81498.458774
33100.0,5153,81716.86418
32400.0,4359,81901.006219
17800.0,2942,82024.606559
19300.0,3174,82154.792195
23100.0,3698,82313.202058
41000.0,5061,82520.044759
26500.0,4342,82700.679544
29700.0,4553,82890.007095
18300.0,3429,83034.047084
35300.0,4898,83236.910699
15900.0,3175,83369.5677
19900.0,3644,83516.874856
31300.0,4019,83680.552808
17700.0,2989,83801.639867
35400.0,4752,83996.616116
23900.0,3446,84140.300339
28200.0,3974,84304.362339
39400.0,5020,84514.045816
35500.0,4207,84687.335766
29600.0,3805,84847.308896
26000.0,3466,84993.714068
26600.0,3540,85143.027188
21600.0,3116,85265.621367
50900.0,5962,85502.109461
29500.0,3602,85644.656657
45200.0,4948,85840.524737
44200.0,4617,86025.795164
36400.0,4085,86189.93596
39800.0,4184,86354.306005
46700.0,5002,86551.95685
38300.0,4445,86729.786255
31600.0,3916,86886.060573
35000.0,4478,87066.511086
32900.0,4224,87235.134516
45800.0,5013,87441.0187
31300.0,3726,87590.396959
53800.0,5816,87817.384843
50700.0,5326,88023.830648
41800.0,4937,88216.28037
41100.0,4949,88407.832099
36800.0,3984,88563.373021
35600.0,3956,88719.987041
34000.0,3774,88863.221106
18200.0,2616,88966.035825
55200.0,5588,89184.84007
43100.0,4966,89386.164348
29000.0,3379,89520.340177
55500.0,5596,89736.238975
45500.0,4701,89918.977082
45300.0,5344,90124.003
47000.0,5165,90323.767704
27600.0,3590,90459.871955
44200.0,5811,90682.790541
39800.0,5017,90875.168869
58600.0,6665,91121.62052
49300.0,5818,91338.794709
31100.0,4462,91504.53149
53200.0,6199,91731.788442
25500.0,3419,91857.273031
42800.0,4961,92042.678352
35600.0,4854,92224.504521
57700.0,6252,92450.258768
40200.0,4883,92624.586831
27100.0,3827,92758.200776
49800.0,5728,92963.075409
21700.0,3100,93073.170547
41200.0,5131,93257.636048
40300.0,4915,93434.817975
41900.0,4464,93595.947612
43900.0,4890,93773.914773
22200.0,3066,93884.954876
34500.0,4200,94033.832545
53900.0,5355,94226.79865
27400.0,3481,94352.907707
28800.0,3718,94486.406368
49000.0,5594,94687.050501
57100.0,6072,94902.548047
27900.0,3555,95031.965055
30300.0,3872,95168.900332
39800.0,4485,95330.465287
46700.0,5011,95506.14774
42300.0,4720,95678.882342
43400.0,4672,95846.536843
13500.0,2244,95927.939017
33300.0,4079,96074.647313
36500.0,4552,96231.820432
47800.0,5759,96424.887833
19400.0,2685,96513.621037
28500.0,3684,96639.650846
38800.0,4130,96770.578805
36000.0,4449,96909.798742
32600.0,3864,97034.488195
25700.0,3594,97152.562983
48900.0,5268,97322.130914
