# {"t_start": 1547076280.3941457, "env_id": "KungFuMasterNoFrameskip-v4"} 
r,l,t
700.0,1024,23.639806
1800.0,1233,45.87926
2300.0,1243,68.555313
3100.0,1470,94.863974
2100.0,1382,121.373979
3700.0,1451,147.667135
1700.0,1157,170.717559
1000.0,870,187.921619
3100.0,1342,214.086745
5000.0,1604,245.873789
1900.0,1043,266.473844
4400.0,1302,294.641459
6600.0,1571,329.612098
1300.0,1025,353.053963
2200.0,1159,379.67458
6500.0,1865,422.219849
6000.0,1741,461.548009
5400.0,1682,498.992234
5900.0,1784,537.87272
9700.0,2061,584.145647
8200.0,1622,620.134451
8400.0,1705,658.341485
11600.0,1805,697.861014
12000.0,1856,739.267024
7700.0,1412,770.651488
13700.0,2064,816.141963
10300.0,2038,861.528125
8300.0,1421,894.163648
8700.0,1500,927.206696
8600.0,1724,965.775515
11400.0,1640,1001.721897
5400.0,1335,1032.446513
11600.0,1873,1076.273518
9000.0,1846,1120.279866
16200.0,2486,1183.994184
15400.0,2243,1241.428885
14700.0,2140,1298.250013
9700.0,1804,1347.160774
10200.0,1750,1396.335301
11200.0,1660,1443.555881
12200.0,1742,1496.553364
8700.0,1869,1552.153284
12200.0,2123,1620.810806
22800.0,2764,1710.401118
9600.0,1961,1775.709224
10300.0,1693,1833.634122
15100.0,2250,1913.132905
10700.0,2004,1990.185707
13900.0,2147,2070.600641
16500.0,2311,2156.753172
14900.0,2167,2244.662817
17400.0,2239,2335.67895
10300.0,1595,2398.705156
10800.0,1942,2476.700852
9000.0,1533,2538.452899
12100.0,2194,2626.83087
17300.0,2387,2722.988838
28700.0,3259,2856.10672
23400.0,2821,2970.920657
17200.0,2435,3068.76901
18900.0,2417,3164.694948
23100.0,2813,3278.316336
19700.0,2344,3370.825465
12300.0,1874,3446.717078
13800.0,2086,3530.318902
17300.0,2384,3625.215953
28500.0,3319,3756.474018
27800.0,3100,3882.005782
21600.0,2775,3992.548208
18200.0,2335,4085.695866
17700.0,2227,4175.677968
14800.0,2038,4257.294274
10600.0,1482,4316.861121
17700.0,2332,4410.06921
11700.0,1874,4486.290864
23000.0,2964,4606.30765
25900.0,3174,4735.906913
14800.0,2247,4827.229697
18800.0,2327,4919.603572
16200.0,2283,5011.56809
21200.0,2658,5119.592466
19900.0,2703,5226.702249
19600.0,2353,5319.166764
20100.0,2627,5424.605437
24500.0,3065,5545.92294
17900.0,2524,5644.14171
24500.0,2963,5764.167604
25900.0,3041,5887.642489
17900.0,2666,5994.624083
14000.0,1896,6072.010563
24600.0,3087,6195.641007
13900.0,1892,6271.39709
10100.0,1634,6336.711225
8100.0,1588,6400.8405
10800.0,1637,6468.950116
15200.0,2148,6554.627501
22500.0,2560,6655.346519
17700.0,2065,6737.880487
21600.0,2577,6841.366476
22100.0,2775,6951.760771
16400.0,2131,7038.05775
21300.0,2506,7138.779421
22800.0,2781,7249.690787
20000.0,2721,7358.787704
25700.0,2942,7474.882559
17400.0,2451,7571.826526
20900.0,2452,7669.917159
24800.0,3609,7816.372934
17000.0,2503,7917.073611
23700.0,3166,8042.52284
20900.0,3193,8170.454872
18000.0,2673,8275.122006
15100.0,2381,8372.984042
24700.0,3420,8512.516862
13400.0,2132,8598.526282
19600.0,2945,8714.334714
10900.0,2011,8794.169294
20600.0,2903,8909.15713
16600.0,2412,9007.316538
23400.0,2888,9123.210152
12300.0,2194,9212.418949
25100.0,3008,9333.50873
18600.0,2418,9429.666404
14500.0,2238,9519.912592
17300.0,2492,9620.99141
11900.0,1713,9689.929438
15300.0,2349,9785.209189
18000.0,2303,9877.886415
15100.0,2225,9967.678695
16000.0,2343,10058.935195
12800.0,2202,10147.272712
16900.0,2502,10246.952269
12200.0,1681,10312.565297
17900.0,2334,10408.81096
11700.0,2005,10490.287812
10200.0,2073,10574.011847
13400.0,2182,10661.392913
29400.0,3519,10800.850417
25500.0,2889,10916.70445
22000.0,2769,11027.70104
22700.0,2766,11138.222601
26000.0,3037,11260.476874
14800.0,2366,11353.978294
8100.0,1695,11420.728854
25100.0,3149,11547.996943
24100.0,2997,11665.073879
15400.0,2423,11761.809416
10200.0,1943,11840.991426
14100.0,2179,11929.697105
14300.0,2560,12032.268948
11900.0,2228,12123.866672
13900.0,2418,12221.640258
15600.0,2659,12326.520852
22500.0,2974,12444.577344
24100.0,3227,12571.500861
12800.0,2030,12654.005767
7700.0,1547,12716.399842
16800.0,2575,12819.97069
12700.0,2137,12906.204025
25700.0,3048,13027.850017
19500.0,2472,13128.70927
20500.0,2512,13228.087569
27900.0,3468,13369.338766
8800.0,2121,13451.497597
15900.0,2949,13569.162157
21600.0,3370,13703.889222
16100.0,2555,13805.899171
19400.0,3077,13928.612233
17400.0,2890,14044.409923
13700.0,2956,14163.872851
12100.0,2636,14269.125415
12200.0,2121,14353.036374
13900.0,2801,14466.953109
9400.0,1879,14540.550222
10500.0,1857,14615.392996
16400.0,2402,14713.362358
20700.0,2887,14830.762284
13100.0,2418,14927.702584
16600.0,2505,15027.887368
15900.0,2634,15132.904132
16300.0,2536,15235.532733
16600.0,2390,15333.274819
20700.0,2554,15436.847575
21400.0,2943,15553.136137
18400.0,2718,15660.252761
14900.0,2146,15743.893906
21500.0,2782,15861.0413
17700.0,2588,15965.983389
9800.0,1742,16034.706158
19700.0,2707,16142.659416
26400.0,3067,16268.537737
22700.0,3234,16399.400963
20600.0,2799,16509.865327
38200.0,4257,16682.174571
20900.0,2721,16791.167075
24700.0,3113,16916.540167
27700.0,3610,17061.381446
23000.0,2805,17172.724819
16200.0,2015,17253.713966
31000.0,3537,17396.621627
15000.0,2150,17483.401911
14800.0,2282,17575.954079
20200.0,2893,17693.584035
19100.0,2713,17801.14635
16600.0,2139,17888.597121
22400.0,3071,18011.385947
18100.0,2633,18114.329153
19200.0,2719,18222.636423
16500.0,2314,18314.448873
15800.0,2316,18406.549992
25100.0,3355,18542.076601
21100.0,3036,18666.838161
5300.0,1304,18719.47511
23500.0,3161,18846.203333
9800.0,1677,18915.60138
20900.0,2708,19025.31995
16200.0,2382,19120.458176
19100.0,2644,19224.543653
16200.0,2304,19315.03865
24600.0,3102,19438.828981
19500.0,3150,19562.364494
19500.0,2493,19662.060838
18300.0,2490,19762.166445
19100.0,2616,19867.106909
13000.0,2127,19954.022107
19000.0,2707,20062.025122
29400.0,3451,20200.261214
18500.0,2630,20304.086456
16600.0,2459,20404.657997
22900.0,2905,20521.639769
10400.0,1855,20592.402228
32600.0,3867,20748.176486
17900.0,2545,20848.935648
15200.0,2343,20942.642883
24000.0,3231,21074.819831
27200.0,3526,21215.931003
20700.0,3072,21339.753554
19700.0,2859,21456.064087
12200.0,1945,21535.873344
23300.0,2868,21649.675219
29700.0,3459,21788.484789
13800.0,2071,21870.381803
16500.0,2502,21967.937919
15500.0,2532,22068.962014
22700.0,3160,22195.498134
17600.0,2455,22293.446899
20800.0,3114,22418.750455
20400.0,2992,22537.948637
21200.0,2547,22639.520472
22000.0,3131,22764.626495
19400.0,2723,22874.188279
15600.0,2302,22966.107897
35300.0,4027,23126.320421
23600.0,3182,23258.35554
12100.0,1876,23333.238203
13700.0,2096,23418.008433
26400.0,3168,23543.933476
21800.0,3104,23667.987359
31300.0,3796,23819.678641
16600.0,2286,23913.257088
18900.0,2822,24026.552191
20000.0,2924,24146.56961
16400.0,2669,24251.961072
17500.0,2551,24356.203177
24100.0,3231,24486.000966
18600.0,2655,24591.213312
33200.0,3934,24749.070385
25600.0,3264,24881.580769
17500.0,2696,24986.251697
21300.0,2956,25105.74374
19300.0,3099,25229.776711
20600.0,2611,25333.31862
19400.0,2735,25441.474537
13800.0,2306,25535.788449
11900.0,2140,25621.813137
24400.0,2978,25740.026429
23100.0,3374,25874.995394
20700.0,3068,25999.909975
23500.0,2830,26115.069585
23000.0,2797,26227.937618
15300.0,2207,26313.961029
19500.0,2399,26408.335001
11800.0,1860,26481.751874
5100.0,1176,26526.237765
21900.0,2844,26636.547006
16200.0,2388,26730.134822
17300.0,2736,26833.875317
23100.0,2831,26943.709075
19300.0,2892,27056.784825
17000.0,2527,27156.051293
25700.0,3754,27301.269645
22200.0,3190,27426.664835
28400.0,3322,27554.241172
26600.0,3811,27700.861531
14000.0,2230,27785.374516
15500.0,2470,27882.738455
9300.0,1890,27956.19216
15500.0,2648,28060.002643
21300.0,3010,28177.303066
23300.0,3118,28297.458171
18300.0,2563,28396.868875
29900.0,3671,28539.130146
9500.0,1653,28603.348317
26900.0,3423,28737.121732
10600.0,1938,28813.411584
27000.0,3498,28948.612133
17300.0,2521,29044.290928
17000.0,2334,29132.900629
36500.0,4083,29290.025849
31200.0,3467,29424.586409
11500.0,2179,29509.225644
27700.0,3609,29651.959705
28900.0,3261,29779.680748
28800.0,3609,29920.630683
19700.0,2812,30030.172097
22200.0,2667,30134.801031
22400.0,2666,30239.293323
20500.0,2506,30334.676516
26400.0,3362,30468.230486
19100.0,2365,30560.865836
28300.0,3020,30682.099524
32700.0,3641,30826.725593
25800.0,3062,30948.783583
25600.0,2854,31060.593605
29100.0,3216,31181.964706
27100.0,2936,31296.395301
27300.0,3158,31416.870528
19700.0,2344,31507.760332
29100.0,3153,31630.083103
15300.0,1978,31708.741776
19800.0,2758,31817.505339
30600.0,3376,31948.011401
26900.0,3165,32072.464573
52900.0,5161,32274.944426
35200.0,3940,32425.892171
19300.0,2452,32521.149289
26600.0,3004,32636.95838
31300.0,3472,32772.284446
16000.0,2399,32866.402132
20300.0,2549,32965.939591
17400.0,2342,33058.087876
20300.0,2581,33156.495313
18900.0,2733,33260.877996
23600.0,2671,33364.701082
20200.0,2468,33461.373933
25500.0,2901,33575.78183
26400.0,2927,33690.594338
27100.0,3243,33817.034078
25500.0,2934,33931.375842
32100.0,3582,34072.989588
21800.0,2638,34178.640552
30200.0,3971,34339.518353
8000.0,1697,34407.541843
20600.0,2728,34517.779466
35800.0,3982,34675.504467
29300.0,3773,34824.996695
25400.0,2891,34941.126173
15400.0,2291,35032.266294
21600.0,2709,35139.884023
31700.0,3684,35288.759594
22500.0,2943,35405.721648
14000.0,2307,35498.146883
16400.0,2365,35592.662527
27900.0,3478,35732.329285
39200.0,4461,35910.011531
29100.0,3882,36066.077847
20900.0,3096,36188.600246
30700.0,3646,36331.40265
20200.0,2820,36443.378681
23700.0,3044,36562.252691
25400.0,3552,36705.402642
23400.0,3012,36826.605693
23200.0,3293,36961.679889
16400.0,2265,37053.020735
19600.0,2776,37163.082892
27700.0,3321,37296.561229
31700.0,3576,37439.88845
24500.0,2941,37558.015713
24000.0,2942,37677.37201
27900.0,3097,37801.285453
42600.0,4644,37986.48044
30900.0,3788,38136.823429
14400.0,2179,38224.691591
22300.0,2831,38337.96382
20200.0,2538,38439.314685
21200.0,2995,38558.041646
18900.0,2848,38672.696489
11500.0,2057,38753.50549
30500.0,3814,38906.851126
19900.0,2660,39012.410271
20300.0,2799,39128.131094
26100.0,3609,39272.962829
14200.0,2270,39362.715863
21200.0,2779,39472.627146
24000.0,3149,39596.637179
41900.0,4904,39793.888408
22400.0,2766,39904.550969
21300.0,3323,40033.839336
27000.0,3398,40164.620649
40200.0,4297,40332.874243
23100.0,3018,40452.407312
20400.0,2770,40563.792708
37500.0,4035,40722.713813
20700.0,3018,40842.160722
23300.0,2850,40957.191364
41200.0,4410,41129.236066
25600.0,3321,41258.154625
35900.0,4037,41412.81762
37100.0,4072,41575.475943
36700.0,3681,41718.815342
19900.0,2512,41818.437349
37300.0,3866,41969.23462
36100.0,4256,42134.228201
27600.0,3437,42268.401762
40800.0,4675,42452.776439
29400.0,3149,42574.117433
22700.0,2892,42686.716349
24500.0,3177,42812.263857
43100.0,4119,42972.651996
32300.0,3687,43118.238945
40000.0,4192,43280.791301
16000.0,2351,43371.832663
41500.0,4746,43553.560566
32000.0,3540,43690.925147
32900.0,3656,43830.596188
25400.0,3071,43949.972637
23300.0,2866,44064.732526
21000.0,2960,44180.369614
41400.0,4247,44343.336893
25800.0,3155,44463.857332
19200.0,2746,44569.676744
33300.0,3542,44707.327685
30200.0,3230,44832.692459
28400.0,3375,44963.263133
32800.0,3697,45106.85638
25400.0,3210,45231.645321
36400.0,4296,45397.827266
28700.0,3330,45527.82115
35100.0,3825,45680.269026
20300.0,2723,45786.973006
52200.0,5380,45998.417829
27900.0,3699,46140.522773
27600.0,3383,46271.830885
24700.0,3513,46411.095518
24100.0,3479,46545.662962
24400.0,3489,46681.468696
33500.0,3908,46835.233628
36000.0,4129,46996.206927
38300.0,4298,47163.660384
48000.0,5056,47363.079287
22100.0,3393,47495.29318
24400.0,3174,47620.371597
18400.0,2516,47717.637364
20500.0,2728,47824.916704
27800.0,3316,47950.41024
43100.0,4697,48134.524373
38100.0,4381,48307.16522
44100.0,4999,48503.767523
43800.0,4695,48689.992239
27700.0,4011,48843.812478
32600.0,3594,48984.327899
28200.0,3380,49116.475164
33800.0,3716,49262.485209
29100.0,3537,49398.932499
19800.0,2688,49502.962785
24400.0,3057,49623.725129
28200.0,3553,49762.635085
18500.0,2554,49862.11799
35800.0,4079,50021.615904
13500.0,2468,50115.469799
35900.0,4414,50290.223821
20900.0,3212,50412.403857
20500.0,3114,50536.042734
30200.0,4411,50707.023288
24800.0,3545,50844.543222
20100.0,3208,50970.57348
22000.0,2936,51084.325872
33100.0,3826,51234.252217
40000.0,4672,51417.157789
22200.0,3155,51538.685559
45100.0,5383,51748.358112
17700.0,2532,51846.587575
26000.0,3803,51994.285787
16600.0,2751,52103.455048
21700.0,3327,52234.60214
31900.0,4261,52402.89901
22900.0,3214,52528.050872
31400.0,4046,52686.800158
17600.0,2795,52795.685298
30400.0,4091,52950.993423
30900.0,4237,53116.690556
25200.0,3587,53256.800455
24000.0,3067,53376.376103
21000.0,3545,53512.326459
28100.0,4095,53673.514925
37400.0,4840,53870.36131
24600.0,3382,54005.639475
21900.0,3647,54152.99497
27400.0,3685,54300.466545
34400.0,4750,54493.823127
13700.0,2317,54587.461706
23800.0,3275,54720.541639
34500.0,4086,54882.882988
38700.0,4538,55063.865105
24100.0,3294,55196.250715
32300.0,4833,55394.273634
34200.0,4136,55557.292563
34600.0,4956,55758.515176
18800.0,3320,55894.178504
16100.0,3107,56017.84322
17300.0,3010,56139.225775
20300.0,3272,56270.808967
24300.0,3424,56411.195206
32200.0,3883,56566.053601
30900.0,3751,56717.60514
27500.0,3371,56849.509873
24500.0,3535,56990.10716
23300.0,3445,57129.398986
26800.0,3219,57258.283387
31500.0,4103,57425.920131
32300.0,3993,57583.977405
24500.0,3237,57710.520336
46700.0,5061,57908.34317
29300.0,3495,58045.35774
31600.0,3814,58196.469068
43800.0,5140,58397.332544
30500.0,3886,58548.680115
30800.0,3760,58696.490867
22300.0,2750,58802.374636
28200.0,3270,58926.866453
55300.0,6058,59164.557555
28800.0,3915,59319.648415
26000.0,3016,59437.755234
22500.0,2831,59549.512895
35500.0,4462,59723.278223
24400.0,3155,59845.5624
16100.0,2344,59937.438072
47000.0,4947,60129.650912
33800.0,3593,60269.941843
29600.0,3649,60408.531793
37100.0,4470,60582.157189
29700.0,3833,60730.419266
38400.0,4320,60896.765442
36300.0,4584,61077.202314
34000.0,4039,61232.28946
28300.0,3645,61374.734324
23500.0,3299,61502.842803
34400.0,4313,61668.165412
40000.0,5219,61871.397987
27000.0,3888,62022.817041
31800.0,4859,62214.869283
36100.0,4894,62405.960125
14800.0,2706,62511.900599
17900.0,2851,62620.837609
19200.0,2888,62732.078329
25000.0,3800,62882.154553
19900.0,3284,63014.007731
19300.0,3171,63134.980445
36000.0,4763,63323.592771
33700.0,4649,63504.480424
25000.0,3719,63648.383631
25500.0,3613,63791.967823
25900.0,3637,63932.652371
30000.0,3948,64084.375284
19400.0,3207,64208.962192
19300.0,3375,64339.009991
21200.0,2924,64454.376765
33100.0,4781,64644.395651
25300.0,3721,64789.133191
28800.0,4023,64946.316673
29300.0,4201,65109.470305
33100.0,4405,65280.150921
22700.0,3011,65395.758595
19200.0,2860,65510.407417
24500.0,3252,65638.409745
35900.0,3808,65788.306844
34500.0,4020,65948.025919
24500.0,3157,66071.378413
31900.0,3697,66215.245526
28100.0,3367,66347.706493
14700.0,2510,66445.945377
33500.0,4044,66603.788444
29800.0,3397,66736.755684
15400.0,2468,66833.568756
37600.0,4321,67001.921877
16600.0,2623,67102.19552
45300.0,4916,67292.426225
31600.0,3873,67444.025495
34700.0,4510,67618.835982
19400.0,2671,67723.331573
22400.0,2944,67838.175146
34800.0,3968,67998.76959
31900.0,3863,68156.73224
25500.0,3151,68282.836425
39200.0,4470,68462.164796
47600.0,5446,68680.461067
46300.0,5336,68892.33893
30500.0,3645,69036.233813
39800.0,4560,69218.761388
21600.0,2891,69332.375168
48800.0,5587,69549.512429
29800.0,3591,69691.632914
29400.0,3898,69842.893912
32500.0,4365,70013.910774
18500.0,2967,70129.327519
38600.0,4505,70303.229269
21400.0,3027,70422.774201
38700.0,4511,70600.510167
23700.0,3180,70726.30515
25600.0,3590,70864.245023
36400.0,4885,71056.615563
25200.0,3389,71187.193271
26700.0,3790,71332.275329
21400.0,3498,71469.718421
18200.0,3282,71597.134655
21400.0,3807,71748.493949
18800.0,3372,71880.436297
18900.0,3608,72024.500615
23300.0,3708,72168.70391
21900.0,3769,72315.750523
22200.0,3335,72446.780532
22600.0,3886,72599.779331
16700.0,2754,72705.922692
16200.0,3115,72827.871546
14900.0,2777,72934.887668
24400.0,3554,73074.093529
17800.0,2861,73187.447136
20800.0,3718,73333.020866
42300.0,5107,73534.657814
34500.0,4764,73717.559182
30200.0,3931,73871.519177
28300.0,3794,74022.549736
34200.0,4668,74206.21129
29500.0,4460,74380.757728
22500.0,3428,74514.276459
28300.0,4019,74669.112099
17700.0,3017,74788.845111
20500.0,3336,74919.250648
34500.0,4190,75087.847713
33100.0,4126,75257.664406
41300.0,4420,75439.224775
26800.0,3584,75585.958807
30500.0,3614,75736.021755
42200.0,5057,75949.584031
41300.0,4314,76123.841399
49000.0,5780,76360.354781
50100.0,5330,76585.86923
31300.0,3420,76725.319079
42600.0,5000,76931.918799
29400.0,3596,77083.244205
23600.0,2940,77207.661991
46000.0,5407,77434.513165
22800.0,3158,77566.529457
24800.0,3212,77699.291989
45600.0,5506,77926.881544
30200.0,3889,78089.552442
19100.0,3111,78218.38949
23800.0,3891,78381.709363
20000.0,3442,78523.142614
21000.0,3068,78652.337075
20900.0,2956,78774.93625
15100.0,2688,78887.104962
30000.0,3577,79037.808975
32700.0,3853,79195.645733
26400.0,3203,79328.898309
20600.0,2777,79442.905589
20400.0,2720,79554.713516
22100.0,3158,79687.489373
22100.0,3426,79829.472549
26900.0,3649,79980.268326
26100.0,4368,80164.099465
26400.0,3635,80314.677456
28800.0,4248,80491.476855
17400.0,3205,80626.090031
18500.0,2853,80745.536477
28100.0,3855,80907.598975
31800.0,4405,81089.332385
25400.0,4121,81260.349182
11700.0,2520,81364.608977
20600.0,3061,81492.130146
26200.0,3610,81643.747895
26200.0,4021,81816.134628
18400.0,2774,81932.752668
21300.0,3437,82076.280375
40900.0,5117,82290.764527
26100.0,3642,82439.126689
24100.0,3597,82590.708895
27200.0,3811,82747.239604
20200.0,3576,82895.628051
33400.0,4532,83085.719583
27300.0,4086,83256.560735
25900.0,3804,83413.443813
29900.0,4095,83577.846056
24700.0,3797,83733.45683
24200.0,3431,83872.964986
18600.0,3375,84012.179307
27900.0,4011,84178.94988
36700.0,4420,84361.541858
21700.0,3331,84501.912426
26700.0,3947,84663.995615
39100.0,5000,84873.235181
22900.0,3121,85006.153313
35200.0,4803,85203.8802
40700.0,4730,85390.720526
10000.0,1720,85458.534417
23900.0,2904,85573.349842
29700.0,3537,85712.837359
25300.0,3318,85845.064551
26800.0,3332,85978.271951
39900.0,4513,86159.4431
34000.0,4331,86331.590868
44100.0,4877,86523.944659
37000.0,4852,86716.842507
22100.0,3211,86843.337268
20300.0,2886,86963.111845
26700.0,3426,87099.352731
21500.0,2995,87219.217685
41100.0,5101,87428.047582
55400.0,5807,87661.235553
58200.0,5667,87878.543731
35000.0,4115,88038.759873
35000.0,4423,88211.431773
29100.0,3387,88342.596427
41000.0,4420,88513.150092
49200.0,4972,88710.758614
26200.0,3247,88834.072695
21200.0,3218,88960.090913
35200.0,3916,89112.64504
44600.0,4751,89302.965494
45400.0,5019,89504.477295
49600.0,5312,89709.818371
45000.0,5163,89909.986198
36300.0,4515,90084.368475
30000.0,3885,90234.022461
32100.0,4298,90399.379882
35000.0,4804,90580.623449
37900.0,4885,90768.46891
33300.0,4681,90945.83516
47100.0,5763,91159.633248
39700.0,4974,91345.227036
42600.0,5246,91540.036545
28900.0,3931,91683.554991
40800.0,5372,91880.937553
50200.0,5752,92096.697167
44400.0,5422,92296.853076
20600.0,3224,92412.320415
33000.0,4130,92560.797328
35700.0,4191,92707.820485
22900.0,3162,92820.012421
40700.0,5325,93010.531044
33100.0,3797,93146.007547
45700.0,4965,93325.33754
35700.0,4424,93484.068815
44800.0,4844,93660.413713
37600.0,4455,93821.748462
23200.0,3104,93931.55833
26900.0,3372,94052.564764
29900.0,4072,94199.412222
48900.0,5105,94384.851924
40700.0,4998,94562.362751
33800.0,4084,94708.275049
40300.0,4694,94875.658241
46200.0,5092,95060.380263
35300.0,4030,95203.676984
32100.0,3989,95346.3068
35600.0,4172,95493.225826
44200.0,5227,95683.45621
26600.0,3541,95810.437712
30300.0,3826,95949.389603
35200.0,4283,96101.754993
49600.0,5344,96286.238552
25700.0,3393,96398.329977
35500.0,4319,96542.586723
29400.0,3649,96666.168908
28700.0,3712,96782.460802
38500.0,4074,96910.25329
41500.0,4544,97057.972133
29800.0,3555,97174.236617
31600.0,3691,97292.632412
22300.0,2885,97386.166366
