# {"t_start": 1547997837.8041937, "env_id": "RoboschoolHumanoidFlagrun-v1"} 
r,l,t
-41.264235,23,4.789886
-39.079732,23,5.754931
-43.735329,18,6.397664
-34.466659,19,7.308185
-40.541871,19,8.772458
-43.389342,24,9.991082
-39.933351,20,10.597816
-39.396312,20,11.486691
-34.410053,19,12.647162
-46.006659,20,13.858847
-37.770111,18,14.906923
-36.120581,18,15.918915
-26.795123,19,16.623609
-42.993324,18,17.732658
-25.721657,18,18.743316
-36.145506,18,20.034465
-23.789122,19,21.287967
-24.54238,20,22.660306
-27.612656,19,24.083478
-29.466047,19,25.522419
-55.960257,24,26.832251
-43.803319,17,27.502631
-33.596757,19,28.468643
-42.528348,20,30.117994
-26.556841,20,31.310488
-40.94182,17,32.240905
-39.281941,19,2726.463964
-31.859802,18,2727.550209
-31.836567,18,2728.629256
-33.652158,20,2729.765888
-32.281869,20,2730.611052
-44.935011,23,2732.17875
-27.731952,19,2733.131114
-26.332866,19,2734.295902
-37.329288,20,2735.711982
-39.574149,19,2736.974886
-29.631578,20,2738.18226
-41.141146,24,2739.293392
-34.151368,20,2740.674227
-42.449881,19,2742.015315
-32.711747,20,2742.974887
-31.044825,19,2743.949368
-31.397673,18,2745.056648
-39.895289,19,2745.834393
-25.795371,13,2746.636075
-26.85122,20,2747.853827
-26.548636,19,2749.003967
-33.468913,20,2749.767556
-35.171118,18,2750.684892
-26.04959,19,2751.357375
-45.205494,20,2752.620036
-46.004281,22,2754.057148
-33.024821,19,5439.870878
-34.178733,16,5440.972754
-29.219333,18,5442.051318
-49.112325,26,5443.449929
-41.941619,18,5444.527908
-38.642521,19,5445.818292
-40.746236,19,5447.102642
-36.841866,18,5448.199867
-29.403197,19,5449.263897
-32.464071,17,5450.215283
-30.845991,18,5450.854526
-66.225444,25,5451.969904
-33.715883,18,5453.153757
-37.048414,19,5454.092834
-42.846062,18,5454.793733
-47.605287,19,5455.733976
-42.909014,19,5456.969295
-34.984809,19,5458.044095
-40.790194,18,5459.239931
-39.026577,19,5460.409002
-45.178256,25,5462.288625
-29.531795,18,5463.464547
-45.452382,19,5464.498702
-46.93753,20,5465.491679
-37.256334,17,5466.413676
-34.665866,17,5467.58231
-41.490016,19,5468.921675
-53.657895,25,8166.841913
-42.222209,20,8168.039105
-42.041064,19,8168.876547
-45.243774,25,8170.295889
-34.768184,18,8171.320534
-29.218609,22,8172.573754
-47.963372,19,8173.574172
-32.202197,19,8174.58568
-38.282276,19,8175.549635
-38.533212,20,8176.75488
-32.218022,19,8178.262634
-34.239102,19,8179.464579
-46.934153,19,8180.391596
-44.799576,19,8181.305889
-34.556156,18,8182.471449
-31.07226,19,8183.675246
-28.916786,19,8184.915578
-32.897393,18,8185.989379
-25.079163,18,8187.293771
-42.079418,19,8188.667008
-33.300906,19,8189.742254
-29.717863,19,8190.714342
-34.941869,20,8191.781063
-39.567989,23,8193.029685
-39.310785,18,8194.316905
-30.114374,20,8195.874798
-31.647,19,10914.23526
-32.873903,17,10915.161392
-33.287169,18,10916.017738
-30.816053,19,10917.025606
-27.18466,18,10917.874565
-27.810783,19,10918.648887
-26.132242,19,10919.954151
-38.141787,17,10921.084109
-29.068101,18,10921.991577
-31.082242,19,10922.961058
-39.299284,19,10923.791731
-39.834323,17,10924.753115
-39.679193,18,10925.965394
-34.425509,19,10927.07018
-42.020485,19,10927.967466
-33.979277,20,10928.996423
-34.663867,18,10930.263357
-30.237,19,10931.443792
-33.860258,19,10932.55398
-34.870825,19,10933.728647
-46.234561,17,10934.942554
-39.191656,19,10936.167492
-40.679743,24,10937.826936
-23.860667,16,10938.761886
-31.634727,18,10939.672499
-23.893582,19,10940.710011
-33.249816,19,10941.767155
-29.271428,18,13746.477206
-19.906776,19,13747.547279
-32.423079,18,13748.329755
-45.66968,18,13749.393369
-38.836203,20,13750.529605
-27.849102,19,13751.332291
-30.279262,19,13752.218053
-30.317742,20,13752.92986
-31.500934,20,13753.906468
-35.644872,21,13755.588884
-30.502791,19,13756.518947
-35.295228,19,13757.261784
-36.043099,19,13758.042661
-42.977046,17,13758.901749
-31.254748,20,13760.183993
-41.781758,19,13761.300745
-36.893118,19,13762.50999
-37.884552,18,13763.607877
-19.557592,19,13764.85623
-26.477095,20,13766.001355
-22.418454,19,13767.158145
-41.853738,17,13767.994795
-36.930244,19,13768.640415
-31.149963,19,13769.20698
-21.942741,18,13770.365892
-35.595813,18,13771.531009
-29.611211,20,13772.582267
-29.358413,18,13773.493273
-22.94254,19,16557.551262
-30.874088,18,16558.598442
-37.890235,18,16559.679302
-49.126488,19,16560.560882
-26.429758,19,16561.522965
-27.260346,17,16562.320562
-40.903106,20,16563.865237
-35.37471,20,16565.280197
-32.224991,19,16566.293537
-34.13377,21,16567.646786
-27.293367,20,16568.622124
-24.262755,14,16569.409777
-37.123204,19,16570.723869
-36.581722,18,16571.825639
-47.278193,20,16573.1006
-47.868132,20,16574.33909
-24.231727,20,16575.617805
-35.385764,20,16576.503469
-34.894157,17,16577.281814
-27.142257,19,16578.334336
-36.304441,20,16579.707073
-29.025954,18,16580.843414
-31.354281,18,16581.618253
-34.423487,18,16582.283334
-30.055017,19,16583.127882
-30.756219,18,16584.19287
-25.775277,18,16585.069374
-35.672794,19,19164.721179
-35.831175,17,19165.703894
-33.594307,19,19166.597563
-33.869579,19,19167.691771
-39.511411,20,19168.793559
-27.445476,18,19169.755857
-36.385827,20,19170.953688
-24.182951,19,19171.527714
-25.307408,24,19172.922863
-22.273578,18,19173.9389
-32.168703,19,19174.923931
-37.586934,18,19175.763968
-34.503706,20,19176.962013
-31.394491,21,19177.811683
-22.962628,18,19178.857979
-25.401425,20,19179.965931
-34.537831,19,19180.959574
-32.34489,19,19181.919139
-35.57253,20,19183.083341
-35.726651,27,19184.308043
-30.123393,18,19185.057555
-173.237219,34,19186.704787
-51.584818,22,19187.781186
-29.053925,18,19188.738457
-27.983753,18,19189.726669
-34.586887,18,21802.451811
-41.610281,20,21803.606519
-28.75586,22,21804.760888
-27.54203,20,21805.894861
-31.667138,17,21806.564523
-30.042713,18,21807.527935
-19.479017,19,21808.367728
-31.39431,20,21809.062117
-17.604565,20,21809.893787
-30.140232,20,21810.916981
-36.322504,17,21811.557353
-25.042466,22,21813.140416
-32.603421,19,21814.137226
-19.198687,20,21814.853824
-36.837392,19,21815.975978
-22.857214,19,21817.105695
-27.04821,19,21818.382981
-36.76846,24,21819.658209
-24.108731,19,21820.783578
-20.618298,26,21822.179998
-38.55227,19,21823.011098
-27.462418,19,21823.929844
-18.204602,20,21825.025605
-26.233234,17,21826.079729
-19.059798,20,21827.268123
-24.439409,20,21828.525487
-31.182391,20,24610.441056
-28.072648,19,24611.352263
-42.512658,20,24612.28915
-22.531947,18,24613.303772
-29.695461,20,24614.490915
-21.578108,20,24615.964911
-19.369789,19,24616.759281
-34.047665,19,24617.747432
-35.922059,19,24618.813777
-30.011764,19,24619.85312
-28.700601,19,24620.940361
-19.726949,19,24621.907704
-24.347575,20,24622.945625
-23.527582,19,24623.84317
-24.717565,19,24624.789437
-27.838365,20,24625.678633
-24.484424,23,24626.602289
-23.517627,23,24627.61385
-30.141525,20,24628.896905
-27.127913,17,24630.127244
-25.533722,20,24630.944263
-31.01362,26,24632.535735
-18.005153,19,24633.398949
-27.200559,19,24634.405163
-43.613129,20,24635.525635
-37.676767,20,24636.786652
-27.03117,14,27700.965597
-24.394528,21,27701.849504
-42.1381,27,27703.02598
-25.266536,19,27703.876324
-30.245905,23,27705.076141
-24.899177,18,27705.755391
-27.354401,19,27706.720356
-32.561953,19,27707.855203
-24.220573,20,27708.726231
-27.930085,19,27709.706941
-19.755868,19,27710.73372
-26.723563,22,27711.881645
-16.94555,19,27712.670419
-28.285286,20,27713.389173
-18.83279,20,27714.38726
-36.620677,18,27715.526069
-25.471173,18,27716.731383
-30.817656,19,27717.731003
-31.117795,25,27718.98821
-18.020018,20,27720.142491
-44.147161,30,27721.542904
-30.146754,22,27722.623034
-29.600218,20,27723.855666
-22.312942,19,27724.825764
-27.537358,23,27725.822217
-36.9546,18,30210.254771
-17.826528,18,30210.862029
-19.437627,19,30211.49453
-29.253746,19,30212.10973
-27.183288,20,30212.854639
-15.013361,19,30213.494737
-29.145952,19,30214.086203
-28.683683,19,30214.85026
-27.387022,17,30215.385097
-24.983268,20,30216.182976
-26.80971,19,30216.833012
-30.462043,25,30217.815256
-18.601944,20,30218.498568
-17.480124,23,30219.247009
-30.265156,19,30219.968096
-18.280501,18,30220.862156
-23.684527,19,30221.772611
-30.65092,20,30222.458733
-21.348227,18,30223.04981
-33.583881,20,30224.113709
-23.322235,19,30224.786114
-30.332601,17,30225.475085
-16.950441,19,30226.163708
-35.062971,21,30226.910035
-23.746939,19,30227.459095
-30.87287,18,30228.199769
-28.095399,17,30228.924513
-27.427882,19,32427.086562
-23.331722,19,32427.719478
-28.310335,19,32428.46761
-16.145083,20,32429.157811
-15.604242,18,32429.820095
-20.10645,19,32430.430757
-18.42617,20,32431.066842
-18.496114,19,32431.723299
-42.854171,30,32432.824809
-30.203971,20,32433.407874
-28.691145,20,32433.979904
-20.348709,18,32434.49978
-22.6907,18,32435.097635
-22.527963,22,32436.002888
-22.666115,19,32436.686579
-34.283698,22,32437.377501
-23.152339,25,32438.177623
-21.6465,19,32438.761255
-17.250376,19,32439.426231
-24.026276,19,32440.122434
-26.177055,19,32440.711643
-23.885472,24,32441.485254
-15.714316,19,32441.998781
-29.260654,20,32442.587177
-23.255641,20,32443.314558
-15.340625,20,34175.697355
-16.70933,19,34176.252739
-23.186078,20,34176.822933
-31.18094,22,34177.504999
-23.211611,18,34178.000527
-21.410567,18,34178.517097
-15.525306,21,34179.221787
-20.306249,18,34179.76484
-17.48667,19,34180.379046
-20.623489,18,34180.946688
-20.155651,19,34181.409089
-22.453896,20,34181.932074
-26.728114,19,34182.342473
-27.457491,19,34182.776672
-21.183105,19,34183.19458
-17.045206,19,34183.668714
-25.79137,21,34184.078804
-25.331685,19,34184.568762
-9.594654,19,34185.028136
-19.972706,19,34185.473902
-22.949879,20,34186.033708
-22.977502,20,34186.487707
-10.225915,20,34187.0032
-22.117499,18,34187.485147
-13.590174,19,34187.999427
-26.967094,24,34188.629868
-26.200926,20,35652.099077
-27.31259,25,35652.772303
-17.454359,19,35653.311142
-23.124895,17,35653.759235
-17.423289,19,35654.28799
-15.688966,21,35654.882332
-24.429319,22,35655.605928
-28.811063,21,35656.236959
-15.281151,20,35656.835373
-16.10662,20,35657.393015
-23.579548,17,35657.881312
-18.496269,20,35658.564691
-28.852276,18,35659.060368
-15.280058,20,35659.624967
-19.922438,19,35660.159395
-14.817807,20,35660.754814
-26.89639,20,35661.325918
-27.806258,19,35661.94811
-27.624628,19,35662.409015
-18.650918,19,35662.957197
-19.294589,19,35663.368861
-23.840739,19,35663.998171
-27.430442,19,35664.503421
-38.331057,26,35665.207391
-21.79993,19,35665.725764
-21.840494,21,35666.227266
-12.281945,22,37125.667611
-26.781697,21,37126.39529
-27.166749,20,37126.950713
-18.7765,19,37127.491019
-19.507906,21,37128.046457
-15.35822,20,37128.696018
-20.245064,19,37129.253186
-15.74918,20,37129.739749
-21.157509,19,37130.267764
-12.866343,19,37130.829263
-21.141589,22,37131.432233
-21.109139,19,37131.973922
-25.051932,19,37132.539208
-17.738184,20,37133.230494
-8.19757,23,37133.90053
-30.178637,18,37134.366304
-22.761912,25,37135.136446
-19.650539,20,37135.802454
-26.534674,20,37136.349209
-28.7299,18,37136.905717
-18.535255,18,37137.410503
-16.819369,24,37138.127597
-23.722342,20,37138.76275
-26.509463,21,37139.381404
-21.73268,19,37140.093854
-13.768113,19,38482.868681
-21.915166,19,38483.288507
-20.29665,18,38483.659515
-24.360708,24,38484.145187
-15.488922,19,38484.49313
-27.61269,19,38484.891504
-22.992648,20,38485.369403
-26.726469,24,38485.808423
-11.498709,22,38486.302029
-21.262966,19,38486.889868
-23.558661,19,38487.48353
-36.6414,26,38488.233972
-25.005953,19,38488.67604
-17.420262,19,38489.121693
-30.680547,26,38489.79175
-20.209591,18,38490.298262
-18.707855,18,38490.772918
-30.087522,21,38491.367298
-18.413767,17,38491.864535
-15.391879,18,38492.401091
-16.11491,19,38492.88957
-18.111201,20,38493.432923
-29.458796,22,38494.028031
-15.10052,23,38494.736841
-23.472548,22,38495.366167
-15.283268,19,39644.097522
-25.129515,19,39644.478879
-20.663208,19,39644.945125
-22.096134,22,39645.410879
-18.251706,19,39645.822616
-15.973965,20,39646.32456
-17.51523,19,39646.817389
-17.553573,20,39647.298226
-18.72879,22,39647.731499
-29.139649,21,39648.129871
-16.243547,18,39648.475827
-5.513098,19,39648.850441
-24.39462,25,39649.3306
-19.133813,22,39649.70855
-13.425237,19,39650.094197
-21.520419,19,39650.443298
-22.581786,19,39650.792658
-18.363596,18,39651.122557
-11.185673,22,39651.535875
-8.356352,19,39651.975581
-19.361041,20,39652.463624
-30.13591,18,39652.940691
-20.687767,20,39653.440267
-13.824619,20,39653.955067
-13.03247,19,39654.378488
-20.330086,24,39654.985497
-31.162782,20,40729.638668
-29.232264,24,40730.195619
-10.024923,19,40730.588486
-21.674109,19,40730.942359
-18.258163,19,40731.255826
-25.183518,22,40731.615078
-14.036548,19,40731.957297
-24.533502,20,40732.330233
-18.969365,19,40732.681697
-17.59951,20,40733.013368
-15.830905,18,40733.318235
-22.780636,19,40733.695951
-21.193855,19,40734.112583
-25.71736,19,40734.467291
-24.051466,20,40734.814723
-15.430855,21,40735.171526
-15.498567,19,40735.596875
-19.452279,20,40736.016525
-16.475513,19,40736.458677
-14.850389,20,40736.914859
-16.420196,19,40737.317947
-20.394515,19,40737.76601
-15.943536,20,40738.21246
-11.631223,19,40738.666575
-14.084914,19,40739.171154
-15.529902,19,40739.637591
-21.059314,18,41813.003599
-26.422715,19,41813.490122
-27.512471,18,41813.975172
-19.259639,20,41814.503963
-21.069812,19,41814.945127
-15.144639,20,41815.39117
-9.967888,19,41815.900141
-19.669577,25,41816.520674
-6.811678,20,41816.993651
-16.782829,19,41817.343169
-10.955018,20,41817.679028
-15.25112,21,41818.112227
-18.755092,20,41818.464344
-16.87982,20,41818.871834
-10.86395,20,41819.299884
-13.814011,21,41819.654919
-17.444634,20,41820.06744
-10.750685,18,41820.439202
-16.808203,18,41820.781199
-19.458177,20,41821.175824
-12.210618,19,41821.631408
-18.992467,19,41822.094398
-17.483761,18,41822.546938
-19.914921,19,41822.980261
-11.331281,20,41823.42912
-10.76877,20,41823.930797
-12.391998,20,42896.380601
-19.659131,19,42896.839128
-13.458722,20,42897.328429
-13.085953,19,42897.752106
-21.656912,19,42898.202274
-25.651238,21,42898.65159
-27.435213,19,42899.104869
-18.742392,17,42899.46998
-16.657226,20,42900.037216
-18.06991,19,42900.52547
-16.12548,18,42900.970239
-14.363915,19,42901.418191
-13.514261,19,42901.854493
-20.346293,24,42902.45067
-19.320517,19,42902.911997
-14.791317,20,42903.285676
-23.996279,22,42903.704639
-13.987897,20,42904.059628
-21.767213,19,42904.439973
-17.173982,20,42904.857915
-15.328296,20,42905.182615
-21.491821,19,42905.524482
-5.133085,20,42905.859762
-18.552677,19,42906.294363
-15.863565,20,42906.630981
-17.831177,18,42906.989714
-22.51485,18,43981.917475
-30.650167,18,43982.372706
-17.221683,18,43982.829763
-21.417477,22,43983.313468
-9.611475,22,43983.84029
-12.575721,21,43984.319803
-13.253532,19,43984.803343
-12.350664,20,43985.283321
-17.799228,20,43985.821141
-6.537681,21,43986.292308
-19.729272,21,43986.683884
-19.132337,20,43987.011764
-3.573304,19,43987.358708
-23.852626,20,43987.753342
-23.969511,19,43988.120315
-11.731588,20,43988.468133
-9.261891,18,43988.746111
-13.442743,19,43989.158538
-17.084356,18,43989.484576
-17.080083,20,43989.813181
-9.628348,20,43990.179052
-18.626507,19,43990.551893
-16.034257,18,43990.987667
-19.989432,19,43991.369668
-18.539476,19,43991.781473
-13.338137,19,43992.251252
-9.959827,19,45066.772038
-20.517164,21,45067.277064
-18.177083,24,45067.846931
-21.137657,20,45068.298851
-16.87917,19,45068.702172
-15.796428,24,45069.268027
-18.130572,19,45069.765874
-17.420221,20,45070.191358
-20.038058,20,45070.553789
-13.044976,19,45070.932541
-13.465269,19,45071.285317
-16.637613,19,45071.687117
-19.041214,19,45072.077751
-24.087899,20,45072.413295
-19.744151,19,45072.802018
-11.82653,20,45073.208957
-9.902786,21,45073.585787
-10.294616,18,45073.931149
-23.087455,19,45074.30006
-17.981118,21,45074.815641
-22.079798,22,45075.404881
-13.762073,19,45075.837106
-13.777478,19,45076.285433
-18.667148,20,45076.736998
-11.874438,18,45077.180616
-14.96712,20,45077.661456
-22.005948,19,46151.081016
-10.07126,18,46151.482537
-20.897281,20,46151.908264
-18.142759,22,46152.459803
-16.584824,21,46152.928341
-18.409501,23,46153.379512
-15.081319,20,46153.742946
-22.391537,20,46154.116517
-13.50656,18,46154.450778
-6.08655,20,46154.797005
-19.027771,19,46155.251587
-18.430426,23,46155.625803
-6.316716,20,46155.926322
-24.417743,21,46156.270228
-12.420102,19,46156.629816
-22.142506,23,46157.07539
-14.192476,22,46157.427461
-17.802849,21,46157.89365
-11.02846,21,46158.400467
-16.265903,28,46159.086991
-15.914821,19,46159.544942
-17.063727,19,46159.980972
-13.169458,18,46160.432106
-10.158205,19,46160.877624
-12.742868,19,46161.335737
-11.205402,19,47235.466578
-21.875066,20,47235.939192
-8.706797,20,47236.377054
-14.541656,22,47236.894806
-13.896569,20,47237.332865
-11.062001,19,47237.816947
-9.227788,19,47238.344689
-17.641506,19,47238.697356
-9.969671,19,47239.094783
-7.739582,20,47239.489535
-19.280245,19,47239.828223
-11.181606,19,47240.19045
-14.750316,21,47240.609675
-17.316664,19,47240.913423
-7.533545,20,47241.247689
-14.613318,20,47241.580513
-9.082551,19,47241.877278
-17.327989,19,47242.18734
-14.208749,19,47242.497018
-8.24388,19,47242.849287
-10.359233,20,47243.274094
-9.707728,21,47243.76157
-14.605564,22,47244.224489
-9.755491,18,47244.615978
-16.938441,18,47245.064786
-22.294554,21,47245.558016
-19.668154,20,48316.884772
-13.86389,19,48317.420103
-14.686742,19,48317.960055
-13.83265,19,48318.434503
-20.757085,21,48318.958654
-16.638011,20,48319.446737
-19.837088,24,48320.082394
-7.218046,19,48320.575527
-7.42903,19,48321.095297
-10.108029,19,48321.6415
-19.450212,18,48322.099549
-11.58869,19,48322.606629
-16.786543,19,48323.07181
-12.310835,21,48323.463504
-14.231916,21,48323.873501
-11.97741,23,48324.356607
-14.382283,24,48324.763553
-12.874194,19,48325.101866
-4.288881,21,48325.613585
-18.13847,19,48325.946909
-6.269922,19,48326.339385
-20.100786,20,48326.794883
-7.618463,20,48327.171713
-15.972466,20,48327.54961
-12.042439,22,48327.99651
-17.931208,19,48328.537844
-12.079629,19,49392.715187
-9.885525,25,49393.345686
-12.117706,19,49393.813014
-5.824271,20,49394.361253
-11.516055,19,49394.837886
-5.164185,19,49395.349558
-16.002185,19,49395.815464
-11.696509,19,49396.240549
-6.278111,19,49396.699356
-13.206338,20,49397.156373
-16.517271,19,49397.560697
-7.422667,19,49398.032634
-6.45276,18,49398.453404
-6.367545,21,49398.918625
-8.293118,20,49399.324811
-16.270553,19,49399.713578
-16.76977,20,49400.096285
-8.813194,19,49400.424361
-11.772439,21,49400.801124
-4.621839,19,49401.175775
-11.278013,19,49401.555343
-20.283865,18,49401.849657
-12.122567,20,49402.205261
-9.53246,19,49402.528164
-5.603068,20,49402.919941
-13.636329,22,49403.293376
-11.471309,20,50421.142315
-9.384281,20,50421.422712
-13.784784,20,50421.737576
-16.895612,29,50422.162461
-4.759494,19,50422.45649
-9.717466,19,50422.749711
-5.077203,20,50423.060232
-17.973924,20,50423.377701
-5.191583,20,50423.709188
-13.30067,20,50424.068264
-15.225503,20,50424.363762
-17.50773,20,50424.6676
-7.540914,21,50425.016054
-8.907345,22,50425.39556
-3.326464,19,50425.721096
-5.960128,19,50426.058057
-8.824937,20,50426.39515
-11.028349,20,50426.727374
-4.657,21,50427.053385
-10.47495,25,50427.456902
-11.170574,20,50427.799314
-12.290007,20,50428.107887
-15.170906,20,50428.421314
-11.511075,20,50428.767531
-9.005367,20,50429.076259
-24.535293,17,51339.779086
-9.410317,19,51340.070628
-1.342778,19,51340.33704
-6.239096,20,51340.625276
-5.716438,20,51340.94703
-10.809532,21,51341.269747
-12.739371,19,51341.54923
-13.987955,20,51341.840737
-9.643779,20,51342.153707
-14.326413,20,51342.427517
-11.530481,21,51342.746867
-18.342397,19,51343.056453
-8.999561,20,51343.375278
-13.248976,19,51343.654746
-10.600987,20,51343.943042
-12.371193,20,51344.259803
-10.577178,21,51344.583696
-9.972704,19,51344.849751
-13.288428,19,51345.146816
-19.483267,18,51345.466758
-19.182076,21,51345.831572
-15.802714,20,51346.158564
-11.705723,20,51346.481229
-12.302301,20,51346.861159
-9.273496,20,51347.147734
-9.9256,20,51347.478863
-9.938376,18,52257.309211
-18.731318,19,52257.588657
-5.177617,20,52257.921255
-12.272298,19,52258.209232
-14.802308,19,52258.531067
-10.098239,21,52258.867465
-7.714776,23,52259.254139
-7.582046,22,52259.655067
-9.77598,21,52259.975995
-6.958447,19,52260.287416
-7.667478,19,52260.590238
-14.13234,21,52260.939338
-15.119794,17,52261.198139
-6.633288,20,52261.478548
-7.25065,19,52261.756857
-16.033962,19,52262.035533
-11.49942,18,52262.314677
-7.950336,23,52262.664207
-7.084774,18,52263.004082
-12.171608,20,52263.33413
-10.213672,20,52263.633666
-17.194588,18,52263.909781
-7.175162,19,52264.249676
-14.973597,19,52264.543246
-17.243389,22,52264.88217
-10.365682,19,52265.165004
-3.730769,19,53175.417832
-9.677555,18,53175.663103
-16.129547,20,53175.957617
-7.347885,22,53176.296252
-8.074261,23,53176.699785
-13.379664,19,53177.007822
-8.84168,19,53177.296944
-8.146461,24,53177.643775
-12.283938,21,53178.018854
-16.139501,19,53178.31357
-7.358034,20,53178.612127
-10.483875,19,53178.942719
-10.297473,19,53179.270784
-8.815601,23,53179.628475
-12.143752,19,53179.925598
-11.209132,27,53180.367927
-28.33814,18,53180.656873
-6.158816,18,53180.958332
-2.958117,20,53181.317773
-2.127946,20,53181.603831
-15.514053,21,53181.932364
-13.624325,20,53182.257423
-9.807455,20,53182.623507
-14.6123,20,53182.901539
-8.487951,20,53183.236611
-9.811484,20,54095.364529
-11.967197,20,54095.698413
-0.708859,23,54096.033218
-13.163237,18,54096.302471
-11.34481,21,54096.638338
-12.973379,19,54096.966961
-2.818704,25,54097.301394
-2.756291,21,54097.616479
-11.063186,20,54097.973449
-8.931984,20,54098.285609
-7.776617,24,54098.650751
-13.227721,20,54098.961282
-17.656634,19,54099.293795
-13.83825,22,54099.65284
-6.751367,21,54100.005026
-7.310011,21,54100.332466
-4.504098,21,54100.673569
-1.572712,20,54100.986038
-25.681758,19,54101.30463
-13.536409,19,54101.636731
-10.482969,19,54101.954342
-19.844549,19,54102.230055
-10.794839,20,54102.553549
-8.113674,19,54102.879322
-10.724591,20,54103.205036
-1.650813,21,54926.889372
-10.48341,20,54927.11185
-6.372565,20,54927.30999
-9.422029,19,54927.527238
-13.729944,19,54927.742309
-13.496452,20,54927.944532
-3.729043,20,54928.197413
-11.016729,19,54928.392856
-5.724912,20,54928.60568
-11.790897,19,54928.814221
-1.583859,21,54929.009407
-16.233372,22,54929.262198
-9.031477,20,54929.456203
-11.83204,19,54929.660836
-11.472463,21,54929.892875
-6.564117,20,54930.109663
-7.731112,26,54930.414554
-12.865563,20,54930.63621
4.770128,20,54930.839921
-19.841682,18,54931.016699
-12.185641,24,54931.246228
-10.296738,20,54931.48351
-15.346219,20,54931.714429
-11.940673,18,54931.910856
-6.626246,20,54932.11752
-9.833836,20,55720.250671
-6.189421,22,55720.505264
-11.638576,20,55720.70847
-7.865097,20,55720.904674
-10.172181,19,55721.101371
-8.28067,20,55721.306008
-10.914304,22,55721.542987
-19.916512,20,55721.780564
-13.28993,20,55721.974363
-11.860655,20,55722.181208
-5.068651,19,55722.373657
-7.072564,20,55722.569341
-0.322474,20,55722.81523
-9.082514,19,55723.023064
-1.706114,22,55723.263105
-6.742603,19,55723.449872
-6.008747,20,55723.663831
-9.862033,20,55723.901629
-7.132018,18,55724.113322
-3.185483,20,55724.346069
-6.05021,19,55724.550341
-4.288997,21,55724.76999
-11.22501,20,55724.983211
-8.046494,19,55725.210031
-11.962646,20,55725.409345
-14.183826,20,55725.622021
-5.353568,19,56659.617541
-12.934558,18,56660.112031
-11.481205,18,56660.565322
-5.627251,20,56660.972072
-4.941598,20,56661.433024
-5.808486,20,56661.844143
-1.174203,23,56662.342122
-17.68257,21,56662.900133
-7.184461,21,56663.366397
-3.297523,19,56663.896646
-3.201573,20,56664.356852
-7.692526,20,56664.901769
-5.433374,20,56665.370091
-11.8998,19,56665.788114
-10.799066,21,56666.371312
-20.201455,20,56666.861366
-11.771608,20,56667.334267
-7.335206,20,56668.022686
1.203478,21,56668.687582
-4.569862,19,56669.19888
-17.803843,21,56669.857507
-4.979556,19,56670.491732
-12.681512,19,56671.021164
-5.041492,20,56671.556761
-3.396066,20,56672.090555
-10.380045,23,57759.45241
-4.332522,19,57760.013542
-5.713656,20,57760.546047
-5.203414,22,57761.026894
-9.775765,19,57761.522743
-7.188798,21,57762.105782
-7.179964,20,57762.588847
-2.561523,20,57763.112562
-12.344105,20,57763.595342
0.429291,22,57764.116056
-6.936642,20,57764.705672
-8.065127,19,57765.17988
-3.310387,22,57765.731028
-7.918081,19,57766.225643
-4.808741,19,57766.721915
-3.797135,19,57767.407136
-0.467555,20,57768.151058
-4.256642,20,57768.765448
-11.103861,19,57769.290826
-7.038286,20,57769.837121
-2.026951,20,57770.402921
-9.957831,20,57770.971059
-4.486832,21,57771.700842
-6.186803,20,57772.324285
-0.906432,20,57773.01916
-1.877508,20,57773.670873
-1.285891,22,58857.109269
-3.433017,19,58857.599347
-4.720972,21,58858.19253
-8.269281,20,58858.760108
-8.460341,19,58859.281631
-11.395266,19,58859.80851
-14.453196,20,58860.369253
-9.212752,19,58860.85319
-6.456977,20,58861.375283
-13.093426,21,58861.946925
-12.266443,18,58862.48237
-10.382638,19,58863.063977
-13.695708,19,58863.572273
-13.004759,19,58864.086882
-6.809678,20,58864.764654
-12.900491,20,58865.310385
-3.745557,20,58866.105106
-11.643485,22,58866.69617
-6.547442,18,58867.179479
-8.37893,21,58867.739919
-5.986004,27,58868.536389
-4.752216,22,58869.139731
-10.767908,23,58869.737801
-13.261107,20,58870.618968
-4.580407,20,58871.523242
-2.974967,20,59961.886717
-10.447728,19,59962.362303
-9.808959,20,59962.909115
-15.517971,20,59963.49729
-4.549449,20,59964.113649
-6.373517,23,59964.958636
-2.826369,19,59965.614219
-23.708726,21,59966.234048
-3.313372,19,59966.745495
-5.757745,20,59967.278152
-6.091514,20,59967.815441
-22.359266,23,59968.442024
-24.98551,19,59969.097491
-6.954167,20,59969.711856
-2.661211,21,59970.270247
-9.323075,21,59970.813423
-1.826141,20,59971.390397
-3.869895,20,59971.93863
-7.650499,20,59972.678307
-5.485775,18,59973.236487
-11.051571,20,59973.841538
-9.594593,20,59974.498709
-2.975924,22,59975.171094
-11.019037,21,59975.914316
-14.3152,20,59976.502809
-5.520927,20,61060.982252
-9.869983,20,61061.555913
-2.371826,19,61062.098939
-12.340602,21,61062.922249
3.621208,23,61063.546416
-8.067284,22,61064.156927
-9.845181,27,61064.85176
-9.178443,19,61065.349154
10.489516,25,61066.016925
-2.129893,22,61066.639827
-6.227009,20,61067.207684
-9.261663,23,61068.157092
-11.063123,20,61068.769358
1.565784,19,61069.296961
-9.082884,20,61069.846498
-3.79995,21,61070.474154
-0.918161,20,61071.069691
-5.378006,22,61071.745565
-12.49359,20,61072.283637
-4.726943,19,61072.876068
-4.374011,21,61073.508748
-11.058214,21,61074.07974
-4.288256,21,61074.599623
0.63385,21,61075.200756
-8.890724,20,61075.910496
-22.431636,20,62160.044418
-2.238242,21,62160.570102
-0.111377,21,62161.140971
-3.660937,20,62161.673056
-8.713841,22,62162.283573
-2.033691,21,62162.839647
-9.030773,21,62163.436996
-2.299912,21,62163.99212
-6.798432,20,62164.664866
-4.673274,20,62165.206083
-3.456986,20,62165.759254
-4.853993,22,62166.416197
-3.932948,21,62167.133539
-11.529766,18,62167.623518
-8.962722,21,62168.185467
-18.532704,14,62168.572066
-3.690345,21,62169.186523
-3.467257,22,62169.923921
-9.862453,21,62170.551272
-3.408982,21,62171.149566
-6.96532,19,62171.634963
-4.247543,20,62172.202867
-7.174605,20,62172.710718
-3.225942,20,62173.291654
-5.088512,20,62173.843412
-0.556478,20,63262.557615
-8.369043,18,63263.041276
-5.10809,21,63263.595726
-4.708315,19,63264.109142
-7.648866,19,63264.575781
-3.178722,23,63265.109633
-8.873549,26,63265.713044
-18.336014,18,63266.219852
-6.886799,20,63266.703126
-9.370194,21,63267.230957
-4.315989,20,63267.790018
-11.125759,19,63268.252068
-2.050169,20,63268.841207
-1.171335,21,63269.349746
-8.213295,20,63269.990308
4.529572,21,63270.627579
-8.303155,20,63271.175784
-3.83534,21,63271.757394
-8.610755,19,63272.264155
-6.139997,21,63272.831422
-3.515035,19,63273.481186
-1.239883,22,63274.120586
-8.413851,25,63274.785739
-5.133497,20,63275.358229
-7.663105,21,63276.068155
-10.225878,20,64361.271556
-12.099348,20,64361.870986
-12.543045,19,64362.441815
-14.626997,20,64363.059206
-7.289036,19,64363.626214
-5.871401,20,64364.175745
0.30324,23,64364.979244
-17.053701,19,64365.494257
-4.833742,24,64366.151308
-0.019483,21,64366.71422
-8.589494,20,64367.239928
-7.104559,20,64367.799653
-3.220284,20,64368.466311
-2.807215,20,64369.037384
-8.376181,19,64369.590632
2.969911,27,64370.620453
-8.155014,19,64371.170239
-8.706942,21,64371.720341
-14.788152,19,64372.200391
0.93694,23,64372.855119
-8.816422,20,64373.385049
-0.201325,22,64374.162041
-5.10839,23,64374.782512
-5.635992,19,64375.297216
-6.262562,20,64375.856615
-2.154835,21,65464.86582
-6.504235,20,65465.426151
-4.770498,21,65466.003748
-7.106749,20,65466.554347
-5.216682,24,65467.211432
-8.461215,20,65467.751386
-2.753491,20,65468.329088
-5.2147,20,65468.857533
-10.025975,20,65469.364802
-6.910624,21,65469.938509
-3.674066,21,65470.521461
-5.702064,20,65471.0682
-6.350198,21,65471.638473
-6.820722,20,65472.193785
-4.245498,21,65472.762033
-1.478262,20,65473.315469
-4.612182,21,65473.858696
-2.106208,21,65474.453465
-21.252225,18,65474.941778
-4.516863,22,65475.634584
-15.941424,20,65476.266646
-10.677573,19,65476.773182
-2.556703,20,65477.358845
-7.458394,22,65477.93249
-1.544899,20,65478.495423
-1.363575,21,66565.181453
-3.219543,20,66565.817185
-7.580802,31,66566.686319
1.652119,30,66567.600515
-4.346285,21,66568.373248
2.555335,21,66569.263868
-6.340272,20,66569.834086
-9.41807,20,66570.378002
-9.2593,20,66570.995467
-5.084535,23,66571.999593
-3.242907,22,66572.625161
-8.404762,20,66573.2617
-6.295332,20,66573.734948
-7.351763,20,66574.228918
-3.313117,20,66574.756246
-8.077794,19,66575.258769
-2.531184,20,66575.70378
-7.1702,19,66576.180162
-9.506133,20,66576.674864
-8.737786,20,66577.281705
-5.76625,20,66577.841788
-9.963326,19,66578.247251
-11.953454,20,66578.712194
-2.45678,21,66579.268475
-5.484437,28,67668.626694
-0.627405,21,67669.320958
-12.169202,20,67669.900095
-8.671601,20,67670.423185
-3.727281,21,67670.95368
-5.004003,20,67671.434619
-1.409415,19,67671.902035
-7.088235,20,67672.54255
-3.819172,18,67673.053731
-0.693815,21,67673.5433
-3.109867,21,67674.279449
-1.711363,20,67675.074862
8.660188,21,67675.626053
-3.349831,24,67676.421584
-7.311298,20,67676.944286
-2.958623,20,67677.66815
-9.214428,19,67678.485986
-8.991559,20,67679.080318
-3.864824,21,67679.62192
-6.577401,20,67680.362651
-13.95564,19,67680.874706
-7.560303,22,67681.44688
-11.476644,20,67682.098572
-9.781728,27,67682.993988
-1.093768,20,68766.408393
-4.92609,19,68766.92659
-1.07988,20,68767.464252
0.674993,19,68767.966635
-9.114086,18,68768.427372
-8.348999,20,68768.987052
-5.120293,19,68769.452484
-1.684546,21,68769.963745
1.006976,20,68770.456108
-1.735516,20,68770.938262
-10.260728,22,68771.496003
-6.960384,20,68772.021465
-6.550118,23,68772.602916
-8.239012,20,68773.099686
-3.745745,20,68773.600962
-11.031076,19,68774.060822
-3.524697,20,68774.724971
-8.420585,19,68775.220131
-5.380227,20,68775.755756
-7.462628,23,68776.671406
-6.294123,21,68777.326403
-4.970729,21,68777.858466
-2.990825,19,68778.565814
-1.927951,21,68779.157097
-4.87082,21,68780.014157
-4.612068,20,68780.674721
-33.297438,17,69872.150039
-6.169826,21,69872.606685
0.689166,20,69873.027008
-6.350136,19,69873.563233
-10.466378,17,69874.065264
-6.706283,23,69874.701011
-7.951228,18,69875.240491
-8.599899,21,69875.801727
-1.960002,19,69876.332271
-2.44646,20,69876.869044
-5.063403,21,69877.428497
-12.451558,20,69877.949139
-1.089624,19,69878.484219
2.760765,20,69879.095767
-3.201206,20,69879.649377
-6.385114,18,69880.101981
-7.713158,19,69880.63351
-9.881137,20,69881.209032
0.04541,20,69881.91721
0.577779,20,69882.450888
-4.008129,18,69882.980186
-6.783727,20,69883.546984
-6.119364,22,69884.14735
-4.725952,22,69884.770964
-9.691204,18,69885.288648
-4.560595,19,69885.940692
-7.64243,19,70972.83417
2.272247,21,70973.446348
-9.399585,18,70973.919572
-4.165479,21,70974.596565
-3.558066,19,70975.217005
4.008848,25,70975.862916
-4.516906,22,70976.446521
-3.699478,20,70977.000408
2.468866,19,70977.545852
-12.642762,20,70978.082915
-3.857565,20,70978.610666
0.526734,22,70979.217941
-6.053183,21,70979.793022
-2.079324,29,70980.637359
-0.656475,20,70981.202786
0.099203,21,70981.948683
-2.834176,21,70982.613798
-7.085232,20,70983.156197
-3.058628,19,70983.687286
-1.050412,20,70984.419436
-5.954998,20,70984.96251
-7.768186,19,70985.483126
-4.933606,21,70986.048529
0.189423,21,70986.615422
-5.043425,21,72067.427176
-6.6026,22,72068.011839
-4.419593,19,72068.439335
-7.570518,20,72068.962265
-7.098284,21,72069.494776
3.073107,21,72069.97687
1.119324,24,72070.618405
-5.889991,27,72071.200446
2.011998,20,72071.760132
-3.258385,20,72072.346852
0.437367,20,72072.891386
-3.729826,24,72073.511496
-3.835965,21,72074.081982
-4.097739,20,72075.044252
1.100297,24,72075.974679
1.540025,23,72076.640834
-0.217979,20,72077.275241
-2.875229,24,72077.9692
0.216355,20,72078.544324
-1.250435,20,72079.078692
-3.649676,23,72079.951194
-4.441108,23,72080.61469
-11.019103,22,72081.382952
-1.256507,23,72082.055546
-3.423833,21,73167.831322
-16.649313,23,73168.491524
-8.799571,23,73169.128537
-18.571125,19,73169.573131
-3.520602,22,73170.24577
-5.418218,19,73170.685917
-7.228125,20,73171.147846
-2.007989,21,73171.657719
-0.846246,20,73172.163653
-0.058853,23,73172.685453
-6.173317,21,73173.190238
-7.846635,21,73173.672173
0.943209,22,73174.254198
0.735402,25,73174.851478
4.53196,21,73175.392777
-10.167903,19,73175.820628
-6.569009,20,73176.539408
-1.274056,27,73177.327504
0.270118,21,73177.85855
-5.830562,19,73178.601886
-0.625482,21,73179.16813
-4.517431,20,73179.82948
-10.405539,22,73180.43017
-1.218268,22,73181.024415
-1.935445,19,74270.146899
-1.42014,21,74270.711237
3.614414,21,74271.318017
4.336147,21,74271.926622
-4.846524,21,74272.606718
3.518835,20,74273.351834
-3.637282,20,74273.948224
-3.61715,21,74274.735625
5.018452,21,74275.322241
-2.015126,22,74276.010429
-2.427572,21,74276.677644
-3.031948,22,74277.361491
2.848803,22,74277.993591
-0.43579,19,74278.495132
-2.516441,22,74279.06567
-7.430425,18,74279.638553
0.32509,21,74280.619334
-13.166723,25,74281.356375
5.588296,23,74281.970359
-11.251849,24,74282.75959
-4.830563,22,74283.474635
-5.258042,22,74284.149498
0.577153,25,74284.912842
0.778162,19,74285.522348
-2.472537,22,75274.153635
-0.24709,21,75274.754376
-14.01124,17,75275.202559
-2.476064,21,75275.817937
-10.982144,22,75276.426543
-4.549563,20,75276.94234
2.740799,22,75277.553868
-3.394261,20,75278.119669
2.813512,22,75278.679055
4.885682,20,75279.371051
-2.598312,20,75279.897519
3.610699,25,75280.673125
1.36536,22,75281.25623
-2.261018,19,75281.772487
-5.604156,20,75282.313625
-5.651158,20,75282.855164
-9.314072,19,75283.380624
2.471849,20,75284.124451
-4.420642,19,75284.60158
-2.095164,22,75285.245893
-7.656083,23,75286.009918
-1.063199,21,75286.646819
-2.898228,20,75287.19753
-6.674897,20,75287.698465
-24.368086,18,75288.166939
-8.39809,20,76263.78301
3.134568,20,76264.500489
-8.504678,22,76265.15004
-0.879239,24,76265.797127
3.569085,22,76266.676024
-1.496826,20,76267.196802
-1.453549,20,76267.715268
2.930646,22,76268.29808
-6.789892,21,76268.846303
-3.105292,22,76269.427388
-11.684313,17,76269.90763
-0.234159,21,76270.781507
3.940389,25,76271.6729
-5.941377,23,76272.35986
-1.336909,21,76272.943486
-11.091789,20,76273.455867
-4.760315,21,76274.132797
-9.53543,21,76274.762979
-5.088934,20,76275.370551
-10.976604,16,76275.807564
-3.930083,23,76276.465006
5.314294,25,76277.131287
0.176947,22,76277.679645
-6.032842,23,76278.322876
-0.332265,21,77252.536086
-0.095092,22,77253.287746
0.835649,24,77253.992069
-6.338151,18,77254.481238
-0.439209,31,77255.366142
-0.379346,23,77255.989612
2.655933,23,77256.554925
-4.043887,23,77257.185785
3.446843,21,77257.746646
-4.303629,22,77258.280774
0.492088,20,77258.76831
2.977306,24,77259.41381
-3.094793,21,77259.937037
-3.904491,20,77260.448825
-7.674978,21,77260.985981
-9.105416,19,77261.480525
3.17719,20,77262.046086
-4.99459,28,77262.788725
-2.892404,30,77263.757664
-10.53068,19,77264.253346
-6.386492,21,77264.810283
-3.592331,19,77265.426914
3.808923,28,78238.57065
-4.870028,20,78239.222234
-2.372882,20,78239.794063
-1.908609,20,78240.34037
-0.119197,23,78240.94248
-5.637573,22,78241.496108
-0.299735,28,78242.232632
-4.269221,21,78242.832796
-13.569786,18,78243.318749
1.422626,21,78243.891985
-1.125507,20,78244.381633
0.363681,20,78244.872458
-3.825616,19,78245.384203
-11.893908,27,78246.249221
-5.610268,22,78246.81267
0.045566,22,78247.566475
0.450763,28,78248.488924
-6.310478,21,78249.050774
-8.940599,18,78249.50781
-4.875283,21,78250.064799
-2.308853,20,78250.556603
1.079163,24,78251.251549
-6.834084,23,78252.010735
-2.487495,20,78252.552722
-0.841476,20,79223.073429
5.324926,29,79223.92069
-2.26896,20,79224.47492
-2.046133,19,79225.109265
-5.318568,20,79225.63427
-2.879806,22,79226.161056
-4.010617,21,79226.711654
-17.160137,29,79227.553782
-4.20451,22,79228.102469
2.922159,27,79228.7461
-11.923909,25,79229.292615
-3.931515,22,79229.904302
-0.700645,23,79230.433882
20.396752,42,79231.329733
-6.228786,19,79231.798045
-9.751041,19,79232.161008
-0.823024,24,79232.717445
3.047138,22,79233.157035
-5.091272,21,79233.625566
0.234021,23,79234.083294
0.33749,20,79234.608312
-4.394133,20,79235.26368
5.63291,27,80213.570794
-4.986122,27,80214.347122
-1.90617,20,80214.979733
-4.147968,20,80215.520254
-6.181877,23,80216.152293
0.832583,21,80216.792611
-9.364801,22,80217.416697
-11.630847,17,80217.854785
-5.467373,21,80218.382715
-3.657351,19,80218.906795
-7.669922,19,80219.440722
-3.53438,19,80219.996916
-6.348276,21,80220.57056
-2.80486,23,80221.199011
-4.140069,23,80221.747392
-0.979228,20,80222.341447
-5.872638,22,80222.940037
-5.971561,20,80223.400342
-6.001968,20,80223.94091
5.478723,29,80224.765774
0.789416,29,80225.601665
-6.146524,28,80226.401028
11.196607,33,80227.375574
17.118279,26,81199.302772
-5.673804,24,81200.014662
-1.46658,20,81200.555201
-0.679763,30,81201.599869
3.237676,24,81202.332868
-4.237317,21,81202.9703
-8.738034,19,81203.527869
-12.170279,27,81204.1926
-1.992424,22,81204.772225
-13.481405,21,81205.212407
-0.191085,23,81205.664882
-14.121673,18,81206.084636
2.079214,23,81206.573753
4.061234,22,81207.039165
-0.207154,21,81207.534431
11.447426,32,81208.274533
4.663734,19,81208.675171
-0.362494,22,81209.192211
-4.630322,18,81209.622495
-1.70219,20,81210.042817
1.78237,21,81210.446995
-4.267205,23,81211.030935
-2.555061,21,81211.56673
-1.124564,20,82132.672911
-0.245183,29,82133.282235
1.71116,20,82133.641972
-0.643994,22,82134.025923
0.753814,18,82134.35911
-6.979344,20,82134.726579
-8.535121,20,82135.073383
2.3466,25,82135.625288
-4.635364,21,82136.033828
-0.576686,20,82136.410676
-4.441076,22,82137.048016
1.872707,27,82137.765499
1.494864,27,82138.41528
3.017693,26,82139.036931
-3.028877,27,82139.675416
-5.936542,25,82140.270468
-1.836708,20,82140.713226
-8.109349,23,82141.210446
-2.038824,21,82141.692544
0.015959,27,82142.355114
-0.342894,20,82142.862557
-6.307026,20,82143.3096
6.278923,24,83009.277263
1.956076,22,83009.637979
1.073847,20,83010.005879
1.925457,23,83010.361939
-8.278613,26,83010.787523
0.849046,26,83011.267681
-4.307866,25,83011.683548
4.501554,22,83012.077115
-3.16118,19,83012.439209
-1.453891,23,83012.831702
-0.041053,23,83013.20215
2.683338,22,83013.570994
-10.227051,20,83013.820545
1.450267,28,83014.274195
-9.841113,28,83014.778363
1.581172,24,83015.133659
-1.534409,21,83015.481977
-0.991222,22,83015.762563
-12.23461,20,83016.10119
4.079434,23,83016.440732
-5.387597,20,83016.802439
-6.901673,26,83017.276658
5.0412,25,83838.282415
-2.037143,21,83838.548442
1.285858,21,83838.780096
0.54928,25,83839.075732
-8.847923,20,83839.314479
0.134462,21,83839.594637
-3.544742,24,83839.855595
-3.045289,21,83840.14493
1.086969,20,83840.376542
3.328131,22,83840.670249
-4.042165,25,83840.979426
-1.964742,25,83841.280039
9.59857,27,83841.593527
-2.666748,22,83841.892596
5.437289,35,83842.311025
-1.327462,23,83842.610286
-1.81403,23,83842.847905
-0.979205,23,83843.129769
14.927323,31,83843.463671
0.712057,29,83843.757434
-0.377625,21,83843.970285
2.427937,23,83844.231793
-8.815296,20,84631.545855
10.290296,28,84631.826378
0.435581,24,84632.110545
-3.954806,22,84632.342124
-2.243902,21,84632.576276
-2.360061,20,84632.784096
4.094095,27,84633.090876
-5.527052,20,84633.316136
-13.585176,18,84633.50204
-2.967958,23,84633.733695
-3.936324,29,84634.066384
-0.377859,22,84634.319003
2.584755,23,84634.551949
-3.485506,21,84634.763428
-12.405321,19,84634.952618
-4.142017,24,84635.212084
-4.019951,26,84635.494968
-10.529372,20,84635.695612
-10.925439,25,84635.939747
-17.929948,28,84636.212781
-5.664475,20,84636.430695
0.434397,21,84636.664306
-4.340373,23,85432.132075
1.760865,35,85432.596853
-3.98161,21,85432.84488
-0.953376,27,85433.227982
1.86119,20,85433.465085
-12.29094,21,85433.754735
-3.450912,19,85433.98614
-3.209429,21,85434.2252
3.494165,22,85434.520931
-7.091562,21,85434.772638
-2.746699,24,85435.091734
-5.805794,20,85435.346846
-4.180402,27,85435.67908
-5.121925,26,85436.006909
2.935422,23,85436.305185
3.104292,23,85436.614917
-4.030656,20,85436.889579
-1.049359,25,85437.268528
7.600741,32,85437.704732
3.665592,22,85438.006516
-5.40024,21,85438.28558
-2.295685,20,85438.561199
-4.769692,21,86231.860091
1.747014,23,86232.135628
3.392826,21,86232.355037
-3.971878,22,86232.587342
-0.611262,22,86232.808364
-4.272018,23,86233.055194
-11.68075,20,86233.295433
-3.165908,19,86233.493767
-2.335072,21,86233.7529
-4.778118,25,86234.007129
6.602554,21,86234.208361
-6.784691,20,86234.45
0.536272,21,86234.699191
-2.166537,22,86234.942347
-0.354969,19,86235.133655
-1.024798,19,86235.344968
-8.722487,18,86235.582578
1.935584,20,86235.80729
-2.007812,21,86236.017576
-1.706714,20,86236.234172
0.559287,20,86236.447937
-0.149008,20,86236.66962
-4.246947,22,86236.930567
-4.35583,18,86237.107257
-1.546679,25,86237.357409
-0.335164,31,87025.358698
-1.881887,19,87025.549645
1.210355,30,87025.861748
-1.658742,27,87026.156235
-4.987648,24,87026.432347
-8.448202,19,87026.634365
5.834729,26,87026.909867
-3.624939,20,87027.124775
0.866358,21,87027.340894
-4.045846,22,87027.607073
10.478704,29,87027.948161
0.422337,22,87028.197366
3.47873,22,87028.428388
-0.038744,19,87028.67916
6.600008,25,87028.955571
-17.68322,17,87029.131582
1.911306,22,87029.350626
-0.605753,19,87029.560826
-1.885146,21,87029.821064
-8.410987,34,87030.15319
-2.732113,19,87030.37506
4.06389,20,87030.572558
-3.389127,22,87827.025603
-1.562067,26,87827.203267
4.659973,23,87827.365241
-0.488009,20,87827.509805
12.952719,37,87827.767752
6.332416,31,87827.985241
-5.886207,19,87828.116729
-3.110205,20,87828.260484
-5.748104,22,87828.403437
-5.590214,19,87828.530836
-1.085533,22,87828.68439
1.885037,41,87828.96414
-3.029829,19,87829.092308
-1.530687,23,87829.253246
-5.192833,31,87829.463841
3.69973,22,87829.607439
-5.663772,26,87829.79126
-3.759366,22,87829.938105
0.520514,25,87830.106461
-4.753175,23,87830.263369
4.742542,28,88577.979322
-18.946584,30,88578.186389
1.518874,24,88578.35034
-5.413307,23,88578.504691
0.675871,25,88578.672895
1.965721,21,88578.820718
1.672385,21,88578.952637
2.017764,23,88579.098532
-4.954359,20,88579.236802
-14.698704,19,88579.359744
-12.003496,22,88579.504451
-2.303758,20,88579.639164
0.725545,26,88579.82553
-13.311225,18,88579.944475
-0.817629,26,88580.114627
-4.626602,20,88580.250361
-6.936698,30,88580.458421
8.719652,30,88580.648639
0.142924,22,88580.7968
-2.338359,25,88580.96185
-3.252715,18,88581.084797
-3.157842,24,88581.245144
-4.23653,22,89328.082802
-6.89902,20,89328.222962
-6.649158,21,89328.359848
1.481523,20,89328.496245
1.975019,23,89328.65819
-10.284928,20,89328.784819
6.316725,21,89328.931845
1.808056,22,89329.080142
-9.006429,20,89329.221676
4.454967,20,89329.351171
15.492458,32,89329.565023
-6.418328,21,89329.705041
-6.585731,21,89329.84023
2.974222,23,89329.994644
-8.215572,19,89330.132144
-14.657794,19,89330.260127
-2.757159,20,89330.399402
0.099332,24,89330.561364
-5.838847,22,89330.712917
8.143962,25,89330.883498
7.005721,32,89331.096509
1.452089,22,89331.253432
3.97565,23,89331.405976
3.161257,21,89331.544119
-11.543634,18,90083.647457
-7.999723,20,90083.783795
-3.426913,29,90083.980803
0.379673,20,90084.11584
1.363833,22,90084.270044
2.331168,20,90084.404101
10.171885,28,90084.589664
3.462667,20,90084.715852
-1.218788,21,90084.866594
6.584093,30,90085.07021
13.544747,36,90085.317444
-5.871781,20,90085.457649
3.153056,23,90085.621849
-4.734328,25,90085.785576
3.25047,24,90085.957192
-7.669002,20,90086.091315
0.506771,20,90086.23473
-2.206352,21,90086.372603
-10.747113,18,90086.503989
-4.77939,19,90086.635383
-4.922344,21,90086.776014
-4.626903,19,90086.911165
0.376773,20,90845.989701
-4.664526,30,90846.187511
-5.443024,20,90846.321071
6.445981,39,90846.59511
2.65023,26,90846.764646
-9.280033,22,90846.921608
-8.27642,21,90847.059899
3.552755,21,90847.196869
-5.579451,21,90847.34127
-1.535566,24,90847.503963
6.893267,25,90847.667897
-7.031175,20,90847.80939
1.902679,22,90847.960149
1.191697,30,90848.163296
2.226875,21,90848.304076
-3.753298,20,90848.450622
-0.505105,22,90848.601231
-3.33375,20,90848.742424
-4.992404,24,90848.901748
-7.712004,25,90849.077833
-1.833567,21,90849.229773
-2.831153,25,90849.401022
8.635179,32,91618.739308
-2.345677,20,91618.875016
1.415546,21,91619.011352
-0.705317,24,91619.176637
0.969857,23,91619.330343
-8.815541,18,91619.449072
3.705124,25,91619.611254
-12.505445,20,91619.750245
-7.745733,21,91619.900185
6.279791,29,91620.095159
-2.799311,20,91620.23052
3.61465,26,91620.411146
-4.687512,20,91620.544589
22.608689,35,91620.786191
-4.312247,20,91620.926994
-5.664748,20,91621.06584
-17.366048,20,91621.198054
-0.05658,23,91621.359586
3.285587,25,91621.529272
15.318862,35,91621.78499
-10.5214,17,91621.904115
5.866579,21,91622.042418
-9.322546,20,92368.411163
4.612504,25,92368.583664
0.722187,20,92368.720907
4.227929,20,92368.871629
-0.336324,27,92369.043092
-2.353791,22,92369.192651
-1.001481,20,92369.322034
-3.245609,21,92369.466063
-8.426333,20,92369.596183
-3.188371,21,92369.738984
-3.279471,20,92369.882658
-4.552988,21,92370.022533
-3.657332,20,92370.157505
-0.529134,25,92370.323904
-0.661842,23,92370.470203
-12.047158,21,92370.610321
-2.501499,20,92370.747261
2.618488,24,92370.906267
1.713637,24,92371.066187
0.289577,22,92371.214749
-3.085452,20,92371.347555
0.116684,26,92371.521209
-2.275721,19,92371.649288
-8.088988,19,92371.783798
1.908577,23,93142.238631
3.31686,21,93142.386759
0.534288,21,93142.531402
4.642178,30,93142.726923
-12.909329,18,93142.850656
17.1364,33,93143.080917
-10.63502,26,93143.25076
-6.596829,18,93143.368993
4.368101,26,93143.537399
2.808481,20,93143.670331
-2.885001,21,93143.819193
5.239415,35,93144.054939
3.461638,26,93144.23536
17.986781,34,93144.46085
-3.726638,20,93144.598281
1.068823,23,93144.750631
-1.103444,19,93144.876238
-2.155506,20,93145.009341
-5.392795,22,93145.15614
-8.72668,23,93145.316717
-15.206509,20,93145.449728
-6.05632,19,93984.938765
1.696676,21,93985.115599
-1.090935,22,93985.305063
1.284095,21,93985.481053
-12.305277,20,93985.659138
-5.559072,21,93985.839021
1.646782,21,93986.033071
0.646118,27,93986.277653
-0.467627,26,93986.504925
-7.157884,21,93986.685992
-5.919891,22,93986.879161
-0.085405,24,93987.102271
-8.796109,22,93987.320112
9.252222,35,93987.617568
3.148158,28,93987.854827
-0.861692,23,93988.067675
1.007444,24,93988.284528
4.479782,22,93988.501951
-9.913315,19,93988.676738
1.354522,21,93988.860201
2.31187,20,93989.030631
-1.471855,26,93989.257754
