# {"t_start": 1547997837.8272004, "env_id": "RoboschoolHumanoidFlagrun-v1"} 
r,l,t
-31.11068,19,4.261942
-36.313056,18,5.095785
-45.609404,22,5.892616
-40.683989,25,7.056989
-41.561237,24,8.670726
-47.244739,20,9.684517
-37.718142,18,10.231199
-23.139782,21,11.192827
-28.102324,21,12.450575
-37.965635,19,13.624311
-45.407391,27,15.250278
-34.22988,20,16.083883
-28.537154,20,17.210078
-29.053986,21,18.330197
-22.982499,19,19.685737
-45.571299,17,20.768522
-49.954387,20,22.165666
-34.597252,19,23.599448
-49.870678,28,25.604659
-49.855675,17,26.476312
-31.939197,19,27.196013
-47.595827,27,28.772942
-56.051463,23,30.63851
-27.92125,19,31.627717
-33.006813,19,2725.745282
-43.781288,24,2727.251322
-32.438744,18,2728.349134
-33.119375,20,2729.455763
-33.391817,18,2730.199007
-37.016469,19,2731.600433
-45.431696,18,2732.380347
-37.41669,18,2733.433986
-49.889552,19,2734.819672
-52.084639,17,2735.962758
-41.433685,19,2737.087127
-39.569052,19,2738.225307
-32.855235,18,2739.030501
-36.432047,21,2740.452733
-30.983087,18,2741.780936
-31.652441,21,2742.69741
-32.799184,18,2743.695879
-50.488028,25,2745.072309
-32.405475,19,2745.962189
-40.96715,19,2747.170867
-37.958376,18,2748.390439
-30.491876,20,2749.214038
-31.612592,20,2750.102782
-39.331052,19,2750.830756
-32.016762,20,2752.033439
-47.896626,18,2753.246809
-35.611644,19,2754.268068
-27.318036,19,5440.323972
-29.392824,20,5441.442152
-28.615968,19,5442.573321
-38.017266,19,5443.61213
-41.145139,20,5444.888065
-36.052708,19,5445.908864
-56.00727,19,5447.414602
-33.981238,18,5448.518769
-31.00935,21,5449.646464
-39.057659,20,5450.406896
-39.183421,19,5451.186878
-31.522871,15,5451.965062
-35.943996,19,5453.281163
-33.975257,18,5454.0061
-46.005922,19,5454.779854
-28.49907,19,5455.856121
-24.113806,19,5456.991853
-30.986122,19,5458.159976
-38.20119,19,5459.433388
-32.620845,18,5460.710625
-48.225746,19,5462.077843
-27.216801,18,5463.156767
-23.896466,20,5464.332642
-38.008001,19,5465.248609
-43.283947,19,5466.344457
-40.802094,20,5467.750831
-40.845186,19,5469.020553
-43.253303,19,8166.562545
-32.319375,19,8167.6847
-33.189136,19,8168.519128
-33.644189,18,8169.506297
-48.068543,18,8170.529768
-28.074213,18,8171.630132
-38.201542,18,8172.569611
-35.080924,18,8173.550414
-30.244433,18,8174.517172
-32.465245,20,8175.49723
-48.400811,28,8177.551676
-33.053903,21,8178.915932
-34.666981,20,8179.913836
-49.885273,18,8180.82875
-37.724493,19,8181.950866
-31.342226,18,8183.188671
-30.619558,20,8184.442977
-20.071799,19,8185.55103
-33.801428,19,8186.942642
-26.799758,20,8188.383163
-24.392916,20,8189.455275
-37.098001,13,8190.125463
-41.828117,19,8191.236548
-29.341205,19,8192.132216
-24.791528,18,8193.414668
-39.111035,19,8194.836536
-36.274467,20,10913.177066
-24.906064,19,10914.552638
-30.906581,21,10915.382848
-35.934191,19,10916.50937
-35.015536,19,10917.31296
-32.79802,20,10918.224043
-41.954567,18,10919.394251
-26.26299,20,10920.724258
-44.740359,28,10922.102003
-42.123279,19,10923.038139
-42.76489,18,10923.886222
-45.78542,19,10925.155828
-25.292531,18,10926.275783
-26.353671,18,10927.204126
-37.615382,19,10928.071546
-35.329482,19,10929.308145
-42.079331,18,10930.444245
-32.106179,17,10931.430707
-36.902381,19,10932.597532
-30.455394,25,10934.433634
-39.790201,19,10935.444088
-39.853712,19,10936.836869
-44.598845,20,10938.077507
-28.377429,19,10939.109075
-38.410832,18,10940.038051
-34.197928,20,10941.110823
-39.005031,21,10942.40613
-43.224988,22,13747.261041
-26.615431,19,13748.0989
-35.04276,20,13749.456707
-37.664132,20,13750.38121
-41.69757,18,13751.105103
-48.4026,23,13752.094484
-35.495674,18,13752.877756
-28.636158,19,13753.817286
-33.391261,19,13755.468127
-31.04356,20,13756.266703
-40.021381,23,13757.298324
-50.170746,18,13757.922131
-32.700571,21,13759.360532
-42.369245,20,13760.387391
-28.268876,18,13761.595865
-31.270374,18,13762.782014
-46.568666,18,13763.857206
-40.540053,24,13765.294065
-41.915552,19,13766.453578
-36.66194,20,13767.539985
-23.441758,23,13768.298277
-35.635888,20,13768.92594
-37.150302,19,13770.184003
-56.021999,21,13771.558679
-22.866826,18,13772.499268
-34.637456,20,16556.341452
-36.428563,20,16557.704566
-40.279914,19,16558.697705
-43.296046,20,16559.750944
-34.180141,17,16560.630251
-50.424284,24,16561.744904
-22.489719,19,16563.084197
-32.20711,19,16564.551754
-30.471468,28,16566.122457
-38.305854,20,16567.475079
-32.880931,20,16568.326655
-35.760182,19,16569.540597
-29.652241,19,16570.883352
-42.661942,20,16571.968709
-27.036594,18,16573.192725
-34.313231,21,16574.435289
-27.871619,20,16575.604298
-16.403824,19,16576.380136
-22.397362,18,16577.346905
-19.265777,19,16578.453936
-25.70473,17,16579.738547
-29.027544,19,16580.752613
-29.200485,19,16581.50033
-39.112194,19,16582.325735
-33.930454,17,16583.149888
-25.781997,19,16584.175201
-29.837668,19,19163.834433
-41.274217,27,19165.286361
-30.311057,19,19166.144948
-25.13297,20,19167.308967
-35.180203,19,19168.34436
-25.998655,19,19169.420244
-43.09207,22,19170.634363
-31.518181,18,19171.234848
-48.542759,19,19172.312369
-32.176377,27,19173.781531
-22.106091,20,19174.928203
-29.8959,19,19175.738427
-34.340818,20,19177.026546
-30.722391,18,19177.630516
-37.282676,18,19178.781712
-25.934889,20,19179.888052
-27.080499,19,19180.861808
-35.686036,19,19181.778428
-30.304165,20,19183.027515
-29.160905,18,19183.758815
-34.41133,19,19184.525693
-37.324146,25,19185.685567
-31.489512,20,19186.600729
-26.036715,18,19187.555027
-49.713659,18,19188.503472
-24.924786,20,19189.686999
-23.915409,19,21802.325941
-23.149651,18,21803.49912
-22.555399,19,21804.457964
-47.504282,22,21805.64169
-46.186374,24,21806.781258
-31.418124,26,21807.9539
-27.625196,18,21808.590459
-28.655687,18,21809.294448
-28.979768,19,21810.202007
-45.246292,28,21811.54726
-36.7869,25,21813.229736
-26.706954,19,21814.067995
-27.476077,20,21814.971281
-33.307762,19,21816.056821
-32.79669,20,21817.382752
-24.222559,18,21818.388914
-26.763306,17,21819.372925
-27.522551,18,21820.425113
-34.540466,19,21821.510849
-36.834685,18,21822.383654
-34.372008,32,21823.86582
-32.497253,21,21825.031125
-44.374576,24,21826.514255
-35.225459,18,21827.714257
-33.830888,18,21828.561146
-26.215921,19,24610.352459
-25.642961,19,24611.344767
-21.699438,18,24612.215118
-35.706927,23,24613.585581
-29.361104,20,24615.054922
-20.352339,19,24616.094818
-25.929933,23,24617.163633
-28.81357,19,24618.086929
-29.979783,18,24619.22821
-25.34924,18,24620.053243
-33.462873,18,24621.179909
-31.274094,20,24622.332829
-31.404464,18,24622.957389
-29.530892,13,24623.734762
-23.619054,20,24624.58196
-26.339771,20,24625.509995
-22.512649,19,24626.301394
-34.377332,19,24627.136642
-29.247159,20,24628.379575
-26.489011,19,24629.696921
-20.962622,19,24630.481631
-30.116357,23,24631.948308
-31.260945,19,24632.787013
-29.739323,18,24633.832198
-24.220102,20,24634.792499
-27.682741,18,24636.065476
-25.60766,25,27700.727281
-26.34386,19,27701.533445
-34.06285,22,27702.493038
-23.211205,20,27703.40983
-32.630275,20,27704.410822
-31.355311,26,27705.509243
-25.308847,19,27706.478985
-28.996912,23,27707.703269
-29.042025,19,27708.728523
-23.28237,20,27709.652429
-25.492746,19,27710.572661
-33.858384,25,27711.907723
-18.852915,19,27712.614296
-32.027586,18,27713.260522
-29.154458,18,27714.358315
-16.876256,17,27715.474659
-24.042292,23,27716.735785
-34.045645,12,27717.54004
-26.864189,20,27718.498332
-26.076356,25,27719.88281
-27.314649,17,27720.635654
-35.394403,18,27721.471424
-19.499016,21,27722.62993
-15.283766,18,27723.767009
-33.08686,19,27724.570975
-32.212536,22,27725.551328
-21.04938,21,30210.096594
-23.553859,19,30210.718955
-37.45381,17,30211.278048
-28.436318,20,30211.991336
-14.215648,21,30212.723949
-17.785269,20,30213.37618
-25.545048,19,30213.99047
-29.118954,18,30214.697436
-24.516993,20,30215.308288
-21.999675,20,30216.170285
-31.957052,20,30216.981407
-26.231612,21,30217.692695
-27.779077,19,30218.317715
-16.200768,18,30218.909809
-32.051798,17,30219.55002
-24.914194,19,30220.505451
-28.077909,20,30221.447579
-20.028575,19,30222.098015
-23.847873,19,30222.725231
-18.141669,20,30223.807727
-36.512493,19,30224.495053
-23.058637,19,30225.181884
-32.695584,20,30225.944372
-19.878355,19,30226.604609
-29.599699,18,30227.122812
-29.859613,19,30227.929266
-30.69316,20,32426.318113
-25.790742,19,32426.882309
-18.788776,26,32427.73294
-31.676759,19,32428.538203
-23.998816,19,32429.238202
-27.308933,20,32429.877257
-24.209327,19,32430.508686
-23.605164,17,32431.090147
-27.460058,23,32431.933913
-18.029253,19,32432.548432
-15.954837,19,32433.10882
-28.506133,22,32433.744828
-26.764715,19,32434.348484
-23.476219,18,32434.970493
-19.789408,20,32435.764536
-29.868312,20,32436.447752
-25.808124,17,32436.954798
-26.978838,20,32437.637663
-29.231495,26,32438.421535
-33.332747,24,32439.280769
-23.457101,24,32440.087392
-33.125026,19,32440.731206
-22.498685,19,32441.284994
-31.384449,22,32441.902766
-23.104539,19,32442.451041
-10.335825,19,32443.167507
-30.820466,20,34175.535574
-16.723699,23,34176.201172
-22.394285,18,34176.760722
-36.081418,20,34177.298639
-16.378215,20,34177.888551
-13.780885,19,34178.566035
-37.647576,19,34179.101249
-24.84995,19,34179.650327
-22.038669,19,34180.323925
-20.160424,18,34180.818308
-23.931399,21,34181.308382
-28.059842,19,34181.79422
-19.033351,19,34182.183644
-30.292724,18,34182.616202
-22.026712,20,34183.061089
-25.195504,20,34183.514512
-17.140785,21,34183.961976
-15.571803,20,34184.507505
-18.480908,21,34184.981627
-22.898324,19,34185.52552
-22.709241,20,34185.951216
-19.84534,19,34186.451052
-22.876612,17,34186.900012
-13.068157,19,34187.427542
-27.4877,18,34187.938139
-23.04655,18,34188.347492
-19.051021,19,35651.802621
-16.049898,17,35652.247806
-25.18383,19,35652.804655
-27.007754,19,35653.275004
-28.278594,19,35653.825329
-11.314699,16,35654.265461
-20.065961,19,35654.946958
-23.228662,22,35655.511518
-25.136603,22,35656.232776
-16.102655,19,35656.76813
-29.471133,20,35657.33248
-17.370267,23,35658.060239
-22.709377,18,35658.611714
-17.598775,20,35659.165716
-8.986615,19,35659.706253
-27.698226,25,35660.453022
-18.211602,19,35660.992329
-20.502775,20,35661.620599
-25.842922,20,35662.124727
-39.452065,18,35662.614595
-20.605802,21,35663.203543
-16.734104,20,35663.734051
-15.067641,19,35664.322392
-14.780719,20,35664.795759
-18.340327,19,35665.333282
-20.663086,19,35665.781359
-22.568186,20,37125.113955
-12.579931,19,37125.77302
-15.171759,19,37126.34798
-33.067932,20,37126.917402
-25.842183,21,37127.471267
-20.714198,20,37128.125625
-19.225004,20,37128.69294
-28.416157,20,37129.23211
-16.274232,19,37129.734402
-20.720645,20,37130.310486
-18.492708,21,37130.893908
-20.888508,23,37131.529592
-14.958665,20,37132.140996
-23.940638,21,37132.869512
-22.051315,20,37133.417316
-16.965926,20,37133.967924
-18.120505,19,37134.555432
-19.930143,19,37135.220819
-14.614796,19,37135.731261
-19.819605,19,37136.293101
-30.713863,21,37136.906147
-27.167208,19,37137.446282
-25.664554,20,37138.067629
-31.184457,18,37138.642905
-17.741903,20,37139.325895
-15.09848,20,37139.920487
-12.154337,20,38482.706171
-21.489489,19,38483.086769
-21.985635,19,38483.47479
-17.81957,19,38483.825193
-18.63429,21,38484.262756
-16.902858,19,38484.698853
-15.805049,19,38485.09662
-13.173908,21,38485.494036
-22.641505,19,38485.932334
-20.289282,19,38486.518804
-18.752666,19,38487.116576
-24.024016,17,38487.558866
-17.614124,18,38488.065046
-14.881298,20,38488.551686
-9.454357,19,38488.993796
-15.452293,20,38489.537018
-22.399638,19,38490.062471
-22.017759,19,38490.581078
-14.353666,19,38491.13562
-25.894758,19,38491.722408
-16.407774,19,38492.21821
-19.239466,19,38492.736135
-14.236975,19,38493.239251
-27.586439,21,38493.805262
-30.242021,28,38494.657178
-20.377374,20,38495.177791
-22.824385,19,39643.872311
-12.889888,24,39644.431796
-25.292336,19,39644.861856
-22.860387,20,39645.282784
-22.04614,20,39645.73699
-12.36644,19,39646.251142
-11.785297,18,39646.709301
-19.748063,19,39647.101825
-20.740733,20,39647.498481
-20.501537,19,39647.865239
-14.55122,19,39648.2442
-19.707519,25,39648.708055
-16.288056,23,39649.123158
-11.254199,19,39649.49524
-15.607992,20,39649.845262
-19.719159,20,39650.231763
-12.803795,20,39650.637066
-15.768761,20,39650.987067
-18.233188,19,39651.374717
-21.779559,22,39651.889442
-28.971339,21,39652.450624
-21.3451,20,39652.905151
-27.890624,28,39653.647096
-26.541999,26,39654.254481
-13.048854,18,39654.717025
-23.061108,20,40729.358601
-29.009019,19,40729.803357
-19.818791,18,40730.186227
-23.95499,19,40730.542124
-18.577493,19,40730.85493
-9.092101,19,40731.179627
-19.660288,19,40731.515523
-10.975349,20,40731.862428
-18.658678,20,40732.233082
-23.133431,19,40732.520949
-14.96171,19,40732.838997
-18.44321,18,40733.250527
-18.883081,19,40733.630022
-31.344926,20,40733.989502
-27.313835,19,40734.371021
-17.523337,21,40734.728898
-29.788108,19,40735.092936
-14.727522,19,40735.521263
-28.769456,16,40735.894173
-13.586774,19,40736.335011
-16.691874,19,40736.76136
-16.568455,19,40737.160045
-31.957574,18,40737.599884
-18.843555,21,40738.044981
-15.018624,19,40738.517113
-19.287363,19,40739.006701
-14.589389,19,41812.410693
-17.142572,20,41812.901043
-22.10458,19,41813.431354
-16.924091,20,41813.948346
-21.277933,19,41814.408762
-15.526669,18,41814.802724
-15.115492,20,41815.319039
-21.028688,19,41815.830342
-19.881383,17,41816.21292
-20.823572,19,41816.658066
-14.329196,19,41816.986368
-18.961111,19,41817.313596
-21.087139,19,41817.709997
-15.474089,18,41818.021955
-16.884183,19,41818.422255
-25.059913,19,41818.813506
-12.446326,19,41819.146022
-8.982869,20,41819.553605
-9.232654,20,41819.915801
-26.472048,20,41820.314887
-19.573268,20,41820.735751
-17.740281,20,41821.206633
-23.64974,18,41821.655091
-26.682264,18,41822.09549
-15.054436,20,41822.561077
-17.986607,22,41823.061945
-22.785276,18,41823.500352
-14.555977,20,42895.96094
-16.382142,20,42896.44257
-11.95053,19,42896.90599
-10.17972,22,42897.395022
-21.747682,21,42897.887445
-10.646633,19,42898.32236
-16.622661,18,42898.732526
-12.332441,20,42899.170982
-15.835615,21,42899.787002
-28.719156,25,42900.388691
-13.578633,20,42900.89001
-19.627283,20,42901.322005
-17.678022,18,42901.77632
-16.596073,20,42902.279776
-14.544692,19,42902.667943
-24.573358,19,42903.047109
-24.432392,17,42903.362036
-19.537293,19,42903.694618
-14.170811,19,42904.112373
-16.310935,20,42904.491085
-15.98274,20,42904.826511
-11.208968,19,42905.169662
-12.840878,19,42905.486412
-14.93111,19,42905.916368
-15.386872,22,42906.287606
-19.262983,19,42906.639125
-17.073436,20,43981.661799
-26.059522,19,43982.140322
-16.725492,20,43982.630696
-14.411418,21,43983.083027
-18.646359,21,43983.597755
-19.102279,20,43984.085969
-17.200285,21,43984.594931
-10.254954,20,43985.085429
-12.131194,20,43985.627928
-19.652257,19,43986.018666
-14.591642,19,43986.346307
-15.209533,20,43986.666431
-17.672152,21,43987.114993
-9.443298,19,43987.456836
-14.371329,18,43987.768315
-17.944027,19,43988.14131
-27.148959,30,43988.630854
-16.480974,20,43989.063027
-27.26518,18,43989.383237
-12.083701,23,43989.75018
-15.776675,19,43990.141901
-20.538862,18,43990.577516
-7.320938,20,43990.970449
-11.434753,19,43991.385405
-20.250116,20,43991.878888
-6.807323,19,45066.396847
-11.027685,22,45066.925118
-17.861461,18,45067.344048
-8.594311,20,45067.812018
-14.453047,19,45068.208364
-18.819603,19,45068.648392
-17.161401,19,45069.153945
-12.945962,21,45069.598125
-9.243646,18,45069.975632
-12.618726,19,45070.329578
-15.791614,19,45070.733124
-18.912847,18,45071.08585
-16.291738,19,45071.439148
-21.717225,19,45071.793214
-15.698024,18,45072.121877
-13.260785,21,45072.571268
-18.919547,18,45072.885284
-12.164292,19,45073.284023
-15.17106,19,45073.669017
-14.011462,21,45074.079603
-19.072775,20,45074.594583
-17.261284,19,45075.064975
-11.093495,25,45075.659207
-19.886565,23,45076.169335
-19.996149,20,45076.634654
-16.9836,20,45077.133034
-15.990566,21,46150.577558
-26.232429,17,46151.004062
-11.908975,20,46151.432157
-13.680812,18,46151.906157
-9.786288,19,46152.304321
-13.379279,19,46152.690144
-13.196395,18,46153.069772
-19.654023,21,46153.43978
-11.59253,18,46153.754588
-23.628897,20,46154.162982
-13.346456,25,46154.640169
-20.352792,19,46154.977184
-23.431061,18,46155.28684
-21.503467,21,46155.653893
-31.144883,19,46155.949203
-14.546629,20,46156.33017
-13.926039,20,46156.718345
-16.804265,26,46157.160478
-12.837093,22,46157.654789
-12.57462,21,46158.181971
-4.393207,21,46158.683242
-15.281055,19,46159.145688
-12.13313,23,46159.688852
-26.137327,20,46160.179538
-3.73684,21,46160.688391
-25.35229,19,46161.150606
-10.690667,20,47235.300769
-15.363937,19,47235.736085
-11.035949,20,47236.192743
-3.515471,20,47236.635326
-17.594174,19,47237.080042
-18.949936,19,47237.585978
-15.760313,20,47238.092837
-23.130895,20,47238.461686
-18.258913,19,47238.83766
-23.649383,22,47239.217893
-25.405552,24,47239.721375
-11.079668,19,47240.062081
-17.89762,20,47240.397768
-14.144665,19,47240.728519
-11.441332,18,47241.090564
-11.067689,19,47241.350237
-7.256208,21,47241.670571
-7.05369,19,47242.01574
-12.941276,20,47242.366053
-10.340365,23,47242.827122
-16.011641,23,47243.329879
-15.454793,19,47243.746749
-25.805383,18,47244.128985
-18.477618,29,47244.84529
-16.284685,19,47245.285839
-14.343636,20,48316.616028
-11.422106,22,48317.292088
-13.21727,20,48317.764893
-22.445666,22,48318.330701
-15.667418,20,48318.841734
-10.890791,19,48319.28421
-12.419389,20,48319.857451
-11.84927,19,48320.322695
-19.610055,16,48320.768591
-13.47623,20,48321.33805
-15.046906,19,48321.845175
-11.231711,19,48322.334865
-8.412249,20,48322.768988
-7.369217,22,48323.172791
-17.19247,23,48323.641135
-19.783976,19,48324.024769
-10.306144,21,48324.396873
-23.322853,26,48324.968534
-3.64626,20,48325.320877
-12.218045,19,48325.751122
-10.6927,20,48326.155613
-16.426529,18,48326.499063
-9.403953,21,48326.88958
-18.074936,19,48327.287698
-9.564327,24,48327.836451
-23.039421,19,49392.047119
-18.711527,19,49392.585293
-8.102955,19,49393.028266
-14.559726,19,49393.510514
-15.533189,19,49394.009658
-20.253314,25,49394.64346
-12.266457,20,49395.153683
-25.090546,27,49395.782155
-13.776606,19,49396.219858
-16.106048,18,49396.649858
-14.649574,20,49397.110528
-20.813842,19,49397.560131
-6.462859,19,49397.978973
-5.598396,20,49398.444038
-14.951109,20,49398.8972
-5.407463,20,49399.287121
-6.258169,21,49399.694007
-9.574815,19,49400.022161
-15.358561,22,49400.404846
-14.19119,20,49400.805289
-8.12415,24,49401.228691
-10.689409,18,49401.543623
-12.606569,19,49401.876781
-14.532767,22,49402.335626
-12.884628,21,49402.701497
-12.505578,19,50420.541393
-14.714731,19,50420.825658
-13.074051,19,50421.076407
-9.292345,18,50421.377
-9.028649,21,50421.683721
-5.139038,20,50421.979928
-11.557755,22,50422.316561
-21.84118,19,50422.613151
-2.911889,30,50423.090503
-14.379073,20,50423.429116
-5.387918,20,50423.757772
-11.780961,20,50424.051673
-15.115273,20,50424.391477
-9.116864,20,50424.726499
-15.455948,19,50425.046751
-11.957376,19,50425.374412
-9.150699,19,50425.710971
-14.612616,19,50426.031337
-18.467524,19,50426.352815
-7.514699,20,50426.654434
-14.088877,18,50426.945113
-9.250006,20,50427.288963
-19.511505,19,50427.586577
-17.635851,22,50427.933369
-10.222836,20,50428.235658
-10.460157,19,50428.57334
-4.720098,19,51339.32211
-17.092435,19,51339.590499
-10.329767,20,51339.878706
-7.195919,20,51340.152867
-15.813903,19,51340.481149
-8.072534,20,51340.769771
-16.798976,20,51341.066375
-10.083246,19,51341.352118
-11.740632,21,51341.687529
-10.066237,20,51341.962876
-6.671242,19,51342.248638
-8.635656,19,51342.536437
-13.330892,18,51342.845061
-10.389674,19,51343.117698
-11.819141,20,51343.416797
-11.113579,19,51343.704612
-11.250868,19,51344.010866
-1.881674,21,51344.316154
-7.503378,20,51344.609799
-9.457412,19,51344.899506
-8.331176,20,51345.267796
-9.213091,20,51345.617886
-10.249602,20,51345.938592
-16.854699,18,51346.270808
-8.946547,19,51346.577142
-7.46884,20,51346.879559
-14.010087,18,52256.732983
-6.714855,20,52257.053769
-6.651655,21,52257.346554
-12.745669,20,52257.675874
-10.584033,19,52258.006985
-14.845306,19,52258.305775
-11.471741,27,52258.741643
-14.035529,19,52259.073798
-8.767399,20,52259.426333
-8.973006,18,52259.689766
-10.682315,19,52260.005317
-9.161834,19,52260.316803
-12.654739,20,52260.641032
-9.197029,20,52260.932196
-10.906643,19,52261.199782
-15.928645,19,52261.496718
-14.507621,21,52261.79998
-17.053074,20,52262.090174
-11.577754,19,52262.413844
-18.306345,20,52262.749911
-2.008106,20,52263.093682
-17.510308,19,52263.390139
-3.581439,19,52263.663798
-5.507176,21,52264.041832
-6.056295,20,52264.337326
-18.624223,21,52264.665237
-8.359992,21,53174.917408
-8.039717,20,53175.200901
-9.269499,20,53175.547417
-2.919761,19,53175.80624
-7.427254,25,53176.236179
-13.000035,19,53176.557321
-4.35357,20,53176.844424
-2.182406,18,53177.124685
-6.31767,24,53177.533135
-13.612463,19,53177.817297
-12.207153,18,53178.092761
-6.302828,21,53178.428205
-5.479621,19,53178.765875
-11.55674,23,53179.143503
-17.497106,23,53179.495969
-10.580684,19,53179.817154
-4.936862,19,53180.107172
-16.496188,19,53180.425106
-14.921445,19,53180.759264
-6.326376,19,53181.073661
-14.578357,19,53181.334984
-7.742907,22,53181.694784
-3.703049,20,53182.043176
-7.954788,20,53182.379902
-6.977933,20,53182.672726
-11.998816,22,54094.843771
-9.649895,20,54095.164284
-6.657463,20,54095.468185
-11.212982,22,54095.80694
-2.426185,20,54096.128587
-6.818887,21,54096.46126
-9.584595,19,54096.736754
-10.596331,20,54097.038694
-12.278309,21,54097.377978
-6.382184,21,54097.67952
-18.070038,21,54098.042711
-11.646946,19,54098.349682
-18.102704,26,54098.758603
-9.454153,20,54099.096198
-11.0444,21,54099.436478
-17.098469,20,54099.769846
-5.613328,19,54100.076366
-8.812509,19,54100.368537
-10.427623,20,54100.68071
-7.843184,19,54101.010754
-11.903697,22,54101.400297
-6.393706,20,54101.710791
-1.045266,20,54101.994194
-9.314802,23,54102.377516
-14.518795,20,54102.70181
-11.275479,19,54926.404217
-12.893783,21,54926.647278
-8.436846,19,54926.828267
-3.933551,20,54927.058904
-2.401368,20,54927.286496
-6.251215,19,54927.493689
-8.558693,20,54927.725817
-17.484557,20,54927.947249
-3.051736,19,54928.147805
-1.350872,19,54928.348725
-9.789868,21,54928.566918
-14.052491,18,54928.749509
-4.55243,20,54928.969823
-7.993907,20,54929.173787
-15.543465,15,54929.340076
-9.667985,20,54929.559363
-12.993566,19,54929.757808
-13.311419,19,54929.989347
-6.719021,24,54930.250511
-8.242286,19,54930.445251
-14.287125,20,54930.64662
-2.033638,21,54930.846544
-17.727774,20,54931.074892
-16.669047,19,54931.300252
-15.691893,20,54931.520954
-13.448678,20,54931.721869
-7.095558,19,55719.849002
-5.535609,21,55720.09212
-4.460596,19,55720.290194
-8.764975,19,55720.473438
-6.273452,20,55720.678563
-20.195176,18,55720.857598
-7.299185,20,55721.076533
-16.559721,20,55721.315017
-4.864851,21,55721.524024
-9.139018,20,55721.727447
-13.149574,20,55721.928635
-7.623778,20,55722.13103
-11.734681,19,55722.342494
-14.461783,20,55722.575618
-9.758833,19,55722.786582
-11.01389,22,55723.009458
-7.266166,19,55723.207613
-8.211924,20,55723.426034
-8.095747,20,55723.676603
-4.973087,19,55723.905248
-9.299036,19,55724.114261
0.542037,20,55724.301348
-7.237113,22,55724.543754
-17.36418,18,55724.769285
-7.351809,21,55724.983046
-11.159917,20,55725.187937
-4.811521,20,56659.092389
-12.55792,20,56659.653698
0.184054,21,56660.210782
-9.585387,19,56660.598142
-7.899029,20,56661.051979
-5.207759,19,56661.444205
-6.001312,20,56661.860121
-5.541588,19,56662.412729
-12.73617,19,56662.86617
-5.977966,21,56663.303459
-6.812614,21,56663.889209
-4.083225,20,56664.365232
-9.368789,20,56664.886306
-6.673889,19,56665.317017
-6.53264,20,56665.847521
-5.275271,23,56666.411779
-9.809,20,56666.891006
-15.345647,20,56667.559838
-7.29827,19,56668.183789
-10.54103,19,56668.704345
-10.870381,19,56669.324034
-3.337986,20,56669.937716
-5.158022,20,56670.513358
-8.448095,21,56671.075123
-8.459899,20,56671.610608
-2.783362,20,56672.124478
-6.244491,21,57759.500213
-4.85254,20,57760.044366
-5.904928,21,57760.511487
-5.484712,20,57761.044091
-2.929818,21,57761.561492
-5.020794,20,57762.100342
-4.492307,21,57762.677591
-5.239735,20,57763.114933
-13.028535,18,57763.556145
-23.42192,19,57764.016911
-4.488824,20,57764.625385
-1.475705,22,57765.166944
-8.132013,20,57765.632236
-9.54793,20,57766.22672
-7.514571,20,57766.896452
-7.80824,19,57767.601451
-3.098959,23,57768.302027
-19.629039,19,57768.838905
-8.683355,19,57769.34885
-11.51734,20,57769.919394
-10.291029,20,57770.479486
-3.013192,20,57771.101763
-11.059701,20,57771.82352
-5.990509,19,57772.388964
-4.549299,20,57773.121482
-10.182441,20,58856.540752
-7.790608,18,58856.9841
-9.605943,21,58857.578979
-8.980599,19,58858.098083
-11.659072,20,58858.687732
-9.714497,19,58859.195095
-4.945434,20,58859.760532
-21.30432,22,58860.334174
1.609117,19,58860.80911
-5.469503,20,58861.378377
-5.581024,20,58861.931741
-7.193488,20,58862.561518
-7.128692,20,58863.099693
-8.184516,20,58863.636181
-6.741379,19,58864.217571
-10.776308,20,58864.824585
-4.025147,21,58865.649492
-15.432589,20,58866.190996
-6.469778,23,58866.811882
-1.602547,22,58867.404099
-11.207757,19,58867.957997
-14.15822,21,58868.546154
-6.510298,20,58869.07231
-7.684776,25,58870.040093
-7.197559,22,58871.045666
-14.444085,20,59961.421485
-14.089383,19,59961.89519
-8.932313,20,59962.422395
-3.207168,21,59963.046333
-11.88929,23,59963.748985
-14.880591,21,59964.474713
-1.229277,20,59965.214546
-8.268262,21,59965.832994
-8.948463,19,59966.347247
-6.978601,20,59966.880615
-10.58432,21,59967.450443
-2.511992,23,59968.075001
-9.275477,20,59968.758331
-4.70833,27,59969.563691
-6.274077,20,59970.071872
-5.858998,22,59970.668766
-2.407965,21,59971.281391
-2.060773,26,59972.143615
-8.213736,20,59972.791107
-11.644932,19,59973.369463
-4.556021,19,59973.929504
-10.163472,19,59974.569164
-9.860107,20,59975.286585
-11.627909,20,59975.831293
-15.427395,20,59976.494186
-4.406139,20,61060.916179
-2.74613,20,61061.483272
-11.128316,25,61062.454028
-2.81015,19,61062.963789
-2.733224,21,61063.556429
-10.824095,21,61064.098367
-3.413604,19,61064.595562
-1.664066,20,61065.129047
0.362994,22,61065.706337
-6.454563,21,61066.295754
-3.881756,20,61066.863855
-4.795682,23,61067.807217
-8.087978,21,61068.461568
-8.406915,20,61069.014774
-10.828911,22,61069.642668
-6.48396,24,61070.359945
-7.672359,20,61070.958265
-3.881415,21,61071.562553
-14.251384,17,61072.021014
-7.716687,19,61072.63373
-6.223339,19,61073.188483
-6.004419,23,61073.802723
-3.631317,22,61074.350865
-0.463727,20,61074.983723
-8.376029,27,62159.430951
-0.38734,20,62159.95486
-15.581217,20,62160.45458
-9.824939,19,62161.017912
-14.609062,27,62161.675693
-9.375975,22,62162.319866
-11.097425,20,62162.861406
-13.39572,20,62163.406925
-4.572477,24,62164.185146
-6.90578,24,62164.838562
-6.958773,19,62165.360324
-5.412144,19,62165.876573
-7.025558,21,62166.652622
-5.619313,21,62167.225301
-3.892178,19,62167.731545
-8.137871,20,62168.282238
-0.914097,20,62168.909534
-6.501106,20,62169.556675
-5.615188,19,62170.127909
-14.866162,19,62170.666929
-5.106674,22,62171.238263
-8.813044,20,62171.805063
-3.575945,20,62172.31144
-11.352512,20,62172.893814
-6.085692,20,62173.442092
2.473765,20,63262.156986
-8.878373,18,63262.643227
0.193428,20,63263.180822
-0.876218,19,63263.670928
-5.05415,19,63264.166886
-3.846116,20,63264.644331
-4.814111,20,63265.112503
-5.073118,20,63265.614402
-7.752266,18,63266.084658
-7.867445,19,63266.50365
-2.791121,19,63267.031188
-4.119306,19,63267.565293
-11.130911,19,63268.025607
-2.257094,19,63268.572465
-3.477764,20,63269.055162
-10.90649,18,63269.669054
-9.777751,19,63270.227098
-6.902116,18,63270.72227
-0.704081,21,63271.293216
-6.795497,22,63271.901136
-4.167364,20,63272.431503
-7.499386,19,63273.082267
-1.820674,20,63273.663832
-10.174101,19,63274.164175
-8.611452,19,63274.684356
-1.185978,22,63275.441641
-10.761809,20,64360.621617
-16.997594,19,64361.185297
-8.273215,20,64361.823031
-5.011838,22,64362.453977
-1.339473,20,64363.085132
-1.738529,21,64363.676941
-3.384289,21,64364.352007
-5.058981,21,64364.984071
-3.294794,22,64365.584056
0.271933,20,64366.136768
-5.510117,20,64366.657601
-6.691817,21,64367.212784
-1.598602,21,64367.930043
-6.662452,20,64368.489556
-4.117589,22,64369.140858
-5.731514,20,64369.942755
-2.174429,20,64370.556771
-5.20683,19,64371.056721
-1.080538,20,64371.585811
-9.990422,20,64372.086357
-0.264511,21,64372.694105
-7.836925,19,64373.262559
-6.227506,20,64373.92884
-8.492048,20,64374.491884
-11.39962,20,64375.005689
-5.863484,20,65463.988317
-7.028215,20,65464.551801
-7.87475,20,65465.1141
-5.031278,21,65465.689405
-3.196246,20,65466.23928
-9.352324,22,65466.847259
-10.796313,20,65467.38972
-4.16102,22,65468.019613
-6.381214,20,65468.546091
-5.202108,20,65469.041903
2.956591,20,65469.600302
-8.822157,19,65470.123812
3.164214,20,65470.670232
-7.098661,22,65471.270808
-4.546089,19,65471.795794
-2.532297,22,65472.40032
-7.680018,20,65472.953704
-4.450947,22,65473.5097
-9.554598,20,65474.089022
-9.397632,19,65474.605818
-4.283266,21,65475.267195
-1.261821,21,65475.934409
-2.493121,20,65476.458454
0.196447,22,65477.101522
-19.497845,19,65477.597217
1.302588,20,66564.190023
-0.614842,20,66564.813875
-15.342327,19,66565.413291
-0.46732,19,66565.975213
-3.841017,19,66566.484046
-1.715221,21,66567.153706
-5.081931,20,66567.891804
-4.464292,19,66568.688746
0.873623,20,66569.301171
-6.796289,22,66569.899431
-10.976241,20,66570.515807
-2.492038,23,66571.499416
-13.800779,23,66572.174863
-15.017228,22,66572.852613
-2.533323,20,66573.336131
-2.510875,21,66573.860964
-4.898913,19,66574.35936
-7.25733,20,66574.882098
-2.184907,25,66575.479063
0.818574,21,66575.993611
-8.187175,20,66576.493668
-5.324337,20,66577.161653
-5.180034,29,66577.820146
-3.435559,21,66578.290997
-11.366163,19,66578.760659
-7.985995,21,67667.925005
-1.733767,19,67668.565541
-8.670433,19,67669.092224
0.354891,23,67669.77069
-6.777171,21,67670.290267
-1.83447,20,67670.83124
-8.651907,20,67671.313708
-1.678166,27,67672.075606
-10.647616,19,67672.633184
-3.319454,20,67673.085861
-8.598491,21,67673.760009
-3.017722,22,67674.676121
-11.575441,19,67675.19485
-5.886467,21,67675.878577
1.241921,20,67676.428715
-2.412695,20,67677.15782
-1.457653,20,67677.961654
-1.232914,20,67678.550477
-6.348586,20,67679.092025
0.209491,21,67679.866596
-7.459902,22,67680.446392
-3.495656,20,67680.962106
-1.164999,21,67681.641956
-4.405764,21,67682.375113
-9.884036,19,67682.904071
0.187434,20,68766.32075
-6.729426,19,68766.868372
-3.861794,20,68767.367617
-9.899667,17,68767.824847
2.657838,21,68768.348619
-2.357903,20,68768.884821
-6.821268,19,68769.278511
-7.575279,20,68769.85237
-3.702783,23,68770.421043
-1.710594,21,68770.91803
-0.2757,20,68771.412902
-1.079989,20,68771.991534
1.380805,21,68772.456864
-5.428594,21,68773.010284
-8.7148,21,68773.462301
-7.742297,20,68774.140301
-5.728492,21,68774.708303
1.309235,24,68775.35439
-0.259951,20,68776.095835
-1.571919,21,68776.814785
-5.945039,20,68777.366041
-3.99203,20,68778.082387
-1.074557,20,68778.652755
-11.423473,19,68779.372257
-6.266859,20,68780.081082
-5.770855,21,69871.692684
-5.335579,20,69872.152806
-6.567255,19,69872.526691
-7.115757,19,69873.050349
0.253465,22,69873.706854
-10.920145,19,69874.223737
0.423412,21,69874.842291
-4.608261,21,69875.403954
-3.721059,21,69875.999616
-5.314345,23,69876.609946
0.005749,22,69877.178275
-6.462379,20,69877.714246
-5.99179,18,69878.231424
-3.093738,20,69878.843992
-8.259046,21,69879.398399
-3.792992,20,69879.901239
-4.306604,21,69880.51827
-3.649686,20,69881.121961
-7.553654,19,69881.755855
-10.903249,21,69882.327166
0.98192,21,69882.941084
-9.697453,20,69883.510635
-12.748731,19,69884.007228
-0.46126,20,69884.600965
-4.454751,20,69885.185762
2.805163,21,70972.239966
-6.571179,21,70972.844826
-1.898555,21,70973.414376
-5.860784,20,70973.995749
-5.234899,22,70974.75586
-1.209941,20,70975.271188
-3.197278,19,70975.781955
-5.559781,20,70976.32002
-3.178055,24,70977.006435
-4.128643,19,70977.519986
-5.315352,18,70977.982473
0.079789,23,70978.636515
1.360127,23,70979.249839
-6.896363,19,70979.812917
-8.011281,23,70980.476469
-2.989491,20,70981.030606
-0.562461,25,70981.969284
-7.429835,20,70982.507787
-1.42575,20,70983.049644
7.053201,23,70983.882796
-3.468601,20,70984.427474
-5.679996,21,70984.995303
-10.562808,20,70985.53537
-2.741775,19,70986.051636
-4.796975,20,70986.731789
1.320485,26,72067.508833
2.332222,21,72068.023801
-3.027421,20,72068.544199
-4.93895,20,72069.00804
-2.148031,21,72069.52619
-1.563781,20,72070.080411
-16.977483,16,72070.498443
-8.210393,20,72070.881823
1.084224,21,72071.484818
-2.460242,21,72072.094612
-4.246877,23,72072.724489
-4.279669,20,72073.23787
-3.370875,20,72073.786174
-12.415525,20,72074.768494
1.676908,22,72075.607773
-10.424015,20,72076.181105
1.428316,23,72076.911754
-6.539253,21,72077.512613
-2.359552,20,72078.084364
-5.590893,19,72078.603006
-1.979816,22,72079.370257
-5.895974,19,72080.02264
-14.422818,20,72080.623315
-10.094046,20,72081.293157
-2.362156,19,72081.807793
-4.18523,19,73167.52848
-4.054388,23,73168.260804
2.358836,20,73168.752538
-7.179593,20,73169.240339
0.7005,21,73169.878641
-3.470602,20,73170.344117
-5.196929,19,73170.775527
-8.367265,21,73171.288987
0.256779,23,73171.847853
-7.211024,21,73172.343864
-14.751182,19,73172.787376
-4.181461,20,73173.24929
-8.058774,20,73173.778002
-4.988943,21,73174.314755
-1.366027,23,73174.865377
2.262979,27,73175.531135
-0.016913,23,73176.362761
-2.633237,20,73176.895301
-2.67389,21,73177.430322
-9.651526,20,73178.180687
-3.800577,27,73178.929443
-3.755939,20,73179.596232
-1.972594,23,73180.237597
0.06896,21,73180.79016
-4.845272,21,74269.970458
-3.680431,19,74270.485558
0.052083,20,74271.064963
-8.48236,21,74271.671379
-5.441621,19,74272.320254
-3.987574,25,74273.182662
-2.747416,20,74273.80913
-6.823593,19,74274.502701
-4.920799,21,74275.183084
-2.60166,20,74275.722068
-6.431397,18,74276.325695
-12.597527,20,74276.933933
-7.321115,19,74277.494159
-8.709708,24,74278.127641
-3.255498,20,74278.641055
-5.639584,20,74279.275451
-4.014899,20,74280.199088
-5.483951,22,74280.881193
6.025593,20,74281.420525
2.501035,22,74282.124178
-0.934833,22,74282.736512
-21.594094,18,74283.409617
0.887065,23,74284.108068
-0.179843,20,74284.685219
-4.742442,20,74285.348337
0.249608,20,75273.926487
-2.913757,21,75274.498291
0.391362,21,75275.048957
-5.96095,21,75275.667769
-4.524285,22,75276.255253
-8.271492,20,75276.81886
-2.221674,23,75277.445955
-8.839276,21,75278.024158
-0.37537,25,75278.813386
-8.38909,20,75279.350308
2.132972,19,75279.934811
7.442939,23,75280.564508
-6.973429,20,75281.120371
4.11916,25,75281.774654
-4.900949,25,75282.455452
-4.838281,21,75283.047296
-5.624851,21,75283.809485
-6.400315,21,75284.316509
0.146053,21,75284.960708
-6.835774,19,75285.611953
-26.467633,18,75286.16137
-3.151559,23,75286.80144
-0.717678,21,75287.329829
6.006942,23,76262.817879
3.75142,21,76263.63238
-4.57403,20,76264.340629
-9.697828,20,76264.880098
-3.226685,26,76265.65431
4.238238,22,76266.466825
-3.709117,20,76266.974944
0.352531,24,76267.607356
-1.259747,21,76268.157703
-2.814348,18,76268.634538
-3.165295,23,76269.249222
-5.622147,22,76270.046232
-1.266907,29,76271.164161
-14.764317,17,76271.638707
-2.471621,24,76272.370967
5.201832,28,76273.08843
0.5657,21,76273.764609
-8.291893,22,76274.415466
-4.303298,19,76274.999952
0.980221,26,76275.677732
-10.807537,19,76276.24382
-1.517747,22,76276.83531
2.343912,22,76277.374652
-9.796949,19,76277.924468
-8.994585,19,77252.081848
0.438118,23,77252.863981
-1.915523,19,77253.358935
-3.186844,24,77254.081684
11.409603,29,77254.915917
-8.509601,20,77255.483017
-3.01928,24,77256.036109
-2.494365,23,77256.689342
-9.832922,18,77257.136853
0.492038,21,77257.72415
1.639801,20,77258.179485
0.511647,22,77258.702223
-2.135674,29,77259.506291
1.500681,21,77260.015533
3.830626,25,77260.676152
0.828904,21,77261.221825
-4.290714,20,77261.811375
-5.073824,22,77262.36689
-8.373007,21,77263.092083
-7.05333,22,77263.6719
-4.793533,26,77264.355138
2.283016,21,77265.012294
-0.168874,20,77265.635755
-6.298878,20,78238.605564
-11.390609,19,78239.135053
-6.32974,21,78239.719242
-5.820581,21,78240.28358
1.497039,21,78240.812938
0.2754,27,78241.540532
2.663738,21,78242.118349
-3.320758,19,78242.665104
-2.401989,20,78243.176408
-11.006911,22,78243.751418
-0.808305,26,78244.380151
-1.226328,20,78244.908761
2.740628,24,78245.676967
0.746627,20,78246.223648
-5.463098,21,78246.855704
-2.35213,21,78247.6467
-6.906254,23,78248.271773
1.507921,22,78248.839437
1.025629,25,78249.510135
0.840072,21,78250.042034
-4.063343,20,78250.585858
-23.151554,13,78251.01688
-0.62375,21,78251.671505
-5.100949,20,78252.214387
-4.871945,19,79222.705198
-0.30416,22,79223.361194
-0.795943,21,79223.921757
-8.430728,28,79224.821803
-0.445305,21,79225.346821
2.307069,26,79226.003232
0.876102,22,79226.621487
-2.444344,19,79227.154964
-1.992177,21,79227.693898
2.836639,26,79228.297092
-9.423398,18,79228.751239
-3.875976,27,79229.389144
-5.868236,20,79229.850733
4.286028,28,79230.485221
-3.016273,20,79230.911917
-3.307078,27,79231.541594
-1.114805,26,79232.061855
-0.924684,21,79232.48751
-2.130175,22,79233.03259
-2.683629,20,79233.466327
1.222711,25,79233.997985
2.641221,20,79234.65356
-15.749443,24,79235.416303
0.897726,21,80213.391425
-3.396958,21,80214.065747
-8.409592,29,80214.949169
-4.036685,21,80215.491698
-0.756393,23,80216.183937
-5.751278,20,80216.796516
2.075789,20,80217.306495
-1.29142,21,80217.834246
-1.439102,21,80218.38787
6.68435,30,80219.228291
-4.279468,21,80219.87733
2.073116,20,80220.361281
-5.412381,21,80220.971629
1.218815,19,80221.401175
-2.420335,21,80222.024628
-7.942584,21,80222.583216
-3.708306,20,80223.050612
-5.270144,20,80223.598582
-6.496184,21,80224.192637
-1.549697,20,80224.770033
-2.233391,21,80225.35435
0.598713,20,80225.933224
0.216181,29,80226.819277
-2.455096,21,81198.610105
-3.714836,19,81199.149549
2.130955,22,81199.781074
-7.455441,19,81200.329732
-2.135074,19,81201.040486
0.636921,21,81201.666997
-1.517226,21,81202.244775
-2.307994,24,81203.029889
1.534707,23,81203.590003
-0.452303,24,81204.2279
1.361411,25,81204.781455
-3.05861,20,81205.199431
-2.884607,30,81205.868268
-4.718662,20,81206.266271
-3.227965,23,81206.7657
1.624638,22,81207.264766
-2.59174,20,81207.684952
2.327664,24,81208.266947
-0.120762,21,81208.744442
-0.095188,24,81209.299294
-5.322738,20,81209.726793
-9.565154,20,81210.113531
-8.665446,18,81210.562585
-2.001842,20,81211.107157
-0.844711,20,82132.211327
-9.43076,28,82132.805067
-0.521174,22,82133.227093
-3.062067,22,82133.602583
-4.313793,23,82134.002656
2.178623,20,82134.375459
-1.261629,24,82134.792029
0.224107,22,82135.290882
-6.974015,26,82135.797266
-1.827292,21,82136.312557
-10.299164,27,82137.015555
-1.521252,20,82137.559358
-4.874724,23,82138.110111
0.697715,22,82138.644184
0.643423,28,82139.307044
-3.226187,20,82139.769873
-8.873967,20,82140.226817
4.437997,22,82140.685791
3.630174,23,82141.235405
-4.552258,20,82141.676395
-0.592439,22,82142.269404
-9.946115,22,82142.774813
-1.703037,27,83008.836929
0.328159,22,83009.194453
-0.334591,21,83009.575956
3.946065,24,83009.950791
-4.212039,21,83010.289904
-4.022719,26,83010.754027
1.093382,23,83011.150628
-3.4484,30,83011.681298
8.719177,24,83012.139263
-7.704587,20,83012.466515
1.200302,27,83012.890477
-1.250718,23,83013.279581
4.169332,21,83013.559522
5.44946,30,83014.063141
-4.195649,20,83014.417978
-5.972868,18,83014.66259
5.66453,30,83015.151839
0.721574,24,83015.487908
0.687837,21,83015.818584
-0.315996,22,83016.165793
-6.36349,27,83016.700028
-7.285007,18,83016.986656
-5.745983,26,83837.998322
5.641632,27,83838.299218
0.609126,22,83838.549061
-5.715308,19,83838.771
-7.706287,27,83839.132307
-1.622331,26,83839.407689
2.222528,21,83839.700423
-3.835597,22,83839.951936
-5.069336,20,83840.218756
1.500808,21,83840.489887
-3.804499,21,83840.746122
-9.225651,18,83840.954216
-6.408862,21,83841.201297
-5.271558,21,83841.489934
1.812482,21,83841.737991
-2.025545,21,83842.009449
-4.59595,22,83842.271677
-3.007051,20,83842.476232
0.039753,24,83842.768757
-3.423298,25,83843.042398
1.281132,24,83843.283681
-6.325912,18,83843.466485
-5.962996,20,83843.663417
7.623162,35,84631.164898
-4.835462,28,84631.447713
3.070641,22,84631.702535
0.717129,21,84631.931551
3.055824,26,84632.218686
2.340453,20,84632.426051
11.253669,30,84632.764756
-0.657271,21,84632.996235
0.532194,20,84633.200758
-9.187958,25,84633.462806
-4.997188,20,84633.699035
-1.218033,20,84633.925773
-1.804076,20,84634.127962
0.150212,20,84634.326646
7.065269,24,84634.571855
0.974198,21,84634.800193
9.113368,26,84635.084502
1.558103,20,84635.287283
-3.183775,23,84635.508365
-4.974882,24,84635.7499
-2.697943,23,84635.987746
-1.569123,22,84636.231936
0.9751,27,85431.742057
0.525401,22,85432.034383
5.587736,21,85432.287846
-2.306817,20,85432.551899
1.528779,21,85432.847401
19.700839,37,85433.310217
-8.115251,17,85433.537523
0.100278,21,85433.779876
-4.972994,21,85434.063164
-20.206416,19,85434.282917
1.19854,20,85434.549537
-9.07223,19,85434.781327
-6.231467,21,85435.054603
-1.756168,20,85435.303982
-8.749441,17,85435.496015
-10.922361,20,85435.769842
3.120742,25,85436.0983
-6.243924,19,85436.349904
-5.109884,24,85436.685071
-10.429699,20,85436.991012
-3.473294,26,85437.351646
-3.986309,21,85437.644168
-6.566075,20,85437.904216
-10.821954,21,85438.194932
-5.409827,19,86231.471285
-6.323419,20,86231.70023
-3.873875,22,86231.942695
2.774512,26,86232.217946
-11.737134,20,86232.417843
3.355143,22,86232.65755
-6.28717,21,86232.904359
-6.741127,19,86233.098419
0.143223,19,86233.33306
-10.636808,26,86233.601141
-2.705056,19,86233.789865
6.067571,23,86234.057122
5.030791,23,86234.335091
2.486801,21,86234.562793
-1.30213,28,86234.839901
-11.031213,37,86235.2992
-4.984852,20,86235.521181
-7.795849,22,86235.75465
-10.309748,21,86235.965928
1.991286,23,86236.202303
-1.404064,19,86236.449841
-0.229657,21,86236.665377
-6.371881,20,86236.870378
-5.811325,22,87024.761171
2.364964,26,87025.040348
-4.37393,22,87025.2602
1.755855,29,87025.560536
3.809538,23,87025.835399
-1.715257,20,87026.052131
-14.344953,17,87026.232538
-6.678524,20,87026.444302
-26.07385,17,87026.624921
0.877036,21,87026.849515
-11.836409,19,87027.057602
1.475942,21,87027.291887
-0.244977,24,87027.586062
1.80541,20,87027.8169
-6.962487,21,87028.034551
-8.299651,20,87028.297426
2.338943,20,87028.51805
-2.189802,19,87028.712482
-0.404702,20,87028.924106
3.249421,23,87029.171566
0.018949,22,87029.439193
-0.485617,20,87029.631639
1.667927,21,87029.844625
-1.987049,19,87030.058132
-4.929667,20,87826.543448
6.251098,34,87826.773055
-4.458586,18,87826.901291
-1.696813,19,87827.033123
-2.221084,23,87827.197983
5.296875,25,87827.370222
0.10834,23,87827.535332
-3.768387,21,87827.678355
-0.723909,23,87827.838274
10.184411,28,87828.028531
1.249591,23,87828.181249
-6.897958,18,87828.30932
-5.111232,23,87828.462582
1.313212,21,87828.606328
1.400653,22,87828.759285
-2.533194,28,87828.953839
-4.738868,23,87829.102409
-5.283845,23,87829.262692
-6.734776,21,87829.409235
-8.961051,21,87829.548138
-10.951694,19,87829.67628
-9.841782,24,87829.837934
-1.518248,20,87829.979878
-1.447928,26,88577.687069
-3.982145,21,88577.823663
-4.338386,21,88577.966974
5.29067,19,88578.093671
-7.795124,21,88578.234758
3.096416,20,88578.374125
-0.579803,27,88578.550171
-2.453937,27,88578.72446
0.356142,20,88578.862793
-7.137388,18,88578.976358
0.431536,22,88579.121615
-1.969235,20,88579.255656
-3.30558,22,88579.41932
-3.049309,20,88579.545884
-1.474745,26,88579.717506
-2.761161,19,88579.849007
2.931759,22,88579.997692
-3.491292,20,88580.130929
5.480126,33,88580.347753
3.568448,20,88580.482885
7.500415,28,88580.665145
-2.914741,21,88580.808204
-4.844209,21,88580.942631
-8.782429,20,89327.773103
-8.634385,20,89327.908328
-7.045053,23,89328.068293
-10.31321,22,89328.217596
4.236219,28,89328.402122
-0.323566,25,89328.575084
0.294762,22,89328.72488
0.207925,20,89328.868484
-5.044069,18,89328.980439
-3.684785,19,89329.106019
4.055229,23,89329.264283
1.285396,22,89329.409262
0.536275,21,89329.547833
-5.73424,20,89329.688361
3.424045,30,89329.891296
-1.645455,19,89330.024023
-0.947622,20,89330.159764
1.758025,24,89330.320745
33.459646,40,89330.600396
7.645329,35,89330.831867
-6.889015,25,89331.0027
14.087438,38,90083.239544
-5.781095,22,90083.388567
8.208554,31,90083.597032
-0.186508,22,90083.748515
0.1155,21,90083.893468
-1.68811,20,90084.028731
0.494573,20,90084.162664
16.670922,28,90084.340941
1.038349,21,90084.491686
-8.515033,18,90084.612317
3.431816,21,90084.755042
1.493706,21,90084.899373
-1.605223,20,90085.037272
6.158398,25,90085.218112
10.741637,26,90085.387372
5.150991,23,90085.555478
-3.906898,19,90085.681357
5.485862,23,90085.844201
4.518592,22,90085.991053
-9.540596,18,90086.12096
-0.182047,26,90086.303434
-4.393408,21,90086.443337
-3.036103,23,90086.602829
-3.567804,22,90845.698801
3.146109,28,90845.879463
-7.670562,19,90846.013374
-8.908582,20,90846.155343
-1.00135,22,90846.293631
-1.451989,20,90846.435697
3.35354,23,90846.593814
-6.935371,23,90846.74191
-1.686097,20,90846.87454
0.867496,23,90847.037861
-3.830126,20,90847.168271
-0.902812,20,90847.297883
15.392416,32,90847.519575
-4.274896,25,90847.687932
-3.134501,20,90847.831766
0.332252,22,90847.980453
-7.808299,21,90848.136802
-2.612537,25,90848.308836
4.7408,22,90848.449507
-4.013287,26,90848.632212
-1.148512,22,90848.788277
-7.474395,19,90848.924795
-2.308514,33,91618.273563
-2.388792,20,91618.408727
-10.913978,21,91618.548538
5.42742,33,91618.767546
-5.201823,20,91618.898666
-5.368656,25,91619.066757
-1.191597,20,91619.192244
1.31975,21,91619.341177
1.431189,22,91619.494718
6.939507,33,91619.720559
-0.151758,26,91619.899462
1.31011,20,91620.035876
-8.368512,21,91620.174553
7.915641,28,91620.369881
0.942643,21,91620.517993
-4.757233,20,91620.65468
-0.267423,20,91620.788063
3.545495,23,91620.945221
-5.479046,23,91621.103816
-1.195655,25,91621.284176
4.470423,20,91621.429882
-22.56914,20,91621.568173
-11.895254,22,91621.707032
4.043739,21,92368.090658
-1.466603,21,92368.236148
2.439418,20,92368.373339
-6.078328,21,92368.527012
5.373471,27,92368.703648
1.217779,20,92368.839776
-6.894397,22,92368.986662
-6.649282,19,92369.10857
1.818327,20,92369.239231
-2.263148,34,92369.477796
-11.973973,19,92369.609236
-7.598277,20,92369.743998
-9.931336,19,92369.866894
-13.880263,17,92369.981685
9.826469,29,92370.167861
0.068577,20,92370.298767
-1.373617,21,92370.445111
-3.521582,22,92370.59477
-3.033835,25,92370.752933
6.265337,28,92370.944394
-7.055579,20,92371.072322
-4.050659,20,92371.21216
0.318308,21,92371.35515
-1.395877,20,93141.792146
-6.295018,19,93141.927829
-5.475868,19,93142.062531
6.2913,20,93142.194358
-4.789732,20,93142.322358
-4.606871,20,93142.459562
-0.799701,24,93142.621427
-1.691698,25,93142.795596
-2.274807,20,93142.92497
-6.185442,19,93143.051461
-6.582556,17,93143.161382
0.968756,22,93143.307733
0.253159,21,93143.454774
8.686404,36,93143.703852
-14.782593,18,93143.826273
6.286678,28,93144.008799
-5.524902,23,93144.169689
-5.405001,19,93144.298354
-2.017065,21,93144.437004
1.889791,27,93144.611869
-6.954967,17,93144.725889
-0.651028,22,93144.877568
-3.956599,28,93145.066837
0.118037,20,93984.566746
-1.240186,21,93984.742141
-6.530184,19,93984.904014
9.384428,31,93985.172525
-4.294509,25,93985.389314
-7.243152,22,93985.583332
0.03353,21,93985.777551
2.652436,25,93985.996946
1.740892,27,93986.237487
11.97342,29,93986.487396
-8.42718,19,93986.662553
1.773103,21,93986.876048
-5.62179,19,93987.038834
-13.975898,21,93987.21797
2.51891,26,93987.438692
4.549651,26,93987.675677
9.890545,29,93987.952486
-12.19167,43,93988.345696
-3.909759,22,93988.537464
6.018283,26,93988.764343
6.838302,24,93988.969781
