# {"t_start": 1547997837.8052306, "env_id": "RoboschoolHumanoidFlagrun-v1"} 
r,l,t
-36.396286,19,4.775971
-31.141486,18,5.626199
-46.044604,19,6.328166
-31.488035,19,6.902202
-45.072853,18,8.405884
-40.299572,19,9.44424
-37.878219,24,10.484651
-35.588141,18,11.09586
-34.763834,19,12.127209
-33.603141,19,13.172069
-26.286936,17,14.292718
-33.99919,18,15.324069
-39.614525,20,16.330278
-55.559867,20,17.238618
-44.564506,20,18.46794
-24.399099,20,19.792151
-36.167371,19,20.981089
-34.767052,20,22.368908
-39.920922,19,23.69458
-29.457589,18,25.149645
-56.592664,19,26.263944
-28.304328,19,27.321539
-34.391706,17,27.920093
-40.126206,18,28.95418
-24.867087,18,30.51156
-32.198235,18,31.507392
-34.765343,19,32.581518
-31.124093,20,2726.810269
-35.615852,18,2727.932555
-47.919066,21,2729.25422
-43.343915,18,2730.165657
-49.75026,21,2731.261923
-42.775095,22,2732.541072
-53.169288,24,2733.833037
-38.839797,19,2735.23988
-29.381435,19,2736.479539
-37.323292,19,2737.602483
-30.718625,19,2738.741019
-26.786727,19,2739.627141
-35.018321,25,2741.35021
-33.214524,18,2742.57818
-20.77068,19,2743.33547
-37.919693,24,2744.744858
-49.192264,16,2745.602531
-51.501222,20,2746.556755
-33.16592,18,2747.680279
-43.903695,21,2749.055475
-37.704602,20,2749.832879
-28.108364,18,2750.693735
-35.903355,30,2752.003525
-28.473608,19,2753.274335
-39.978083,23,2754.664899
-28.169813,18,5440.449912
-29.553782,20,5441.77712
-43.479467,20,5442.950328
-42.235092,19,5443.939809
-43.540449,22,5445.358408
-44.463569,18,5446.337299
-27.980364,20,5447.852748
-35.839631,17,5448.939791
-48.652129,19,5449.948799
-22.48766,19,5450.752039
-28.889187,21,5451.538894
-47.899697,20,5452.616323
-47.522704,19,5453.904621
-30.502694,19,5454.632175
-40.93278,19,5455.484027
-36.721649,18,5456.508423
-48.297324,20,5457.684944
-34.341389,18,5458.820802
-25.610173,19,5460.064389
-39.3323,19,5461.485871
-31.24359,20,5462.839332
-50.584938,22,5464.069556
-59.250514,27,5465.588641
-33.243385,19,5466.579692
-38.389808,18,5467.886619
-25.013768,19,5469.163041
-22.287092,20,8166.782319
-35.180335,20,8167.998216
-43.001551,18,8168.744276
-29.1713,17,8169.754808
-27.966032,19,8170.775163
-43.005724,19,8171.934253
-46.206389,19,8172.961625
-39.046317,16,8173.776586
-30.587098,19,8174.808196
-43.46524,18,8175.715405
-23.917068,26,8177.457993
-36.525626,17,8178.650503
-24.230301,20,8179.933138
-30.69532,19,8180.817195
-41.502194,20,8181.866099
-40.014452,17,8183.054051
-20.445036,18,8184.056462
-35.393149,19,8185.299406
-53.735042,20,8186.552316
-49.802899,20,8187.991577
-44.327968,18,8189.279474
-26.28777,20,8190.272885
-39.671223,19,8191.374284
-36.297368,19,8192.275059
-39.510759,20,8193.592155
-44.317945,20,8194.941845
-31.18992,20,8196.503336
-38.099772,20,10914.872297
-21.746578,19,10915.652829
-34.534133,19,10916.837807
-34.426261,18,10917.550765
-36.845155,19,10918.506731
-35.608804,19,10919.49022
-53.744448,17,10920.670096
-27.947258,20,10921.863343
-29.498817,19,10922.728528
-37.521387,18,10923.603979
-37.155183,20,10924.591794
-27.916683,20,10925.930279
-29.897374,20,10927.108485
-26.729788,17,10927.902689
-36.295157,18,10928.777707
-54.112564,23,10930.371562
-34.247544,18,10931.456987
-39.390468,17,10932.465873
-27.846082,19,10933.641915
-42.998462,19,10935.035524
-36.193148,19,10936.157539
-42.508168,19,10937.496491
-43.763717,18,10938.590027
-35.767807,18,10939.5994
-32.058314,20,10940.611262
-28.587479,18,10941.560502
-32.491118,19,10942.714631
-33.313378,20,13747.527307
-36.961132,23,13748.577976
-35.491652,20,13749.889218
-30.571829,20,13750.853869
-31.83457,19,13751.634874
-28.893958,19,13752.513644
-35.717839,19,13753.228821
-33.448823,20,13754.196271
-44.051065,19,13755.817995
-25.582909,19,13756.714322
-35.233218,19,13757.487616
-28.555257,18,13758.208612
-34.800055,19,13759.236027
-22.347317,20,13760.474494
-44.537303,19,13761.535273
-35.73388,22,13763.038479
-29.509645,18,13764.014292
-33.928591,21,13765.396162
-38.346175,18,13766.421268
-29.793601,20,13767.630707
-35.187554,19,13768.480455
-32.714609,19,13769.036882
-37.91093,23,13770.107166
-26.073326,21,13771.518991
-34.092699,19,13772.548236
-34.281327,20,13773.544405
-29.637859,20,16557.660285
-41.101414,19,16558.764412
-26.82046,18,16559.844941
-35.36333,20,16560.75456
-30.232971,27,16562.098879
-41.057631,19,16563.1808
-38.859324,20,16564.800794
-38.216666,20,16565.988367
-28.174,20,16567.107723
-37.74965,18,16568.294996
-28.648522,18,16569.156562
-34.784452,18,16570.321734
-29.945699,20,16571.708231
-36.778971,22,16572.942096
-39.37093,21,16574.345982
-32.229277,19,16575.560274
-39.626203,18,16576.343801
-37.535381,19,16577.164641
-33.547943,23,16578.506814
-27.72443,19,16579.779492
-39.112443,21,16581.138368
-38.950184,18,16581.866254
-25.095779,19,16582.636261
-27.215738,20,16583.55473
-17.737386,19,16584.600493
-33.356233,19,16585.582469
-35.296491,19,19165.207715
-21.110302,18,19166.165385
-47.110183,19,19167.165847
-41.212103,18,19168.194604
-25.94205,19,19169.147595
-19.515723,20,19170.420181
-31.319757,19,19171.281085
-39.273667,18,19171.996262
-38.131606,18,19172.989048
-36.1828,19,19174.104822
-33.66145,20,19175.137453
-25.70298,18,19175.961699
-35.278909,19,19177.127372
-26.603757,20,19177.943463
-29.504948,18,19178.965007
-25.153132,18,19180.052645
-56.83797,25,19181.327751
-26.229746,18,19182.150855
-26.461947,19,19183.336288
-29.581768,19,19184.225725
-29.943024,19,19184.958743
-41.535986,18,19185.886781
-32.008609,18,19186.662217
-30.69163,18,19187.465769
-30.95552,17,19188.420465
-34.701327,23,19189.640633
-27.598438,18,19190.571341
-28.427965,19,21803.549691
-30.897858,21,21804.648946
-25.125471,19,21805.70151
-30.129341,20,21806.583403
-38.024476,19,21807.582732
-34.313191,18,21808.368417
-30.676537,19,21809.045886
-35.995142,19,21809.790651
-23.856533,20,21810.732486
-33.922859,19,21811.575278
-37.401219,19,21812.811427
-14.571584,18,21813.926255
-30.57623,20,21814.732155
-26.297163,26,21816.051778
-39.532536,20,21817.271465
-24.676272,19,21818.549135
-23.331372,19,21819.54344
-27.35231,18,21820.563481
-31.264313,25,21822.030914
-39.710551,18,21822.923253
-27.306962,19,21823.710395
-33.730453,19,21824.709308
-31.527537,20,21825.880883
-23.727509,18,21827.00023
-25.094994,18,21828.122168
-22.763432,19,21829.07871
-30.737451,19,24610.861858
-26.753188,18,24611.811862
-26.62621,19,24612.743443
-35.491266,18,24613.814539
-17.566477,19,24614.980135
-29.397839,19,24616.340011
-29.271329,17,24617.01995
-26.222722,19,24617.975347
-22.25706,19,24619.096435
-31.887931,19,24620.078386
-29.317729,20,24621.26118
-36.128132,35,24623.078215
-33.586146,18,24623.900508
-36.151867,18,24624.831397
-25.958429,19,24625.664067
-30.425157,19,24626.450914
-31.864856,19,24627.305552
-25.094665,18,24628.192182
-19.596255,20,24629.49665
-22.107058,20,24630.670819
-24.85112,19,24631.651192
-16.941415,23,24632.979338
-41.76276,18,24633.889496
-33.614712,24,24634.993117
-35.335822,20,24636.436811
-23.359758,19,24637.373838
-29.477685,18,27701.557569
-23.832697,18,27702.377157
-37.742087,22,27703.47909
-24.749187,19,27704.259828
-26.670697,19,27705.241854
-31.656874,19,27705.976671
-17.801904,19,27706.929962
-48.905393,19,27708.053165
-24.819366,19,27708.907458
-32.359154,19,27709.873285
-20.896227,19,27710.899348
-25.306091,20,27711.921654
-21.715998,20,27712.794098
-27.110583,18,27713.429368
-19.417374,18,27714.200043
-30.527936,21,27715.552056
-28.847463,20,27716.897174
-24.436829,17,27717.788616
-33.549685,19,27718.812107
-22.670584,18,27719.750724
-26.052062,23,27720.961628
-26.062762,19,27721.805091
-28.524225,19,27722.73536
-29.266228,19,27723.892804
-22.530826,19,27724.905248
-27.314323,19,27725.785552
-33.613611,19,30210.281937
-31.108115,18,30210.847117
-27.951562,18,30211.448974
-27.010516,19,30212.072232
-23.454085,20,30212.815861
-24.265512,19,30213.460454
-27.673692,19,30214.058846
-32.856197,19,30214.752653
-46.319832,27,30215.665794
-39.296485,19,30216.48515
-39.66101,19,30217.11712
-17.756305,19,30217.887366
-25.110993,21,30218.598964
-29.199859,20,30219.226228
-23.727244,21,30219.951092
-24.119517,18,30220.926739
-21.260585,20,30221.855532
-21.993302,19,30222.540017
-22.277216,18,30223.078201
-33.256358,28,30224.482479
-18.895712,22,30225.31117
-26.840783,19,30225.928148
-14.513497,19,30226.70329
-16.096101,19,30227.309853
-20.266011,23,30227.993888
-20.107967,19,30228.961064
-18.215278,19,32427.130406
-15.881445,21,32427.821722
-16.025507,19,32428.531365
-19.363594,18,32429.196454
-18.148043,19,32429.891419
-21.387947,19,32430.507639
-24.470573,26,32431.353897
-32.00098,20,32432.013459
-31.447824,18,32432.747979
-27.035344,19,32433.3061
-19.973412,20,32433.87728
-20.475907,19,32434.443358
-23.980996,18,32435.022031
-21.817752,19,32435.714523
-34.95049,19,32436.492534
-33.76981,19,32437.094398
-22.320353,17,32437.681521
-23.395848,20,32438.286295
-16.366905,19,32438.859094
-16.541064,19,32439.532327
-25.773514,19,32440.225493
-26.648816,23,32440.948344
-17.652906,20,32441.592764
-26.812813,20,32442.131872
-28.299717,23,32442.808487
-25.954422,18,32443.484443
-27.966567,21,34175.888976
-23.894659,18,34176.41872
-23.311452,18,34176.929691
-26.918235,18,34177.514188
-27.573954,19,34178.00398
-37.441701,26,34178.802992
-20.862554,19,34179.423386
-17.536947,20,34180.016324
-18.482084,21,34180.74135
-20.182348,21,34181.324389
-24.478021,19,34181.775645
-23.42988,20,34182.276634
-23.19875,20,34182.687783
-22.68836,20,34183.18245
-37.474789,20,34183.622337
-21.564693,19,34184.053442
-20.005764,19,34184.449697
-15.319935,18,34184.922128
-17.4923,19,34185.407536
-20.60325,19,34185.875276
-29.188199,30,34186.605326
-12.576927,20,34187.107046
-17.866984,20,34187.650883
-17.059016,20,34188.185865
-25.844334,19,34188.693484
-20.846537,19,35652.135216
-19.678509,18,35652.576482
-16.343328,20,35653.18653
-21.313304,19,35653.661728
-34.953463,23,35654.303261
-19.076041,23,35654.942048
-20.338059,20,35655.64026
-23.437182,19,35656.133487
-18.624129,20,35656.794486
-19.168331,21,35657.384136
-16.545617,19,35657.919615
-20.356551,19,35658.509331
-15.47414,21,35659.170862
-24.35046,18,35659.671194
-8.664346,17,35660.148624
-18.704037,21,35660.756005
-28.580039,20,35661.356237
-30.97129,19,35661.969896
-18.770039,20,35662.488974
-19.005517,20,35663.028189
-18.777362,18,35663.467484
-18.676302,20,35664.090008
-29.778392,25,35664.815822
-27.28776,20,35665.303543
-20.845062,22,35665.88739
-23.463322,20,35666.366282
-36.785363,20,37125.702433
-19.115956,19,37126.360678
-10.12472,20,37126.965837
-16.49186,19,37127.505469
-24.234029,19,37128.000234
-15.907146,19,37128.624308
-23.215157,19,37129.166268
-22.224375,20,37129.723206
-21.02155,20,37130.240575
-16.419327,24,37130.93981
-16.82457,23,37131.565035
-27.641798,20,37132.139298
-26.880848,19,37132.705067
-19.102467,20,37133.396647
-24.035063,19,37133.926313
-22.325163,20,37134.468243
-11.475961,19,37135.060694
-22.607347,19,37135.730075
-20.211194,24,37136.384179
-21.336398,18,37136.913212
-19.958275,19,37137.470702
-18.036063,20,37138.034593
-18.621434,20,37138.674932
-22.020154,19,37139.263234
-16.968129,20,37139.998714
-22.072121,20,37140.569223
-14.99343,20,38483.312926
-12.740431,20,38483.708355
-16.904548,19,38484.096244
-18.757933,20,38484.474077
-24.265624,19,38484.86804
-27.424737,20,38485.315099
-23.4288,21,38485.719487
-17.185518,20,38486.116523
-21.864309,19,38486.599044
-18.999968,19,38487.217038
-15.884223,19,38487.771257
-22.578268,19,38488.343312
-22.533172,20,38488.815502
-25.916161,21,38489.314596
-14.333166,19,38489.800251
-20.856358,20,38490.351887
-18.151647,25,38491.03668
-29.083991,23,38491.69997
-11.896756,20,38492.316256
-15.998078,18,38492.788681
-18.674154,19,38493.300478
-18.59019,21,38493.839894
-19.852782,19,38494.385246
-23.591287,19,38494.964835
-18.490335,19,38495.498072
-18.327346,21,39644.282911
-20.410266,20,39644.686848
-18.533258,19,39645.163224
-15.181092,19,39645.555117
-22.10609,19,39645.963157
-25.258909,20,39646.456322
-21.08854,19,39646.952543
-15.657113,20,39647.424575
-22.500247,20,39647.851024
-14.099828,18,39648.15954
-14.173555,19,39648.519346
-18.093957,19,39648.938024
-15.29706,18,39649.267919
-13.439036,20,39649.624265
-21.808845,21,39650.036442
-20.09624,19,39650.376976
-10.007859,19,39650.721237
-17.405934,19,39651.129678
-13.394292,19,39651.473747
-18.153436,19,39651.814991
-26.149059,23,39652.359451
-23.65745,18,39652.803449
-25.798044,19,39653.285134
-23.590967,18,39653.758702
-23.531868,22,39654.279865
-21.885679,20,39654.767156
-22.061248,22,40729.499699
-18.95983,19,40729.940366
-16.476403,28,40730.568873
-20.45533,25,40731.070783
-21.529951,19,40731.382839
-19.457368,18,40731.696283
-19.621599,19,40732.040172
-31.900693,24,40732.435969
-21.627013,19,40732.790332
-22.380542,19,40733.078006
-28.094449,20,40733.422602
-17.643517,20,40733.845879
-10.827552,20,40734.275784
-22.438175,19,40734.629057
-10.200798,19,40734.965433
-24.606318,26,40735.40301
-15.379679,19,40735.865359
-32.371142,23,40736.349207
-24.020024,19,40736.782006
-19.247242,19,40737.208284
-27.596305,19,40737.609539
-13.472843,18,40738.038025
-14.029472,19,40738.448087
-15.138336,18,40738.906245
-24.97652,21,40739.448898
-17.29468,20,40739.94675
-16.282463,19,41813.328108
-11.403953,19,41813.837428
-29.490937,19,41814.349796
-13.981973,19,41814.83362
-18.309796,19,41815.241892
-11.930846,20,41815.741955
-15.789324,20,41816.289587
-16.121205,21,41816.772053
-22.963005,20,41817.223283
-25.102639,19,41817.558127
-16.436333,25,41818.065019
-16.41511,20,41818.41338
-14.900416,19,41818.746248
-21.396399,19,41819.20998
-26.873857,22,41819.575248
-19.890512,18,41819.921674
-20.497277,20,41820.336807
-8.990691,20,41820.70544
-15.987825,25,41821.207406
-14.271889,21,41821.696598
-21.163984,19,41822.167054
-8.717259,19,41822.634615
-17.997439,18,41823.051027
-15.502699,20,41823.505742
-14.161635,23,41824.06642
-13.181632,20,42896.520994
-21.977425,19,42896.971111
-26.219289,18,42897.411751
-11.892333,19,42897.859962
-22.169898,19,42898.292175
-9.322192,19,42898.702341
-19.405793,19,42899.154642
-23.44791,20,42899.603119
-23.578097,23,42900.229872
-17.047922,19,42900.718532
-17.671376,18,42901.177994
-9.945432,19,42901.609358
-15.369566,19,42902.042513
-14.411124,18,42902.496721
-15.414055,16,42902.86807
-12.478937,20,42903.3204
-19.521343,19,42903.651546
-21.743524,23,42904.076718
-17.261172,19,42904.428213
-19.509369,19,42904.801186
-13.187526,21,42905.223634
-17.044721,20,42905.582847
-15.988241,19,42905.927525
-25.323688,20,42906.264116
-15.687015,20,42906.637374
-11.23676,19,42906.987185
-12.111398,21,43982.011903
-18.03587,20,43982.50835
-22.295016,20,43983.021893
-19.94015,19,43983.435379
-14.605839,19,43983.86331
-18.004002,22,43984.396264
-15.754295,18,43984.839018
-20.60455,18,43985.270841
-19.267889,18,43985.727848
-15.255887,19,43986.238444
-11.261416,20,43986.598428
-12.610572,19,43986.935094
-16.62816,19,43987.244529
-13.196313,19,43987.677619
-16.422957,18,43987.999264
-6.570924,20,43988.341071
-15.716265,19,43988.721437
-14.284072,19,43989.020381
-13.63861,20,43989.40403
-10.786126,19,43989.732823
-11.22268,19,43990.054103
-12.326379,19,43990.472032
-16.357516,21,43990.905324
-15.876755,19,43991.306221
-11.271877,19,43991.699404
-18.746842,20,43992.16217
-20.447943,20,43992.666993
-23.277056,19,45067.20279
-15.091462,26,45067.775179
-8.10418,18,45068.209015
-17.198621,20,45068.638075
-13.583205,20,45069.105663
-15.684634,23,45069.684462
-13.954087,20,45070.110339
-13.497663,20,45070.528562
-14.490547,20,45070.933218
-13.180986,20,45071.329912
-10.0741,23,45071.745032
-9.927987,20,45072.195841
-12.80172,19,45072.50902
-10.434904,20,45072.873135
-29.447982,19,45073.318984
-24.64297,19,45073.644728
-8.489992,20,45074.019316
-8.344445,19,45074.372222
-20.918794,19,45074.829041
-10.983795,18,45075.299269
-14.641695,20,45075.765708
-21.69707,19,45076.248292
-12.022892,20,45076.681164
-14.742553,19,45077.141454
-28.903033,26,45077.791175
-11.67119,21,46151.246972
-15.294991,19,46151.677693
-21.181283,17,46152.035572
-9.91835,19,46152.518961
-19.955223,19,46152.94086
-14.029858,19,46153.340202
-16.034828,21,46153.715154
-17.594895,20,46154.087093
-19.682641,19,46154.400634
-8.25183,20,46154.837302
-18.958904,18,46155.180542
-9.573834,19,46155.516938
-17.171956,20,46155.859508
-15.215839,20,46156.210766
-16.041094,20,46156.52627
-25.898793,28,46157.075999
-6.149787,19,46157.404382
-13.679635,20,46157.756683
-11.447278,20,46158.228448
-13.622851,20,46158.720805
-11.095353,21,46159.21997
-9.790011,19,46159.675855
-4.351718,19,46160.121687
-9.71716,20,46160.613601
-9.755119,20,46161.097222
-29.862631,19,46161.54534
-18.224361,18,47235.643759
-15.080221,21,47236.158952
-12.159458,19,47236.567209
-9.27226,22,47237.08012
-26.038323,22,47237.595251
-17.247057,21,47238.155613
-18.388256,19,47238.629104
-22.790597,15,47238.886418
-15.313269,25,47239.409322
-13.252706,19,47239.740569
-24.440573,20,47240.115535
-13.283354,19,47240.51637
-16.968891,20,47240.839237
-9.750966,19,47241.144311
-8.661796,19,47241.499799
-12.492064,17,47241.769277
-8.395522,20,47242.078735
-13.025287,20,47242.40116
-18.077938,25,47242.866819
-15.097992,18,47243.194434
-22.62723,19,47243.61077
-17.065345,19,47244.056719
-18.506168,18,47244.449771
-8.679097,19,47244.851104
-19.516153,22,47245.403935
-16.499814,27,48316.859942
-23.641564,28,48317.651377
-14.901623,20,48318.183479
-15.139805,19,48318.681293
-7.685896,25,48319.289439
-12.469016,18,48319.737789
-7.81934,20,48320.263711
-7.155903,22,48320.832399
-10.626938,19,48321.352125
-7.732079,27,48322.112519
-14.104854,19,48322.622739
-12.522408,19,48323.075132
-14.786299,20,48323.476685
-10.682988,21,48323.896372
-15.14287,22,48324.28816
-9.027362,19,48324.673761
-10.054173,19,48325.0592
-8.942556,20,48325.487923
-18.452847,20,48325.855285
-6.152322,21,48326.308436
-10.380151,20,48326.715028
-9.210453,19,48327.063131
-8.550558,20,48327.444376
-19.233357,30,48328.050176
-8.064991,19,48328.575311
-16.082645,19,49392.746459
-13.773323,20,49393.333002
-13.934483,20,49393.807094
-10.134991,19,49394.248444
-19.690849,20,49394.771851
-16.083291,20,49395.333955
-12.907258,19,49395.809144
-12.066026,20,49396.253833
-16.579249,21,49396.748215
-16.061986,21,49397.246448
-8.073739,22,49397.719253
-12.563814,20,49398.209867
-8.915413,20,49398.661455
-8.540467,19,49399.104942
-25.56284,18,49399.473204
-9.983787,20,49399.880238
-5.907976,20,49400.25759
-11.851883,20,49400.60748
-19.886727,20,49400.967192
-16.382685,19,49401.342068
-15.004114,20,49401.726524
-10.156738,19,49402.053771
-24.419074,20,49402.387374
-18.705811,20,49402.76559
-19.260361,19,49403.123305
-8.806764,20,49403.453089
-18.881059,20,50421.303906
-32.590027,20,50421.576342
-24.494656,18,50421.865926
-5.127921,22,50422.194353
-14.945409,19,50422.47124
-13.624849,21,50422.795209
-13.060291,19,50423.09638
-14.41356,19,50423.40216
-15.931928,19,50423.698845
-20.276982,17,50423.984747
-8.492112,20,50424.316011
-8.980523,20,50424.617192
-8.693176,20,50424.955374
-12.665005,19,50425.262105
-16.162268,20,50425.609933
-12.741579,19,50425.934093
-23.041709,19,50426.269563
-22.522831,18,50426.572055
-16.993498,18,50426.87892
-21.068525,20,50427.183248
-10.104547,19,50427.496022
-10.886666,19,50427.812228
-12.130963,27,50428.240516
-31.033929,16,50428.492618
-8.598767,21,50428.835515
-23.74253,29,51339.751031
-20.154628,20,51340.044562
-19.618354,22,51340.372337
-15.885192,20,51340.645827
-21.153397,19,51340.961268
-8.959026,20,51341.243445
-9.626787,19,51341.546523
-10.346391,19,51341.816453
-11.712173,20,51342.121284
-13.208779,20,51342.44249
-9.15581,19,51342.704696
-8.237807,20,51343.00731
-12.305248,20,51343.334366
-9.201407,19,51343.619834
-11.116246,18,51343.881095
-4.209714,20,51344.184375
-18.267543,21,51344.528543
-18.212298,17,51344.775235
-8.458734,19,51345.048364
-17.719665,20,51345.343529
-8.267667,20,51345.72033
-2.01578,21,51346.069571
-13.285128,20,51346.404799
-11.187855,19,51346.720307
-7.291314,20,51347.080109
-11.680771,19,51347.363355
-9.420088,19,52257.216686
-12.25512,19,52257.531103
-9.38643,20,52257.832358
-8.527043,20,52258.139525
-7.405912,18,52258.435428
-9.932648,20,52258.748021
-2.670691,20,52259.087483
-5.65103,21,52259.428131
-5.907942,18,52259.763439
-8.666927,19,52260.07287
-12.625128,19,52260.380743
-7.843951,19,52260.649653
-10.449483,20,52260.999229
-9.033849,19,52261.286151
-8.926391,19,52261.57234
-13.658064,19,52261.837507
-8.233681,20,52262.140955
-16.826546,20,52262.442871
-10.189199,19,52262.7357
-9.496207,20,52263.058724
-10.090412,19,52263.393598
-12.114135,21,52263.7319
-10.75378,20,52264.042335
-5.998018,20,52264.387805
-14.380481,20,52264.707309
-6.346617,20,52265.005055
-13.931426,18,52265.288611
-13.811232,20,53175.543991
-9.577373,20,53175.828525
-18.062075,21,53176.134955
-14.69494,20,53176.440492
-13.134264,22,53176.836173
-4.699709,20,53177.155105
-10.346103,20,53177.459628
-6.362293,20,53177.752481
-6.377603,20,53178.110459
-14.605639,22,53178.442957
-10.813745,20,53178.749203
-6.80558,19,53179.076004
-15.496768,21,53179.433752
-10.752744,20,53179.749827
-10.391972,19,53180.032325
-0.602598,20,53180.37243
-10.1109,20,53180.680151
-6.803095,20,53181.022286
-14.479786,19,53181.351277
-10.860089,19,53181.647464
-8.157457,21,53181.955763
-7.127581,20,53182.280974
-4.982836,21,53182.660765
-6.388365,21,53182.995059
-15.594099,18,53183.256542
-5.870878,20,54095.401575
-14.476106,19,54095.697133
-2.341886,19,54095.994726
-10.39888,19,54096.289081
-13.488081,21,54096.601683
-3.61509,20,54096.943559
-11.069852,20,54097.240488
-13.487731,20,54097.538557
-5.717496,20,54097.833745
-15.263554,20,54098.171532
-7.00244,21,54098.503871
-10.397422,19,54098.80022
-13.422549,19,54099.089417
-13.944807,20,54099.432205
-13.7259,20,54099.772049
-6.801471,20,54100.087368
-5.270991,19,54100.409985
-8.823623,21,54100.752514
-11.252388,20,54101.048466
-20.682315,18,54101.356402
-7.653607,20,54101.69333
-10.044304,22,54102.080069
-10.105416,20,54102.357872
-12.389369,19,54102.659603
-8.322863,20,54102.994157
-5.938406,22,54103.366842
-5.522262,19,54927.022601
-7.874952,19,54927.235576
-15.966619,19,54927.413603
-7.049945,20,54927.652767
-14.081904,19,54927.870872
-1.625243,20,54928.077263
-1.514518,24,54928.367775
-4.872394,20,54928.578892
-8.621602,20,54928.796505
-7.713646,20,54929.007736
-8.02212,20,54929.194038
-9.84041,20,54929.421506
-11.130781,19,54929.610041
-8.857042,19,54929.812902
-17.130752,19,54930.029
-5.294103,21,54930.243338
-9.849235,19,54930.451304
-22.335804,28,54930.785842
-14.171167,20,54930.988524
-9.085998,20,54931.188107
-16.269456,21,54931.387495
-14.423524,20,54931.61536
-8.418507,20,54931.856884
-13.749382,23,54932.106532
-22.990855,19,54932.303172
-8.814501,19,55720.4247
-5.525094,21,55720.666562
-16.928855,21,55720.880349
-12.73836,21,55721.084112
-2.901026,22,55721.316925
-6.753905,19,55721.508697
-1.370009,21,55721.751173
-8.822383,19,55721.961974
-14.950956,19,55722.146765
-2.846104,20,55722.357723
-7.970598,19,55722.54935
-12.420199,21,55722.755086
-8.116003,24,55723.046222
-9.352466,19,55723.253091
-3.96728,19,55723.455982
-5.036619,21,55723.659129
-7.48909,20,55723.868378
-9.147538,20,55724.13764
-9.171039,20,55724.375008
-9.2762,20,55724.594433
-9.2844,22,55724.809156
-9.494832,21,55725.036114
-15.53845,19,55725.267644
-19.172726,19,55725.468615
-9.24824,20,55725.661588
-7.541185,20,56659.469755
-6.823861,20,56660.048591
-10.41452,20,56660.576646
-13.494714,19,56660.98454
-4.591245,20,56661.44047
-10.077776,20,56661.87118
-6.194514,23,56662.339325
-7.60502,20,56662.894312
-6.984257,20,56663.384907
-12.630588,24,56663.919073
-5.944453,20,56664.446723
-7.770753,21,56664.963587
-5.967286,19,56665.442032
-10.968297,18,56665.858067
-9.556848,20,56666.369132
-3.02848,22,56666.91977
-9.427236,19,56667.384203
-14.235559,20,56668.016857
-5.187968,19,56668.66906
-10.930683,18,56669.125022
-12.895507,20,56669.801674
-3.21759,19,56670.392543
-9.922197,19,56670.934335
-4.678118,21,56671.498997
-16.255665,26,56672.200515
-18.519817,20,56672.705092
-6.018878,19,57760.027371
-3.343826,20,57760.569812
-14.075667,20,57761.016428
-5.551153,19,57761.508173
-10.364377,20,57762.039771
-7.172844,20,57762.567127
-12.189377,21,57763.119268
-5.424212,19,57763.562524
-12.819196,19,57764.026422
-5.24424,19,57764.490788
-6.954332,21,57765.068087
-5.979247,20,57765.585902
-8.849798,21,57766.086564
-0.055839,21,57766.705796
-13.831276,20,57767.365411
-9.793126,19,57768.065716
-5.427876,21,57768.706771
-13.04442,19,57769.265964
-14.767318,29,57770.049021
-5.8796,19,57770.598468
-0.614364,20,57771.165769
-8.645223,18,57771.778605
-9.251202,22,57772.497225
-6.438522,21,57773.246296
-2.803202,19,57773.836511
-10.445789,19,58857.194911
-9.962442,20,58857.689866
-11.637026,20,58858.290735
7.222499,27,58859.04567
-5.041801,21,58859.606838
-10.28902,20,58860.178172
-22.586388,19,58860.692454
-8.527002,25,58861.307731
-10.29334,18,58861.830151
-8.447872,20,58862.380858
-20.102847,18,58862.953438
-4.00276,19,58863.445309
-6.554517,21,58864.029472
-9.429882,19,58864.543241
-7.680794,21,58865.250067
-13.193463,21,58866.075856
-7.543765,21,58866.642323
-11.280001,20,58867.180968
-9.780107,20,58867.714807
-7.733444,20,58868.259819
-17.066534,20,58868.85838
-14.229757,19,58869.378215
-3.384422,20,58869.903608
-12.310824,21,58870.810294
-3.777203,20,58871.718318
-5.420372,20,59962.072046
-5.832791,21,59962.608317
-5.877365,21,59963.179654
-6.811396,21,59963.786563
-1.287115,20,59964.408113
-14.044573,19,59965.165258
-8.556572,20,59965.851284
-8.834136,18,59966.360393
-9.739993,20,59966.911286
-1.379958,20,59967.443805
-4.715164,20,59967.981113
-3.942095,21,59968.549148
-7.066073,20,59969.226807
-10.314855,17,59969.718902
-10.082446,20,59970.293536
-7.796248,17,59970.743649
-2.844707,20,59971.287684
-3.477611,19,59971.84237
-13.569249,19,59972.502807
-3.034346,22,59973.185726
-5.717823,19,59973.783904
0.08511,21,59974.389991
-10.924175,24,59975.191306
-2.279629,21,59975.939075
-6.429678,20,59976.484719
-5.931482,21,59977.186947
-5.222493,20,61061.598851
-7.955043,26,61062.376301
-8.796435,19,61063.11593
-2.572957,19,61063.627528
-7.238257,21,61064.210401
-6.20137,23,61064.806389
-7.158637,21,61065.355331
-12.339753,20,61065.883183
-8.694666,19,61066.419569
-0.399119,19,61066.927139
-8.447772,20,61067.517583
-8.903604,20,61068.37148
2.045378,19,61068.966958
-10.105229,21,61069.53809
-7.951721,20,61070.113434
-11.212019,19,61070.665538
-7.016734,19,61071.235382
-6.295545,21,61071.874667
-2.391591,21,61072.449355
-10.123178,20,61073.077957
-13.6415,21,61073.700536
-3.890893,20,61074.245231
-4.923449,21,61074.76511
-6.665079,20,61075.313915
-7.459057,25,62159.758021
-9.677891,19,62160.295521
-10.691314,20,62160.783133
-10.063921,20,62161.335782
-8.749403,24,62161.975187
-10.023784,19,62162.516476
-6.976286,20,62163.031566
-7.181023,23,62163.685998
-3.551122,22,62164.273034
-4.08408,21,62164.96232
-2.354322,20,62165.504833
-5.903481,20,62166.050788
-8.070524,19,62166.674223
-6.752533,20,62167.329338
-5.66645,23,62167.94645
-6.476441,20,62168.491785
-6.503591,19,62169.010646
-6.466833,22,62169.797325
-4.233757,20,62170.343719
-2.263819,20,62170.947243
-2.906078,20,62171.49657
-12.562039,19,62172.015155
-10.995839,21,62172.577783
-4.496676,19,62173.068628
3.853377,21,62173.677898
-5.003396,18,62174.169592
-7.545337,21,63262.906628
-7.204111,22,63263.533965
-4.89023,20,63264.01427
-8.352878,20,63264.535261
-9.708485,19,63264.989765
-10.924651,16,63265.371665
-4.867766,20,63265.840042
-13.633095,21,63266.413364
-5.728774,25,63267.002777
-11.740743,22,63267.596654
-7.330581,19,63268.127015
1.224233,19,63268.586343
-0.825619,20,63269.150243
-3.116167,19,63269.623991
-10.546438,20,63270.294848
-0.89952,18,63270.826818
-3.74569,23,63271.453732
-6.176019,21,63272.026226
-11.451279,20,63272.563276
-9.872179,19,63273.072546
-6.528214,20,63273.766794
-1.948311,20,63274.332037
-5.130279,20,63274.858168
-10.576026,20,63275.420778
-4.423811,20,63276.106143
-4.105713,20,64361.305286
-6.712386,20,64361.9045
-5.015896,21,64362.54643
-7.065928,20,64363.1486
-4.641222,21,64363.791943
-4.641255,19,64364.308844
-8.959232,20,64365.024759
-7.7202,23,64365.66013
-5.435546,22,64366.261096
-1.815745,20,64366.799618
-3.626071,19,64367.283755
0.181376,20,64367.830318
-14.360382,19,64368.490646
-12.576699,18,64368.983212
-8.86047,20,64369.583525
-8.478632,20,64370.319432
-5.191326,19,64370.981313
-0.309393,21,64371.535285
-0.478282,20,64372.072153
-8.024105,32,64372.921888
-5.195801,22,64373.521528
-10.179664,20,64374.238713
-11.420436,19,64374.750625
-4.617668,20,64375.303556
-8.839017,20,64375.819902
-8.195823,19,65464.788377
-3.249199,20,65465.375445
-5.187681,20,65465.917722
-0.614707,23,65466.544634
-5.565888,19,65467.06876
-3.207622,19,65467.594009
-10.095952,20,65468.179178
-3.586454,19,65468.686927
0.136871,19,65469.17847
-0.710469,20,65469.677231
-1.726888,19,65470.214153
-5.273299,19,65470.737996
-3.646171,20,65471.284942
-5.846796,18,65471.773173
-2.109092,24,65472.440336
-2.059725,21,65473.011613
-5.175148,21,65473.591108
-5.169062,20,65474.09988
-3.150937,20,65474.675254
-2.864136,22,65475.291782
-4.795962,20,65475.993145
3.215974,23,65476.62435
-2.710145,19,65477.125411
-4.625289,19,65477.694852
-6.62104,20,65478.214786
-2.283761,19,66564.806209
-3.636631,21,66565.431033
-6.968486,20,66566.11247
0.309619,20,66566.636614
-6.19751,23,66567.277986
-6.032782,19,66567.98252
1.694283,19,66568.637928
-5.963921,23,66569.555464
-6.220004,19,66570.078162
-3.909966,19,66570.597249
-4.946546,21,66571.315908
3.110632,22,66572.217039
-7.788159,18,66572.735007
-3.538216,19,66573.358888
-9.341782,19,66573.815273
-4.345319,20,66574.298329
-5.271996,20,66574.814445
-9.074627,19,66575.341336
-4.94946,19,66575.77384
0.290634,22,66576.287696
-7.399244,27,66576.956878
-3.229927,21,66577.646545
-9.391531,20,66578.138885
-5.423798,19,66578.572082
-11.558958,23,66579.131049
-8.26554,19,67668.251203
-5.135341,20,67668.766959
-4.905784,20,67669.445434
-7.794479,19,67669.988047
-7.445408,21,67670.528095
-0.041888,21,67671.067357
-6.028287,22,67671.600276
-4.50188,21,67672.162041
-13.424826,19,67672.744524
1.019551,21,67673.325215
0.647116,23,67673.898938
-3.264872,22,67674.792586
-14.01706,20,67675.424745
-4.576531,21,67675.966207
2.893841,21,67676.704363
4.473074,22,67677.270201
-11.28235,20,67678.057932
-7.491491,21,67678.886606
0.83863,20,67679.453291
-0.428809,20,67679.995878
-2.201469,21,67680.710977
-5.445361,20,67681.258221
-0.459205,21,67681.868216
-2.294863,20,67682.522678
0.117113,24,67683.303823
0.135578,22,68766.770916
-12.664357,20,68767.343195
-2.994435,19,68767.811393
-1.44378,21,68768.392295
-3.264255,20,68768.878892
1.297677,20,68769.409262
-8.616868,18,68769.803123
-4.945377,21,68770.380469
-2.162577,21,68770.882379
-5.206688,20,68771.371634
-1.921091,20,68771.839698
-8.529983,20,68772.443693
-1.364372,20,68772.90435
-14.518728,20,68773.413901
-1.467031,20,68773.871293
0.636781,21,68774.421665
-5.249486,20,68775.087705
-4.471329,19,68775.575487
-1.06803,27,68776.438308
-11.039764,20,68777.227215
0.95158,20,68777.764231
-5.212545,22,68778.462242
-6.432058,22,68779.1523
-3.964375,21,68779.937109
-11.723074,22,68780.716694
-0.373912,20,69872.294834
-1.676383,19,69872.709887
-5.979594,21,69873.134461
-9.86232,20,69873.690602
-8.305912,20,69874.302455
-2.502224,21,69874.866697
-5.511336,21,69875.484383
-14.636113,19,69875.993173
-2.002973,21,69876.580996
-1.236913,26,69877.279875
-8.599294,19,69877.769033
-7.615244,21,69878.322572
-7.23881,21,69878.932804
-5.065503,20,69879.553839
1.778623,20,69880.05908
1.843498,21,69880.615787
-6.550614,20,69881.190255
-11.266513,17,69881.722943
6.056343,25,69882.496802
-6.822649,18,69883.013855
-11.385146,18,69883.543894
-2.989922,25,69884.234102
-3.281001,22,69884.855321
-4.248637,22,69885.482905
0.924061,20,69886.167408
-0.392713,21,70973.1321
-1.122239,25,70973.820781
2.356869,20,70974.380521
1.935351,21,70975.138028
2.005631,22,70975.698615
-6.955467,20,70976.237433
-9.047916,20,70976.771791
-6.012073,20,70977.350959
-14.063133,18,70977.83994
-12.105449,20,70978.373868
-4.890365,24,70978.983486
4.461471,21,70979.587782
-6.208035,20,70980.201174
0.092602,20,70980.731383
-5.043995,22,70981.368694
0.006058,25,70982.31138
-2.704917,20,70982.857128
-14.574655,19,70983.376598
-5.847209,24,70984.13135
-2.762175,23,70984.855688
-7.577872,23,70985.472209
0.560721,22,70986.065603
-1.122426,20,70986.612553
-8.202915,20,70987.291244
-9.882728,20,72067.920767
-8.585568,20,72068.430665
-5.655781,21,72068.963893
-0.783921,20,72069.453518
-1.318784,21,72069.942331
-4.915897,21,72070.489887
-3.883119,20,72071.027543
-2.261806,20,72071.416663
0.164841,22,72072.049542
-3.028231,21,72072.655682
-2.313246,20,72073.197314
-7.47879,19,72073.677306
-3.786139,21,72074.247765
-1.548357,29,72075.531021
2.323732,21,72076.30465
-12.499612,18,72076.831912
-8.974177,24,72077.589797
-0.279021,21,72078.195901
-9.233013,20,72078.76368
1.985193,21,72079.335799
-4.405865,23,72080.224012
-6.136386,20,72080.78028
-5.202372,20,72081.436356
-3.651591,24,72082.191734
3.615791,21,73167.96198
1.116522,21,73168.508533
2.533798,26,73169.291413
-8.021993,21,73169.821344
-2.713294,20,73170.411404
0.767968,22,73170.923913
-7.639168,25,73171.480051
-0.625801,21,73172.041346
-6.257398,21,73172.515347
-1.263598,21,73173.037575
-0.901512,23,73173.543301
-3.554898,21,73174.054945
-4.065059,21,73174.57416
3.682612,22,73175.189168
-6.435434,21,73175.672687
-0.42479,21,73176.196725
-7.159822,21,73176.976601
-4.877682,18,73177.459414
-7.316416,20,73177.968239
4.833805,23,73178.817516
-9.15652,21,73179.383228
-4.575359,20,73180.045095
-0.22236,21,73180.624985
-3.356585,21,73181.190203
-3.685539,19,74270.312597
3.597991,22,74270.901824
-1.201867,22,74271.536934
-3.511405,20,74272.11414
-2.539313,20,74272.772504
-5.565686,18,74273.456798
-4.02461,21,74274.085687
1.966198,21,74274.868014
-5.080627,20,74275.417228
-4.512438,21,74276.095693
3.513836,22,74276.767386
-4.424776,20,74277.415848
-2.08661,22,74278.058575
-4.565687,20,74278.564775
-2.812992,24,74279.199845
-0.582845,21,74279.865608
-14.703131,20,74280.823518
-0.210727,21,74281.441984
-0.812012,20,74281.981692
-6.440709,20,74282.609449
-4.284067,20,74283.173145
-3.736349,20,74283.888741
-10.593104,17,74284.41367
-3.297217,20,74284.985717
-10.579285,28,74285.928479
-8.76746,21,75274.51767
-4.057174,21,75275.084172
1.30744,23,75275.698656
-1.420882,25,75276.419952
8.961367,25,75277.077204
-6.038266,19,75277.61714
-0.80461,20,75278.168306
-2.884564,26,75278.840332
-8.213271,20,75279.537014
-5.861418,21,75280.09183
-14.507376,19,75280.676153
1.357851,21,75281.25975
-5.045706,22,75281.861669
-2.516962,21,75282.420767
-0.19913,21,75282.986503
-7.467025,25,75283.810457
-2.056233,20,75284.428213
-3.328873,20,75284.903453
1.413605,23,75285.641455
0.403591,21,75286.327484
-4.800602,21,75286.960061
-1.941993,21,75287.519544
7.107302,28,75288.228321
-8.303189,21,76263.800479
-9.263095,21,76264.574984
-8.118145,21,76265.224549
-10.081692,21,76265.788366
-8.168909,21,76266.586019
-6.818352,21,76267.210675
-2.74285,20,76267.717061
-4.725638,24,76268.352018
-2.749371,26,76269.042424
-10.420645,18,76269.502596
-3.378533,20,76270.071076
-9.338713,21,76270.939107
-5.593156,19,76271.648959
-3.572543,21,76272.295837
-2.46403,21,76272.90223
1.849845,21,76273.421978
-0.489794,21,76274.058314
0.330034,27,76274.88587
-11.799953,23,76275.588336
-2.783801,24,76276.212163
-6.374818,20,76276.801991
-8.162591,21,76277.368264
-1.548753,21,76277.889896
0.955078,23,76278.541886
-7.253514,21,77252.789987
4.772333,24,77253.558889
3.841653,23,77254.272383
-0.91593,22,77254.893142
5.220298,27,77255.611418
-7.105576,23,77256.221909
-9.099514,22,77256.80228
-0.224216,23,77257.397485
-1.127647,20,77257.945488
-7.952131,21,77258.446342
-4.429095,20,77258.933971
-8.473621,19,77259.416693
3.228662,21,77259.995451
-2.079705,22,77260.513474
-4.849346,27,77261.234943
-0.985934,20,77261.749839
-4.411973,24,77262.444605
0.443543,21,77262.980805
5.226075,22,77263.721064
-16.292824,17,77264.177877
-4.376391,20,77264.672875
-1.232191,23,77265.338269
-0.341448,24,77266.128869
-8.076895,21,78239.131485
-4.263624,21,78239.727844
-8.413153,20,78240.279387
-3.698586,30,78241.080973
0.977219,26,78241.743086
-4.331789,19,78242.25807
-5.188826,19,78242.785895
-7.001456,18,78243.291908
-15.837452,20,78243.827329
-5.918188,17,78244.261626
3.452864,20,78244.761906
-7.557058,19,78245.229894
2.024891,21,78245.816332
-6.184477,22,78246.514326
-9.321388,23,78247.11657
-4.54904,21,78247.847853
2.622058,26,78248.706273
-5.139244,21,78249.251351
1.19017,22,78249.836579
-8.422234,19,78250.339464
-2.037096,20,78250.875943
2.043647,23,78251.55054
0.309198,24,78252.290632
-3.32011,20,78252.829656
3.098648,25,79223.459427
1.989825,21,79224.114624
-1.400841,32,79225.051732
-9.006184,20,79225.643274
0.036833,29,79226.349448
-6.124029,20,79226.877295
0.960284,22,79227.526616
2.390188,23,79228.12672
-1.712373,20,79228.603262
-1.603566,21,79229.072375
1.830355,22,79229.607894
3.408985,25,79230.240004
-5.536337,21,79230.701319
-8.44366,26,79231.265975
-8.8196,20,79231.781877
-3.359583,24,79232.249527
-14.88583,19,79232.646968
-0.298438,20,79233.044665
-2.322747,22,79233.59783
-2.062349,19,79234.005173
-4.88385,20,79234.39153
-2.04566,28,79235.269788
-12.858632,20,79235.929615
-0.678274,19,80213.86402
-2.929605,22,80214.539149
0.013102,21,80215.195347
-3.863336,21,80215.772363
-5.158799,18,80216.257657
9.356306,28,80217.076023
-6.288854,24,80217.751326
-0.420395,24,80218.361561
-0.962074,19,80218.851535
2.192298,28,80219.658821
-6.388271,20,80220.248038
-1.497446,21,80220.794737
2.375049,21,80221.390568
-1.519516,19,80221.842814
-9.527573,20,80222.425077
0.858516,20,80222.97405
-3.80403,20,80223.450634
6.318042,26,80224.128877
-6.844095,20,80224.694804
1.651377,21,80225.293967
-4.047546,28,80226.084477
-9.786675,17,80226.61887
-5.50092,30,80227.483291
-0.408147,25,81199.393142
13.408561,30,81200.261128
-2.392996,23,81200.926219
4.30117,20,81201.658214
-0.128892,23,81202.354984
2.227043,21,81202.925661
-0.550424,22,81203.639978
2.042774,27,81204.305661
-7.805805,23,81204.908422
-1.338817,20,81205.335058
-2.924426,20,81205.75489
-1.58675,23,81206.252382
5.200329,25,81206.784796
-3.606683,20,81207.204953
3.941551,33,81208.001278
-2.254441,21,81208.456535
-10.004279,28,81209.100866
-6.32359,20,81209.542026
2.522937,32,81210.241278
7.015766,30,81210.843587
6.734823,25,81211.539706
-0.823414,23,82132.69489
5.719927,23,82133.202228
6.690051,32,82133.82126
-0.774492,23,82134.224601
-8.465843,19,82134.560427
-2.906372,23,82135.00083
4.903287,22,82135.375292
-17.641785,18,82135.80145
-7.215074,20,82136.194065
-0.493486,26,82136.765467
1.693071,25,82137.440866
-3.974123,22,82138.026465
1.97279,26,82138.642252
-2.6952,21,82139.158279
-9.530119,18,82139.602021
-8.628138,20,82140.038989
8.749762,21,82140.543522
-3.723471,20,82140.971503
-2.503269,21,82141.441349
-5.691355,22,82141.948525
-0.2419,23,82142.516792
0.060359,20,82143.028194
4.153379,22,82143.536446
0.751386,25,83009.486182
-13.387633,21,83009.836773
-8.751351,21,83010.207326
-6.668092,23,83010.575438
-5.713585,21,83010.923452
2.402654,20,83011.277923
-4.256095,23,83011.663445
13.325341,30,83012.207343
1.629442,23,83012.640291
-2.742793,20,83012.982916
5.832984,22,83013.327806
-0.821924,21,83013.675988
2.486517,24,83014.013819
-6.113176,20,83014.331523
-1.625549,21,83014.715253
-5.46162,20,83015.008022
0.328754,23,83015.376864
-4.847356,22,83015.721548
-1.108437,31,83016.157521
-1.855209,19,83016.481538
6.47596,22,83016.839311
-3.530587,21,83017.260064
-1.03103,27,83017.707894
-1.61628,21,83838.606206
8.415604,26,83838.882374
-4.530525,19,83839.107784
-7.796347,17,83839.304976
3.905027,22,83839.559502
-2.614709,27,83839.901477
7.156477,30,83840.294725
-5.700632,21,83840.531326
4.016532,25,83840.880071
-7.670598,22,83841.143029
-21.105813,18,83841.363692
3.805678,24,83841.641952
0.190371,20,83841.872726
2.329692,21,83842.156252
-3.827271,20,83842.402268
-4.893293,19,83842.647098
1.535539,22,83842.902519
-1.185814,24,83843.175182
-10.184907,19,83843.385941
-7.712137,24,83843.64436
1.168386,29,83843.939212
-0.895199,20,83844.141553
-0.257222,23,83844.403934
-3.60796,22,84631.738197
-0.699213,20,84631.940751
1.15373,21,84632.169305
-4.83804,23,84632.432143
-5.887617,22,84632.674713
1.812424,22,84632.902848
-2.240781,21,84633.139346
1.106754,25,84633.419013
0.595775,25,84633.68216
-6.366935,23,84633.92296
1.100717,25,84634.201288
3.071943,25,84634.490823
-0.246047,21,84634.701469
-5.413183,21,84634.917629
-1.10066,21,84635.125435
-3.27612,20,84635.341008
1.395932,26,84635.626179
-2.992145,21,84635.839363
-7.369931,24,84636.07153
0.530545,23,84636.30161
5.014297,22,84636.528367
0.768444,21,84636.764336
-4.448852,20,85432.164439
10.247157,30,85432.575249
-2.269709,21,85432.84382
0.927177,25,85433.166561
-2.128038,19,85433.424153
1.557681,28,85433.771969
-10.678247,22,85434.068514
-2.091737,22,85434.321818
-2.28678,18,85434.554327
2.655469,28,85434.905141
4.0051,28,85435.264398
0.516768,21,85435.543086
6.659137,27,85435.867064
-15.626214,18,85436.077997
9.979535,29,85436.466981
2.244396,22,85436.764341
-13.839531,18,85436.992529
0.215357,24,85437.340078
4.922338,23,85437.687762
-1.825462,26,85438.030391
-10.917857,23,85438.348386
-3.918186,22,85438.666179
9.434596,24,86232.002069
1.615555,21,86232.240144
-1.309657,19,86232.454707
5.02432,25,86232.718079
-11.200498,18,86232.901695
3.148717,27,86233.185521
-4.188121,19,86233.409681
8.233264,27,86233.692878
-4.090177,22,86233.96663
-0.79725,20,86234.165084
2.498764,21,86234.370085
-5.128583,20,86234.611362
-4.845124,21,86234.860831
0.820078,21,86235.095532
-4.666597,20,86235.296866
-7.528236,22,86235.533821
-6.968279,20,86235.806055
-3.340025,20,86236.021852
-0.397696,20,86236.229674
-4.440552,23,86236.465505
-13.002179,31,86236.799334
-5.084102,19,86237.031563
4.262797,22,86237.257999
-1.694989,21,86237.472935
5.664289,30,87025.448247
-14.559065,17,87025.634519
-5.630226,21,87025.843156
-3.2019,19,87026.042398
-2.236934,23,87026.296852
-4.786702,20,87026.534659
-8.073628,20,87026.742332
-15.339032,24,87026.997221
0.152855,26,87027.273817
-6.377656,19,87027.470861
-4.01026,20,87027.720176
-6.358247,19,87027.923684
-0.588192,20,87028.163828
-8.303228,19,87028.382018
-4.672252,20,87028.589937
1.006948,22,87028.875116
2.574314,20,87029.096209
-11.333925,19,87029.293192
-8.941352,21,87029.501374
-0.996738,19,87029.713582
-4.836138,21,87029.970356
-5.189725,28,87030.245464
0.368995,20,87030.46313
-5.119171,27,87030.745718
-1.883072,22,87827.195992
19.980007,34,87827.430871
-2.243687,21,87827.577417
2.376895,21,87827.726744
-6.267326,20,87827.867342
-1.793497,22,87828.01722
-4.901377,21,87828.16836
-3.616625,21,87828.311317
0.937899,20,87828.454357
-2.773296,20,87828.587742
-8.010881,18,87828.706734
-8.159798,21,87828.853413
-1.893741,22,87828.999774
7.238975,33,87829.223739
3.093597,24,87829.38951
-1.190162,21,87829.53828
-1.474111,21,87829.673938
-0.21928,21,87829.821335
-3.48296,21,87829.970471
3.99072,21,87830.106751
-10.297215,21,87830.245813
-2.708012,20,87830.382878
7.380607,27,87830.57352
-4.742366,20,88578.237732
-8.317219,20,88578.369402
1.371894,20,88578.503188
-2.432028,20,88578.638162
-0.727573,20,88578.770486
-0.387097,20,88578.909738
-0.077274,23,88579.067397
4.461551,27,88579.23426
0.575053,21,88579.378307
-2.080309,18,88579.491383
10.418623,30,88579.689098
-5.061081,19,88579.821964
3.221826,22,88579.980811
-12.183898,18,88580.097605
5.592575,23,88580.245482
0.081529,21,88580.392798
-1.514868,22,88580.543401
0.901628,20,88580.675148
-10.782085,20,88580.800138
-5.806584,23,88580.957899
-2.179149,19,88581.082801
5.624552,45,88581.383943
-9.119239,21,88581.526412
6.346587,23,89328.378477
-3.492785,23,89328.529467
0.221541,21,89328.672727
-14.527014,18,89328.797322
2.669421,21,89328.932588
1.575169,20,89329.070394
-7.425931,19,89329.203583
2.179011,25,89329.375467
0.88005,19,89329.501212
-0.611778,23,89329.650326
-10.700628,21,89329.795225
-7.089979,24,89329.954185
-6.603626,22,89330.101908
4.712074,26,89330.279111
2.20767,26,89330.455957
-3.079737,26,89330.63271
6.032013,23,89330.791681
3.171038,22,89330.934294
1.794621,19,89331.073572
1.623045,25,89331.234736
-5.785009,25,89331.414962
6.375774,20,89331.547545
9.217942,30,90083.733358
-4.70221,20,90083.867896
0.667013,21,90084.006255
4.238278,22,90084.155834
-9.055722,22,90084.307426
-6.776006,22,90084.457191
3.306662,20,90084.593983
3.224841,22,90084.738091
1.404915,20,90084.865778
-13.512601,22,90085.020434
-2.262524,21,90085.165459
0.73887,21,90085.307418
-3.199616,21,90085.451724
5.072047,24,90085.618497
-7.54221,19,90085.752999
-3.863222,20,90085.891421
-3.598093,21,90086.030906
-6.857798,20,90086.175513
-5.872553,21,90086.31996
0.062144,26,90086.49298
-0.480819,20,90086.637835
-11.024349,19,90086.771415
0.286898,22,90086.920283
-18.352352,18,90087.046764
-6.321668,19,90087.18207
-4.379124,24,90846.281974
-2.250812,23,90846.4323
4.028504,27,90846.619578
3.763522,20,90846.757053
0.29583,21,90846.889247
-16.449385,18,90847.020759
-3.713019,20,90847.159945
-4.146723,27,90847.332543
10.374716,24,90847.494683
-9.498849,22,90847.643902
-10.559762,21,90847.780837
-2.447154,25,90847.956025
2.295778,20,90848.090822
20.731505,36,90848.33948
2.574847,24,90848.502717
-2.675495,22,90848.66384
-1.151004,21,90848.809282
12.799441,33,90849.031192
4.815076,26,90849.212115
6.406065,24,90849.382469
-16.737713,18,90849.506219
-5.691475,19,90849.629718
-0.592668,22,91618.909029
-2.648381,22,91619.056452
-0.245034,21,91619.192288
-4.218567,20,91619.329988
2.889338,24,91619.492929
4.383088,20,91619.623978
-6.265322,26,91619.796921
-7.892338,22,91619.948143
2.686634,20,91620.089576
9.400993,27,91620.272465
-3.452459,21,91620.41353
-9.151467,22,91620.565794
-5.346683,22,91620.71256
3.454665,27,91620.90082
-11.477212,19,91621.033915
-4.113365,20,91621.171603
-1.551944,20,91621.303469
2.170782,20,91621.443375
10.14638,31,91621.656805
5.134373,22,91621.814384
0.346747,23,91621.982163
-3.001261,21,91622.126162
-4.420703,20,91622.251132
4.380025,23,92368.647769
-1.423807,22,92368.800546
7.506061,28,92368.997493
2.776333,25,92369.169695
-8.016623,21,92369.308012
7.787792,30,92369.505099
-4.592634,21,92369.645
4.331634,20,92369.776096
0.096403,21,92369.920879
-1.909446,19,92370.059522
-4.797407,20,92370.191181
-7.425303,24,92370.353753
-4.044416,20,92370.485693
6.308218,23,92370.631868
-0.630886,23,92370.785616
2.27741,24,92370.953786
-0.839447,21,92371.092292
-5.325035,21,92371.228658
-2.271797,20,92371.360506
-4.354521,20,92371.495028
-10.760703,20,92371.623481
0.327165,22,92371.776956
2.503611,32,93142.299031
1.910301,22,93142.448967
-4.579813,19,93142.58531
-3.057253,19,93142.714622
-6.665013,22,93142.850973
-4.382985,19,93142.983084
3.598668,33,93143.210106
4.561497,22,93143.356234
-2.374155,20,93143.488471
-1.665317,23,93143.63939
-4.32185,23,93143.789599
3.401182,24,93143.958372
-7.400718,20,93144.095853
-2.394013,21,93144.239872
4.724879,23,93144.397399
0.915792,24,93144.553943
0.969297,19,93144.685157
5.270585,23,93144.84284
3.826478,21,93144.982047
8.790986,37,93145.224517
-8.946169,20,93145.361175
-3.770226,23,93145.519598
-2.989486,20,93145.64946
0.567952,20,93985.162419
0.691818,22,93985.347423
0.552724,31,93985.610497
-2.040983,20,93985.785235
5.420625,25,93986.00096
0.505584,32,93986.29389
-6.162132,26,93986.524801
-6.014436,22,93986.714445
-0.084861,22,93986.90784
2.06635,22,93987.105449
-16.447315,18,93987.277197
0.131728,20,93987.471513
-3.000915,28,93987.710435
0.971318,33,93987.991055
9.312589,29,93988.259271
4.2958,32,93988.565698
0.086592,20,93988.743618
-13.325748,17,93988.898348
-2.692156,21,93989.080597
-0.088486,20,93989.254419
14.723451,33,93989.541627
