# {"t_start": 1547997837.8068833, "env_id": "RoboschoolHumanoidFlagrun-v1"} 
r,l,t
-32.75142,19,4.593131
-32.532581,19,5.493239
-43.92101,19,6.176475
-32.544005,26,7.30901
-41.193542,19,8.752429
-29.024669,18,9.698709
-46.413507,19,10.381689
-42.76028,20,11.128181
-35.23274,19,12.247838
-33.163961,22,13.56237
-36.37652,20,14.710214
-48.443577,20,15.859498
-41.337021,19,16.57233
-34.718772,19,17.719039
-44.878914,21,18.920235
-36.645672,21,20.436766
-22.327373,19,21.724045
-45.704652,19,22.997571
-48.126592,26,25.07232
-40.553138,17,26.046819
-44.736616,18,27.066019
-23.527396,19,27.749551
-39.807299,20,28.887916
-50.621184,20,30.632191
-42.270178,18,31.487957
-36.207511,20,2725.693753
-38.28146,18,2726.729489
-37.879463,20,2728.063998
-37.547283,20,2729.285069
-53.430125,20,2730.211173
-27.783071,19,2731.37084
-34.011406,20,2732.449456
-30.235476,17,2733.365062
-41.684388,18,2734.631224
-41.64899,24,2736.234907
-39.509077,23,2737.659192
-33.037839,18,2738.686724
-44.266586,23,2739.819448
-26.882117,21,2741.347743
-30.648353,21,2742.594927
-38.872702,19,2743.464239
-38.509657,19,2744.572418
-30.501334,19,2745.507142
-35.39629,19,2746.543738
-26.968724,19,2747.721823
-60.750715,20,2748.924685
-45.68278,20,2749.711611
-32.810216,18,2750.603086
-41.625034,18,2751.248536
-35.647102,18,2752.366879
-37.011853,19,2753.64289
-47.084321,18,2754.610497
-37.114196,17,5440.433438
-19.000519,18,5441.593954
-41.033301,18,5442.634428
-24.209292,16,5443.48415
-55.37375,19,5444.670432
-27.113966,22,5446.022592
-41.788446,19,5447.393764
-33.822673,18,5448.538764
-41.288802,17,5449.431417
-34.528319,19,5450.376744
-40.392766,22,5451.106151
-34.983293,22,5452.235837
-36.540301,22,5453.721695
-36.569821,19,5454.450711
-27.974143,19,5455.3172
-31.444948,18,5456.325269
-28.775923,19,5457.437383
-37.747149,18,5458.55266
-37.993091,20,5459.897862
-36.037858,19,5461.31232
-20.226471,19,5462.594703
-25.842951,16,5463.533277
-41.704284,19,5464.658289
-23.129096,11,5465.253351
-37.924347,19,5466.184957
-35.871606,19,5467.408328
-16.777896,16,5468.579814
-34.203835,19,8166.237998
-58.687432,25,8167.682778
-36.940609,19,8168.52395
-45.577889,20,8169.686934
-37.291888,24,8170.990684
-44.064752,16,8171.971308
-35.940306,20,8173.018926
-35.795855,20,8174.096905
-31.094213,18,8175.026412
-35.24871,19,8176.060222
-32.159238,18,8177.342646
-29.264234,20,8178.79307
-27.0739,19,8179.865376
-29.472004,17,8180.683705
-33.333294,19,8181.698782
-31.94902,19,8183.01562
-24.676741,19,8184.112088
-42.445683,26,8185.671531
-23.110627,20,8187.14228
-21.700839,19,8188.496317
-23.765064,20,8189.680467
-39.472745,21,8190.756818
-37.899704,19,8191.760441
-31.893092,19,8192.71639
-31.064098,18,8194.075642
-28.256396,19,8195.478742
-28.047353,20,10913.879559
-26.872591,19,10915.058688
-27.403696,18,10915.852269
-35.275273,20,10916.969094
-33.204169,19,10917.900228
-39.963764,21,10918.694937
-43.368147,19,10920.122311
-48.134214,17,10921.164428
-30.313601,19,10922.142966
-33.732796,19,10923.040322
-37.719322,20,10923.936109
-31.409956,20,10925.191235
-35.005306,19,10926.420534
-33.599002,21,10927.547523
-38.615677,20,10928.458121
-36.04294,18,10929.62418
-42.471341,19,10930.839209
-34.847946,23,10932.214527
-42.833655,20,10933.470147
-21.342905,19,10934.852356
-37.319753,20,10936.068391
-31.205554,19,10937.384316
-26.639111,19,10938.535781
-27.877703,18,10939.489686
-60.082532,29,10941.066793
-40.309797,21,10942.257993
-25.57928,19,13746.966504
-30.268809,19,13747.97179
-38.200447,19,13748.866858
-33.872389,20,13750.189932
-33.13585,19,13750.981894
-37.241778,19,13751.845169
-25.956331,16,13752.46811
-28.646432,18,13753.277007
-35.504365,21,13754.470055
-16.662638,21,13756.109721
-25.040197,18,13756.713792
-42.692078,20,13757.63605
-32.514192,20,13758.341915
-30.294164,19,13759.691867
-28.392456,18,13760.649894
-44.683501,19,13761.868425
-36.854294,19,13763.12607
-39.597243,20,13764.316947
-29.636346,18,13765.345275
-37.779082,16,13766.306801
-30.582858,23,13767.687391
-34.737114,20,13768.447857
-26.409985,18,13768.977257
-31.908141,20,13769.987392
-24.500976,20,13771.335841
-27.151232,22,13772.505494
-34.990369,19,13773.471854
-29.565402,19,16557.540173
-29.482582,19,16558.654235
-33.969769,20,16559.771654
-36.395198,22,16560.83491
-33.003003,19,16561.808815
-22.981499,20,16562.794862
-29.923435,20,16564.469669
-30.484755,17,16565.47044
-33.962415,18,16566.563998
-30.271516,20,16567.955779
-26.183107,20,16568.777934
-24.045829,18,16569.948125
-48.686779,16,16571.119126
-25.169484,20,16572.148265
-33.737311,19,16573.443084
-43.308645,26,16575.132691
-38.802483,27,16576.42361
-28.015452,20,16577.364144
-29.770357,19,16578.462328
-35.929065,19,16579.779832
-36.804202,20,16580.988368
-39.758356,18,16581.719324
-26.55265,20,16582.542567
-31.581317,18,16583.3828
-31.138317,16,16584.293227
-30.131274,19,16585.213861
-37.024691,18,19164.770447
-36.796162,18,19165.846725
-16.07888,15,19166.492476
-26.678748,20,19167.671069
-43.609713,20,19168.769215
-22.523201,19,19169.823795
-25.759101,19,19170.926488
-16.337296,19,19171.503162
-35.416525,18,19172.555368
-33.031897,20,19173.714139
-35.747689,19,19174.685563
-32.828579,20,19175.674684
-32.596248,19,19176.731065
-56.611005,27,19177.913687
-25.29996,18,19179.063716
-29.797605,19,19180.118419
-35.009717,18,19181.013803
-29.163354,19,19181.93199
-29.762486,19,19183.066937
-33.091604,19,19183.997503
-31.31721,19,19184.711463
-32.353199,19,19185.705727
-31.430301,19,19186.535647
-44.971675,18,19187.365887
-26.91784,17,19188.283665
-35.362203,17,19189.086194
-28.312105,19,19190.194586
-36.644374,19,21803.08054
-25.381116,19,21804.219103
-26.146424,19,21805.113739
-30.317068,15,21805.939474
-11.858187,20,21806.848307
-37.022276,19,21807.818387
-26.27918,19,21808.59412
-41.481566,19,21809.292688
-23.520112,18,21810.035854
-32.150131,19,21810.964998
-25.807513,19,21811.771611
-27.127073,18,21813.136047
-27.940624,17,21814.001754
-24.711651,19,21814.717925
-29.443883,19,21815.764108
-24.53906,21,21816.992832
-23.871981,19,21818.289325
-30.502859,19,21819.292651
-23.43845,19,21820.384661
-28.090144,20,21821.574967
-29.956124,19,21822.484494
-21.820841,21,21823.391937
-23.699764,19,21824.447815
-20.409313,19,21825.514747
-41.529607,19,21826.701036
-38.957035,19,21827.825561
-25.981545,19,21828.852768
-29.804655,24,24610.948092
-26.004798,20,24611.979612
-28.601474,19,24612.903822
-25.973677,19,24614.053026
-20.09154,28,24616.016822
-31.527846,20,24616.836792
-23.514805,19,24617.792243
-28.66056,19,24618.917479
-34.212278,19,24619.895191
-37.685001,20,24621.078431
-32.385164,18,24621.9497
-36.007779,19,24622.955888
-18.632772,20,24623.938589
-17.077548,19,24624.840106
-24.684224,30,24626.138886
-28.86353,17,24626.889279
-33.199008,20,24627.810283
-24.998913,19,24629.023861
-23.998017,19,24630.306048
-26.565749,17,24630.965776
-24.030148,16,24632.0646
-21.243335,19,24632.9414
-29.538438,21,24634.102956
-29.377379,25,24635.350708
-26.728118,19,24636.637266
-17.537319,19,27701.044172
-25.941283,20,27701.876723
-25.755881,20,27702.718999
-24.245008,19,27703.666313
-18.158311,19,27704.526444
-27.378265,19,27705.353632
-36.769789,20,27706.220403
-19.182285,19,27707.32938
-31.063995,19,27708.285035
-27.856546,20,27709.347317
-37.794619,17,27710.104864
-28.058336,19,27711.056158
-14.749244,19,27712.161307
-17.916062,19,27712.860681
-27.972197,18,27713.504316
-24.36319,19,27714.561404
-21.786577,28,27716.442244
-36.645862,21,27717.496483
-25.587747,19,27718.5822
-35.583986,19,27719.587704
-26.952626,19,27720.617302
-27.241524,20,27721.452179
-25.835087,21,27722.505827
-28.628337,19,27723.65109
-23.955356,19,27724.683776
-22.651421,19,27725.555196
-34.545861,19,30210.067709
-20.481074,20,30210.694562
-27.534338,20,30211.360564
-27.753365,19,30211.985785
-19.920802,19,30212.700427
-23.343753,18,30213.313586
-23.113748,20,30213.940072
-22.309066,21,30214.746219
-27.83573,19,30215.365055
-24.23153,20,30216.174957
-19.309813,19,30216.81301
-27.202838,18,30217.554348
-21.73049,20,30218.231889
-27.626098,19,30218.848643
-23.041575,19,30219.465521
-24.991724,19,30220.479143
-40.442781,20,30221.253447
-30.628643,19,30222.117997
-19.211208,19,30222.702628
-28.046622,19,30223.464729
-28.585733,22,30224.51842
-15.907374,19,30225.252183
-18.939607,19,30225.904228
-14.274369,19,30226.654124
-25.493131,19,30227.237652
-18.57299,19,30227.819044
-24.223079,20,30228.810143
-30.264132,19,32426.97373
-22.92639,20,32427.63819
-23.741156,19,32428.34795
-20.701573,19,32429.043167
-17.320198,20,32429.76553
-23.299055,17,32430.325116
-25.381423,18,32430.910482
-16.894515,20,32431.591125
-14.281895,19,32432.327699
-20.194996,19,32432.928074
-14.785925,18,32433.454204
-25.319503,18,32433.959685
-21.718171,19,32434.507544
-19.528007,19,32435.14636
-23.639514,19,32435.927164
-26.53494,18,32436.596939
-26.012731,19,32437.145911
-21.885073,19,32437.822875
-21.989717,20,32438.422601
-20.124199,19,32439.085591
-16.665406,19,32439.721718
-21.126124,19,32440.369243
-32.072219,18,32440.973931
-17.977012,20,32441.567609
-30.866379,27,32442.333789
-17.421144,20,32442.923761
-41.294963,23,34175.485469
-20.576795,19,34176.077508
-24.187887,20,34176.654981
-21.247694,19,34177.259135
-31.768016,20,34177.786824
-17.825041,20,34178.397451
-28.838886,25,34179.201522
-11.309317,19,34179.761664
-15.930474,19,34180.391545
-38.180742,28,34181.207927
-31.666106,25,34181.859967
-17.544431,19,34182.26632
-17.896211,19,34182.686266
-31.013874,19,34183.110802
-20.332254,20,34183.590125
-16.958409,20,34183.985349
-20.205472,20,34184.485621
-34.669278,30,34185.239839
-27.820582,26,34185.925534
-26.895602,19,34186.319259
-21.578569,19,34186.818288
-34.897757,17,34187.278728
-20.513641,19,34187.803804
-31.791135,18,34188.312053
-28.300295,21,34188.815037
-27.144169,20,35652.270136
-16.878597,20,35652.833745
-12.671638,18,35653.338639
-16.010505,19,35653.842792
-17.403614,18,35654.358355
-15.362703,19,35654.897726
-18.314364,21,35655.585667
-18.148497,22,35656.267053
-21.463951,20,35656.840698
-28.536691,18,35657.34032
-25.431171,19,35657.89301
-18.113478,20,35658.571892
-18.592039,21,35659.158009
-12.227639,19,35659.68536
-22.985477,19,35660.236181
-36.066312,20,35660.834763
-23.775037,19,35661.367313
-15.566084,19,35661.968915
-32.433413,24,35662.605163
-24.21168,20,35663.11349
-17.502935,19,35663.659156
-26.907812,20,35664.204437
-20.220993,20,35664.820141
-19.311865,21,35665.303846
-25.587506,18,35665.785173
-15.584112,20,35666.256036
-16.276758,19,37125.651682
-25.563392,18,37126.257154
-23.78636,19,37126.813615
-15.233642,19,37127.364741
-24.116373,18,37127.816606
-23.450604,20,37128.4697
-21.718704,19,37129.0067
-17.364133,18,37129.512939
-19.432429,20,37130.022595
-25.709367,20,37130.613041
-17.522141,21,37131.17765
-21.67891,18,37131.702207
-18.444672,20,37132.304505
-16.907661,19,37132.973463
-14.271099,22,37133.574908
-29.329426,19,37134.094698
-29.852763,19,37134.640912
-22.396968,22,37135.404669
-19.596995,20,37135.97185
-19.788362,20,37136.564236
-46.613157,27,37137.333177
-14.823095,20,37137.909142
-14.882859,20,37138.552048
-29.705252,18,37139.109382
-13.452132,20,37139.843632
-22.898668,19,37140.386089
-21.313086,19,38483.109276
-33.102599,30,38483.716113
-18.755643,21,38484.133568
-11.444287,19,38484.489906
-19.638509,23,38484.990784
-17.268525,25,38485.498768
-30.60096,19,38485.879241
-22.417711,18,38486.303525
-17.460305,20,38486.943988
-17.252917,19,38487.520681
-19.751958,19,38488.041844
-14.853934,20,38488.559574
-24.387034,19,38489.002114
-14.843033,21,38489.498501
-22.019097,22,38490.134857
-11.675631,19,38490.633701
-20.639886,20,38491.19479
-23.900055,21,38491.809839
-11.788429,18,38492.347357
-22.289464,18,38492.815097
-19.265644,28,38493.579802
-18.028697,18,38494.079083
-21.255117,21,38494.71607
-14.301268,20,38495.283315
-21.050373,20,39644.053869
-17.098549,20,39644.452962
-24.619951,19,39644.923654
-15.833824,20,39645.343201
-18.133655,18,39645.739007
-16.567775,19,39646.193181
-12.505341,20,39646.713826
-15.237218,19,39647.149914
-24.315612,21,39647.638551
-14.460488,20,39647.970923
-25.240065,19,39648.338825
-16.449223,18,39648.736065
-23.201636,22,39649.154058
-19.543063,19,39649.47807
-17.57851,19,39649.847479
-21.295296,21,39650.21295
-26.140925,19,39650.575496
-17.982221,18,39650.959413
-12.604072,19,39651.297876
-15.799117,20,39651.684451
-14.882691,19,39652.124414
-19.946142,20,39652.622624
-17.527883,20,39653.122919
-20.614155,19,39653.62311
-14.016759,19,39654.074678
-22.131422,20,39654.557053
-18.281195,18,39655.011369
-15.277338,19,40729.635225
-26.854739,23,40730.177072
-18.577199,19,40730.562963
-15.608034,19,40730.916934
-20.826724,23,40731.276841
-15.415471,20,40731.61756
-14.152704,19,40731.967886
-23.063704,20,40732.380589
-9.196723,18,40732.680754
-21.431132,19,40732.991717
-18.5351,19,40733.305499
-32.876062,19,40733.701289
-26.636875,18,40734.093944
-18.43402,18,40734.425498
-21.314298,19,40734.764827
-8.059547,19,40735.094487
-14.795604,20,40735.488869
-13.421855,19,40735.911125
-14.79698,20,40736.366026
-11.577839,20,40736.829382
-15.881256,18,40737.212051
-16.75943,18,40737.6341
-16.963037,18,40738.047083
-21.458605,19,40738.457185
-15.169972,19,40738.97548
-17.184396,23,40739.517418
-13.135944,20,41812.958084
-19.404101,19,41813.43931
-17.436092,19,41813.953589
-15.517926,19,41814.452266
-13.863864,28,41815.079042
-17.258967,22,41815.650633
-13.669376,19,41816.154561
-19.825382,21,41816.681628
-14.822959,21,41817.088744
-21.014536,20,41817.452356
-26.576688,21,41817.879874
-20.715081,20,41818.221797
-17.427531,19,41818.561836
-19.883913,18,41819.001277
-15.699001,18,41819.335879
-12.983414,20,41819.662887
-18.100427,20,41820.076828
-14.627543,18,41820.464866
-10.713391,19,41820.803238
-13.050896,19,41821.199131
-11.449682,20,41821.691253
-25.499503,18,41822.130371
-9.371255,20,41822.621582
-11.034569,19,41823.057187
-15.363633,19,41823.476627
-13.504177,20,41823.990729
-11.904058,19,42896.410102
-21.602829,21,42896.930706
-21.045481,27,42897.584278
-22.031631,20,42898.001094
-17.358294,19,42898.443338
-19.302601,19,42898.876447
-14.403637,20,42899.324376
-18.038708,20,42899.845412
-21.859734,20,42900.385892
-18.886306,23,42900.950977
-22.66575,21,42901.451181
-11.234049,21,42901.922696
-15.114753,20,42902.424743
-25.330577,24,42902.947774
-11.210096,22,42903.397398
-16.688563,19,42903.739985
-12.272774,18,42904.061324
-12.05917,20,42904.507004
-11.542259,19,42904.85784
-25.018725,19,42905.180914
-11.526421,19,42905.517934
-15.355116,18,42905.817139
-18.65914,19,42906.248607
-17.67596,19,42906.570152
-19.137834,18,42906.929442
-15.926642,18,43981.852288
-17.691796,19,43982.325819
-25.046517,20,43982.834781
-17.766546,27,43983.401277
-16.000283,19,43983.889411
-15.97258,19,43984.319594
-22.454995,20,43984.822997
-21.265915,18,43985.260287
-12.302307,20,43985.797611
-15.307511,23,43986.323725
-13.162172,26,43986.7502
-17.479032,19,43987.057341
-9.04256,19,43987.49136
-20.626997,28,43987.958773
-30.65061,21,43988.380593
-17.752571,19,43988.691335
-23.75118,17,43988.982742
-11.145411,20,43989.41321
-17.062439,22,43989.77702
-14.415947,19,43990.101879
-7.71092,21,43990.528595
-22.194011,20,43991.010748
-13.270746,21,43991.438669
-19.594157,21,43991.888283
-9.888789,19,43992.382727
-14.342528,19,45066.905267
-10.764377,20,45067.344766
-19.947507,20,45067.848997
-8.489849,19,45068.278381
-8.28798,21,45068.72257
-15.342015,25,45069.330207
-25.52739,20,45069.812311
-6.787309,23,45070.308578
-10.459814,18,45070.634698
-10.128186,19,45070.998124
-13.643632,23,45071.462298
-3.572979,24,45071.952364
-10.615704,19,45072.280961
-13.042229,20,45072.635797
-11.564117,20,45073.113022
-19.663149,21,45073.483501
-16.774441,19,45073.830669
-16.135869,22,45074.258143
-6.133316,22,45074.794093
-18.493955,18,45075.271832
-19.295326,20,45075.746975
-18.997809,23,45076.286373
-21.144781,20,45076.737119
-8.987954,19,45077.211389
-12.104617,21,45077.725463
-8.036533,19,46151.134644
-14.496504,20,46151.574099
-11.363039,23,46152.14079
-15.321899,20,46152.56414
-17.586699,22,46153.010479
-16.565337,24,46153.500149
-22.450237,18,46153.826598
-14.075716,20,46154.170525
-18.346715,23,46154.648558
-15.530938,22,46155.080673
-19.668141,26,46155.551931
-13.175945,18,46155.846018
-12.087444,20,46156.164582
-12.596654,19,46156.4756
-17.718994,19,46156.861217
-20.061889,18,46157.192664
-18.79846,19,46157.514406
-14.631508,24,46158.069233
-14.477014,21,46158.587224
-11.51888,25,46159.194241
-16.524212,18,46159.609159
-13.390086,19,46160.060263
-12.579128,19,46160.527564
-7.42712,23,46161.088588
-15.257711,20,46161.567543
-11.493877,19,47235.696088
-6.767142,20,47236.151788
-12.232291,19,47236.579715
-12.759916,21,47237.042535
-12.322293,20,47237.53019
-8.267499,18,47238.015693
-19.103685,20,47238.509555
-5.16922,19,47238.853426
-7.599614,20,47239.250276
-22.358384,19,47239.572463
-12.942143,21,47240.03599
-20.643125,19,47240.356905
-17.667637,19,47240.66979
-15.90736,19,47240.984444
-9.206118,20,47241.369587
-13.652146,21,47241.697185
-20.273445,19,47241.991773
-19.885438,19,47242.302539
-16.568009,21,47242.701404
-17.713163,25,47243.195081
-18.39624,22,47243.686966
-8.861785,20,47244.115011
-9.1028,19,47244.525113
-20.526353,19,47245.013379
-14.708008,18,47245.425863
-14.461705,20,48316.71855
-13.798474,22,48317.32808
-9.19894,20,48317.911171
0.835743,20,48318.410056
-15.316145,20,48318.897191
-19.609433,23,48319.473862
-15.555375,25,48320.150716
-5.979268,20,48320.642493
-17.750091,19,48321.167434
-14.486951,20,48321.74083
-15.342449,20,48322.282741
-5.679649,20,48322.783591
-11.994451,20,48323.178576
-21.876488,25,48323.690586
-3.95724,22,48324.078388
-17.276466,23,48324.555902
-3.457222,20,48324.970786
-18.928227,20,48325.352976
-11.462479,23,48325.787086
-11.967613,22,48326.249301
-10.791273,19,48326.67053
-11.460709,19,48327.045965
-8.960157,20,48327.438033
-11.729536,21,48327.832805
-11.040457,19,48328.31556
-10.3554,22,49392.572939
-10.058681,19,49393.147772
-22.672299,19,49393.592477
-19.540906,20,49394.062859
-13.271537,21,49394.612345
-10.170633,20,49395.174508
-3.785187,21,49395.69864
-8.592312,20,49396.125449
-30.601758,17,49396.536252
-11.75924,20,49397.000875
-15.431827,19,49397.433439
-16.457877,19,49397.886558
-19.997842,27,49398.494283
-12.156243,22,49399.016548
-9.989064,20,49399.380838
-18.581288,17,49399.771109
-10.452659,20,49400.105415
-25.419893,18,49400.435331
-14.649062,23,49400.873441
-22.297526,25,49401.320791
-18.678219,20,49401.671729
-7.582722,20,49402.046628
-7.791842,26,49402.505087
-13.74828,18,49402.843927
-15.574229,19,49403.159325
-10.569288,19,50421.018377
-7.875667,20,50421.28626
-12.368186,21,50421.632451
-9.442944,19,50421.904657
-13.245979,19,50422.199178
-4.525573,21,50422.490623
-11.178277,19,50422.838578
-4.487207,20,50423.128485
-13.709715,21,50423.46566
-13.799694,19,50423.781896
-16.194458,19,50424.104099
-12.165443,19,50424.377861
-12.710726,19,50424.69211
-15.926249,17,50424.974898
-18.208213,20,50425.32475
-9.508583,19,50425.632225
-8.791264,19,50425.989319
-19.353366,21,50426.332491
-9.260765,21,50426.686614
-23.902042,21,50427.010135
-15.778169,19,50427.320927
-19.506724,19,50427.650496
-14.944624,20,50427.956092
-10.607334,20,50428.266806
-5.794786,19,50428.558602
-15.306095,23,50428.962116
-7.847238,20,51339.720859
-16.91574,16,51339.958168
-30.890627,36,51340.453444
-9.363093,19,51340.769265
-6.344137,20,51341.058682
-17.406929,21,51341.380254
-10.833978,20,51341.676134
-26.289349,17,51341.936155
-9.955858,20,51342.25999
-9.747284,20,51342.532375
-8.308877,20,51342.838365
-16.984902,24,51343.231321
-10.71842,20,51343.528263
-3.394832,21,51343.834401
-31.144347,14,51344.048159
-13.570234,21,51344.382001
-14.330152,20,51344.669516
-8.999692,19,51344.950305
-7.694098,20,51345.249901
-14.456069,20,51345.627418
-7.468647,19,51345.947597
-9.655844,19,51346.264261
-12.430862,19,51346.585772
-10.423812,19,51346.919222
4.420284,30,51347.382019
-5.05521,22,52257.286606
-26.672902,19,52257.563663
-6.811839,23,52257.938602
-10.53756,20,52258.271618
-14.273309,20,52258.578209
-15.283887,22,52258.953495
-5.042826,19,52259.253922
-16.922807,20,52259.629238
-17.261283,20,52259.935006
-6.539609,20,52260.260581
-20.509783,18,52260.532079
-11.341306,19,52260.862626
-11.409467,21,52261.188187
-15.976982,19,52261.451714
-14.554921,19,52261.727041
-9.768591,19,52262.008347
-10.517948,20,52262.32213
-16.617659,20,52262.628736
-15.937876,19,52262.965249
-23.474588,28,52263.43573
-17.287765,20,52263.753354
-12.114459,22,52264.079707
-12.874665,24,52264.488952
-6.923115,20,52264.789337
-7.678284,19,52265.083105
-9.101306,20,53175.332805
-8.130689,20,53175.618504
-2.418119,20,53175.922545
-19.378412,23,53176.274077
-13.571239,26,53176.730633
-6.647713,19,53177.022114
-6.803074,22,53177.360907
-8.516987,20,53177.660893
-7.906845,21,53178.025662
-12.707542,19,53178.315435
-25.599181,20,53178.619048
-10.803618,19,53178.949869
-11.321762,18,53179.274898
-13.071347,18,53179.54604
-7.457697,21,53179.861381
-10.712946,19,53180.185272
-14.879999,18,53180.468811
-12.361592,19,53180.77588
-11.273917,20,53181.129596
-5.603265,20,53181.451684
-4.45585,20,53181.734813
-6.175125,19,53182.047918
-5.60619,19,53182.377692
-12.640243,18,53182.683662
-6.786409,20,53182.963659
-9.575218,21,54095.110642
-13.439139,19,54095.439317
-7.485173,19,54095.728992
-12.828643,19,54096.019478
-8.216838,20,54096.332126
-15.011538,19,54096.624495
-8.324416,20,54096.966392
-12.959017,21,54097.25069
-12.397759,19,54097.523945
-6.725612,21,54097.902435
-15.830491,19,54098.182459
-10.779356,18,54098.476192
-13.179051,27,54098.888118
-8.562891,19,54099.215359
-13.484004,19,54099.532977
-17.027221,20,54099.862108
-7.310903,20,54100.188545
-9.130316,19,54100.500528
-13.453051,21,54100.809905
-9.405061,19,54101.134431
-10.292557,20,54101.472392
-14.54546,19,54101.802775
-10.483628,20,54102.105525
-21.299283,19,54102.390073
-9.344112,21,54102.727787
-21.753678,20,54103.056475
-5.169357,20,54926.768844
-8.755195,26,54927.077016
-7.854058,19,54927.244749
-9.576018,20,54927.490599
-12.192103,18,54927.692443
-11.619699,19,54927.883462
-0.323093,21,54928.142484
-7.701236,20,54928.355886
-3.762549,20,54928.56549
-7.246755,21,54928.798713
-15.92201,20,54928.989494
-8.157573,23,54929.246379
-12.333543,21,54929.448501
-7.912225,19,54929.656987
-3.288953,20,54929.874861
-6.60906,21,54930.101071
-17.652914,19,54930.329386
-19.013843,20,54930.554458
-7.494,19,54930.754133
-7.328384,19,54930.935032
-20.584436,21,54931.135704
-8.520504,20,54931.355575
-15.241913,20,54931.598113
-5.360051,20,54931.820927
-10.783021,18,54932.002582
-8.448783,23,55720.171968
-19.283143,24,55720.445055
-9.312511,20,55720.655273
-5.128561,19,55720.837837
-14.82209,20,55721.046396
-7.04491,21,55721.260745
-11.112689,21,55721.482147
-8.670716,20,55721.724559
-6.994833,23,55721.948442
-11.398774,23,55722.188468
-10.36681,21,55722.399467
-15.342606,25,55722.65986
-4.822696,20,55722.898826
-12.28654,19,55723.10719
-21.818594,26,55723.375376
-10.385052,20,55723.58909
-1.66485,21,55723.813184
-6.545461,19,55724.050692
-6.546332,20,55724.290812
-6.340713,22,55724.52384
-10.921492,20,55724.731812
-3.332807,22,55724.974716
-4.645624,21,55725.224172
-7.602095,22,55725.430206
-11.583007,19,55725.637151
-17.446798,18,56659.710372
-8.047314,21,56660.28013
-27.178365,25,56660.794775
-14.80482,17,56661.174639
-7.581765,21,56661.64027
-12.022861,20,56662.055868
-9.161864,19,56662.513209
-4.789321,20,56663.058893
-6.79201,21,56663.503662
-9.619546,20,56664.035367
-10.710319,20,56664.528726
-3.755796,24,56665.111198
-4.690925,21,56665.642472
-7.861604,20,56666.130902
-13.263982,19,56666.612084
-8.739048,20,56667.104451
-8.490989,20,56667.712057
-1.457688,20,56668.409189
-2.755807,20,56668.907768
-11.422227,19,56669.559747
-1.790741,21,56670.188942
-6.570088,20,56670.779608
-3.727261,19,56671.278467
-5.010256,21,56671.852047
-2.819124,20,56672.369971
-4.661294,21,57759.692698
-10.218001,21,57760.302679
-6.812186,20,57760.761804
-12.973787,20,57761.260023
-4.746485,22,57761.852433
-7.454902,21,57762.405605
-6.146423,19,57762.87459
-6.895221,20,57763.37477
-5.389874,21,57763.882592
-5.685385,20,57764.367465
-5.924424,21,57764.993506
-2.248693,20,57765.481539
-7.746654,19,57765.921757
-1.600317,20,57766.522672
-8.225044,19,57767.153669
-0.03044,21,57767.923671
-4.747187,22,57768.57851
-13.912157,18,57769.107735
-18.171742,21,57769.66662
-5.559826,18,57770.179296
-10.697451,20,57770.729037
-12.807574,20,57771.323771
-3.673337,20,57772.090146
-3.618019,20,57772.668431
-5.66626,19,57773.364916
-9.271687,19,58856.785927
-11.292933,22,58857.329225
-6.480701,20,58857.893056
-5.338367,20,58858.442508
-12.813852,20,58859.028986
-5.078553,20,58859.569787
-9.917514,20,58860.133408
-11.944758,19,58860.627474
-10.739536,20,58861.12458
-6.300068,22,58861.752215
-9.7852,20,58862.304377
-4.574159,22,58862.983147
-5.239144,21,58863.552019
-3.452428,21,58864.123227
-9.533781,20,58864.801359
-3.53416,21,58865.421021
-10.980846,18,58866.113248
-10.85387,17,58866.565702
-13.219231,24,58867.212163
-3.351802,20,58867.744831
-14.560138,19,58868.301934
-8.598798,19,58868.836831
-1.476174,19,58869.326855
-8.050499,21,58869.958924
-9.241078,20,58870.928528
-4.960891,22,58871.75871
-7.62825,20,59962.079861
-6.532466,20,59962.606208
-12.514018,19,59963.141203
-9.802476,20,59963.751805
-5.945778,22,59964.392139
-5.645905,20,59965.298149
-4.503123,20,59965.870122
-10.813356,20,59966.415524
-5.229278,20,59966.956832
-8.029723,19,59967.471731
-1.433931,20,59968.015023
-2.370667,24,59968.704008
-8.123131,20,59969.346022
-3.433457,20,59969.961241
-13.881492,20,59970.473814
-9.503116,21,59971.039324
-2.581647,23,59971.713641
-8.114936,21,59972.43557
-5.419734,20,59973.076456
-4.854101,20,59973.681139
-6.020748,20,59974.273591
-4.900504,21,59974.974502
-7.925066,20,59975.691684
-4.275671,20,59976.238582
-15.667635,19,59976.872396
-8.428289,23,61061.384638
-7.805459,20,61061.951131
-14.390481,20,61062.772811
-10.729242,21,61063.338054
-13.855882,20,61063.895556
-5.229401,21,61064.439447
-8.0057,19,61064.934808
-6.149351,20,61065.47071
-9.302458,20,61065.996442
-3.177547,20,61066.557426
-6.09496,20,61067.118871
-3.851435,22,61068.044741
-5.215815,21,61068.671883
-9.987351,20,61069.244316
-4.816801,23,61069.896482
-1.020125,22,61070.538186
-5.479841,20,61071.150172
-14.527794,26,61071.904218
-8.569827,19,61072.421584
-3.485313,20,61073.055532
-1.9868,20,61073.642926
-1.146484,20,61074.175997
-10.072218,21,61074.699582
-0.519607,20,61075.32825
-4.277267,21,62159.598291
-4.508941,18,62160.111022
-0.441742,20,62160.601473
-6.870335,19,62161.120183
-4.187074,21,62161.675956
-9.891034,22,62162.299661
-5.058688,20,62162.81879
-5.969485,20,62163.38329
-15.026004,24,62164.016465
-6.876007,21,62164.721068
-7.534462,22,62165.321563
-6.968458,20,62165.867455
-3.609886,21,62166.619005
0.24537,21,62167.23753
-6.490064,21,62167.786431
-14.219519,20,62168.333897
-4.926458,19,62168.855532
-7.270261,23,62169.687762
-8.473675,20,62170.2358
-1.969961,19,62170.789342
-8.896351,20,62171.338327
-7.504213,19,62171.857547
-1.030319,21,62172.420374
2.882274,21,62172.966106
-13.022783,25,62173.684764
-10.221573,22,63262.447907
-5.415506,22,63263.049178
-4.183228,19,63263.547309
-7.006297,20,63264.088763
-7.196785,20,63264.571808
-9.457141,22,63265.089306
-5.524652,21,63265.591793
-3.574175,21,63266.128304
-11.428781,20,63266.631222
0.91246,21,63267.152117
-7.355268,20,63267.667695
-7.20386,19,63268.171836
0.495313,21,63268.7846
-6.394779,21,63269.304617
-3.535992,19,63269.907861
-1.8704,23,63270.607726
-14.386419,19,63271.121632
-5.186364,20,63271.668648
-9.835782,20,63272.204803
-1.832023,22,63272.810965
-8.928391,20,63273.494617
-0.706016,20,63274.070053
-9.815592,19,63274.563978
-7.151215,19,63275.093308
-4.735019,21,63275.815158
-6.232622,20,64360.996113
-4.252427,21,64361.616605
-8.696683,19,64362.227651
-10.038462,21,64362.828904
-6.469382,20,64363.463906
-10.969321,22,64364.064808
2.271666,21,64364.809072
-7.337456,25,64365.501637
-7.308447,20,64366.046169
-9.894881,20,64366.586918
-6.142484,22,64367.147597
-4.965003,21,64367.748883
-3.304964,20,64368.415287
-0.450676,22,64369.044833
-3.079361,19,64369.596484
-6.302871,21,64370.456925
-0.783269,20,64371.035824
-6.16384,21,64371.57318
-7.455222,22,64372.152644
-4.18044,22,64372.771562
-4.149299,20,64373.301707
-7.631542,23,64374.108449
-2.686353,21,64374.677359
-4.382922,19,64375.198571
-7.87217,20,64375.724011
-2.006561,21,65464.743652
-3.887245,20,65465.323974
-1.202308,20,65465.868713
-1.405991,20,65466.415105
-2.667272,21,65466.989495
-3.918368,21,65467.563507
-35.208829,19,65468.12531
-19.485896,18,65468.59602
-14.474679,20,65469.124584
-5.412377,20,65469.621558
-8.587034,20,65470.180864
-2.496061,19,65470.721734
-7.387442,19,65471.233362
-0.685972,23,65471.860468
-3.882967,21,65472.435659
-6.301314,21,65473.015593
-3.024145,20,65473.568796
-1.673834,20,65474.062891
-2.742445,20,65474.65532
0.679047,20,65475.223782
-10.507874,19,65475.8864
-6.895357,19,65476.411499
-1.620741,22,65476.996736
-8.541188,20,65477.594842
-1.461728,20,65478.11034
-1.622807,20,66564.758347
-4.985979,20,66565.320145
-4.184975,19,66565.985674
-4.778783,20,66566.505473
-2.943721,25,66567.219782
-4.397313,20,66567.98113
-2.709865,21,66568.747054
-3.613338,19,66569.462751
-9.952981,21,66570.022372
0.288827,20,66570.579609
-5.170718,20,66571.413225
2.368869,20,66572.107829
-7.156117,21,66572.704429
-1.335125,22,66573.383152
2.769534,23,66573.989816
-2.579618,20,66574.441928
-13.096542,19,66574.91181
-14.087678,20,66575.423725
-4.753511,19,66575.908776
-11.827255,19,66576.364024
-11.443369,20,66576.861322
-17.25323,20,66577.534374
-1.448698,25,66578.105493
-3.680504,23,66578.615626
-0.506299,21,66579.13716
-5.580917,18,67668.22094
-3.101026,21,67668.881446
-2.669313,20,67669.464084
-0.471456,21,67670.086442
-5.283073,18,67670.524858
-4.405558,21,67671.098639
-2.64862,19,67671.539937
4.418279,21,67672.121542
2.503918,20,67672.742271
-9.237006,22,67673.270683
-6.113463,21,67673.91063
-0.434965,20,67674.713524
-3.261766,21,67675.334569
-1.450341,23,67676.067368
1.340093,20,67676.646582
-5.303505,20,67677.230406
-4.807302,23,67678.189355
-3.900855,22,67678.886112
-6.344909,19,67679.424911
-1.868997,20,67680.11844
-3.187468,23,67680.760607
-5.847934,23,67681.36242
-9.166893,20,67682.016816
-2.766215,19,67682.699829
1.429312,20,67683.248077
-18.496178,17,68766.588153
-5.208348,20,68767.160856
-8.805051,20,68767.65699
-8.068826,19,68768.166609
-1.534073,21,68768.698814
-3.313955,20,68769.225729
-5.19116,20,68769.655508
-1.948327,20,68770.226249
0.042445,23,68770.794922
-2.72578,20,68771.25846
1.689113,20,68771.757646
0.403298,20,68772.338363
-0.656184,27,68772.967557
-3.816976,19,68773.457983
-13.043314,25,68774.068735
-6.707782,21,68774.749253
-5.177187,21,68775.289268
-7.435921,21,68775.888437
-3.71416,22,68776.843587
-8.160261,19,68777.342098
2.300772,22,68777.933895
-10.459525,20,68778.658161
-5.130778,20,68779.222828
-2.090116,20,68780.061919
-7.775159,20,68780.717233
-1.091688,21,69872.243508
-4.215094,20,69872.676972
-8.150565,20,69873.12866
-3.089258,21,69873.757852
-5.2438,21,69874.348564
-1.868933,20,69874.892749
-5.495617,19,69875.450564
-7.347694,19,69875.960414
-5.714269,19,69876.507833
-3.991513,21,69877.065912
-6.422909,19,69877.549605
3.329079,23,69878.159277
-2.678942,20,69878.749538
-2.512679,20,69879.3706
0.596199,22,69879.920203
-4.304263,21,69880.486958
-4.322065,22,69881.102495
-0.06253,20,69881.844846
-7.320173,22,69882.430496
-3.943573,20,69883.019285
-6.184621,28,69883.801734
-2.095028,20,69884.323571
3.617944,22,69884.978365
-5.017745,20,69885.564574
-0.063089,26,70972.74663
-3.661406,19,70973.300204
-3.584143,20,70973.837786
-1.81989,20,70974.435339
-4.972365,24,70975.243426
-0.291614,21,70975.783887
3.831221,22,70976.366316
-8.133409,21,70976.945491
-11.409903,18,70977.466181
-0.302387,20,70978.016028
-5.641742,20,70978.535162
-6.12818,27,70979.282721
-9.301925,23,70979.966236
-8.797654,18,70980.424422
-5.089978,19,70980.983556
-7.898071,19,70981.520992
-0.964381,20,70982.313466
-3.637839,20,70982.852151
-13.53615,35,70983.900014
-12.104207,19,70984.537111
-1.562551,19,70985.054346
2.252886,22,70985.645703
-5.266635,19,70986.160939
-2.824664,21,70986.72596
0.41089,23,72067.578838
-3.699365,20,72068.126793
-7.771035,19,72068.54416
-3.881036,24,72069.180746
-2.175918,20,72069.652009
-1.491466,22,72070.150552
0.79642,23,72070.823604
-4.688493,21,72071.229668
-16.257149,17,72071.705746
-4.877998,20,72072.292005
-5.026411,21,72072.870998
-9.961899,20,72073.375365
-3.211226,20,72073.920159
-0.86944,20,72074.825767
0.575076,20,72075.694575
-9.962497,19,72076.219827
-0.079178,20,72076.844293
-0.427005,23,72077.542432
-4.302817,20,72078.119286
-5.692769,21,72078.703259
-1.140309,19,72079.244039
-1.091825,19,72079.989808
-3.93079,21,72080.596586
-0.861196,20,72081.252372
-4.377236,20,72081.889541
-6.625575,24,73167.751388
-2.536575,20,73168.255455
-2.597499,20,73168.930645
-2.942463,20,73169.403517
-1.5403,21,73169.942003
-0.695002,20,73170.504829
-1.086424,21,73171.007234
2.419032,19,73171.448136
-0.993297,21,73171.990669
-0.240468,21,73172.415379
-1.132032,21,73172.949492
-15.206718,20,73173.405596
-0.304487,21,73173.914162
-6.799804,20,73174.417305
-0.760457,23,73175.060736
-2.298673,20,73175.507821
-7.260846,19,73175.991964
0.490972,21,73176.763852
2.349728,24,73177.412486
-7.71045,21,73178.006238
-4.490853,20,73178.708025
-0.668436,21,73179.2737
-6.559148,19,73179.910188
4.495153,27,73180.665921
2.933871,21,74269.836426
-3.873623,21,74270.397877
-5.839866,20,74270.933845
1.516528,20,74271.525431
1.568857,20,74272.111139
-0.411361,22,74272.893117
-14.767728,20,74273.570487
-10.707278,19,74274.147516
-3.44222,21,74274.902912
0.21403,20,74275.560344
-2.569465,20,74276.096157
-10.453634,19,74276.763263
1.695477,24,74277.489315
-10.824821,22,74278.090932
-13.957721,21,74278.624791
-2.519541,21,74279.194637
-9.770224,22,74279.961111
2.78284,30,74281.151734
-1.782054,20,74281.688895
2.292795,19,74282.263356
-1.453708,20,74282.868247
-4.100514,24,74283.671424
-6.727252,21,74284.328413
-4.106239,19,74284.888266
-4.495449,21,74285.563335
-7.705787,21,75274.166901
-4.392944,20,75274.732603
-5.084806,19,75275.228555
-6.378938,21,75275.851064
0.523443,22,75276.45914
-7.777551,19,75276.944309
-0.370678,27,75277.709152
-4.88156,21,75278.296855
0.177698,23,75278.951968
-0.308027,20,75279.555002
1.234546,21,75280.163003
-1.828011,21,75280.773596
-2.318532,24,75281.431231
-7.874466,21,75281.985601
-3.292811,21,75282.55539
-1.845456,20,75283.081379
-4.222026,19,75283.807793
-4.628274,23,75284.440476
-5.086063,21,75285.02686
9.897302,34,75286.113671
-1.250471,22,75286.786843
-7.71768,19,75287.283974
-2.102771,20,75287.770802
-5.017266,22,76263.323699
-0.928645,21,76264.060297
-7.065101,23,76264.873134
-6.263501,24,76265.500496
-5.170363,22,76266.273391
-2.394922,21,76266.945941
-0.35729,25,76267.586851
-4.23829,24,76268.219095
-6.644693,20,76268.742772
-0.606347,30,76269.53962
0.839239,21,76270.231414
-6.149249,22,76271.170088
-4.862071,21,76271.808957
-1.352784,23,76272.478913
3.673379,21,76273.049991
-5.167187,21,76273.618193
-9.258473,21,76274.318978
-10.189399,24,76275.055928
-0.080751,19,76275.606511
-7.174317,20,76276.101211
-5.781253,21,76276.702394
-6.844012,24,76277.332181
-5.118584,20,76277.869491
2.279712,20,76278.425832
-4.539878,23,77252.830472
-11.161223,21,77253.423716
2.168914,27,77254.236213
-6.494619,29,77255.027414
0.670702,22,77255.646949
-4.2515,22,77256.241929
-0.961829,25,77256.892167
1.752838,21,77257.393098
0.50533,21,77257.991954
-3.501347,20,77258.452342
-0.138108,20,77258.936101
-0.278245,21,77259.496343
-7.217457,20,77259.993094
1.592541,26,77260.662179
-2.431092,24,77261.295293
-8.669097,18,77261.758494
-3.891401,28,77262.570211
-3.829763,19,77263.094515
-4.244123,23,77263.833043
-7.575952,19,77264.311988
-4.073491,26,77265.048024
-1.112691,20,77265.724467
-0.416471,21,78238.630576
3.119406,35,78239.716039
-6.596816,18,78240.20068
-5.464646,26,78240.897921
-0.717613,21,78241.41992
1.553796,22,78242.016578
-3.125129,20,78242.572702
1.6058,23,78243.198233
5.546626,25,78243.871588
-0.825296,27,78244.550842
-0.355768,21,78245.069374
-4.106274,25,78245.857505
-2.737659,21,78246.431358
6.753916,24,78247.138727
-6.978596,24,78248.043977
0.403236,22,78248.617801
0.836835,22,78249.183302
4.717718,21,78249.755785
-3.224676,23,78250.336492
0.871427,22,78250.930959
-4.756611,23,78251.624821
-0.728269,24,78252.367738
-0.417865,21,79222.918033
-9.369416,20,79223.47063
5.668498,27,79224.241114
-0.54977,22,79224.914975
2.002277,22,79225.559603
-1.991011,23,79226.11006
-5.464654,20,79226.636179
-2.288364,24,79227.343573
-4.053747,22,79227.911789
0.401434,21,79228.414802
-0.088602,21,79228.890306
3.365732,26,79229.538525
7.351096,33,79230.30248
-4.27247,22,79230.819552
2.012331,25,79231.372557
-7.199397,20,79231.839139
-10.735062,20,79232.238873
-5.359214,20,79232.697066
-0.415789,23,79233.154801
-9.875991,26,79233.717696
-15.319538,19,79234.108225
2.864698,21,79234.680787
-5.497942,20,79235.313244
1.008897,23,80213.523059
-16.990216,19,80213.987847
-2.772258,22,80214.748822
-5.050194,20,80215.321713
-1.786512,22,80215.894459
-10.235218,21,80216.528479
-4.803259,24,80217.243465
-6.486294,20,80217.7537
-3.14067,25,80218.39252
-3.926538,19,80218.91394
-6.678476,17,80219.385922
-0.848164,28,80220.218534
-1.008552,27,80220.916587
-0.220885,22,80221.499358
-8.65895,22,80222.066552
-5.101194,22,80222.690749
-3.301264,20,80223.18551
-3.47081,22,80223.73407
4.904021,27,80224.511608
3.942257,24,80225.214926
3.41073,23,80225.83267
-2.27696,27,80226.685715
0.773539,20,80227.238631
-2.232057,22,81199.075143
-3.501125,21,81199.686829
2.868355,22,81200.285139
-3.257348,21,81200.952462
-16.167109,17,81201.549101
-1.627853,26,81202.337165
-5.671791,19,81202.879045
-4.376188,25,81203.654569
-1.821072,20,81204.122811
-2.683071,21,81204.687615
1.049414,23,81205.165991
-3.787791,19,81205.570451
-2.084582,22,81206.041288
-1.970757,19,81206.423719
4.470995,20,81206.840455
-3.522368,21,81207.329587
-8.469137,18,81207.792191
-5.52514,20,81208.229488
-0.407321,23,81208.71866
-1.828842,29,81209.406632
-5.867752,28,81210.022987
-1.191421,23,81210.46078
-4.612921,23,81211.054854
-1.08543,22,82132.326181
6.51661,24,82132.753395
-5.680186,21,82133.239404
-7.449839,21,82133.619543
-3.805306,22,82134.00282
-0.400769,21,82134.377228
-0.418318,21,82134.765755
1.166531,21,82135.12069
1.810785,22,82135.630026
-13.753752,17,82135.960269
-9.085641,18,82136.284454
-0.984063,19,82136.828418
6.150899,25,82137.49634
-12.060774,31,82138.262552
4.574255,27,82138.917803
-2.918517,21,82139.435345
5.643827,26,82140.029824
-5.118348,19,82140.468166
-8.029386,23,82140.948444
-3.635426,23,82141.477954
-0.655521,23,82142.006549
-0.561351,20,82142.549444
-1.481803,25,82143.121459
8.762154,27,83009.182868
-8.575849,22,83009.541461
-9.837362,27,83010.02026
-3.959499,23,83010.390333
-4.348779,19,83010.691935
0.446337,21,83011.073266
-3.563275,21,83011.424919
-5.683096,28,83011.919345
-15.726784,27,83012.434414
4.439653,21,83012.788974
-6.564554,21,83013.11799
-7.938198,20,83013.463071
1.319492,21,83013.730968
0.869044,21,83014.074608
-5.805124,22,83014.45545
-0.782805,21,83014.797548
-13.272001,20,83015.103962
-3.638852,23,83015.480769
-11.236388,25,83015.820108
7.53665,27,83016.247127
-5.472626,21,83016.591251
0.821419,23,83017.052292
-4.983312,22,83017.41416
1.297543,23,83838.369325
5.981622,22,83838.609111
-3.713803,19,83838.81306
-5.683694,21,83839.074343
0.720302,23,83839.340702
5.006318,28,83839.687888
-2.287023,22,83839.977387
0.972921,21,83840.235343
-0.975357,21,83840.479158
-9.073875,20,83840.771548
-3.546161,24,83841.046257
-0.534724,22,83841.306423
3.682435,21,83841.555309
-12.855474,20,83841.828497
-10.638952,18,83842.04634
-10.131509,18,83842.260258
-1.064509,21,83842.539327
-8.053231,20,83842.758838
-5.520949,19,83842.965904
-4.109263,22,83843.219063
-4.23946,22,83843.45679
1.673903,22,83843.677146
-2.304172,18,83843.862421
9.409079,26,83844.147163
-1.621221,22,84631.490479
-11.691484,22,84631.712552
1.899807,20,84631.920557
-3.192814,22,84632.177318
-4.17899,23,84632.432686
-6.232279,23,84632.674556
-8.819963,27,84632.968632
-3.476538,18,84633.177207
1.839512,23,84633.4252
2.545819,29,84633.726619
14.426099,29,84634.054456
-0.416763,20,84634.281751
-3.744047,20,84634.481341
-3.419653,23,84634.712788
-6.104223,19,84634.903817
-9.404758,24,84635.165046
-4.146267,22,84635.41048
5.462003,26,84635.675499
-5.335618,23,84635.892195
-10.067646,19,84636.078597
-6.439799,19,84636.281392
6.880899,37,84636.679916
-9.187654,19,85432.106872
-10.769582,19,85432.365685
-3.861224,20,85432.61243
-11.84948,21,85432.878898
-2.894991,20,85433.17044
-7.402439,18,85433.370899
3.313575,22,85433.675245
-4.55663,20,85433.928915
5.559816,30,85434.28938
-0.332297,22,85434.561054
-7.480577,18,85434.782542
-3.711005,20,85435.050737
-16.045861,20,85435.306171
-0.106167,20,85435.555418
-1.116368,23,85435.832706
3.598853,20,85436.100158
3.946409,25,85436.43103
0.062677,26,85436.770704
15.152465,30,85437.227918
-12.689533,17,85437.464059
-26.4652,18,85437.700232
1.217462,28,85438.083059
-4.144767,21,85438.376401
-6.003082,23,85438.666578
-2.82589,20,86231.934742
1.961736,22,86232.204488
-19.319853,15,86232.361431
-19.793787,20,86232.56958
4.949329,29,86232.864259
-10.416507,25,86233.139358
-11.043077,22,86233.393437
-8.264756,23,86233.660727
5.331362,24,86233.917867
-1.834369,20,86234.115633
5.789278,24,86234.391495
-13.672628,22,86234.651809
-2.68966,21,86234.885602
-9.837103,19,86235.079941
-14.691025,14,86235.228501
-6.049386,20,86235.469334
1.216698,21,86235.720251
0.082247,20,86235.934895
5.89477,26,86236.210495
-1.157909,23,86236.448425
-8.235867,20,86236.690734
-4.185222,19,86236.906726
-4.243053,21,86237.114715
-3.922561,21,86237.323684
10.377396,28,87025.285755
4.097088,26,87025.553137
-5.78854,21,87025.771645
0.327373,21,87025.991709
-3.230944,20,87026.243927
-2.181099,20,87026.446431
0.00519,23,87026.687072
-2.085396,21,87026.923905
-3.583493,20,87027.130481
-0.675633,21,87027.355114
-2.117575,22,87027.610139
-17.414604,19,87027.831667
-10.509875,17,87028.03295
-0.351895,25,87028.311264
-12.084987,25,87028.626488
1.356827,20,87028.840705
5.298589,30,87029.157967
-1.493686,21,87029.366473
-6.967667,20,87029.58197
-4.920977,18,87029.818378
-5.681829,19,87029.9981
2.437861,26,87030.274558
-2.213901,22,87030.493167
1.96857,26,87827.000135
2.313281,28,87827.190566
9.868627,27,87827.382298
-8.756233,22,87827.538475
3.579257,29,87827.741976
-9.047867,19,87827.876475
5.61057,27,87828.064468
-5.219036,20,87828.202057
-13.012585,19,87828.330665
-7.737417,20,87828.463756
-0.044813,20,87828.599478
-5.181305,21,87828.739476
2.112395,19,87828.870984
-13.566281,19,87829.001244
2.927899,23,87829.161294
-1.87394,19,87829.294857
3.663797,25,87829.458428
-3.857861,22,87829.609216
-11.424207,19,87829.743524
-0.369677,19,87829.871408
3.476127,23,87830.023391
8.586374,28,87830.214132
-13.349021,19,87830.349808
-11.089345,22,88578.025248
-16.336412,19,88578.151469
-0.664411,20,88578.288433
2.683455,23,88578.442979
0.490165,33,88578.667481
2.368661,22,88578.823173
0.548023,22,88578.959192
3.882877,29,88579.148839
-7.088787,19,88579.273412
0.711218,24,88579.429691
1.307663,23,88579.58183
-1.546115,20,88579.735486
5.38497,28,88579.917204
5.269692,29,88580.111157
-6.379777,22,88580.258782
-3.798919,21,88580.403592
-14.476322,27,88580.573864
-19.31174,18,88580.694939
12.107539,30,88580.895047
-5.015202,26,88581.072912
-4.807947,20,88581.203235
3.642016,28,89328.084185
-6.432123,22,89328.231276
-2.959457,21,89328.376409
-5.396033,19,89328.506508
-2.249167,20,89328.644356
-4.824898,21,89328.778029
-11.320457,28,89328.970339
-6.162864,20,89329.110476
-22.550997,19,89329.244754
-0.36454,20,89329.370533
10.791049,27,89329.551078
6.865823,30,89329.751395
-13.257436,21,89329.88735
-13.108655,16,89330.003039
-7.877712,21,89330.149018
8.255868,30,89330.349566
4.158584,27,89330.53465
-3.131772,21,89330.677045
1.035169,20,89330.817895
2.522633,30,89331.01374
-1.94879,20,89331.15244
-6.883354,20,89331.289866
-13.158462,18,89331.41267
-8.081765,21,90083.536679
5.79754,31,90083.743417
0.870015,20,90083.875553
-0.567184,22,90084.026026
0.499906,20,90084.17103
4.017219,22,90084.313002
-2.170717,20,90084.45333
1.38964,21,90084.588636
-6.77151,21,90084.723445
4.95948,20,90084.871892
0.678138,23,90085.022391
-14.624887,17,90085.137761
-7.050589,18,90085.2637
0.604047,22,90085.415541
-5.466344,19,90085.549915
-5.06869,18,90085.677297
-3.336774,20,90085.806897
0.294629,23,90085.971975
9.67669,24,90086.13954
-2.597327,20,90086.27214
-5.281032,19,90086.40659
-3.017959,19,90086.535813
-9.224787,19,90086.673013
-0.969374,22,90086.822267
-2.949733,23,90086.984188
2.397929,22,90846.075201
-12.590276,14,90846.159933
2.4139,25,90846.331986
-5.624795,20,90846.470474
-6.648139,21,90846.612539
-4.798366,25,90846.783766
-10.218893,19,90846.915172
4.521803,24,90847.070679
-7.345976,20,90847.204501
0.465911,20,90847.342906
-1.260308,20,90847.476468
-5.974914,19,90847.601065
0.694844,22,90847.752376
5.714983,30,90847.958019
2.142499,23,90848.111809
1.475694,21,90848.256108
-5.258177,21,90848.408927
0.202169,30,90848.621302
6.207221,22,90848.764803
4.798572,26,90848.945827
-5.969805,20,90849.084967
6.353091,20,90849.231806
-6.664932,18,90849.352349
-15.045281,20,91618.615934
-2.726164,21,91618.756348
-7.584701,20,91618.88888
-4.143934,20,91619.020583
-5.906656,20,91619.157865
-1.429701,24,91619.318921
21.842592,32,91619.523095
2.630601,22,91619.67468
-2.391088,21,91619.819385
-8.277802,26,91619.998912
1.798247,21,91620.138494
13.022386,29,91620.345433
14.352493,28,91620.530643
1.500687,20,91620.663707
-6.020723,20,91620.807869
-6.667205,20,91620.950509
3.251929,26,91621.122987
-15.382136,20,91621.261281
0.46835,22,91621.409569
-2.998523,21,91621.566003
12.346366,26,91621.749273
-5.48077,21,91621.897973
0.103408,20,91622.026601
-1.145888,26,92368.4379
-2.955901,19,92368.570873
-5.203525,20,92368.706905
-0.56714,19,92368.853583
2.500706,28,92369.030089
9.738726,30,92369.233344
-1.023482,20,92369.367955
-5.600582,18,92369.486047
-4.952989,28,92369.675595
-6.955954,21,92369.819599
4.436106,26,92369.994855
1.34024,26,92370.173826
1.912007,23,92370.323248
-3.335059,19,92370.443058
-2.367621,21,92370.584041
4.890357,26,92370.764313
-5.203601,19,92370.886246
-9.151951,21,92371.024084
-8.876049,19,92371.151743
-12.395417,25,92371.320944
-0.824538,19,92371.442199
-1.714426,20,92371.58057
1.189621,21,92371.72616
-5.166638,21,93142.169406
-1.369884,24,93142.340413
2.471409,20,93142.475438
-7.506373,18,93142.594311
-6.052432,23,93142.749478
-12.458931,18,93142.872338
7.034247,30,93143.08247
-9.414469,18,93143.197665
-2.03893,27,93143.371357
0.741628,22,93143.517937
8.373258,26,93143.695647
0.357331,24,93143.859936
6.030714,27,93144.042852
8.286155,30,93144.24645
-13.126362,17,93144.356924
-4.747995,20,93144.495957
-6.589405,23,93144.655114
-2.128498,25,93144.818014
2.956716,24,93144.975191
1.04485,23,93145.129382
-1.084392,19,93145.264768
0.015715,20,93145.394129
7.701551,28,93984.955965
-2.61884,22,93985.141668
0.718344,20,93985.309815
1.960405,31,93985.579002
3.425741,21,93985.761795
-4.643727,21,93985.949363
-19.775135,19,93986.121685
-5.261884,19,93986.294727
5.013744,28,93986.537177
1.214136,22,93986.729605
5.370481,36,93987.056393
7.69879,30,93987.343206
0.936751,31,93987.608137
-6.431867,27,93987.83554
-11.191743,21,93988.030254
-1.821739,21,93988.216465
-0.260154,26,93988.474351
2.674405,23,93988.68202
-8.877255,29,93988.937506
-10.915402,19,93989.105034
-1.989853,21,93989.286099
