# {"t_start": 1547997837.8236496, "env_id": "RoboschoolHumanoidFlagrun-v1"} 
r,l,t
-37.805878,19,4.380697
-33.874195,17,5.18384
-37.675886,18,5.830492
-32.811127,19,6.411523
-44.062931,21,8.102651
-23.572154,19,9.132045
-39.817664,19,9.941165
-33.382072,20,10.575919
-46.627826,19,11.59408
-45.248551,19,12.679921
-38.842246,23,14.091331
-36.403462,20,15.304516
-30.018297,18,16.118356
-43.948386,17,16.914943
-27.506054,20,18.140437
-31.932836,18,19.330956
-61.992267,21,20.638079
-27.950787,19,21.982017
-31.513792,18,23.234115
-37.735585,20,24.869001
-44.987088,19,25.889093
-44.645197,19,26.951631
-35.62781,17,27.592727
-43.115561,20,28.729722
-36.326455,19,30.414975
-44.249118,20,31.463453
-34.592297,19,2725.551552
-36.199484,19,2726.717654
-37.411806,19,2727.888886
-40.260649,19,2729.076723
-65.061069,26,2730.236283
-69.210627,20,2731.697943
-61.43729,19,2732.504018
-46.365153,20,2733.718687
-46.164327,20,2735.146419
-38.151394,20,2736.536471
-34.118835,18,2737.565282
-39.192423,24,2738.845373
-39.719435,19,2739.909486
-40.20249,21,2741.335756
-33.699346,19,2742.43619
-38.434817,19,2743.366638
-39.034428,20,2744.550709
-36.769524,20,2745.477671
-37.082147,18,2746.524107
-35.465085,28,2748.328024
-38.302272,19,2749.168975
-42.041847,19,2749.943944
-28.662496,19,2750.766213
-41.418606,21,2751.893426
-32.494725,18,2753.117383
-39.08309,18,2754.149135
-36.429723,18,5439.915333
-28.052916,18,5441.163973
-64.660344,27,5442.697394
-45.010937,24,5444.032328
-38.658261,17,5445.141097
-38.933269,28,5447.063031
-41.8323,23,5448.481966
-37.89812,18,5449.475798
-34.274674,20,5450.312021
-23.477222,18,5450.91792
-33.282744,20,5451.982524
-34.47051,18,5453.219663
-26.407653,18,5453.992209
-36.90848,17,5454.734643
-39.531441,19,5455.690738
-31.096742,19,5456.906214
-28.882933,18,5457.919562
-33.894394,18,5459.132205
-37.646247,19,5460.311267
-32.75455,18,5461.746921
-39.367189,19,5462.923859
-35.083729,19,5463.992068
-29.751544,18,5465.037955
-42.876994,31,5466.725578
-23.589828,19,5468.07133
-32.937322,19,8165.647132
-28.430824,17,8166.75212
-35.630644,19,8167.856429
-35.392071,20,8168.745617
-35.699479,19,8169.751753
-32.276964,18,8170.819052
-40.063769,20,8171.994943
-28.141197,19,8172.996926
-47.846894,20,8174.124139
-26.690363,19,8175.028349
-42.584015,21,8176.284781
-24.416419,20,8177.830767
-34.515544,18,8178.95602
-36.376422,18,8179.84907
-35.279226,19,8180.806279
-28.255797,21,8182.07478
-45.605799,18,8183.312625
-32.239223,18,8184.406417
-30.520088,18,8185.469071
-28.57391,18,8186.792571
-31.379583,18,8188.068858
-28.001538,18,8189.218146
-31.122644,19,8190.10422
-36.834683,17,8191.156754
-36.720957,22,8192.215486
-36.223274,19,8193.536763
-22.072165,19,8194.960904
-41.555033,17,8196.16314
-33.321929,19,10914.477256
-37.421605,20,10915.287922
-25.757112,17,10916.377698
-33.264303,19,10917.150483
-37.017761,21,10918.19458
-27.72623,18,10919.163843
-23.903786,19,10920.494501
-38.162709,18,10921.511037
-35.968053,20,10922.469367
-33.003616,21,10923.446738
-25.507715,18,10924.385521
-40.608611,18,10925.590905
-34.478702,25,10927.06128
-38.340879,19,10927.950224
-39.913067,21,10929.11273
-36.841462,28,10930.945367
-29.668444,19,10932.072852
-36.671894,17,10933.132798
-40.254564,19,10934.541147
-28.932657,19,10935.567803
-35.599409,19,10936.953477
-39.063061,21,10938.257881
-33.479667,18,10939.232847
-26.090513,19,10940.219949
-33.946905,20,10941.324078
-24.761579,19,10942.462901
-28.252719,17,13747.044252
-39.813696,17,13747.887798
-40.513353,20,13748.931031
-30.694466,17,13749.998174
-33.241595,26,13751.139692
-25.471559,19,13752.026778
-26.605174,15,13752.536597
-29.635149,19,13753.502948
-40.57875,19,13754.843687
-35.886451,18,13756.005777
-39.31587,19,13756.661659
-32.989632,19,13757.532437
-26.171797,19,13758.208094
-24.352412,19,13759.584007
-43.432542,20,13760.633273
-28.716123,26,13762.371428
-41.908487,24,13763.765221
-27.54032,25,13765.332549
-20.763236,18,13766.4556
-41.961525,27,13767.835072
-25.546028,19,13768.455881
-31.734652,19,13769.047367
-34.830314,18,13770.238461
-29.078008,22,13771.67036
-25.854672,20,13772.694063
-38.513961,19,16556.566957
-21.901213,19,16557.828857
-26.75658,20,16558.883946
-24.613417,23,16560.122979
-29.216647,18,16560.990271
-18.234856,19,16561.868043
-34.26191,20,16563.301602
-20.565918,19,16564.754971
-25.006435,19,16565.77485
-31.349404,18,16566.776991
-30.174135,22,16568.120392
-31.016318,19,16569.110554
-29.715024,18,16570.287815
-27.683557,20,16571.596981
-35.575503,19,16572.78771
-21.810907,24,16574.272095
-28.226352,21,16575.516157
-33.206684,19,16576.381283
-23.978459,19,16577.351752
-36.487352,20,16578.463482
-25.79917,19,16579.844091
-23.984107,19,16580.869149
-28.013581,19,16581.618226
-32.353443,19,16582.436496
-19.198751,19,16583.348648
-38.792985,17,16584.290748
-25.728506,20,19164.032161
-34.961662,18,19164.931637
-26.452577,18,19165.862344
-31.223881,19,19166.878069
-29.25978,19,19167.908638
-36.004602,18,19168.859479
-29.051121,21,19170.1504
-26.817102,19,19170.979346
-37.406033,22,19172.000352
-29.222145,19,19173.122479
-22.245197,19,19174.039502
-25.276603,19,19175.169116
-43.1047,18,19175.903866
-28.096755,19,19177.150332
-32.274339,19,19177.807846
-29.679256,19,19179.008174
-28.702786,20,19180.071912
-33.143892,19,19181.100013
-22.033368,19,19182.029952
-39.393504,20,19183.272241
-30.934523,19,19183.981637
-28.81845,23,19184.974619
-32.867844,20,19185.887926
-24.322915,18,19186.732396
-34.610321,19,19187.714358
-24.867424,18,19188.692366
-43.547115,19,19189.802732
-27.042512,18,21802.40614
-41.12473,19,21803.613607
-36.430469,19,21804.582119
-30.048965,26,21805.934012
-29.967706,20,21806.892691
-24.833594,19,21807.812537
-34.727724,20,21808.545019
-32.876633,20,21809.313266
-37.965863,19,21810.210658
-37.176555,19,21811.046454
-31.06098,20,21812.263242
-16.4187,20,21813.525844
-32.98446,20,21814.331899
-35.252851,19,21815.320365
-36.983847,19,21816.275331
-20.779898,21,21817.751119
-39.101284,19,21818.790758
-33.074468,19,21819.887562
-36.894625,20,21821.095443
-36.766771,18,21821.967158
-38.804791,19,21822.810709
-36.735323,21,21823.868365
-27.763805,20,21824.970373
-24.797883,20,21826.241135
-24.038889,25,21827.829051
-28.807907,18,21828.689919
-35.35376,23,24610.737241
-16.481002,20,24611.762047
-39.994064,27,24613.21203
-37.8887,25,24614.722426
-29.752396,17,24615.936422
-24.726297,20,24616.710963
-30.11184,17,24617.60458
-27.593131,20,24618.814426
-15.084909,23,24619.974988
-24.057691,19,24621.1898
-20.273064,20,24622.242069
-43.183399,18,24622.950087
-23.66689,20,24624.095297
-26.963907,19,24624.813277
-16.149961,18,24625.678194
-30.010163,20,24626.55224
-38.966788,18,24627.299048
-34.619626,18,24628.460933
-34.596324,19,24629.746811
-29.278087,19,24630.556279
-33.931896,18,24631.703636
-18.435982,21,24632.72418
-24.96169,18,24633.757121
-28.625406,19,24634.594041
-27.287052,18,24635.918121
-35.391077,22,24637.038096
-28.332735,18,27701.197271
-27.114858,19,27702.032221
-29.825159,19,27702.970191
-36.567768,20,27703.863471
-34.888046,19,27704.838764
-29.467777,18,27705.518442
-17.604261,22,27706.682784
-27.240336,19,27707.71452
-31.480478,29,27709.160199
-28.84456,25,27710.427579
-26.442922,18,27711.35173
-29.788861,20,27712.292241
-21.025737,21,27713.026113
-39.627498,23,27714.15243
-23.099555,19,27715.351973
-30.253928,19,27716.599552
-25.655552,18,27717.555731
-25.342635,30,27719.027643
-27.314012,19,27720.243964
-35.257357,18,27720.952682
-21.813498,22,27721.984056
-36.300197,20,27723.186992
-28.945701,20,27724.366743
-24.826414,18,27725.118534
-20.616005,17,27725.780612
-22.856058,19,30210.259218
-19.024133,20,30210.915021
-27.46108,22,30211.632672
-34.986493,25,30212.545448
-26.021371,29,30213.496685
-25.088802,19,30214.111463
-27.018604,19,30214.855439
-19.532098,18,30215.40097
-19.223891,19,30216.227954
-32.740868,20,30217.006147
-25.558373,24,30217.84815
-25.7007,20,30218.5058
-22.322405,18,30219.099593
-28.953436,23,30220.190553
-36.710221,19,30220.959645
-23.805011,19,30221.833014
-22.046723,19,30222.423747
-29.371177,19,30223.110502
-34.552466,19,30224.145157
-25.355482,19,30224.866589
-19.410525,19,30225.476176
-21.956646,20,30226.300068
-23.153826,29,30227.184303
-19.853926,18,30227.916166
-33.226307,19,30228.714388
-24.44581,20,32426.911631
-24.087192,20,32427.568135
-17.669787,18,32428.291679
-17.325806,20,32428.993792
-17.880808,19,32429.674479
-21.725184,21,32430.336502
-16.058552,19,32431.044198
-21.091815,20,32431.635586
-25.488117,21,32432.46247
-18.982446,19,32433.005841
-31.987743,19,32433.555882
-20.436007,23,32434.226891
-23.059736,19,32434.85728
-20.191067,20,32435.66589
-30.239924,19,32436.379811
-34.787496,19,32436.928859
-30.837501,20,32437.630833
-26.546584,20,32438.23438
-18.563377,20,32438.939917
-19.521828,20,32439.60413
-13.744377,20,32440.271806
-25.476543,21,32440.979054
-24.979316,19,32441.511053
-19.98068,19,32442.057847
-20.676951,20,32442.647003
-20.227621,19,34175.100403
-23.536962,19,34175.694895
-26.131747,20,34176.271524
-22.514676,18,34176.824961
-31.609987,15,34177.263133
-28.099754,18,34177.758771
-21.711242,20,34178.354747
-22.321024,19,34178.984236
-25.254651,20,34179.574793
-19.765732,18,34180.170257
-21.55787,20,34180.805533
-25.039793,19,34181.250206
-26.573306,19,34181.710144
-21.569746,19,34182.127239
-29.405343,20,34182.595395
-18.634541,19,34183.025225
-15.020293,20,34183.523373
-27.730127,18,34183.863265
-24.041888,18,34184.32211
-23.675158,21,34184.833089
-28.088599,20,34185.338166
-19.064611,19,34185.817559
-33.912941,19,34186.268077
-15.944682,18,34186.726542
-28.593892,20,34187.269672
-31.851491,19,34187.782636
-14.56253,20,34188.311752
-29.911699,19,35651.757056
-22.583259,19,35652.230754
-18.583058,20,35652.834951
-24.629226,20,35653.319828
-18.749352,18,35653.84592
-19.566323,20,35654.38997
-20.082963,20,35655.102542
-19.978764,19,35655.580993
-22.124998,23,35656.32951
-28.397157,19,35656.866433
-18.723146,20,35657.427568
-19.457935,20,35658.040982
-38.822242,19,35658.666604
-28.267402,20,35659.207991
-14.208773,19,35659.745028
-34.386571,18,35660.259823
-18.230664,22,35660.903968
-36.648994,14,35661.312762
-18.618174,20,35661.935573
-22.542274,19,35662.426964
-12.917827,26,35663.073295
-16.066168,19,35663.684917
-21.267929,20,35664.163465
-14.209564,20,35664.783353
-30.15115,18,35665.17807
-14.387806,19,35665.724529
-50.19392,43,37125.77128
-13.093034,20,37126.394855
-23.910949,17,37126.868867
-22.026481,19,37127.378515
-16.52286,20,37127.979275
-19.541367,19,37128.573974
-27.894565,20,37129.13329
-21.086014,19,37129.598148
-20.61769,20,37130.176704
-24.564493,19,37130.705611
-19.395916,18,37131.220765
-22.124565,19,37131.794739
-22.906091,22,37132.496035
-11.646775,20,37133.110138
-21.851679,19,37133.659262
-27.757453,19,37134.157887
-10.689863,19,37134.740428
-21.892248,21,37135.452013
-21.240634,20,37136.010148
-11.675916,20,37136.596769
-16.968255,19,37137.134737
-26.437145,24,37137.852531
-27.091898,24,37138.629859
-17.152007,20,37139.192722
-14.937695,23,37139.995758
-22.730262,19,38482.748906
-21.606552,21,38483.201248
-24.297725,18,38483.553503
-24.322359,22,38483.977246
-23.278469,18,38484.350537
-22.447992,21,38484.826758
-28.820973,21,38485.253584
-23.576923,20,38485.645682
-11.990133,20,38486.102029
-19.68014,18,38486.682137
-24.633355,20,38487.299761
-9.479595,22,38487.946489
-24.884362,20,38488.411679
-30.651787,18,38488.826049
-19.018571,21,38489.372125
-17.877228,20,38489.918033
-19.356831,20,38490.43936
-20.507818,22,38491.074833
-14.068619,20,38491.654317
-16.635185,19,38492.203468
-20.688228,22,38492.777772
-31.905145,22,38493.393898
-15.867948,19,38493.916541
-22.277931,20,38494.523752
-20.400943,20,38495.094844
-24.898468,19,39643.83486
-22.655343,19,39644.215497
-15.867889,19,39644.681539
-13.886584,19,39645.085992
-16.252694,22,39645.555261
-20.219533,21,39646.089293
-22.066348,20,39646.598131
-31.259987,18,39647.030654
-29.545846,19,39647.429814
-18.089651,19,39647.747007
-18.889614,20,39648.138375
-19.596171,19,39648.542376
-13.27844,20,39648.92957
-22.64494,20,39649.276161
-25.425664,20,39649.647455
-23.957667,19,39649.989137
-23.531761,19,39650.358449
-19.795378,19,39650.753373
-18.759418,19,39651.090036
-13.507684,20,39651.480356
-17.157231,21,39651.971571
-14.910434,22,39652.539675
-23.137127,19,39652.983715
-17.481754,20,39653.524354
-14.904313,19,39653.965858
-12.407979,24,39654.530773
-13.054345,19,40729.219441
-15.437922,20,40729.665801
-29.361849,18,40730.062513
-17.770681,19,40730.424444
-19.777491,18,40730.784631
-30.901846,19,40731.069379
-10.063909,19,40731.400888
-23.636306,24,40731.861526
-11.913378,21,40732.25772
-20.567718,19,40732.532328
-19.944748,19,40732.845756
-29.6702,20,40733.250186
-15.001126,19,40733.656691
-11.171697,19,40733.999099
-28.441202,18,40734.359605
-23.739968,18,40734.666769
-27.658155,20,40735.029022
-19.141238,17,40735.431223
-17.365665,24,40735.942927
-11.874273,20,40736.411579
-11.814175,19,40736.822667
-24.433089,19,40737.236466
-24.90163,20,40737.728403
-17.143588,20,40738.154049
-17.149175,19,40738.626667
-17.270145,20,40739.132261
-22.055743,20,41812.581432
-28.775731,19,41813.028292
-23.131796,20,41813.579709
-15.321548,20,41814.096629
-19.828132,19,41814.559852
-16.899947,19,41814.978972
-19.549249,17,41815.428235
-20.785105,19,41815.936589
-18.682848,19,41816.377561
-15.756416,20,41816.815624
-16.212547,20,41817.171152
-20.844772,19,41817.512169
-12.848416,19,41817.925829
-22.039371,20,41818.264913
-10.855837,22,41818.755224
-20.933082,20,41819.121934
-24.310302,21,41819.489974
-12.653778,20,41819.903748
-29.15335,21,41820.294515
-14.556663,22,41820.732437
-19.870945,20,41821.200791
-17.147004,18,41821.650596
-22.254206,19,41822.10802
-21.721252,19,41822.55184
-27.054646,16,41822.942762
-11.346037,19,41823.349675
-11.170864,24,42895.943605
-17.816864,19,42896.38239
-24.355008,17,42896.79199
-13.803978,20,42897.293479
-12.179397,20,42897.708125
-17.681075,19,42898.15335
-23.198568,17,42898.537731
-13.609795,18,42898.935295
-14.670345,19,42899.36807
-19.427302,18,42899.911469
-24.410397,18,42900.353895
-9.526746,21,42900.900622
-20.817322,19,42901.307523
-8.822588,20,42901.766172
-20.319356,20,42902.313908
-17.243158,20,42902.704886
-22.237067,20,42903.117337
-19.854079,19,42903.47996
-21.608246,19,42903.812794
-18.346591,20,42904.231047
-32.907481,20,42904.619146
-16.955613,25,42905.049342
-26.064584,19,42905.427585
-24.287586,19,42905.72752
-15.36551,20,42906.120757
-23.36304,18,42906.44381
-15.078912,19,42906.801404
-11.792666,21,43981.860919
-17.104013,19,43982.367576
-23.260546,18,43982.782201
-19.411456,19,43983.182399
-22.66216,21,43983.704807
-20.774939,20,43984.166558
-20.915252,20,43984.660664
-5.98778,21,43985.19209
-10.847493,18,43985.668233
-10.720546,21,43986.138234
-13.340296,20,43986.475105
-17.765244,18,43986.777053
-15.66409,20,43987.169552
-13.49335,20,43987.566995
-16.831604,21,43987.915623
-21.438347,20,43988.315313
-21.402239,19,43988.612408
-18.358873,20,43988.992561
-14.010848,20,43989.349234
-22.439598,18,43989.654069
-20.93628,28,43990.194743
-13.119406,26,43990.804293
-15.113242,19,43991.196424
-19.141295,19,43991.608574
-18.414067,19,43992.093433
-13.556591,17,45066.562679
-17.067637,17,45066.972458
-21.533299,18,45067.37144
-15.195974,19,45067.821164
-16.978501,18,45068.209469
-18.557647,18,45068.628743
-15.892631,19,45069.08324
-22.045869,20,45069.579412
-31.362572,20,45070.001911
-16.253554,20,45070.378125
-24.922635,19,45070.722087
-14.709193,19,45071.13209
-15.920026,19,45071.50519
-10.80956,22,45071.908136
-7.198585,20,45072.275223
-20.235793,19,45072.689393
-16.27842,20,45073.035267
-13.101848,19,45073.440617
-20.775395,18,45073.804037
-18.570696,20,45074.186379
-16.002341,20,45074.694938
-30.693786,24,45075.276107
-14.487134,19,45075.745846
-11.694965,19,45076.15935
-24.126655,19,45076.610716
-20.447229,20,45077.097621
-12.807396,19,45077.565849
-22.207827,19,46150.970068
-13.836723,18,46151.379646
-15.717748,19,46151.840396
-14.03559,20,46152.280735
-12.668947,19,46152.691232
-12.358039,19,46153.047553
-17.496198,19,46153.418075
-20.876856,20,46153.810595
-18.659386,23,46154.220579
-19.227843,19,46154.546502
-12.540753,18,46154.982684
-23.991317,19,46155.274278
-14.164447,19,46155.599404
-20.761787,20,46155.932511
-20.89102,18,46156.210264
-12.404352,20,46156.614146
-7.981071,20,46156.981138
-15.68372,30,46157.530934
-11.211586,19,46158.005841
-18.409197,22,46158.567446
-8.757539,20,46159.041742
-19.814589,19,46159.481121
-12.563859,20,46159.937649
-17.629531,20,46160.4307
-18.957375,20,46160.942695
-15.348658,18,46161.376937
-10.460303,20,47235.510864
-12.047983,21,47235.996988
-20.871108,20,47236.454321
-9.576228,24,47237.002265
-10.587478,19,47237.460087
-9.983462,19,47237.971705
-5.132277,23,47238.427817
-16.371608,20,47238.845385
-5.783462,20,47239.246035
-9.585987,19,47239.578968
-11.682084,19,47239.94615
-16.37668,22,47240.369705
-9.810604,20,47240.686333
-12.631048,22,47241.067827
-28.413138,21,47241.409784
-14.875623,19,47241.703089
-11.455529,18,47241.983706
-13.292986,19,47242.310833
-11.781276,19,47242.684892
-16.013176,19,47243.084938
-13.162692,20,47243.567091
-16.538699,20,47243.991158
-7.889312,18,47244.373221
-13.998715,19,47244.843865
-15.897774,20,47245.317569
-12.102636,19,48316.614823
-11.694043,21,48317.200422
-9.135171,20,48317.759638
-25.034583,19,48318.228697
-15.225757,19,48318.710488
-12.246806,24,48319.310865
-10.156713,19,48319.804654
-13.240097,19,48320.287272
-14.472248,20,48320.850395
-15.853554,19,48321.399991
-10.017654,21,48321.940301
-9.951204,20,48322.462763
-11.922474,23,48322.937352
-15.617014,20,48323.325778
-18.206319,20,48323.746313
-13.663511,19,48324.131622
-8.538989,20,48324.48047
-11.807452,21,48324.852556
-16.357551,19,48325.327524
-14.617269,19,48325.668586
-8.195295,21,48326.092715
-14.248326,20,48326.536411
-8.663266,19,48326.910809
-6.197933,21,48327.299871
-17.813434,22,48327.749988
-7.790321,20,48328.309857
-12.091164,19,49392.52009
-2.602881,21,49393.043448
-16.05236,19,49393.500119
-4.217093,22,49394.077479
-15.406977,19,49394.556618
-13.838478,20,49395.095104
-14.616513,19,49395.556458
-9.216768,22,49396.074551
-11.166639,19,49396.493451
-7.020567,18,49396.931437
-8.658754,24,49397.46062
-10.729897,20,49397.939762
-11.601125,19,49398.37321
-9.211974,17,49398.760289
-13.297546,19,49399.119768
-8.888491,20,49399.558145
-9.803573,19,49399.881479
-9.349254,20,49400.255998
-10.266647,19,49400.588149
-9.191719,19,49400.986014
-19.068974,19,49401.326523
-15.824124,18,49401.637157
-11.784857,21,49401.992664
-11.794405,19,49402.350987
-12.880375,18,49402.691978
-16.820251,18,49402.968796
-14.548568,20,50420.848267
-7.498851,19,50421.107569
-6.12089,18,50421.382854
-21.720398,29,50421.827743
-10.575824,20,50422.126884
-10.558309,19,50422.418258
-13.722106,19,50422.722126
-14.195408,24,50423.098973
-8.027863,19,50423.415862
-9.905735,19,50423.739795
-8.388101,23,50424.106185
-18.759253,18,50424.364795
-19.070272,17,50424.647312
-17.470844,20,50424.999941
-19.149005,19,50425.307427
-7.382565,19,50425.653972
-16.99149,19,50425.961453
-4.910356,20,50426.320685
-2.233413,20,50426.624816
-14.249168,19,50426.931572
-7.847654,21,50427.289999
-9.884937,19,50427.601086
-12.680845,21,50427.92119
-10.392088,20,50428.23597
-19.426957,22,50428.596101
-18.731526,18,51339.346956
-15.086495,19,51339.612573
-13.110909,20,51339.926912
-7.989515,19,51340.16675
-11.480476,19,51340.459986
-14.886962,22,51340.807222
-12.007972,20,51341.120744
-10.769818,20,51341.408382
-15.319023,19,51341.701697
-8.272661,20,51342.014642
-13.339231,19,51342.278895
-4.874403,21,51342.58611
-16.919256,20,51342.930756
-9.732043,20,51343.222188
-13.157747,19,51343.504998
-5.011678,19,51343.790727
-17.541254,21,51344.127977
-6.421181,20,51344.418957
-6.00412,19,51344.691377
-11.700018,19,51344.979773
-7.840091,19,51345.346213
-12.538599,19,51345.658747
-4.032576,21,51346.010348
-11.170344,19,51346.3268
-11.389673,19,51346.669257
-12.012861,19,51346.950212
-4.346867,20,52256.825118
-14.270681,19,52257.13526
-10.851255,20,52257.442553
-13.924396,21,52257.759322
-7.997598,20,52258.117218
-18.771212,19,52258.406079
-18.636259,19,52258.716938
-20.401488,20,52259.036798
-9.047015,18,52259.366562
-11.659463,22,52259.709558
-14.796516,19,52260.021534
-19.534743,19,52260.315041
-22.994014,20,52260.658246
-10.938632,21,52260.98037
-11.036062,20,52261.252679
-11.941936,20,52261.561416
-9.015807,20,52261.86214
-11.284739,19,52262.142773
-5.411657,20,52262.454821
-8.672241,19,52262.798924
-5.533903,20,52263.134683
-14.9944,20,52263.444837
-11.349728,19,52263.737244
-14.027431,19,52264.071187
-7.185473,20,52264.371104
-8.44583,20,52264.675966
-8.97279,21,53174.919804
-14.451357,20,53175.255047
-9.941636,22,53175.577404
-12.176835,18,53175.821193
-9.672495,19,53176.134298
-16.743753,18,53176.455424
-11.137521,19,53176.763948
-3.590393,19,53177.046745
-11.547106,21,53177.355826
-14.53732,20,53177.715211
-13.34732,21,53178.0357
-15.534308,19,53178.313889
-4.698946,22,53178.697093
-14.699576,20,53179.043986
-14.93158,22,53179.379815
-6.855181,20,53179.686738
-7.450877,20,53180.021637
-15.601398,23,53180.379956
-14.801208,19,53180.696669
-14.249182,18,53181.030894
-3.814513,21,53181.343679
-16.703005,19,53181.631791
-19.246678,30,53182.131909
-12.547232,20,53182.482292
-8.831889,19,53182.745933
-20.691024,17,53183.044817
-20.068491,19,54095.153544
-13.374587,19,54095.46179
-13.337038,21,54095.770863
-6.734657,20,54096.072799
-7.724118,21,54096.40477
-8.207657,23,54096.768638
-11.072689,22,54097.094046
-16.552065,17,54097.340287
-11.40927,19,54097.677353
-11.410396,22,54098.019376
-5.99295,19,54098.320152
-12.999523,24,54098.68526
-8.991201,20,54099.021003
-11.812728,20,54099.359459
-14.078263,20,54099.680482
-15.567148,23,54100.054445
-16.540463,21,54100.39482
-6.424465,21,54100.717594
-13.682602,21,54101.087133
-2.703883,19,54101.401662
-10.505021,20,54101.739718
-6.95931,20,54102.031729
-4.353157,20,54102.350263
-10.464713,18,54102.661838
-12.871596,19,54102.970334
-13.595684,20,54926.639599
-10.198166,20,54926.86553
-11.885765,27,54927.137726
-4.662382,19,54927.354428
-8.717376,21,54927.58514
-15.753444,23,54927.840412
-4.017192,21,54928.081166
-7.847555,26,54928.358531
-9.008754,24,54928.615621
-8.655434,21,54928.817473
-14.906883,21,54929.053198
-14.598165,22,54929.276193
-15.170241,19,54929.479538
-8.122155,20,54929.701056
-13.679034,20,54929.91078
-21.684769,18,54930.131132
-8.349479,19,54930.34323
-12.990979,20,54930.547938
-20.549956,19,54930.737813
-11.820846,21,54930.934518
-10.421958,22,54931.175196
-6.377554,24,54931.464415
-11.541413,19,54931.675258
-10.346953,20,54931.879497
-6.055681,19,55720.000893
-6.331705,21,55720.244901
-5.850796,20,55720.450618
-7.739853,20,55720.644486
0.099149,20,55720.8485
-6.609901,20,55721.057436
-6.991638,20,55721.273206
-12.093467,20,55721.511262
-6.676119,20,55721.702167
-6.977491,20,55721.908137
2.375235,20,55722.107915
-6.756083,23,55722.344398
-20.276056,20,55722.593763
-2.359927,21,55722.822891
-2.89008,20,55723.032899
-7.247061,19,55723.220479
-10.210777,21,55723.43975
-12.649877,20,55723.697272
1.379261,20,55723.932962
-13.053758,21,55724.174514
-13.184455,21,55724.37893
-9.208923,25,55724.643217
-14.36041,20,55724.890675
-9.033085,28,55725.170643
-10.829658,19,55725.374667
-7.691768,21,56659.462283
-8.176562,19,56659.981935
-10.336171,20,56660.413742
-11.860239,21,56660.861432
-3.781617,22,56661.33993
-8.858216,20,56661.776417
-7.54566,19,56662.245226
-9.711411,21,56662.783697
-13.907434,18,56663.148446
-11.613419,19,56663.676265
-2.558746,26,56664.309226
-7.07559,19,56664.766594
-7.748203,19,56665.224428
-2.332224,20,56665.671909
-7.023417,20,56666.257165
-11.903133,20,56666.742772
-5.694801,22,56667.304597
-5.55248,20,56668.042199
4.862401,23,56668.657212
-13.163939,20,56669.341964
-6.915354,20,56669.939618
-2.404246,20,56670.531033
-17.550543,19,56671.030506
-12.878678,21,56671.600444
-6.482628,24,56672.229591
-10.715259,19,57759.50516
-10.27621,19,57760.059119
-8.67025,20,57760.515558
-15.970739,18,57760.935379
-9.893875,20,57761.540293
-11.285985,20,57762.038044
-7.032434,19,57762.454074
-9.59832,19,57762.964264
-15.739901,19,57763.464928
-8.626164,22,57763.97108
-12.837876,21,57764.559502
-1.689829,20,57765.079272
-6.419126,19,57765.547072
-3.940956,20,57766.066078
-8.289363,23,57766.793994
-2.747382,20,57767.490817
-9.582991,21,57768.21989
-9.830392,23,57768.890495
-6.417293,20,57769.418746
-6.27811,20,57769.992688
-10.428684,20,57770.539923
-2.426059,20,57771.13069
-2.644388,19,57771.872132
-3.451158,20,57772.454401
-20.341511,20,57773.17569
-6.934782,21,58856.6401
-3.201819,21,58857.158353
-8.4919,20,58857.73717
-3.58584,20,58858.281893
-18.372072,18,58858.81186
-10.174979,26,58859.509671
-6.378998,22,58860.131038
-14.210733,21,58860.66097
-11.665899,20,58861.182967
-3.587614,20,58861.730147
-2.022302,21,58862.352813
-4.018548,20,58862.947815
-6.704835,18,58863.440459
-12.036331,24,58864.083416
-7.929761,20,58864.765324
-9.794056,20,58865.467113
-12.943586,19,58866.0761
-2.884,22,58866.667737
-7.228824,19,58867.173604
-21.122378,19,58867.698381
-8.978348,18,58868.236765
-3.261258,20,58868.782395
-8.50384,21,58869.339343
-6.876164,19,58870.108149
-8.947277,19,58871.018478
-1.859855,22,59961.431862
-19.925456,20,59961.997736
-9.318961,21,59962.547688
-0.922743,24,59963.259563
-11.110933,19,59963.846376
-10.871266,20,59964.495802
-11.638424,20,59965.285722
-8.303833,20,59965.870093
-1.417512,22,59966.468919
-16.549953,18,59966.950117
-7.631099,20,59967.490441
-7.369314,22,59968.090719
-11.67986,23,59968.857456
-8.416251,29,59969.720823
-8.64189,21,59970.25625
-3.181665,20,59970.790821
-9.336619,23,59971.46801
-3.014641,21,59972.1822
-5.886438,20,59972.818444
-11.795954,20,59973.430667
-8.395281,20,59974.018902
-5.226805,22,59974.75716
-6.818476,20,59975.474415
-6.59779,20,59976.020999
-6.632604,20,59976.683692
-6.474963,19,61061.077773
-8.461906,23,61061.733424
-10.794386,19,61062.519277
-6.014097,22,61063.120908
-9.739584,20,61063.678039
-2.6423,20,61064.189692
-15.868897,20,61064.717285
-3.917027,19,61065.220755
-1.068215,21,61065.779044
-12.778617,20,61066.343009
-12.125711,22,61066.96682
-14.193648,19,61067.791383
-4.004699,22,61068.461179
-14.060564,18,61068.965899
-4.679072,20,61069.524369
-15.685066,21,61070.133288
-12.344435,19,61070.721289
-8.766254,23,61071.411472
-1.377652,21,61071.981801
-15.571191,20,61072.60679
-14.027036,19,61073.177814
-7.441112,22,61073.78786
-7.87778,23,61074.360732
-7.042626,21,61074.938683
0.298842,21,61075.690083
-4.829899,19,62159.804623
-5.945654,22,62160.347818
-3.836115,21,62160.932483
-8.485304,20,62161.458624
-3.59675,20,62162.005505
-3.14176,20,62162.544137
-7.903554,22,62163.165861
1.800055,20,62163.694326
-10.657027,20,62164.365679
-4.940273,21,62164.934871
-12.672419,19,62165.447597
-2.227939,20,62166.000529
0.144408,27,62166.958329
-12.190431,19,62167.45724
-7.508103,19,62167.973751
-3.926414,20,62168.517655
-6.416566,20,62169.222928
-1.973549,20,62169.783784
-5.263959,21,62170.412847
0.113082,21,62171.014173
-4.740697,21,62171.553939
-14.701664,18,62172.062416
-8.68383,20,62172.57239
-8.342259,21,62173.187953
-3.167344,20,62173.736212
-5.229572,19,63262.421731
-6.092252,20,63262.981647
-4.725491,21,63263.500736
-10.275356,20,63264.016489
-1.423725,22,63264.555247
-2.036337,20,63265.03422
-5.258265,19,63265.47779
-7.582903,20,63266.049011
-9.552166,20,63266.51191
-8.236782,18,63266.96102
-1.90025,19,63267.444771
-11.295047,21,63268.017569
-4.675839,19,63268.567329
-8.794511,19,63269.036241
2.533455,21,63269.692242
-7.584221,19,63270.25429
-7.776725,20,63270.820519
-6.226696,20,63271.367117
-10.223425,20,63271.91548
-1.952607,20,63272.435624
-7.900196,19,63273.097922
-10.449022,21,63273.71674
-3.525458,20,63274.233095
-12.737044,20,63274.779953
-9.757557,21,63275.498526
-1.061731,20,64360.665996
-9.138591,22,64361.339402
-4.632472,21,64362.01071
-9.602526,22,64362.637241
-5.01898,19,64363.246324
-7.260425,20,64363.801335
-5.759568,25,64364.649158
-9.790927,20,64365.195807
-12.163438,20,64365.744654
-2.961981,19,64366.260798
-2.668092,21,64366.811903
-3.835449,25,64367.501436
-4.87757,22,64368.225753
2.826342,21,64368.831649
-7.318957,19,64369.377977
-15.214084,21,64370.239857
-6.606722,23,64370.89693
-8.849349,26,64371.593211
-3.024106,19,64372.068949
-13.647194,20,64372.641904
-2.219254,24,64373.271914
-3.961735,21,64374.021394
-2.156897,21,64374.615999
-6.851967,21,64375.159159
-11.670206,20,65464.143117
-1.545407,22,65464.759895
-4.006018,20,65465.321162
-12.199116,20,65465.872645
-10.704485,19,65466.393387
-11.750667,19,65466.910772
-6.395249,21,65467.481289
-6.104149,21,65468.08794
-8.505666,19,65468.586794
-5.50068,20,65469.100117
-10.607589,20,65469.644838
-5.579666,20,65470.185811
-4.528352,20,65470.737505
-5.83217,22,65471.338943
-6.860674,21,65471.919894
-8.141075,30,65472.741771
-1.792781,20,65473.295924
-7.486121,18,65473.747703
-4.949748,20,65474.327319
-9.073854,18,65474.814209
2.592215,20,65475.51484
-0.613926,20,65476.088783
-4.278577,22,65476.661674
-9.65481,20,65477.260753
-10.337987,23,65477.85846
-4.958731,30,66564.806281
-7.194969,20,66565.376883
-8.316696,21,66566.06504
-8.414416,20,66566.579255
-6.404567,25,66567.360928
-1.909193,19,66568.07529
-3.610371,20,66568.937082
-1.889047,20,66569.507004
-5.994318,19,66570.023746
-8.637464,23,66570.726234
-1.390233,21,66571.664349
-11.321725,22,66572.29867
-7.677467,20,66572.948794
-7.294989,19,66573.408041
-0.57616,20,66573.888389
-0.876356,20,66574.411299
-2.828069,20,66574.95294
-11.334736,19,66575.381864
-4.748394,21,66575.882202
-10.231193,20,66576.377347
-10.739827,24,66577.119049
-8.998134,20,66577.645401
-12.917872,20,66578.076363
-2.955954,25,66578.696231
-7.06918,21,67667.866904
-3.420606,20,67668.381759
-1.857911,22,67669.104646
-0.378805,21,67669.711609
0.258677,24,67670.307601
-5.224872,19,67670.830204
-4.802194,19,67671.27519
-7.697309,20,67671.829007
-3.881102,21,67672.478354
-5.766112,20,67672.980474
-9.23811,22,67673.605578
-4.48945,21,67674.424378
-7.956581,19,67675.020945
-2.880052,21,67675.557934
-7.744924,19,67676.242093
-4.004829,19,67676.72536
-3.199841,21,67677.485066
-2.712995,21,67678.353661
-1.205912,21,67678.960421
-10.643388,25,67679.723773
-3.690725,20,67680.335483
-8.756372,20,67680.878305
-13.026265,18,67681.404743
2.643225,21,67682.073066
6.058246,27,67682.945541
-0.424841,19,68766.336387
-1.305916,23,68766.990366
-6.01408,20,68767.491468
-3.3259,20,68768.038619
-14.626828,19,68768.511871
-10.476033,20,68769.040875
-5.28048,20,68769.466034
-14.027057,18,68769.976151
-5.33472,21,68770.4726
-4.946578,20,68770.967069
-6.537954,20,68771.433668
-6.946739,20,68772.039212
-11.545659,18,68772.452125
-5.501366,20,68772.948495
-4.985897,19,68773.414455
1.118568,20,68773.92518
-0.793455,23,68774.653844
-14.721179,20,68775.174334
-11.030834,21,68775.765881
-5.226956,19,68776.648749
-2.130961,22,68777.234471
-4.768889,20,68777.772252
-8.775714,21,68778.539494
5.122014,23,68779.271373
-2.968584,19,68779.992613
-7.694998,20,69871.62324
-5.044605,20,69872.103123
0.069432,22,69872.576418
-5.361808,20,69873.104326
-6.825184,20,69873.677502
-3.481967,20,69874.239969
-10.116128,20,69874.769981
-3.768987,20,69875.359535
-3.092651,21,69875.939759
-11.44365,19,69876.479352
0.804188,22,69877.048396
-0.679469,21,69877.598149
-7.038686,19,69878.106473
-14.415614,18,69878.662151
-4.434398,20,69879.265767
-5.384953,20,69879.754853
-8.428825,19,69880.269518
-10.237732,19,69880.810302
-3.844664,20,69881.510704
-8.233923,20,69882.062272
-4.679099,26,69882.827025
-3.825871,21,69883.417812
-3.073849,19,69883.922395
-3.99019,22,69884.558038
-5.554331,20,69885.139704
-4.205855,20,70972.116495
0.836906,22,70972.806599
-6.407319,23,70973.436813
0.396609,21,70974.027236
-2.630874,26,70974.913412
-0.194651,19,70975.396124
-18.994987,19,70975.905958
2.086134,20,70976.4439
-4.740533,21,70977.049219
1.983121,21,70977.619529
-2.170018,20,70978.133742
-1.478059,23,70978.791793
1.306826,20,70979.309581
-1.209188,24,70980.015589
-2.444137,20,70980.600877
-8.727668,19,70981.125171
-8.243286,22,70981.987396
-13.309478,20,70982.53102
-0.469971,19,70983.047036
-6.64547,19,70983.640961
1.282884,24,70984.418822
-4.351278,20,70984.961001
-2.175483,20,70985.503042
-4.753091,20,70986.049117
-7.23156,22,70986.757251
9.379565,23,72067.488035
-3.318609,21,72068.020104
-9.291773,21,72068.560419
-7.368529,20,72069.04256
-3.454445,21,72069.534911
-6.816124,21,72070.098587
-8.847071,19,72070.600976
-5.174605,20,72070.97814
-1.108836,21,72071.582319
-0.733351,21,72072.193325
-18.322434,20,72072.738687
-5.940992,23,72073.334393
1.005168,30,72074.401173
-2.064216,22,72075.353617
-5.566209,21,72076.005379
-16.585752,17,72076.517589
-3.286254,21,72077.186598
-3.62264,22,72077.824411
-2.909873,20,72078.385663
-2.263634,20,72078.939344
1.30021,22,72079.780389
-23.642435,19,72080.325808
-3.965018,20,72080.977353
-2.915731,21,72081.641604
0.02191,26,73167.558086
1.734773,21,73168.103853
-6.652114,21,73168.783429
-8.314889,19,73169.229487
-6.191226,26,73169.976306
-5.203437,20,73170.438809
-2.634784,21,73170.928703
-3.553721,22,73171.458434
-4.341555,21,73171.978578
-4.665,23,73172.529053
3.182542,20,73173.007845
-8.378562,21,73173.476033
-6.212965,22,73174.053595
-5.93293,19,73174.511276
-3.830262,21,73175.046008
-1.11588,20,73175.506332
-3.32765,20,73176.175833
-2.633887,20,73176.802143
2.014419,21,73177.371781
-0.915937,22,73178.036274
-2.530785,19,73178.670122
-11.195344,19,73179.188635
2.494014,21,73179.879399
-5.22882,20,73180.448384
-2.778827,21,74269.618816
-4.695466,20,74270.151052
-12.32961,21,74270.716588
-3.778838,21,74271.332416
2.852388,22,74272.039963
-6.876269,19,74272.675764
1.800154,21,74273.401333
3.025637,22,74274.152736
-3.699722,21,74274.790054
0.931041,21,74275.475923
-4.068506,20,74276.00914
-2.123109,20,74276.743671
-3.423233,22,74277.381864
-1.246048,22,74277.973908
2.28765,24,74278.593813
-5.740114,20,74279.158243
-5.680902,21,74280.015601
0.985896,21,74280.823125
-2.465284,22,74281.410764
-0.72918,24,74282.122248
4.894024,30,74283.089901
-0.646448,21,74283.757312
1.395556,21,74284.394364
-1.979598,24,74285.182147
1.254323,29,75274.017389
1.68494,22,75274.62234
-5.636644,24,75275.264738
-7.393444,22,75275.896789
-2.82315,20,75276.433021
-3.953426,20,75277.0084
2.03276,22,75277.598923
1.650836,21,75278.176683
-9.450903,21,75278.857724
-14.865833,19,75279.366357
-0.285214,26,75280.136633
-5.531322,21,75280.719094
-2.072583,23,75281.353726
-5.912323,21,75281.898712
-7.150365,19,75282.409596
-2.699348,22,75282.998496
-3.251105,21,75283.799435
-2.077796,20,75284.311923
4.123593,22,75284.943182
-0.622245,23,75285.693074
-1.405791,20,75286.308965
-6.368023,20,75286.884557
-3.641214,20,75287.386
-3.536708,20,75287.896185
-2.01343,24,76263.660385
6.918299,24,76264.503497
3.962571,24,76265.148335
-5.781093,23,76265.8645
-3.78863,22,76266.648821
-3.142308,20,76267.15751
5.82743,25,76267.815733
-4.89025,22,76268.39224
-4.073385,21,76268.942866
-5.62744,19,76269.455773
-2.533081,21,76270.25013
0.537629,20,76271.042693
-4.545322,22,76271.709208
-2.355374,22,76272.37892
4.927855,29,76273.12488
-3.572328,21,76273.808987
3.830005,22,76274.45066
-6.439,20,76275.068949
4.162643,21,76275.646536
-1.137458,20,76276.22728
-3.254482,24,76276.862297
-0.403735,23,76277.436407
-0.939857,22,76278.048338
-10.624342,19,77252.205914
-4.94182,20,77252.908423
-5.404119,18,77253.377191
0.769431,23,77254.07684
-3.820723,23,77254.734425
-1.017113,19,77255.247803
-5.579197,22,77255.840296
-3.621647,20,77256.363851
-3.814981,22,77256.943242
-10.205854,22,77257.537975
-4.674895,21,77258.041185
-2.259075,22,77258.57591
-1.285676,20,77259.126343
1.072885,21,77259.649353
-7.092318,19,77260.117478
-1.710227,19,77260.613123
1.7557,24,77261.240077
0.263989,22,77261.874576
2.50563,22,77262.444403
-5.51304,22,77263.17989
-9.78832,21,77263.74507
0.767397,26,77264.425081
-2.205656,21,77265.034484
-2.715718,22,77265.759483
0.439312,22,78238.78652
-7.346079,18,78239.291991
-1.084403,22,78239.900998
-3.451844,21,78240.463558
-0.696059,22,78241.019122
-14.246351,19,78241.532007
-0.075719,22,78242.145867
0.563653,20,78242.702984
-0.630472,20,78243.203993
-1.005123,26,78243.899832
-2.899725,24,78244.487005
2.915661,41,78245.694118
-0.614064,21,78246.273258
-1.268865,21,78246.864459
-12.288133,23,78247.738893
-6.777735,23,78248.37294
5.585099,27,78249.078006
-2.515447,19,78249.58737
5.629385,27,78250.266496
-2.676164,22,78250.876802
6.252885,22,78251.583973
-2.11873,23,78252.253031
0.085571,20,79222.774071
1.694128,24,79223.484984
-6.685835,19,79223.994502
1.809487,28,79224.896686
5.443348,24,79225.487766
2.805392,28,79226.217255
-2.485843,26,79226.949016
-2.21269,22,79227.564676
-4.590797,21,79227.99693
-0.34094,24,79228.605728
6.03104,23,79229.136071
-3.225573,21,79229.700591
2.433002,21,79230.194006
-2.850717,19,79230.595687
-0.784085,22,79231.063646
-0.06421,20,79231.555028
-16.714079,14,79231.820583
4.184491,22,79232.281401
-4.273203,21,79232.698274
-5.056445,20,79233.222372
1.21537,22,79233.67744
0.866801,26,79234.262274
-9.905688,21,79234.943979
-1.903671,25,80213.192704
2.863049,28,80213.955471
-10.691333,20,80214.616918
-6.595139,20,80215.176534
-5.320618,17,80215.616025
-6.746542,22,80216.279447
-7.28663,19,80216.851274
-2.44148,20,80217.380999
-0.229888,21,80217.89786
-3.566983,22,80218.484562
-0.787522,21,80219.088494
-7.82584,19,80219.589126
-10.767082,24,80220.304098
-3.754431,28,80221.071753
-2.45506,20,80221.525282
2.589128,23,80222.202035
-4.421393,20,80222.73325
-1.219285,20,80223.201548
-6.40453,21,80223.775963
2.039569,23,80224.427124
-2.892286,20,80225.022424
-6.733902,27,80225.753093
-3.356841,20,80226.397729
1.310691,25,80227.103871
-7.194708,20,81198.882935
-13.680562,20,81199.473176
-2.609128,22,81200.067941
3.359393,30,81201.095727
0.47604,21,81201.731341
5.364541,29,81202.562947
2.705624,21,81203.235061
-2.219644,21,81203.738252
-5.573689,22,81204.328118
-0.511634,22,81204.821138
1.627241,23,81205.307357
-5.065573,19,81205.701684
-1.844981,19,81206.110179
-3.23725,20,81206.521294
-0.121757,35,81207.337194
-3.725153,20,81207.742147
10.317906,29,81208.428943
4.670865,23,81208.97187
2.537503,21,81209.439286
-0.556417,25,81209.997848
-6.265447,22,81210.412745
3.892347,21,81210.979244
-6.096071,22,82132.18386
-9.51606,22,82132.663645
4.261344,33,82133.319946
4.650243,22,82133.706129
-4.930974,20,82134.074676
-2.271314,26,82134.522607
4.044606,24,82134.943862
-1.636225,23,82135.447576
2.496379,21,82135.875902
-6.475547,20,82136.328684
-4.93061,20,82136.880584
4.902547,22,82137.454527
13.452654,42,82138.466153
-9.301273,30,82139.21546
-2.173826,24,82139.763606
-4.981717,26,82140.355419
16.843265,30,82141.01358
-11.42794,25,82141.58679
-7.852286,18,82142.01268
-3.327142,23,82142.622059
-3.524562,20,82143.065985
-1.899329,21,83008.985403
-4.843076,20,83009.300937
-1.985504,21,83009.684886
1.358996,26,83010.094449
-4.967901,20,83010.42288
1.994253,25,83010.875814
3.289138,21,83011.226769
-3.240004,21,83011.597208
-3.12421,21,83012.004576
2.502456,22,83012.380615
-2.139386,22,83012.761844
2.118076,22,83013.084677
-4.447387,20,83013.426735
7.472572,31,83013.871
-3.84378,21,83014.232664
-5.665157,20,83014.564713
7.036587,29,83015.018639
1.703706,28,83015.451824
-8.577305,20,83015.723937
-4.20983,19,83016.024065
-4.962448,24,83016.43326
-6.927866,21,83016.850718
-2.632903,21,83017.187076
1.964654,27,83838.195921
-20.82309,19,83838.398553
-5.43782,24,83838.661444
-3.00422,23,83838.937068
-0.897907,21,83839.197713
-1.36507,25,83839.5006
-0.325843,18,83839.742089
-2.007845,21,83840.005213
-5.842914,20,83840.227027
-2.815333,20,83840.522454
-7.418529,19,83840.744282
-2.376166,20,83840.985764
12.74826,28,83841.310201
-2.432905,21,83841.585855
-0.013083,25,83841.893906
-10.650812,42,83842.412935
-0.096891,27,83842.706032
-6.441629,22,83842.966022
-4.77026,20,83843.182626
-5.362944,22,83843.404508
1.062343,21,83843.617405
-1.492503,24,83843.871152
2.004753,23,84631.235927
7.451936,34,84631.57832
2.642459,21,84631.81908
-6.364189,24,84632.083001
-0.752567,22,84632.329118
-0.617731,21,84632.549407
-0.489406,27,84632.852335
-1.9559,20,84633.074614
-0.495465,20,84633.282868
-8.76726,21,84633.499636
-2.676814,23,84633.758561
-2.764354,21,84633.990912
-4.022584,21,84634.217826
-0.472756,22,84634.436333
-5.893419,20,84634.6422
-3.709599,20,84634.84949
0.880104,23,84635.098246
19.002031,43,84635.544001
-7.693613,19,84635.728943
-3.925569,23,84635.952426
-8.676132,30,84636.284562
3.05486,21,84636.505761
-8.071369,21,85431.975434
-0.925356,22,85432.268819
-11.98418,20,85432.508176
-2.454886,20,85432.785117
-0.585491,20,85433.050303
-4.91625,19,85433.281025
-6.215178,31,85433.697026
-2.657172,25,85433.98292
-2.907591,20,85434.255091
-14.852871,17,85434.452985
-1.993532,23,85434.76097
-2.598958,24,85435.055697
-1.886098,21,85435.322139
7.238118,27,85435.639488
-22.154084,18,85435.891713
-5.15538,23,85436.178728
-6.46025,19,85436.439384
2.344249,19,85436.70099
-2.558657,21,85437.03707
4.09093,22,85437.344845
-2.581962,24,85437.668002
6.536255,34,85438.121672
-0.688444,21,85438.3951
-5.904153,18,86231.647808
4.349072,20,86231.896822
-2.730888,20,86232.106541
2.549366,22,86232.338649
0.87554,22,86232.558748
-7.837923,21,86232.783459
-1.677626,21,86233.036443
-3.075931,24,86233.280503
3.746054,21,86233.542044
-1.950596,27,86233.815005
6.752069,25,86234.078314
1.275137,24,86234.371927
2.483315,20,86234.60638
-3.547992,22,86234.826844
-1.448986,23,86235.074635
-3.818623,22,86235.352332
-2.38685,21,86235.587423
-0.493489,21,86235.803277
-3.551587,21,86236.028347
-9.997523,21,86236.245419
-2.754783,22,86236.515681
2.1552,22,86236.750054
0.022992,20,86236.949375
-1.92162,19,87024.796833
2.07288,19,87025.004818
-2.427363,22,87025.246886
1.497182,21,87025.456731
-2.199201,21,87025.670768
-5.01538,20,87025.897996
-4.396423,21,87026.146368
4.566067,22,87026.373166
2.357171,25,87026.64045
-0.150168,20,87026.853767
3.257073,22,87027.07952
-3.010422,20,87027.328123
-13.302342,19,87027.541329
-5.099312,17,87027.736774
1.872345,22,87027.996302
-1.661284,36,87028.418142
-0.816264,22,87028.66367
0.997563,22,87028.894875
-4.644928,20,87029.089541
-3.874518,22,87029.331702
-12.33304,18,87029.561573
-6.609395,24,87029.795255
2.924111,22,87030.026796
-6.109054,20,87030.236501
-1.007987,21,87826.716916
-5.274203,20,87826.854424
-0.38011,21,87826.994029
-6.124073,21,87827.143789
-13.800961,31,87827.365081
-5.19793,20,87827.502517
-0.748075,20,87827.644831
0.620558,24,87827.810366
0.886475,23,87827.969071
-5.860268,28,87828.16011
-3.845972,21,87828.300901
-10.524877,18,87828.424658
-10.18604,28,87828.615506
3.386963,19,87828.744637
-3.504878,20,87828.883375
-1.365823,20,87829.021229
3.375542,24,87829.187155
1.475664,26,87829.356716
-0.953191,22,87829.511357
-5.760376,20,87829.647772
-9.067885,19,87829.772393
-9.342878,23,87829.933158
-17.065233,18,87830.0556
3.451519,29,88577.776212
2.716034,29,88577.977988
-1.788554,20,88578.112003
3.706085,21,88578.253881
-3.151288,28,88578.443683
-2.690679,22,88578.599092
-2.049091,22,88578.735087
-3.119105,21,88578.869999
-4.374954,22,88579.018584
-3.092201,20,88579.145189
-3.352021,25,88579.31189
-1.671268,21,88579.464839
-1.272412,20,88579.598645
-4.280752,19,88579.725117
9.098151,25,88579.893978
-10.146074,22,88580.042992
1.505747,27,88580.227007
1.630425,25,88580.380475
-8.592354,18,88580.504512
-0.105883,23,88580.657618
-4.620983,31,88580.866626
-9.160565,18,88580.986277
-5.594081,19,88581.112908
3.974706,21,89327.95019
3.1655,23,89328.100678
-6.857037,20,89328.237114
1.875874,19,89328.37008
1.734411,20,89328.501806
4.345699,25,89328.672968
-6.391461,25,89328.845079
-5.626951,20,89328.985044
-10.095711,26,89329.154787
4.106471,27,89329.334135
-8.373709,27,89329.51379
5.025383,21,89329.649923
-2.874768,20,89329.793398
-5.003125,29,89329.990168
-1.171064,20,89330.125746
2.417666,22,89330.277812
-2.551192,21,89330.421259
8.406361,33,89330.646794
-0.84237,21,89330.782501
-1.436477,20,89330.92055
-7.000443,19,89331.051184
-2.866562,24,89331.21482
2.439587,20,90083.336494
-8.749156,21,90083.472649
2.823518,26,90083.645191
-10.424993,21,90083.789668
-1.964793,19,90083.924363
1.949779,20,90084.057603
-2.19237,22,90084.20906
3.041006,23,90084.358273
-7.407354,24,90084.515531
3.0219,22,90084.673694
-2.669851,20,90084.80469
-10.492979,20,90084.938283
-2.118137,21,90085.089736
1.251827,23,90085.246414
3.354025,32,90085.472072
-5.341549,19,90085.59749
-8.31065,19,90085.735397
2.205018,23,90085.891845
2.9776,21,90086.033869
0.138353,20,90086.17376
6.819198,24,90086.342633
10.403498,29,90086.541554
-0.586945,20,90086.679263
-2.450194,20,90845.76676
7.566562,24,90845.916871
-1.775325,19,90846.043904
4.19226,24,90846.214609
0.759487,22,90846.362905
5.53838,27,90846.545697
-2.927268,20,90846.68323
1.233965,30,90846.881016
-2.449418,21,90847.019407
-1.170299,24,90847.187656
4.092387,24,90847.342264
7.599166,22,90847.492298
2.714892,22,90847.64157
2.341172,22,90847.791406
3.464686,26,90847.977781
-8.325094,22,90848.127379
0.202702,20,90848.275788
-10.96596,19,90848.405576
-2.753634,22,90848.54816
-4.591113,25,90848.7216
-13.003354,19,90848.854421
0.372606,21,90849.008175
0.676359,20,90849.142226
-1.765798,25,91618.440697
-7.22753,21,91618.578687
0.314563,23,91618.728621
-1.91478,20,91618.868011
-6.853035,22,91619.010857
-5.61791,23,91619.168447
0.611168,19,91619.285519
3.758943,23,91619.442626
2.373909,20,91619.580415
-0.130379,20,91619.720379
-2.569864,26,91619.896039
1.062647,20,91620.039063
-4.275467,20,91620.174691
-4.677761,24,91620.333651
1.054121,20,91620.472267
0.777114,27,91620.663232
4.487843,27,91620.847973
0.187984,32,91621.062661
-2.569294,18,91621.185662
-2.007613,23,91621.357026
-16.95786,17,91621.476074
1.223362,22,91621.629123
-1.335779,22,91621.777596
-5.436031,22,92368.15963
-9.997161,24,92368.326111
-5.811481,22,92368.476613
-23.398323,19,92368.621652
-6.99472,21,92368.757508
7.303221,26,92368.928598
3.997057,20,92369.05861
3.332511,22,92369.207175
9.105005,33,92369.433208
4.97745,27,92369.618183
-3.643311,25,92369.786252
-1.455172,21,92369.92616
-3.680445,21,92370.065772
-4.901014,19,92370.183419
-4.278706,21,92370.322437
6.848096,20,92370.457077
-2.996226,27,92370.642189
-0.624018,21,92370.779655
-5.26669,20,92370.912488
-2.816839,21,92371.055607
3.892472,23,92371.204359
-9.768279,20,92371.343787
3.367798,21,92371.486526
-0.65949,20,93141.923729
4.702727,19,93142.059643
-5.658585,19,93142.19407
-0.728894,32,93142.399117
5.318579,27,93142.583241
-22.163436,18,93142.710253
-0.773315,22,93142.8666
-0.774622,30,93143.055775
-10.134881,18,93143.176986
-14.479124,18,93143.294031
0.244616,22,93143.439618
-3.500835,21,93143.587584
-3.501838,21,93143.730631
4.562367,32,93143.950263
2.624669,23,93144.100308
-3.057195,24,93144.265146
6.050958,25,93144.438916
-11.362346,18,93144.551534
7.470969,28,93144.736915
2.463646,24,93144.898452
-9.216036,23,93145.059201
-4.657462,19,93145.18311
-0.56466,20,93984.679011
-2.30869,20,93984.847471
0.981969,23,93985.046568
1.230405,26,93985.267333
-0.133974,20,93985.442822
-8.45178,18,93985.598395
-1.994918,19,93985.773074
-1.569045,21,93985.962956
2.044974,22,93986.160068
-1.938125,19,93986.322399
-5.860969,20,93986.496328
-3.14014,20,93986.675565
-8.657237,19,93986.854822
2.48468,23,93987.079091
-0.510862,26,93987.299394
-1.496391,23,93987.493778
-0.419495,19,93987.662643
1.316979,21,93987.855118
-0.745321,20,93988.036318
8.168002,30,93988.320353
-0.057552,20,93988.50267
2.155618,24,93988.712347
8.916605,31,93988.980501
