# {"t_start": 1552316361.9972034, "env_id": "KungFuMasterNoFrameskip-v0"} 
r,l,t1200.0,1165,140.097445
100.0,630,203.567788
1700.0,1092,328.093491
3900.0,1392,487.423585
4100.0,1500,655.729105
10700.0,2291,904.082673
9400.0,1917,1116.33639
13300.0,2362,1391.547179
14200.0,2240,1640.113671
5800.0,1662,1825.611218
6200.0,1929,2044.02941
11300.0,2560,2327.584949
10600.0,2366,2602.233523
7600.0,1749,2795.382469
6800.0,2074,3028.832237
5200.0,1551,3204.394791
9400.0,2422,3473.906901
4300.0,1654,3653.540781
7800.0,2052,3880.643344
10900.0,2753,4190.712986
7400.0,1980,4404.10778
10600.0,2454,4684.377293
4900.0,1500,4843.937102
10100.0,2488,5126.036747
8600.0,2303,5389.597458
11200.0,2690,5687.353315
11000.0,2929,6005.013787
5500.0,1762,6202.178741
11500.0,2561,6489.485797
9300.0,2455,6768.147146
11400.0,2149,7007.880949
10000.0,2252,7253.027656
11200.0,2579,7542.220757
11300.0,2504,7819.267743
13300.0,2858,8141.526937
7900.0,1949,8354.992735
13500.0,2884,8672.966902
10100.0,2287,8937.742387
9300.0,2394,9209.081018
10200.0,2348,9470.55443
9500.0,2214,9712.124497
13200.0,2782,10028.402649
14900.0,2942,10353.722259
9100.0,2529,10641.358444
12400.0,3114,10994.395253
4600.0,1634,11179.161568
3800.0,1514,11353.495897
18700.0,3592,11746.940941
6000.0,1881,11959.236882
15400.0,3414,12346.2597
5800.0,1860,12556.999137
3200.0,1340,12704.982946
9900.0,2637,13003.358346
7200.0,1847,13211.613884
7400.0,2023,13443.86813
9500.0,2516,13720.340672
6300.0,1696,13916.496654
7000.0,1980,14134.183335
5700.0,1592,14322.766612
11300.0,2535,14600.441713
15100.0,3211,14965.269796
6500.0,2049,15191.124887
11000.0,2598,15484.680857
9900.0,2555,15764.272193
14400.0,3211,16127.760915
18500.0,3818,16550.781339
9900.0,2578,16852.493478
10500.0,2777,17167.892366
7400.0,2182,17422.227391
6500.0,1964,17647.161471
8200.0,2153,17889.9907
10600.0,2436,18159.828714
11000.0,2708,18460.921607
12200.0,2614,18759.051253
13600.0,3044,19105.860768
11700.0,2599,19425.457236
5400.0,1570,19613.330178
13500.0,3106,19985.947773
12800.0,2874,20376.853897
11100.0,2655,20724.43205
10600.0,2513,21046.278446
12400.0,2712,21404.645453
16600.0,3760,21920.322327
16300.0,3160,22343.790854
8500.0,2200,22644.817505
11800.0,2752,23031.076231
11900.0,2770,23403.762678
10100.0,2504,23733.311559
12000.0,2570,24084.357498
9700.0,2271,24397.421802
15600.0,3210,24832.693166
11800.0,2812,25210.556762
14300.0,3240,25647.771024
7800.0,2146,25944.637159
8300.0,2231,26242.6851
13400.0,3174,26679.573573
8300.0,2067,26960.164149
15200.0,3215,27388.16418
4400.0,1479,27588.174572
11200.0,2672,27955.745991
8800.0,2235,28250.442843
15400.0,3391,28722.220905
8900.0,2287,29033.873431
8400.0,2122,29324.852807
14700.0,3210,29761.240978
6800.0,1913,30013.041161
10400.0,2393,30347.98737
12800.0,2928,30744.58319
12900.0,2861,31117.588804
11500.0,2605,31460.490911
13600.0,3204,31902.886431
9400.0,2397,32228.678459
8100.0,2224,32526.990688
7800.0,2240,32836.65313
11500.0,2880,33214.501655
7400.0,2108,33498.264406
12600.0,2761,33874.280052
11000.0,2525,34214.649935
15700.0,3104,34637.592793
10500.0,2527,34978.533951
10200.0,2284,35288.826171
7400.0,1889,35543.917463
10300.0,2248,35857.259624
9900.0,2199,36158.229823
6800.0,1910,36413.371905
11900.0,2729,36778.967181
13800.0,2974,37175.293155
11500.0,2838,37575.414696
6500.0,2018,37845.629209
12500.0,2910,38234.233807
10400.0,2629,38595.544812
9600.0,2565,38943.782078
7000.0,2029,39209.897562
19000.0,3544,39694.942171
8300.0,2150,39982.555991
11300.0,2725,40346.950109
13400.0,3068,40765.601077
15500.0,3151,41189.081578
19600.0,4429,41779.353586
16500.0,3447,42246.928595
10400.0,2349,42574.185854
20000.0,4282,43153.919304
8700.0,2067,43443.862042
11500.0,2844,43829.338986
10000.0,2236,44131.631853
16700.0,3332,44579.914603
11000.0,2602,44929.519167
10400.0,2508,45270.707282
8400.0,2232,45579.78195
10000.0,2505,45935.050606
17400.0,3692,46417.197398
18900.0,3744,46927.181952
10100.0,2487,47259.601948
8800.0,2660,47618.910037
7000.0,1926,47873.694721
20000.0,3576,48347.703978
14000.0,2845,48722.751795
10200.0,2632,49067.834244
12800.0,2764,49433.157159
10200.0,2338,49749.826742
9100.0,2202,50044.381885
9900.0,2458,50383.808851
8500.0,2190,50679.760589
9500.0,2777,51037.015383
17300.0,3829,51562.647454
10200.0,2555,51901.541165
7700.0,1913,52154.859797
14600.0,3066,52571.613402
11900.0,2778,52953.837656
12500.0,2937,53350.989821
11800.0,2502,53688.050864
8800.0,2291,54004.786529
9600.0,2324,54319.061268
12500.0,2921,54712.694306
10400.0,2550,55061.520711
11100.0,2448,55392.284541
6600.0,1788,55635.363386
6500.0,2084,55918.005445
14200.0,3061,56331.691985
8900.0,2311,56644.253069
10800.0,2389,56978.236686
9500.0,2505,57312.852482
9000.0,2289,57618.663627
12300.0,2800,58007.466585
20000.0,4130,58559.514568
9500.0,2545,58899.489514
13200.0,2936,59297.18119
11000.0,2512,59632.700855
9100.0,2641,59989.448904
9600.0,2249,60292.065522
11800.0,2499,60617.03891
8200.0,2233,60933.902212
12600.0,2886,61313.051185
22800.0,4340,61893.788121
9600.0,2581,62237.063328
10800.0,2468,62571.57349
18400.0,3634,63044.37541
10300.0,2628,63391.15042
10300.0,2234,63694.607853
11600.0,2426,64025.738427
13400.0,3180,64457.816137
7500.0,2062,64738.101223
3400.0,1435,64933.466165
5400.0,1818,65185.799915
4600.0,1766,65430.664833
15400.0,3108,65842.593524
17100.0,3230,66278.650453
7700.0,1922,66530.310477
13400.0,2744,66896.671366
18900.0,3791,67416.880792
11300.0,2725,67800.153898
8700.0,2128,68080.145193
7600.0,2094,68369.106255
8500.0,1950,68636.000181
8900.0,2203,68929.379165
10000.0,2361,69252.836942
7300.0,2165,69544.774293
11300.0,2706,69911.115276
9500.0,2238,70219.298372
14800.0,3062,70651.913201
9500.0,2124,70934.190101
9600.0,2253,71239.370016
16100.0,3501,71710.724487
12100.0,2892,72106.31295
17500.0,3613,72580.818847
9200.0,2418,72909.742447
10300.0,2726,73275.880984
12400.0,2509,73616.900579
4100.0,1478,73806.484113
14200.0,3232,74248.937983
13200.0,3168,74678.760822
12900.0,2772,75066.044934
7900.0,2239,75359.125761
14900.0,3104,75768.911049
9100.0,2446,76115.464468
14300.0,3106,76525.418115
10300.0,2252,76820.649188
11900.0,2549,77167.624795
8800.0,2195,77461.610644
6900.0,2132,77742.214837
11100.0,2575,78090.221107
6000.0,1709,78285.277175
17100.0,4109,78535.073464
13100.0,2886,78716.153218
12400.0,2611,78891.740435
4400.0,1655,78997.754138
13500.0,2982,79185.741292
13800.0,3158,79381.067354
8200.0,2384,79530.801293
15400.0,3359,79738.887584
14900.0,3141,79937.237296
9700.0,2181,80074.458483
13400.0,3153,80268.492895
11600.0,2563,80428.82909
4400.0,1376,80521.094966
11100.0,2477,80675.067282
13200.0,2546,80825.741446
8300.0,2128,80953.045206
9200.0,2262,81087.938431
9500.0,2339,81229.87037
14500.0,3084,81420.61652
14400.0,3389,81622.487425
5400.0,1550,81717.27484
12600.0,2512,81866.253302
12400.0,2674,82033.465292
19100.0,3811,82269.356236
12100.0,2935,82447.57586
11500.0,2652,82605.713882
18300.0,3862,82832.875376
13000.0,3207,83022.875876
9400.0,2255,83162.913652
13000.0,2880,83335.69993
13800.0,2852,83512.149404
20600.0,3882,83747.083089
13000.0,2892,83920.928679
17100.0,3251,84124.324231
8400.0,2121,84253.184926
6200.0,1879,84366.621187
18700.0,3990,84608.986994
16100.0,3500,84817.170345
23000.0,4733,85102.015574
15900.0,3321,85302.988965
14500.0,3323,85504.037505
9900.0,2311,85640.449255
5900.0,1938,85755.489122
9500.0,2469,85905.884058
12900.0,3013,86083.015749
8000.0,2171,86214.415456
11900.0,2874,86386.06775
11700.0,2824,86566.219627
13200.0,2903,86750.415622
12900.0,2777,86934.632934
12300.0,2681,87104.993537
16400.0,3424,87309.200271
13900.0,2887,87479.774302
13600.0,2893,87654.005639
9900.0,2241,87786.411647
17200.0,3611,88001.987937
11100.0,2502,88152.838129
12100.0,2940,88327.523621
11300.0,2875,88494.35754
11400.0,2708,88660.649895
15800.0,2991,88840.30288
14300.0,3226,89034.891938
5100.0,1629,89131.635833
8400.0,2076,89253.390155
10300.0,2530,89411.186898
13500.0,2935,89585.248892
11900.0,2804,89752.625885
9400.0,2389,89900.390532
16400.0,3539,90116.152952
9000.0,2088,90247.358287
15600.0,3507,90475.081532
13000.0,2856,90660.520529
8700.0,2292,90804.579456
12100.0,2746,90982.716769
8700.0,2351,91131.601291
16700.0,3517,91350.476296
13100.0,2784,91511.394104
11800.0,2929,91689.849321
12100.0,2616,91855.434654
15200.0,3453,92061.390654
11300.0,2457,92211.264572
10700.0,2737,92372.360108
17200.0,3353,92573.393007
5600.0,1463,92663.782367
16900.0,3288,92859.455933
16800.0,3442,93064.259841
10500.0,2351,93209.680516
13700.0,3168,93397.512389
10900.0,2691,93554.044401
7200.0,2022,93678.19334
14800.0,2998,93854.082345
12200.0,2601,94015.15993
6500.0,1947,94133.881763
11200.0,2676,94291.732328
14100.0,3034,94471.745098
18400.0,3657,94687.299231
16100.0,3317,94890.134651
10700.0,2417,95034.778757
8200.0,2067,95159.795798
10600.0,2512,95309.520505
8300.0,2274,95442.644084
13700.0,3009,95625.444709
9800.0,2413,95770.215731
11100.0,2455,95920.165798
11000.0,2543,96071.073235
14300.0,2963,96251.352647
17500.0,3460,96459.354696
9500.0,2305,96599.213638
15600.0,3313,96796.638056
20200.0,3914,97035.751227
7200.0,2091,97157.485735
16200.0,3393,97360.287205
13200.0,2977,97536.743742
11800.0,2711,97695.971298
9600.0,2468,97845.764946
14300.0,3167,98033.566059
11100.0,2559,98179.691596
16700.0,3533,98396.155695
14200.0,3013,98576.183494
19200.0,3864,98802.890189
7400.0,2088,98934.716895
15300.0,3866,99166.608079
13800.0,2779,99328.014544
11500.0,2890,99483.777889
10100.0,2410,99613.660023
11000.0,2783,99759.558519
11100.0,2442,99890.514279
11000.0,2513,100022.196902
6400.0,1910,100124.58948
14000.0,3087,100292.424874
11800.0,2716,100442.656118
10100.0,2331,100564.140727
14100.0,3089,100726.538916
18700.0,3711,100937.150824
17900.0,3414,101124.922084
13200.0,2938,101284.835227
9700.0,2222,101410.342992
13900.0,2674,101560.265632
9100.0,2169,101683.196399
14300.0,2846,101847.14116
9900.0,2567,101988.643958
9100.0,2309,102116.947535
11900.0,2942,102277.7012
17300.0,3802,102482.337006
10700.0,2581,102628.685688
16000.0,3232,102802.057408
15000.0,3213,102978.448478
10200.0,2292,103108.601465
11500.0,2670,103255.746788
13100.0,2753,103402.845648
14100.0,2706,103550.253222
10900.0,2452,103687.380342
8700.0,2129,103807.955632
12700.0,2918,103965.289443
11400.0,2819,104114.189794
13600.0,2996,104275.00465
13900.0,2926,104434.753511
21400.0,3988,104659.38356
9400.0,2386,104797.108493
14500.0,3155,104973.521938
13300.0,3482,105188.249188
14000.0,2818,105351.043754
19400.0,4018,105580.654802
14800.0,2981,105755.657887
6200.0,1757,105856.336889
12800.0,2851,106020.421731
9500.0,2194,106143.916226
11200.0,2743,106302.596175
9900.0,2354,106430.404655
11000.0,2634,106579.134114
12600.0,2726,106728.137413
11600.0,2557,106876.176084
32300.0,5690,107197.412599
15100.0,3217,107383.494379
14700.0,3285,107577.453699
14400.0,2780,107732.483659
11800.0,2583,107881.263
11000.0,2507,108023.040812
16800.0,3216,108201.883658
13500.0,2956,108372.198491
15100.0,3395,108559.125282
8800.0,2368,108690.818807
23700.0,4766,108958.096711
11400.0,2980,109125.747288
15300.0,3411,109323.16509
15300.0,3293,109511.794767
10800.0,2557,109654.250819
11700.0,2604,109796.679615
15800.0,3068,109960.58399
8700.0,2101,110071.168886
14400.0,3236,110246.986609
16800.0,3665,110450.413196
9200.0,2197,110567.319014
15200.0,3205,110741.105987
13400.0,2930,110898.494745
7900.0,2055,111005.659631
18700.0,3391,111176.200672
13700.0,2954,111324.118693
14500.0,3111,111488.27403
16000.0,3214,111662.087652
12200.0,2487,111796.086555
19900.0,4296,112039.954803
11200.0,2470,112179.318948
12300.0,2663,112318.444385
13000.0,2928,112471.934076
18400.0,3848,112679.630619
9600.0,2293,112800.673894
13900.0,3189,112987.146684
18100.0,3372,113228.583849
15600.0,3253,113453.043017
15900.0,3208,113682.659729
13200.0,2508,113867.681801
14600.0,3015,114092.379507
13400.0,2956,114303.284573
23000.0,5229,114681.480562
15000.0,3032,114905.747651
25700.0,4676,115247.811222
14600.0,2942,115470.300867
21000.0,4404,115790.543806
9500.0,2131,115934.668772
16400.0,3424,116157.42815
16800.0,3584,116348.226825
