# {"t_start": 1546716396.3380992, "env_id": "AmidarNoFrameskip-v4"} 
r,l,t
11.0,618,16.716035
21.0,532,26.622378
8.0,582,38.052696
25.0,556,49.654166
46.0,650,63.461033
61.0,558,75.658082
97.0,642,90.513832
21.0,416,101.123654
32.0,575,114.94082
32.0,687,131.106118
33.0,606,144.87519
50.0,834,163.803366
50.0,695,179.543057
31.0,644,194.399786
32.0,645,209.051581
32.0,669,224.134929
42.0,537,236.182309
31.0,619,250.767076
33.0,598,264.653512
56.0,593,278.550675
73.0,796,296.668388
71.0,986,319.584374
59.0,674,334.576114
55.0,685,349.725649
45.0,593,363.163648
91.0,615,377.082692
17.0,446,387.030683
45.0,641,401.637489
45.0,597,415.041817
66.0,820,433.248806
41.0,672,448.217332
50.0,603,461.902744
25.0,493,473.249082
14.0,687,488.710466
47.0,841,507.611908
31.0,513,519.461637
102.0,677,535.708486
48.0,601,549.294787
45.0,586,562.654653
66.0,775,580.133241
50.0,620,594.003741
35.0,807,612.803138
50.0,583,625.699199
75.0,675,640.771008
27.0,498,652.387259
52.0,591,666.664841
117.0,778,684.222375
26.0,436,693.828972
45.0,617,707.840184
53.0,633,722.363238
81.0,975,744.365031
51.0,711,760.657197
16.0,645,775.814242
46.0,709,792.167131
12.0,434,802.132571
43.0,474,812.766949
52.0,711,828.861794
36.0,515,840.212065
69.0,808,858.506796
37.0,570,871.186823
86.0,792,889.130245
51.0,744,905.818385
31.0,537,917.744186
41.0,777,935.963448
41.0,750,954.468116
12.0,485,966.4334
148.0,981,989.224643
34.0,562,1002.084964
43.0,456,1012.003127
38.0,484,1022.731506
55.0,767,1039.953535
20.0,542,1051.975308
11.0,674,1067.322388
24.0,719,1084.775933
43.0,640,1099.344385
13.0,497,1110.461018
56.0,732,1127.149177
69.0,1025,1150.837791
31.0,588,1164.547875
64.0,601,1177.707267
53.0,707,1193.606812
40.0,500,1205.012035
66.0,617,1218.677838
45.0,582,1232.095745
69.0,870,1251.490659
48.0,617,1265.637763
58.0,812,1284.492413
66.0,831,1303.29683
93.0,1041,1327.544798
107.0,933,1348.718957
51.0,707,1364.657336
51.0,774,1382.62358
21.0,486,1393.446518
18.0,797,1411.136315
26.0,746,1427.768877
30.0,542,1439.846664
21.0,511,1451.337413
53.0,748,1468.223672
65.0,856,1488.446321
99.0,841,1507.955532
55.0,766,1525.60537
29.0,476,1536.423894
42.0,665,1551.170154
62.0,661,1566.132454
26.0,432,1576.042481
34.0,605,1589.828545
26.0,402,1599.01742
83.0,721,1615.219822
54.0,798,1633.148386
12.0,608,1646.796257
37.0,655,1661.662435
85.0,537,1673.829558
72.0,930,1694.543635
79.0,853,1713.933148
45.0,576,1726.850867
72.0,634,1741.510672
81.0,843,1761.395134
72.0,615,1775.524024
65.0,681,1791.688698
57.0,1021,1815.57187
56.0,734,1831.657065
53.0,820,1850.644333
63.0,695,1867.083025
69.0,735,1883.943459
65.0,901,1904.299153
98.0,935,1925.313698
75.0,1021,1948.229238
57.0,784,1966.787195
88.0,708,1983.230985
91.0,878,2004.666884
94.0,838,2025.13328
67.0,688,2041.379917
83.0,1149,2067.713267
124.0,862,2086.930322
116.0,1303,2116.224042
115.0,856,2135.255274
96.0,629,2150.444879
49.0,559,2163.098598
45.0,586,2176.280117
51.0,562,2188.777202
46.0,613,2202.521389
50.0,566,2215.150524
20.0,559,2227.607564
49.0,635,2242.053198
48.0,607,2255.764925
42.0,735,2272.538412
40.0,566,2285.36207
52.0,653,2300.154701
29.0,679,2316.383453
52.0,665,2332.846708
52.0,795,2351.660136
51.0,635,2366.466171
55.0,796,2384.630359
105.0,858,2404.302048
71.0,550,2416.756851
101.0,1256,2445.190055
77.0,1249,2473.368907
44.0,1004,2495.782708
42.0,579,2509.455753
37.0,624,2523.876116
42.0,607,2537.586189
70.0,700,2553.343596
47.0,509,2564.685441
38.0,567,2577.456908
65.0,707,2593.353107
50.0,874,2613.981296
48.0,466,2624.200216
46.0,697,2640.163136
46.0,693,2655.994318
53.0,592,2669.659837
117.0,777,2687.050608
90.0,834,2705.786074
203.0,1116,2730.694103
55.0,879,2750.329539
131.0,1289,2780.093131
79.0,718,2796.116212
55.0,808,2815.107935
145.0,851,2835.605322
174.0,1042,2860.44541
191.0,861,2880.312819
122.0,970,2901.869297
138.0,846,2921.167532
102.0,1049,2944.984387
40.0,484,2956.08748
121.0,726,2972.417221
147.0,790,2990.367981
85.0,723,3006.48524
42.0,664,3021.636672
115.0,831,3040.541819
99.0,1019,3063.18301
60.0,809,3082.169387
68.0,816,3100.243989
38.0,620,3114.530358
32.0,670,3129.654064
23.0,539,3141.910718
28.0,698,3157.762354
23.0,458,3167.78749
22.0,501,3178.988901
130.0,938,3199.904473
163.0,806,3217.858898
98.0,572,3231.637573
76.0,680,3247.783026
77.0,773,3265.321902
117.0,681,3280.267437
72.0,939,3301.440309
77.0,795,3319.710842
80.0,704,3335.690867
78.0,983,3357.613539
110.0,1290,3387.005472
56.0,840,3406.643043
78.0,811,3425.37384
76.0,944,3447.593087
160.0,852,3466.879997
86.0,867,3486.658078
103.0,776,3504.09778
76.0,950,3525.65887
138.0,1137,3551.358191
77.0,757,3568.173354
53.0,975,3591.477334
67.0,898,3612.975186
117.0,1610,3649.518612
100.0,1008,3672.951479
137.0,894,3693.795102
80.0,901,3714.276569
71.0,1062,3738.285071
190.0,1001,3761.500417
204.0,982,3784.077857
47.0,515,3795.905052
91.0,633,3810.062731
107.0,824,3829.268147
70.0,622,3843.226304
76.0,731,3859.711382
71.0,1129,3885.73333
74.0,644,3900.254253
79.0,757,3917.518422
122.0,795,3935.94625
73.0,614,3949.603873
139.0,1047,3972.957657
72.0,854,3991.728986
86.0,1028,4016.718131
73.0,633,4032.446459
88.0,795,4051.094573
70.0,718,4069.110293
93.0,899,4089.964573
111.0,1283,4119.700809
159.0,1226,4147.943184
95.0,1178,4174.486265
61.0,1067,4198.77419
148.0,852,4217.675483
38.0,604,4231.105142
67.0,873,4250.685094
64.0,856,4269.852355
43.0,713,4287.088545
81.0,932,4309.522989
63.0,884,4329.444987
104.0,808,4347.976156
95.0,1064,4371.852281
85.0,808,4390.310275
31.0,665,4405.120504
62.0,604,4418.725994
53.0,640,4432.911119
48.0,702,4448.945861
41.0,596,4462.694335
28.0,570,4476.927318
40.0,605,4491.18223
63.0,677,4507.164487
2.0,757,4525.039047
46.0,699,4541.22778
19.0,490,4552.890473
15.0,479,4563.811681
24.0,764,4581.768577
37.0,612,4596.647808
93.0,787,4615.409858
29.0,545,4628.353694
25.0,1071,4653.570032
49.0,735,4670.171615
54.0,940,4691.855971
84.0,762,4708.775046
106.0,1057,4732.187946
105.0,925,4753.214996
106.0,997,4776.07623
129.0,976,4798.527832
2.0,649,4813.431991
2.0,776,4831.13159
2.0,614,4845.065778
2.0,478,4856.224741
2.0,760,4873.162416
2.0,757,4890.161404
2.0,765,4907.22357
2.0,499,4918.343065
8.0,684,4933.460752
33.0,1178,4960.224298
33.0,836,4979.422393
81.0,565,4991.959361
22.0,539,5004.417273
102.0,844,5024.114474
237.0,1039,5048.741631
186.0,995,5072.016063
115.0,1271,5100.902158
82.0,933,5122.150582
97.0,1248,5150.316746
171.0,1041,5173.961772
95.0,920,5194.589126
74.0,1187,5222.69625
140.0,1511,5259.904559
414.0,1312,5290.45715
111.0,1215,5317.623702
108.0,1332,5348.326122
116.0,848,5367.14533
160.0,1188,5394.252245
85.0,731,5410.575809
59.0,1088,5435.530291
165.0,1177,5462.031219
78.0,932,5483.729792
164.0,888,5504.280408
88.0,983,5526.48748
81.0,867,5545.878204
85.0,698,5561.675979
90.0,902,5582.11029
88.0,786,5600.198888
88.0,1075,5624.70783
197.0,1010,5648.007606
96.0,800,5666.120127
99.0,1060,5689.676181
148.0,986,5712.645942
224.0,1264,5743.160893
174.0,1011,5767.833053
109.0,860,5787.656897
124.0,820,5806.20708
218.0,1077,5830.940256
108.0,811,5849.432683
115.0,949,5870.501722
65.0,854,5889.587914
90.0,591,5902.811107
104.0,783,5920.55891
148.0,727,5936.887564
130.0,1011,5959.501221
169.0,800,5978.139995
188.0,1183,6005.547466
217.0,1034,6029.880564
85.0,965,6051.842779
85.0,959,6073.22822
56.0,733,6090.189281
33.0,509,6102.261316
40.0,513,6114.517803
222.0,1050,6139.330202
67.0,917,6159.700066
141.0,955,6181.336989
127.0,740,6197.899053
116.0,997,6221.227115
184.0,1290,6251.224086
137.0,966,6273.123725
279.0,1647,6310.919929
216.0,1117,6335.949903
154.0,1209,6363.023125
115.0,1319,6392.66767
102.0,877,6412.130538
68.0,1012,6435.651277
46.0,987,6458.513256
126.0,884,6478.458546
90.0,1128,6503.813473
158.0,1342,6534.424999
153.0,1337,6564.703793
95.0,1126,6590.771455
113.0,918,6612.626135
226.0,1093,6637.737986
262.0,1696,6678.334481
41.0,667,6693.657749
201.0,1202,6720.758615
234.0,1400,6752.37135
278.0,1362,6783.440069
84.0,517,6794.84721
211.0,1159,6820.79737
168.0,958,6842.027565
149.0,1064,6866.044151
43.0,464,6876.574636
159.0,1277,6906.074563
128.0,967,6928.040777
95.0,896,6948.573685
170.0,1262,6977.676108
28.0,651,6992.305424
26.0,641,7007.111812
29.0,784,7025.196206
86.0,706,7040.636684
29.0,755,7058.014689
85.0,789,7076.044126
30.0,770,7094.705257
123.0,1293,7124.939969
107.0,979,7147.224607
104.0,1084,7171.894526
82.0,965,7195.020057
94.0,893,7216.048064
133.0,1030,7241.009681
137.0,1158,7269.753209
219.0,1502,7303.75054
306.0,1423,7335.528005
89.0,621,7349.351439
162.0,1350,7379.777395
258.0,1488,7414.400499
77.0,992,7436.856694
150.0,1125,7462.303904
202.0,1083,7486.562386
94.0,1189,7514.486785
146.0,960,7538.069715
156.0,988,7561.13241
97.0,908,7582.481128
133.0,1103,7607.609676
85.0,1039,7631.886258
91.0,973,7654.601627
140.0,1039,7679.410785
186.0,1002,7702.939052
303.0,1251,7732.098588
88.0,931,7753.977154
145.0,1311,7784.825977
88.0,958,7807.032006
84.0,939,7828.092047
88.0,928,7849.107188
197.0,1149,7875.134857
159.0,828,7894.49676
92.0,1031,7917.546752
85.0,922,7938.411502
202.0,1356,7969.073047
167.0,1382,8000.16548
273.0,1418,8032.005012
138.0,1242,8061.194721
88.0,1150,8087.915517
107.0,1190,8114.844606
108.0,1265,8144.031361
163.0,1134,8170.903822
148.0,1144,8196.931038
92.0,1200,8223.897457
193.0,1190,8251.043575
80.0,790,8268.946127
91.0,903,8289.913383
152.0,1200,8317.508645
99.0,926,8338.412773
59.0,817,8357.110094
40.0,716,8373.102683
44.0,775,8390.500865
44.0,700,8406.871558
92.0,730,8423.71243
89.0,751,8441.700023
59.0,609,8455.36991
94.0,723,8471.659561
48.0,545,8484.381594
172.0,905,8506.104764
49.0,563,8518.880032
197.0,986,8540.808796
177.0,874,8560.412623
243.0,974,8582.217739
286.0,943,8603.539624
99.0,786,8621.973606
129.0,898,8643.166917
141.0,941,8665.320741
141.0,908,8685.85204
103.0,972,8707.406107
139.0,1083,8732.240602
68.0,493,8743.229525
79.0,808,8762.029279
135.0,864,8782.121301
148.0,1331,8812.550854
135.0,799,8830.273376
64.0,625,8844.437181
236.0,1009,8867.437342
154.0,1163,8893.955694
118.0,1059,8918.187451
130.0,1058,8941.821951
70.0,953,8964.064133
124.0,847,8983.29451
138.0,940,9004.451033
91.0,884,9024.381538
150.0,1184,9050.907368
150.0,1072,9075.344605
33.0,668,9090.377051
22.0,533,9102.562437
21.0,550,9115.023283
21.0,555,9127.381806
23.0,649,9142.910406
23.0,483,9154.504338
21.0,494,9166.582679
23.0,480,9177.697988
23.0,485,9188.881752
23.0,487,9199.856169
23.0,485,9210.805161
23.0,487,9221.7001
23.0,481,9232.735348
23.0,485,9243.614608
23.0,482,9254.547541
33.0,628,9268.362832
64.0,741,9285.285156
81.0,556,9297.563697
25.0,592,9311.109397
22.0,618,9325.331251
24.0,726,9341.876083
24.0,810,9361.438015
24.0,768,9378.924222
22.0,623,9392.811989
24.0,666,9407.861339
76.0,808,9426.540321
62.0,896,9447.55681
128.0,908,9468.696981
146.0,1407,9502.068656
42.0,609,9515.919481
35.0,537,9528.889831
65.0,732,9546.810293
65.0,676,9562.74139
65.0,711,9578.968219
127.0,976,9600.787295
77.0,910,9621.39664
125.0,842,9640.391319
120.0,901,9660.983207
127.0,743,9677.486193
124.0,692,9692.83671
127.0,746,9710.050353
129.0,867,9729.617463
142.0,1213,9757.96827
126.0,1249,9787.845034
179.0,1197,9815.483517
177.0,1043,9839.328612
85.0,819,9858.5234
67.0,819,9877.251121
127.0,769,9895.099355
80.0,1092,9920.265293
69.0,1063,9944.691529
75.0,1074,9968.933035
118.0,1319,9998.936734
166.0,1064,10023.903045
67.0,1066,10048.297842
117.0,905,10068.994241
130.0,947,10090.356709
73.0,929,10111.738061
64.0,773,10129.026464
66.0,796,10147.627116
122.0,984,10169.912378
176.0,1047,10194.22237
155.0,1231,10222.126881
203.0,1366,10253.707872
162.0,1165,10280.219837
155.0,1136,10305.463295
163.0,1184,10332.569452
220.0,1403,10365.42086
192.0,1631,10402.732083
229.0,1501,10436.800398
114.0,1180,10463.88629
181.0,1181,10490.916447
211.0,1277,10520.613209
172.0,1206,10548.379074
253.0,1139,10574.402085
139.0,948,10596.002246
271.0,1589,10633.052374
221.0,1428,10666.33337
303.0,1432,10701.859668
263.0,1224,10730.907427
144.0,901,10751.829468
339.0,1596,10790.333194
211.0,1456,10824.215575
137.0,858,10843.234536
175.0,1155,10870.261245
145.0,1254,10898.764287
93.0,941,10919.642262
145.0,1063,10944.742089
145.0,1080,10968.857351
81.0,755,10985.748605
89.0,934,11006.812953
88.0,855,11026.998657
80.0,714,11043.958807
67.0,680,11059.477307
77.0,744,11077.270313
80.0,725,11093.647894
80.0,710,11109.236024
80.0,717,11125.541256
88.0,950,11147.711866
78.0,898,11168.378778
88.0,1029,11191.62299
81.0,911,11212.532337
86.0,1014,11236.308038
74.0,790,11254.294977
61.0,659,11269.192616
59.0,737,11285.820604
48.0,609,11299.994615
17.0,456,11310.000801
17.0,453,11320.230068
48.0,599,11334.061076
49.0,1023,11357.97315
45.0,828,11376.981986
49.0,974,11399.007766
48.0,972,11420.723205
49.0,725,11436.781925
51.0,719,11453.403401
49.0,720,11470.58844
49.0,716,11487.355535
49.0,713,11505.094758
48.0,716,11522.608571
48.0,719,11539.894607
49.0,719,11557.346107
51.0,703,11574.032941
52.0,679,11590.96355
51.0,842,11611.253542
51.0,692,11627.331822
58.0,845,11646.05606
60.0,745,11662.678969
60.0,748,11679.862049
60.0,743,11696.651804
60.0,784,11715.106857
62.0,739,11732.010399
62.0,774,11750.486912
66.0,753,11767.495219
49.0,1032,11790.912911
66.0,753,11807.977885
60.0,944,11829.566044
90.0,1193,11857.031331
51.0,642,11872.267735
49.0,727,11889.634618
96.0,825,11909.141299
98.0,814,11929.273927
62.0,847,11948.663136
100.0,782,11966.533986
58.0,697,11982.763892
55.0,725,11999.071831
70.0,820,12018.252012
62.0,868,12037.543555
87.0,974,12059.574862
58.0,780,12077.278735
85.0,862,12096.795559
73.0,822,12116.150596
100.0,864,12137.183476
187.0,1070,12162.096991
85.0,823,12181.979803
145.0,912,12203.230875
79.0,552,12215.748934
79.0,549,12227.929144
115.0,821,12246.385807
167.0,884,12266.952836
102.0,820,12286.58727
29.0,564,12299.726625
29.0,574,12312.582741
150.0,779,12330.139501
162.0,832,12348.814157
72.0,875,12368.063703
228.0,1503,12402.598801
85.0,868,12422.639151
74.0,881,12442.759342
87.0,865,12462.108018
139.0,1055,12486.981386
140.0,1028,12510.602489
137.0,882,12530.512318
137.0,1004,12553.222913
192.0,1075,12578.332627
107.0,691,12594.33881
66.0,782,12612.347173
76.0,844,12631.824693
77.0,743,12649.114812
66.0,633,12663.978379
130.0,999,12686.283551
157.0,1148,12712.618536
113.0,1223,12740.14698
147.0,1055,12764.177846
97.0,1131,12791.149421
28.0,593,12804.468964
152.0,930,12825.573508
151.0,910,12846.360851
155.0,1305,12875.765486
317.0,1164,12902.542521
214.0,1541,12938.548624
110.0,977,12960.56573
177.0,1398,12991.825229
84.0,709,13007.948866
97.0,897,13028.057294
87.0,718,13043.945566
143.0,941,13065.497116
265.0,1736,13105.346786
154.0,963,13127.580585
75.0,881,13147.359047
168.0,1069,13171.456467
193.0,1353,13201.912735
121.0,1016,13226.094843
102.0,1253,13254.672882
104.0,729,13271.587787
106.0,917,13292.933495
66.0,989,13315.022086
74.0,675,13329.965102
70.0,711,13346.052899
193.0,1346,13377.447152
133.0,866,13396.98351
131.0,898,13417.542432
82.0,743,13434.337862
56.0,564,13447.029973
105.0,836,13466.237469
92.0,910,13486.677612
136.0,965,13508.317833
87.0,895,13528.805054
90.0,1207,13556.014131
59.0,736,13573.374094
56.0,675,13588.527393
57.0,738,13605.8158
56.0,784,13623.419003
112.0,863,13643.035705
112.0,803,13660.995818
112.0,765,13678.497928
57.0,804,13696.956441
57.0,765,13714.207313
57.0,880,13733.991766
55.0,735,13750.890249
57.0,780,13769.125118
55.0,728,13785.698372
57.0,780,13803.302027
62.0,1070,13827.880279
68.0,1198,13855.220471
165.0,946,13876.485041
62.0,1214,13904.979014
115.0,1279,13934.80108
57.0,797,13953.984709
62.0,1064,13978.120136
51.0,1067,14002.228864
37.0,549,14014.387317
53.0,852,14034.052422
53.0,851,14053.152428
57.0,805,14071.970445
57.0,810,14090.656772
57.0,803,14108.904554
53.0,853,14128.34631
161.0,768,14145.625088
115.0,814,14164.284053
128.0,1016,14188.814219
119.0,851,14210.028542
67.0,887,14230.224048
121.0,947,14251.855372
185.0,1397,14283.661197
180.0,1065,14307.761079
181.0,1088,14332.045136
191.0,1029,14355.666218
334.0,1356,14386.417161
83.0,1069,14410.462367
174.0,748,14427.730784
86.0,711,14443.962936
36.0,530,14456.112815
81.0,712,14473.148721
122.0,875,14493.23743
149.0,1003,14516.808012
160.0,1317,14547.456585
105.0,901,14568.149351
209.0,1142,14595.406423
122.0,1213,14623.973594
176.0,1067,14648.259806
170.0,793,14666.100082
186.0,1162,14692.717611
57.0,767,14709.964752
229.0,1109,14735.396389
241.0,1146,14761.683815
127.0,978,14783.961197
114.0,833,14803.168919
164.0,810,14822.402544
180.0,796,14841.389086
164.0,839,14861.365561
29.0,420,14870.771998
119.0,854,14890.903654
121.0,1103,14917.133484
181.0,1050,14942.358253
174.0,1098,14969.566917
178.0,1402,15002.233006
184.0,980,15023.952487
135.0,1021,15047.026295
177.0,1278,15076.461982
167.0,757,15093.574065
277.0,927,15114.882915
124.0,856,15134.778588
175.0,793,15152.614677
179.0,865,15172.394891
180.0,888,15191.899664
30.0,761,15209.16781
30.0,833,15228.600436
123.0,973,15251.074165
90.0,592,15265.544751
109.0,729,15282.715253
89.0,579,15296.324371
90.0,576,15310.071648
104.0,719,15326.661287
135.0,623,15341.220683
122.0,714,15357.457351
136.0,1080,15381.780594
228.0,1085,15406.636673
210.0,851,15426.755574
170.0,702,15442.479885
189.0,1108,15468.135627
123.0,875,15488.094888
169.0,770,15505.37504
97.0,674,15521.564787
255.0,1124,15547.105878
233.0,1174,15573.345179
280.0,949,15595.644033
231.0,1033,15618.772126
216.0,1157,15644.733851
184.0,936,15665.687871
145.0,1198,15692.799891
82.0,882,15713.021585
92.0,827,15731.856336
92.0,982,15754.742929
87.0,786,15772.146025
86.0,754,15789.034244
118.0,878,15808.964676
118.0,867,15829.084162
117.0,872,15848.305376
140.0,543,15860.415753
134.0,948,15882.3777
141.0,1142,15909.327668
87.0,634,15923.923721
146.0,1144,15949.37453
78.0,599,15963.567702
248.0,645,15978.871328
291.0,1916,16025.540282
100.0,695,16042.084435
236.0,1171,16068.657267
155.0,1067,16092.719788
149.0,718,16108.885201
27.0,645,16124.069343
154.0,774,16143.232486
106.0,1050,16167.771149
187.0,1212,16195.461892
187.0,1013,16218.10857
138.0,828,16236.353627
236.0,980,16259.354499
187.0,975,16281.104846
129.0,761,16297.966032
187.0,1441,16330.804993
236.0,952,16352.982875
235.0,1235,16380.312904
187.0,1165,16406.425271
187.0,1160,16432.583237
187.0,968,16455.828282
238.0,975,16477.530324
180.0,810,16495.962471
187.0,1023,16518.959313
187.0,1130,16545.050287
187.0,1296,16575.664588
188.0,1338,16606.182882
188.0,1228,16633.880954
198.0,1154,16659.978248
310.0,1676,16697.516752
274.0,1359,16728.153596
215.0,1266,16757.620486
193.0,971,16780.701736
205.0,1231,16811.17078
210.0,1391,16844.490977
274.0,1475,16878.801738
248.0,909,16900.294973
301.0,1054,16925.046805
170.0,1053,16949.109743
210.0,880,16969.621443
207.0,1015,16993.42058
95.0,609,17007.046122
155.0,747,17023.632104
199.0,1644,17061.272218
297.0,1329,17091.182816
216.0,1305,17121.844855
171.0,1086,17147.449551
236.0,1524,17181.612766
205.0,1453,17214.114981
366.0,1378,17245.157175
144.0,962,17267.207674
225.0,1071,17292.048526
214.0,1229,17320.293555
366.0,1737,17359.526975
275.0,1432,17391.491242
275.0,1329,17421.320125
325.0,1542,17457.335901
280.0,1239,17486.20205
280.0,1311,17516.035471
276.0,1274,17544.54395
285.0,1371,17575.666803
332.0,1637,17612.230858
276.0,1224,17639.839995
222.0,1005,17662.825723
330.0,1748,17703.877064
228.0,1389,17735.843252
173.0,1031,17759.996034
334.0,1449,17792.732098
282.0,1365,17823.940054
275.0,1409,17855.689912
106.0,716,17871.543176
155.0,874,17892.428494
267.0,1259,17922.007487
211.0,1064,17945.93746
211.0,1098,17970.546022
211.0,1097,17994.871845
211.0,1160,18020.92336
211.0,1192,18048.267195
179.0,957,18070.661109
178.0,988,18092.882098
179.0,960,18115.701819
170.0,759,18133.614594
75.0,889,18155.05482
132.0,847,18175.392065
150.0,974,18199.063697
191.0,1074,18222.89442
211.0,1072,18247.509491
191.0,1005,18270.290138
309.0,1336,18300.143225
320.0,1244,18328.568147
226.0,1283,18357.859183
275.0,1191,18385.427229
225.0,1122,18412.20075
174.0,892,18433.256183
275.0,1238,18461.143657
259.0,1312,18490.931419
308.0,1712,18529.699722
200.0,1139,18555.756257
219.0,1065,18580.935421
277.0,1189,18607.367421
260.0,1071,18631.548892
103.0,864,18651.43477
260.0,1060,18676.335424
259.0,1066,18700.269978
269.0,1198,18727.234632
135.0,782,18745.586427
262.0,970,18767.509559
260.0,1093,18791.92064
256.0,950,18813.214094
224.0,1150,18838.936268
162.0,872,18858.508959
250.0,1023,18882.217147
309.0,1239,18910.836098
273.0,1156,18937.541725
201.0,1057,18962.385705
152.0,1019,18986.353043
187.0,1022,19009.46351
216.0,1228,19037.135291
235.0,1033,19060.557776
130.0,1085,19086.257969
130.0,1059,19110.691183
180.0,1152,19137.83676
180.0,1157,19164.393267
229.0,1187,19191.40075
376.0,1851,19235.478193
325.0,1301,19265.714898
284.0,1356,19296.224281
316.0,1208,19323.418742
273.0,1280,19352.264949
274.0,1471,19385.920879
269.0,1310,19416.509434
324.0,1353,19447.074518
323.0,1512,19481.466094
325.0,1316,19511.053459
324.0,1224,19539.079577
318.0,1310,19569.639781
244.0,1209,19597.954947
317.0,1378,19628.960485
313.0,1356,19660.102666
374.0,1313,19690.327731
374.0,1191,19717.257965
316.0,1183,19743.915066
325.0,1311,19773.946575
325.0,1201,19801.056356
292.0,1186,19827.820302
162.0,1059,19852.614501
329.0,1333,19882.740405
162.0,908,19903.354303
220.0,1030,19926.856756
286.0,1025,19950.002437
324.0,1488,19986.11691
289.0,1619,20025.091726
232.0,1100,20050.539451
276.0,1524,20085.289495
318.0,1575,20120.564507
196.0,1196,20149.371583
309.0,1282,20179.571074
266.0,1110,20205.379361
309.0,1304,20234.613192
228.0,825,20254.182581
262.0,1326,20283.975294
234.0,1196,20312.513355
261.0,1280,20342.316648
207.0,1066,20366.448904
262.0,1380,20397.642465
260.0,1266,20425.907552
266.0,1110,20450.856701
313.0,1611,20486.730057
315.0,1345,20518.350778
278.0,1482,20552.969873
317.0,1208,20582.071295
317.0,1160,20608.208464
324.0,1131,20633.248359
261.0,1118,20658.884854
204.0,1064,20683.095396
228.0,808,20701.030808
229.0,802,20719.56742
276.0,1201,20746.493907
238.0,833,20765.630582
235.0,815,20784.563677
240.0,819,20803.084326
240.0,801,20821.611142
239.0,818,20840.767827
346.0,1011,20863.75466
227.0,1408,20895.49405
164.0,982,20917.518444
289.0,901,20937.866724
213.0,1156,20965.090072
270.0,1368,20996.757912
326.0,1243,21024.965781
335.0,1280,21054.338521
283.0,1080,21078.896367
277.0,1361,21110.026033
282.0,1094,21134.677406
282.0,1070,21158.593681
283.0,1451,21191.432228
261.0,1202,21218.397088
164.0,1357,21249.03954
282.0,1359,21281.613088
234.0,1621,21317.883921
260.0,1236,21346.895686
235.0,1297,21378.689003
270.0,1298,21409.471889
284.0,1612,21446.213258
283.0,1354,21476.961919
283.0,1357,21507.499789
262.0,1254,21536.218288
284.0,1614,21572.649045
282.0,1351,21602.88877
260.0,1425,21635.995054
261.0,1231,21663.660244
264.0,1268,21692.820711
187.0,628,21706.956687
185.0,849,21726.419712
240.0,818,21745.513933
196.0,997,21768.820225
309.0,1545,21804.900887
240.0,880,21826.355986
262.0,1245,21856.074314
330.0,1440,21889.041963
331.0,1635,21926.480316
239.0,1206,21953.70505
323.0,1163,21980.784718
274.0,1099,22006.140048
331.0,1336,22037.889684
381.0,2050,22086.062073
332.0,1654,22126.557712
375.0,1514,22163.192947
310.0,1416,22196.963659
224.0,1169,22225.988996
324.0,1548,22263.324995
333.0,1858,22306.895377
324.0,1275,22335.806511
274.0,1119,22361.319942
282.0,1561,22397.505054
374.0,1472,22431.847717
282.0,1272,22461.749666
289.0,1206,22489.540672
380.0,1510,22523.871397
429.0,1389,22555.396171
333.0,1347,22586.165499
428.0,1728,22625.917165
78.0,876,22645.635379
180.0,917,22666.20711
314.0,1216,22694.488927
320.0,1339,22726.020544
323.0,1229,22755.166178
229.0,1280,22786.051241
306.0,1431,22821.061043
233.0,1230,22850.395392
174.0,1126,22876.035386
130.0,1028,22900.387713
93.0,729,22917.538702
88.0,1050,22941.617838
177.0,731,22958.772432
180.0,803,22978.182499
174.0,1084,23002.640409
125.0,1087,23027.351466
174.0,1072,23051.443143
174.0,1048,23075.184432
169.0,1025,23098.017421
173.0,1084,23123.045448
175.0,1464,23155.663307
225.0,1357,23186.906071
195.0,882,23206.821331
180.0,795,23224.432526
126.0,1157,23251.487464
224.0,1362,23282.826967
230.0,1168,23309.79894
245.0,1149,23337.31442
253.0,1356,23369.368716
155.0,977,23391.49577
156.0,1112,23417.42668
195.0,854,23436.772885
156.0,1078,23461.785818
156.0,1096,23486.680778
156.0,997,23509.074488
231.0,1588,23545.582029
267.0,1277,23575.223041
204.0,1094,23599.875284
107.0,1008,23622.239
253.0,1021,23644.822853
205.0,1006,23667.272191
157.0,1000,23690.764578
156.0,1015,23713.781461
199.0,772,23731.432044
156.0,1174,23758.653778
118.0,1168,23784.897793
157.0,1238,23812.733413
156.0,976,23834.466594
204.0,1007,23857.381219
261.0,1230,23885.245236
267.0,1033,23908.934701
255.0,958,23930.325858
273.0,1162,23956.755295
245.0,927,23978.200659
223.0,1138,24004.45612
223.0,1131,24032.043939
245.0,960,24055.087132
323.0,1411,24089.120142
205.0,983,24111.592726
272.0,1597,24148.22642
272.0,1090,24175.287323
281.0,1424,24207.94358
281.0,1306,24238.468396
281.0,1530,24274.216078
281.0,1481,24308.274616
281.0,1268,24337.247753
281.0,1628,24374.920532
281.0,1627,24412.698781
282.0,1642,24451.159286
281.0,1477,24484.363911
191.0,1012,24506.756365
262.0,1166,24534.247787
330.0,1251,24563.579895
218.0,1158,24590.601552
223.0,1009,24613.248968
277.0,1216,24641.842007
278.0,1205,24670.64954
330.0,1235,24699.780703
326.0,1274,24728.722872
329.0,1239,24758.587669
330.0,1229,24786.917664
241.0,1168,24814.075968
284.0,1347,24845.587912
288.0,1347,24876.335728
330.0,1189,24904.06203
281.0,1521,24940.265501
271.0,1149,24968.182917
330.0,1270,24997.507799
270.0,1071,25023.081042
330.0,1744,25062.019667
272.0,1115,25087.24564
223.0,1010,25110.313412
223.0,1124,25135.475734
272.0,1137,25162.424649
272.0,1133,25189.423119
223.0,991,25212.066865
271.0,1108,25237.641962
331.0,1293,25267.766974
326.0,1165,25294.356876
330.0,1261,25322.930003
325.0,1410,25355.903447
330.0,1615,25393.260134
272.0,1143,25418.716926
330.0,1372,25449.524205
314.0,1104,25474.681813
330.0,1247,25502.298835
271.0,1106,25527.888052
272.0,1064,25552.342134
225.0,1041,25576.1633
278.0,1213,25603.533118
327.0,1288,25633.267305
223.0,1047,25656.88747
333.0,1515,25690.872864
170.0,1077,25715.158666
380.0,1665,25754.047369
330.0,1261,25783.562556
281.0,1216,25812.158639
380.0,1362,25842.999833
380.0,1282,25872.23391
154.0,1058,25896.350935
379.0,1248,25924.206872
380.0,1496,25959.292112
430.0,1300,25988.343478
330.0,1674,26026.323556
432.0,1851,26069.261477
378.0,1593,26106.022525
147.0,845,26125.29019
285.0,1449,26157.50909
341.0,1433,26189.549436
278.0,1091,26214.597065
285.0,1398,26247.799957
432.0,1735,26287.386022
428.0,1258,26315.628763
151.0,964,26337.674129
428.0,1484,26371.04177
381.0,1580,26408.167361
330.0,1527,26443.599662
281.0,1221,26470.885542
329.0,1695,26509.589507
378.0,1400,26542.560896
330.0,1472,26577.443144
379.0,1701,26617.629457
380.0,1690,26657.497305
375.0,1365,26688.164914
430.0,1252,26716.116569
324.0,1100,26742.136651
380.0,1516,26776.69506
383.0,1424,26809.253245
380.0,1348,26839.646214
329.0,1738,26879.733663
390.0,1722,26919.161382
383.0,1501,26954.354284
341.0,1310,26984.797663
333.0,1091,27009.946804
380.0,1327,27040.948973
391.0,1606,27077.856917
390.0,1830,27120.957625
437.0,1261,27149.643356
282.0,1101,27174.772959
325.0,1325,27205.95666
439.0,1495,27239.66116
387.0,1279,27269.176548
388.0,1294,27298.735743
440.0,1524,27333.671236
436.0,1728,27373.966776
488.0,1568,27410.020944
390.0,1645,27448.766219
390.0,1246,27477.766148
384.0,1289,27507.010289
439.0,1538,27542.391221
491.0,1493,27576.45705
439.0,1546,27611.083122
439.0,1503,27645.392148
378.0,1473,27679.097669
487.0,1642,27715.3184
436.0,1528,27747.450983
492.0,1517,27778.625931
441.0,1517,27810.868879
493.0,1525,27842.263368
497.0,1554,27875.343437
284.0,1469,27904.897547
444.0,1519,27934.620749
545.0,1597,27965.656856
449.0,1579,27996.977069
492.0,1525,28025.280456
444.0,1592,28053.5349
400.0,1604,28082.599468
343.0,1579,28111.655246
444.0,1596,28140.254876
444.0,1593,28167.710459
497.0,1592,28195.211796
497.0,1747,28225.777409
497.0,1590,28253.115015
444.0,1597,28279.953413
444.0,1518,28304.831154
449.0,1623,28331.285309
496.0,1571,28356.811055
400.0,1591,28382.841792
444.0,1537,28407.861517
449.0,1571,28433.671355
400.0,1589,28459.729322
497.0,1705,28488.739135
497.0,1716,28517.298424
282.0,1043,28534.363396
493.0,1483,28558.618804
443.0,1553,28584.314905
493.0,1572,28610.100456
449.0,1595,28636.091645
396.0,1603,28662.214608
